{
    "dcr_id": "1515506841473",
    "lang": "en",
    "type_name": "intra-intra/news-nouv",
    "approvalsadvisor": "ricky.lee@agr.gc.ca",
    "approvalsdirector": "michel.lessard@canada.ca",
    "submitername": "Austin Mowat",
    "submiteremail": "austin.mowat@agr.gc.ca",
    "submiterphoneNumber": "613-773-2317",
    "issued": "2018-01-11",
    "translateReqNumber": "null"
}