{
    "dcr_id": "1515507309044",
    "lang": "en",
    "type_name": "intra-intra/news-nouv",
    "approvalsadvisor": "stela.susic@canada.ca",
    "approvalsdirector": "Mario.Gaulin@canada.ca",
    "submitername": "stela susic",
    "submiteremail": "stela.susic@canada.ca",
    "submiterphoneNumber": "613-773-3519",
    "issued": "2018-01-11",
    "translateReqNumber": "null"
}