{
    "dcr_id": "1516639398762",
    "lang": "en",
    "type_name": "intra-intra/news-nouv",
    "approvalsadvisor": "stela.susic@canada.ca",
    "approvalsdirector": "heather.earle@canada.ca",
    "submitername": "Nancy Gilbert",
    "submiteremail": "nancy.gilbert@agr.gc.ca",
    "submiterphoneNumber": "613-716-4788",
    "issued": "2018-01-23",
    "translateReqNumber": "null"
}