{
    "dcr_id": "1517318176404",
    "lang": "en",
    "type_name": "intra-intra/news-nouv",
    "approvalsadvisor": "janet.dowell@agr.gc.ca",
    "approvalsdirector": "jean-francois.savard@agr.gc.ca",
    "submitername": "Carmen Miron",
    "submiteremail": "carmen.miron@agr.gc.ca",
    "submiterphoneNumber": "613-773-1481",
    "issued": "2018-02-01",
    "translateReqNumber": "null"
}