{
    "dcr_id": "1517845285871",
    "lang": "en",
    "type_name": "intra-intra/news-nouv",
    "approvalsadvisor": "Janet.Dowell@agr.gc.ca",
    "approvalsdirector": "Andrew.goldstein@agr.gc.ca",
    "submitername": "Lucille Lacelle",
    "submiteremail": "lucille.lacelle@agr.gc.ca",
    "submiterphoneNumber": "613-773-0610",
    "issued": "2018-02-06",
    "translateReqNumber": "null"
}