{
    "dcr_id": "1517521979817",
    "lang": "en",
    "type_name": "intra-intra/news-nouv",
    "approvalsadvisor": "Janet.Dowell@agr.gc.ca",
    "approvalsdirector": "Cheryl.Lypchuk@agr.gc.ca",
    "submitername": "Patrick Nje",
    "submiteremail": "patrick.nje@agr.gc.ca",
    "submiterphoneNumber": "613-773-0909",
    "issued": "2018-02-08",
    "translateReqNumber": "null"
}