{
    "dcr_id": "1519158811341",
    "lang": "en",
    "type_name": "intra-intra/news-nouv",
    "approvalsadvisor": "stela.susic@canada.ca",
    "approvalsdirector": "paula.wilson@canada.ca",
    "submitername": "Alison Ball",
    "submiteremail": "alison.ball@agr.gc.ca",
    "submiterphoneNumber": "613-773-1479",
    "issued": "2018-02-22",
    "translateReqNumber": "null"
}