{
    "dcr_id": "1520351673244",
    "lang": "en",
    "type_name": "intra-intra/news-nouv",
    "approvalsadvisor": "Eileen.Rankin@canada.ca",
    "approvalsdirector": "Pierre.Leduc@agr.gc.ca",
    "submitername": "Justine Walker",
    "submiteremail": "justine.walker2@canada.ca",
    "submiterphoneNumber": "613-773-0443",
    "issued": "2018-03-08",
    "translateReqNumber": "n/a"
}