{
    "dcr_id": "1521471277646",
    "lang": "en",
    "type_name": "intra-intra/news-nouv",
    "approvalsadvisor": "Alexandra.Lozano@agr.gc.ca",
    "approvalsdirector": "vincent.beaulieu@agr.gc.ca",
    "submitername": "Justine Walker",
    "submiteremail": "justine.walker2@canada.ca",
    "submiterphoneNumber": "613-773-0443",
    "issued": "2018-03-22",
    "translateReqNumber": "null"
}