{
    "dcr_id": "1521835541494",
    "lang": "en",
    "type_name": "intra-intra/news-nouv",
    "approvalsadvisor": "jason.ramey@agr.gc.ca",
    "approvalsdirector": "Pierre.Leduc@agr.gc.ca",
    "submitername": "Jason Ramey",
    "submiteremail": "jason.ramey@agr.gc.ca",
    "submiterphoneNumber": "613-773-2654",
    "issued": "2018-03-29",
    "translateReqNumber": "null"
}