{
    "dcr_id": "1522156565975",
    "lang": "en",
    "type_name": "intra-intra/news-nouv",
    "approvalsadvisor": "nancy.macdonald@canada.ca",
    "approvalsdirector": "justine.walker2@canada.ca",
    "submitername": "Justine Walker",
    "submiteremail": "justine.walker2@canada.ca",
    "submiterphoneNumber": "613-773-0443",
    "issued": "2018-03-29",
    "translateReqNumber": "null"
}