{
    "dcr_id": "1523449845538",
    "lang": "en",
    "type_name": "intra-intra/news-nouv",
    "approvalsadvisor": "emily.dipaolo@canada.ca",
    "approvalsdirector": "Pierre.Leduc@agr.gc.ca",
    "submitername": "Anna Maystruk",
    "submiteremail": "anna.maystruk3@canada.ca",
    "submiterphoneNumber": "613-773-3606",
    "issued": "2018-04-12",
    "translateReqNumber": "null"
}