{
    "dcr_id": "1524771788573",
    "lang": "en",
    "type_name": "intra-intra/news-nouv",
    "approvalsadvisor": "janet.dowell@agr.gc.ca",
    "approvalsdirector": "Jill.hull@agr.gc.ca",
    "submitername": "Heather Mousseau",
    "submiteremail": "heather.mousseau@canada.ca",
    "submiterphoneNumber": "613-773-1763",
    "issued": "2018-05-01",
    "translateReqNumber": "null"
}