{
    "dcr_id": "1524840250388",
    "lang": "en",
    "type_name": "intra-intra/news-nouv",
    "approvalsadvisor": "Janet.Dowell@canada.ca",
    "approvalsdirector": "michel.lessard@canada.ca",
    "submitername": "nicole seguin",
    "submiteremail": "nicole.seguin@canada.ca",
    "submiterphoneNumber": "613-773-1398",
    "issued": "2018-05-03",
    "translateReqNumber": "n/a"
}