{
    "dcr_id": "1525110092696",
    "lang": "en",
    "type_name": "intra-intra/news-nouv",
    "approvalsadvisor": "Ricky.Lee@canada.ca",
    "approvalsdirector": "Karim.Bechane@canada.ca",
    "submitername": "Christine LeBlanc",
    "submiteremail": "Christine.LeBlanc@canada.ca",
    "submiterphoneNumber": "506-777-3745",
    "issued": "2018-05-03",
    "translateReqNumber": "n/a"
}