{
    "dcr_id": "1525189669805",
    "lang": "en",
    "type_name": "intra-intra/news-nouv",
    "approvalsadvisor": "shona.milne@agr.gc.ca",
    "approvalsdirector": "kara.beckles@agr.gc.ca",
    "submitername": "Preethi",
    "submiteremail": "preethi.ledchumykanthan@canada.ca",
    "submiterphoneNumber": "613-773-0826",
    "issued": "2018-05-02",
    "translateReqNumber": "n/a"
}