{
    "dcr_id": "1525188893374",
    "lang": "en",
    "type_name": "intra-intra/news-nouv",
    "approvalsadvisor": "justine.walker2@canada.ca",
    "approvalsdirector": "kimberly.saunders@canada.ca",
    "submitername": "Lisa Purdy",
    "submiteremail": "lisa.purdy2@canada.ca",
    "submiterphoneNumber": "613-773-1225",
    "issued": "2018-05-02",
    "translateReqNumber": "null"
}