{
    "dcr_id": "1526662988079",
    "lang": "en",
    "type_name": "intra-intra/news-nouv",
    "approvalsadvisor": "natalie.ekholm@canada.ca",
    "approvalsdirector": "brian.mccarthy@agr.gc.ca",
    "submitername": "Yi Liang",
    "submiteremail": "Yi.Liang@canada.ca",
    "submiterphoneNumber": "613-773-1777",
    "issued": "2018-05-24",
    "translateReqNumber": "n/a"
}