{
    "dcr_id": "1526405784452",
    "lang": "en",
    "type_name": "intra-intra/news-nouv",
    "approvalsadvisor": "Stela.susic@canada.ca",
    "approvalsdirector": "Craig.Murphy@canada.ca",
    "submitername": "Christine Fewer",
    "submiteremail": "christine.fewer@canada.ca",
    "submiterphoneNumber": "613-773-1940",
    "issued": "2018-05-17",
    "translateReqNumber": "n/a"
}