{
    "dcr_id": "1527604335393",
    "lang": "en",
    "type_name": "intra-intra/news-nouv",
    "approvalsadvisor": "ricky.lee@canada.ca",
    "approvalsdirector": "jill.hull@agr.gc.ca",
    "submitername": "Audrey Henry",
    "submiteremail": "audrey.henry@canada.ca",
    "submiterphoneNumber": "613-773-2899",
    "issued": "2018-05-30",
    "translateReqNumber": "n/a"
}