{
    "dcr_id": "1528217725189",
    "lang": "en",
    "type_name": "intra-intra/news-nouv",
    "approvalsadvisor": "eileen.rankin@canada.ca",
    "approvalsdirector": "eileen.rankin@canada.ca",
    "submitername": "Justine Walker",
    "submiteremail": "justine.walker2@canada.ca",
    "submiterphoneNumber": "613-773-0443",
    "issued": "2018-06-07",
    "translateReqNumber": "n/a"
}