{
    "dcr_id": "1528825768704",
    "lang": "en",
    "type_name": "intra-intra/news-nouv",
    "approvalsadvisor": "michelle.jardine@canada.ca",
    "approvalsdirector": "jody.proctor2@canada.ca",
    "submitername": "Matt Lefebvre",
    "submiteremail": "matthew.lefebvre@agr.gc.ca",
    "submiterphoneNumber": "613-773-2363",
    "issued": "2018-06-14",
    "translateReqNumber": "AAFC-180612-26"
}