{
    "dcr_id": "1528200893826",
    "lang": "en",
    "type_name": "intra-intra/news-nouv",
    "approvalsadvisor": "natalie.ekholm@canada.ca",
    "approvalsdirector": "michel.lessard@canada.ca",
    "submitername": "Chelsey Gerrard",
    "submiteremail": "chelsey.gerrard@canada.ca",
    "submiterphoneNumber": "613-773-0573",
    "issued": "2018-06-07",
    "translateReqNumber": "n/a"
}