{
    "dcr_id": "1530818053267",
    "lang": "en",
    "type_name": "intra-intra/news-nouv",
    "approvalsadvisor": "natalie.ekholm@canada.ca",
    "approvalsdirector": "Pierre.corriveau@agr.gc.ca",
    "submitername": "Emma Huang",
    "submiteremail": "emma.huang@agr.gc.ca",
    "submiterphoneNumber": "613-773-2710",
    "issued": "2018-07-12",
    "translateReqNumber": "AAFC-180618-16"
}