{
    "dcr_id": "1532714750228",
    "lang": "en",
    "type_name": "intra-intra/news-nouv",
    "approvalsadvisor": "stela.susic@canada.ca",
    "approvalsdirector": "Leigh.Bain@canada.ca",
    "submitername": "Lisa Picard",
    "submiteremail": "lisa.picard@canada.ca",
    "submiterphoneNumber": "613-773-0395",
    "issued": "2018-08-02",
    "translateReqNumber": "AAFC-180726-17 "
}