{
    "dcr_id": "1533051049473",
    "lang": "en",
    "type_name": "intra-intra/news-nouv",
    "approvalsadvisor": "stela.susic@canada.ca",
    "approvalsdirector": "leigh.bain@canada.ca",
    "submitername": "Susan Paul",
    "submiteremail": "susan.paul@canada.ca",
    "submiterphoneNumber": "613-773-3231",
    "issued": "2018-08-02",
    "translateReqNumber": "180727-27"
}