{
    "dcr_id": "1533657344329",
    "lang": "en",
    "type_name": "intra-intra/news-nouv",
    "approvalsadvisor": "ricky.lee@canada.ca",
    "approvalsdirector": "ricky.lee@canada.ca",
    "submitername": "Justine Walker",
    "submiteremail": "justine.walker2@canada.ca",
    "submiterphoneNumber": "613-773-0443",
    "issued": "2018-08-07",
    "translateReqNumber": "Previsous request number not available. Text is the same as DM message sent via Outlook. Translation coordinated by Ricky Lee."
}