{
    "dcr_id": "1535467448770",
    "lang": "en",
    "type_name": "intra-intra/news-nouv",
    "approvalsadvisor": "natalie.ekholm@canada.ca",
    "approvalsdirector": "Pierre.corriveau@agr.gc.ca",
    "submitername": "Madeline Webber",
    "submiteremail": "madeline.webber@canada.ca",
    "submiterphoneNumber": "613-773-3131",
    "issued": "2018-08-30",
    "translateReqNumber": "160809-30"
}