{
    "dcr_id": "1535736770292",
    "lang": "en",
    "type_name": "intra-intra/news-nouv",
    "approvalsadvisor": "nina.hamad@canada.ca",
    "approvalsdirector": "Jacint.boucher@canada.ca",
    "submitername": "Marc Ouellet",
    "submiteremail": "marc.ouellet3@canada.ca",
    "submiterphoneNumber": "506-777-3744",
    "issued": "2018-09-05",
    "translateReqNumber": "AGR-180824-33"
}