{
    "dcr_id": "1535392470330",
    "lang": "en",
    "type_name": "intra-intra/news-nouv",
    "approvalsadvisor": "emily.dipaolo@canada.ca",
    "approvalsdirector": "emily.dipaolo@canada.ca",
    "submitername": "Emily Di Paolo",
    "submiteremail": "emily.dipaolo@canada.ca",
    "submiterphoneNumber": "613-773-1862",
    "issued": "2018-08-28",
    "translateReqNumber": "AAFC-180827-16"
}