{
    "dcr_id": "1537978130606",
    "lang": "en",
    "type_name": "intra-intra/news-nouv",
    "approvalsadvisor": "ricky.lee@canada.ca",
    "approvalsdirector": "daniel.champoux@canada.ca",
    "submitername": "Ricky Lee",
    "submiteremail": "ricky.lee@canada.ca",
    "submiterphoneNumber": "613-773-2252",
    "issued": "2018-09-27",
    "translateReqNumber": "OCHRO"
}