{
    "dcr_id": "1537188896847",
    "lang": "en",
    "type_name": "intra-intra/news-nouv",
    "approvalsadvisor": "Jeff.Wright@canada.ca",
    "approvalsdirector": "Jeff.Wright@canada.ca",
    "submitername": "Madeline Webber",
    "submiteremail": "madeline.webber@canada.ca",
    "submiterphoneNumber": "613-773-3131",
    "issued": "2018-09-20",
    "translateReqNumber": "180912-15"
}