{
    "dcr_id": "1537285846081",
    "lang": "en",
    "type_name": "intra-intra/news-nouv",
    "approvalsadvisor": "jeff.wright@canada.ca",
    "approvalsdirector": "jane.taylor@agr.gc.ca",
    "submitername": "Alina Cipcigan",
    "submiteremail": "alina.cipcigan@canada.ca",
    "submiterphoneNumber": "613-773-1973",
    "issued": "2018-09-20",
    "translateReqNumber": "AAFC-180914-35"
}