{
    "dcr_id": "1537298109817",
    "lang": "en",
    "type_name": "intra-intra/news-nouv",
    "approvalsadvisor": "natalie.ekholm@canada.ca",
    "approvalsdirector": "christine.walker2@canada.ca",
    "submitername": "Danitsa Lauder",
    "submiteremail": "danitsa.lauder2@canada.ca",
    "submiterphoneNumber": "613-773-1837",
    "issued": "2018-09-27",
    "translateReqNumber": "0000"
}