{
    "dcr_id": "1538483055698",
    "lang": "en",
    "type_name": "intra-intra/news-nouv",
    "approvalsadvisor": "natalie.ekholm@canada.ca",
    "approvalsdirector": "tammy.moke@canada.ca",
    "submitername": "Emily Smyth",
    "submiteremail": "emily.smyth@canada.ca",
    "submiterphoneNumber": "613-773-0628",
    "issued": "2018-10-04",
    "translateReqNumber": "AAFC-180926-14"
}