{
    "dcr_id": "1539617516820",
    "lang": "en",
    "type_name": "intra-intra/news-nouv",
    "approvalsadvisor": "jeff.wright@canada.ca",
    "approvalsdirector": "elizabeth.foster@canada.ca",
    "submitername": "Talen McLean",
    "submiteremail": "talen.mclean@canada.ca",
    "submiterphoneNumber": "613-773-2893",
    "issued": "2018-10-18",
    "translateReqNumber": "N/A"
}