{
    "dcr_id": "1539111031432",
    "lang": "en",
    "type_name": "intra-intra/news-nouv",
    "approvalsadvisor": "kylee.mackay@canada.ca",
    "approvalsdirector": "kara.beckles@canada.ca",
    "submitername": "Preethi Ledchumykanthan",
    "submiteremail": "preethi.ledchumykanthan@canada.ca",
    "submiterphoneNumber": "613-773-0826",
    "issued": "2018-10-10",
    "translateReqNumber": "AAFC-181005-34"
}