{
    "dcr_id": "1539199732469",
    "lang": "en",
    "type_name": "intra-intra/news-nouv",
    "approvalsadvisor": "ricky.lee@canada.ca",
    "approvalsdirector": "jean-francois.savard@canada.ca",
    "submitername": "Ricky Lee",
    "submiteremail": "ricky.lee@canada.ca",
    "submiterphoneNumber": "613-773-2252",
    "issued": "2018-10-10",
    "translateReqNumber": "AAFC-AAC 181009-25"
}