{
    "dcr_id": "1540320095431",
    "lang": "en",
    "type_name": "intra-intra/news-nouv",
    "approvalsadvisor": "alexandra.lozano@canada.ca",
    "approvalsdirector": "alexandra.lozano@canada.ca",
    "submitername": "Emily Smyth",
    "submiteremail": "emily.smyth@canada.ca",
    "submiterphoneNumber": "613-773-0628",
    "issued": "2018-10-25",
    "translateReqNumber": "AAFC-181023-30"
}