{
    "dcr_id": "1541449440124",
    "lang": "en",
    "type_name": "intra-intra/news-nouv",
    "approvalsadvisor": "jeff.wright@canada.ca",
    "approvalsdirector": "Frederic.seppey@canada.ca",
    "submitername": "Deb O'Neil",
    "submiteremail": "deborah.oneil@canada.ca",
    "submiterphoneNumber": "613-773-2762",
    "issued": "2018-11-08",
    "translateReqNumber": "Same article used from last year's News@Work"
}