{
    "dcr_id": "1542748531242",
    "lang": "en",
    "type_name": "intra-intra/news-nouv",
    "approvalsadvisor": "anna.luksic@canada.ca",
    "approvalsdirector": "steven.jurgutis@canada.ca",
    "submitername": "Anna Luksic",
    "submiteremail": "anna.luksic@canada.ca",
    "submiterphoneNumber": "613-773-2131",
    "issued": "2018-11-22",
    "translateReqNumber": "AAFC-181120-36"
}