{
    "dcr_id": "1543332291718",
    "lang": "en",
    "type_name": "intra-intra/news-nouv",
    "approvalsadvisor": "samer.younes@canada.ca",
    "approvalsdirector": "samuel.bonti-ankomah@canada.ca",
    "submitername": "Douglas Ruby",
    "submiteremail": "Douglas.Ruby@canada.ca",
    "submiterphoneNumber": "613-773-1343",
    "issued": "2018-11-29",
    "translateReqNumber": "AAFC-181126-23"
}