{
    "dcr_id": "1545160633420",
    "lang": "en",
    "type_name": "intra-intra/news-nouv",
    "approvalsadvisor": "stela.susic@canada.ca",
    "approvalsdirector": "leigh.bain@canada.ca",
    "submitername": "Blair Macfie",
    "submiteremail": "blair.macfie@canada.ca",
    "submiterphoneNumber": "613-316-8621",
    "issued": "2018-12-20",
    "translateReqNumber": "AAFC-181217-18"
}