{
    "dcr_id": "1546031667509",
    "lang": "en",
    "type_name": "intra-intra/news-nouv",
    "approvalsadvisor": "natalie.ekholm@canada.ca",
    "approvalsdirector": "jill.hull2@canada.ca",
    "submitername": "Donna DoRego Vital",
    "submiteremail": "donna.doregovital@canada.ca",
    "submiterphoneNumber": "819-962-1458",
    "issued": "2019-01-03",
    "translateReqNumber": "n/a taken from CSPS web site"
}