{
    "dcr_id": "1549401785014",
    "lang": "en",
    "type_name": "intra-intra/news-nouv",
    "approvalsadvisor": "kathleen.kelly@canada.ca",
    "approvalsdirector": "nina.hamad@canada.ca",
    "submitername": "Kathleen Kelly",
    "submiteremail": "kathleen.kelly@canada.ca",
    "submiterphoneNumber": "613-850-6221",
    "issued": "2019-02-07",
    "translateReqNumber": "Not applicable"
}