{
    "dcr_id": "1550585922626",
    "lang": "en",
    "type_name": "intra-intra/news-nouv",
    "approvalsadvisor": "stela.susic@canada.ca",
    "approvalsdirector": "ling.lee@canada.ca",
    "submitername": "Seana Collins",
    "submiteremail": "seana.collins@canada.ca",
    "submiterphoneNumber": "902-365-8466",
    "issued": "2019-02-21",
    "translateReqNumber": "AAFC190214-3"
}