{
    "dcr_id": "1550497677645",
    "lang": "en",
    "type_name": "intra-intra/news-nouv",
    "approvalsadvisor": "irina.andritoiu@canada.ca",
    "approvalsdirector": "elizabeth.foster@canada.ca",
    "submitername": "Yi Liang",
    "submiteremail": "yi.liang@canada.ca",
    "submiterphoneNumber": "613-773-1777",
    "issued": "2019-02-20",
    "translateReqNumber": "AAFC-190214-24"
}