{
    "dcr_id": "1550001032316",
    "lang": "en",
    "type_name": "intra-intra/news-nouv",
    "approvalsadvisor": "Irina.Andritoiu@canada.ca",
    "approvalsdirector": "Joyce.boye@canada.ca",
    "submitername": "Debbie Lockrey-Wessel",
    "submiteremail": "debbie.lockrey-wessel@canada.ca",
    "submiterphoneNumber": "519-819-2907",
    "issued": "2019-02-13",
    "translateReqNumber": "190109-12"
}