{
    "dcr_id": "1553090046920",
    "lang": "en",
    "type_name": "intra-intra/news-nouv",
    "approvalsadvisor": "stela.susic@canada.ca",
    "approvalsdirector": "joan.martin@canada.ca",
    "submitername": "Seana Collins",
    "submiteremail": "seana.collins@canada.ca",
    "submiterphoneNumber": "902-365-8466",
    "issued": "2019-03-28",
    "translateReqNumber": " AAFC-190313-1"
}