{
    "dcr_id": "1553002316975",
    "lang": "en",
    "type_name": "intra-intra/news-nouv",
    "approvalsadvisor": "ricky.lee@canada.ca",
    "approvalsdirector": "andrew.goldstein@canada.ca",
    "submitername": "Alexanne Drouin",
    "submiteremail": "alexanne.drouin@canada.ca",
    "submiterphoneNumber": "613-773-3443",
    "issued": "2019-03-21",
    "translateReqNumber": "180522-1"
}