{
    "dcr_id": "1555359830080",
    "lang": "en",
    "type_name": "intra-intra/news-nouv",
    "approvalsadvisor": "stela.susic@canada.ca",
    "approvalsdirector": "michel.lessard@canada.ca",
    "submitername": "Austin Mowat",
    "submiteremail": "austin.mowat@canada.ca",
    "submiterphoneNumber": "613-773-2317",
    "issued": "2019-04-18",
    "translateReqNumber": "AAFC-190412-10"
}