{
    "dcr_id": "1556035497692",
    "lang": "en",
    "type_name": "intra-intra/news-nouv",
    "approvalsadvisor": "kathryn.hunt@canada.ca",
    "approvalsdirector": "kathryn.hunt@canada.ca",
    "submitername": "Kathryn Hunt",
    "submiteremail": "kathryn.hunt@canada.ca",
    "submiterphoneNumber": "613-773-2262",
    "issued": "2019-04-25",
    "translateReqNumber": "n/a"
}