{
    "dcr_id": "1556646743099",
    "lang": "en",
    "type_name": "intra-intra/news-nouv",
    "approvalsadvisor": "Joy.moskovic@canada.ca",
    "approvalsdirector": "anne.lacombe@canada.ca",
    "submitername": "Jennifer",
    "submiteremail": "jennifer.mclaurin@canada.ca",
    "submiterphoneNumber": "613-773-0214",
    "issued": "2019-05-02",
    "translateReqNumber": "AAFC-190430-11"
}