{
    "dcr_id": "1556033854467",
    "lang": "en",
    "type_name": "intra-intra/news-nouv",
    "approvalsadvisor": "joy.moskovic@canada.ca",
    "approvalsdirector": "karen.durnford-mcintosh@canada.ca",
    "submitername": "Anne Lacombe",
    "submiteremail": "anne.lacombe@canada.ca",
    "submiterphoneNumber": "613-773-0133",
    "issued": "2019-04-25",
    "translateReqNumber": "AAFC-190410-7"
}