{
    "dcr_id": "1556562309672",
    "lang": "en",
    "type_name": "intra-intra/news-nouv",
    "approvalsadvisor": "irina.andritoiu@canada.ca",
    "approvalsdirector": "genevieve.smith@canada.ca",
    "submitername": "Jessica Livermore",
    "submiteremail": "jessica.livermore@canada.ca",
    "submiterphoneNumber": "613-773-1365",
    "issued": "2019-05-02",
    "translateReqNumber": "190418-6"
}