{
    "dcr_id": "1556654070862",
    "lang": "en",
    "type_name": "intra-intra/news-nouv",
    "approvalsadvisor": "justine.walker2@canada.ca",
    "approvalsdirector": "Carla.stcroix@canada.ca",
    "submitername": "Matt Lefebvre",
    "submiteremail": "matthew.lefebvre@canada.ca",
    "submiterphoneNumber": "613-773-2363",
    "issued": "2019-05-02",
    "translateReqNumber": "AAFC-170501-17 "
}