{
    "dcr_id": "1556032735801",
    "lang": "en",
    "type_name": "intra-intra/news-nouv",
    "approvalsadvisor": "irina.andritoiu@canada.ca",
    "approvalsdirector": "nathalie.leblanc@canada.ca",
    "submitername": "Sami Reaz",
    "submiteremail": "sami.reaz2@canada.ca",
    "submiterphoneNumber": "613-773-3130",
    "issued": "2019-04-25",
    "translateReqNumber": "N/A"
}