{
    "dcr_id": "1557847847007",
    "lang": "en",
    "type_name": "intra-intra/news-nouv",
    "approvalsadvisor": "emily.dipaolo@canada.ca",
    "approvalsdirector": "carla.stcroix@canada.ca",
    "submitername": "Matt Lefebvre",
    "submiteremail": "matthew.lefebvre@canada.ca",
    "submiterphoneNumber": "613-773-2363",
    "issued": "2019-05-16",
    "translateReqNumber": "190508-18"
}