{
    "dcr_id": "1559057645135",
    "lang": "en",
    "type_name": "intra-intra/news-nouv",
    "approvalsadvisor": "natalie.ekholm@canada.ca",
    "approvalsdirector": "karen.durnford-mcintosh@canada.ca",
    "submitername": "Louise Boudreau",
    "submiteremail": "louise.boudreau@canada.ca",
    "submiterphoneNumber": "613-715-5029",
    "issued": "2019-05-30",
    "translateReqNumber": "19052446"
}