{
    "dcr_id": "1559743865987",
    "lang": "en",
    "type_name": "intra-intra/news-nouv",
    "approvalsadvisor": "andrea.cameron@canada.ca",
    "approvalsdirector": "ricky.lee@canada.ca",
    "submitername": "Emma Finch",
    "submiteremail": "emma.finch@canada.ca",
    "submiterphoneNumber": "613-773-3263",
    "issued": "2019-06-06",
    "translateReqNumber": "AAFC-190531-33"
}