{
    "dcr_id": "1559832156570",
    "lang": "en",
    "type_name": "intra-intra/news-nouv",
    "approvalsadvisor": "annamaria.dangelo@canada.ca",
    "approvalsdirector": "aafc.minister-ministre.aac@canada.ca",
    "submitername": "Amy Lin",
    "submiteremail": "amy.lin@canada.ca",
    "submiterphoneNumber": "613-773-3604",
    "issued": "2019-06-06",
    "translateReqNumber": "190605-23"
}