{
    "dcr_id": "1563373564163",
    "lang": "en",
    "type_name": "intra-intra/news-nouv",
    "approvalsadvisor": "stela.susic@canada.ca",
    "approvalsdirector": "Joan.martin@canada.ca",
    "submitername": "Seana Collins",
    "submiteremail": "seana.collins@canada.ca",
    "submiterphoneNumber": "902-365-8466",
    "issued": "2019-07-18",
    "translateReqNumber": "AAFC - 190715-45"
}