{
    "dcr_id": "1563288738641",
    "lang": "en",
    "type_name": "intra-intra/news-nouv",
    "approvalsadvisor": "justine.walker2@canada.ca",
    "approvalsdirector": "nathalie.leblanc@canada.ca",
    "submitername": "Sami Reaz",
    "submiteremail": "sami.reaz2@canada.ca",
    "submiterphoneNumber": "613-773-3130",
    "issued": "2019-07-18",
    "translateReqNumber": "Not done. Original developed in French. Both English and French versions checked by bilingual team members."
}