{
    "dcr_id": "1564497265270",
    "lang": "en",
    "type_name": "intra-intra/news-nouv",
    "approvalsadvisor": "stela.susic@canada.ca",
    "approvalsdirector": "tania.costanzo@canada.ca",
    "submitername": "Ingrid Trudel",
    "submiteremail": "ingrid.trudel2@canada.ca",
    "submiterphoneNumber": "613-773-2613",
    "issued": "2019-08-08",
    "translateReqNumber": "AAFC-190725-1"
}