{
    "dcr_id": "1564611839298",
    "lang": "en",
    "type_name": "intra-intra/news-nouv",
    "approvalsadvisor": "joy.moskovic@canada.ca",
    "approvalsdirector": "lorraine.burnett@canada.ca",
    "submitername": "Melissa Petit",
    "submiteremail": "melissa.petit@canada.ca",
    "submiterphoneNumber": "613-773-0938",
    "issued": "2019-08-08",
    "translateReqNumber": "190726-15"
}