{
    "dcr_id": "1565702136754",
    "lang": "en",
    "type_name": "intra-intra/news-nouv",
    "approvalsadvisor": "sonia.forget@canada.ca",
    "approvalsdirector": "alec.nicholls@canada.ca",
    "submitername": "Amy Lin",
    "submiteremail": "amy.lin@canada.ca",
    "submiterphoneNumber": "613-773-2785",
    "issued": "2019-08-15",
    "translateReqNumber": "AAFC-190812-14"
}