{
    "dcr_id": "1565958445761",
    "lang": "en",
    "type_name": "intra-intra/news-nouv",
    "approvalsadvisor": "stela.susic@canada.ca",
    "approvalsdirector": "Ingrit.monasterios@canada.ca",
    "submitername": "Susan Young",
    "submiteremail": "susan.young3@canada.ca",
    "submiterphoneNumber": "613-759-1807",
    "issued": "2019-08-22",
    "translateReqNumber": "AAFC-190808-28"
}