{
    "dcr_id": "1566915416619",
    "lang": "en",
    "type_name": "intra-intra/news-nouv",
    "approvalsadvisor": "randi.saunders@canada.ca",
    "approvalsdirector": "scott.aughey@canada.ca",
    "submitername": "Randi Saunders",
    "submiteremail": "randi.saunders@canada.ca",
    "submiterphoneNumber": "613-773-2675",
    "issued": "2019-08-29",
    "translateReqNumber": "190826-20"
}