{
    "dcr_id": "1566941881503",
    "lang": "en",
    "type_name": "intra-intra/news-nouv",
    "approvalsadvisor": "nancy.macdonald@canada.ca",
    "approvalsdirector": "marcos.alvarez@canada.ca",
    "submitername": "Kathryn Makela",
    "submiteremail": "kathryn.makela@canada.ca",
    "submiterphoneNumber": "613-759-7182",
    "issued": "2019-08-29",
    "translateReqNumber": "AAFC-190826-26"
}