{
    "dcr_id": "1567524540700",
    "lang": "en",
    "type_name": "intra-intra/news-nouv",
    "approvalsadvisor": "kylee.mackay@canada.ca",
    "approvalsdirector": "alexandre.lefebvre@canada.ca",
    "submitername": "Crystal Fraser",
    "submiteremail": "crystal.fraser@canada.ca",
    "submiterphoneNumber": "902-667-6577",
    "issued": "2019-09-05",
    "translateReqNumber": "AAFC-190829-1"
}