{
    "dcr_id": "1569937487253",
    "lang": "en",
    "type_name": "intra-intra/news-nouv",
    "approvalsadvisor": "natalie.ekholm@canada.ca",
    "approvalsdirector": "elizabeth.foster@canada.ca",
    "submitername": "Debbie Lockrey-Wessel",
    "submiteremail": "debbie.lockrey-wessel@canada.ca",
    "submiterphoneNumber": "519-819-2907",
    "issued": "2019-10-01",
    "translateReqNumber": "190923-16"
}