{
    "dcr_id": "1569943505704",
    "lang": "en",
    "type_name": "intra-intra/news-nouv",
    "approvalsadvisor": "joy.moskovic@canada.ca",
    "approvalsdirector": "nathalie.leblanc@canada.ca",
    "submitername": "Alexanne Douin",
    "submiteremail": "alexanne.drouin@canada.ca",
    "submiterphoneNumber": "613-773-3443",
    "issued": "2019-10-03",
    "translateReqNumber": "AAFC-190926-16"
}