{
    "dcr_id": "1571762155174",
    "lang": "en",
    "type_name": "intra-intra/news-nouv",
    "approvalsadvisor": "nina.hamad@canada.ca",
    "approvalsdirector": "donald.boucher@canada.ca",
    "submitername": "Caitlyn Banks",
    "submiteremail": "caitlyn.banks@canada.ca",
    "submiterphoneNumber": "613-773-2407",
    "issued": "2019-10-24",
    "translateReqNumber": "AAFC-191021-9"
}