{
    "dcr_id": "1573576277867",
    "lang": "en",
    "type_name": "intra-intra/news-nouv",
    "approvalsadvisor": "Jason.ramey@canada.ca",
    "approvalsdirector": "joel.wilin@canada.ca",
    "submitername": "Ginette Lavergne-Roy",
    "submiteremail": "ginette.lavergne-roy@canada.ca",
    "submiterphoneNumber": "613-759-1982",
    "issued": "2019-11-14",
    "translateReqNumber": "00000000"
}