{
    "dcr_id": "1574786940100",
    "lang": "en",
    "type_name": "intra-intra/news-nouv",
    "approvalsadvisor": "julie.plamondon@canada.ca",
    "approvalsdirector": "frederic.seppey@canada.ca",
    "submitername": "Megan Dybka",
    "submiteremail": "megan.dybka@canada.ca",
    "submiterphoneNumber": "613-773-1941",
    "issued": "2019-11-28",
    "translateReqNumber": "Based on previously translated article"
}