{
    "dcr_id": "1576270102539",
    "lang": "en",
    "type_name": "intra-intra/news-nouv",
    "approvalsadvisor": "shelly.donaldson2@canada.ca",
    "approvalsdirector": "karen.durford-mcintosh@canada.ca",
    "submitername": "Jenn",
    "submiteremail": "jennifer.mclaurin@canada.ca",
    "submiterphoneNumber": "613-773-0214",
    "issued": "2019-12-16",
    "translateReqNumber": "191213-14"
}