{
    "dcr_id": "1578320015251",
    "lang": "en",
    "type_name": "intra-intra/news-nouv",
    "approvalsadvisor": "shelly.donaldson2@canada.ca",
    "approvalsdirector": "michel.lessard@canada.ca",
    "submitername": "Tariq Sohail",
    "submiteremail": "tariq.sohail@canada.ca",
    "submiterphoneNumber": "613-773-0377",
    "issued": "2020-01-09",
    "translateReqNumber": "N/A"
}