{
    "dcr_id": "1579534961718",
    "lang": "en",
    "type_name": "intra-intra/news-nouv",
    "approvalsadvisor": "stela.susic@canada.ca",
    "approvalsdirector": "jacint.boucher@canada.ca",
    "submitername": "Carey Born",
    "submiteremail": "carey.born@canada.ca",
    "submiterphoneNumber": "613-773-0107",
    "issued": "2020-01-23",
    "translateReqNumber": "AAFC-200114-2"
}