{
    "dcr_id": "1579015927024",
    "lang": "en",
    "type_name": "intra-intra/news-nouv",
    "approvalsadvisor": "randi.saunders@canada.ca",
    "approvalsdirector": "scott.aughey@canada.ca",
    "submitername": "Cassandra Pelley",
    "submiteremail": "cassandra.pelley@canada.ca",
    "submiterphoneNumber": "613-773-3457",
    "issued": "2020-01-16",
    "translateReqNumber": "200113-15"
}