{
    "dcr_id": "1579625862860",
    "lang": "en",
    "type_name": "intra-intra/news-nouv",
    "approvalsadvisor": "Stela.susic@canada.ca",
    "approvalsdirector": "Daniel.Champoux@canada.ca",
    "submitername": "Kim Skarnulis",
    "submiteremail": "kim.skarnulis@canada.ca",
    "submiterphoneNumber": "613-773-3465",
    "issued": "2020-01-22",
    "translateReqNumber": "000000"
}