{
    "dcr_id": "1580311375758",
    "lang": "en",
    "type_name": "intra-intra/news-nouv",
    "approvalsadvisor": "natalie.ekholm@canada.ca",
    "approvalsdirector": "nathalie.leblanc@canada.ca",
    "submitername": "Emily Di Paolo",
    "submiteremail": "emily.dipaolo@canada.ca",
    "submiterphoneNumber": "613-773-1862",
    "issued": "2020-01-30",
    "translateReqNumber": "AAFC-200127-30"
}