{
    "dcr_id": "1582119195781",
    "lang": "en",
    "type_name": "intra-intra/news-nouv",
    "approvalsadvisor": "amy.lin@canada.ca",
    "approvalsdirector": "nina.hamad@canada.ca",
    "submitername": "Amy Lin",
    "submiteremail": "amy.lin@canada.ca",
    "submiterphoneNumber": "613-773-2785",
    "issued": "2020-02-20",
    "translateReqNumber": "template"
}