{
    "dcr_id": "1582036055845",
    "lang": "en",
    "type_name": "intra-intra/news-nouv",
    "approvalsadvisor": "stela.susic@canada.ca",
    "approvalsdirector": "tania.costanzo@canada.ca",
    "submitername": "Susan Young",
    "submiteremail": "susan.young@canada.ca",
    "submiterphoneNumber": "613-759-1807",
    "issued": "2020-02-20",
    "translateReqNumber": "AAFC-200206-27 "
}