{
    "dcr_id": "1394030601303",
    "lang": "en",
    "type_name": "intra-intra/news-nouv",
    "created": "2014-03-06 00:00:00.0",
    "expirydate": "2014-03-13 00:00:00.0",
    "news_category_type_id": "1308334182981"
}