{
    "dcr_id": "1452704029172",
    "lang": "en",
    "type_name": "intra-intra/news-nouv",
    "created": "2016-01-14 00:00:00.0",
    "expirydate": "2016-01-21 00:00:00.0",
    "news_category_type_id": "1308325693175"
}