{
    "dcr_id": "1452783398557",
    "lang": "en",
    "type_name": "intra-intra/news-nouv",
    "created": "2016-01-14 00:00:00.0",
    "expirydate": "2016-01-21 00:00:00.0",
    "news_category_type_id": "1411886599666"
}