{
    "dcr_id": "1453992365912",
    "lang": "en",
    "type_name": "intra-intra/news-nouv",
    "created": "2016-01-28 00:00:00.0",
    "expirydate": "2016-02-04 00:00:00.0",
    "news_category_type_id": "1411886599666"
}