{
    "dcr_id": "1454530187144",
    "lang": "en",
    "type_name": "intra-intra/news-nouv",
    "created": "2016-02-04 00:00:00.0",
    "expirydate": "2016-03-01 00:00:00.0",
    "news_category_type_id": "1308325693175"
}