{
    "dcr_id": "1455726573637",
    "lang": "en",
    "type_name": "intra-intra/news-nouv",
    "created": "2016-02-17 00:00:00.0",
    "expirydate": "2016-02-23 00:00:00.0",
    "news_category_type_id": "1308334182981"
}