{
    "dcr_id": "1455028900082",
    "lang": "en",
    "type_name": "intra-intra/news-nouv",
    "created": "2016-02-11 00:00:00.0",
    "expirydate": "2016-02-18 00:00:00.0",
    "news_category_type_id": "1308325693175"
}