{
    "dcr_id": "1456936830754",
    "lang": "en",
    "type_name": "intra-intra/news-nouv",
    "created": "2016-03-03 00:00:00.0",
    "expirydate": "2016-03-10 00:00:00.0",
    "news_category_type_id": "1308334182981"
}