{
    "dcr_id": "1456328790203",
    "lang": "en",
    "type_name": "intra-intra/news-nouv",
    "created": "2016-02-24 00:00:00.0",
    "expirydate": "2016-02-29 00:00:00.0",
    "news_category_type_id": "1308334182982"
}