{
    "dcr_id": "1458678718411",
    "lang": "en",
    "type_name": "intra-intra/news-nouv",
    "created": "2016-03-24 00:00:00.0",
    "expirydate": "2016-03-31 00:00:00.0",
    "news_category_type_id": "1308325693175"
}