{
    "dcr_id": "1459359225051",
    "lang": "en",
    "type_name": "intra-intra/news-nouv",
    "created": "2016-03-31 00:00:00.0",
    "expirydate": "2016-04-06 00:00:00.0",
    "news_category_type_id": "1411886599666"
}