{
    "dcr_id": "1461852200578",
    "lang": "en",
    "type_name": "intra-intra/news-nouv",
    "created": "2016-04-28 00:00:00.0",
    "expirydate": "2016-05-09 00:00:00.0",
    "news_category_type_id": "1308334182981"
}