{
    "dcr_id": "1462388012206",
    "lang": "en",
    "type_name": "intra-intra/news-nouv",
    "created": "2016-05-05 00:00:00.0",
    "expirydate": "2016-05-12 00:00:00.0",
    "news_category_type_id": "1308325693175"
}