{
    "dcr_id": "1464197917455",
    "lang": "en",
    "type_name": "intra-intra/news-nouv",
    "created": "2016-05-26 00:00:00.0",
    "expirydate": "2016-06-02 00:00:00.0",
    "news_category_type_id": "1308325693175"
}