{
    "dcr_id": "1465412316880",
    "lang": "en",
    "type_name": "intra-intra/news-nouv",
    "created": "2016-06-09 00:00:00.0",
    "expirydate": "2016-06-16 00:00:00.0",
    "news_category_type_id": "1308334182981"
}