{
    "dcr_id": "1467818248235",
    "lang": "en",
    "type_name": "intra-intra/news-nouv",
    "created": "2016-07-07 00:00:00.0",
    "expirydate": "2016-07-14 00:00:00.0",
    "news_category_type_id": "1308325693175"
}