{
    "dcr_id": "1469804530339",
    "lang": "en",
    "type_name": "intra-intra/news-nouv",
    "created": "2016-07-29 00:00:00.0",
    "expirydate": "2016-08-05 00:00:00.0",
    "news_category_type_id": "1308334182983"
}