{
    "dcr_id": "1470231819853",
    "lang": "en",
    "type_name": "intra-intra/news-nouv",
    "created": "2016-08-04 00:00:00.0",
    "expirydate": "2016-08-11 00:00:00.0",
    "news_category_type_id": "1308325693175"
}