{
    "dcr_id": "1472053412660",
    "lang": "en",
    "type_name": "intra-intra/news-nouv",
    "created": "2016-08-25 00:00:00.0",
    "expirydate": "2016-09-01 00:00:00.0",
    "news_category_type_id": "1308325693175"
}