{
    "dcr_id": "1474470416431",
    "lang": "en",
    "type_name": "intra-intra/news-nouv",
    "created": "2016-09-22 00:00:00.0",
    "expirydate": "2016-09-29 00:00:00.0",
    "news_category_type_id": "1308325693175"
}