{
    "dcr_id": "1475499324578",
    "lang": "en",
    "type_name": "intra-intra/news-nouv",
    "created": "2016-10-06 00:00:00.0",
    "expirydate": "2016-10-10 00:00:00.0",
    "news_category_type_id": "1308334182982"
}