{
    "dcr_id": "1478111913053",
    "lang": "en",
    "type_name": "intra-intra/news-nouv",
    "created": "2016-11-03 00:00:00.0",
    "expirydate": "2016-11-22 00:00:00.0",
    "news_category_type_id": "1308325693175"
}