{
    "dcr_id": "1479999792503",
    "lang": "en",
    "type_name": "intra-intra/news-nouv",
    "created": "2016-11-24 00:00:00.0",
    "expirydate": "2016-12-01 00:00:00.0",
    "news_category_type_id": "1308325693175"
}