{
    "dcr_id": "1480442217245",
    "lang": "en",
    "type_name": "intra-intra/news-nouv",
    "created": "2016-12-02 00:00:00.0",
    "expirydate": "2016-12-15 00:00:00.0",
    "news_category_type_id": "1308334182983"
}