{
    "dcr_id": "1481027020233",
    "lang": "en",
    "type_name": "intra-intra/news-nouv",
    "created": "2016-12-08 00:00:00.0",
    "expirydate": "2016-12-19 00:00:00.0",
    "news_category_type_id": "1308334182982"
}