{
    "dcr_id": "1484749428887",
    "lang": "en",
    "type_name": "intra-intra/news-nouv",
    "created": "2017-01-19 00:00:00.0",
    "expirydate": "2017-02-06 00:00:00.0",
    "news_category_type_id": "1308334182982"
}