{
    "dcr_id": "1484148670525",
    "lang": "en",
    "type_name": "intra-intra/news-nouv",
    "created": "2017-01-11 00:00:00.0",
    "expirydate": "2017-02-01 00:00:00.0",
    "news_category_type_id": "1308325693175"
}