{
    "dcr_id": "1485983440272",
    "lang": "en",
    "type_name": "intra-intra/news-nouv",
    "created": "2017-02-02 00:00:00.0",
    "expirydate": "2017-02-16 00:00:00.0",
    "news_category_type_id": "1308334182981"
}