{
    "dcr_id": "1516117665901",
    "lang": "en",
    "type_name": "intra-intra/news-nouv",
    "created": "2018-01-16 00:00:00.0",
    "expirydate": "2018-02-01 00:00:00.0",
    "news_category_type_id": "1308334182982"
}