{
    "dcr_id": "1519670723944",
    "lang": "en",
    "type_name": "intra-intra/news-nouv",
    "created": "2018-02-26 00:00:00.0",
    "expirydate": "2018-03-29 00:00:00.0",
    "news_category_type_id": "1508942999196"
}