{
    "dcr_id": "1520351551900",
    "lang": "en",
    "type_name": "intra-intra/news-nouv",
    "created": "2018-03-06 00:00:00.0",
    "expirydate": "2018-03-15 00:00:00.0",
    "news_category_type_id": "1508942999196"
}