{
    "dcr_id": "1523361774806",
    "lang": "en",
    "type_name": "intra-intra/news-nouv",
    "created": "2018-04-12 00:00:00.0",
    "expirydate": "2018-04-19 00:00:00.0",
    "news_category_type_id": "1308325693175"
}