{
    "dcr_id": "1524568441417",
    "lang": "en",
    "type_name": "intra-intra/news-nouv",
    "created": "2018-04-26 00:00:00.0",
    "expirydate": "2018-05-03 00:00:00.0",
    "news_category_type_id": "1308325693175"
}