{
    "dcr_id": "1525106995924",
    "lang": "en",
    "type_name": "intra-intra/news-nouv",
    "created": "2018-05-03 00:00:00.0",
    "expirydate": "2018-05-10 00:00:00.0",
    "news_category_type_id": "1308334182982"
}