{
    "dcr_id": "1527537976224",
    "lang": "en",
    "type_name": "intra-intra/news-nouv",
    "created": "2018-05-28 00:00:00.0",
    "expirydate": "2018-06-09 00:00:00.0",
    "news_category_type_id": "1308334182981"
}