{
    "dcr_id": "1528217725189",
    "lang": "en",
    "type_name": "intra-intra/news-nouv",
    "created": "2018-06-07 00:00:00.0",
    "expirydate": "2018-06-14 00:00:00.0",
    "news_category_type_id": "1308325693175"
}