{
    "dcr_id": "1530647098811",
    "lang": "en",
    "type_name": "intra-intra/news-nouv",
    "created": "2018-07-04 00:00:00.0",
    "expirydate": "2018-07-09 00:00:00.0",
    "news_category_type_id": "1308325693175"
}