{
    "dcr_id": "1530014976200",
    "lang": "en",
    "type_name": "intra-intra/news-nouv",
    "created": "2018-07-04 00:00:00.0",
    "expirydate": "2018-07-19 00:00:00.0",
    "news_category_type_id": "1508942999197"
}