{
    "dcr_id": "1533048099216",
    "lang": "en",
    "type_name": "intra-intra/news-nouv",
    "created": "2018-08-01 00:00:00.0",
    "expirydate": "2018-08-13 00:00:00.0",
    "news_category_type_id": "1308334182982"
}