{
    "dcr_id": "1535479206035",
    "lang": "en",
    "type_name": "intra-intra/news-nouv",
    "created": "2018-08-28 00:00:00.0",
    "expirydate": "2018-09-06 00:00:00.0",
    "news_category_type_id": "1308334182982"
}