{
    "dcr_id": "1535386356243",
    "lang": "en",
    "type_name": "intra-intra/news-nouv",
    "created": "2018-08-30 00:00:00.0",
    "expirydate": "2018-09-15 00:00:00.0",
    "news_category_type_id": "1379951494338"
}