{
    "dcr_id": "1538509578044",
    "lang": "en",
    "type_name": "intra-intra/news-nouv",
    "created": "2018-10-04 00:00:00.0",
    "expirydate": "2018-10-11 00:00:00.0",
    "news_category_type_id": "1308325693175"
}