{
    "dcr_id": "1540319392959",
    "lang": "en",
    "type_name": "intra-intra/news-nouv",
    "created": "2018-10-25 00:00:00.0",
    "expirydate": "2018-11-01 00:00:00.0",
    "news_category_type_id": "1379951494338"
}