{
    "dcr_id": "1546983475669",
    "lang": "en",
    "type_name": "intra-intra/news-nouv",
    "created": "2019-01-10 00:00:00.0",
    "expirydate": "2019-01-17 00:00:00.0",
    "news_category_type_id": "1308325693175"
}