{
    "dcr_id": "1549652358146",
    "lang": "en",
    "type_name": "intra-intra/news-nouv",
    "created": "2019-02-14 00:00:00.0",
    "expirydate": "2019-02-21 00:00:00.0",
    "news_category_type_id": "1308325693175"
}