{
    "dcr_id": "1549910344503",
    "lang": "en",
    "type_name": "intra-intra/news-nouv",
    "created": "2019-02-13 00:00:00.0",
    "expirydate": "2019-02-25 00:00:00.0",
    "news_category_type_id": "1308334182982"
}