{
    "dcr_id": "1551104603833",
    "lang": "en",
    "type_name": "intra-intra/news-nouv",
    "created": "2019-02-27 00:00:00.0",
    "expirydate": "2019-03-11 00:00:00.0",
    "news_category_type_id": "1308334182982"
}