{
    "dcr_id": "1552312500974",
    "lang": "en",
    "type_name": "intra-intra/news-nouv",
    "created": "2019-03-14 00:00:00.0",
    "expirydate": "2019-04-04 00:00:00.0",
    "news_category_type_id": "1508942999196"
}