{
    "dcr_id": "1556740855158",
    "lang": "en",
    "type_name": "intra-intra/news-nouv",
    "created": "2019-05-01 00:00:00.0",
    "expirydate": "2019-05-09 00:00:00.0",
    "news_category_type_id": "1308334182983"
}