{
    "dcr_id": "1556628209400",
    "lang": "en",
    "type_name": "intra-intra/news-nouv",
    "created": "2019-05-02 00:00:00.0",
    "expirydate": "2019-05-09 00:00:00.0",
    "news_category_type_id": "1308325693175"
}