{
    "dcr_id": "1559583161304",
    "lang": "en",
    "type_name": "intra-intra/news-nouv",
    "created": "2019-06-03 00:00:00.0",
    "expirydate": "2019-06-08 00:00:00.0",
    "news_category_type_id": "1308325693175"
}