{
    "dcr_id": "1559831912624",
    "lang": "en",
    "type_name": "intra-intra/news-nouv",
    "created": "2019-06-07 00:00:00.0",
    "expirydate": "2019-06-20 00:00:00.0",
    "news_category_type_id": "1308334182982"
}