{
    "dcr_id": "1561385232832",
    "lang": "en",
    "type_name": "intra-intra/news-nouv",
    "created": "2019-06-25 00:00:00.0",
    "expirydate": "2019-07-11 00:00:00.0",
    "news_category_type_id": "1308334182982"
}