{
    "dcr_id": "1564767553680",
    "lang": "en",
    "type_name": "intra-intra/news-nouv",
    "created": "2019-08-02 00:00:00.0",
    "expirydate": "2019-08-15 00:00:00.0",
    "news_category_type_id": "1308334182983"
}