{
    "dcr_id": "1565702136754",
    "lang": "en",
    "type_name": "intra-intra/news-nouv",
    "created": "2019-08-15 00:00:00.0",
    "expirydate": "2019-09-12 00:00:00.0",
    "news_category_type_id": "1308325693175"
}