{
    "dcr_id": "1566313632077",
    "lang": "en",
    "type_name": "intra-intra/news-nouv",
    "created": "2019-08-22 00:00:00.0",
    "expirydate": "2019-08-29 00:00:00.0",
    "news_category_type_id": "1308334182982"
}