{
    "dcr_id": "1569352231789",
    "lang": "en",
    "type_name": "intra-intra/news-nouv",
    "created": "2019-09-25 00:00:00.0",
    "expirydate": "2019-10-10 00:00:00.0",
    "news_category_type_id": "1308334182982"
}