{
    "dcr_id": "1574861480821",
    "lang": "en",
    "type_name": "intra-intra/news-nouv",
    "created": "2019-11-28 00:00:00.0",
    "expirydate": "2019-12-02 00:00:00.0",
    "news_category_type_id": "1308334182982"
}