{
    "dcr_id": "1578503019599",
    "lang": "en",
    "type_name": "intra-intra/news-nouv",
    "created": "2020-01-08 00:00:00.0",
    "expirydate": "2020-01-16 00:00:00.0",
    "news_category_type_id": "1508942999196"
}