{
    "dcr_id": "1580777724806",
    "lang": "en",
    "type_name": "intra-intra/news-nouv",
    "created": "2020-02-06 00:00:00.0",
    "expirydate": "2020-02-13 00:00:00.0",
    "news_category_type_id": "1508942999197"
}