{
    "dcr_id": "1585155212241",
    "lang": "en",
    "type_name": "intra-intra/news-nouv",
    "created": "2020-03-25 00:00:00.0",
    "expirydate": "2020-04-02 00:00:00.0",
    "news_category_type_id": "1308325693175"
}