{
    "dcr_id": "1594660288497",
    "lang": "en",
    "type_name": "intra-intra/news-nouv",
    "created": "2020-07-14 00:00:00.0",
    "expirydate": "2020-07-23 00:00:00.0",
    "news_category_type_id": "1308325693175"
}