{
    "dcr_id": "1598279689715",
    "lang": "en",
    "type_name": "intra-intra/news-nouv",
    "created": "2020-08-24 00:00:00.0",
    "expirydate": "2020-09-03 00:00:00.0",
    "news_category_type_id": "1508942999198"
}