{
    "dcr_id": "1598363747369",
    "lang": "en",
    "type_name": "intra-intra/news-nouv",
    "created": "2020-08-27 00:00:00.0",
    "expirydate": "2020-08-31 00:00:00.0",
    "news_category_type_id": "1308334182982"
}