{
    "dcr_id": "1600178631921",
    "lang": "en",
    "type_name": "intra-intra/news-nouv",
    "created": "2020-09-17 00:00:00.0",
    "expirydate": "2020-09-24 00:00:00.0",
    "news_category_type_id": "1308325693175"
}