{
    "dcr_id": "1603728988150",
    "lang": "en",
    "type_name": "intra-intra/news-nouv",
    "created": "2020-10-26 00:00:00.0",
    "expirydate": "2020-11-05 00:00:00.0",
    "news_category_type_id": "1591971211315"
}