{
    "dcr_id": "1453818517128",
    "lang": "en",
    "title": {
        "en": "Security Awareness Week 2016",
        "fr": "Semaine de sensibilisation \u00e0 la s\u00e9curit\u00e9 2016"
    },
    "modified": "2018-03-23 00:00:00.0",
    "issued": "2016-02-04 00:00:00.0",
    "type_name": "intra-intra/news-nouv",
    "node_id": "1279030006975",
    "layout_name": "1 column",
    "dc_date_created": "2016-01-26",
    "breadcrumb_label": "",
    "meta": {
        "issued": {
            "en": "2016-02-04",
            "fr": "2016-02-04"
        },
        "modified": {
            "en": "2018-03-23",
            "fr": "2018-03-23"
        },
        "format": {
            "en": "gcformat",
            "fr": "gcformat"
        },
        "title": {
            "en": "Security Awareness Week 2016",
            "fr": "Semaine de sensibilisation \u00e0 la s\u00e9curit\u00e9 2016"
        },
        "subject": {
            "en": "communications;security",
            "fr": "communications;s\u00e9curit\u00e9"
        },
        "description": {
            "en": "Security Awareness Week (SAW) has become an increasingly significant, government-wide initiative, reminding everyone of the importance of thinking about security in our daily activities. SAW will be held across the federal government from February 8-12, 2016. This year's theme is Security: Strength Through Collaboration.",
            "fr": "La Semaine de sensibilisation \u00e0 la s\u00e9curit\u00e9 (SSS) est une initiative pangouvernementale qui prend de l'ampleur et qui nous rappelle l'importance de r\u00e9fl\u00e9chir \u00e0 la s\u00e9curit\u00e9 dans nos activit\u00e9s quotidiennes. La SSS sera soulign\u00e9e dans l'ensemble du gouvernement f\u00e9d\u00e9ral du 8 au 22 f\u00e9vrier 2016. Le th\u00e8me de cette ann\u00e9e est S\u00e9curit\u00e9 : La collaboration fait notre force."
        },
        "language": {
            "en": "eng",
            "fr": "fra"
        },
        "keywords": {
            "en": "Security: Strength Through Collaboration",
            "fr": "S\u00e9curit\u00e9 : La collaboration fait notre force"
        },
        "audience": {
            "en": "gcaudience",
            "fr": "gcaudience"
        },
        "type": {
            "en": "event",
            "fr": "\u00e9v\u00e9nement"
        },
        "creator": {
            "en": "Agriculture and Agri-Food Canada",
            "fr": "Agriculture et Agroalimentaire Canada"
        },
        "spatial": {
            "en": "gcregions",
            "fr": "gcregions"
        },
        "service": {
            "en": "AAFC_AgriSource",
            "fr": "AAC_AgriSource"
        },
        "accessRights": {
            "en": "3",
            "fr": "3"
        }
    },
    "body": {
        "en": "<br>\n<br>\n<p><a href=\"http://intranet.agr.gc.ca/agrisource/eng/branches-and-offices/corporate-management-branch/services/security-awareness?id=1376586640212\">Security Awareness Week</a> (SAW) has become an increasingly significant, government-wide initiative, reminding everyone of the importance of thinking about security in our daily activities. <abbr title=\"Security Awareness Week\">SAW</abbr> will be held across the federal government from February 8-12, 2016. This year's theme is <strong>Security: Strength Through Collaboration.</strong></p>\n<p>During <abbr title=\"Security Awareness Week\">SAW</abbr>, all employees are encouraged to become more familiar with the security practices established for their workplace. By doing this, employees can contribute to building a safe and secure work environment that serves to protect employees, information and assets. </p>\n<p>We encourage you to test your security awareness knowledge by trying to identify the 20 privacy and security risks in our hidden picture game called \"<a rel=\"external\" href=\"https://collab.agr.gc.ca/co/dss-ssm/Documents/SAW%202016/What_is_wrong_with_this_picture_e.doc\">what is wrong with this picture</a>\", (<a rel=\"external\" href=\"https://collab.agr.gc.ca/co/dss-ssm/Documents/SAW%202016/What_is_wrong_with_this_picture_Answers_e.doc\">click here for the answers</a>) and have fun during lunch trying your skills with our <a href=\"https://intranet.agr.gc.ca/agrisource/AgriDoc.do?id=101898181&amp;lang=eng\" target=\"_blank\">Security Crossword</a>. We would also like to remind you of the mandatory <a href=\"http://intranet.agr.gc.ca/agrisource/eng/branches-and-offices/corporate-management-branch/services/security-awareness-training?id=1325695839878\">security awareness training</a> (course code AGR-620) available online. Please note that training must be updated yearly.</p>\n<p>Important <abbr title=\"Information Technology\">IT</abbr> Security Updates:</p>\n<p>Reminder \u2013 please review the updated <a href=\"http://intranet.agr.gc.ca/agrisource/eng/the-department/departmental-policies-and-guidelines?id=1287431560148\">Information Systems Branch Policies and Guidelines</a> that become effective April 1, 2016, which include changes regarding the secure use of portable storage devices and the storage of personal information.</p>\n<p>For information about the Secure Use of Portable Storage Devices (SUPSD) initiative, please visit the <a rel=\"external\" href=\"https://collab.agr.gc.ca/pj/supsd_usssp/SitePages/Home%20Page.aspx\"><abbr title=\"Secure Use of Portable Storage Devices\">SUPSD</abbr></a>\u00a0Knowledge Workspace page.</p>\n<p><strong>Security: Strength Through Collaboration</strong></p>\n\n\t\t",
        "fr": "<br>\n<br>\n<p>La <a href=\"http://intranet.agr.gc.ca/agrisource/fra/directions-generales-et-bureaux/direction-generale-de-la-gestion-integree/services/la-sensibilisation-a-la-securite?id=1376586640212\">Semaine de sensibilisation \u00e0 la s\u00e9curit\u00e9</a> (SSS) est une initiative pangouvernementale qui prend de l'ampleur et qui nous rappelle l'importance de r\u00e9fl\u00e9chir \u00e0 la s\u00e9curit\u00e9 dans nos activit\u00e9s quotidiennes. La <abbr title=\"Semaine de sensibilisation \u00e0 la s\u00e9curit\u00e9\">SSS</abbr> sera soulign\u00e9e dans l'ensemble du gouvernement f\u00e9d\u00e9ral du 8 au 22\u00a0f\u00e9vrier 2016. Le th\u00e8me de cette ann\u00e9e est <strong>S\u00e9curit\u00e9\u00a0: La collaboration fait notre force.</strong></p>\n<p>Pendant la <abbr title=\"Semaine de sensibilisation \u00e0 la s\u00e9curit\u00e9\">SSS</abbr>, tous les employ\u00e9s sont invit\u00e9s \u00e0 se familiariser avec les pratiques de s\u00e9curit\u00e9 \u00e9tablies pour leur lieu de travail. Ainsi, les employ\u00e9s peuvent contribuer \u00e0 la cr\u00e9ation d'un milieu de travail s\u00e9curitaire favorisant la protection des employ\u00e9s, des renseignements et des biens. <br><br>Nous vous invitons \u00e0 mettre \u00e0 l'\u00e9preuve vos connaissances en mati\u00e8re de s\u00e9curit\u00e9 en tentant de rep\u00e9rer 20\u00a0risques li\u00e9s \u00e0 la protection des renseignements personnels et \u00e0 la s\u00e9curit\u00e9 dans notre jeu \u00ab\u00a0<a rel=\"external\" href=\"https://collab.agr.gc.ca/co/dss-ssm/Documents/SAW%202016/identifiez%2020%20risques%20de%20s%C3%A9curit%C3%A9_francais.doc\">Qu'est-ce qui cloche dans cette image</a>?\u00a0\u00bb (<a rel=\"external\" href=\"https://collab.agr.gc.ca/co/dss-ssm/Documents/SAW%202016/identifiez%2020%20risques%20de%20s%C3%A9curit%C3%A9_R%C3%A9ponses_francais.doc\">cliquez ici pour voir les r\u00e9ponses</a>) et \u00e0 vous amuser pendant l'heure du d\u00eener en faisant nos <a href=\"https://intranet.agr.gc.ca/agrisource/AgriDoc.do?id=101898168&amp;lang=fra\" target=\"_blank\">Mots crois\u00e9s sur la s\u00e9curit\u00e9</a>. Nous tenons \u00e0 vous rappeler qu'il est obligatoire de suivre la <a href=\"http://intranet.agr.gc.ca/agrisource/fra/directions-generales-et-bureaux/direction-generale-de-la-gestion-integree/services/formation-sur-la-sensibilisation-a-la-securite?id=1325695839878\">formation sur la sensibilisation \u00e0 la s\u00e9curit\u00e9</a> (code de cours AGR-620) en ligne. Veuillez prendre note que la formation doit \u00eatre rafra\u00eechie chaque ann\u00e9e.</p>\n<p>Points importants sur la s\u00e9curit\u00e9 des <abbr title=\"technologies de l\u2019information\">TI</abbr>\u00a0:</p>\n<p>Rappel \u2013 veuillez examiner les <a href=\"http://intranet.agr.gc.ca/agrisource/fra/le-ministere/politiques-et-lignes-directrices-ministerielles?id=1287431560148\">politiques et les lignes directrices actualis\u00e9es de la Direction g\u00e9n\u00e9rale des syst\u00e8mes d'information</a> qui entreront en vigueur le 1<sup>er</sup>\u00a0avril 2016. Celles-ci comprennent des changements concernant l'utilisation s\u00e9curitaire des dispositifs de stockage portatifs et le stockage des renseignements personnels.</p>\n<p>Pour de l'information sur l'utilisation s\u00e9curitaire des dispositifs de stockage portatifs (USDSP), visitez la page de l'<a rel=\"external\" href=\"https://collab.agr.gc.ca/pj/supsd_usssp/SitePages/Home%20Page.aspx\"><abbr title=\"utilisation s\u00e9curitaire des dispositifs de stockage portatifs\">USDSP</abbr></a> dans l'Espace de travail du savoir.</p>\n<p><strong>S\u00e9curit\u00e9\u00a0: La collaboration fait notre force</strong></p>\n\t\t"
    },
    "breadcrumb": {
        "en": "Security Awareness Week 2016",
        "fr": "Semaine de sensibilisation \u00e0 la s\u00e9curit\u00e9 2016"
    },
    "news": {
        "date_posted": {
            "en": "2016-02-03",
            "fr": "2016-02-03"
        },
        "to": {
            "en": "Other regions (not NCR)",
            "fr": "R\u00e9gions autres que la RCN"
        },
        "by": {
            "en": "Departmental Security Services, Corporate Management Branch",
            "fr": "Services de s\u00e9curit\u00e9 minist\u00e9riels, Direction g\u00e9n\u00e9rale de la gestion int\u00e9gr\u00e9e"
        }
    }
}