{
    "dcr_id": "1458678718411",
    "lang": "en",
    "title": {
        "en": "Coming Next Week - The Federal Science Library! ",
        "fr": "La Biblioth\u00e8que scientifique f\u00e9d\u00e9rale sur votre poste de travail d\u00e8s la semaine prochaine!"
    },
    "modified": "2019-02-07 00:00:00.0",
    "issued": "2016-03-23 00:00:00.0",
    "type_name": "intra-intra/news-nouv",
    "node_id": "1279030006975",
    "layout_name": "1 column",
    "dc_date_created": "2016-03-23",
    "breadcrumb_label": "",
    "meta": {
        "issued": {
            "en": "2016-03-23",
            "fr": "2016-03-23"
        },
        "modified": {
            "en": "2019-02-07",
            "fr": "2019-02-07"
        },
        "format": {
            "en": "gcformat",
            "fr": "gcformat"
        },
        "title": {
            "en": "Coming Next Week - The Federal Science Library! ",
            "fr": "La Biblioth\u00e8que scientifique f\u00e9d\u00e9rale sur votre poste de travail d\u00e8s la semaine prochaine!"
        },
        "subject": {
            "en": "communications;library services",
            "fr": "communications;services de la biblioth\u00e8que"
        },
        "description": {
            "en": "AAFC and CFIA employees already have access to one of the world's finest science collections. And it's about to get better.",
            "fr": "Les employ\u00e9s d'AAC et de l'ACIA ont acc\u00e8s \u00e0 l'une des meilleures collections scientifiques au monde et, tr\u00e8s bient\u00f4t, ils auront acc\u00e8s \u00e0 encore mieux!"
        },
        "language": {
            "en": "eng",
            "fr": "fra"
        },
        "keywords": {
            "en": "Federal Science Library",
            "fr": "Biblioth\u00e8que scientifique f\u00e9d\u00e9rale"
        },
        "audience": {
            "en": "gcaudience",
            "fr": "gcaudience"
        },
        "type": {
            "en": "notice",
            "fr": "avis"
        },
        "creator": {
            "en": "Agriculture and Agri-Food Canada",
            "fr": "Agriculture et Agroalimentaire Canada"
        },
        "spatial": {
            "en": "gcregions",
            "fr": "gcregions"
        },
        "service": {
            "en": "AAFC_AgriSource",
            "fr": "AAC_AgriSource"
        },
        "accessRights": {
            "en": "3",
            "fr": "3"
        }
    },
    "body": {
        "en": "<br>\n<br>\n<p><em>Did you know?<br></em>AAFC and CFIA employees already have access to one of the world's finest science collections. And it's about to get better.</p>\n<p>Next Tuesday, March 29, 2016,\u00a0the Canadian Agriculture Library becomes the second departmental library to join the Federal Science Library (FSL) portal. The first was the National Research Council, last week. Health Canada and the Public Health Agency will join in April. Fisheries, Oceans and the Canadian Coast Guard, Environment and Climate Change, and Natural Resources Canada will follow later in the year.</p>\n<p>The portal will bring the\u00a0FSL to every desktop at AAFC and the CFIA\u00a0\u2013 and it will become a richer resource every time another library joins.</p>\n<p><em>What will it look like?<br></em>It will look like any other visit through the AgriSource home page to the <a href=\"https://fsl-bsf.scitech.gc.ca/eng/intranet/home/%20\">Canadian Agriculture Library</a> link.\u00a0But when the\u00a0FSL goes live next Tuesday, that link will open into an ever-expanding universe of content.</p>\n<p><em>Will it be easy to use?<br></em>The interface will be simple, and we'll be here to help you. You'll be able to take an on-line tutorial, check out the user guide and help pages, or consult one of our <a href=\"mailto:cal-bca-ref@agr.gc.ca\">Information Specialists</a>. Training sessions that explore the potential of the\u00a0FSL will also be available.\u00a0Stay tuned for more information.</p>\n\n\t\t",
        "fr": "<br>\n<br>\n<p><em>Le saviez-vous?<br></em>Les employ\u00e9s d'AAC et de l'ACIA ont acc\u00e8s \u00e0 l'une des meilleures collections scientifiques au monde et, tr\u00e8s bient\u00f4t, ils auront acc\u00e8s \u00e0 encore mieux!</p>\n<p>En effet, le mardi\u00a029\u00a0mars\u00a02016, la Biblioth\u00e8que canadienne de l'agriculture deviendra la deuxi\u00e8me biblioth\u00e8que minist\u00e9rielle \u00e0 se joindre au portail de la Biblioth\u00e8que scientifique f\u00e9d\u00e9rale (BSF). La premi\u00e8re a \u00e9t\u00e9 celle du Conseil national de recherches, la semaine derni\u00e8re. Les biblioth\u00e8ques de Sant\u00e9 Canada et de l'Agence de la sant\u00e9 publique se joindront au portail en avril, puis celles de P\u00eaches et\u00a0Oc\u00e9ans et de la Garde c\u00f4ti\u00e8re, d'Environnement et Changement climatique et de Ressources naturelles Canada s'y joindront plus tard cette ann\u00e9e.</p>\n<p>Tous les employ\u00e9s d'AAC et de l'ACIA auront acc\u00e8s au portail \u00e0 partir de leur poste de travail\u00a0\u2013 et la <abbr title=\"Biblioth\u00e8que scientifique f\u00e9d\u00e9rale\">BSF</abbr> s'enrichira chaque fois qu'une nouvelle biblioth\u00e8que s'ajoutera.</p>\n<p><em>\u00c0 quoi le portail de la Biblioth\u00e8que scientifique f\u00e9d\u00e9rale ressemblera-t-il?<br></em>Le portail ressemblera \u00e0 ce que vous voyez chaque fois que vous cliquez sur le lien de la <a href=\"https://fsl-bsf.scitech.gc.ca/fra/intranet/accueil/%20\">Biblioth\u00e8que canadienne de l'agriculture</a> \u00e0 partir de la page d'accueil d'AgriSource. Cependant, une fois que la <abbr title=\"Biblioth\u00e8que scientifique f\u00e9d\u00e9rale\">BSF</abbr> sera accessible mardi prochain, ce lien m\u00e8nera \u00e0 un univers de contenu en d\u00e9veloppement constant.</p>\n<p><em>Le portail sera-t-il facile \u00e0 utiliser?<br></em>L'interface sera simple, et nous serons l\u00e0 pour vous aider. Vous pourrez suivre un tutoriel auto-rythm\u00e9, consulter le guide de l'utilisateur et les pages d'aide ou encore faire appel \u00e0 un de nos <a href=\"mailto:cal-bca-ref@agr.gc.ca\">sp\u00e9cialistes de l'information</a>. Des s\u00e9ances de formation sur la fa\u00e7on d'exploiter le plein potentiel de la <abbr title=\"Biblioth\u00e8que scientifique f\u00e9d\u00e9rale\">BSF</abbr> seront \u00e9galement offertes. Nous vous fournirons de plus amples renseignements plus tard.</p>\n\t\t"
    },
    "breadcrumb": {
        "en": "Coming Next Week - The Federal Science Library!",
        "fr": "La Biblioth\u00e8que scientifique f\u00e9d\u00e9rale sur votre poste de travail d\u00e8s la semaine prochaine!"
    },
    "news": {
        "date_posted": {
            "en": "2016-03-24",
            "fr": "2016-03-24"
        },
        "to": {
            "en": "All staff",
            "fr": "Tous les employ\u00e9s"
        },
        "by": {
            "en": "Canadian Agriculture Library",
            "fr": "Biblioth\u00e8que canadienne de l'agriculture"
        }
    }
}