{
    "dcr_id": "1459352870550",
    "lang": "en",
    "title": {
        "en": "This Week: CAL Joins the Federal Science Library Portal",
        "fr": "Cette semaine : La BCA se joint au portail de la Biblioth\u00e8que scientifique f\u00e9d\u00e9rale"
    },
    "modified": "2019-02-08 00:00:00.0",
    "issued": "2016-03-31 00:00:00.0",
    "type_name": "intra-intra/news-nouv",
    "node_id": "1279030006975",
    "layout_name": "1 column",
    "dc_date_created": "2016-03-30",
    "breadcrumb_label": "",
    "meta": {
        "issued": {
            "en": "2016-03-31",
            "fr": "2016-03-31"
        },
        "modified": {
            "en": "2019-02-08",
            "fr": "2019-02-08"
        },
        "format": {
            "en": "gcformat",
            "fr": "gcformat"
        },
        "title": {
            "en": "This Week: CAL Joins the Federal Science Library Portal",
            "fr": "Cette semaine : La BCA se joint au portail de la Biblioth\u00e8que scientifique f\u00e9d\u00e9rale"
        },
        "subject": {
            "en": "communications;library services",
            "fr": "communications;services de la biblioth\u00e8que"
        },
        "description": {
            "en": "On March 29, the Canadian Agriculture Library (CAL) launched into the Federal Science Library (FSL) portal, a collaboration of seven science-based Federal departmental libraries for shared desktop access to their collections.",
            "fr": "Le 29 mars dernier, la Biblioth\u00e8que canadienne de l'agriculture (BCA) s'est jointe au portail de la Biblioth\u00e8que scientifique f\u00e9d\u00e9rale (BSF), une collaboration des biblioth\u00e8ques de sept minist\u00e8res f\u00e9d\u00e9raux \u00e0 vocation scientifique pour permettre un acc\u00e8s partag\u00e9 \u00e0 leurs collections."
        },
        "language": {
            "en": "eng",
            "fr": "fra"
        },
        "keywords": {
            "en": "Canadian Agriculture Library (CAL), Federal Science Library",
            "fr": "Biblioth\u00e8que canadienne de l'agriculture (BCA), Biblioth\u00e8que scientifique f\u00e9d\u00e9rale (BSF)"
        },
        "audience": {
            "en": "gcaudience",
            "fr": "gcaudience"
        },
        "type": {
            "en": "notice",
            "fr": "avis"
        },
        "creator": {
            "en": "Agriculture and Agri-Food Canada",
            "fr": "Agriculture et Agroalimentaire Canada"
        },
        "spatial": {
            "en": "gcregions",
            "fr": "gcregions"
        },
        "service": {
            "en": "AAFC_AgriSource",
            "fr": "AAC_AgriSource"
        },
        "accessRights": {
            "en": "3",
            "fr": "3"
        }
    },
    "body": {
        "en": "<br>\n<br>\n<p>On March 29, the Canadian Agriculture Library (CAL) launched into the Federal Science Library (FSL) portal, a collaboration of seven science-based Federal departmental libraries for shared desktop access to their collections.</p>\n<p>AAFC and CFIA employees can access the new \"Federal Science Library\" link from the\u00a0<a href=\"https://fsl-bsf.scitech.gc.ca/eng/intranet/home/%20\">Canadian\u00a0Agriculture Library</a>\u00a0page. It will open an information portal shared with the Canadian Agriculture Library, the National Research Council, Natural Resources Canada, Health Canada and the Public Health Agency of Canada.\u00a0Fisheries and Oceans and Environment and Climate Change Canada will join within a few months.</p>\n<p>You can still access <abbr title=\"Canadian Agriculture Library\">CAL</abbr>'s print and electronic collections through the <abbr title=\"Federal Science Library\">FSL</abbr> portal, and you can search the collections of every member library, plus an index of more than two billion citations. You can search all the electronic journals and books to which <abbr title=\"Federal Science Library\">FSL</abbr> partner libraries subscribe at the article or book chapter level.\u00a0</p>\n<p>To explore the full potential of the library, <a rel=\"external\" href=\"https://collab.agr.gc.ca/co/kis-sis/SitePages/Training%20Session%20Outlines.aspx\">register online</a> for training sessions on subjects such as:</p>\n<ul>\n<li>The library: Your key to knowledge (Available information resources and services)</li>\n<li>Introduction to the Federal Science Library Search (FSL Search)</li>\n<li>Introduction to EndNote, the Departmental reference management tool.</li>\n</ul>\n<p>The interface is easy to use and we are here to help you. Take a training session, check out the <a rel=\"external\" href=\"https://fsl-bsf.scitech.gc.ca/eng/intranet/static/media/cal_quick_user_guide.pdf\">user guide</a> and <a rel=\"external\" href=\"https://fsl-bsf.scitech.gc.ca/eng/intranet/help/\">help pages</a>, or talk to one of our Information Specialists at <a href=\"mailto:cal-bca-ref@agr.gc.ca\">cal-bca-ref@agr.gc.ca</a>, who can arrange individual or group training.</p>\n\n\t\t",
        "fr": "<br>\n<br>\n<p>Le 29 mars dernier, la Biblioth\u00e8que canadienne de l'agriculture (BCA) s'est jointe au portail de la Biblioth\u00e8que scientifique f\u00e9d\u00e9rale (BSF), une collaboration des biblioth\u00e8ques de sept minist\u00e8res f\u00e9d\u00e9raux \u00e0 vocation scientifique pour permettre un acc\u00e8s partag\u00e9 \u00e0 leurs collections.</p>\n<p>Les employ\u00e9s d'AAC et de l'ACIA peuvent avoir acc\u00e8s au lien du nouveau site de la \u00ab Biblioth\u00e8que scientifique f\u00e9d\u00e9rale \u00bb \u00e0 partir de la page de la <a href=\"https://fsl-bsf.scitech.gc.ca/fra/intranet/accueil/%20\">Biblioth\u00e8que canadienne de l'agriculture</a>. Le lien ouvrira un portail d'information partag\u00e9 avec la Biblioth\u00e8que canadienne de l'agriculture, le Conseil national de recherches, Ressources naturelles Canada, Sant\u00e9 Canada et l'Agence de la sant\u00e9 publique du Canada. P\u00eaches et Oc\u00e9ans Canada et Environnement et Changement climatique Canada se joindront au portail au cours des prochains mois.</p>\n<p>Vous continuez d'avoir acc\u00e8s aux collections imprim\u00e9es et \u00e9lectroniques de la <abbr title=\"Biblioth\u00e8que canadienne de l'agriculture\">BCA</abbr> sur le portail de la <abbr title=\"Biblioth\u00e8que scientifique f\u00e9d\u00e9rale\">BSF</abbr> et pouvez consulter les collections de chaque biblioth\u00e8que membre ainsi qu'un index de plus de deux milliards de citations. Vous pouvez aussi\u00a0effectuer une recherche de\u00a0l'ensemble des revues et des ouvrages \u00e9lectroniques auxquels les biblioth\u00e8ques partenaires de la <abbr title=\"Biblioth\u00e8que scientifique f\u00e9d\u00e9rale\">BSF</abbr> sont abonn\u00e9es, au niveau d'un article ou chapitre de livre.</p>\n<p>Pour exploiter le plein potentiel de la biblioth\u00e8que, <a rel=\"external\" href=\"https://collab.agr.gc.ca/co/kis-sis/SitePages/Training%20Session%20Outlines.aspx\">inscrivez-vous en ligne</a> aux s\u00e9ances de formation sur les sujets\u00a0suivants :</p>\n<ul>\n<li>La Biblioth\u00e8que : Votre cl\u00e9 de la connaissance (ressources et services d'information disponibles)</li>\n<li>Introduction \u00e0 la recherche dans la Biblioth\u00e8que scientifique f\u00e9d\u00e9rale (Recherche BSF)</li>\n<li>Introduction \u00e0 EndNote, l'outil de gestion des r\u00e9f\u00e9rences du Minist\u00e8re.</li>\n</ul>\n<p>L'interface est facile \u00e0 utiliser et nous sommes l\u00e0 pour vous aider. Suivez une s\u00e9ance de formation, consultez le <a rel=\"external\" href=\"https://fsl-bsf.scitech.gc.ca/fra/intranet/statique/media/bca_guide_eclair.pdf\">guide de r\u00e9f\u00e9rence</a> et les <a rel=\"external\" href=\"https://fsl-bsf.scitech.gc.ca/fra/intranet/aide/\">pages d'aide</a> ou adressez-vous \u00e0 l'un de nos sp\u00e9cialistes de l'information \u00e0 <a href=\"mailto:cal-bca-ref@agr.gc.ca\">cal-bca-ref@agr.gc.ca</a>\u00a0pour organiser de la formation individuelle ou en groupe.</p>\n\t\t"
    },
    "breadcrumb": {
        "en": "This Week: CAL Joins the Federal Science Library Portal",
        "fr": "Cette semaine : La BCA se joint au portail de la Biblioth\u00e8que scientifique f\u00e9d\u00e9rale"
    },
    "news": {
        "date_posted": {
            "en": "2016-03-31",
            "fr": "2016-03-31"
        },
        "to": {
            "en": "All staff",
            "fr": "Tous les employ\u00e9s"
        },
        "by": {
            "en": "Canadian Agriculture Library",
            "fr": "Biblioth\u00e8que canadienne de l'agriculture"
        }
    }
}