{
    "dcr_id": "1515507510671",
    "lang": "en",
    "title": {
        "en": "Scheduled Maintenance of ISB Services - Workstation and Phone Services for Tower 3, NHCAP - January 13",
        "fr": "Entretien pr\u00e9vu des services de la DGSI - Services t\u00e9l\u00e9phoniques et des postes de travail de la tour 3 du CACPA - Le 13 janvier"
    },
    "modified": "2018-01-11 00:00:00.0",
    "issued": "2018-01-11 00:00:00.0",
    "type_name": "intra-intra/news-nouv",
    "node_id": "1279030006975",
    "layout_name": null,
    "dc_date_created": "2018-01-09",
    "breadcrumb_label": "Scheduled Maintenance of ISB Services - Workstation and Phone Services for Tower 3, NHCAP...",
    "meta": {
        "issued": {
            "en": "2018-01-11",
            "fr": "2018-01-11"
        },
        "modified": {
            "en": "2018-01-11",
            "fr": "2018-01-11"
        },
        "format": {
            "en": "gcformat",
            "fr": "gcformat"
        },
        "title": {
            "en": "Scheduled Maintenance of ISB Services - Workstation and Phone Services for Tower 3, NHCAP - January 13",
            "fr": "Entretien pr\u00e9vu des services de la DGSI - Services t\u00e9l\u00e9phoniques et des postes de travail de la tour 3 du CACPA - Le 13 janvier"
        },
        "subject": {
            "en": "communications",
            "fr": "communications"
        },
        "description": {
            "en": "Please be advised that preventative maintenance of ISB services will be performed on Saturday, January 13, 2018 in Tower 3 at the National Headquarters Complex for the Agriculture Portfolio.",
            "fr": "Veuillez noter qu'un entretien pr\u00e9ventif des services de la Direction g\u00e9n\u00e9rale des syst\u00e8mes d'information aura lieu le samedi 13 janvier 2018 dans la tour 3 du Complexe de l'administration centrale du portefeuille de l'Agriculture."
        },
        "language": {
            "en": "eng",
            "fr": "fra"
        },
        "audience": {
            "en": "gcaudience",
            "fr": "gcaudience"
        },
        "creator": {
            "en": "Agriculture and Agri-Food Canada",
            "fr": "Agriculture et Agroalimentaire Canada"
        },
        "spatial": {
            "en": "gcregions",
            "fr": "gcregions"
        },
        "service": {
            "en": "AAFC_AgriSource",
            "fr": "AAC_AgriSource"
        },
        "accessRights": {
            "en": "3",
            "fr": "3"
        }
    },
    "body": {
        "en": "<br>\n<br>\n<p>Please be advised that preventative maintenance of ISB services will be performed on Saturday, January 13, 2018 in Tower 3 at the National Headquarters Complex\u00a0for the Agriculture Portfolio (<abbr title=\"National Headquarters for the Agriculture Portfolio\">NHCAP</abbr>).</p>\n<p>Consequently, the following services may not be available during the following times:</p>\n<p><strong>Saturday, January 13 \u2013 9:00 a.m. until 7:00 p.m. (ET)</strong></p>\n<p>Workstation and phone services for clients located in the tower including:</p>\n<ul>\n<li>Access to all corporate applications</li>\n<li>Access to email</li>\n<li>Access to Internet</li>\n<li>Access to network drives</li>\n<li>Access to 911</li>\n<li>Outbound calls (inbound calls will go to voice mail)</li>\n<li>Access to auto-attendant services</li>\n<li>Access to voice mail</li>\n</ul>\n<p><strong>Note:</strong> As access to 911 will be interrupted, employees are encouraged not to\u00a0use Tower 3 during the service downtime. Those who must use it should call the Security Control Centre at 3-3333 to gain access.\u00a0Employees entering Tower 3 during the serivce downtime\u00a0must have a mobile device to ensure health and safety considerations are met. Employees are responsible for ensuring that they have a mobile device available. </p>\n<p>Should you have any questions or concerns, please do not hesitate to contact IT Centre TI.</p>\n<p><strong>IT Centre TI<br></strong>Telephone: 1-855-545-4411<br><a href=\"http://assystweb:8080/assystnet\">My IT Centre TI</a></p>\n<p><img src=\"https://intranet.agr.gc.ca/resources/prod/news/images/ITCentreTI2.png\" class=\"center-block\" alt=\"ITCentreTI\"></p>\n\n\t\t",
        "fr": "<br>\n<br>\n<p>Veuillez noter qu\u2019un entretien pr\u00e9ventif des services de la Direction g\u00e9n\u00e9rale des syst\u00e8mes d\u2019information aura lieu le samedi 13 janvier 2018 dans la tour 3 du Complexe de l\u2019administration centrale du portefeuille de l\u2019Agriculture (<abbr title=\"Complexe de l\u2019administration centrale du portefeuille de l\u2019Agriculture\">CACPA</abbr>).</p>\n<p>En cons\u00e9quence, les services suivants pourraient ne pas \u00eatre accessibles pendant les p\u00e9riodes suivantes :</p>\n<p><strong>Samedi </strong><strong>13 janvier \u2013 9 h \u00e0 19 h (HE)</strong></p>\n<p>Services li\u00e9s aux postes de travail et au t\u00e9l\u00e9phone pour les clients se trouvant dans la tour, y compris :</p>\n<ul>\n<li>Acc\u00e8s \u00e0 toutes les applications organisationnelles</li>\n<li>Acc\u00e8s au courriel</li>\n<li>Acc\u00e8s \u00e0 Internet</li>\n<li>Acc\u00e8s aux lecteurs du r\u00e9seau</li>\n<li>Acc\u00e8s au service 911</li>\n<li>Appels sortants (les appels entrants seront cependant enregistr\u00e9s dans le syst\u00e8me de messagerie vocale)</li>\n<li>Acc\u00e8s aux services de r\u00e9ponse automatique</li>\n<li>Acc\u00e8s \u00e0 la messagerie vocale</li>\n</ul>\n<p><strong>Nota :</strong> Comme l\u2019acc\u00e8s au service 911 sera interrompu, les employ\u00e9s ne doivent pas pr\u00e9voir \u00eatre pr\u00e9sents dans la tour 3 au cours de la p\u00e9riode indiqu\u00e9e. <strong>Pour avoir acc\u00e8s \u00e0 cette tour au cours de la p\u00e9riode indiqu\u00e9e, les employ\u00e9s doivent appeler le Centre de contr\u00f4le de la s\u00e9curit\u00e9 en composant le 3-3333. </strong>Toute personne d\u00e9sirant entrer dans la tour 3 devra avoir un appareil mobile en sa possession afin d'\u00eatre conforme aux exigences\u00a0de sant\u00e9 et de s\u00e9curit\u00e9. Il incombe \u00e0 chaque employ\u00e9 d\u2019avoir un appareil mobile \u00e0 sa disposition. </p>\n<p>Si vous avez des questions ou des pr\u00e9occupations \u00e0 ce sujet, n'h\u00e9sitez pas \u00e0 communiquer avec le IT Centre TI.</p>\n<p><strong>IT Centre TI<br></strong>T\u00e9l\u00e9phone : 1-855-545-4411<br><a href=\"http://assystweb:8080/assystnet\">Mon IT Centre TI</a></p>\n<p><img src=\"https://intranet.agr.gc.ca/resources/prod/news/images/ITCentreTI2.png\" class=\"center-block\" alt=\"ITCentreTI\"></p>\n\t\t"
    },
    "breadcrumb": {
        "en": "Scheduled Maintenance of ISB Services - Workstation and Phone Services for Tower 3, NHCAP...",
        "fr": "Entretien pr\u00e9vu des services de la DGSI - Services t\u00e9l\u00e9phoniques et des postes de travail de la tour"
    },
    "news": {
        "date_posted": {
            "en": "2018-01-09",
            "fr": "2018-01-09"
        },
        "to": {
            "en": "All staff",
            "fr": "Tous les employ\u00e9s"
        },
        "by": {
            "en": "IT Centre TI",
            "fr": "IT Centre TI"
        }
    }
}