{
    "dcr_id": "1515608669854",
    "lang": "en",
    "title": {
        "en": "Economist",
        "fr": "\u00c9conomiste"
    },
    "modified": "2018-01-12 00:00:00.0",
    "issued": "2018-01-12 00:00:00.0",
    "type_name": "intra-intra/empl-empl",
    "node_id": "1279029955397",
    "layout_name": null,
    "dc_date_created": "2018-01-10",
    "breadcrumb_label": "",
    "meta": {
        "issued": {
            "en": "2018-01-12",
            "fr": "2018-01-12"
        },
        "modified": {
            "en": "2018-01-12",
            "fr": "2018-01-12"
        },
        "format": {
            "en": "gcformat",
            "fr": "gcformat"
        },
        "title": {
            "en": "Economist",
            "fr": "\u00c9conomiste"
        },
        "subject": {
            "en": "staffing",
            "fr": "dotation en personnel"
        },
        "language": {
            "en": "eng",
            "fr": "fra"
        },
        "audience": {
            "en": "gcaudience",
            "fr": "gcaudience"
        },
        "type": {
            "en": "notice",
            "fr": "avis"
        },
        "creator": {
            "en": "Agriculture and Agri-Food Canada",
            "fr": "Agriculture et Agroalimentaire Canada"
        },
        "spatial": {
            "en": "gcregions",
            "fr": "gcregions"
        },
        "service": {
            "en": "AAFC_AgriSource",
            "fr": "AAC_AgriSource"
        },
        "accessRights": {
            "en": "3",
            "fr": "3"
        }
    },
    "body": {
        "en": "\n<p>The Economic Market Analysis (EMA) and the Agricultural and Environmental Policy Analysis (AEPA) units in the Research and Analysis Directorate (RAD) of the Strategic Policy Branch (SPB) are seeking expressions of interest for candidates for assignments and/or deployments, at the EC-03 to EC-05 levels (at level), including employees in the ECDP.</p>\n<p><strong>EMA Positions</strong>: EMA undertakes quantitative analysis using economic/analytical tools to analyse major trends and shifts that arise in the Canadian and global agriculture and agri-food markets. EMA develops the AAFC Medium Term Outlook (MTO) that identifies the key factors that will influence the sector going forward and aide in the development of the priorities and strategic direction of the Department.</p>\n<p><strong>AEPA Positions</strong>: AEPA provides economic policy analysis on departmental priorities, including improving the sector\u2019s environmental performance, increasing economic opportunities, and accelerating the development and adoption of innovative technologies. AEPA develops quantitative economic models for the analysis of policy scenarios such as bilateral and regional trade agreements, climate change, labour markets and other current trends affecting the agriculture sector.</p>\n<p>Successful candidates will be responsible for developing medium term supply, demand, trade and price projections for key agricultural sectors both domestically and internationally. Successful candidates will be responsible for undertaking economic research and quantitative analysis using econometric models and other quantitative tools. Successful candidates will respond to requests from internal and external clients using sound economic principles. Requests can take many forms including but not limited to: data and information requests; briefing materials, technical reports, scenario analyses or notes, market analysis, etc.</p>\n<p><strong>Official Language Proficiency:</strong></p>\n<p>French or English, or Bilingual BBB/BBB</p>\n<p><strong>Applications</strong></p>\n<p>R\u00e9sum\u00e9s must clearly identify:</p>\n<ul>\n<li>\n<p>Your tenure (e.g., term or indeterminate)</p>\n</li>\n<li>\n<p>Your security clearance</p>\n</li>\n<li>\n<p>Your substantive group and level</p>\n</li>\n</ul>\n<p>Cover letters must clearly identify:</p>\n<ul>\n<li>\n<p>Your education and work experience and qualifications that you would bring to the job.</p>\n</li>\n</ul>\n<p>Interested AAFC employees are encouraged to forward their r\u00e9sum\u00e9 and cover letter to Thea Clark at <a href=\"mailto:NAME@agr.gc.ca\">thea.clark@agr.gc.ca</a> before the deadline.</p>\n<p><strong>Notes:</strong></p>\n<ul>\n<li>\n<p>Communication for this process will be sent via email.</p>\n</li>\n<li>\n<p>Candidates may be assessed through an interview.</p>\n</li>\n<li>\n<p>A written exam may be administered.</p>\n</li>\n<li>\n<p>Reference checks may be sought.</p>\n</li>\n</ul>\n<p>Candidates must have their manager\u2019s approval prior to applying.</p>\n<p>\u00a0</p>\n",
        "fr": "\n<p>La Section de l\u2019analyse \u00e9conomique des march\u00e9s (AEM) et la Section des analyses politiques environnementales et agricoles (APEA) de la Direction de la recherche et de l\u2019analyse (DRA) de la Direction g\u00e9n\u00e9rale des politiques strat\u00e9giques (DGPS) invitent les personnes int\u00e9ress\u00e9es par des affectations et/ou des mutations, aux niveaux EC-03 \u00e0 EC-05 (niveau \u00e9quivalent), y compris les employ\u00e9s participant au PPEC, \u00e0 faire part de leur int\u00e9r\u00eat.</p>\n<p><strong>Postes \u00e0 la Section de l\u2019AEM </strong>: La Section de l\u2019AEM effectue des analyses quantitatives au moyen d\u2019outils \u00e9conomiques analytiques pour analyser les principaux changements et tendances qui surviennent dans les march\u00e9s agricoles et agroalimentaires canadiens et mondiaux. La Section de l\u2019AEM \u00e9labore la perspective d\u2019AAC \u00e0 moyen terme qui d\u00e9finit les principaux facteurs qui auront une incidence sur le secteur par la suite et qui aidera \u00e0 l\u2019\u00e9laboration des priorit\u00e9s et de l\u2019orientation strat\u00e9gique du Minist\u00e8re.</p>\n<p><strong>Postes \u00e0 la Section de l\u2019APEA </strong>: La Section de l\u2019APEA effectue des analyses politiques \u00e9conomiques \u00e0 l\u2019\u00e9gard des priorit\u00e9s minist\u00e9rielles, notamment pour am\u00e9liorer le rendement environnemental du secteur, augmenter les possibilit\u00e9s \u00e9conomiques et acc\u00e9l\u00e9rer l\u2019\u00e9laboration et l\u2019adoption de technologies novatrices. La Section de l\u2019APEA \u00e9labore des mod\u00e8les \u00e9conomiques quantitatifs pour analyser les sc\u00e9narios de politiques notamment pour les accords commerciaux bilat\u00e9raux et r\u00e9gionaux, les changements climatiques, le march\u00e9 du travail et d\u2019autres tendances actuelles ayant une incidence sur le secteur agricole.</p>\n<p>Les candidats retenus devront \u00e9laborer l\u2019offre \u00e0 moyen terme, la demande, les pr\u00e9visions relatives au commerce et aux prix pour les principaux secteurs agricoles nationaux et internationaux. Les candidats retenus devront effectuer de la recherche \u00e9conomique et de l\u2019analyse quantitative au moyen de mod\u00e8les \u00e9conom\u00e9triques et d\u2019autres outils quantitatifs. Les candidats retenus devront r\u00e9pondre aux demandes d\u2019information des clients internes et externes en tenant compte des solides principes \u00e9conomiques. Les demandes peuvent prendre diverses formes, dont les suivantes : demandes de donn\u00e9es et d\u2019information; de documents d\u2019information, de rapports techniques, d\u2019analyses ou de notes de sc\u00e9nario, d\u2019analyses de march\u00e9.</p>\n<p><strong>Exigences linguistiques</strong></p>\n<p>Fran\u00e7ais ou anglais, ou bilingue BBB/BBB</p>\n<p><strong>Demandes</strong></p>\n<p>Dans leur curriculum vitae, les candidats doivent clairement indiquer:</p>\n<ul>\n<li>\n<p>La dur\u00e9e de leur emploi (p. ex. d\u00e9termin\u00e9e ou ind\u00e9termin\u00e9e)</p>\n</li>\n<li>\n<p>Leur cote de s\u00e9curit\u00e9</p>\n</li>\n<li>\n<p>Leur groupe et niveau de titularisation</p>\n</li>\n</ul>\n<p>Dans leur lettre de pr\u00e9sentation, les candidats doivent clairement indiquer:</p>\n<ul>\n<li>\n<p>Leurs \u00e9tudes, exp\u00e9rience pratique et qualifications pour le travail \u00e0 accomplir.</p>\n</li>\n</ul>\n<p>Les employ\u00e9s d\u2019AAC qui souhaitent poser leur candidature peuvent envoyer leur curriculum vitae et une lettre de pr\u00e9sentation \u00e0 Thea Clark \u00e0 <a href=\"mailto:NAME@agr.gc.ca\">thea.clark@agr.gc.ca</a> avant la date limite.</p>\n<p><strong>Remarques</strong></p>\n<ul>\n<li>\n<p>Les communications relatives au processus de s\u00e9lection se feront par courriel.</p>\n</li>\n<li>\n<p>Les candidats pourraient \u00eatre \u00e9valu\u00e9s au moyen d\u2019une entrevue.</p>\n</li>\n<li>\n<p>Les candidats pourraient devoir passer un examen \u00e9crit.</p>\n</li>\n<li>\n<p>Une v\u00e9rification des r\u00e9f\u00e9rences pourrait \u00eatre effectu\u00e9e.</p>\n</li>\n</ul>\n<p>Les candidats devront obtenir l\u2019approbation de leur gestionnaire avant que leur candidature soit prise en consid\u00e9ration.</p>\n<p>\u00a0</p>\n\n"
    },
    "breadcrumb": {
        "en": "Economist",
        "fr": "\u00c9conomiste"
    },
    "empl": {
        "type": {
            "en": "Assignment, Deployment",
            "fr": "Affectation, Mutation"
        },
        "classification": {
            "en": "EC-3, EC-4, EC-5 and equivalent",
            "fr": "EC-3, EC-4, EC-5 et \u00e9quivalent"
        },
        "branch": {
            "en": "Strategic Policy Branch",
            "fr": "Direction g\u00e9n\u00e9rale des politiques strat\u00e9giques"
        },
        "locations": {
            "en": "NCR",
            "fr": "RCN"
        },
        "date_closing": {
            "en": "2018-01-24",
            "fr": "2018-01-24"
        },
        "open_to": {
            "en": "All AAFC Employees in the NCR",
            "fr": "Tous les employ\u00e9s d'AAC dans le RCN"
        },
        "name": {
            "en": "Thea Clark",
            "fr": "Thea Clark"
        },
        "email": {
            "en": "thea.clark@agr.gc.ca",
            "fr": "thea.clark@agr.gc.ca"
        }
    }
}