{
    "dcr_id": "1515675882648",
    "lang": "en",
    "title": {
        "en": "Reminder - Mental Health Awareness Events in January ",
        "fr": "Rappel - Activit\u00e9s de sensibilisation \u00e0 la sant\u00e9 mentale en janvier "
    },
    "modified": "2018-01-17 00:00:00.0",
    "issued": "2018-01-11 00:00:00.0",
    "type_name": "intra-intra/news-nouv",
    "node_id": "1279030006975",
    "layout_name": null,
    "dc_date_created": "2018-01-11",
    "breadcrumb_label": "",
    "meta": {
        "issued": {
            "en": "2018-01-11",
            "fr": "2018-01-11"
        },
        "modified": {
            "en": "2018-01-17",
            "fr": "2018-01-17"
        },
        "format": {
            "en": "gcformat",
            "fr": "gcformat"
        },
        "title": {
            "en": "Reminder - Mental Health Awareness Events in January ",
            "fr": "Rappel - Activit\u00e9s de sensibilisation \u00e0 la sant\u00e9 mentale en janvier "
        },
        "subject": {
            "en": "communications",
            "fr": "communications"
        },
        "description": {
            "en": "Across Canada, open discussions about mental health are raising awareness, fighting stigma, improving access to care and bolstering the well-being of all Canadians, both at home and in the workplace. Join the conversation at two special events in January.",
            "fr": "Partout au Canada, des discussions ouvertes sur la sant\u00e9 mentale permettent de sensibiliser les gens, de lutter contre les pr\u00e9jug\u00e9s, d'am\u00e9liorer l'acc\u00e8s aux soins et de favoriser le mieux-\u00eatre de tous les Canadiens \u00e0 la maison et au travail. Participez \u00e0 la conversation lors de deux activit\u00e9s sp\u00e9ciales qui auront lieu en janvier."
        },
        "language": {
            "en": "eng",
            "fr": "fra"
        },
        "audience": {
            "en": "gcaudience",
            "fr": "gcaudience"
        },
        "creator": {
            "en": "Agriculture and Agri-Food Canada",
            "fr": "Agriculture et Agroalimentaire Canada"
        },
        "spatial": {
            "en": "gcregions",
            "fr": "gcregions"
        },
        "service": {
            "en": "AAFC_AgriSource",
            "fr": "AAC_AgriSource"
        },
        "accessRights": {
            "en": "3",
            "fr": "3"
        }
    },
    "body": {
        "en": "<br>\n<br>\n<p>Across Canada, open discussions about mental health are raising awareness, fighting stigma, improving access to care and bolstering the well-being of all Canadians, both at home and in the workplace. Join the conversation at two special events in January.</p>\n<h2><strong>Federal Speaker\u2019s Bureau on Mental Health: Dr. Jessica Ward-King</strong></h2>\n<p>On January 23, Dr. Jessica Ward-King, a mental health advocate with the Canada School of Public Service, will be sharing her experience with mental health struggles. Despite enjoying success in both her professional and personal lives, self-stigma prevented her from accessing the help she desperately needed, for almost half her life.</p>\n<p>Dr. Jessica Ward-King obtained her Ph.D. in psychology and has conducted research in the area of mental health stigma. While studying for her Ph.D., she was diagnosed with bipolar II disorder and struggled with self-stigma. She underwent a multitude of treatments, some extreme, and is now living well in recovery.</p>\n<h3><strong>Event information</strong></h3>\n<p><strong>Date and Time</strong>:<strong> </strong>Tuesday, January 23, 2018 | 1:30 to 3:00 p.m. (ET)<br>\n<strong>Language</strong>: Bilingual<br>\n<strong>Location</strong>: Ottawa: NHCAP T3-1-351<br>\nAvailable across Canada by videoconference<br>\n<strong>Registration: </strong><a href=\"https://collab.agr.gc.ca/co/aafcwe-beaac/Lists/Events/DispForm.aspx?ID=14\">Ottawa</a> | <a href=\"https://collab.agr.gc.ca/co/aafcwe-beaac/Lists/Events/DispForm.aspx?ID=15\">Videoconference or Teleconference</a></p>\n<h2><strong>Mental Health at Work: Let\u2019s Talk</strong></h2>\n<p>On January 31, Dr. Oren Amitay will explore ways we can support each other and create a positive mental health environment at work. Dr. Amitay is a registered psychologist and media consultant who believes that a greater sense of control over one\u2019s environment should be a key life goal.</p>\n<h3><strong>Event information</strong></h3>\n<p>This session will take place in two parts: a session in Toronto that will be webcast nationwide (1 hour) and an on-site workshop (1 to 1.5 hours, depending on location). Participants outside of Toronto can register for the webcast only, which is accessible across Canada.</p>\n<p><strong>Date and Time</strong>:<strong> </strong>Wednesday, January 31, 2018 | 1:00 to 2:00 p.m. (ET)<br>\n<strong>Language</strong>: English with interpretation in French.<br><strong>Registration: </strong>Required through <a href=\"http://www.csps-efpc.gc.ca/events/mhw-lt/index-eng.aspx\">Canada School of Public Service</a> if attending in person or by webcast.</p>\n<p><strong>Note:</strong> The session will be streamed live for employees in Ottawa from NHCAP in rooms T7-2-211 and T4-2-211 (no registration required).</p>\n<p><img src=\"https://intranet.agr.gc.ca/resources/prod/news/images/HealthyWorkplace.png\" class=\"center-block\" alt=\"Healthy Workplace Banner\"></p>\n<p>\u00a0</p>\n\n\t\t",
        "fr": "<br>\n<br>\n<p>Partout au Canada, des discussions ouvertes sur la sant\u00e9 mentale permettent de sensibiliser les gens, de lutter contre les pr\u00e9jug\u00e9s, d\u2019am\u00e9liorer l\u2019acc\u00e8s aux soins et de favoriser le mieux-\u00eatre de tous les Canadiens \u00e0 la maison et au travail. Participez \u00e0 la conversation lors de deux activit\u00e9s sp\u00e9ciales qui auront lieu en janvier.</p>\n<h2><strong>Bureau des conf\u00e9renciers sur la sant\u00e9 mentale du Canada : Jessica Ward-King (Ph. D.)</strong></h2>\n<p>Le 23 janvier, Jessica Ward-King (Ph. D.), intervenante en sant\u00e9 mentale \u00e0 l\u2019\u00c9cole de la fonction publique du Canada, parlera des probl\u00e8mes de sant\u00e9 mentale dont elle a souffert. M\u00eame si elle connaissait le succ\u00e8s dans sa vie professionnelle et sa vie personnelle, l\u2019autostigmatisation l\u2019a emp\u00each\u00e9e de demander l\u2019aide dont elle avait d\u00e9sesp\u00e9r\u00e9ment besoin pendant pr\u00e8s de la moiti\u00e9 de sa vie.</p>\n<p>Jessica Ward-King est titulaire d\u2019un doctorat en psychologie et a men\u00e9 des recherches sur les pr\u00e9jug\u00e9s li\u00e9s \u00e0 la maladie mentale. Pendant ses \u00e9tudes de doctorat, on lui a diagnostiqu\u00e9 un trouble bipolaire de type 2 et elle a \u00e9t\u00e9 en proie \u00e0 l\u2019autostigmatisation. Elle a re\u00e7u divers traitements, dont certains \u00e9taient extr\u00eames, et se porte maintenant bien.</p>\n<h3><strong>Renseignements sur l\u2019activit\u00e9</strong></h3>\n<p><strong>Date et heure </strong>:<strong> </strong>Le mardi 23 janvier 2018 | De 13 h 30 \u00e0 15 h (HE)<br>\n<strong>Langue </strong>: Bilingue<br>\n<strong>Lieu </strong>: Ottawa : CACPA T3-1-351<br>\nAcc\u00e8s par vid\u00e9oconf\u00e9rence partout au Canada<br>\n<strong>Inscription : </strong><a href=\"https://collab.agr.gc.ca/co/aafcwe-beaac/Lists/Events/DispForm.aspx?ID=14\">Ottawa</a> | <a href=\"https://collab.agr.gc.ca/co/aafcwe-beaac/Lists/Events/DispForm.aspx?ID=15\">Vid\u00e9oconf\u00e9rence ou t\u00e9l\u00e9conf\u00e9rence</a></p>\n<h2><strong>La sant\u00e9 mentale au travail : Parlons-en</strong></h2>\n<p>Le 31 janvier, Oren Amitay (Ph. D.) expliquera comment nous pouvons nous entraider de diff\u00e9rentes fa\u00e7ons et cr\u00e9er un climat de travail propice \u00e0 la sant\u00e9 mentale. M. Amitay, qui est psychologue agr\u00e9\u00e9 et consultant en m\u00e9dias, croit qu\u2019un de nos grands objectifs de vie devrait \u00eatre de chercher \u00e0 avoir une plus grande influence sur notre environnement.</p>\n<h3><strong>Renseignements sur l\u2019activit\u00e9</strong></h3>\n<p>Cette activit\u00e9 comprend deux volets : une s\u00e9ance \u00e0 Toronto qui sera diffus\u00e9e sur le Web \u00e0 l\u2019\u00e9chelle nationale (1 heure) et un atelier sur place (entre 1 heure et 1,5 heure selon l\u2019endroit). Les participants \u00e0 l\u2019ext\u00e9rieur de Toronto peuvent soit s\u2019inscrire \u00e0 la web\u00e9mission seulement, qui est diffus\u00e9e partout au Canada.</p>\n<p><strong>Date et heure </strong>:<strong> </strong>Le mercredi 31 janvier 2018 | De 13 h \u00e0 14 h (HE)<br>\n<strong>Langue </strong>: En anglais avec interpr\u00e9tation en fran\u00e7ais<br><strong>Inscription : </strong>Vous devez vous inscrire aupr\u00e8s de l\u2019<a href=\"http://www.csps-efpc.gc.ca/events/mhw-lt/index-fra.aspx\">\u00c9cole de la fonction publique du Canada</a> pour la participation en personne ou la web\u00e9mission.</p>\n<p><strong>Remarque :</strong> La s\u00e9ance sera diffus\u00e9e en direct pour les employ\u00e9s \u00e0 Ottawa dans les salles T7-2-211 et T4-2-211 du CACPA (aucune inscription requise).</p>\n<p><img src=\"https://intranet.agr.gc.ca/resources/prod/news/images/HealthyWorkplace.png\" class=\"center-block\" alt=\"La sant\u00e9 au travail\"></p>\n\t\t"
    },
    "breadcrumb": {
        "en": "Reminder - Mental Health Awareness Events in January",
        "fr": "Rappel - Activit\u00e9s de sensibilisation \u00e0 la sant\u00e9 mentale en janvier"
    },
    "news": {
        "date_posted": {
            "en": "2018-01-11",
            "fr": "2018-01-11"
        },
        "to": {
            "en": "All staff",
            "fr": "Tous les employ\u00e9s"
        },
        "by": {
            "en": "Human Resources, Corporate Management Branch",
            "fr": "Ressources humaines, Direction g\u00e9n\u00e9rale de la gestion int\u00e9gr\u00e9e"
        }
    }
}