{
    "dcr_id": "1516117004304",
    "lang": "en",
    "title": {
        "en": "Scheduled Maintenance of ISB Services Including Email and BlackBerry Email Services - January 19-21",
        "fr": "Entretien pr\u00e9vu des services de la DGSI, y compris les services de courriel et de courriel BlackBerry - Du 19 au 21 janvier "
    },
    "modified": "2018-01-18 00:00:00.0",
    "issued": "2018-01-18 00:00:00.0",
    "type_name": "intra-intra/news-nouv",
    "node_id": "1279030006975",
    "layout_name": null,
    "dc_date_created": "2018-01-16",
    "breadcrumb_label": "",
    "meta": {
        "issued": {
            "en": "2018-01-18",
            "fr": "2018-01-18"
        },
        "modified": {
            "en": "2018-01-18",
            "fr": "2018-01-18"
        },
        "format": {
            "en": "gcformat",
            "fr": "gcformat"
        },
        "title": {
            "en": "Scheduled Maintenance of ISB Services Including Email and BlackBerry Email Services - January 19-21",
            "fr": "Entretien pr\u00e9vu des services de la DGSI, y compris les services de courriel et de courriel BlackBerry - Du 19 au 21 janvier "
        },
        "subject": {
            "en": "communications",
            "fr": "communications"
        },
        "description": {
            "en": "Please be advised that preventative maintenance of ISB services will be performed Friday, January 19, 2018 through Sunday, January 21, 2018.",
            "fr": "Veuillez noter qu'un entretien pr\u00e9ventif des services de la Direction g\u00e9n\u00e9rale des syst\u00e8mes d'information aura lieu du vendredi 19 janvier 2018 au dimanche 21 janvier 2018."
        },
        "language": {
            "en": "eng",
            "fr": "fra"
        },
        "audience": {
            "en": "gcaudience",
            "fr": "gcaudience"
        },
        "creator": {
            "en": "Agriculture and Agri-Food Canada",
            "fr": "Agriculture et Agroalimentaire Canada"
        },
        "spatial": {
            "en": "gcregions",
            "fr": "gcregions"
        },
        "service": {
            "en": "AAFC_AgriSource",
            "fr": "AAC_AgriSource"
        },
        "accessRights": {
            "en": "3",
            "fr": "3"
        }
    },
    "body": {
        "en": "<br>\n<br>\n<p>Please be advised that preventative maintenance of ISB services will be performed Friday, January 19, 2018 through Sunday, January 21, 2018.</p>\n<p>These downtimes\u00a0are planned as part of an infrastructure management plan. By turning off these systems for regular maintenance, we ensure employees don't experience any major, unplanned outages.</p>\n<p>Consequently, the following services will not be available during the following times.</p>\n<p><strong>Friday, January 19 \u2013 7:00 p.m. until Sunday, January 21, 2018 - 5:00 p.m. (ET)</strong></p>\n<ul>\n<li>All ISB services (e.g., applications, web pages/platforms, email, BlackBerry email) will experience a brief, intermittent interruption during this timeframe, including:\n<ul>\n<li>IDVS voice services in Towers 3 - 7 at the National Headquarters for the Agriculture Portfolio (<abbr title=\"National Headquarters for the Agriculture Portfolio\">NHCAP</abbr>):\n<ul>\n<li>Access to 911</li>\n<li>Outbound calls (inbound calls will go to voice mail)</li>\n<li>Access to auto-attendant services</li>\n<li>Access to voice mail</li>\n</ul>\n</li>\n</ul>\n</li>\n</ul>\n<p>\n<strong>Note:</strong> As access to 911 will be interrupted, employees who plan to use Towers 3 - 7 at <abbr title=\"National Headquarters for the Agriculture Portfolio\">NHCAP</abbr> during this timeframe must have a mobile device to ensure health and safety considerations are met. Employees are responsible for ensuring that they have a mobile device available.</p>\n<p><strong>Saturday, January 20 \u2013 11:00 a.m. until 12:00 p.m. (ET)</strong></p>\n<ul>\n<li>PeopleSoft\n<ul>\n<li>\nEmployee Self-Servic</li>\n<li>Leave Self-Servic</li>\n<li>PeopleSoft Human Resources Management System</li>\n<li>PeopleSoft Reporting</li>\n</ul>\n</li>\n</ul>\n<p><strong>Sunday, January 21 \u2013 5:00 a.m. until 9:00 a.m. (ET)</strong></p>\n<ul>\n<li>Canada School of Public Service Website</li>\n<li>MyKey\n<ul>\n<li>Email encryption</li>\n<li>Document encryption</li>\n<li>Access to Phoenix Service</li>\n<li>Access to Compensation Web Applications Service</li>\n<li>Access to Public Service Performance Applications Service</li>\n</ul>\n</li>\n</ul>\n<p><strong>Note: </strong>Since MyKey will not be available, any employee who needs to work with encrypted files/emails should\u00a0ensure the work is done before the maintenance window.</p>\n<p><strong>Sunday, January 21 \u2013 9:00 a.m. until 5:00 p.m. (ET)</strong></p>\n<ul>\n<li>AAFC Online</li>\n<li>Advance Payment Program </li>\n<li>AgriConnexion</li>\n<li>Agriculture Accounts Receivable Management System</li>\n<li>Agri-invest</li>\n<li>AgriRecovery</li>\n<li>AgriRisk</li>\n<li>AgriShare</li>\n<li>Agroclimate Information Service </li>\n<li>Biodiversity Production</li>\n<li>Business Risk Management System</li>\n<li>Canadian Adaptation and Rural Development Fund</li>\n<li>Canadian Pari-Mutuel Agency Statistical System </li>\n<li>Drought Watch </li>\n<li>E-Search (AgriSource)</li>\n<li>External AgriShare</li>\n<li>External Search</li>\n<li>Grants and Contributions Delivery System</li>\n<li>InfoHort</li>\n<li>Monitoring and Reporting System </li>\n<li>Production Insurance National Statistical System</li>\n</ul>\n<p>Should you have any questions or concerns,\u00a0please contact IT Centre TI.</p>\n<p><strong>IT Centre TI<br>\n</strong>Telephone: 1-855-545-4411<br>\n<a href=\"http://assystweb.agr.gc.ca:8080/assystnet\">My IT Centre TI</a></p>\n<p><img src=\"https://intranet.agr.gc.ca/resources/prod/news/images/ITCentreTI2.png\" class=\"center-block\" alt=\"ITCentreTI\"></p>\n\n\t\t",
        "fr": "<br>\n<br>\n<p>Veuillez noter qu\u2019un entretien pr\u00e9ventif des services de la Direction g\u00e9n\u00e9rale des syst\u00e8mes d\u2019information aura lieu du vendredi 19 janvier 2018 au dimanche 21 janvier 2018.</p>\n<p>Cette interruption est pr\u00e9vue dans un plan de gestion de l\u2019infrastructure. En d\u00e9sactivant les syst\u00e8mes concern\u00e9s pour un entretien r\u00e9gulier, nous pr\u00e9venons les pannes majeures impr\u00e9vues qui entravent le travail des employ\u00e9s.</p>\n<p>En cons\u00e9quence, les services suivants ne seront pas accessibles pendant les p\u00e9riodes suivantes :</p>\n<p><strong>Vendredi 19 janvier 2018 \u00e0 19 h au dimanche 21 janvier 2018 \u00e0 17 h (HE)</strong></p>\n<ul>\n<li>Tous les services de la DGSI (p. ex. applications, pages/plateformes Web, courriel, courriel BlackBerry) seront interrompus bri\u00e8vement par intermittence pendant cette p\u00e9riode, dont les suivants :\n<ul>\n<li>La solution d\u2019interr\u00e9seautage voix-donn\u00e9es dans les tours 3 \u00e0 7 du Complexe de l\u2019administration centrale du portefeuille de l\u2019Agriculture (<abbr title=\"Complexe de l\u2019administration centrale du portefeuille de l\u2019Agriculture \">CACPA</abbr>) :\u00a0 \n<ul>\n<li>Acc\u00e8s au service 911</li>\n<li>Appels sortants (les appels entrants seront enregistr\u00e9s dans le syst\u00e8me de messagerie vocale)</li>\n<li>Acc\u00e8s aux services de r\u00e9ponse automatique</li>\n<li>Acc\u00e8s \u00e0 la messagerie vocale</li>\n</ul>\n</li>\n</ul>\n</li>\n</ul>\n<p><strong>Remarque :</strong> Comme l\u2019acc\u00e8s au service 911 sera interrompu, les employ\u00e9s qui pr\u00e9voient travailler dans les tours 3 \u00e0 7 du <abbr title=\"Complexe de l\u2019administration centrale du portefeuille de l\u2019Agriculture \">CACPA</abbr> pendant cette p\u00e9riode devront avoir un appareil mobile sur eux pour se conformer aux exigences en mati\u00e8re de sant\u00e9 et de s\u00e9curit\u00e9. Il incombe \u00e0 chaque employ\u00e9 d\u2019avoir un appareil mobile \u00e0 sa disposition.</p>\n<p><strong>Samedi 20 janvier, de 11 h \u00e0 12 h (HE)</strong></p>\n<ul>\n<li>PeopleSoft\n<ul>\n<li>Libre-service des employ\u00e9s</li>\n<li>Libre-service des cong\u00e9s</li>\n<li>Syst\u00e8me de gestion des ressources humaines PeopleSoft</li>\n<li>Rapports de PeopleSoft</li>\n</ul>\n</li>\n</ul>\n<p><strong>Dimanche 21 janvier, de 5 h \u00e0 9 h (HE)</strong></p>\n<ul>\n<li>Site Web de l\u2019\u00c9cole de la fonction publique du Canada</li>\n<li>maCL\u00c9\n<ul>\n<li>Chiffrement des courriels</li>\n<li>Chiffrement des documents</li>\n<li>Acc\u00e8s aux services de Ph\u00e9nix</li>\n<li>Acc\u00e8s aux applications Web de la r\u00e9mun\u00e9ration</li>\n<li>Acc\u00e8s \u00e0 l\u2019application de gestion du rendement de la fonction publique</li>\n</ul>\n</li>\n</ul>\n<p><strong>Remarque : </strong>\u00c9tant donn\u00e9 que maCL\u00c9 ne sera pas accessible, les employ\u00e9s qui ont \u00e0 travailler avec des fichiers ou des courriels chiffr\u00e9s doivent s\u2019assurer d\u2019accomplir le travail avant le d\u00e9but de la p\u00e9riode d\u2019entretien.</p>\n<p><strong>Dimanche 21 janvier, de 9 h \u00e0 17 h (HE)</strong></p>\n<ul>\n<li>AAC en direct</li>\n<li>Programme de paiements anticip\u00e9s</li>\n<li>AgriConnexion</li>\n<li>Syst\u00e8me de gestion des comptes clients d\u2019Agriculture</li>\n<li>Agri-investissement</li>\n<li>Agri-relance</li>\n<li>Agri-risques</li>\n<li>Agri-\u00e9change</li>\n<li>Service d\u2019information sur l\u2019agroclimat </li>\n<li>Production aux fins de la biodiversit\u00e9</li>\n<li>Syst\u00e8me de gestion des risques de l\u2019entreprise </li>\n<li>Fonds canadien d\u2019adaptation et de d\u00e9veloppement rural </li>\n<li>Syst\u00e8me statistique de l\u2019Agence canadienne du pari mutuel</li>\n<li>Guetter la s\u00e9cheresse\u00a0 </li>\n<li>Recherche \u00e9lectronique (AgriSource)</li>\n<li>Agri-\u00e9change (externe)</li>\n<li>Recherche externe</li>\n<li>Syst\u00e8me de prestation des subventions et des contributions</li>\n<li>InfoHort</li>\n<li>Syst\u00e8me de surveillance et d\u2019\u00e9tablissement de rapports</li>\n<li>Syst\u00e8me statistique national de l\u2019assurance production</li>\n</ul>\n<p>Si vous avez des questions ou des pr\u00e9occupations \u00e0 ce sujet, communiquer avec le IT\u00a0Centre TI.</p>\n<p><strong>IT Centre TI<br>\n</strong>T\u00e9l\u00e9phone : 1-855-545-4411<br>\n<a href=\"http://assystweb.agr.gc.ca:8080/assystnet\">Mon IT Centre TI</a></p>\n<p><img src=\"https://intranet.agr.gc.ca/resources/prod/news/images/ITCentreTI2.png\" class=\"center-block\" alt=\"ITCentreTI\"></p>\n\t\t"
    },
    "breadcrumb": {
        "en": "Scheduled Maintenance of ISB Services Including Email and BlackBerry Email Services - January 19-21",
        "fr": "Entretien pr\u00e9vu des services de la DGSI, y compris les services de courriel et de courriel..."
    },
    "news": {
        "date_posted": {
            "en": "2018-01-16",
            "fr": "2018-01-16"
        },
        "to": {
            "en": "All staff",
            "fr": "Tous les employ\u00e9s"
        },
        "by": {
            "en": "IT Centre TI",
            "fr": "IT Centre TI"
        }
    }
}