{
    "dcr_id": "1516294951881",
    "lang": "en",
    "title": {
        "en": "Bilingual Administrative Positions ",
        "fr": "Postes bilingue en administration"
    },
    "modified": "2018-01-25 00:00:00.0",
    "issued": "2018-01-19 00:00:00.0",
    "type_name": "intra-intra/empl-empl",
    "node_id": "1279029955397",
    "layout_name": null,
    "dc_date_created": "2018-01-19",
    "breadcrumb_label": "",
    "meta": {
        "issued": {
            "en": "2018-01-19",
            "fr": "2018-01-19"
        },
        "modified": {
            "en": "2018-01-25",
            "fr": "2018-01-25"
        },
        "format": {
            "en": "gcformat",
            "fr": "gcformat"
        },
        "title": {
            "en": "Bilingual Administrative Positions ",
            "fr": "Postes bilingue en administration"
        },
        "subject": {
            "en": "staffing",
            "fr": "dotation en personnel"
        },
        "language": {
            "en": "eng",
            "fr": "fra"
        },
        "audience": {
            "en": "gcaudience",
            "fr": "gcaudience"
        },
        "type": {
            "en": "notice",
            "fr": "avis"
        },
        "creator": {
            "en": "Agriculture and Agri-Food Canada",
            "fr": "Agriculture et Agroalimentaire Canada"
        },
        "spatial": {
            "en": "gcregions",
            "fr": "gcregions"
        },
        "service": {
            "en": "AAFC_AgriSource",
            "fr": "AAC_AgriSource"
        },
        "accessRights": {
            "en": "3",
            "fr": "3"
        }
    },
    "body": {
        "en": "\n<p><strong>Selection Process Number</strong>: 18-AGR-NCR-EA-CM-3</p>\n<p>\u00a0</p>\n<p>We are pleased to announce that we have launched a new AS-01, CR-05, PM-01 collaborative staffing processes for bilingual administrative positions in the NCR. An advertisement is currently on-line and will be closing on January 28, 2018. Please ensure you apply if you are interested in AS-01, CR-05, PM-01 opportunities at AAFC. Please feel free to share the link to the poster with anyone who may be interested.</p>\n<ul>\n<li>\n<p><span style='font-family: \"Times New Roman\",\"serif\"; font-size: 12pt; mso-fareast-font-family: Calibri; mso-fareast-theme-font: minor-latin; mso-ansi-language: EN-CA; mso-fareast-language: EN-CA; mso-bidi-language: AR-SA;'><a href=\"https://emploisfp-psjobs.cfp-psc.gc.ca/psrs-srfp/applicant/page1800?poster=1116679\">https://emploisfp-psjobs.cfp-psc.gc.ca/psrs-srfp/applicant/page1800?poster=1116679</a></span></p>\n</li>\n</ul>\n<p>\u00a0</p>\n<table border=\"1\" style=\"width: 100%;\" align=\"left\">\n<tbody>\n<tr>\n<td style=\"background-color: white; width: 99.32%;\">\n<p><strong>AAFC Collaborative Staffing</strong></p>\n</td>\n</tr>\n<tr>\n<td>\n<p><a href=\"mailto:aafc.collabresourcing-ressourcementcollab.aac@agr.gc.ca\">aafc.collabresourcing-ressourcementcollab.aac@agr.gc.ca</a></p>\n</td>\n</tr>\n</tbody>\n</table>\n",
        "fr": "\n<p><strong>Num\u00e9ro de processus de s\u00e9lection </strong>: 18-AGR-NCR-EA-CM-3</p>\n<p>\u00a0</p>\n<p>Nous avons le plaisir de signaler que nous avons lanc\u00e9 un nouveau processus de dotation collaborative de postes bilingues administratifs AS-01, CR-05, PM-01 dans la RCN. Nous avons affich\u00e9 l\u2019annonce d'emploi en ligne et fix\u00e9 la date de cl\u00f4ture au 28 janvier 2018. Veuillez postuler si vous \u00eates int\u00e9ress\u00e9s par des opportunit\u00e9s AS-01, CR-05, PM-01 \u00e0 AAC. N\u2019h\u00e9sitez pas \u00e0 partager le lien \u00e0 l\u2019affiche avec quiconque pourrait \u00eatre int\u00e9ress\u00e9 \u00e0 postuler.</p>\n<ul>\n<li><span style='font-family: \"Times New Roman\",\"serif\"; font-size: 12pt; mso-fareast-font-family: Calibri; mso-fareast-theme-font: minor-latin; mso-ansi-language: EN-CA; mso-fareast-language: EN-CA; mso-bidi-language: AR-SA;'><a href=\"https://emploisfp-psjobs.cfp-psc.gc.ca/psrs-srfp/applicant/page1800?poster=1116679&amp;toggleLanguage=fr\">https://emploisfp-psjobs.cfp-psc.gc.ca/psrs-srfp/applicant/page1800?poster=1116679&amp;toggleLanguage=fr</a></span></li>\n</ul>\n<p><span style='font-family: \"Times New Roman\",\"serif\"; font-size: 12pt; mso-fareast-font-family: Calibri; mso-fareast-theme-font: minor-latin; mso-ansi-language: EN-CA; mso-fareast-language: EN-CA; mso-bidi-language: AR-SA;'>\u00a0</span></p>\n<table border=\"1\" style=\"width: 100%;\" align=\"left\">\n<tbody>\n<tr>\n<td style=\"background-color: white; width: 99.32%;\">\n<p><strong>Dotation Collaborative AAC</strong></p>\n</td>\n</tr>\n<tr>\n<td>\n<p><a href=\"mailto:aafc.collabresourcing-ressourcementcollab.aac@agr.gc.ca\">aafc.collabresourcing-ressourcementcollab.aac@agr.gc.ca</a></p>\n</td>\n</tr>\n</tbody>\n</table>\n\n"
    },
    "breadcrumb": {
        "en": "Bilingual Administrative Positions",
        "fr": "Postes bilingue en administration"
    },
    "empl": {
        "type": {
            "en": "Assignment, Deployment, Acting",
            "fr": "Affectation, Mutation, Int\u00e9rimaire"
        },
        "classification": {
            "en": "AS-1, CR-5, PM-1 and equivalent",
            "fr": "AS-1, CR-5, PM-1 et \u00e9quivalent"
        },
        "branch": {
            "en": "Corporate Management Branch",
            "fr": "Gestion int\u00e9gr\u00e9e"
        },
        "locations": {
            "en": "NCR",
            "fr": "RCN"
        },
        "date_closing": {
            "en": "2018-01-28",
            "fr": "2018-01-28"
        },
        "open_to": {
            "en": "Students, casuals, terms, public",
            "fr": "\u00c9tudiants, occassionnels, termes, publique"
        },
        "name": {
            "en": "AAFC Collaborative Staffing / Dotation Collaborative AAC",
            "fr": "AAFC Collaborative Staffing / Dotation Collaborative AAC"
        },
        "email": {
            "en": "aafc.collabresourcing-ressourcementcollab.aac@agr.gc.ca",
            "fr": "aafc.collabresourcing-ressourcementcollab.aac@agr.gc.ca"
        }
    }
}