{
    "dcr_id": "1516714456540",
    "lang": "en",
    "title": {
        "en": "Mental Health at Work: Let's Talk - January 31",
        "fr": "La sant\u00e9 mentale au travail : Parlons-en - Le 31 janvier"
    },
    "modified": "2018-01-25 00:00:00.0",
    "issued": "2018-01-25 00:00:00.0",
    "type_name": "intra-intra/news-nouv",
    "node_id": "1279030006975",
    "layout_name": null,
    "dc_date_created": "2018-01-23",
    "breadcrumb_label": "",
    "meta": {
        "issued": {
            "en": "2018-01-25",
            "fr": "2018-01-25"
        },
        "modified": {
            "en": "2018-01-25",
            "fr": "2018-01-25"
        },
        "format": {
            "en": "gcformat",
            "fr": "gcformat"
        },
        "title": {
            "en": "Mental Health at Work: Let's Talk - January 31",
            "fr": "La sant\u00e9 mentale au travail : Parlons-en - Le 31 janvier"
        },
        "subject": {
            "en": "communications",
            "fr": "communications"
        },
        "description": {
            "en": "On January 31, Dr. Oren Amitay will explore ways we can support each other and create a positive mental health environment at work.",
            "fr": "Le 31 janvier, Oren Amitay (Ph. D.) expliquera comment nous pouvons nous entraider de diff\u00e9rentes fa\u00e7ons et cr\u00e9er un climat de travail propice \u00e0 la sant\u00e9 mentale."
        },
        "language": {
            "en": "eng",
            "fr": "fra"
        },
        "audience": {
            "en": "gcaudience",
            "fr": "gcaudience"
        },
        "creator": {
            "en": "Agriculture and Agri-Food Canada",
            "fr": "Agriculture et Agroalimentaire Canada"
        },
        "spatial": {
            "en": "gcregions",
            "fr": "gcregions"
        },
        "service": {
            "en": "AAFC_AgriSource",
            "fr": "AAC_AgriSource"
        },
        "accessRights": {
            "en": "3",
            "fr": "3"
        }
    },
    "body": {
        "en": "<br>\n<br>\n<p>On January 31, Dr. Oren Amitay will explore ways we can support each other and create a positive mental health environment at work. Dr. Amitay is a registered psychologist and media consultant who believes that a greater sense of control over one\u2019s environment should be a key life goal.</p>\n<h2><strong>Event information</strong></h2>\n<p>This session will take place in two parts: a session in Toronto that will be webcast nationwide (1 hour) and an on-site workshop (1 to 1.5 hours, depending on location). Participants outside of Toronto can register for the webcast only, which is accessible across Canada.</p>\n<p><strong>Date and Time</strong>:<strong> </strong>Wednesday, January 31, 2018 | 1:00 to 2:00 p.m. (ET)<br>\n<strong>Language</strong>: English with interpretation in French.<br>\n<strong>Registration: </strong>Required through <a href=\"http://www.csps-efpc.gc.ca/events/mhw-lt/index-eng.aspx\">Canada School of Public Service</a> if attending in person or by webcast.</p>\n<p><strong>Note:</strong> The session will be streamed live for employees in Ottawa from NHCAP in rooms T7-2-211 and T4-2-211 (no registration required).</p>\n<p>\u00a0</p>\n<p><img src=\"https://intranet.agr.gc.ca/resources/prod/news/images/HealthyWorkplace.png\" class=\"center-block\"></p>\n\n\t\t",
        "fr": "<br>\n<br>\n<p>Le 31 janvier, Oren Amitay (Ph. D.) expliquera comment nous pouvons nous entraider de diff\u00e9rentes fa\u00e7ons et cr\u00e9er un climat de travail propice \u00e0 la sant\u00e9 mentale. M. Amitay, qui est psychologue agr\u00e9\u00e9 et consultant en m\u00e9dias, croit qu\u2019un de nos grands objectifs de vie devrait \u00eatre de chercher \u00e0 avoir une plus grande influence sur notre environnement.</p>\n<h2><strong>Renseignements sur l\u2019activit\u00e9</strong></h2>\n<p>Cette activit\u00e9 comprend deux volets : une s\u00e9ance \u00e0 Toronto qui sera diffus\u00e9e sur le Web \u00e0 l\u2019\u00e9chelle nationale (1 heure) et un atelier sur place (entre 1 heure et 1,5 heure selon l\u2019endroit). Les participants \u00e0 l\u2019ext\u00e9rieur de Toronto peuvent soit s\u2019inscrire \u00e0 la web\u00e9mission seulement, qui est diffus\u00e9e partout au Canada.</p>\n<p><strong>Date et heure </strong>:<strong> </strong>Le mercredi 31 janvier 2018 | De 13 h \u00e0 14 h (HE)<br>\n<strong>Langue </strong>: En anglais avec interpr\u00e9tation en fran\u00e7ais<br>\n<strong>Inscription : </strong>Vous devez vous inscrire aupr\u00e8s de l\u2019<a href=\"http://www.csps-efpc.gc.ca/events/mhw-lt/index-fra.aspx\">\u00c9cole de la fonction publique du Canada</a> pour la participation en personne ou la web\u00e9mission.</p>\n<p><strong>Remarque :</strong> La s\u00e9ance sera diffus\u00e9e en direct pour les employ\u00e9s \u00e0 Ottawa dans les salles T7-2-211 et T4-2-211 du CACPA (aucune inscription requise).</p>\n<p>\u00a0</p>\n<p><img src=\"https://intranet.agr.gc.ca/resources/prod/news/images/HealthyWorkplace.png\" class=\"center-block\"></p>\n\t\t"
    },
    "breadcrumb": {
        "en": "Mental Health at Work: Let's Talk - January 31",
        "fr": "La sant\u00e9 mentale au travail : Parlons-en - Le 31 janvier"
    },
    "news": {
        "date_posted": {
            "en": "2018-01-25",
            "fr": "2018-01-25"
        },
        "to": {
            "en": "All staff",
            "fr": "Tous les employ\u00e9s"
        },
        "by": {
            "en": "Human Resources, Corporate Management Branch",
            "fr": "Ressources humaines, Direction g\u00e9n\u00e9rale de la gestion int\u00e9gr\u00e9e"
        }
    }
}