{
    "dcr_id": "1517339936539",
    "lang": "en",
    "title": {
        "en": "HR SmartShop: Using the Right Levers to Foster Wellness and Mental Health - February 8",
        "fr": "Atelier fut\u00e9 du CRH : Utiliser les bons leviers pour favoriser le mieux-\u00eatre et la sant\u00e9 mentale - Le 8 f\u00e9vrier"
    },
    "modified": "2018-02-01 00:00:00.0",
    "issued": "2018-02-01 00:00:00.0",
    "type_name": "intra-intra/news-nouv",
    "node_id": "1279030006975",
    "layout_name": null,
    "dc_date_created": "2018-01-30",
    "breadcrumb_label": "",
    "meta": {
        "issued": {
            "en": "2018-02-01",
            "fr": "2018-02-01"
        },
        "modified": {
            "en": "2018-02-01",
            "fr": "2018-02-01"
        },
        "format": {
            "en": "gcformat",
            "fr": "gcformat"
        },
        "title": {
            "en": "HR SmartShop: Using the Right Levers to Foster Wellness and Mental Health - February 8",
            "fr": "Atelier fut\u00e9 du CRH : Utiliser les bons leviers pour favoriser le mieux-\u00eatre et la sant\u00e9 mentale - Le 8 f\u00e9vrier"
        },
        "subject": {
            "en": "communications",
            "fr": "communications"
        },
        "description": {
            "en": "Achieving better health and wellness is often challenging. Pressured from all directions, what are the best tactics to foster mental health? This interactive SmartShop explores personal strategies to increase your level of wellness, your resilience and vitality.",
            "fr": "Atteindre un meilleur \u00e9tat de sant\u00e9 et de bien-\u00eatre est souvent une t\u00e2che ardue. Avec les pressions venant de toutes parts, quelles sont les meilleures tactiques favorisant la sant\u00e9 mentale? Cet atelier fut\u00e9 interactif explore les strat\u00e9gies personnelles pour accro\u00eetre votre niveau de mieux-\u00eatre, votre r\u00e9silience et votre vitalit\u00e9."
        },
        "language": {
            "en": "eng",
            "fr": "fra"
        },
        "audience": {
            "en": "gcaudience",
            "fr": "gcaudience"
        },
        "creator": {
            "en": "Agriculture and Agri-Food Canada",
            "fr": "Agriculture et Agroalimentaire Canada"
        },
        "spatial": {
            "en": "gcregions",
            "fr": "gcregions"
        },
        "service": {
            "en": "AAFC_AgriSource",
            "fr": "AAC_AgriSource"
        },
        "accessRights": {
            "en": "3",
            "fr": "3"
        }
    },
    "body": {
        "en": "<br>\n<br>\n<p>Achieving better health and wellness is often challenging. Pressured from all directions, what are the best tactics to foster mental health? This interactive SmartShop explores personal strategies to increase your level of wellness, your resilience and vitality. It is free and open to all public servants.</p>\n<h2><strong>Event information</strong></h2>\n<p><strong>Date and Time:</strong> February 8 | 12:30 to 3:30 p.m. (ET)<br>\n<strong>Location:</strong> Victoria Hall, 111 Sussex Drive, Ottawa; Available across Canada via WebEx or teleconference<br><strong>Registration:</strong> Register on <a href=\"https://www.eventbrite.ca/e/using-the-right-levers-to-foster-wellness-and-mental-health-utiliser-les-bons-leviers-pour-registration-42327781534\">Eventbrite</a> by February 7</p>\n<p>HR SmartShops are themed and developed by the <a href=\"https://gcconnex.gc.ca/groups/profile/4880212/enthe-human-resources-council-hrcfrle-conseil-des-ressources-humaines-crh\">Human Resources Council</a> (<abbr title=\"Human Resources Council\">HRC</abbr>) in partner with Communities of Practices and Central Agencies to address various HR issues within the Public Service of Canada.</p>\n<p>\u00a0</p>\n<p><img src=\"https://intranet.agr.gc.ca/resources/prod/news/images/HR%20Council%20Banner.png\" class=\"center-block\"></p>\n\n\t\t",
        "fr": "<br>\n<br>\n<p>Atteindre un meilleur \u00e9tat de sant\u00e9 et de bien-\u00eatre est souvent une t\u00e2che ardue. Avec les pressions venant de toutes parts, quelles sont les meilleures tactiques favorisant la sant\u00e9 mentale? Cet atelier fut\u00e9 interactif explore les strat\u00e9gies personnelles pour accro\u00eetre votre niveau de mieux-\u00eatre, votre r\u00e9silience et votre vitalit\u00e9. Cet atelier est gratuit et offert \u00e0 tous les employ\u00e9s de la fonction publique du Canada.</p>\n<h2><strong>Renseignements sur l\u2019\u00e9v\u00e9nement</strong></h2>\n<p><strong>Date et heure</strong> : 8 f\u00e9vrier 2018 | 12 h 30 \u00e0 15 h 30 (HE)<br>\n<strong>Lieu :</strong>\u00a0Salle Victoria - 111, promenade Sussex, Ottawa ; Accessible par WebEx ou par t\u00e9l\u00e9conf\u00e9rence partout au Canada<br><strong>Inscription :</strong>\u00a0Inscription avant le 7 f\u00e9vrier 2018 sur <a href=\"https://www.eventbrite.ca/e/using-the-right-levers-to-foster-wellness-and-mental-health-utiliser-les-bons-leviers-pour-registration-42327781534\">Eventbrite</a></p>\n<p>Les ateliers fut\u00e9s sont con\u00e7us et d\u00e9velopp\u00e9s par le <a href=\"https://gcconnex.gc.ca/groups/profile/4880212/enthe-human-resources-council-hrcfrle-conseil-des-ressources-humaines-crh\">Conseil des ressources humaines</a> (<abbr title=\"Conseil des ressources humaines\">CRH</abbr>) en collaboration avec les communaut\u00e9s de pratique et les organismes centraux pour examiner diverses questions relatives aux RH dans la fonction publique du Canada.</p>\n<p>\u00a0</p>\n<p><img src=\"https://intranet.agr.gc.ca/resources/prod/news/images/HR%20Council%20Banner.png\" class=\"center-block\"></p>\n\t\t"
    },
    "breadcrumb": {
        "en": "HR SmartShop: Using the Right Levers to Foster Wellness and Mental Health - February 8",
        "fr": "Atelier fut\u00e9 du CRH : Utiliser les bons leviers pour favoriser le mieux-\u00eatre et la sant\u00e9 mentale..."
    },
    "news": {
        "date_posted": {
            "en": "2018-02-01",
            "fr": "2018-02-01"
        },
        "to": {
            "en": "All staff",
            "fr": "Tous les employ\u00e9s"
        },
        "by": {
            "en": "Human Resources, Corporate Management Branch",
            "fr": "Ressources humaines, Direction g\u00e9n\u00e9rale de la gestion int\u00e9gr\u00e9e"
        }
    }
}