{
    "dcr_id": "1517933043149",
    "lang": "en",
    "title": {
        "en": "Personal IT Devices: Important Reminder About Their Use at Work",
        "fr": "Appareils de TI personnels : Rappel important sur leur utilisation au travail"
    },
    "modified": "2018-02-08 00:00:00.0",
    "issued": "2018-02-08 00:00:00.0",
    "type_name": "intra-intra/news-nouv",
    "node_id": "1279030006975",
    "layout_name": null,
    "dc_date_created": "2018-02-06",
    "breadcrumb_label": "",
    "meta": {
        "issued": {
            "en": "2018-02-08",
            "fr": "2018-02-08"
        },
        "modified": {
            "en": "2018-02-08",
            "fr": "2018-02-08"
        },
        "format": {
            "en": "gcformat",
            "fr": "gcformat"
        },
        "title": {
            "en": "Personal IT Devices: Important Reminder About Their Use at Work",
            "fr": "Appareils de TI personnels : Rappel important sur leur utilisation au travail"
        },
        "subject": {
            "en": "communications",
            "fr": "communications"
        },
        "description": {
            "en": "More and more, personal IT devices come equipped with an integrated personal assistant, especially newer versions of smartphones and smart speakers. These devices offer terrific convenience in our day-to-day life, but what you don't know is that they present serious potential risks when used in the workplace.",
            "fr": "Les appareils de TI personnels sont de plus en plus dot\u00e9s d\u2019un adjoint personnel int\u00e9gr\u00e9, particuli\u00e8rement les nouvelles versions des t\u00e9l\u00e9phones et haut-parleurs intelligents. Ces appareils nous simplifient la vie au quotidien, mais ce que vous ignorez, c'est qu'ils posent des risques s\u00e9rieux lorsqu'ils sont utilis\u00e9s en milieu de travail."
        },
        "language": {
            "en": "eng",
            "fr": "fra"
        },
        "audience": {
            "en": "gcaudience",
            "fr": "gcaudience"
        },
        "creator": {
            "en": "Agriculture and Agri-Food Canada",
            "fr": "Agriculture et Agroalimentaire Canada"
        },
        "spatial": {
            "en": "gcregions",
            "fr": "gcregions"
        },
        "service": {
            "en": "AAFC_AgriSource",
            "fr": "AAC_AgriSource"
        },
        "accessRights": {
            "en": "3",
            "fr": "3"
        }
    },
    "body": {
        "en": "<br>\n<br>\n<p>Do the following names mean something to you - Siri, Cortana, Alexa?</p>\n<p>More and more, personal IT devices come equipped with an integrated personal assistant, especially newer versions of smartphones and smart speakers. These devices offer terrific convenience in our day-to-day life, but\u00a0they also present serious potential risks when used in the workplace.</p>\n<p>What is the risk, you ask? The greatest danger is the potential to introduce a malicious virus or \u201cmalware\u201d to AAFC\u2019s network that could seriously compromise the organization\u2019s systems. But even if the device isn\u2019t connected directly to our network, there is an additional risk: virtual assistants are always <em>listening</em> and often <em>recording </em>audio \u2013 and you don\u2019t even know it! Take the Amazon Echo smart speaker, for example; it may seem innocent to put speakers on your desk to listen to music while working, but that smart speaker could be listening too. These devices have the ability to record and store what you are saying and what is being said around you \u2013 even when they are not connected to a network! This puts any and all audible information at real risk, including information that is proprietary to the government.</p>\n<p>So, before connecting any type of \u201cnon-authorized devices\u201d to the AAFC computers, play it safe and contact IT Centre TI. Only AAFC authorized devices may be connected to the network. Please act accordingly.</p>\n<p>For further details, please consult the\u00a0<a href=\"https://intranet.agr.gc.ca/agrisource/AgriDoc.do?id=101055452&amp;lang=eng\" target=\"_blank\">IT Security Policy</a>.</p>\n\n\t\t",
        "fr": "<br>\n<br>\n<p>Est-ce que les noms suivants vous disent quelque chose - Siri, Cortana, Alexa?</p>\n<p>Les appareils de TI personnels sont de plus en plus dot\u00e9s d\u2019un adjoint personnel int\u00e9gr\u00e9, particuli\u00e8rement les nouvelles versions des t\u00e9l\u00e9phones et haut-parleurs intelligents. Ces appareils nous simplifient la vie au quotidien, mais ce que vous ignorez, c\u2019est qu\u2019ils posent des risques s\u00e9rieux lorsqu\u2019ils sont utilis\u00e9s en milieu de travail.</p>\n<p>Vous vous demandez peut-\u00eatre quels sont ces risques. Le plus grand danger est la possibilit\u00e9 d\u2019introduire un virus malveillant ou \u00ab maliciel \u00bb dans le r\u00e9seau d\u2019AAC qui pourrait s\u00e9rieusement nuire aux syst\u00e8mes de l\u2019organisation. Mais m\u00eame si l\u2019appareil n\u2019est pas branch\u00e9 directement \u00e0 notre r\u00e9seau, il y a un risque suppl\u00e9mentaire : les adjoints virtuels sont toujours \u00e0 l\u2019<em>\u00e9coute</em> et <em>enregistrent </em>souvent le son \u2013 sans que vous le sachiez! Prenez les haut-parleurs intelligents Amazon Echo par exemple : il peut sembler innocent de mettre des haut-parleurs sur votre bureau pour \u00e9couter de la musique en travaillant, mais les haut-parleurs intelligents peuvent aussi \u00eatre \u00e0 l\u2019\u00e9coute. Ces appareils ont la capacit\u00e9 d\u2019enregistrer et de stocker ce que vous dites et ce qui se dit autour de vous \u2013 m\u00eame lorsqu\u2019ils ne sont pas branch\u00e9s \u00e0 un r\u00e9seau! Cette situation pose un risque r\u00e9el pour toute information sonore, y compris celle qui appartient au gouvernement.</p>\n<p>En cons\u00e9quence, avant de brancher n\u2019importe quel type \u00ab d\u2019appareils non autoris\u00e9s \u00bb aux ordinateurs d\u2019AAC, soyez prudent et communiquez avec le IT Centre TI. Seuls les appareils autoris\u00e9s d\u2019AAC peuvent \u00eatre branch\u00e9s au r\u00e9seau. Nous vous prions d\u2019agir en cons\u00e9quence.</p>\n<p>Pour de plus amples d\u00e9tails, veuillez consulter la\u00a0<a href=\"https://intranet.agr.gc.ca/agrisource/AgriDoc.do?id=101882750&amp;lang=fra\" target=\"_blank\">Politique sur la s\u00e9curit\u00e9 de la TI</a>.</p>\n\t\t"
    },
    "breadcrumb": {
        "en": "Personal IT Devices: Important Reminder About Their Use at Work",
        "fr": "Appareils de TI personnels : Rappel important sur leur utilisation au travail"
    },
    "news": {
        "date_posted": {
            "en": "2018-02-08",
            "fr": "2018-02-08"
        },
        "to": {
            "en": "All staff",
            "fr": "Tous les employ\u00e9s"
        },
        "by": {
            "en": "IT Security",
            "fr": "S\u00e9curit\u00e9 de la TI"
        }
    }
}