{
    "dcr_id": "1517601529868",
    "lang": "en",
    "title": {
        "en": "United Nations International Day of Women and Girls in Science - February 11",
        "fr": "Journ\u00e9e internationale des femmes et des filles de science des Nations Unies - Le 11 f\u00e9vrier"
    },
    "modified": "2018-02-08 00:00:00.0",
    "issued": "2018-02-08 00:00:00.0",
    "type_name": "intra-intra/news-nouv",
    "node_id": "1279030006975",
    "layout_name": null,
    "dc_date_created": "2018-02-02",
    "breadcrumb_label": "",
    "meta": {
        "issued": {
            "en": "2018-02-08",
            "fr": "2018-02-08"
        },
        "modified": {
            "en": "2018-02-08",
            "fr": "2018-02-08"
        },
        "format": {
            "en": "gcformat",
            "fr": "gcformat"
        },
        "title": {
            "en": "United Nations International Day of Women and Girls in Science - February 11",
            "fr": "Journ\u00e9e internationale des femmes et des filles de science des Nations Unies - Le 11 f\u00e9vrier"
        },
        "subject": {
            "en": "communications",
            "fr": "communications"
        },
        "description": {
            "en": "To recognize the critical role that women and girls can play in society through their participation in science and technology communities, the United Nations General Assembly has declared February 11 of each year as the International Day of Women and Girls in Science.",
            "fr": "L'Assembl\u00e9e g\u00e9n\u00e9rale de l'organisation a proclam\u00e9 le 11 f\u00e9vrier Journ\u00e9e internationale des femmes et des filles de science afin de reconna\u00eetre le r\u00f4le important que ces derni\u00e8res peuvent jouer dans la soci\u00e9t\u00e9 par leur participation aux milieux scientifique et technologique."
        },
        "language": {
            "en": "eng",
            "fr": "fra"
        },
        "audience": {
            "en": "gcaudience",
            "fr": "gcaudience"
        },
        "creator": {
            "en": "Agriculture and Agri-Food Canada",
            "fr": "Agriculture et Agroalimentaire Canada"
        },
        "spatial": {
            "en": "gcregions",
            "fr": "gcregions"
        },
        "service": {
            "en": "AAFC_AgriSource",
            "fr": "AAC_AgriSource"
        },
        "accessRights": {
            "en": "3",
            "fr": "3"
        }
    },
    "body": {
        "en": "<br>\n<br>\n<p>Gender equality is a core issue for the United Nations. To recognize the critical role that women and girls can play in society through their participation in science and technology communities, the United Nations General Assembly has declared February 11 of each year as the International Day of Women and Girls in Science.</p>\n<p>Over the past 15 years, the global community has put a lot of effort into inspiring and engaging women and girls in science.</p>\n<p>International Day of Women and Girls in Science is an opportunity to:</p>\n<ul>\n<li>Celebrate the significant contributions that women have made to science - in Canada and here at AAFC;</li>\n<li>Acknowledge and work to remove stereotypes, social and cultural restrictions, and limits to access to education and funding that can act as barriers to women in the science field; and</li>\n<li>Promote science as a great career for women.</li>\n</ul>\n<h2><strong>Help spread the word:\u00a0#WomenInSTEM</strong></h2>\n<ul>\n<li>Display AAFC\u2019s <a href=\"https://collab.agr.gc.ca/co/wis-fes/Documents/Diversity%20Month/2017/WIS%20Poster%20-%20Fiche%20d'FES.PDF\">Women in Science Past and Present</a> poster.</li>\n<li>Contribute to the Women in Science Network\u2019s <a href=\"https://collab.agr.gc.ca/co/wis-fes/SitePages/Wikipedia.aspx\">Wikipedia project</a> and share the completed profiles on social media.</li>\n<li>Read and share stories of <a href=\"http://www.science.gc.ca/eic/site/063.nsf/eng/h_97413.html\">Canadian STEM femmes</a>: women working in science, technology, engineering and math.</li>\n<li>Follow AAFC on <a href=\"https://twitter.com/aafc_canada\">Twitter</a> and <a href=\"https://www.facebook.com/CanadianAgriculture/\">Facebook</a> to retweet, like, and share #WomenInSTEM stories on February 11.</li>\n</ul>\n<h2><strong>Learn more</strong></h2>\n<ul>\n<li><a href=\"http://www.un.org/en/events/women-and-girls-in-science-day/index.shtml\">International Day of Women and Girls in Science</a> (including resources)</li>\n<li><a href=\"https://collab.agr.gc.ca/co/wis-fes/SitePages/Home.aspx\">AAFC's Women in Science Network</a></li>\n</ul>\n<p>Visit <a href=\"https://collab.agr.gc.ca/co/eedi-emedi/SitePages/Home.aspx\">Diversity and Inclusiveness</a> on Knowledge Workspace to learn more about AAFC\u2019s diversity networks and upcoming events.</p>\n<p>\u00a0</p>\n<p><img src=\"https://intranet.agr.gc.ca/resources/prod/news/images/WomenInScienceEN.png\" class=\"center-block\" alt=\"\"></p>\n\n\t\t",
        "fr": "<br>\n<br>\n<p>L\u2019\u00e9galit\u00e9 des sexes est une question fondamentale pour les Nations Unies. L\u2019Assembl\u00e9e g\u00e9n\u00e9rale de l\u2019organisation a proclam\u00e9 le 11 f\u00e9vrier Journ\u00e9e internationale des femmes et des filles de science afin de reconna\u00eetre le r\u00f4le important que ces derni\u00e8res peuvent jouer dans la soci\u00e9t\u00e9 par leur participation aux milieux scientifique et technologique.</p>\n<p>Au cours des 15 derni\u00e8res ann\u00e9es, la communaut\u00e9 internationale a d\u00e9ploy\u00e9 beaucoup d\u2019efforts pour encourager les femmes et les filles \u00e0 se lancer en science.</p>\n<p>La Journ\u00e9e internationale des femmes et des filles de science est l\u2019occasion de :</p>\n<ul>\n<li>C\u00e9l\u00e9brer l\u2019importante contribution des femmes \u00e0 la science \u2013 au Canada et ici m\u00eame \u00e0 AAC;</li>\n<li>Reconna\u00eetre et \u00e9liminer les st\u00e9r\u00e9otypes, les restrictions sociales et culturelles ainsi que les obstacles \u00e0 l\u2019acc\u00e8s \u00e0 l\u2019\u00e9ducation et \u00e0 l\u2019aide financi\u00e8re, facteurs qui peuvent nuire \u00e0 l\u2019int\u00e9gration des femmes dans le domaine scientifique;</li>\n<li>Promouvoir la science comme un excellent choix de domaine o\u00f9 les femmes peuvent faire\u00a0carri\u00e8re.</li>\n</ul>\n<h2><strong>Aidez-nous \u00e0 passer le mot :\u00a0#FemmesEnSTIM</strong></h2>\n<ul>\n<li>Placez l\u2019affiche d\u2019AAC sur les <a href=\"https://collab.agr.gc.ca/co/wis-fes/Documents/Diversity%20Month/2017/WIS%20Poster%20-%20Fiche%20d'FES.PDF\">Femmes en science, hier et aujourd\u2019hui</a> dans vos bureaux.</li>\n<li>Contribuez au <a href=\"https://collab.agr.gc.ca/co/wis-fes/SitePages/Wikipedia.aspx\">projet Wikip\u00e9dia</a> du R\u00e9seau des femmes en science et diffusez les profils qui sont complets sur les m\u00e9dias sociaux.</li>\n<li>Lisez et partagez les articles sur <a href=\"http://www.science.gc.ca/eic/site/063.nsf/fra/h_97413.html\">Les Canadiennes dans le domaine des STIM</a> : des femmes qui travaillent en science, en technologie, en ing\u00e9nierie et en math\u00e9matique.</li>\n<li>Suivez AAC sur <a href=\"https://twitter.com/aac_canada\">Twitter</a> et <a href=\"https://www.facebook.com/Agriculturecanadienne/\">Facebook</a> pour retransmettre, aimer et partager les histoires de #FemmesEnSTIM le 11 f\u00e9vrier.</li>\n</ul>\n<h2><strong>Pour en savoir plus</strong></h2>\n<ul>\n<li><a href=\"http://www.un.org/fr/events/women-and-girls-in-science-day/index.shtml\">Journ\u00e9e internationale des femmes et des filles de science</a> (comprend des ressources)</li>\n<li><a href=\"https://collab.agr.gc.ca/co/wis-fes/SitePages/Home.aspx\">R\u00e9seau des femmes en science d\u2019AAC</a></li>\n</ul>\n<p>Consultez le site <a href=\"https://collab.agr.gc.ca/co/eedi-emedi/SitePages/Home.aspx\">Diversit\u00e9 et inclusivit\u00e9</a> dans l\u2019Espace de travail du savoir pour d\u00e9couvrir les r\u00e9seaux de la diversit\u00e9 d\u2019AAC et les activit\u00e9s \u00e0 venir.</p>\n<p>\u00a0</p>\n<p><img src=\"https://intranet.agr.gc.ca/resources/prod/news/images/WomenInScienceFR.png\" class=\"center-block\"></p>\n\t\t"
    },
    "breadcrumb": {
        "en": "United Nations International Day of Women and Girls in Science - February 11",
        "fr": "Journ\u00e9e internationale des femmes et des filles de science des Nations Unies - Le 11 f\u00e9vrier"
    },
    "news": {
        "date_posted": {
            "en": "2018-02-08",
            "fr": "2018-02-08"
        },
        "to": {
            "en": "All staff",
            "fr": "Tous les employ\u00e9s"
        },
        "by": {
            "en": "Women in Science Network",
            "fr": "R\u00e9seau des femmes en science"
        }
    }
}