{
    "dcr_id": "1517318868568",
    "lang": "en",
    "title": {
        "en": "Reminder - Workshop Registration: Are You Conscious of Your Unconscious Bias? - March 1 ",
        "fr": "Rappel - Inscription \u00e0 l'atelier \u00ab\u2009\u00cates-vous conscients de vos pr\u00e9jug\u00e9s inconscients?\u2009\u00bb \u2013 1<sup>er</sup> mars "
    },
    "modified": "2018-02-21 00:00:00.0",
    "issued": "2018-02-01 00:00:00.0",
    "type_name": "intra-intra/news-nouv",
    "node_id": "1279030006975",
    "layout_name": null,
    "dc_date_created": "2018-01-30",
    "breadcrumb_label": "",
    "meta": {
        "issued": {
            "en": "2018-02-01",
            "fr": "2018-02-01"
        },
        "modified": {
            "en": "2018-02-21",
            "fr": "2018-02-14"
        },
        "format": {
            "en": "gcformat",
            "fr": "gcformat"
        },
        "title": {
            "en": "Reminder - Workshop Registration: Are You Conscious of Your Unconscious Bias? - March 1 ",
            "fr": "Rappel - Inscription \u00e0 l'atelier \u00ab\u2009\u00cates-vous conscients de vos pr\u00e9jug\u00e9s inconscients?\u2009\u00bb \u2013 1<sup>er</sup> mars "
        },
        "subject": {
            "en": "communications",
            "fr": "communications"
        },
        "description": {
            "en": "Each of us has our own diverse opinions and experiences, which can subconsciously influence how we interpret any given situation.",
            "fr": "Nous avons tous des opinions diff\u00e9rentes et avons tous v\u00e9cu des exp\u00e9riences qui peuvent nous amener inconsciemment \u00e0 interpr\u00e9ter une situation d'une fa\u00e7on ou d\u2019une autre."
        },
        "language": {
            "en": "eng",
            "fr": "fra"
        },
        "audience": {
            "en": "gcaudience",
            "fr": "gcaudience"
        },
        "creator": {
            "en": "Agriculture and Agri-Food Canada",
            "fr": "Agriculture et Agroalimentaire Canada"
        },
        "spatial": {
            "en": "gcregions",
            "fr": "gcregions"
        },
        "service": {
            "en": "AAFC_AgriSource",
            "fr": "AAC_AgriSource"
        },
        "accessRights": {
            "en": "3",
            "fr": "3"
        }
    },
    "body": {
        "en": "<br>\n<br>\n<p>Each of us has our own diverse opinions and experiences, which can subconsciously influence how we interpret any given situation. This is referred to as \u201cunconscious bias\u201d and despite our best efforts, it can sometimes prevent us from interacting with others in an inclusive way.</p>\n<p>In partnership with the Canadian Centre for Diversity and Inclusion (<abbr title=\"Canadian Centre for Diversity and Inclusion \">CCDI</abbr>), two <strong>Unconscious Bias Awareness workshops</strong> are being organized for AAFC employees.</p>\n<p>The workshops will increase your awareness of your unconscious biases and provide you with tips to help you correct them.</p>\n<h2>Event information</h2>\n<h4><strong>French session</strong></h4>\n<p><strong>Date and Time:</strong> March 1 | 10:00 a.m. to 11:30 a.m. (ET)<br><strong>Location:</strong> NHCAP T5-5-211 (NCR); Available across Canada via videoconference<br><strong>Registration:</strong> <a href=\"https://collab.agr.gc.ca/co/eedi-emedi/Lists/Events/DispForm.aspx?ID=8&amp;Source=https%3A%2F%2Fcollab%2Eagr%2Egc%2Eca%2Fco%2Feedi%2Demedi%2FLists%2FEvents%2Fcalendar%2Easpx\">In-Person</a> | <a href=\"https://collab.agr.gc.ca/co/eedi-emedi/Lists/Events/DispForm.aspx?ID=9&amp;Source=https%3A%2F%2Fcollab%2Eagr%2Egc%2Eca%2Fco%2Feedi%2Demedi%2FLists%2FEvents%2Fcalendar%2Easpx\">Videoconference</a></p>\n<h4><strong>English session</strong></h4>\n<p><strong>Date and Time:</strong> March 1 | 12:30 p.m. to 2:00 p.m. (ET)<br><strong>Location:</strong> NHCAP T3-1-351 (NCR) and Winnipeg 167L-7-707; Available across Canada via videoconference<br><strong>Registration:</strong> <a href=\"https://collab.agr.gc.ca/co/eedi-emedi/Lists/Events/DispForm.aspx?ID=6&amp;Source=https%3A%2F%2Fcollab%2Eagr%2Egc%2Eca%2Fco%2Feedi%2Demedi%2FLists%2FEvents%2Fcalendar%2Easpx\">In-Person (NCR)</a> | <a href=\"https://collab.agr.gc.ca/co/eedi-emedi/Lists/Events/DispForm.aspx?ID=10&amp;Source=https%3A%2F%2Fcollab%2Eagr%2Egc%2Eca%2Fco%2Feedi%2Demedi%2FLists%2FEvents%2Fcalendar%2Easpx\">In-Person (Winnipeg)</a> | <a href=\"https://collab.agr.gc.ca/co/eedi-emedi/Lists/Events/DispForm.aspx?ID=7&amp;Source=https%3A%2F%2Fcollab%2Eagr%2Egc%2Eca%2Fco%2Feedi%2Demedi%2FLists%2FEvents%2Fcalendar%2Easpx\">Videoconference</a></p>\n<p>We encourage you to take this opportunity to learn more about the impact of unconscious bias on diversity and inclusiveness.</p>\n<p>If you are in a region, please dial in to the VC at least\u00a010 minutes before the scheduled time.</p>\n<p><strong>Communication Access Realtime Translation (CART):</strong> If you require speech to text transcription, please contact <a href=\"mailto:AAFC.Diversity-Diversite.AAC@AGR.GC.CA\">AAFC.Diversity-Diversite.AAC@AGR.GC.CA</a>.</p>\n<p>For more information on AAFC\u2019s Diversity Networks and other available resources, visit the <a href=\"https://collab.agr.gc.ca/co/eedi-emedi/SitePages/Home.aspx\">Diversity and Inclusiveness</a> page on Knowledge Workspace.</p>\n<p>\u00a0</p>\n<p><img src=\"https://intranet.agr.gc.ca/resources/prod/news/images/DiversityandInclusivenessBanner.png\" class=\"center-block\" alt=\"\"></p>\n\n\t\t",
        "fr": "<br>\n<br>\n<p>Nous avons tous des opinions diff\u00e9rentes et avons tous v\u00e9cu des exp\u00e9riences qui peuvent nous amener inconsciemment \u00e0 interpr\u00e9ter une situation d\u2019une fa\u00e7on ou d\u2019une autre. C\u2019est ce qu\u2019on appelle les \u00ab\u2009pr\u00e9jug\u00e9s inconscients\u2009\u00bb. Malgr\u00e9 tous nos efforts, ces pr\u00e9jug\u00e9s peuvent parfois nous emp\u00eacher d\u2019interagir de mani\u00e8re inclusive avec les autres.</p>\n<p><strong>Deux ateliers de sensibilisation aux pr\u00e9jug\u00e9s inconscients</strong> seront offerts aux employ\u00e9s d\u2019AAC en collaboration avec le Centre canadien pour la diversit\u00e9 et l\u2019inclusion (<abbr title=\"Centre canadien pour la diversit\u00e9 et l\u2019inclusion\">CCDI</abbr>).</p>\n<p>Ces ateliers vous aideront \u00e0 prendre conscience de vos pr\u00e9jug\u00e9s inconscients et vous donneront des conseils pour les corriger.</p>\n<h2>Renseignements sur l'\u00e9v\u00e9nement</h2>\n<h4><strong>S\u00e9ance en fran\u00e7ais</strong></h4>\n<p><strong>Date et heure :</strong> 1<sup>er </sup>mars | 10 h \u00e0 11 h 30 (HE)<br><strong>Lieu :</strong> Salle T5-5-211 du CACPA (RCN); Disponible partout au Canada sur vid\u00e9oconf\u00e9rence<br><strong>Inscription : </strong><a href=\"https://collab.agr.gc.ca/co/eedi-emedi/Lists/Events/DispForm.aspx?ID=8&amp;Source=https%3A%2F%2Fcollab%2Eagr%2Egc%2Eca%2Fco%2Feedi%2Demedi%2FLists%2FEvents%2Fcalendar%2Easpx\">Sur place</a> | <a href=\"https://collab.agr.gc.ca/co/eedi-emedi/Lists/Events/DispForm.aspx?ID=9&amp;Source=https%3A%2F%2Fcollab%2Eagr%2Egc%2Eca%2Fco%2Feedi%2Demedi%2FLists%2FEvents%2Fcalendar%2Easpx\">Vid\u00e9oconf\u00e9rence</a></p>\n<h4><strong>S\u00e9ance en anglais</strong></h4>\n<p><strong>Date et heure :</strong> 1<sup>er</sup> mars | 12 h 30 \u00e0 14 h (HE)<br><strong>Lieu :</strong> Salle T3-1-351 du CACPA (RCN) et salle 167L-7-707 \u00e0 Winnipeg; Disponible partout au Canada sur vid\u00e9oconf\u00e9rence<br><strong>Inscription :</strong> <a href=\"https://collab.agr.gc.ca/co/eedi-emedi/Lists/Events/DispForm.aspx?ID=6&amp;Source=https%3A%2F%2Fcollab%2Eagr%2Egc%2Eca%2Fco%2Feedi%2Demedi%2FLists%2FEvents%2Fcalendar%2Easpx\">Sur place (RCN)</a> | <a href=\"https://collab.agr.gc.ca/co/eedi-emedi/Lists/Events/DispForm.aspx?ID=10&amp;Source=https%3A%2F%2Fcollab%2Eagr%2Egc%2Eca%2Fco%2Feedi%2Demedi%2FLists%2FEvents%2Fcalendar%2Easpx\">Sur place (Winnipeg)</a> | <a href=\"https://collab.agr.gc.ca/co/eedi-emedi/Lists/Events/DispForm.aspx?ID=7&amp;Source=https%3A%2F%2Fcollab%2Eagr%2Egc%2Eca%2Fco%2Feedi%2Demedi%2FLists%2FEvents%2Fcalendar%2Easpx\">Vid\u00e9oconf\u00e9rence</a></p>\n<p>Nous vous encourageons \u00e0 profiter de cette occasion d\u2019en apprendre davantage sur les cons\u00e9quences des pr\u00e9jug\u00e9s inconscients pour la diversit\u00e9 et l\u2019inclusivit\u00e9.</p>\n<p>Si vous travaillez en r\u00e9gion, veuillez composer le num\u00e9ro de la vid\u00e9oconf\u00e9rence au moins\u00a010 minutes avant l\u2019heure de d\u00e9but pr\u00e9vue.</p>\n<p><strong>Un service de traduction en temps r\u00e9el des communications (CART) : </strong>Si vous en avez besoin, communiquez avec nous par courriel \u00e0 <a href=\"mailto:AAFC.Diversity-Diversite.AAC@AGR.GC.CA\">AAFC.Diversity-Diversite.AAC@AGR.GC.CA</a><strong>.</strong></p>\n<p>Pour de plus amples renseignements sur les r\u00e9seaux de la diversit\u00e9 d\u2019AAC et les autres ressources offertes, consultez la page <a href=\"https://collab.agr.gc.ca/co/eedi-emedi/SitePages/Home.aspx\">Diversit\u00e9 et inclusivit\u00e9</a> dans l\u2019Espace de travail du savoir.</p>\n<p>\u00a0</p>\n<p><img src=\"https://intranet.agr.gc.ca/resources/prod/news/images/DiversityandInclusivenessBanner.png\" class=\"center-block\"></p>\n\t\t"
    },
    "breadcrumb": {
        "en": "Reminder - Workshop Registration: Are You Conscious of Your Unconscious Bias? - March 1",
        "fr": "Rappel - Inscription \u00e0 l'atelier \u00ab\u2009\u00cates-vous conscients de vos pr\u00e9jug\u00e9s inconscients?\u2009\u00bb..."
    },
    "news": {
        "date_posted": {
            "en": "2018-02-01",
            "fr": "2018-02-01"
        },
        "to": {
            "en": "All staff",
            "fr": "Tous les employ\u00e9s"
        },
        "by": {
            "en": "Human Resources, Corporate Management Branch",
            "fr": "Ressources humaines, Direction g\u00e9n\u00e9rale de la gestion int\u00e9gr\u00e9e"
        }
    }
}