{
    "dcr_id": "1517933566406",
    "lang": "en",
    "title": {
        "en": "This Week in The Harvest - Dr. Elsayed Abdelaal - An Inspiring Career in Science",
        "fr": "Au menu de La Moisson cette semaine - Elsayed Abdelaal - Une carri\u00e8re scientifique inspirante"
    },
    "modified": "2018-02-08 00:00:00.0",
    "issued": "2018-02-08 00:00:00.0",
    "type_name": "intra-intra/news-nouv",
    "node_id": "1279030006975",
    "layout_name": null,
    "dc_date_created": "2018-02-06",
    "breadcrumb_label": "",
    "meta": {
        "issued": {
            "en": "2018-02-08",
            "fr": "2018-02-08"
        },
        "modified": {
            "en": "2018-02-08",
            "fr": "2018-02-08"
        },
        "format": {
            "en": "gcformat",
            "fr": "gcformat"
        },
        "title": {
            "en": "This Week in The Harvest - Dr. Elsayed Abdelaal - An Inspiring Career in Science",
            "fr": "Au menu de La Moisson cette semaine - Elsayed Abdelaal - Une carri\u00e8re scientifique inspirante"
        },
        "subject": {
            "en": "communications",
            "fr": "communications"
        },
        "description": {
            "en": "In case you missed it, here's what's new in The Harvest this week.",
            "fr": "Au cas o\u00f9 vous l'auriez manqu\u00e9, voici le menu que la section La Moisson vous offre cette semaine."
        },
        "language": {
            "en": "eng",
            "fr": "fra"
        },
        "audience": {
            "en": "gcaudience",
            "fr": "gcaudience"
        },
        "creator": {
            "en": "Agriculture and Agri-Food Canada",
            "fr": "Agriculture et Agroalimentaire Canada"
        },
        "spatial": {
            "en": "gcregions",
            "fr": "gcregions"
        },
        "service": {
            "en": "AAFC_AgriSource",
            "fr": "AAC_AgriSource"
        },
        "accessRights": {
            "en": "3",
            "fr": "3"
        }
    },
    "body": {
        "en": "<br>\n<br>\n<p>In case you missed it, here\u2019s what\u2019s new in <a href=\"https://collab.agr.gc.ca/apps/harvest-moisson\">The Harvest</a> this week:</p>\n<p><strong>Feature story: </strong><a href=\"https://collab.agr.gc.ca/apps/harvest-moisson\">Dr. Elsayed Abdelaal \u2013 An Inspiring Career in Science</a> \u2013 Dr. Elsayed Abdelaal, who has almost 29 years of experience as a respected, award-winning grains scientist, was recently recognized by the American Association of Cereal Chemists International (AACCI), who awarded him a fellowship in the organization \u2013 a rare honour only one other AAFC employee has shared (Dr. Peter Wood, 1996).</p>\n<p><strong>Poll: </strong><a href=\"https://collab.agr.gc.ca/apps/harvest-moisson\">Which cold weather \u201cbowl\u201d do you prefer?</a><strong> </strong></p>\n<p><strong>Feature photo:</strong> <a href=\"https://collab.agr.gc.ca/apps/harvest-moisson/gallery/Lists/Posts/Post.aspx?ID=140\">My horse enjoying the view</a>, By Meghan Burke, Public Affairs Branch, Guelph, Ontario.</p>\n<p><strong>Did you know?</strong> February 13, 2018 is <a href=\"https://collab.agr.gc.ca/apps/harvest-moisson/Pages/DidYouKnow.aspx\">Canada's Agriculture Day</a>. Canada's first Agriculture Day, held last February, was so successful that this year's celebration is expected to be even bigger and better with more events, more conversations and more connections.</p>\n<p>You can get involved by posting a comment or \u201cliking\u201d an article. You can also check out what your colleagues are liking and saying.</p>\n<p>Should you have story ideas, scenic or artistic agriculture-related photos, or interesting facts, please share them with us by clicking on \u201cContribute\u201d in the top menu bar.</p>\n<p>\u00a0<img src=\"https://intranet.agr.gc.ca/resources/prod/news/images/HarvestElsayedAbdelaal.png\" class=\"center-block\" alt=\"Dr. Abdelaal with samples of purple wheat and canary seed.\"></p>\n\n\t\t",
        "fr": "<br>\n<br>\n<p>Au cas o\u00f9 vous l\u2019auriez manqu\u00e9, voici le menu que la section <a href=\"https://collab.agr.gc.ca/apps/harvest-moisson\">La Moisson</a> vous offre cette semaine :</p>\n<p><strong>Article vedette :</strong> <a href=\"https://collab.agr.gc.ca/apps/harvest-moisson\">Elsayed Abdelaal \u2013 Une carri\u00e8re scientifique inspirante</a><strong> </strong>\u2013 Elsayed Abdelaal, scientifique sp\u00e9cialiste des grains prim\u00e9 et respect\u00e9 cumulant presque 29 ann\u00e9es d\u2019exp\u00e9rience, a r\u00e9cemment \u00e9t\u00e9 reconnu par l\u2019American Association of Cereal Chemists International (AACCI), qui lui a d\u00e9cern\u00e9 le titre de membre \u00e9m\u00e9rite de l\u2019organisation \u2013 un honneur rare, qu\u2019un seul autre employ\u00e9 d\u2019AAC a pu partager (Peter Wood, en 1996). </p>\n<p><strong>Sondage : </strong><a href=\"https://collab.agr.gc.ca/apps/harvest-moisson\">Quel aliment servi dans un bol pr\u00e9f\u00e9rez-vous par temps froid?</a></p>\n<p><strong>Photo vedette :</strong> <a href=\"https://collab.agr.gc.ca/apps/harvest-moisson/gallery/Lists/Posts/Post.aspx?ID=140\">Mon cheval admirant le paysage</a>, par Meghan Burke, Direction g\u00e9n\u00e9rale des affaires publiques, Guelph, Ontario.</p>\n<p><strong>Le saviez-vous?</strong> Le 13 f\u00e9vrier 2018 sera le <a href=\"https://collab.agr.gc.ca/apps/harvest-moisson/Pages/DidYouKnow.aspx\">Jour de l'agriculture canadienne</a>. Ce jour, qui a \u00e9t\u00e9 c\u00e9l\u00e9br\u00e9 pour la premi\u00e8re fois en f\u00e9vrier dernier, a connu un tel succ\u00e8s qu'on s'attend \u00e0 ce qu'il soit c\u00e9l\u00e9br\u00e9 en grand cette ann\u00e9e avec plus d'activit\u00e9s, plus de conversations et plus d'occasions de r\u00e9seautage.</p>\n<p>Vous pouvez participer en affichant des commentaires ou en utilisant la fonction \u00ab J\u2019aime \u00bb ou \u00ab Partager \u00bb pour exprimer votre appr\u00e9ciation d\u2019un article. Vous pouvez aussi aller voir ce que vos coll\u00e8gues aiment et ont \u00e0 dire.</p>\n<p>Si vous avez des id\u00e9es d\u2019articles, des photos de paysages ou \u00e0 caract\u00e8re artistique li\u00e9es \u00e0 l\u2019agriculture ou encore des faits int\u00e9ressants, veuillez nous en faire part en cliquant sur \u00ab Collaborer \u00bb dans la barre de menu en haut de la page.</p>\n<p>\u00a0</p>\n<p><img src=\"https://intranet.agr.gc.ca/resources/prod/news/images/HarvestElsayedAbdelaal.png\" class=\"center-block\" alt=\"M. Abdelaal examinant des \u00e9chantillons de bl\u00e9 violet et de graine \u00e0 canaris. \"></p>\n\t\t"
    },
    "breadcrumb": {
        "en": "This Week in The Harvest - Dr. Elsayed Abdelaal - An Inspiring Career in Science",
        "fr": "Au menu de La Moisson cette semaine - Elsayed Abdelaal - Une carri\u00e8re scientifique inspirante"
    },
    "news": {
        "date_posted": {
            "en": "2018-02-08",
            "fr": "2018-02-08"
        },
        "to": {
            "en": "All staff",
            "fr": "Tous les employ\u00e9s"
        },
        "by": {
            "en": "Corporate Communications, Public Affairs Branch",
            "fr": "Communications minist\u00e9rielles, Direction g\u00e9n\u00e9rale des affaires publiques"
        }
    }
}