{
    "dcr_id": "1517952028838",
    "lang": "en",
    "title": {
        "en": "Post-Employment Offer - What Would You Do?",
        "fr": "Offre d'apr\u00e8s-mandat - Que feriez-vous?"
    },
    "modified": "2018-02-08 00:00:00.0",
    "issued": "2018-02-08 00:00:00.0",
    "type_name": "intra-intra/news-nouv",
    "node_id": "1279030006975",
    "layout_name": null,
    "dc_date_created": "2018-02-07",
    "breadcrumb_label": "",
    "meta": {
        "issued": {
            "en": "2018-02-08",
            "fr": "2018-02-08"
        },
        "modified": {
            "en": "2018-02-08",
            "fr": "2018-02-08"
        },
        "format": {
            "en": "gcformat",
            "fr": "gcformat"
        },
        "title": {
            "en": "Post-Employment Offer - What Would You Do?",
            "fr": "Offre d'apr\u00e8s-mandat - Que feriez-vous?"
        },
        "subject": {
            "en": "communications",
            "fr": "communications"
        },
        "description": {
            "en": "As part of Values and Ethics Awareness Month, we continue to focus on topics that emphasize the Public Service values in line with our theme, What Would You Do?",
            "fr": "Dans le cadre du Mois de la sensibilisation aux valeurs et \u00e0 l'\u00e9thique, nous continuons de mettre l'accent sur des sujets qui font ressortir les valeurs de la fonction publique li\u00e9es \u00e0 notre th\u00e8me, Que feriez-vous?"
        },
        "language": {
            "en": "eng",
            "fr": "fra"
        },
        "audience": {
            "en": "gcaudience",
            "fr": "gcaudience"
        },
        "creator": {
            "en": "Agriculture and Agri-Food Canada",
            "fr": "Agriculture et Agroalimentaire Canada"
        },
        "spatial": {
            "en": "gcregions",
            "fr": "gcregions"
        },
        "service": {
            "en": "AAFC_AgriSource",
            "fr": "AAC_AgriSource"
        },
        "accessRights": {
            "en": "3",
            "fr": "3"
        }
    },
    "body": {
        "en": "<br>\n<br>\n<p>As part of Values and Ethics Awareness Month, we continue to focus on topics that emphasize the Public Service values in line with our theme, <em>What Would You Do?</em></p>\n<p><em>You receive an offer to work with an external organization that you collaborate with regularly. Retirement is right around the corner and you would like to consider this opportunity.</em></p>\n<h2>\n<strong>What Would You Do?</strong></h2>\n<p>\nIn this particular situation, since you collaborate regularly with the organization, the post-employment opportunity could pose a risk of real, apparent or potential conflict of interest. Consequently, you would be required to <a href=\"https://forms-formulaires.agr.gc.ca/pdf/A6122-E.pdf\">disclose</a> the post-employment opportunity.</p>\n<h2><strong>Have more questions or need more help?</strong></h2>\n<p>For more information, please consult the following tools:</p>\n<ul>\n<li>an outline of\u00a0<a href=\"https://intranet.agr.gc.ca/agrisource/AgriDoc.do?id=102171463&amp;lang=eng\" target=\"_blank\">post-employment obligations</a>\u00a0as set out in the <em><a target=\"_blank\" href=\"http://www.agr.gc.ca/eng/?id=1448297869529\"><em>Values and Ethics Code for Agriculture and Agri-Food Canada</em></a></em></li>\n<li>a\u00a0<a href=\"https://intranet.agr.gc.ca/agrisource/AgriDoc.do?id=100997050&amp;lang=eng\" target=\"_blank\">post-employment flow chart</a>\u00a0that provides an overview of requirements and responsibilities</li>\n</ul>\n<p>\nFor advice on your specific situation, please contact the Values and Ethics Policy Centre by email at <a href=\"mailto:valuesandethics@agr.gc.ca\">valuesandethics@agr.gc.ca</a> or by phone at 1-866-894-5464 (toll-free).</p>\n<p>\u00a0<img src=\"https://intranet.agr.gc.ca/resources/prod/news/images/VEMonth2-EN.png\" class=\"center-block\"></p>\n\n\t\t",
        "fr": "<br>\n<br>\n<p>Dans le cadre du Mois de la sensibilisation aux valeurs et \u00e0 l\u2019\u00e9thique, nous continuons de mettre l\u2019accent sur des sujets qui font ressortir les valeurs de la fonction publique li\u00e9es \u00e0 notre th\u00e8me, <em>Que feriez-vous?</em></p>\n<p><em>\n<em>Vous recevez une offre d\u2019emploi d\u2019une organisation externe avec laquelle vous collaborez r\u00e9guli\u00e8rement. Vous vous appr\u00eatez \u00e0 prendre votre retraite et vous envisagez d\u2019accepter cet emploi.</em></em></p>\n<h2>\n<strong>Que feriez-vous?</strong></h2>\n<p>\nDans cette situation particuli\u00e8re, comme vous collaborez r\u00e9guli\u00e8rement avec l\u2019organisation en question, la possibilit\u00e9 d\u2019apr\u00e8s-mandat pourrait pr\u00e9senter un risque de conflit d\u2019int\u00e9r\u00eats r\u00e9el, apparent ou potentiel. Par cons\u00e9quent, vous auriez \u00e0 <a href=\"https://forms-formulaires.agr.gc.ca/pdf/A6122-F.pdf\">divulguer</a> la possibilit\u00e9 d\u2019apr\u00e8s\u2011mandat.</p>\n<h2>\n<strong>Si vous avez des questions ou si vous avez besoin d\u2019aide</strong>\n</h2>\n<p>\nPour plus d\u2019information, veuillez consulter les outils suivants :</p>\n<ul>\n<li>une description des\u00a0<a href=\"https://intranet.agr.gc.ca/agrisource/AgriDoc.do?id=102200937&amp;lang=fra\" target=\"_blank\">obligations d'apr\u00e8s-mandat</a>\u00a0\u00e9nonc\u00e9es dans le <a href=\"http://www.agr.gc.ca/fra/a-propos-de-nous/code-de-valeurs-et-d-ethique-d-agriculture-et-agroalimentaire-canada/?id=1448297869529\"><em>Code de valeurs et d'\u00e9thique d'Agriculture et Agroalimentaire Canada</em></a></li>\n<li>un\u00a0<a href=\"https://intranet.agr.gc.ca/agrisource/AgriDoc.do?id=100997054&amp;lang=fra\" target=\"_blank\">diagramme sur l'apr\u00e8s-mandat</a>\u00a0qui donne un aper\u00e7u des exigences et des responsabilit\u00e9s.</li>\n</ul>\n<p>\nPour obtenir des conseils sur votre situation particuli\u00e8re, veuillez communiquer avec le Centre de la politique sur les valeurs et l\u2019\u00e9thique par courriel \u00e0 <a href=\"mailto:valeursetethique@agr.gc.ca\">valeursetethique@agr.gc.ca</a> ou au num\u00e9ro sans frais 1-866-894-5464.</p>\n<p>\u00a0</p>\n<p><img src=\"https://intranet.agr.gc.ca/resources/prod/news/images/VEMonth2-FR.png\" class=\"center-block\"></p>\n\t\t"
    },
    "breadcrumb": {
        "en": "Post-Employment Offer - What Would You Do?",
        "fr": "Offre d'apr\u00e8s-mandat - Que feriez-vous?"
    },
    "news": {
        "date_posted": {
            "en": "2018-02-08",
            "fr": "2018-02-08"
        },
        "to": {
            "en": "All staff",
            "fr": "Tous les employ\u00e9s"
        },
        "by": {
            "en": "Human Resources, Corporate Management Branch",
            "fr": "Ressources humaines, Direction g\u00e9n\u00e9rale de la gestion int\u00e9gr\u00e9e"
        }
    }
}