{
    "dcr_id": "1517231741090",
    "lang": "en",
    "title": {
        "en": "Reminder - Watching the PyeongChang 2018 Olympic Games Online",
        "fr": "Rappel - Regarder en ligne les Jeux olympiques de PyeongChang 2018"
    },
    "modified": "2020-07-15 00:00:00.0",
    "issued": "2018-02-01 00:00:00.0",
    "type_name": "intra-intra/news-nouv",
    "node_id": "1279030006975",
    "layout_name": null,
    "dc_date_created": "2018-01-29",
    "breadcrumb_label": "",
    "meta": {
        "issued": {
            "en": "2018-02-01",
            "fr": "2018-02-01"
        },
        "modified": {
            "en": "2020-07-15",
            "fr": "2020-07-15"
        },
        "format": {
            "en": "gcformat",
            "fr": "gcformat"
        },
        "title": {
            "en": "Reminder - Watching the PyeongChang 2018 Olympic Games Online",
            "fr": "Rappel - Regarder en ligne les Jeux olympiques de PyeongChang 2018"
        },
        "subject": {
            "en": "communications",
            "fr": "communications"
        },
        "description": {
            "en": "The 2018 Winter Olympic Games will be taking place in PyeongChang, South Korea, from February 9 to 25, 2018. Please be mindful that viewing live sporting events from your desktop or mobile device can have a profound impact on our bandwidth and our network.",
            "fr": "Les Jeux olympiques d'hiver de 2018 se d\u00e9rouleront \u00e0 PyeongChang, en Cor\u00e9e du Sud, du 9 au 25 f\u00e9vrier 2018. N'oubliez pas que regarder des \u00e9v\u00e9nements sportifs diffus\u00e9s en direct sur votre ordinateur de bureau ou appareil mobile peut accaparer \u00e9norm\u00e9ment notre largeur de bande et notre r\u00e9seau."
        },
        "language": {
            "en": "eng",
            "fr": "fra"
        },
        "audience": {
            "en": "gcaudience",
            "fr": "gcaudience"
        },
        "creator": {
            "en": "Agriculture and Agri-Food Canada",
            "fr": "Agriculture et Agroalimentaire Canada"
        },
        "spatial": {
            "en": "gcregions",
            "fr": "gcregions"
        },
        "service": {
            "en": "AAFC_AgriSource",
            "fr": "AAC_AgriSource"
        },
        "accessRights": {
            "en": "3",
            "fr": "3"
        }
    },
    "body": {
        "en": "<br>\n<br>\n<p>The 2018 Winter Olympic Games will be taking place in PyeongChang, South Korea, from February 9 to 25, 2018. Please be mindful that viewing live sporting events from your desktop or mobile device can have a profound impact on our bandwidth and our network.</p>\n<p>Our new tool for optimizing Internet access speed will help us prioritize web traffic and may affect the streaming of Olympic coverage depending on available bandwidth. Employees who wish to watch the games during lunch or breaks are encouraged to gather in boardrooms or other central viewing areas rather than streaming video on their own workstations.</p>\n<p>As we want to ensure high-quality network performance for traffic important to AAFC business, your help in conserving our internet bandwidth is greatly appreciated.</p>\n\n\t\t",
        "fr": "<br>\n<br>\n<p>Les Jeux olympiques d\u2019hiver de 2018 se d\u00e9rouleront \u00e0 PyeongChang, en Cor\u00e9e du Sud, du 9 au 25 f\u00e9vrier 2018. N\u2019oubliez pas que regarder des \u00e9v\u00e9nements sportifs diffus\u00e9s en direct sur votre ordinateur de bureau ou appareil mobile peut accaparer \u00e9norm\u00e9ment notre largeur de bande et notre r\u00e9seau.</p>\n<p>Notre nouvel outil pour optimiser la vitesse d\u2019acc\u00e8s \u00e0 Internet nous aidera \u00e0 \u00e9tablir les priorit\u00e9s concernant le trafic Web. Il pourrait donc y avoir un effet sur la diffusion en continu des Jeux olympiques selon la largeur de bande disponible. Les employ\u00e9s qui souhaitent regarder les Jeux pendant leur d\u00eener ou leurs pauses sont invit\u00e9s \u00e0 le faire dans les salles de conf\u00e9rence ou d\u2019autres aires centrales plut\u00f4t que dans leur bureau.</p>\n<p>Comme nous voulons que notre r\u00e9seau fonctionne de mani\u00e8re optimale pour les activit\u00e9s d\u2019AAC, nous vous serions reconnaissants de nous aider \u00e0 limiter l\u2019utilisation de notre largeur de bande.</p>\n\t\t"
    },
    "breadcrumb": {
        "en": "Reminder - Watching the PyeongChang 2018 Olympic Games Online",
        "fr": "Rappel - Regarder en ligne les Jeux olympiques de PyeongChang 2018"
    },
    "news": {
        "date_posted": {
            "en": "2018-02-01",
            "fr": "2018-02-01"
        },
        "to": {
            "en": "All staff",
            "fr": "Tous les employ\u00e9s"
        },
        "by": {
            "en": "Information Systems Branch",
            "fr": "Direction g\u00e9n\u00e9rale des syst\u00e8mes d'information"
        }
    }
}