{
    "dcr_id": "1517000181231",
    "lang": "en",
    "title": {
        "en": "Deputy Ministers' Office Staffing Update",
        "fr": "Le point sur la dotation au bureau des sous-ministres"
    },
    "modified": "2018-01-26 00:00:00.0",
    "issued": "2018-01-26 00:00:00.0",
    "type_name": "intra-intra/news-nouv",
    "node_id": "1279030006975",
    "layout_name": null,
    "dc_date_created": "2018-01-26",
    "breadcrumb_label": "",
    "meta": {
        "issued": {
            "en": "2018-01-26",
            "fr": "2018-01-26"
        },
        "modified": {
            "en": "2018-01-26",
            "fr": "2018-01-26"
        },
        "format": {
            "en": "gcformat",
            "fr": "gcformat"
        },
        "title": {
            "en": "Deputy Ministers' Office Staffing Update",
            "fr": "Le point sur la dotation au bureau des sous-ministres"
        },
        "subject": {
            "en": "communications",
            "fr": "communications"
        },
        "description": {
            "en": "We are pleased to announce that Jodi Downs has accepted the position as Departmental Assistant in the Minister's Office, effective February 1, 2018.",
            "fr": "Nous avons le plaisir d'annoncer que Jodi Downs a accept\u00e9 le poste d'adjointe minist\u00e9rielle au bureau du Ministre et qu'elle entrera en fonction le 1<sup>er</sup> f\u00e9vrier 2018."
        },
        "language": {
            "en": "eng",
            "fr": "fra"
        },
        "audience": {
            "en": "gcaudience",
            "fr": "gcaudience"
        },
        "creator": {
            "en": "Agriculture and Agri-Food Canada",
            "fr": "Agriculture et Agroalimentaire Canada"
        },
        "spatial": {
            "en": "gcregions",
            "fr": "gcregions"
        },
        "service": {
            "en": "AAFC_AgriSource",
            "fr": "AAC_AgriSource"
        },
        "accessRights": {
            "en": "3",
            "fr": "3"
        }
    },
    "body": {
        "en": "<br>\n<br>\n<p>We are pleased to announce that Jodi Downs has accepted the position as Departmental Assistant in the Minister's Office, effective February 1, 2018.</p>\n<p>Jodi brings with her a deep knowledge of the Department with her 12 years in Strategic Policy Branch, most recently as Deputy Director of Cabinet and Interdepartmental Affairs.</p>\n<p>We would like to sincerely thank Monique Rose for her dedication and support in the role of Departmental Assistant over the last two years. Monique's professionalism and positive attitude were much appreciated. Effective February 12, 2018, Monique will join the International Affairs Branch as Deputy Director of Strategic Engagement in the Market Access Secretariat.</p>\n<p>Please join us in wishing Jodi and Monique well in their new roles.</p>\n<p>\u00a0</p>\n<p><strong>Chris Forbes</strong><br>\nDeputy Minister</p>\n<p><strong>Nada Semaan</strong><br>\nAssociate Deputy Ministe</p>\n\n\t\t",
        "fr": "<br>\n<br>\n<p>Nous avons le plaisir d'annoncer que Jodi Downs a accept\u00e9 le poste d'adjointe minist\u00e9rielle au bureau du Ministre et qu'elle entrera en fonction le 1<sup>er</sup> f\u00e9vrier 2018.</p>\n<p>Jodi a acquis une connaissance approfondie du Minist\u00e8re au cours de ses 12 ann\u00e9es de service \u00e0 la Direction g\u00e9n\u00e9rale des politiques strat\u00e9giques. Elle a occup\u00e9 r\u00e9cemment le poste de directrice adjointe de la Section des affaires du Cabinet et des affaires interminist\u00e9rielles.</p>\n<p>Nous tenons \u00e0 remercier sinc\u00e8rement Monique Rose pour son d\u00e9vouement et son appui dans l'exercice des fonctions d'adjointe minist\u00e9rielle au cours des deux derni\u00e8res ann\u00e9es. Son professionnalisme et son attitude positive ont \u00e9t\u00e9 fort appr\u00e9ci\u00e9s. Le 12 f\u00e9vrier 2018, Monique se joindra \u00e0 la Direction g\u00e9n\u00e9rale des affaires internationales en tant que directrice adjointe de l'\u00c9quipe de la mobilisation strat\u00e9gique du Secr\u00e9tariat de l'acc\u00e8s aux march\u00e9s.</p>\n<p>Veuillez vous joindre \u00e0 nous pour souhaiter beaucoup de succ\u00e8s \u00e0 Jodi et \u00e0 Monique dans leurs nouvelles fonctions.</p>\n<p>\u00a0</p>\n<p><strong>Chris Forbes</strong><br>\nSous-ministre</p>\n<p><strong>Nada Semaan</strong><br>\nSous-ministre d\u00e9l\u00e9gu\u00e9e</p>\n\t\t"
    },
    "breadcrumb": {
        "en": "Deputy Ministers' Office Staffing Update",
        "fr": "Le point sur la dotation au bureau des sous-ministres"
    },
    "news": {
        "date_posted": {
            "en": "2018-01-26",
            "fr": "2018-01-26"
        },
        "to": {
            "en": "All staff",
            "fr": "Tous les employ\u00e9s"
        },
        "by": {
            "en": "Chris Forbes, Deputy Minister, and Nada Semaan, Associate Deputy Minister",
            "fr": "Chris Forbes, sous-ministre et Nada Semaan, sous-ministre d\u00e9l\u00e9gu\u00e9e"
        }
    }
}