{
    "dcr_id": "1518622039490",
    "lang": "en",
    "title": {
        "en": "Canadian Agricultural Partnership: Launch of Federal Programs",
        "fr": "Partenariat canadien pour l'agriculture : Lancement des programmes f\u00e9d\u00e9raux"
    },
    "modified": "2018-02-14 00:00:00.0",
    "issued": "2018-02-14 00:00:00.0",
    "type_name": "intra-intra/news-nouv",
    "node_id": "1279030006975",
    "layout_name": null,
    "dc_date_created": "2018-02-14",
    "breadcrumb_label": "",
    "meta": {
        "issued": {
            "en": "2018-02-14",
            "fr": "2018-02-14"
        },
        "modified": {
            "en": "2018-02-14",
            "fr": "2018-02-15"
        },
        "format": {
            "en": "gcformat",
            "fr": "gcformat"
        },
        "title": {
            "en": "Canadian Agricultural Partnership: Launch of Federal Programs",
            "fr": "Partenariat canadien pour l'agriculture : Lancement des programmes f\u00e9d\u00e9raux"
        },
        "subject": {
            "en": "communications",
            "fr": "communications"
        },
        "description": {
            "en": "Yesterday, Minister MacAulay officially launched the six federal programs under the <i>Canadian Agricultural Partnership</i>: AgriMarketing, AgriScience, AgriInnovate, AgriCompetitiveness, AgriDiversity, and AgriAssurance, and announced details of federal funding under the <i>Partnership</i>.",
            "fr": "Hier, le ministre MacAulay a lanc\u00e9 officiellement les six programmes f\u00e9d\u00e9raux du <i>Partenariat canadien pour l'agriculture</i> (Agri-marketing, Agri-science, Agri-innover, Agri-comp\u00e9titivit\u00e9, Agri-diversit\u00e9 et Agri-assurance) et annonc\u00e9 les modalit\u00e9s du financement f\u00e9d\u00e9ral dans le cadre du <i>Partenariat</i>."
        },
        "language": {
            "en": "eng",
            "fr": "fra"
        },
        "audience": {
            "en": "gcaudience",
            "fr": "gcaudience"
        },
        "creator": {
            "en": "Agriculture and Agri-Food Canada",
            "fr": "Agriculture et Agroalimentaire Canada"
        },
        "spatial": {
            "en": "gcregions",
            "fr": "gcregions"
        },
        "service": {
            "en": "AAFC_AgriSource",
            "fr": "AAC_AgriSource"
        },
        "accessRights": {
            "en": "3",
            "fr": "3"
        }
    },
    "body": {
        "en": "<br>\n<br>\n<p>Yesterday, Minister MacAulay officially launched the six federal programs under the <em>Canadian Agricultural Partnership</em>: AgriMarketing, AgriScience, AgriInnovate, AgriCompetitiveness, AgriDiversity, and AgriAssurance, and announced details of federal funding under the <em>Partnership</em>.</p>\n<p>The <em>Partnership</em>, set to launch on April 1, 2018, will focus on three key areas:</p>\n<ul>\n<li>growing trade and expanding markets;</li>\n<li>innovative and sustainable growth of the sector; and</li>\n<li>supporting diversity and a dynamic, evolving sector.</li>\n</ul>\n<p>We encourage you to read the <a href=\"https://www.canada.ca/en/agriculture-agri-food/news/2018/02/canadian_agriculturalpartnershipbuildingastrongagricultureandagr.html\">news release</a> and <a href=\"https://www.canada.ca/en/agriculture-agri-food/news/2018/02/federal_activitiesandprograms.html\">backgrounder</a> for more details.</p>\n<p>The launch of these programs is the result of many months of collaboration and team work across all AAFC branches, with our provincial and territorial partners, and with the industry.</p>\n<p>We would like to take this opportunity to thank everyone involved for your hard work in helping to reach this achievement.</p>\n<p>\u00a0</p>\n<p><strong>Chris Forbes </strong><br>\nDeputy Minister</p>\n<p><strong>Nada Semaan</strong><br>\nAssociate Deputy Minister</p>\n\n\t\t",
        "fr": "<br>\n<br>\n<p>Hier, le ministre MacAulay a lanc\u00e9 officiellement les six programmes f\u00e9d\u00e9raux du <em>Partenariat canadien pour l'agriculture</em> (Agri-marketing, Agri-science, Agri-innover, Agri-comp\u00e9titivit\u00e9, Agri-diversit\u00e9 et Agri-assurance) et annonc\u00e9 les modalit\u00e9s du financement f\u00e9d\u00e9ral dans le cadre du <em>Partenariat</em>.</p>\n<p>Le <em>Partenariat</em>, dont le lancement est pr\u00e9vu pour le 1<sup>er</sup> avril 2018, mettra l'accent sur trois grands th\u00e8mes :</p>\n<ul>\n<li>intensifier le commerce et \u00e9largir l'acc\u00e8s aux march\u00e9s;</li>\n<li>favoriser une croissance innovatrice et durable du secteur;</li>\n<li>soutenir la diversit\u00e9 et un secteur dynamique en \u00e9volution.</li>\n</ul>\n<p>Nous vous invitons \u00e0 lire le <a href=\"https://www.canada.ca/fr/agriculture-agroalimentaire/nouvelles/2018/02/partenariat_canadienpourlagricultureconstruireunsecteurdelagricu.html\">communiqu\u00e9</a> et le <a href=\"https://www.canada.ca/fr/agriculture-agroalimentaire/nouvelles/2018/02/activites_et_programmesfederaux.html\">document d'information</a> pour en savoir plus long.</p>\n<p>Le lancement de ces programmes est le fruit de nombreux mois de collaboration et de travail d'\u00e9quipe entre les directions g\u00e9n\u00e9rales d'AAC, avec nos partenaires provinciaux et territoriaux et avec le secteur.</p>\n<p>Nous tenons \u00e0 remercier tous les employ\u00e9s qui se sont surpass\u00e9s pour nous permettre d'en arriver \u00e0 cette grande r\u00e9alisation.</p>\n<p>\u00a0</p>\n<p><strong>Chris Forbes </strong><br>\nSous-ministre</p>\n<p><strong>Nada Semaan</strong><br>\nSous-ministre d\u00e9l\u00e9gu\u00e9e</p>\n\t\t"
    },
    "breadcrumb": {
        "en": "Canadian Agricultural Partnership: Launch of Federal Programs",
        "fr": "Partenariat canadien pour l'agriculture : Lancement des programmes f\u00e9d\u00e9raux"
    },
    "news": {
        "date_posted": {
            "en": "2018-02-14",
            "fr": "2018-02-14"
        },
        "to": {
            "en": "All staff",
            "fr": "Tous les employ\u00e9s"
        },
        "by": {
            "en": "Chris Forbes, Deputy Minister, and Nada Semaan, Associate Deputy Minister",
            "fr": "Chris Forbes, sous-ministre et Nada Semaan, sous-ministre d\u00e9l\u00e9gu\u00e9e"
        }
    }
}