{
    "dcr_id": "1518796724758",
    "lang": "en",
    "title": {
        "en": "NCR - Replacement of Pot Lights - Towers 1 to 4",
        "fr": "RCN - Remplacement de luminaires \u00e0 encastrer - Tours 1 \u00e0 4"
    },
    "modified": "2018-02-22 00:00:00.0",
    "issued": "2018-02-22 00:00:00.0",
    "type_name": "intra-intra/news-nouv",
    "node_id": "1279030006975",
    "layout_name": null,
    "dc_date_created": "2018-02-16",
    "breadcrumb_label": "",
    "meta": {
        "issued": {
            "en": "2018-02-22",
            "fr": "2018-02-22"
        },
        "modified": {
            "en": "2018-02-22",
            "fr": "2018-02-22"
        },
        "format": {
            "en": "gcformat",
            "fr": "gcformat"
        },
        "title": {
            "en": "NCR - Replacement of Pot Lights - Towers 1 to 4",
            "fr": "RCN - Remplacement de luminaires \u00e0 encastrer - Tours 1 \u00e0 4"
        },
        "subject": {
            "en": "communications",
            "fr": "communications"
        },
        "description": {
            "en": "This notice is to advise you of the replacement of fluorescent pot lights in Towers 1 to 4.",
            "fr": "Le pr\u00e9sent avis vise \u00e0 vous informer du remplacement des luminaires fluorescents \u00e0 encastrer dans les tours 1 \u00e0 4."
        },
        "language": {
            "en": "eng",
            "fr": "fra"
        },
        "audience": {
            "en": "gcaudience",
            "fr": "gcaudience"
        },
        "creator": {
            "en": "Agriculture and Agri-Food Canada",
            "fr": "Agriculture et Agroalimentaire Canada"
        },
        "spatial": {
            "en": "gcregions",
            "fr": "gcregions"
        },
        "service": {
            "en": "AAFC_AgriSource",
            "fr": "AAC_AgriSource"
        },
        "accessRights": {
            "en": "3",
            "fr": "3"
        }
    },
    "body": {
        "en": "<br>\n<br>\n<p>This notice is to advise you of the replacement of fluorescent pot lights in Towers 1 to 4.</p>\n<p>Details of this work are outlined in the\u00a0<a href=\"https://intranet.agr.gc.ca/agrisource/AgriDoc.do?id=103933954&amp;lang=eng\" target=\"_blank\">Maple Leaf Property Management notice</a>.</p>\n<p>\u00a0</p>\n<p><img src=\"https://intranet.agr.gc.ca/resources/prod/news/images/TestingFireAlarms.png\" class=\"center-block\"></p>\n\n\t\t",
        "fr": "<br>\n<br>\n<p>Le pr\u00e9sent\u00a0avis\u00a0vise \u00e0 vous informer du remplacement\u00a0des luminaires\u00a0fluorescents \u00e0 encastrer dans les tours 1 \u00e0 4.</p>\n<p>Ces travaux\u00a0sont d\u00e9crits de fa\u00e7on d\u00e9taill\u00e9e dans l\u2019avis de\u00a0<a href=\"https://intranet.agr.gc.ca/agrisource/AgriDoc.do?id=103933954&amp;lang=fra\" target=\"_blank\">Maple Leaf Property Management</a>.</p>\n<p>\u00a0</p>\n<p><img src=\"https://intranet.agr.gc.ca/resources/prod/news/images/TestingFireAlarms.png\" class=\"center-block\"></p>\n\t\t"
    },
    "breadcrumb": {
        "en": "NCR - Replacement of Pot Lights - Towers 1 to 4",
        "fr": "RCN - Remplacement de luminaires \u00e0 encastrer - Tours 1 \u00e0 4"
    },
    "news": {
        "date_posted": {
            "en": "2018-02-21",
            "fr": "2018-02-21"
        },
        "to": {
            "en": "NCR only",
            "fr": "RCN seulement"
        },
        "by": {
            "en": "Maple Leaf Property Management",
            "fr": "Maple Leaf Property Management"
        }
    }
}