{
    "dcr_id": "1518815999321",
    "lang": "en",
    "title": {
        "en": "NCR - Winter Hazards: Tips for Walking Outside the Complex",
        "fr": "RCN - Les dangers de l'hiver : Conseils pour marcher \u00e0 l'ext\u00e9rieur du complexe"
    },
    "modified": "2018-02-22 00:00:00.0",
    "issued": "2018-02-22 00:00:00.0",
    "type_name": "intra-intra/news-nouv",
    "node_id": "1279030006975",
    "layout_name": null,
    "dc_date_created": "2018-02-19",
    "breadcrumb_label": "",
    "meta": {
        "issued": {
            "en": "2018-02-22",
            "fr": "2018-02-22"
        },
        "modified": {
            "en": "2018-02-22",
            "fr": "2018-02-22"
        },
        "format": {
            "en": "gcformat",
            "fr": "gcformat"
        },
        "title": {
            "en": "NCR - Winter Hazards: Tips for Walking Outside the Complex",
            "fr": "RCN - Les dangers de l'hiver : Conseils pour marcher \u00e0 l'ext\u00e9rieur du complexe"
        },
        "subject": {
            "en": "communications",
            "fr": "communications"
        },
        "description": {
            "en": "The NHCAP Occupational Health and Safety Committee reminds you to take precautions to avoid falls and injury when walking outside of the NHCAP complex this winter.",
            "fr": "Le Comit\u00e9 de sant\u00e9 et de s\u00e9curit\u00e9 au travail du CACPA vous rappelle de prendre des pr\u00e9cautions pour \u00e9viter les chutes et les blessures lorsque vous marchez \u00e0 l'ext\u00e9rieur du complexe cet hiver."
        },
        "language": {
            "en": "eng",
            "fr": "fra"
        },
        "audience": {
            "en": "gcaudience",
            "fr": "gcaudience"
        },
        "creator": {
            "en": "Agriculture and Agri-Food Canada",
            "fr": "Agriculture et Agroalimentaire Canada"
        },
        "spatial": {
            "en": "gcregions",
            "fr": "gcregions"
        },
        "service": {
            "en": "AAFC_AgriSource",
            "fr": "AAC_AgriSource"
        },
        "accessRights": {
            "en": "3",
            "fr": "3"
        }
    },
    "body": {
        "en": "<br>\n<br>\n<p>The NHCAP Occupational Health and Safety Committee reminds you to take precautions to avoid falls and injury when walking outside of the NHCAP complex this winter.</p>\n<ul>\n<li><img src=\"https://intranet.agr.gc.ca/resources/prod/news/images/WinterHazards.png\" class=\"pull-right mrgn-lft-md\"><strong>Plan ahead.</strong>\u00a0While walking on snow or ice on sidewalks or in parking lots, walk consciously. Instead of looking forward, look for ice or uneven surfaces where you are stepping. When wearing a hood that limits your peripheral vision, be sure to look both ways before crossing the roadway.</li>\n<li><strong>Wear proper footwear.</strong>\u00a0Proper footwear should place the entire foot on the surface of the ground and have visible treads. Avoid a smooth sole and instead, choose footwear with rubber or another gripping surface. And remember, if it\u2019s slippery for you, it\u2019s also slippery for others (e.g. cars).</li>\n<li><strong>Anticipate ice.</strong> Be wary of thin sheets of ice that may appear as wet pavement (black ice) or a thin drizzle that also creates ice that is hard to see.</li>\n<li><strong>Be alert</strong>.\u00a0Avoid listening to music or engaging in conversation that may prevent you from hearing oncoming traffic or snow removal equipment.</li>\n<li><strong>Enter a building carefully.</strong>\u00a0When you get to your destination, be sure to look at the floor as you enter the building. The floor may be wet with melted snow and ice.</li>\n<li><strong>Be careful when you shift your weight.</strong> When stepping off a curb or getting into a car, be careful since shifting your weight may cause an imbalance and result in a fall. This is a major source of falls.</li>\n<li><strong>Avoid taking shortcuts.</strong> Shortcuts may seem to be a good idea if you are in a hurry but a shortcut path might be treacherous because it is likely to be located where snow and ice removal has not occurred.</li>\n<li><strong>Look up.</strong> Be careful about what you walk under. Injuries can result from falling snow/ice as it blows, melts, or breaks away from awnings, buildings, etc. The entrances at Towers 1-2, 3-4, 5, and 7 all have awnings that may have snow that can fall.</li>\n<li><strong>Assume the surface is slippery.</strong> Even during snow removal, it takes time to clear out all areas of the complex. Despite best efforts, it is possible that there will still be slippery patches after snow removal.</li>\n</ul>\n<p>Follow the above guidelines and be safe.</p>\n\n\t\t",
        "fr": "<br>\n<br>\n<p>Le Comit\u00e9 de sant\u00e9 et de s\u00e9curit\u00e9 au travail du CACPA vous rappelle de prendre des pr\u00e9cautions pour \u00e9viter les chutes et les blessures lorsque vous marchez \u00e0 l\u2019ext\u00e9rieur du complexe cet hiver.</p>\n<ul>\n<li><strong><img src=\"https://intranet.agr.gc.ca/resources/prod/news/images/WinterHazards.png\" class=\"pull-right mrgn-lft-md\">Pr\u00e9voyez.</strong> Lorsque vous marchez sur la surface enneig\u00e9e ou glac\u00e9e des trottoirs ou des stationnements, faites-le avec pr\u00e9caution. Au lieu de regarder droit devant vous en marchant, v\u00e9rifiez s\u2019il y a de la glace ou des bosses l\u00e0 o\u00f9 vous mettez les pieds. Si vous portez un capuchon qui limite votre vision p\u00e9riph\u00e9rique, assurez-vous de regarder des deux c\u00f4t\u00e9s du chemin avant de traverser.</li>\n<li><strong>Portez\u00a0des chaussures ad\u00e9quates.</strong> Une chaussure ad\u00e9quate\u00a0vous permet de d\u00e9poser toute la surface de votre pied sur le sol et est dot\u00e9e de semelles rainur\u00e9es. \u00c9vitez les chaussures \u00e0 semelles lisses; choisissez des semelles en caoutchouc ou une autre mati\u00e8re adh\u00e9rente. N\u2019oubliez pas : si c\u2019est glissant pour vous,\u00a0cela l\u2019est aussi pour les autres (c.-\u00e0-d. les voitures).</li>\n<li><strong>Soyez \u00e0 l'aff\u00fbt de la glace.</strong> Faites attention aux minces couches de glace qui pourraient ressembler \u00e0 de l\u2019asphalte mouill\u00e9 (glace noire) ou \u00e0 la fine bruine qui forme une glace difficile \u00e0 voir.</li>\n<li><strong>Soyez alerte.</strong> \u00c9vitez d\u2019\u00e9couter de la musique ou d\u2019avoir des conversations qui pourraient vous emp\u00eacher d\u2019entendre les voitures qui arrivent ou les d\u00e9neigeuses.</li>\n<li><strong>Entrez dans les immeubles avec pr\u00e9caution.</strong> Lorsque vous arrivez \u00e0 destination, regardez le plancher. Il peut y avoir des flaques de neige et de glace fondues.</li>\n<li><strong>Faites attention lorsque vous d\u00e9placez votre poids.</strong> Lorsque vous descendez d'un trottoir ou que vous montez dans une voiture, faites attention, car le d\u00e9placement de votre poids peut vous d\u00e9s\u00e9quilibrer et vous faire tomber. Il s\u2019agit l\u00e0 de l'une des principales causes de chute.</li>\n<li><strong>\u00c9vitez les raccourcis.</strong> Les raccourcis peuvent vous sembler une bonne id\u00e9e quand vous \u00eates press\u00e9s, mais cela peut vous jouer de mauvais tours, car le raccourci peut se trouver \u00e0 un endroit o\u00f9 la neige et la glace n\u2019ont pas \u00e9t\u00e9 retir\u00e9es.</li>\n<li><strong>Regardez en haut.</strong> Faites attention \u00e0 ce\u00a0qui se trouve au-dessus\u00a0de\u00a0vous. Des blessures peuvent aussi \u00eatre caus\u00e9es par des chutes de\u00a0neige\u00a0et de\u00a0glace qui\u00a0sont souffl\u00e9es, qui fondent ou qui se d\u00e9tachent des auvents ou des\u00a0immeubles. Les entr\u00e9es des tours 1-2, 3\u20114, 5 et 7 ont toutes des auvents desquels de la neige peut tomber.</li>\n<li><strong>Tenez pour acquis que la surface est glissante.</strong>\u00a0M\u00eame lorsqu\u2019il est en cours, le d\u00e9neigement de toutes les zones du complexe peut prendre du temps. Malgr\u00e9 les efforts d\u00e9ploy\u00e9s, il peut rester des surfaces glissantes apr\u00e8s le d\u00e9neigement.</li>\n</ul>\n<p>Suivez les consignes ci-dessus et restez en s\u00e9curit\u00e9!</p>\n\t\t"
    },
    "breadcrumb": {
        "en": "NCR - Winter Hazards: Tips for Walking Outside the Complex",
        "fr": "RCN - Les dangers de l'hiver : Conseils pour marcher \u00e0 l'ext\u00e9rieur du complexe"
    },
    "news": {
        "date_posted": {
            "en": "2018-02-19",
            "fr": "2018-02-19"
        },
        "to": {
            "en": "NCR only",
            "fr": "RCN seulement"
        },
        "by": {
            "en": "NHCAP Workplace Occupational Health and Safety Committee",
            "fr": "Comit\u00e9 de sant\u00e9 et de s\u00e9curit\u00e9 au travail du CACPA"
        }
    }
}