{
    "dcr_id": "1518537768191",
    "lang": "en",
    "title": {
        "en": "This Week in The Harvest - Honouring James Fletcher - Canada's Father of Economic Entomology",
        "fr": "Au menu de La Moisson cette semaine - Hommage \u00e0 James Fletcher - p\u00e8re de l'entomologie \u00e9conomique au Canada"
    },
    "modified": "2018-02-15 00:00:00.0",
    "issued": "2018-02-15 00:00:00.0",
    "type_name": "intra-intra/news-nouv",
    "node_id": "1279030006975",
    "layout_name": null,
    "dc_date_created": "2018-02-13",
    "breadcrumb_label": "",
    "meta": {
        "issued": {
            "en": "2018-02-15",
            "fr": "2018-02-15"
        },
        "modified": {
            "en": "2018-02-15",
            "fr": "2018-02-15"
        },
        "format": {
            "en": "gcformat",
            "fr": "gcformat"
        },
        "title": {
            "en": "This Week in The Harvest - Honouring James Fletcher - Canada's Father of Economic Entomology",
            "fr": "Au menu de La Moisson cette semaine - Hommage \u00e0 James Fletcher - p\u00e8re de l'entomologie \u00e9conomique au Canada"
        },
        "subject": {
            "en": "communications",
            "fr": "communications"
        },
        "description": {
            "en": "In case you missed it, here's what's new in The Harvest this week.",
            "fr": "Au cas o\u00f9 vous l'auriez manqu\u00e9, voici le menu que la section La Moisson vous offre cette semaine."
        },
        "language": {
            "en": "eng",
            "fr": "fra"
        },
        "audience": {
            "en": "gcaudience",
            "fr": "gcaudience"
        },
        "creator": {
            "en": "Agriculture and Agri-Food Canada",
            "fr": "Agriculture et Agroalimentaire Canada"
        },
        "spatial": {
            "en": "gcregions",
            "fr": "gcregions"
        },
        "service": {
            "en": "AAFC_AgriSource",
            "fr": "AAC_AgriSource"
        },
        "accessRights": {
            "en": "3",
            "fr": "3"
        }
    },
    "body": {
        "en": "<br>\n<br>\n<p>In case you missed it, here\u2019s what\u2019s new in <a href=\"https://collab.agr.gc.ca/apps/harvest-moisson\">The Harvest</a> this week:</p>\n<p><strong>Feature story: </strong><a href=\"https://collab.agr.gc.ca/apps/harvest-moisson/\">Honouring James Fletcher - Canada\u2019s Father of Economic Entomology</a> \u2013 Appointed Dominion Entomologist and Botanist to the Central Experimental Farm in 1887, James Fletcher planned and oversaw the planting of the first trees in the CEF\u2019s Arboretum in 1889. He established national collections, such as the National Collection of Vascular Plants and the Canadian National Collection of Insects, both of which are still used today for scientific research. </p>\n<p><strong>Poll: </strong><a href=\"https://collab.agr.gc.ca/apps/harvest-moisson\">Which cold weather \u201cbowl\u201d do you prefer?</a><strong> </strong></p>\n<p><strong>Feature photo:</strong> <a href=\"https://collab.agr.gc.ca/apps/harvest-moisson/gallery/Lists/Posts/Post.aspx?ID=139\">Feeding the Chickadees</a>, By Kathryn Hunt, Public Affairs Branch, Ottawa, Ontario.</p>\n<p><strong>Did you know?</strong> <a href=\"https://collab.agr.gc.ca/apps/harvest-moisson/Pages/DidYouKnow.aspx\">For every dollar a Canadian farmer earns, he pays out approximately 75 cents in operating expenses</a>. As the price of fuel and other essential inputs outpaces earned income, farmers must become even more productive and efficient to stay in business.</p>\n<p>You can get involved by posting a comment or \u201cliking\u201d an article. You can also check out what your colleagues are liking and saying.</p>\n<p>Should you have story ideas, scenic or artistic agriculture-related photos, or interesting facts, please share them with us by clicking on \u201cContribute\u201d in the top menu bar.</p>\n<p>\u00a0<img src=\"https://intranet.agr.gc.ca/resources/prod/news/images/HarvestJamesFletcher.png\" class=\"center-block\" alt=\"James Fletcher\"></p>\n\n\t\t",
        "fr": "<br>\n<br>\n<p>Au cas o\u00f9 vous l\u2019auriez manqu\u00e9, voici le menu que la section <a href=\"https://collab.agr.gc.ca/apps/harvest-moisson\">La Moisson</a> vous offre cette semaine :</p>\n<p><strong>Article vedette :</strong> <a href=\"https://collab.agr.gc.ca/apps/harvest-moisson/\">Hommage \u00e0 James Fletcher \u2013 p\u00e8re de l\u2019entomologie \u00e9conomique au Canada </a><strong> </strong>\u2013 Nomm\u00e9 entomologiste et botaniste du Dominion \u00e0 la Ferme exp\u00e9rimentale centrale en 1887, James Fletcher a planifi\u00e9 et supervis\u00e9 la plantation des premiers arbres \u00e0 l\u2019arboretum de la FEC en 1889. Il a \u00e9tabli des collections nationales, comme la Collection nationale de plantes vasculaires et la Collection nationale canadienne d\u2019insectes, qui sont toujours utilis\u00e9es de nos jours pour la recherche scientifique.</p>\n<p><strong>Sondage : </strong><a href=\"https://collab.agr.gc.ca/apps/harvest-moisson\">Quel aliment servi dans un bol pr\u00e9f\u00e9rez-vous par temps froid?</a></p>\n<p><strong>Photo vedette :</strong> <a href=\"https://collab.agr.gc.ca/apps/harvest-moisson/gallery/Lists/Posts/Post.aspx?ID=139\">M\u00e9sange \u00e0 t\u00eate noire</a>, par Kathryn Hunt, Direction g\u00e9n\u00e9rale des affaires publiques, Ottawa (Ontario).</p>\n<p><strong>Le saviez-vous?</strong> <a href=\"https://collab.agr.gc.ca/apps/harvest-moisson/Pages/DidYouKnow.aspx\">Sur chaque dollar gagn\u00e9 par un agriculteur canadien, environ 75 cents sont d\u00e9pens\u00e9s en frais d\u2019exploitation</a>. Comme le prix du carburant et d\u2019autres intrants essentiels augmente plus rapidement que les revenus, les agriculteurs doivent \u00eatre encore plus productifs pour demeurer en affaires.</p>\n<p>Vous pouvez participer en affichant des commentaires ou en utilisant la fonction \u00ab J\u2019aime \u00bb ou \u00ab Partager \u00bb pour exprimer votre appr\u00e9ciation d\u2019un article. Vous pouvez aussi aller voir ce que vos coll\u00e8gues aiment et ont \u00e0 dire.</p>\n<p>Si vous avez des id\u00e9es d\u2019articles, des photos de paysages ou \u00e0 caract\u00e8re artistique li\u00e9es \u00e0 l\u2019agriculture ou encore des faits int\u00e9ressants, veuillez nous en faire part en cliquant sur \u00ab Collaborer \u00bb dans la barre de menu en haut de la page.</p>\n<p>\u00a0<img src=\"https://intranet.agr.gc.ca/resources/prod/news/images/HarvestJamesFletcher.png\" class=\"center-block\" alt=\"James Fletcher\"></p>\n\t\t"
    },
    "breadcrumb": {
        "en": "This Week in The Harvest - Honouring James Fletcher - Canada's Father of Economic Entomology",
        "fr": "Au menu de La Moisson cette semaine - Hommage \u00e0 James Fletcher - p\u00e8re de l'entomologie \u00e9conomique..."
    },
    "news": {
        "date_posted": {
            "en": "2018-02-15",
            "fr": "2018-02-15"
        },
        "to": {
            "en": "All staff",
            "fr": "Tous les employ\u00e9s"
        },
        "by": {
            "en": "Corporate Communications, Public Affairs Branch",
            "fr": "Communications minist\u00e9rielles, Direction g\u00e9n\u00e9rale des affaires publiques"
        }
    }
}