{
    "dcr_id": "1518531675139",
    "lang": "en",
    "title": {
        "en": "Need a Student? Student Employment Options",
        "fr": "Besoin d'un \u00e9tudiant? Options d'embauche"
    },
    "modified": "2018-02-15 00:00:00.0",
    "issued": "2018-02-15 00:00:00.0",
    "type_name": "intra-intra/news-nouv",
    "node_id": "1279030006975",
    "layout_name": null,
    "dc_date_created": "2018-02-13",
    "breadcrumb_label": "",
    "meta": {
        "issued": {
            "en": "2018-02-15",
            "fr": "2018-02-15"
        },
        "modified": {
            "en": "2018-02-15",
            "fr": "2018-02-15"
        },
        "format": {
            "en": "gcformat",
            "fr": "gcformat"
        },
        "title": {
            "en": "Need a Student? Student Employment Options",
            "fr": "Besoin d'un \u00e9tudiant? Options d'embauche"
        },
        "subject": {
            "en": "communications",
            "fr": "communications"
        },
        "description": {
            "en": "Students can generate new perspectives and fresh ideas, so consider hiring a student when thinking about your staffing needs. Don\u2019t miss your opportunity to attract the best and the brightest students into the public service!",
            "fr": "Les \u00e9tudiants peuvent apporter de nouveaux points de vue et des id\u00e9es fra\u00eeches. Par cons\u00e9quent, envisagez d'embaucher un \u00e9tudiant lorsque vous r\u00e9fl\u00e9chissez \u00e0 vos besoins en dotation. Ne manquez pas votre chance d'attirer les meilleurs \u00e9tudiants au sein de la fonction publique!"
        },
        "language": {
            "en": "eng",
            "fr": "fra"
        },
        "audience": {
            "en": "gcaudience",
            "fr": "gcaudience"
        },
        "creator": {
            "en": "Agriculture and Agri-Food Canada",
            "fr": "Agriculture et Agroalimentaire Canada"
        },
        "spatial": {
            "en": "gcregions",
            "fr": "gcregions"
        },
        "service": {
            "en": "AAFC_AgriSource",
            "fr": "AAC_AgriSource"
        },
        "accessRights": {
            "en": "3",
            "fr": "3"
        }
    },
    "body": {
        "en": "<br>\n<br>\n<p>Students can generate new perspectives and fresh ideas, so consider hiring a student when thinking about your staffing needs. Don\u2019t miss your opportunity to attract the best and the brightest students into the public service!</p>\n<p>The following are the options for <a href=\"http://intranet.agr.gc.ca/agrisource/eng/human-resources/staffing/student-employment?id=1331559125372\">student employment</a> at AAFC. These methods can help you retain current students and make the student recruitment process easier.</p>\n<ul>\n<li>Student Employment Programs (FSWEP, RAP, Co-Op)</li>\n<li>AAFC FSWEP Pool (NCR only) \u2013 New for 2018</li>\n<li>AAFC Student Rehire Inventory \u2013 New for 2018</li>\n<li>AAFC Student Integration Inventory</li>\n</ul>\n<h2><strong>Hiring manager requirements</strong></h2>\n<ul>\n<li>Forecast and plan for student hiring.</li>\n<li>Initiate student requests ideally 12 weeks prior to the anticipated start date to ensure you have the most hiring options, and respect the pledge to student hiring.</li>\n<li>Take this opportunity to increase diversity and representation.</li>\n<li>Plan for security checks. Security clearance for students could take up to three weeks.</li>\n<li>Return the signed letter of offer with all required documents to HR at least <strong>15 working days</strong> prior to the student\u2019s start date.</li>\n<li>Administer the oath on, or before, the student\u2019s first day at work.</li>\n</ul>\n<h2><strong>Learn more</strong></h2>\n<ul>\n<li><a href=\"http://intranet.agr.gc.ca/agrisource/eng/human-resources/staffing/student-employment?id=1331559125372\">Student Employment</a> at AAFC</li>\n<li><a href=\"https://www.canada.ca/en/public-service-commission/jobs/services/recruitment/students/deputy-head-pledge-support-students-employed-public-service.html\">Deputy Head pledge to support students employed in the public service</a></li>\n<li><a href=\"https://intranet.agr.gc.ca/agrisource/AgriDoc.do?id=103453444&amp;lang=eng\" target=\"_blank\">Frequently Asked Questions about student hiring</a></li>\n</ul>\n<p>Above all, hiring managers should maintain ongoing communications with HR. Your <a href=\"http://intranet.agr.gc.ca/agrisource/eng/human-resources?id=1287773203527\">HR Centre</a> is available to guide you through the hiring processes to ensure a positive onboarding experience for students.</p>\n\n\t\t",
        "fr": "<br>\n<br>\n<p>Les \u00e9tudiants peuvent apporter de nouveaux points de vue et des id\u00e9es fra\u00eeches. Par cons\u00e9quent, envisagez d\u2019embaucher un \u00e9tudiant lorsque vous r\u00e9fl\u00e9chissez \u00e0 vos besoins en dotation. Ne manquez pas votre chance d\u2019attirer les meilleurs \u00e9tudiants au sein de la fonction publique!</p>\n<p>Voici les options \u00e0 votre disposition pour l\u2019<a href=\"http://intranet.agr.gc.ca/agrisource/fra/ressources-humaines/dotation/emplois-pour-etudiants?id=1331559125372\">embauche d\u2019\u00e9tudiants</a> \u00e0 AAC. Ces m\u00e9thodes peuvent vous aider \u00e0 maintenir des \u00e9tudiants en poste et \u00e0 faciliter le processus de recrutement d\u2019\u00e9tudiants.</p>\n<ul>\n<li>Programmes d\u2019emploi pour \u00e9tudiants (PFETE, PAR, Coop)</li>\n<li>Bassin du PFETE d\u2019AAC (RCN seulement) \u2013 nouveau pour 2018</li>\n<li>R\u00e9pertoire d\u2019AAC pour la r\u00e9embauche d\u2019\u00e9tudiants \u2013 nouveau pour 2018</li>\n<li>R\u00e9pertoire d\u2019AAC pour l\u2019int\u00e9gration des \u00e9tudiants</li>\n</ul>\n<h2><strong>Exigence du gestionnaire d\u2019embauche </strong></h2>\n<ul>\n<li>Planifiez l\u2019embauche des \u00e9tudiants.</li>\n<li>Pr\u00e9sentez les demandes d\u2019embauche d\u2019\u00e9tudiants id\u00e9alement 12 semaines<strong> </strong>avant la date de d\u00e9but pr\u00e9vue de l\u2019emploi afin d\u2019avoir le plus d\u2019options d\u2019embauche possible et de respecter l\u2019engagement d\u2019embaucher des \u00e9tudiants.</li>\n<li>Profitez de l\u2019occasion pour accro\u00eetre la diversit\u00e9 et la repr\u00e9sentation.</li>\n<li>Pr\u00e9voyez les v\u00e9rifications de s\u00e9curit\u00e9. Le processus d\u2019attribution d\u2019une cote de s\u00e9curit\u00e9 peut prendre jusqu\u2019\u00e0 trois semaines.</li>\n<li>Retournez la lettre d\u2019offre sign\u00e9e et tous les documents requis aux RH au moins <strong>15 jours ouvrables </strong>avant la date de d\u00e9but d\u2019emploi de l\u2019\u00e9tudiant.</li>\n<li>Faites pr\u00eater serment aux \u00e9tudiants leur premier jour de travail ou avant.</li>\n</ul>\n<h2><strong>Pour en savoir plus</strong></h2>\n<ul>\n<li><a href=\"http://intranet.agr.gc.ca/agrisource/fra/ressources-humaines/dotation/emplois-pour-etudiants?id=1331559125372\">Emplois pour \u00e9tudiants \u00e0 AAC</a></li>\n<li><a href=\"https://www.canada.ca/fr/commission-fonction-publique/emplois/services/recrutement/etudiants/engagement-administrateurs-generaux-soutenir-etudiants-employes-fonction-publique.html\">Engagement des administrateurs g\u00e9n\u00e9raux \u00e0 soutenir les \u00e9tudiants employ\u00e9s dans la fonction publique</a></li>\n<li><a href=\"https://intranet.agr.gc.ca/agrisource/AgriDoc.do?id=103453444&amp;lang=fra\" target=\"_blank\">Foire aux questions sur l\u2019embauche d\u2019\u00e9tudiants</a></li>\n</ul>\n<p>Avant tout, les gestionnaires doivent maintenir une communication constante avec les RH. Le <a href=\"http://intranet.agr.gc.ca/agrisource/fra/ressources-humaines?id=1287773203527\">Centre des RH</a> est l\u00e0 pour les guider dans le processus d\u2019embauche et veiller \u00e0 ce que l\u2019int\u00e9gration des \u00e9tudiants se fasse positivement.</p>\n\t\t"
    },
    "breadcrumb": {
        "en": "Need a Student? Student Employment Options",
        "fr": "Besoin d'un \u00e9tudiant? Options d'embauche"
    },
    "news": {
        "date_posted": {
            "en": "2018-02-15",
            "fr": "2018-02-15"
        },
        "to": {
            "en": "All staff",
            "fr": "Tous les employ\u00e9s"
        },
        "by": {
            "en": "Human Resources, Corporate Management Branch",
            "fr": "Ressources humaines, Direction g\u00e9n\u00e9rale de la gestion int\u00e9gr\u00e9e"
        }
    }
}