{
    "dcr_id": "1518019354346",
    "lang": "en",
    "title": {
        "en": "Trade Policy Analyst",
        "fr": "Analyste des politiques commerciales"
    },
    "modified": "2018-02-12 00:00:00.0",
    "issued": "2018-02-12 00:00:00.0",
    "type_name": "intra-intra/empl-empl",
    "node_id": "1279029955397",
    "layout_name": null,
    "dc_date_created": "2018-02-08",
    "breadcrumb_label": "",
    "meta": {
        "issued": {
            "en": "2018-02-12",
            "fr": "2018-02-12"
        },
        "modified": {
            "en": "2018-02-12",
            "fr": "2018-02-12"
        },
        "format": {
            "en": "gcformat",
            "fr": "gcformat"
        },
        "title": {
            "en": "Trade Policy Analyst",
            "fr": "Analyste des politiques commerciales"
        },
        "subject": {
            "en": "staffing",
            "fr": "dotation en personnel"
        },
        "language": {
            "en": "eng",
            "fr": "fra"
        },
        "audience": {
            "en": "gcaudience",
            "fr": "gcaudience"
        },
        "type": {
            "en": "notice",
            "fr": "avis"
        },
        "creator": {
            "en": "Agriculture and Agri-Food Canada",
            "fr": "Agriculture et Agroalimentaire Canada"
        },
        "spatial": {
            "en": "gcregions",
            "fr": "gcregions"
        },
        "service": {
            "en": "AAFC_AgriSource",
            "fr": "AAC_AgriSource"
        },
        "accessRights": {
            "en": "3",
            "fr": "3"
        }
    },
    "body": {
        "en": "<p><strong>Description</strong></p>\n<p>The Latin America team in the Market Access Secretariat is seeking a Trade Policy Analyst to help support Government of Canada efforts to regain, maintain and expand market access for Canadian agricultural products to international markets in Latin America \u2013 an important region for the Canadian agriculture industry.</p>\n<p>The successful candidate will be responsible for conducting international trade policy analysis pertaining to Canada\u2019s agriculture issues with Latin American countries (not including Mexico), and developing appropriate responses/approaches. This involves working closely with a number of key players including portfolio colleagues, other government departments, Canadian Embassies abroad, and Canadian industry.</p>\n<p>Other responsibilities include, but are not limited to:</p>\n<ul>\n<li>Organising annual bilateral meetings with our counterparts in Brazil, Colombia and other Latin American countries;</li>\n<li>Working with colleagues at the Canadian Food Inspection Agency to organise incoming visits by Latin American competent authorities to inspect Canadian agricultural producers interested in shipping to these markets; and</li>\n<li>Assisting AAFC colleagues working in the area of trade negotiations to develop positions and approaches in their negotiations.</li>\n</ul>\n<p>Work within the Latin America team will allow the successful candidate to gain experience in the following areas:</p>\n<ul>\n<li>Conducting international trade policy analysis;</li>\n<li>Developing and implementing strategies aimed at advancing Canada\u2019s market access interests; and</li>\n<li>Working directly with Canadian industry as well as government officials from other countries within Latin America.</li>\n</ul>\n<p>Candidates should have strong analytical, communication and writing skills, as well as good judgement and initiative.</p>\n<p>Candidates should be willing to work overtime occasionally.</p>\n<p>Please note that this advertisement is intended for an at-level assignment or deployment. An assignment cannot constitute a promotion. Candidates must have their manager\u2019s approval prior to applying for an assignment.</p>\n<p>Interested? Send your resume and a cover letter explaining why you are interested in this opportunity to Chris Bell (chris.bell@agr.gc.ca ) before the deadline. Your cover letter may be used to assess your communication and writing skills. Please indicate your substantive group/level and tenure on your resume.</p>\n<p>\u00a0</p>\n",
        "fr": "<p><strong>Description</strong></p>\n<p>L\u2019\u00e9quipe de l\u2019Am\u00e9rique latine du Secr\u00e9tariat de l\u2019acc\u00e8s aux march\u00e9s est \u00e0 la recherche d\u2019un analyste des politiques commerciales pour appuyer le gouvernement du Canada dans ses efforts visant \u00e0 r\u00e9tablir, maintenir et \u00e9largir l\u2019acc\u00e8s des produits agricoles canadiens aux march\u00e9s de l\u2019Am\u00e9rique latine, une r\u00e9gion importante pour le secteur agricole canadien.</p>\n<p>Le candidat retenu sera charg\u00e9 d\u2019analyser les politiques commerciales internationales qui touchent les enjeux agricoles entre le Canada et les pays d\u2019Am\u00e9rique latine (sauf le Mexique) et d\u2019\u00e9laborer des r\u00e9ponses ou des approches appropri\u00e9es. \u00c0 cette fin, il devra collaborer \u00e9troitement avec divers intervenants cl\u00e9s, y compris des coll\u00e8gues du Portefeuille, d\u2019autres minist\u00e8res, des ambassades canadiennes et des repr\u00e9sentants du secteur canadien.</p>\n<p>Les autres responsabilit\u00e9s comprennent notamment ce qui suit :</p>\n<ul>\n<li>Organiser des r\u00e9unions bilat\u00e9rales annuelles avec nos homologues au Br\u00e9sil, en Colombie et dans d\u2019autres pays d\u2019Am\u00e9rique latine.</li>\n<li>Travailler avec des coll\u00e8gues de l\u2019Agence canadienne d\u2019inspection des aliments pour organiser des visites d\u2019autorit\u00e9s comp\u00e9tentes de l\u2019Am\u00e9rique latine qui inspecteront les installations des agriculteurs canadiens int\u00e9ress\u00e9s \u00e0 exp\u00e9dier leurs produits vers les march\u00e9s latino-am\u00e9ricains.</li>\n<li>Aider les coll\u00e8gues d\u2019AAC qui s\u2019occupent des n\u00e9gociations commerciales \u00e0 \u00e9laborer des positions et des approches pour leurs n\u00e9gociations.</li>\n</ul>\n<p>L\u2019affectation \u00e0 l\u2019\u00e9quipe de l\u2019Am\u00e9rique latine permettra au candidat retenu d\u2019acqu\u00e9rir de l\u2019exp\u00e9rience dans les domaines suivants :</p>\n<ul>\n<li>Analyser des politiques commerciales internationales.</li>\n<li>\u00c9laborer et mettre en oeuvre des strat\u00e9gies pour promouvoir les int\u00e9r\u00eats du Canada en mati\u00e8re d\u2019acc\u00e8s aux march\u00e9s.</li>\n<li>Collaborer directement avec le secteur canadien et les repr\u00e9sentants des gouvernements d\u2019autres pays d\u2019Am\u00e9rique latine.</li>\n</ul>\n<p>Les candidats doivent avoir de solides comp\u00e9tences en analyse, en communication et en r\u00e9daction, un jugement s\u00fbr et de l\u2019initiative.</p>\n<p>Les candidats doivent \u00eatre dispos\u00e9s \u00e0 faire des heures suppl\u00e9mentaires \u00e0 l\u2019occasion.</p>\n<p>Veuillez noter que ce processus donnera lieu \u00e0 une affectation ou \u00e0 une mutation au niveau d\u2019attache. Une affectation ne constitue pas une promotion. Les candidats doivent obtenir l\u2019approbation de leur gestionnaire avant de poser leur candidature pour une affectation.</p>\n<p>\n<br>Les employ\u00e9s int\u00e9ress\u00e9s sont invit\u00e9s \u00e0 envoyer leur curriculum vitae et une lettre de pr\u00e9sentation expliquant leur int\u00e9r\u00eat pour ce poste \u00e0 Chris Bell, Directeur adjoint, <a href=\"mailto:Chris.Bell@AGR.GC.CA\">Chris.Bell@AGR.GC.CA</a>, avant la date limite. Votre lettre de pr\u00e9sentation pourra \u00eatre utilis\u00e9e pour \u00e9valuer vos aptitudes en communication et en r\u00e9daction. Veuillez pr\u00e9ciser la classification de votre poste d\u2019attache ainsi que votre type de poste (p. ex. ind\u00e9termin\u00e9e) sur votre curriculum vitae.</p>\n<p>\u00a0</p>\n\n"
    },
    "breadcrumb": {
        "en": "Trade Policy Analyst",
        "fr": "Analyste des politiques commerciales"
    },
    "empl": {
        "type": {
            "en": "Assignment, Deployment",
            "fr": "Affectation, Mutation"
        },
        "classification": {
            "en": "EC-2, EC-3, EC-4, EC-5",
            "fr": "EC-2, EC-3, EC-4, EC-5"
        },
        "branch": {
            "en": "Market and Industry Services Branch",
            "fr": "Direction g\u00e9n\u00e9rale des services \u00e0 l'industrie et aux march\u00e9s"
        },
        "locations": {
            "en": "Ottawa, Ontario",
            "fr": "Ottawa, Ontario"
        },
        "date_closing": {
            "en": "2018-02-16",
            "fr": "2018-02-16"
        },
        "open_to": {
            "en": "Indeterminate employees at the EC-02/03/04/05 level(s) working in the NCR",
            "fr": "Employ\u00e9s nomm\u00e9s pour une p\u00e9riode ind\u00e9termin\u00e9e aux niveaux EC-02/03/04/05 qui travaillent dans la RCN"
        },
        "name": {
            "en": "Chris Bell",
            "fr": "Chris Bell"
        },
        "email": {
            "en": "chris.bell@agr.gc.ca",
            "fr": "chris.bell@agr.gc.ca"
        }
    }
}