{
    "dcr_id": "1519140638823",
    "lang": "en",
    "title": {
        "en": "This Week in The Harvest - Lucien in the Sky with Diamonds: PAB's Manager of Translation Climbs to the Stratosphere",
        "fr": "Au menu de La Moisson cette semaine - Lucien, toujours un peu plus haut, un peu plus loin : Le gestionnaire du Service de traduction de la DGAP monte jusqu'\u00e0 la stratosph\u00e8re "
    },
    "modified": "2018-02-22 00:00:00.0",
    "issued": "2018-02-22 00:00:00.0",
    "type_name": "intra-intra/news-nouv",
    "node_id": "1279030006975",
    "layout_name": null,
    "dc_date_created": "2018-02-20",
    "breadcrumb_label": "This Week in The Harvest - Lucien in the Sky with Diamonds: PAB's Manager of Translation Climbs...",
    "meta": {
        "issued": {
            "en": "2018-02-22",
            "fr": "2018-02-22"
        },
        "modified": {
            "en": "2018-02-22",
            "fr": "2018-02-22"
        },
        "format": {
            "en": "gcformat",
            "fr": "gcformat"
        },
        "title": {
            "en": "This Week in The Harvest - Lucien in the Sky with Diamonds: PAB's Manager of Translation Climbs to the Stratosphere",
            "fr": "Au menu de La Moisson cette semaine - Lucien, toujours un peu plus haut, un peu plus loin : Le gestionnaire du Service de traduction de la DGAP monte jusqu'\u00e0 la stratosph\u00e8re "
        },
        "subject": {
            "en": "communications",
            "fr": "communications"
        },
        "description": {
            "en": "In case you missed it, here's what's new in The Harvest this week.",
            "fr": "Au cas o\u00f9 vous l'auriez manqu\u00e9, voici le menu que la section La Moisson vous offre cette semaine."
        },
        "language": {
            "en": "eng",
            "fr": "fra"
        },
        "audience": {
            "en": "gcaudience",
            "fr": "gcaudience"
        },
        "creator": {
            "en": "Agriculture and Agri-Food Canada",
            "fr": "Agriculture et Agroalimentaire Canada"
        },
        "spatial": {
            "en": "gcregions",
            "fr": "gcregions"
        },
        "service": {
            "en": "AAFC_AgriSource",
            "fr": "AAC_AgriSource"
        },
        "accessRights": {
            "en": "3",
            "fr": "3"
        }
    },
    "body": {
        "en": "<br>\n<br>\n<p>In case you missed it, here\u2019s what\u2019s new in <a href=\"https://collab.agr.gc.ca/apps/harvest-moisson\">The Harvest</a> this week:</p>\n<p><strong>Feature story: </strong><a href=\"https://collab.agr.gc.ca/apps/harvest-moisson/\">Lucien in the Sky with Diamonds: PAB\u2019s Manager of Translation Climbs to the Stratosphere</a> \u2013 Lucien Robidoux was a latecomer to the Stratosphere Club, a group of employees in Public Affairs Branch in Ottawa who were climbing stairs for health and wellness. It wasn\u2019t long before he was leading the group. Click on the title to read more.</p>\n<p><strong>Quiz: </strong><a href=\"https://collab.agr.gc.ca/apps/harvest-moisson\">February 2018 will not have a full moon: February is the only month in which this can happen. When is the next time this will occur?</a></p>\n<p><strong>Feature photo:</strong> <a href=\"https://collab.agr.gc.ca/apps/harvest-moisson/gallery/Lists/Posts/Post.aspx?ID=145\"> Super Blue Blood Moon</a>, By Sylvain C\u00f4t\u00e9, Information Systems Branch, Saint-Jean-sur-Richelieu, Quebec.</p>\n<p><strong>Did you know?</strong> <a href=\"https://collab.agr.gc.ca/apps/harvest-moisson/Pages/DidYouKnow.aspx\">The first fruit eaten on the moon was a peach.</a></p>\n<p>You can get involved by posting a comment or \u201cliking\u201d an article. You can also check out what your colleagues are liking and saying.</p>\n<p>Should you have story ideas, scenic or artistic agriculture-related photos, or interesting facts, please share them with us by clicking on \u201cContribute\u201d in the top menu bar.</p>\n<p>\n<img src=\"https://intranet.agr.gc.ca/resources/prod/news/images/HarvestLucienRobidoux.png\" class=\"center-block\" alt=\"Lucien Robidoux\"></p>\n\n\t\t",
        "fr": "<br>\n<br>\n<p>Au cas o\u00f9 vous l\u2019auriez manqu\u00e9, voici le menu que la section <a href=\"https://collab.agr.gc.ca/apps/harvest-moisson\">La Moisson</a> vous offre cette semaine :</p>\n<p><strong>Article vedette :</strong> <a href=\"https://collab.agr.gc.ca/apps/harvest-moisson\">Lucien, toujours un peu plus haut, un peu plus loin : Le gestionnaire du Service de traduction de la DGAP monte jusqu\u2019\u00e0 la stratosph\u00e8re</a> <strong> </strong>\u2013 Lucien Robidoux s\u2019est joint tardivement au Club stratosph\u00e8re, un groupe d\u2019employ\u00e9s de la Direction g\u00e9n\u00e9rale des affaires publiques \u00e0 Ottawa qui montent des escaliers pour se tenir en forme. Lucien s\u2019est vite retrouv\u00e9 \u00e0 la t\u00eate du peloton. Cliquez sur le titre pour lire la suite.</p>\n<p><strong>Jeu-questionnaire : </strong><a href=\"https://collab.agr.gc.ca/apps/harvest-moisson\"> Il n\u2019y aura pas de pleine lune en f\u00e9vrier 2018. En quelle ann\u00e9e ce ph\u00e9nom\u00e8ne se reproduira-t-il?</a></p>\n<p><strong>Photo vedette :</strong> <a href=\"https://collab.agr.gc.ca/apps/harvest-moisson/gallery/Lists/Posts/Post.aspx?ID=145\">Super Lune bleue de sang</a>, par Sylvain C\u00f4t\u00e9, Direction g\u00e9n\u00e9rale des syst\u00e8mes d'information, Saint-Jean-sur-Richelieu (Qu\u00e9bec)</p>\n<p><strong>Le saviez-vous?</strong> <a href=\"https://collab.agr.gc.ca/apps/harvest-moisson/Pages/DidYouKnow.aspx\">Le premier fruit mang\u00e9 sur la lune \u00e9tait une p\u00eache.</a></p>\n<p>Vous pouvez participer en affichant des commentaires ou en utilisant la fonction \u00ab J\u2019aime \u00bb ou \u00ab Partager \u00bb pour exprimer votre appr\u00e9ciation d\u2019un article. Vous pouvez aussi aller voir ce que vos coll\u00e8gues aiment et ont \u00e0 dire.</p>\n<p>Si vous avez des id\u00e9es d\u2019articles, des photos de paysages ou \u00e0 caract\u00e8re artistique li\u00e9es \u00e0 l\u2019agriculture ou encore des faits int\u00e9ressants, veuillez nous en faire part en cliquant sur \u00ab Collaborer \u00bb dans la barre de menu en haut de la page.</p>\n<p>\n<img src=\"https://intranet.agr.gc.ca/resources/prod/news/images/HarvestLucienRobidoux.png\" class=\"center-block\" alt=\"Lucien Robidoux\"></p>\n\t\t"
    },
    "breadcrumb": {
        "en": "This Week in The Harvest - Lucien in the Sky with Diamonds: PAB's Manager of Translation Climbs...",
        "fr": "Au menu de La Moisson cette semaine - Lucien, toujours un peu plus haut, un peu plus loin..."
    },
    "news": {
        "date_posted": {
            "en": "2018-02-22",
            "fr": "2018-02-22"
        },
        "to": {
            "en": "All staff",
            "fr": "Tous les employ\u00e9s"
        },
        "by": {
            "en": "Corporate Communications, Public Affairs Branch",
            "fr": "Communications minist\u00e9rielles, Direction g\u00e9n\u00e9rale des affaires publiques"
        }
    }
}