{
    "dcr_id": "1519738443850",
    "lang": "en",
    "title": {
        "en": "Reminder - NCR - GCWCC 2018 - Share Your Story - Deadline is April 3",
        "fr": "Rappel - RCN - CCMTGC de 2018 - Racontez-nous votre histoire - La date limite est le 3 avril"
    },
    "modified": "2018-04-04 00:00:00.0",
    "issued": "2018-03-01 00:00:00.0",
    "type_name": "intra-intra/news-nouv",
    "node_id": "1279030006975",
    "layout_name": null,
    "dc_date_created": "2018-02-27",
    "breadcrumb_label": "",
    "meta": {
        "issued": {
            "en": "2018-03-01",
            "fr": "2018-03-01"
        },
        "modified": {
            "en": "2018-04-04",
            "fr": "2018-03-29"
        },
        "format": {
            "en": "gcformat",
            "fr": "gcformat"
        },
        "title": {
            "en": "Reminder - NCR - GCWCC 2018 - Share Your Story - Deadline is April 3",
            "fr": "Rappel - RCN - CCMTGC de 2018 - Racontez-nous votre histoire - La date limite est le 3 avril"
        },
        "subject": {
            "en": "communications",
            "fr": "communications"
        },
        "description": {
            "en": "Starting in September, we would like to post one story each week throughout the Campaign to illustrate how the work of Canadian charities touch our lives. If you have a story to tell, we are eager to hear it!",
            "fr": "Nous aimerions publier d\u00e8s septembre une histoire par semaine tout au long de la campagne. L'histoire doit illustrer comment les organismes de bienfaisance canadiens touchent nos vies. Si vous avez une telle histoire \u00e0 nous raconter, n'h\u00e9sitez pas \u00e0 communiquer avec nous."
        },
        "language": {
            "en": "eng",
            "fr": "fra"
        },
        "audience": {
            "en": "gcaudience",
            "fr": "gcaudience"
        },
        "creator": {
            "en": "Agriculture and Agri-Food Canada",
            "fr": "Agriculture et Agroalimentaire Canada"
        },
        "spatial": {
            "en": "gcregions",
            "fr": "gcregions"
        },
        "service": {
            "en": "AAFC_AgriSource",
            "fr": "AAC_AgriSource"
        },
        "accessRights": {
            "en": "3",
            "fr": "3"
        }
    },
    "body": {
        "en": "<br>\n<br>\n<p>The Government of Canada Workplace Charitable Campaign (<abbr title=\"Government of Canada Workplace Charitable Campaign\">GCWCC</abbr>) is an annual campaign that raises funds for the United Way. Agriculture and Agri-Food Canada\u2019s employees make generous contributions year after year. While the 2018 Campaign will endeavour to achieve this same success, we would like to share stories of how AAFC employees are impacted by the charities supported by your generosity.</p>\n<p>Starting in September, we would like to post one story each week throughout the Campaign to illustrate how the work of Canadian charities touch our lives. If you have a story to tell, we are eager to hear it!</p>\n<h2><strong>Tell your story</strong></h2>\n<p>As you tell your story, please keep in mind the following questions:</p>\n<ul>\n<li>What was the issue you (or your friends/family) experienced?</li>\n<li>Which charity supported you through this issue?</li>\n<li>What was the impact of their services?</li>\n<li>How has your experience changed the way you view the <abbr title=\"Government of Canada Workplace Charitable Campaign\">GCWCC</abbr>?</li>\n</ul>\n<p>Submissions should be between 250 and 500 words. Feel free to include photos to add a little colour to your narrative. For inspiration, you can read the Charitable Campaign\u2019s <a href=\"http://www.gcwcc-ccmtgc.org/en/employees/employee-stories\">Employee Stories</a>.</p>\n<h2><strong>Share your story</strong></h2>\n<p>Sharing your story with AAFC employees is an opportunity to showcase the life-changing work of charities in our community. It also helps illustrate how the Campaign makes meaningful impacts on the lives of our colleagues. By sharing your story, you may inspire a colleague to donate or get involved with the campaign, thereby extending AAFC\u2019s spirit of generosity.</p>\n<p>Please submit your stories to <a href=\"mailto:gcwcc-ccmtgc1@agr.gc.ca\">gcwcc-ccmtgc1@agr.gc.ca</a> by <strong>Tuesday, April 3.</strong>\n</p>\n<p>The Campaign Champion and Leader will review all submissions and select a variety of stories to highlight the diverse impacts of the Campaign to share with the rest of the department.</p>\n<p>If selected, your story may be featured through different communication channels, including:</p>\n<ul>\n<li><abbr title=\"Government of Canada Workplace Charitable Campaign\">GCWCC</abbr> Knowledge Workspace page</li>\n<li>news@work</li>\n<li>DM\u2019s Twitter Account</li>\n</ul>\n<p>Do not hesitate to contact <a href=\"mailto:gcwcc-ccmtgc1@agr.gc.ca\">gcwcc-ccmtgc1@agr.gc.ca</a> should you have any questions.</p>\n<p>Please help us cultivate our spirit of sharing by sharing your story with us!</p>\n<p><img src=\"https://intranet.agr.gc.ca/resources/prod/news/images/GCWCCpizza.png\" class=\"center-block\" alt=\"GCWCC\"></p>\n\n\t\t",
        "fr": "<br>\n<br>\n<p>La Campagne de charit\u00e9 en milieu de travail du gouvernement du Canada (<abbr title=\"Campagne de charit\u00e9 en milieu de travail du gouvernement du Canada\">CCTMGC</abbr>) est une campagne annuelle qui recueille des dons pour Centraide. Les employ\u00e9s d\u2019Agriculture et Agroalimentaire Canada font preuve d\u2019une grande g\u00e9n\u00e9rosit\u00e9 ann\u00e9e apr\u00e8s ann\u00e9e. La Campagne de 2018 tentera de r\u00e9p\u00e9ter cette r\u00e9ussite. Nous aimerions aussi vous raconter comment les organismes de bienfaisance auxquels vous faites des dons aident les employ\u00e9s d\u2019AAC.</p>\n<p>Nous aimerions publier d\u00e8s septembre une histoire par semaine tout au long de la campagne. L\u2019histoire doit illustrer comment les organismes de bienfaisance canadiens touchent nos vies. Si vous avez une telle histoire \u00e0 nous raconter, n\u2019h\u00e9sitez pas \u00e0 communiquer avec nous.</p>\n<h2><strong>Racontez-nous votre histoire</strong></h2>\n<p>Lorsque vous raconterez votre histoire, veuillez r\u00e9pondre aux questions suivantes :</p>\n<ul>\n<li>Quel \u00e9tait le probl\u00e8me avec lequel vous (vos amis ou votre famille) avez d\u00fb composer?</li>\n<li>Quel organisme de bienfaisance vous a aid\u00e9 \u00e0 surmonter ce probl\u00e8me?</li>\n<li>Comment les services de l\u2019organisme vous ont-ils aid\u00e9s?</li>\n<li>Comment votre exp\u00e9rience a-t-elle chang\u00e9 votre perception de la <abbr title=\"Campagne de charit\u00e9 en milieu de travail du gouvernement du Canada\">CCMTGC</abbr>?</li>\n</ul>\n<p>Vos histoires doivent comprendre entre 250 et 500 mots. N\u2019h\u00e9sitez pas \u00e0 inclure des photos pour ajouter du piquant \u00e0 votre histoire. Besoin d\u2019inspiration? Allez lire la page <a href=\"http://www.gcwcc-ccmtgc.org/fr/pour-les-employes/temoignages-demployes\">T\u00e9moignages d\u2019employ\u00e9s</a> sur le site Web de la Campagne de charit\u00e9.</p>\n<h2><strong>Racontez-nous votre histoire</strong></h2>\n<p>En racontant votre histoire aux employ\u00e9s d\u2019AAC, vous leur expliquerez le travail indispensable que font les organismes de bienfaisance dans notre r\u00e9gion. Vous leur montrerez aussi que la campagne touche r\u00e9ellement la vie de nos coll\u00e8gues. Votre histoire pourrait inciter un coll\u00e8gue \u00e0 faire un don ou \u00e0 participer \u00e0 la campagne, ajoutant ainsi \u00e0 l\u2019esprit de g\u00e9n\u00e9rosit\u00e9 d\u2019AAC.</p>\n<p>Veuillez envoyer vos histoires \u00e0 <a href=\"mailto:gcwcc-ccmtgc1@agr.gc.ca\">gcwcc-ccmtgc1@agr.gc.ca</a> d\u2019ici le <strong>mardi 3 avril. </strong></p>\n<p>Le champion de la campagne et chef de campagne lira toutes les histoires et choisira pour publication celles qui illustrent le mieux les effets b\u00e9n\u00e9fiques de la campagne.</p>\n<p>Si votre histoire est choisie, elle pourra \u00eatre publi\u00e9e sur divers canaux de communication, notamment :</p>\n<ul>\n<li>page de la <abbr title=\"Campagne de charit\u00e9 en milieu de travail du gouvernement du Canada\">CCMTGC</abbr> dans l\u2019Espace de travail du savoir</li>\n<li>nouvelles@l\u2019ouvrage</li>\n<li>compte Twitter du SM</li>\n</ul>\n<p>Si vous avez des questions, n\u2019h\u00e9sitez pas \u00e0 communiquer avec <a href=\"mailto:gcwcc-ccmtgc1@agr.gc.ca\">gcwcc-ccmtgc1@agr.gc.ca</a>.</p>\n<p>Aidez-nous \u00e0 cultiver notre esprit du partage en nous racontant votre histoire!</p>\n<p><img src=\"https://intranet.agr.gc.ca/resources/prod/news/images/GCWCCpizza.png\" class=\"center-block\" alt=\"CCMTGC\"></p>\n\t\t"
    },
    "breadcrumb": {
        "en": "NCR - Reminder - NCR - GCWCC 2018 - Share Your Story - Deadline is April 3",
        "fr": "RCN - Rappel - RCN - CCMTGC de 2018 - Racontez-nous votre histoire - La date limite est le 3 avril"
    },
    "news": {
        "date_posted": {
            "en": "2018-03-01",
            "fr": "2018-03-01"
        },
        "to": {
            "en": "NCR only",
            "fr": "RCN seulement"
        },
        "by": {
            "en": "GCWCC Campaign Champion and Campaign Leader",
            "fr": "Champion de la campagne de la CCMTGC et chef de campagne"
        }
    }
}