{
    "dcr_id": "1519071537984",
    "lang": "en",
    "title": {
        "en": "Microsoft Windows and Office Upgrades are Coming",
        "fr": "Mises \u00e0 niveau de Microsoft Windows et Office \u00e0 venir"
    },
    "modified": "2018-02-22 00:00:00.0",
    "issued": "2018-02-22 00:00:00.0",
    "type_name": "intra-intra/news-nouv",
    "node_id": "1279030006975",
    "layout_name": null,
    "dc_date_created": "2018-02-19",
    "breadcrumb_label": "",
    "meta": {
        "issued": {
            "en": "2018-02-22",
            "fr": "2018-02-22"
        },
        "modified": {
            "en": "2018-02-22",
            "fr": "2018-02-22"
        },
        "format": {
            "en": "gcformat",
            "fr": "gcformat"
        },
        "title": {
            "en": "Microsoft Windows and Office Upgrades are Coming",
            "fr": "Mises \u00e0 niveau de Microsoft Windows et Office \u00e0 venir"
        },
        "subject": {
            "en": "communications",
            "fr": "communications"
        },
        "description": {
            "en": "Just like you regularly update the software on your computer or the applications on your phone, AAFC is planning to modernize networked workstations (laptops, desktop computers) that currently have the Microsoft Office 2010 suite and the Windows 7 operating system.",
            "fr": "Tout comme vous mettez r\u00e9guli\u00e8rement \u00e0 niveau les logiciels de votre ordinateur ou les applications de votre t\u00e9l\u00e9phone, AAC pr\u00e9voit moderniser les postes de travail en r\u00e9seau (ordinateurs portatifs, ordinateurs de bureau) qui sont actuellement dot\u00e9s de la suite Microsoft Office 2010 et du syst\u00e8me d\u2019exploitation Windows 7."
        },
        "language": {
            "en": "eng",
            "fr": "fra"
        },
        "audience": {
            "en": "gcaudience",
            "fr": "gcaudience"
        },
        "creator": {
            "en": "Agriculture and Agri-Food Canada",
            "fr": "Agriculture et Agroalimentaire Canada"
        },
        "spatial": {
            "en": "gcregions",
            "fr": "gcregions"
        },
        "service": {
            "en": "AAFC_AgriSource",
            "fr": "AAC_AgriSource"
        },
        "accessRights": {
            "en": "3",
            "fr": "3"
        }
    },
    "body": {
        "en": "<br>\n<br>\n<p>Just like you regularly update the software on your computer or the applications on your phone, AAFC is planning to modernize networked workstations (laptops, desktop computers) that currently have the Microsoft Office 2010 suite and the Windows 7 operating system. As part of the Common Desktop Operating Environment Migration (<abbr title=\"Common Desktop Operating Environment Migration\">CDOEM</abbr>) initiative, several upgrades will be done.</p>\n<h2><strong>The changes</strong></h2>\n<ul>\n<li>The Office 2010 suite will be upgraded to Office 2016, which includes several standard programs\u00a0\u2013\u00a0Word, Outlook, PowerPoint, Excel, Access, Publisher and OneNote.</li>\n<li>The Windows 7 operating system will be upgraded to Windows 10.</li>\n<li>Microsoft Project and Visio will also be upgraded to version 2016. However, users of this software will be responsible for future upgrades.</li>\n</ul>\n<p>Overall, the Office suite change will not bring any noticeable differences to the look or use of the software. The Windows change will bring a new look to the start menu, but many who have Windows 10 on their personal computers will be familiar with it.</p>\n<h2><strong>The drivers</strong></h2>\n<p>This initiative is being implemented for a variety of reasons. First, staying with aging software and operating system compromises AAFC\u2019s security. Second, Treasury Board Secretariat has directed that departments and agencies discontinue use of Microsoft Office 2010 and its earlier versions by March 31, 2019. This need to enhance security and continue providing quality service to employees, along with\u00a0Treasury Board's Secretariat's direction on aligning IT capabilities across government, has made it necessary to upgrade.</p>\n<h2><strong>The details</strong></h2>\n<p>The implementation will be tested with a volunteer pilot group in February and March 2018. The pilot will be conducted to ensure that all infrastructure and processes perform as expected. The pilot will help address potential issues and ensure minimal disruption to employees.</p>\n<p>The rollout timeframe will be from mid-April 2018 to July 31, 2018. The schedule will be available on Knowledge Workspace.</p>\n<p>The upgrades will be done in phases, to allow time to address potential issues. Employees will be divided into groups, with one or more groups being converted every day. In advance of the scheduled night of migration, the group will receive an email from the <abbr title=\"Common Desktop Operating Environment Migration\">CDOEM</abbr> project team with instructions on what to do.</p>\n<p>More information is available on the <a href=\"https://collab.agr.gc.ca/co/cdoem-meecob/SitePages/CDOEM.aspx\"><abbr title=\"Common Desktop Operating Environment Migration\">CDOEM</abbr> web page</a> including a list of Branch coordinators who are assisting with the planning and rollout.</p>\n<p>Please contact the <a href=\"mailto:aafc.cdoem-meebc.aac@canada.ca\"><abbr title=\"Common Desktop Operating Environment Migration\">CDOEM</abbr> project team</a> with any questions or concerns.</p>\n<p><img src=\"https://intranet.agr.gc.ca/resources/prod/news/images/WindowsLogo.png\" class=\"center-block\" alt=\"\"></p>\n\n\t\t",
        "fr": "<br>\n<br>\n<p>Tout comme vous mettez r\u00e9guli\u00e8rement \u00e0 niveau les logiciels de votre ordinateur\u00a0ou les applications de votre t\u00e9l\u00e9phone, AAC pr\u00e9voit moderniser les postes de travail en r\u00e9seau (ordinateurs portatifs, ordinateurs de bureau) qui sont actuellement dot\u00e9s de la suite Microsoft Office 2010 et du syst\u00e8me d\u2019exploitation Windows 7. L\u2019initiative, appel\u00e9e Migration \u00e0 l\u2019environnement d\u2019exploitation commun des ordinateurs de bureau (<abbr title=\"Migration \u00e0 l\u2019environnement d\u2019exploitation commun des ordinateurs de bureau\">MEECOB</abbr>), comprend plusieurs mises \u00e0 niveau.</p>\n<h2><strong>Changements</strong></h2>\n<ul>\n<li>La suite Office 2010 sera mise \u00e0 niveau et passera \u00e0 la version Office 2016 qui comprend plusieurs programmes standards : Word, Outlook, PowerPoint, Excel, Access, Publisher et OneNote.</li>\n<li>Le syst\u00e8me d\u2019exploitation Windows 7\u00a0passera \u00e0\u00a0la version Windows 10.</li>\n<li>Microsoft Project et Visio seront \u00e9galement mis \u00e0 niveau et passeront \u00e0 la version 2016. Cependant, les utilisateurs de ces\u00a0logiciels seront responsables des futures mises \u00e0 jour.</li>\n</ul>\n<p>Dans l\u2019ensemble, l\u2019apparence et les fonctionnalit\u00e9s des logiciels de la suite Office changeront tr\u00e8s peu. La nouvelle version de Windows modifiera toutefois\u00a0l\u2019apparence du menu de d\u00e9marrage. Cependant, de nombreux employ\u00e9s utilisent d\u00e9j\u00e0 Windows 10 sur leur ordinateur personnel; ils\u00a0seront donc \u00e0 l\u2019aise de l\u2019utiliser.</p>\n<h2><strong>Motifs</strong></h2>\n<p>L\u2019initiative est mise en \u0153uvre pour divers motifs. Premi\u00e8rement, continuer d\u2019utiliser un syst\u00e8me d\u2019exploitation et des logiciels vieillissants compromet la s\u00e9curit\u00e9 d\u2019AAC. Deuxi\u00e8mement, le Secr\u00e9tariat du Conseil du Tr\u00e9sor a demand\u00e9 aux minist\u00e8res et organismes de cesser d\u2019utiliser Microsoft Office 2010 et ses versions ant\u00e9rieures d\u2019ici le 31 mars 2019. Le besoin d\u2019accro\u00eetre la s\u00e9curit\u00e9 et de continuer\u00a0\u00e0 offrir un service de qualit\u00e9 aux employ\u00e9s, ainsi que la directive du Secr\u00e9tariat du Conseil du Tr\u00e9sor visant \u00e0 harmoniser la capacit\u00e9 en TI \u00e0 l\u2019\u00e9chelle du gouvernement nous obligent \u00e0 proc\u00e9der aux mises \u00e0 niveau.</p>\n<h2><strong>D\u00e9tails</strong></h2>\n<p>La mise en \u0153uvre sera test\u00e9e aupr\u00e8s d\u2019un groupe de b\u00e9n\u00e9voles en f\u00e9vrier et en mars 2018. Le projet pilote permettra de faire en sorte que tous les processus et l\u2019infrastructure fonctionnent comme pr\u00e9vu. Il aidera aussi \u00e0 r\u00e9gler les probl\u00e8mes potentiels et r\u00e9duira le plus possible les d\u00e9rangements pour les employ\u00e9s.</p>\n<p>Nous pr\u00e9voyons\u00a0proc\u00e9der aux\u00a0mises \u00e0 niveau entre la mi-avril 2018 et le 31 juillet 2018. Le calendrier de d\u00e9ploiement sera affich\u00e9 dans l\u2019Espace de travail du savoir.</p>\n<p>Les mises \u00e0 niveau se feront par \u00e9tapes, afin d\u2019avoir la possibilit\u00e9 de r\u00e9gler les probl\u00e8mes potentiels. Les employ\u00e9s seront r\u00e9partis en groupes, un ou plusieurs groupes\u00a0proc\u00e9dant \u00e0 la migration\u00a0chaque jour. Avant la date pr\u00e9vue de la migration, le groupe recevra un courriel de l\u2019\u00e9quipe de l\u2019initiative <abbr title=\"Migration \u00e0 l\u2019environnement d\u2019exploitation commun des ordinateurs de bureau\">MEECOB</abbr> lui expliquant ce qu\u2019il doit faire.</p>\n<p>Vous trouverez de plus amples renseignements sur la <a href=\"https://collab.agr.gc.ca/co/cdoem-meecob/SitePages/CDOEM.aspx\">page de la <abbr title=\"Migration \u00e0 l\u2019environnement d\u2019exploitation commun des ordinateurs de bureau\">MEECOB</abbr></a>, dont une liste des coordonnateurs des directions g\u00e9n\u00e9rales qui nous aident \u00e0 planifier et \u00e0 d\u00e9ployer les mises \u00e0 niveau.</p>\n<p>Veuillez communiquer avec <a href=\"mailto:aafc.cdoem-meebc.aac@canada.ca\">l\u2019\u00e9quipe de l\u2019initiative <abbr title=\"Migration \u00e0 l\u2019environnement d\u2019exploitation commun des ordinateurs de bureau\">MEECOB</abbr></a> si vous avez des questions ou des pr\u00e9occupations.</p>\n<p><img src=\"https://intranet.agr.gc.ca/resources/prod/news/images/WindowsLogo.png\" class=\"center-block\"></p>\n\t\t"
    },
    "breadcrumb": {
        "en": "Microsoft Windows and Office Upgrades are Coming",
        "fr": "Mises \u00e0 niveau de Microsoft Windows et Office \u00e0 venir"
    },
    "news": {
        "date_posted": {
            "en": "2018-02-21",
            "fr": "2018-02-21"
        },
        "to": {
            "en": "All staff",
            "fr": "Tous les employ\u00e9s"
        },
        "by": {
            "en": "Information Systems Branch",
            "fr": "Direction g\u00e9n\u00e9rale des syst\u00e8mes d'information"
        }
    }
}