{
    "dcr_id": "1519158811341",
    "lang": "en",
    "title": {
        "en": "Preservation Holds Lifted - Tobacco Litigations",
        "fr": "Lev\u00e9e des avis de conservation - Litiges du tabac "
    },
    "modified": "2018-02-22 00:00:00.0",
    "issued": "2018-02-22 00:00:00.0",
    "type_name": "intra-intra/news-nouv",
    "node_id": "1279030006975",
    "layout_name": null,
    "dc_date_created": "2018-02-20",
    "breadcrumb_label": "",
    "meta": {
        "issued": {
            "en": "2018-02-22",
            "fr": "2018-02-22"
        },
        "modified": {
            "en": "2018-02-22",
            "fr": "2018-02-22"
        },
        "format": {
            "en": "gcformat",
            "fr": "gcformat"
        },
        "title": {
            "en": "Preservation Holds Lifted - Tobacco Litigations",
            "fr": "Lev\u00e9e des avis de conservation - Litiges du tabac "
        },
        "subject": {
            "en": "communications",
            "fr": "communications"
        },
        "description": {
            "en": "Agriculture and Food Inspection Legal Services have been informed that the Hold Notices for the following litigation cases are no longer in effect.",
            "fr": "Les Services juridiques - Agriculture et Inspection des aliments ont \u00e9t\u00e9 inform\u00e9s que les avis de conservation pour les cas suivants ne sont plus en vigueur."
        },
        "language": {
            "en": "eng",
            "fr": "fra"
        },
        "audience": {
            "en": "gcaudience",
            "fr": "gcaudience"
        },
        "creator": {
            "en": "Agriculture and Agri-Food Canada",
            "fr": "Agriculture et Agroalimentaire Canada"
        },
        "spatial": {
            "en": "gcregions",
            "fr": "gcregions"
        },
        "service": {
            "en": "AAFC_AgriSource",
            "fr": "AAC_AgriSource"
        },
        "accessRights": {
            "en": "3",
            "fr": "3"
        }
    },
    "body": {
        "en": "<br>\n<br>\n<p>Agriculture and Food Inspection Legal Services have been informed that the Hold Notices for the following litigation cases are no longer in effect:</p>\n<ul>\n<li><em>Blais c. Imperial Tobacco Canada Limited et al.; </em></li>\n<li><em><em>Letourneau c. Imperial Tobacco Limited et al.; </em></em></li>\n<li><em><em><em>Knight v. Imperial Tobacco Canada Limited et al.; </em></em></em></li>\n<li><em><em><em><em>Her Majesty the Queen in Right of British Columbia v. Imperial Tobacco Canada Limited et al; </em>and</em></em></em></li>\n<li><em><em><em>all other provincial tobacco health care cost recovery actions.</em></em></em></li>\n</ul>\n<p>For your ease of reference, here are the links to the Litigation Hold Notices:</p>\n<ul>\n<li><a href=\"https://collab.agr.gc.ca/co/limt-egil/_layouts/15/DocIdRedir.aspx?ID=AGR-6553713\">January 20, 2010</a></li>\n<li><a href=\"https://collab.agr.gc.ca/co/limt-egil/_layouts/15/DocIdRedir.aspx?ID=AGR-6553753\">April 16, 2014</a></li>\n</ul>\n<p>Please note that any documents (paper and electronic) that have been preserved for this litigation should be now dealt with in accordance with the Department of Agriculture and Agri-Food\u2019s applicable retention and disposition rules.</p>\n<p>Should you require further clarification regarding the termination of the Litigation Holds, please contact <a href=\"mailto:Michele.Makohoniuk@canada.ca\">Michele.Makohoniuk@canada.ca</a>.</p>\n<p>If you have any questions about applicable AAFC retention and disposition rules, please contact AAFC\u2019s Information Management Program at <a href=\"mailto:IM-GI@agr.gc.ca\">IM-GI@agr.gc.ca</a>.</p>\n<p>Thank you for your collaboration in this matter.</p>\n\n\t\t",
        "fr": "<br>\n<br>\n<p>Les Services juridiques - Agriculture et Inspection des aliments ont \u00e9t\u00e9 inform\u00e9s que les avis de conservation pour les cas suivants ne sont plus en vigueur :</p>\n<ul>\n<li><em>Blais c. Imperial Tobacco Canada Limited et al., </em></li>\n<li><em>Letourneau c. Imperial Tobacco Limited et al., </em></li>\n<li><em>Knight c. Imperial Tobacco Canada Limited et al., </em></li>\n<li><em>Sa Majest\u00e9 la Reine du chef du Canada de la Colombie-Britannique c. Imperial Tobacco Canada Limited et al ;\u00a0</em>et </li>\n<li>tous les autres recours intent\u00e9s par les provinces pour recouvrer des frais de soins de sant\u00e9 associ\u00e9s \u00e0 l\u2019usage du tabac.</li>\n</ul>\n<p>\u00c0 titre de r\u00e9f\u00e9rence, voici les liens vers les avis de conservation :</p>\n<ul>\n<li><a href=\"https://collab.agr.gc.ca/co/limt-egil/_layouts/15/DocIdRedir.aspx?ID=AGR-6553713\">20 janvier 2010</a></li>\n<li><a href=\"https://collab.agr.gc.ca/co/limt-egil/_layouts/15/DocIdRedir.aspx?ID=AGR-6553753\">16 avril 2014</a></li>\n</ul>\n<p>Veuillez noter que les documents (papiers et \u00e9lectroniques) qui ont \u00e9t\u00e9 conserv\u00e9s doivent \u00eatre trait\u00e9s conform\u00e9ment aux r\u00e8gles de conservation et d\u2019\u00e9limination applicables du minist\u00e8re de l\u2019Agriculture et de l\u2019Agroalimentaire.</p>\n<p>Si vous avez besoin de pr\u00e9cisions au sujet de la lev\u00e9e des avis de conservation, n\u2019h\u00e9sitez pas \u00e0 communiquer avec nous en envoyant un courriel \u00e0 : <a href=\"mailto:Michele.Makohoniuk@canada.ca\">Michele.Makohoniuk@canada.ca</a>.</p>\n<p>Si vous avez des questions sur les r\u00e8gles de conservation et\u00a0d'\u00e9limination applicables d\u2019AAC, veuillez communiquer avec le Programme de gestion de l\u2019information d\u2019AAC : <a href=\"mailto:IM-GI@agr.gc.ca\">IM-GI@agr.gc.ca</a>.</p>\n<p>Nous vous remercions de votre collaboration dans ce dossier.</p>\n\t\t"
    },
    "breadcrumb": {
        "en": "Preservation Holds Lifted - Tobacco Litigations",
        "fr": "Lev\u00e9e des avis de conservation - Litiges du tabac"
    },
    "news": {
        "date_posted": {
            "en": "2018-02-22",
            "fr": "2018-02-22"
        },
        "to": {
            "en": "All staff",
            "fr": "Tous les employ\u00e9s"
        },
        "by": {
            "en": "Agriculture and Food Inspection Legal Services - AAFC",
            "fr": "Services juridiques - Agriculture et inspection des aliments - AAC"
        }
    }
}