{
    "dcr_id": "1519837385135",
    "lang": "en",
    "title": {
        "en": "Budget 2018",
        "fr": "Budget de 2018"
    },
    "modified": "2018-02-28 00:00:00.0",
    "issued": "2018-02-28 00:00:00.0",
    "type_name": "intra-intra/news-nouv",
    "node_id": "1279030006975",
    "layout_name": null,
    "dc_date_created": "2018-02-28",
    "breadcrumb_label": "",
    "meta": {
        "issued": {
            "en": "2018-02-28",
            "fr": "2018-02-28"
        },
        "modified": {
            "en": "2018-02-28",
            "fr": "2018-02-28"
        },
        "format": {
            "en": "gcformat",
            "fr": "gcformat"
        },
        "title": {
            "en": "Budget 2018",
            "fr": "Budget de 2018"
        },
        "subject": {
            "en": "communications",
            "fr": "communications"
        },
        "description": {
            "en": "On February 27, 2018, Finance Minister Bill Morneau tabled the 2018 Federal Budget in Parliament.",
            "fr": "Le 27 f\u00e9vrier 2018, le ministre des Finances, Bill Morneau, a d\u00e9pos\u00e9 le Budget f\u00e9d\u00e9ral de 2018 au Parlement."
        },
        "language": {
            "en": "eng",
            "fr": "fra"
        },
        "audience": {
            "en": "gcaudience",
            "fr": "gcaudience"
        },
        "creator": {
            "en": "Agriculture and Agri-Food Canada",
            "fr": "Agriculture et Agroalimentaire Canada"
        },
        "spatial": {
            "en": "gcregions",
            "fr": "gcregions"
        },
        "service": {
            "en": "AAFC_AgriSource",
            "fr": "AAC_AgriSource"
        },
        "accessRights": {
            "en": "3",
            "fr": "3"
        }
    },
    "body": {
        "en": "<br>\n<br>\n<p>On February 27, 2018, Finance Minister Bill Morneau tabled the 2018 Federal Budget in Parliament.</p>\n<p>Budget 2018 puts emphasis on building an equal, competitive, sustainable and fair Canada - where science and innovation spur economic growth.</p>\n<p>The Budget highlights proposed funding with strong links to AAFC priorities, including:</p>\n<ul>\n<li>$3 billion to support Canadian research, researchers and granting councils.</li>\n<li>$47 million over three years to the Canadian Food Inspection Agency (<abbr title=\"Canadian Food Inspection Agency\">CFIA</abbr>) to support activities that help address food safety risks.</li>\n<li>$29 million over five years to the <abbr title=\"Canadian Food Inspection Agency\">CFIA</abbr> to support the negotiations of export conditions for agricultural, fishery and forestry products and certification of Canadian exports against other countries' import requirements.</li>\n<li>$75 million over five years, with $11.8 million per year beyond that, for Global Affairs Canada to build a stronger diplomatic presence and trade promotion in China and Asia.</li>\n<li>$49.4 million over six years, starting in 2018-19, to Statistics Canada to conduct the 2021 Census of Agriculture.</li>\n<li>Modernizing Canada's regulatory framework, with an initial focus that includes agri-food.</li>\n</ul>\n<p>The Budget also stressed gender equality as a key theme. To support women entrepreneurs in agriculture, a new lending product will be created and launched in 2018-19 designed specifically for women entrepreneurs through Farm Credit Canada (<abbr title=\"Farm Credit Canada\">FCC</abbr>). In addition, <abbr title=\"Farm Credit Canada\">FCC</abbr> will continue to offer advisory services, learning events and knowledge initiatives aimed at women entrepreneurs in the agriculture and agri-food sectors.</p>\n<p>Additional information about the implementation of these commitments will be shared in the months ahead. <a href=\"https://www.budget.gc.ca/2018/home-accueil-en.html\">Budget 2018</a> can be found online.</p>\n<p>\u00a0</p>\n<p><strong>Chris Forbes</strong><br>\nDeputy Minister</p>\n<p><strong>Nada Semaan</strong><br>\nAssociate Deputy Minister</p>\n\n\t\t",
        "fr": "<br>\n<br>\n<p>Le 27 f\u00e9vrier 2018, le ministre des Finances, Bill Morneau, a d\u00e9pos\u00e9 le Budget f\u00e9d\u00e9ral de 2018 au Parlement.</p>\n<p>Dans le Budget de 2018, l'accent est mis sur la cr\u00e9ation d'un Canada \u00e9galitaire, concurrentiel, viable et juste - o\u00f9 la science et l'innovation stimulent la croissance \u00e9conomique.</p>\n<p>Le Budget propose des investissements \u00e9troitement li\u00e9s aux priorit\u00e9s d'AAC, notamment les suivants :</p>\n<ul>\n<li>3 milliards de dollars pour appuyer la recherche canadienne, les chercheurs et les conseils subventionnaires.</li>\n<li>47 millions de dollars sur trois ans \u00e0 l'Agence canadienne d'inspection des aliments (<abbr title=\"Agence canadienne d'inspection des aliments\">ACIA</abbr>) afin d'appuyer les activit\u00e9s qui aident \u00e0 traiter les risques li\u00e9s \u00e0 la salubrit\u00e9 des aliments.</li>\n<li>29 millions de dollars sur cinq ans \u00e0 l'<abbr title=\"Agence canadienne d'inspection des aliments\">ACIA</abbr> afin de soutenir les n\u00e9gociations sur les conditions d'exportation relatives aux produits agricoles, forestiers et de la p\u00eache, et d'appuyer la certification des exportations canadiennes en regard des exigences d'importation des autres pays.</li>\n<li>75 millions de dollars sur cinq ans, et 11,8 millions de dollars par ann\u00e9e par la suite, \u00e0 Affaires mondiales Canada pour que la pr\u00e9sence diplomatique et la promotion commerciale canadiennes soient plus solidement \u00e9tablies en Chine et en Asie.</li>\n<li>49,4 millions de dollars sur six ans \u00e0 Statistique Canada \u00e0 compter de 2018-2019, pour r\u00e9aliser le Recensement de l'agriculture de 2021.</li>\n<li>Modernisation du cadre r\u00e9glementaire du Canada, ax\u00e9e d'abord sur l'agroalimentaire.</li>\n</ul>\n<p>L'un des th\u00e8mes cl\u00e9s qui ressortent du Budget est l'\u00e9galit\u00e9 entre les sexes. Afin de soutenir les femmes entrepreneures dans le secteur de l'agriculture, le gouvernement cr\u00e9era et lancera, en 2018-2019, un nouveau produit de pr\u00eats con\u00e7u sp\u00e9cialement pour les femmes entrepreneures par l'interm\u00e9diaire de Financement agricole Canada (<abbr title=\"Financement agricole Canada\">FAC</abbr>). De plus, <abbr title=\"Financement agricole Canada\">FAC</abbr> continuera d'offrir des services de consultation, des activit\u00e9s d'apprentissage et des initiatives du savoir visant les femmes entrepreneures dans les secteurs de l'agriculture et de l'agroalimentaire.</p>\n<p>D'autres renseignements sur la mise en oeuvre de ces engagements seront communiqu\u00e9s au cours des prochains mois. <a href=\"https://www.budget.gc.ca/2018/home-accueil-fr.html\">Le Budget de 2018</a> est diffus\u00e9 sur Internet.</p>\n<p>\u00a0</p>\n<p><strong>Chris Forbes</strong><br>\nSous-ministre</p>\n<p><strong>Nada Semaan</strong><br>\nSous-ministre d\u00e9l\u00e9gu\u00e9e</p>\n\t\t"
    },
    "breadcrumb": {
        "en": "Budget 2018",
        "fr": "Budget de 2018"
    },
    "news": {
        "date_posted": {
            "en": "2018-02-28",
            "fr": "2018-02-28"
        },
        "to": {
            "en": "All staff",
            "fr": "Tous les employ\u00e9s"
        },
        "by": {
            "en": "Chris Forbes, Deputy Minister, and Nada Semaan, Associate Deputy Minister",
            "fr": "Chris Forbes, sous-ministre et Nada Semaan, sous-ministre d\u00e9l\u00e9gu\u00e9e"
        }
    }
}