{
    "dcr_id": "1519849020410",
    "lang": "en",
    "title": {
        "en": "Scheduled Maintenance of ISB Services - Workstation and Phone Services for Tower 7 at NHCAP - March 10",
        "fr": "Entretien pr\u00e9vu des services de la DGSI - Postes de travail et services t\u00e9l\u00e9phoniques de la tour 7 du CACPA - Le 10 mars"
    },
    "modified": "2018-03-07 00:00:00.0",
    "issued": "2018-03-07 00:00:00.0",
    "type_name": "intra-intra/news-nouv",
    "node_id": "1279030006975",
    "layout_name": null,
    "dc_date_created": "2018-02-28",
    "breadcrumb_label": "Scheduled Maintenance of ISB Services - Workstation and Phone Services for Tower 7 at NHCAP...",
    "meta": {
        "issued": {
            "en": "2018-03-07",
            "fr": "2018-03-07"
        },
        "modified": {
            "en": "2018-03-07",
            "fr": "2018-03-12"
        },
        "format": {
            "en": "gcformat",
            "fr": "gcformat"
        },
        "title": {
            "en": "Scheduled Maintenance of ISB Services - Workstation and Phone Services for Tower 7 at NHCAP - March 10",
            "fr": "Entretien pr\u00e9vu des services de la DGSI - Postes de travail et services t\u00e9l\u00e9phoniques de la tour 7 du CACPA - Le 10 mars"
        },
        "subject": {
            "en": "communications",
            "fr": "communications"
        },
        "description": {
            "en": "Please be advised that preventative maintenance of ISB services will be performed on Saturday, March 10, 2018.",
            "fr": "Veuillez noter qu'un entretien pr\u00e9ventif des services de la DGSI aura lieu le samedi 10 mars 2018."
        },
        "language": {
            "en": "eng",
            "fr": "fra"
        },
        "audience": {
            "en": "gcaudience",
            "fr": "gcaudience"
        },
        "creator": {
            "en": "Agriculture and Agri-Food Canada",
            "fr": "Agriculture et Agroalimentaire Canada"
        },
        "spatial": {
            "en": "gcregions",
            "fr": "gcregions"
        },
        "service": {
            "en": "AAFC_AgriSource",
            "fr": "AAC_AgriSource"
        },
        "accessRights": {
            "en": "3",
            "fr": "3"
        }
    },
    "body": {
        "en": "<br>\n<br>\n<p>Please be advised that preventative maintenance of ISB services will be performed on Saturday, March 10, 2018.</p>\n<p>The downtime is needed to allow for an upgrade of aging hardware. This upgrade is being done to ensure that employees are not affected by any unplanned service outages.</p>\n<p>Consequently, the following services may not be available during the following time:</p>\n<p><strong>Saturday, March 10 \u2013 9:00 a.m. until 7:00 p.m. (ET)</strong></p>\n<ul>\n<li>Workstation and phone services for clients located in Tower\u00a07 at the National Headquarters Complex for the\u00a0Agriculture Portfolio (<abbr title=\"National Headquarters Complex for the Agriculture Portfolio\">NHCAP</abbr>) including:\n<ul>\n<li>\nAccess to all corporate applications\n</li>\n<li>Access to email</li>\n<li>Access to Internet</li>\n<li>Access to network drives</li>\n<li>Access to 911</li>\n<li>Outbound calls (inbound calls will go to voice mail)</li>\n<li>Access to auto-attendant services</li>\n<li>Access to voice mail</li>\n</ul>\n</li>\n</ul>\n<p><strong>Note:</strong> As access to 911 will be interrupted, employees who plan to use Tower 7 at <abbr title=\"National Headquarters Complex for the Agriculture Portfolio\">NHCAP</abbr> during this timeframe must have a mobile device to ensure health and safety considerations are met. Employees are responsible for ensuring that they have a mobile device available.</p>\n<p>Should you have any questions or concerns, please do not hesitate to contact IT Centre TI.</p>\n<p><strong>IT Centre TI<br></strong>Telephone: 1-855-545-4411<br><a href=\"http://assystweb:8080/assystnet\">My IT Centre TI</a></p>\n<p><img src=\"https://intranet.agr.gc.ca/resources/prod/news/images/ITCentreTI2.png\" class=\"center-block\" alt=\"ITCentreTI\"></p>\n\n\t\t",
        "fr": "<br>\n<br>\n<p>Veuillez noter qu\u2019un entretien pr\u00e9ventif des services de la DGSI aura lieu le samedi 10 mars 2018.</p>\n<p>Cette interruption est n\u00e9cessaire pour am\u00e9liorer notre \u00e9quipement informatique vieillissant. Cet entretien est effectu\u00e9 afin de pr\u00e9venir les interruptions de service impr\u00e9vues pouvant entraver le travail des employ\u00e9s.</p>\n<p>En cons\u00e9quence, les services suivants pourraient ne pas \u00eatre accessibles pendant les p\u00e9riodes suivantes :</p>\n<p><strong>Samedi 10 mars \u2013\u00a0de 9 h \u00e0 19 h (HE)</strong></p>\n<ul>\n<li>Postes de travail et services t\u00e9l\u00e9phoniques des clients situ\u00e9s dans la tour\u00a07 du Complexe de l\u2019administration centrale du portefeuille de l\u2019Agriculture (<abbr title=\"Complexe de l\u2019administration centrale du portefeuille de l\u2019Agriculture\">CACPA</abbr>), y compris :\n<ul>\n<li>Acc\u00e8s \u00e0 toutes les applications organisationnelles\n\u00a0\t\n</li>\n<li>Acc\u00e8s au courriel</li>\n<li>Acc\u00e8s \u00e0 Internet</li>\n<li>Acc\u00e8s aux lecteurs r\u00e9seau</li>\n<li>Acc\u00e8s au service 911</li>\n<li>Appels sortants (les appels entrants seront enregistr\u00e9s dans le syst\u00e8me de messagerie vocale)</li>\n<li>Acc\u00e8s aux services de r\u00e9ponse automatique</li>\n<li>Acc\u00e8s \u00e0 la messagerie \u00e9lectronique</li>\n</ul>\n</li>\n</ul>\n<p><strong>Remarque :</strong> Comme l\u2019acc\u00e8s au service 911 sera interrompu, les employ\u00e9s qui pr\u00e9voient travailler dans la tour 7 du <abbr title=\"Complexe de l\u2019administration centrale du portefeuille de l\u2019Agriculture\">CACPA</abbr> pendant cette p\u00e9riode devront avoir un appareil mobile sur eux pour se conformer aux exigences en mati\u00e8re de sant\u00e9 et de s\u00e9curit\u00e9. Il incombe \u00e0 chaque employ\u00e9 d\u2019avoir un appareil mobile \u00e0 sa disposition.</p>\n<p>Si vous avez des questions ou des pr\u00e9occupations, n\u2019h\u00e9sitez pas \u00e0 communiquer avec IT Centre TI.</p>\n<p><strong>IT Centre TI<br></strong>T\u00e9l\u00e9phone : 1-855-545-4411<br><a href=\"http://assystweb:8080/assystnet\">Mon IT Centre TI</a></p>\n<p><img src=\"https://intranet.agr.gc.ca/resources/prod/news/images/ITCentreTI2.png\" class=\"center-block\" alt=\"ITCentreTI\"></p>\n\t\t"
    },
    "breadcrumb": {
        "en": "Scheduled Maintenance of ISB Services - Workstation and Phone Services for Tower 7 at NHCAP...",
        "fr": "Entretien pr\u00e9vu des services de la DGSI - Postes de travail et services t\u00e9l\u00e9phoniques de la tour..."
    },
    "news": {
        "date_posted": {
            "en": "2018-03-07",
            "fr": "2018-03-07"
        },
        "to": {
            "en": "All staff",
            "fr": "Tous les employ\u00e9s"
        },
        "by": {
            "en": "IT Centre TI",
            "fr": "IT Centre TI"
        }
    }
}