{
    "dcr_id": "1520276897751",
    "lang": "en",
    "title": {
        "en": "Update on Benefit Coverage",
        "fr": "Mise \u00e0 jour sur la protection des r\u00e9gimes de prestations"
    },
    "modified": "2018-03-06 00:00:00.0",
    "issued": "2018-03-06 00:00:00.0",
    "type_name": "intra-intra/news-nouv",
    "node_id": "1279030006975",
    "layout_name": null,
    "dc_date_created": "2018-03-05",
    "breadcrumb_label": "",
    "meta": {
        "issued": {
            "en": "2018-03-06",
            "fr": "2018-03-06"
        },
        "modified": {
            "en": "2018-03-06",
            "fr": "2018-03-06"
        },
        "format": {
            "en": "gcformat",
            "fr": "gcformat"
        },
        "title": {
            "en": "Update on Benefit Coverage",
            "fr": "Mise \u00e0 jour sur la protection des r\u00e9gimes de prestations"
        },
        "subject": {
            "en": "communications",
            "fr": "communications"
        },
        "description": {
            "en": "Pension and benefit rate changes are effective in the Phoenix Pay System on January 1, 2018 and April 1, 2018.",
            "fr": "Les modifications aux taux de cotisation aux r\u00e9gimes de pensions et d'avantages sociaux entreront en vigueur dans le syst\u00e8me de paye Ph\u00e9nix le 1<sup>er</sup> janvier 2018 et le 1<sup>er</sup> avril 2018."
        },
        "language": {
            "en": "eng",
            "fr": "fra"
        },
        "audience": {
            "en": "gcaudience",
            "fr": "gcaudience"
        },
        "creator": {
            "en": "Agriculture and Agri-Food Canada",
            "fr": "Agriculture et Agroalimentaire Canada"
        },
        "spatial": {
            "en": "gcregions",
            "fr": "gcregions"
        },
        "service": {
            "en": "AAFC_AgriSource",
            "fr": "AAC_AgriSource"
        },
        "accessRights": {
            "en": "3",
            "fr": "3"
        }
    },
    "body": {
        "en": "<br>\n<br>\n<p>Pension and benefit rate changes are effective in the Phoenix Pay System on January 1, 2018 and April 1, 2018. Employees are encouraged to review the <a href=\"http://www.gcpedia.gc.ca/gcwiki/images/1/1b/Federal_Pension_and_Benefit_Rate_Changes_for_2018.pdf\">federal pension and benefit rate changes for 2018</a>.</p>\n<h2><strong>Troubleshooting benefit coverage</strong></h2>\n<p>Some employees may be experiencing issues regarding their Public Service Health Care Plan (<abbr title=\"Public Service Health Care Plan\">PSHCP</abbr>), Dental Care Plan, or Disability Insurance benefit coverages.</p>\n<p>If you have multiple issues, you will need to complete a separate <a href=\"https://www.tpsgc-pwgsc.gc.ca/remuneration-compensation/services-paye-pay-services/form/html/446-5-eng.html\">Pay Action Request (<abbr title=\"Pay Action Request\">PAR</abbr>) (Form 446-5E)</a> for each issue. Please indicate details of the issue experienced in the comment box. Send completed <abbr title=\"Pay Action Request\">PAR</abbr> to the Public Services and Procurement Canada Pay Centre (<a href=\"mailto:centredepaye.paycentre@tpsgc-pwgsc.gc.ca\">centredepaye.paycentre@tpsgc-pwgsc.gc.ca</a>).</p>\n<table cellpadding=\"1\" cellspacing=\"0\" border=\"1\" width=\"750\">\n<tbody>\n<tr>\n<td style=\"width: 274.75pt;\">\n<p><strong>\u00a0Issue</strong></p>\n</td>\n<td style=\"border-color: windowtext windowtext windowtext #000000; width: 3cm;\">\n<p><strong>\u00a0Work Type</strong></p>\n</td>\n<td style=\"border-color: windowtext windowtext windowtext #000000; width: 4cm;\">\n<p><strong>\u00a0Sub Type</strong></p>\n</td>\n</tr>\n<tr>\n<td style=\"border-color: #000000 windowtext windowtext; width: 274.75pt;\">\n<p>\u00a0Public Service Health Care Plan - Interruption in coverage</p>\n</td>\n<td style=\"border-color: #000000 windowtext windowtext #000000; width: 3cm;\">\n<p>\u00a0Benefits</p>\n</td>\n<td style=\"border-color: #000000 windowtext windowtext #000000; width: 4cm;\">\n<p>\u00a0PSHCP - Exception</p>\n</td>\n</tr>\n<tr>\n<td style=\"border-color: #000000 windowtext windowtext; width: 274.75pt;\">\n<p>\u00a0Dental Care Plan</p>\n</td>\n<td style=\"border-color: #000000 windowtext windowtext #000000; width: 3cm;\">\n<p>\u00a0Benefits</p>\n</td>\n<td style=\"border-color: #000000 windowtext windowtext #000000; width: 4cm;\">\n<p>\u00a0DCP</p>\n</td>\n</tr>\n<tr>\n<td style=\"border-color: #000000 windowtext windowtext; width: 274.75pt;\">\n<p>\u00a0Disability Insurance</p>\n</td>\n<td style=\"border-color: #000000 windowtext windowtext #000000; width: 3cm;\">\n<p>\u00a0Benefits</p>\n</td>\n<td style=\"border-color: #000000 windowtext windowtext #000000; width: 4cm;\">\n<p>\u00a0DI - LTD</p>\n</td>\n</tr>\n</tbody>\n</table>\n<h2><strong>Enrolling for Public Service Health Care Plan coverage</strong></h2>\n<p>If you do not have Public Service Health Care Plan coverage, you can apply online:</p>\n<ol>\n<li>Login to Phoenix through <a href=\"http://gcintranet.tpsgc-pwgsc.gc.ca/gc/rem/awr-cwa-eng.html\">Compensation Web Applications</a>.</li>\n<li>Main Menu &gt; Self Service &gt; Benefits &gt; Self Service for <abbr title=\"Public Service Health Care Plan\">PSHCP</abbr></li>\n<li>Under the table on the page, click on \u201cyou must apply for coverage\u201d.</li>\n</ol>\n<p>Please contact AAFC\u2019s Pay Transfer Team for assistance (<a href=\"mailto:paytransfer-transfertpaye@agr.gc.ca\">paytransfer-transfertpaye@agr.gc.ca</a>) if you encounter problems with the online application.</p>\n<h2><strong>Learn more</strong></h2>\n<ul>\n<li><a href=\"http://intranet.agr.gc.ca/agrisource/eng/human-resources/pay-and-benefits/phoenix-pay-system?id=1511367056518\">Phoenix Pay System</a></li>\n<li><a href=\"http://www.tbs-sct.gc.ca/psm-fpfm/pb-pa/index-eng.asp?utm_source=Referral&amp;utm_medium=email&amp;utm_term=emp&amp;utm_content=landing&amp;utm_campaign=pension_contribution\">Pension and benefits</a></li>\n</ul>\n\n\t\t",
        "fr": "<br>\n<br>\n<p>Les modifications aux taux de cotisation aux r\u00e9gimes de pensions et d\u2019avantages sociaux entreront en vigueur dans le syst\u00e8me de paye Ph\u00e9nix le 1<sup>er</sup> janvier 2018 et le 1<sup>er</sup> avril 2018. Nous encourageons les employ\u00e9s \u00e0 consulter la page <a href=\"http://www.gcpedia.gc.ca/gcwiki/images/a/a5/Modification_aux_taux_de_cotisation_aux_r%C3%A9gimes_f%C3%A9d%C3%A9raux_de_pensions_et_d%E2%80%99avantages_sociaux_pour_2018.pdf\">Modification aux taux de cotisation aux r\u00e9gimes f\u00e9d\u00e9raux de pensions et d\u2019avantages sociaux pour 2018</a>.</p>\n<h2><strong>R\u00e9solution des probl\u00e8mes relatifs \u00e0 la protection des r\u00e9gimes de prestations</strong></h2>\n<p>Certains employ\u00e9s peuvent \u00e9prouver des probl\u00e8mes relatifs \u00e0 la protection du R\u00e9gime de soins de sant\u00e9 de la fonction publique (<abbr title=\"R\u00e9gime de soins de sant\u00e9 de la fonction publique\">RSSFP</abbr>), du R\u00e9gime de soins dentaires ou du R\u00e9gime d\u2019assurance-invalidit\u00e9.</p>\n<p>Si vous \u00e9prouvez plusieurs probl\u00e8mes, vous devrez remplir une <a href=\"https://www.tpsgc-pwgsc.gc.ca/remuneration-compensation/services-paye-pay-services/form/html/446-5-fra.html\">Demande d'intervention de paye (<abbr title=\"Demande d'intervention de paye\">DIP</abbr>) (formulaire 446-5F)</a> pour chacun d\u2019eux. Veuillez inscrire les d\u00e9tails du probl\u00e8me dans la section des commentaires. Envoyez la <abbr title=\"Demande d'intervention de paye\">DIP</abbr> remplie au Centre des services de paye de Services publics et Approvisionnement Canada (<a href=\"mailto:centredepaye.paycentre@tpsgc-pwgsc.gc.ca\">centredepaye.paycentre@tpsgc-pwgsc.gc.ca</a>).</p>\n<table cellspacing=\"0\" border=\"1\" width=\"750\">\n<tbody>\n<tr>\n<td style=\"width: 274.75pt;\">\n<p><strong>\u00a0Probl\u00e8me</strong></p>\n</td>\n<td style=\"border-color: windowtext windowtext windowtext #000000; width: 3cm;\">\n<p><strong>\u00a0Type de travail</strong></p>\n</td>\n<td style=\"border-color: windowtext windowtext windowtext #000000; width: 4cm;\">\n<p><strong>\u00a0Sous-type</strong></p>\n</td>\n</tr>\n<tr>\n<td style=\"border-color: #000000 windowtext windowtext; width: 274.75pt;\">\n<p>\u00a0R\u00e9gime de soins de sant\u00e9 de la fonction publique \u2013\u00a0<br>\u00a0interruption de la protection</p>\n</td>\n<td style=\"border-color: #000000 windowtext windowtext #000000; width: 3cm;\">\n<p>\u00a0Avantages</p>\n</td>\n<td style=\"border-color: #000000 windowtext windowtext #000000; width: 4cm;\">\n<p>\u00a0RSSFP \u2013 Exception</p>\n</td>\n</tr>\n<tr>\n<td style=\"border-color: #000000 windowtext windowtext; width: 274.75pt;\">\n<p>\u00a0R\u00e9gime de soins dentaires</p>\n</td>\n<td style=\"border-color: #000000 windowtext windowtext #000000; width: 3cm;\">\n<p>\u00a0Avantages</p>\n</td>\n<td style=\"border-color: #000000 windowtext windowtext #000000; width: 4cm;\">\n<p>\u00a0RSD</p>\n</td>\n</tr>\n<tr>\n<td style=\"border-color: #000000 windowtext windowtext; width: 274.75pt;\">\n<p>\u00a0Assurance-invalidit\u00e9</p>\n</td>\n<td style=\"border-color: #000000 windowtext windowtext #000000; width: 3cm;\">\n<p>\u00a0Avantages</p>\n</td>\n<td style=\"border-color: #000000 windowtext windowtext #000000; width: 4cm;\">\n<p>\u00a0AI \u2013 AILD</p>\n</td>\n</tr>\n</tbody>\n</table>\n<h2><strong>Inscription au R\u00e9gime de soins de sant\u00e9 de la fonction publique</strong></h2>\n<p>Si vous n\u2019\u00eates pas couvert par le R\u00e9gime de soins de sant\u00e9 de la fonction publique, vous pouvez vous inscrire en ligne :</p>\n<ol>\n<li>Ouvrez une session dans Ph\u00e9nix par le truchement des <a href=\"http://gcintranet.tpsgc-pwgsc.gc.ca/gc/rem/awr-cwa-fra.html\">Applications Web de la r\u00e9mun\u00e9ration</a>.</li>\n<li>Menu principal &gt; Libre-service &gt; Avantages sociaux &gt; Libre-service pour le <abbr title=\"R\u00e9gime de soins de sant\u00e9 de la fonction publique\">RSSFP</abbr></li>\n<li>Sous le tableau de la page, cliquez sur \u00ab vous devez faire une demande de protection \u00bb.</li>\n</ol>\n<p>Veuillez communiquer avec l\u2019\u00e9quipe de transfert des paiements d\u2019AAC (<a href=\"mailto:paytransfer-transfertpaye@agr.gc.ca\">paytransfer-transfertpaye@agr.gc.ca</a>) pour obtenir de l\u2019aide si vous \u00e9prouvez des difficult\u00e9s avec l\u2019application en ligne.</p>\n<h2><strong>Pour plus d\u2019information</strong></h2>\n<ul>\n<li><a href=\"http://intranet.agr.gc.ca/agrisource/fra/ressources-humaines/remuneration-et-avantages-sociaux/systeme-de-paye-phenix?id=1511367056518\">Syst\u00e8me de paye Ph\u00e9nix</a></li>\n<li><a href=\"https://www.canada.ca/fr/secretariat-conseil-tresor/sujets/pension-avantages-sociaux.html\">Pension et avantages sociaux</a></li>\n</ul>\n<p>\u00a0</p>\n\t\t"
    },
    "breadcrumb": {
        "en": "Update on Benefit Coverage",
        "fr": "Mise \u00e0 jour sur la protection des r\u00e9gimes de prestations"
    },
    "news": {
        "date_posted": {
            "en": "2018-03-05",
            "fr": "2018-03-05"
        },
        "to": {
            "en": "All staff",
            "fr": "Tous les employ\u00e9s"
        },
        "by": {
            "en": "Human Resources, Corporate Management Branch",
            "fr": "Ressources humaines, Direction g\u00e9n\u00e9rale de la gestion int\u00e9gr\u00e9e"
        }
    }
}