{
    "dcr_id": "1520351673244",
    "lang": "en",
    "title": {
        "en": "A New Tool for AAFC Managers",
        "fr": "Un nouvel outil pour les gestionnaires d'AAC"
    },
    "modified": "2019-02-07 00:00:00.0",
    "issued": "2018-03-08 00:00:00.0",
    "type_name": "intra-intra/news-nouv",
    "node_id": "1279030006975",
    "layout_name": null,
    "dc_date_created": "2018-03-06",
    "breadcrumb_label": "",
    "meta": {
        "issued": {
            "en": "2018-03-08",
            "fr": "2018-03-08"
        },
        "modified": {
            "en": "2019-02-07",
            "fr": "2019-02-07"
        },
        "format": {
            "en": "gcformat",
            "fr": "gcformat"
        },
        "title": {
            "en": "A New Tool for AAFC Managers",
            "fr": "Un nouvel outil pour les gestionnaires d'AAC"
        },
        "subject": {
            "en": "communications",
            "fr": "communications"
        },
        "description": {
            "en": "Managers at all levels play a key role in keeping employees informed about the work of the Department and the topics and issues that affect employees in their role.",
            "fr": "Les gestionnaires \u00e0 tous les niveaux jouent un r\u00f4le essentiel pour ce qui est de tenir les employ\u00e9s au courant du travail accompli par le Minist\u00e8re et des sujets et dossiers qui les concernent dans l'exercice de leurs fonctions."
        },
        "language": {
            "en": "eng",
            "fr": "fra"
        },
        "audience": {
            "en": "gcaudience",
            "fr": "gcaudience"
        },
        "creator": {
            "en": "Agriculture and Agri-Food Canada",
            "fr": "Agriculture et Agroalimentaire Canada"
        },
        "spatial": {
            "en": "gcregions",
            "fr": "gcregions"
        },
        "service": {
            "en": "AAFC_AgriSource",
            "fr": "AAC_AgriSource"
        },
        "accessRights": {
            "en": "3",
            "fr": "3"
        }
    },
    "body": {
        "en": "<br>\n<br>\n<p>Managers at all levels play a key role in keeping employees informed about the work of the Department and the topics and issues that affect employees in their role.</p>\n<p>Now, there is a new tool developed by Public Affairs Branch specifically for managers: <em><a href=\"http://intranet.agr.gc.ca/agrisource/eng/branches-and-offices/public-affairs-branch/corporate-communications?id=1297348464656\">CUE: a quick reference tool for managers</a></em>.</p>\n<p>We know that managers are the preferred source of information for employees, and that staff prefer face-to-face communications. CUE gives managers an easy and succinct reference to information on issues impacting employees and the latest departmental business.</p>\n<p>CUE complements other internal communications like <a href=\"http://intranet.agr.gc.ca/agrisource/eng?id=1287261736402\">AgriSource</a>, <a href=\"http://intranet.agr.gc.ca/agrisource/eng?id=1311865754938\">news@work</a>, <a href=\"https://collab.agr.gc.ca/apps/harvest-moisson\">The Harvest</a>, the <a href=\"http://intranet.agr.gc.ca/agrisource/eng/the-department/deputy-ministers-corner?id=1288789122212&amp;utm_source=agrisource&amp;utm_medium=intranet&amp;utm_campaign=focus_on&amp;utm_content=ENGtext_link1\">DMs\u2019 Corner</a>, the DM\u2019s Twitter feed and AAFC social media \u2013 all great sources of information about departmental news, events, and the achievements of our colleagues.</p>\n<p>We encourage managers at all levels to use <em>CUE</em>. The content will be reviewed and updated the first week of each month to ensure it is current and relevant.</p>\n\n\t\t",
        "fr": "<br>\n<br>\n<p>Les gestionnaires \u00e0 tous les niveaux jouent un r\u00f4le essentiel pour ce qui est de tenir les employ\u00e9s au courant du travail accompli par le Minist\u00e8re et des sujets et dossiers qui les concernent dans l\u2019exercice de leurs fonctions.</p>\n<p>Un nouvel outil cr\u00e9\u00e9 par la Direction g\u00e9n\u00e9rale des affaires publiques est maintenant mis \u00e0 la disposition des gestionnaires : <em><a href=\"http://intranet.agr.gc.ca/agrisource/fra/directions-generales-et-bureaux/direction-generale-des-affaires-publiques/communications-ministerielles?id=1297348464656\">AIDE-M\u00c9MOIRE : un outil de r\u00e9f\u00e9rence rapide pour les gestionnaires</a></em>.</p>\n<p>Nous savons que les gestionnaires repr\u00e9sentent la source privil\u00e9gi\u00e9e d\u2019information pour les employ\u00e9s et que ces derniers pr\u00e9f\u00e8rent les communications en personne. AIDE\u2011M\u00c9MOIRE permet aux gestionnaires d\u2019avoir acc\u00e8s facilement \u00e0 des renseignements concis sur les dossiers qui concernent les employ\u00e9s et sur les plus r\u00e9centes activit\u00e9s du Minist\u00e8re.</p>\n<p>AIDE-M\u00c9MOIRE va de pair avec les autres moyens de communication internes comme <a href=\"http://intranet.agr.gc.ca/agrisource/fra?id=1287261736402\">AgriSource</a>, <a href=\"http://intranet.agr.gc.ca/agrisource/fra?id=1311865754938\">nouvelles@l'ouvrage</a>, <a href=\"https://collab.agr.gc.ca/apps/harvest-moisson\">La Moisson</a>, <a href=\"http://intranet.agr.gc.ca/agrisource/fra/le-ministere/coin-des-sous-ministres?id=1288789122212\">Le coin des sous-ministres</a>, le fil Twitter du sous-ministre et les m\u00e9dias sociaux d\u2019AAC \u2013 tous d\u2019excellentes sources d\u2019information sur les activit\u00e9s du Minist\u00e8re, les \u00e9v\u00e9nements et les r\u00e9alisations de nos coll\u00e8gues.</p>\n<p>Nous encourageons tous les gestionnaires \u00e0 utiliser AIDE-M\u00c9MOIRE. Nous examinerons et mettrons \u00e0 jour le contenu la premi\u00e8re semaine de chaque mois pour en assurer la validit\u00e9 et la pertinence.</p>\n\t\t"
    },
    "breadcrumb": {
        "en": "A New Tool for AAFC Managers",
        "fr": "Un nouvel outil pour les gestionnaires d'AAC"
    },
    "news": {
        "date_posted": {
            "en": "2018-03-08",
            "fr": "2018-03-08"
        },
        "to": {
            "en": "All staff",
            "fr": "Tous les employ\u00e9s"
        },
        "by": {
            "en": "Public Affairs Branch",
            "fr": "Direction g\u00e9n\u00e9rale des affaires publiques"
        }
    }
}