{
    "dcr_id": "1520351404882",
    "lang": "en",
    "title": {
        "en": "Update on Additional Quebec Income Tax Deductions",
        "fr": "Le point sur les retenues suppl\u00e9mentaires pour l'imp\u00f4t sur le revenu du Qu\u00e9bec "
    },
    "modified": "2018-03-08 00:00:00.0",
    "issued": "2018-03-06 00:00:00.0",
    "type_name": "intra-intra/news-nouv",
    "node_id": "1279030006975",
    "layout_name": null,
    "dc_date_created": "2018-03-06",
    "breadcrumb_label": "",
    "meta": {
        "issued": {
            "en": "2018-03-06",
            "fr": "2018-03-06"
        },
        "modified": {
            "en": "2018-03-08",
            "fr": "2018-03-08"
        },
        "format": {
            "en": "gcformat",
            "fr": "gcformat"
        },
        "title": {
            "en": "Update on Additional Quebec Income Tax Deductions",
            "fr": "Le point sur les retenues suppl\u00e9mentaires pour l'imp\u00f4t sur le revenu du Qu\u00e9bec "
        },
        "subject": {
            "en": "communications",
            "fr": "communications"
        },
        "description": {
            "en": "Public Services and Procurement Canada implemented a temporary measure on January 10, 2018 to ensure that deductions for Quebec Income Tax were properly collected from employees' pay.",
            "fr": "Le 10 janvier 2018, Services publics et Approvisionnement Canada a pris une mesure temporaire afin de s'assurer que les retenues aux fins de l'imp\u00f4t sur le revenu du Qu\u00e9bec \u00e9taient correctement pr\u00e9lev\u00e9es sur la paye des employ\u00e9s."
        },
        "language": {
            "en": "eng",
            "fr": "fra"
        },
        "audience": {
            "en": "gcaudience",
            "fr": "gcaudience"
        },
        "creator": {
            "en": "Agriculture and Agri-Food Canada",
            "fr": "Agriculture et Agroalimentaire Canada"
        },
        "spatial": {
            "en": "gcregions",
            "fr": "gcregions"
        },
        "service": {
            "en": "AAFC_AgriSource",
            "fr": "AAC_AgriSource"
        },
        "accessRights": {
            "en": "3",
            "fr": "3"
        }
    },
    "body": {
        "en": "<br>\n<br>\n<p><img src=\"https://intranet.agr.gc.ca/resources/prod/news/images/Taxes.png\" class=\"pull-right mrgn-lft-md\">Public Services and Procurement Canada implemented a temporary measure on January 10, 2018 to ensure that deductions for Quebec Income Tax (<abbr title=\"Quebec Income Tax\">QIT</abbr>) were properly collected from employees\u2019 pay. As a result, employees who requested additional <abbr title=\"Quebec Income Tax\">QIT</abbr> deduction from their pay saw $0.01 added to their <abbr title=\"Quebec Income Tax\">QIT</abbr> amount on their pay stubs.</p>\n<p>A permanent solution has been applied. As of the March 7, 2018 pay, the $0.01 will no longer be reflected on an employee's pay stub. The regular additional <abbr title=\"Quebec Income Tax\">QIT</abbr> deduction will continue to be deducted.</p>\n<h2><strong>Amend additional <abbr title=\"Quebec Income Tax\">QIT</abbr> deduction request</strong></h2>\n<p>Should you wish to amend your request for <abbr title=\"Quebec Income Tax\">QIT</abbr> deduction (whether to stop or increase the deduction amount to compensate for any missed deductions):</p>\n<ol>\n<li>Complete form <a href=\"https://www.revenuquebec.ca/en/online-services/forms-and-publications/current-details/tp-1015.3-v/\">TP-1015.3-V Source Deductions Return</a>.</li>\n<li>Complete a <a href=\"https://www.tpsgc-pwgsc.gc.ca/remuneration-compensation/services-paye-pay-services/form/html/446-5-eng.html\">Pay Action Request form 446-5E</a>. (Work Type: Deductions; Sub-type: Additional tax)</li>\n<li>Submit both forms to the Public Service Pay Centre (<a href=\"mailto:centredepaye.paycentre@tpsgc-pwgsc.gc.ca\">centredepaye.paycentre@tpsgc-pwgsc.gc.ca</a>).</li>\n</ol>\n\n\t\t",
        "fr": "<br>\n<br>\n<p><img src=\"https://intranet.agr.gc.ca/resources/prod/news/images/Taxes.png\" class=\"pull-right mrgn-lft-md\">Le 10 janvier 2018, Services publics et Approvisionnement Canada a pris une mesure temporaire afin de s\u2019assurer que les retenues aux fins de l\u2019imp\u00f4t sur le revenu du Qu\u00e9bec (<abbr title=\"imp\u00f4t sur le revenu du Qu\u00e9bec\">IRQ</abbr>) \u00e9taient correctement pr\u00e9lev\u00e9es sur la paye des employ\u00e9s. Par cons\u00e9quent, les employ\u00e9s qui avaient demand\u00e9 une retenue suppl\u00e9mentaire pour l\u2019<abbr title=\"imp\u00f4t sur le revenu du Qu\u00e9bec\">IRQ</abbr> ont pu constater qu\u2019un montant de 0,01 $ s\u2019\u00e9tait ajout\u00e9 au montant de l\u2019imp\u00f4t provincial sur leur talon de paye.</p>\n<p>Une solution permanente a \u00e9t\u00e9 appliqu\u00e9e. \u00c0 compter de la paye du 7 mars 2018, le montant de 0,01 $ ne figurera plus sur le talon de paye des employ\u00e9s. La retenue suppl\u00e9mentaire habituelle continuera de s\u2019appliquer pour l\u2019<abbr title=\"imp\u00f4t sur le revenu du Qu\u00e9bec\">IRQ</abbr>.</p>\n<h2><strong>Modification d\u2019une demande de retenue suppl\u00e9mentaire pour l\u2019<abbr title=\"imp\u00f4t sur le revenu du Qu\u00e9bec\">IRQ</abbr> </strong></h2>\n<p>Si vous souhaitez modifier votre demande de retenue suppl\u00e9mentaire pour l\u2019<abbr title=\"imp\u00f4t sur le revenu du Qu\u00e9bec\">IRQ</abbr> (soit pour arr\u00eater la retenue ou en augmenter le montant afin de compenser toute retenue non pr\u00e9lev\u00e9e) :</p>\n<ol>\n<li>Remplissez le formulaire <a href=\"https://www.revenuquebec.ca/fr/services-en-ligne/formulaires-et-publications/details-courant/tp-1015.3-v/\">TP-1015.3-V D\u00e9claration pour la retenue d\u2019imp\u00f4t</a>;</li>\n<li>Remplissez un <a href=\"https://www.tpsgc-pwgsc.gc.ca/remuneration-compensation/services-paye-pay-services/form/html/446-5-fra.html\">Formulaire de demande d\u2019intervention de paye 446-5F</a> (Type de travail : Retenues; sous-type : Imp\u00f4t suppl\u00e9mentaire);</li>\n<li>Envoyez les deux formulaires au Centre des services de paye de la fonction publique (<a href=\"mailto:centredepaye.paycentre@tpsgc-pwgsc.gc.ca\">centredepaye.paycentre@tpsgc-pwgsc.gc.ca</a>).</li>\n</ol>\n\t\t"
    },
    "breadcrumb": {
        "en": "Update on Additional Quebec Income Tax Deductions",
        "fr": "Le point sur les retenues suppl\u00e9mentaires pour l'imp\u00f4t sur le revenu du Qu\u00e9bec"
    },
    "news": {
        "date_posted": {
            "en": "2018-03-06",
            "fr": "2018-03-06"
        },
        "to": {
            "en": "All staff",
            "fr": "Tous les employ\u00e9s"
        },
        "by": {
            "en": "Human Resources, Corporate Management Branch",
            "fr": "Ressources humaines, Direction g\u00e9n\u00e9rale de la gestion int\u00e9gr\u00e9e"
        }
    }
}