{
    "dcr_id": "1520350038191",
    "lang": "en",
    "title": {
        "en": "This Week in The Harvest - Summerland's Coffee Drinkers Using Their Change to Generate Change",
        "fr": "Au menu de La Moisson cette semaine - Des amateurs de caf\u00e9 de Summerland utilisent leur petite monnaie pour g\u00e9n\u00e9rer de grands changements"
    },
    "modified": "2018-03-08 00:00:00.0",
    "issued": "2018-03-08 00:00:00.0",
    "type_name": "intra-intra/news-nouv",
    "node_id": "1279030006975",
    "layout_name": null,
    "dc_date_created": "2018-03-06",
    "breadcrumb_label": "",
    "meta": {
        "issued": {
            "en": "2018-03-08",
            "fr": "2018-03-08"
        },
        "modified": {
            "en": "2018-03-08",
            "fr": "2018-03-08"
        },
        "format": {
            "en": "gcformat",
            "fr": "gcformat"
        },
        "title": {
            "en": "This Week in The Harvest - Summerland's Coffee Drinkers Using Their Change to Generate Change",
            "fr": "Au menu de La Moisson cette semaine - Des amateurs de caf\u00e9 de Summerland utilisent leur petite monnaie pour g\u00e9n\u00e9rer de grands changements"
        },
        "subject": {
            "en": "communications",
            "fr": "communications"
        },
        "description": {
            "en": "In case you missed it, here's what's new in The Harvest this week.",
            "fr": "Au cas o\u00f9 vous l'auriez manqu\u00e9, voici le menu que la section La Moisson vous offre cette semaine."
        },
        "language": {
            "en": "eng",
            "fr": "fra"
        },
        "audience": {
            "en": "gcaudience",
            "fr": "gcaudience"
        },
        "creator": {
            "en": "Agriculture and Agri-Food Canada",
            "fr": "Agriculture et Agroalimentaire Canada"
        },
        "spatial": {
            "en": "gcregions",
            "fr": "gcregions"
        },
        "service": {
            "en": "AAFC_AgriSource",
            "fr": "AAC_AgriSource"
        },
        "accessRights": {
            "en": "3",
            "fr": "3"
        }
    },
    "body": {
        "en": "<br>\n<br>\n<p>In case you missed it, here\u2019s what\u2019s new in <a href=\"https://collab.agr.gc.ca/apps/harvest-moisson\">The Harvest</a> this week:</p>\n<p><strong>Feature story: </strong><a href=\"https://collab.agr.gc.ca/apps/harvest-moisson\">Summerland\u2019s Coffee Drinkers Using Their Change to Generate Change</a> \u2013 In September 2017, the Rotary Club of Summerland awarded a Certificate of Appreciation to the Summerland Research and Development Centre (RDC) for five years of donations totaling $28,000. The project that led to this moment is one that gave everyone at the Centre a chance to give back to the community. </p>\n<p><strong>Poll: </strong><a href=\"https://collab.agr.gc.ca/apps/harvest-moisson\">How do you prefer to be recognized?</a></p>\n<p><strong>Feature photo:</strong> <a href=\"https://collab.agr.gc.ca/apps/harvest-moisson/gallery/Lists/Posts/Post.aspx?ID=150\">Black Angus Heifer Calf</a>, by Terrie Hoppe, Science and Technology Branch, Winnipeg, Manitoba.</p>\n<p><strong>Did you know?</strong> <a href=\"https://collab.agr.gc.ca/apps/harvest-moisson/Pages/DidYouKnow.aspx\">Maple sugar</a> was the first kind of sugar produced in eastern North America and remained the standard sweetener until 1875, when cane sugar became available.</p>\n<p>You can get involved by posting a comment or \u201cliking\u201d an article. You can also check out what your colleagues are liking and saying.</p>\n<p>Should you have story ideas, scenic or artistic agriculture-related photos, or interesting facts, please share them with us by clicking on \u201cContribute\u201d in the top menu bar.</p>\n<p>\n<img src=\"https://intranet.agr.gc.ca/resources/prod/news/images/HarvestCoffeeCampaign.png\" class=\"center-block\" alt=\"Karen Bedford, Jane Theilmann, Michael Weis and Colleen Harlton (left to right) presenting the Certificate of Appreciation on top of the coin-operated coffee machine. \"></p>\n\n\t\t",
        "fr": "<br>\n<br>\n<p>Au cas o\u00f9 vous l\u2019auriez manqu\u00e9, voici le menu que la section <a href=\"https://collab.agr.gc.ca/apps/harvest-moisson\">La Moisson</a> vous offre cette semaine :</p>\n<p><strong>Article vedette :</strong> <a href=\"https://collab.agr.gc.ca/apps/harvest-moisson\">Des amateurs de caf\u00e9 de Summerland utilisent leur petite monnaie pour g\u00e9n\u00e9rer de grands changements</a><strong> </strong>\u2013 En septembre 2017, le Club Rotary de Summerland a d\u00e9cern\u00e9 un certificat d\u2019appr\u00e9ciation au Centre de recherche et de d\u00e9veloppement (<abbr title=\"Centre de recherche et de d\u00e9veloppement\">CRD</abbr>) de Summerland pour les 28 000 $ de dons qu\u2019il a faits sur une p\u00e9riode de cinq ans. Le projet qui a men\u00e9 \u00e0 ce moment a permis \u00e0 tous les employ\u00e9s du <abbr title=\"Centre de recherche et de d\u00e9veloppement\">CRD</abbr> de redonner \u00e0 la collectivit\u00e9. </p>\n<p><strong>Sondage : </strong><a href=\"https://collab.agr.gc.ca/apps/harvest-moisson\">Comment souhaitez-vous \u00eatre reconnu?</a></p>\n<p><strong>Photo vedette :</strong> <a href=\"https://collab.agr.gc.ca/apps/harvest-moisson/gallery/Lists/Posts/Post.aspx?ID=150\">G\u00e9nisse noire Angus</a>, par Terrie Hoppe, Direction g\u00e9n\u00e9rale des sciences et de la technologie, Winnipeg (Manitoba).</p>\n<p><strong>Le saviez-vous?</strong> <a href=\"https://collab.agr.gc.ca/apps/harvest-moisson/Pages/DidYouKnow.aspx\">Le sucre d\u2019\u00e9rable</a> a \u00e9t\u00e9 le premier type de sucre produit dans la partie est de l\u2019Am\u00e9rique du Nord et est demeur\u00e9 l\u2019\u00e9dulcorant le plus courant jusqu\u2019\u00e0 l\u2019arriv\u00e9e du sucre de canne sur le march\u00e9 en 1875.</p>\n<p>Vous pouvez participer en affichant des commentaires ou en utilisant la fonction \u00ab J\u2019aime \u00bb ou \u00ab Partager \u00bb pour exprimer votre appr\u00e9ciation d\u2019un article. Vous pouvez aussi aller voir ce que vos coll\u00e8gues aiment et ont \u00e0 dire.</p>\n<p>Si vous avez des id\u00e9es d\u2019articles, des photos de paysages ou \u00e0 caract\u00e8re artistique li\u00e9es \u00e0 l\u2019agriculture ou encore des faits int\u00e9ressants, veuillez nous en faire part en cliquant sur \u00ab Collaborer \u00bb dans la barre de menu en haut de la page.</p>\n<p>\n<img src=\"https://intranet.agr.gc.ca/resources/prod/news/images/HarvestCoffeeCampaign.png\" class=\"center-block\" alt=\"Karen Bedford, Jane Theilmann, Michael Weis et Colleen Harlton (de  gauche \u00e0 droite) pr\u00e9sentent le certificat d\u2019appr\u00e9ciation sur le dessus de la machine \u00e0 caf\u00e9 payante. \"></p>\n\t\t"
    },
    "breadcrumb": {
        "en": "This Week in The Harvest - Summerland's Coffee Drinkers Using Their Change to Generate Change",
        "fr": "Au menu de La Moisson cette semaine - Des amateurs de caf\u00e9 de Summerland utilisent leur petite monnaie pour g\u00e9n\u00e9rer de grands changements"
    },
    "news": {
        "date_posted": {
            "en": "2018-03-08",
            "fr": "2018-03-08"
        },
        "to": {
            "en": "All staff",
            "fr": "Tous les employ\u00e9s"
        },
        "by": {
            "en": "Corporate Communications, Public Affairs Branch",
            "fr": "Communications minist\u00e9rielles, Direction g\u00e9n\u00e9rale des affaires publiques"
        }
    }
}