{
    "dcr_id": "1521030399419",
    "lang": "en",
    "title": {
        "en": "Email Encryption on BlackBerry Devices: What You Need To Do",
        "fr": "Chiffrement de courriels sur les appareils BlackBerry : Ce que vous devez faire"
    },
    "modified": "2018-03-15 00:00:00.0",
    "issued": "2018-03-15 00:00:00.0",
    "type_name": "intra-intra/news-nouv",
    "node_id": "1279030006975",
    "layout_name": null,
    "dc_date_created": "2018-03-14",
    "breadcrumb_label": "",
    "meta": {
        "issued": {
            "en": "2018-03-15",
            "fr": "2018-03-15"
        },
        "modified": {
            "en": "2018-03-15",
            "fr": "2018-03-15"
        },
        "format": {
            "en": "gcformat",
            "fr": "gcformat"
        },
        "title": {
            "en": "Email Encryption on BlackBerry Devices: What You Need To Do",
            "fr": "Chiffrement de courriels sur les appareils BlackBerry : Ce que vous devez faire"
        },
        "subject": {
            "en": "communications",
            "fr": "communications"
        },
        "description": {
            "en": "Do you have a BlackBerry and use the email encryption function on the device? If so, this message is for you! IT Centre TI would like you to know that there is a very important security upgrade that will be implemented shortly and you will need to take action.",
            "fr": "Avez-vous un appareil BlackBerry et utilisez-vous la fonction de chiffrement des courriels sur celui-ci? Si oui, ce message s\u2019adresse \u00e0 vous! Le IT Centre TI souhaite vous informer qu\u2019une mise \u00e0 niveau de la s\u00e9curit\u00e9 tr\u00e8s importante sera bient\u00f4t effectu\u00e9e et que vous devrez prendre des mesures \u00e0 cette fin."
        },
        "language": {
            "en": "eng",
            "fr": "fra"
        },
        "audience": {
            "en": "gcaudience",
            "fr": "gcaudience"
        },
        "creator": {
            "en": "Agriculture and Agri-Food Canada",
            "fr": "Agriculture et Agroalimentaire Canada"
        },
        "spatial": {
            "en": "gcregions",
            "fr": "gcregions"
        },
        "service": {
            "en": "AAFC_AgriSource",
            "fr": "AAC_AgriSource"
        },
        "accessRights": {
            "en": "3",
            "fr": "3"
        }
    },
    "body": {
        "en": "<br>\n<br>\n<p>Do you have a BlackBerry <strong>and </strong>use the email encryption function on the device? If so, this message is for you! IT Centre TI would like you to know that there is a very important security upgrade that will be implemented shortly and you will need to take action.</p>\n<p><strong>What upgrade? Why are we upgrading?</strong></p>\n<p>On March 18, 2018, changes will be made behind the scenes to support a new security network. It is part of our ongoing efforts to ensure that sensitive information is transmitted safely and securely despite rapid changes in technology.</p>\n<p><strong>What is the impact?</strong></p>\n<p>The upgrade includes new security enhancements to the myKey application, as well as updates to the myKey (Entrust) certificates on users\u2019 workstations.</p>\n<p>As you are aware, the myKey is used to encrypt email and access human resources applications (e.g., Compensation Web Applications, Public Service Performance Management application, Phoenix) on desktops, laptops and BlackBerrys.</p>\n<p><strong>How does it affect me?</strong></p>\n<p>This will only affect you if you use the encryption function on your BlackBerry to open or send encrypted e-mail. You will need to manually re-install your myKey certificates on your device to access this function. Instructions on how to re-install your certificates can be found on <a href=\"https://collab.agr.gc.ca/co/smd_dgs/opr/IT%20Security/Encryption%20Instructions%20-%20BB%20%20and%20S8/Import%20Certs%20-BB10_Encryption_Instructions_for_Client_-_with_Screenshots%20Mar%202018.docx\">Sharepoint</a>.</p>\n<p>The upgrade will not affect employees who currently have their myKey certificates on their desktops, laptops or tablets. Those certificates will be automatically updated behind the scenes, and will require no action by employees. Employees will be able to access myKey-enabled services as they normally do.</p>\n<p>For more general information on email encryption, please refer to our <a href=\"http://intranet.agr.gc.ca/agrisource/eng/newswork/encrypting-communications?id=1455028900082\">Encrypting Communication</a> message or contact IT Centre TI.</p>\n<p><strong>IT Centre TI</strong></p>\n<p>Telephone: 1-855-545-4411</p>\n<p><a href=\"http://assystweb.agr.gc.ca:8080/assystnet\">My IT Centre TI</a></p>\n<p>\u00a0</p>\n\n\t\t",
        "fr": "<br>\n<br>\n<p>Avez-vous un appareil BlackBerry <strong>et </strong>utilisez-vous la fonction de chiffrement des courriels sur celui-ci? Si oui, ce message s\u2019adresse \u00e0 vous! Le IT Centre TI souhaite vous informer qu\u2019une mise \u00e0 niveau de la s\u00e9curit\u00e9 tr\u00e8s importante sera bient\u00f4t effectu\u00e9e et que vous devrez prendre des mesures \u00e0 cette fin.</p>\n<p><strong>De quelle mise \u00e0 niveau s\u2019agit-il? Quelle est sa raison d\u2019\u00eatre?</strong></p>\n<p>Le 18 mars 2018, des changements seront apport\u00e9s en arri\u00e8re-plan pour accueillir un nouveau r\u00e9seau de s\u00e9curit\u00e9. Cette mise \u00e0 niveau fait partie des efforts continus que nous d\u00e9ployons pour nous assurer que les renseignements de nature d\u00e9licate sont transmis de fa\u00e7on s\u00e9curitaire, malgr\u00e9 les changements rapides dans le domaine de la technologie.</p>\n<p><strong>Quelles sont les r\u00e9percussions?</strong></p>\n<p>La mise \u00e0 niveau inclut de nouvelles am\u00e9liorations \u00e0 la s\u00e9curit\u00e9 de l\u2019application maCL\u00c9 ainsi que la mise \u00e0 jour des certificats maCL\u00c9 (Entrust) sur les postes de travail des utilisateurs.</p>\n<p>Comme vous le savez, maCL\u00c9 sert \u00e0 chiffrer des courriels et \u00e0 acc\u00e9der \u00e0 des applications li\u00e9es aux ressources humaines (p. ex. applications Web de la r\u00e9mun\u00e9ration, application Gestion du rendement de la fonction publique, Ph\u00e9nix) sur les ordinateurs de bureau, les ordinateurs portatifs et les appareils BlackBerry.</p>\n<p><strong>En quoi cette mise \u00e0 niveau me concerne-t-elle?</strong></p>\n<p>Cette mise \u00e0 niveau vous concerne seulement si vous utilisez la fonction de chiffrement sur votre appareil BlackBerry pour ouvrir ou envoyer des courriels chiffr\u00e9s. Vous devrez r\u00e9installer manuellement votre certificat maCL\u00c9 sur votre appareil pour acc\u00e9der \u00e0 cette fonction. Les instructions sur la fa\u00e7on de r\u00e9installer votre certificat se trouvent sur <a href=\"https://collab.agr.gc.ca/co/smd_dgs/opr/IT%20Security/Encryption%20Instructions%20-%20BB%20%20and%20S8/Import%20certs%20-Instructions_de_cryptage_pour_BB10_-_avec_saisies_d_%C3%A9cran%20Mar%202018.docx\">SharePoint</a>.</p>\n<p>La mise \u00e0 niveau ne touchera pas les employ\u00e9s dont le certificat maCL\u00c9 se trouve actuellement sur leur ordinateur de bureau, leur ordinateur portatif ou leur tablette. En pareil pas, les certificats seront mis \u00e0 jour automatiquement en arri\u00e8re-plan et ne requerront aucune action de la part des employ\u00e9s. Ces derniers pourront acc\u00e9der aux services n\u00e9cessitant maCL\u00c9 comme d\u2019habitude.</p>\n<p>Pour obtenir de plus amples renseignements g\u00e9n\u00e9raux sur le chiffrement des courriels, veuillez lire le message <a href=\"http://intranet.agr.gc.ca/agrisource/fra/nouvelleslouvrage/chiffrement-des-communications?id=1455028900082\">Chiffrement des communications</a>\u00a0ou communiquer avec le\u00a0IT Centre TI.</p>\n<p>\u00a0</p>\n<p><strong>IT Centre TI<br></strong>T\u00e9l\u00e9phone : 1-855-545-4411<strong><br><a href=\"http://assystweb.agr.gc.ca:8080/assystnet\">Mon IT Centre TI</a></strong></p>\n\t\t"
    },
    "breadcrumb": {
        "en": "Email Encryption on BlackBerry Devices: What You Need To Do",
        "fr": "Chiffrement de courriels sur les appareils BlackBerry : Ce que vous devez faire"
    },
    "news": {
        "date_posted": {
            "en": "2018-03-15",
            "fr": "2018-03-15"
        },
        "to": {
            "en": "All staff",
            "fr": "Tous les employ\u00e9s"
        },
        "by": {
            "en": "IT Centre TI",
            "fr": "IT Centre TI"
        }
    }
}