{
    "dcr_id": "1522247714503",
    "lang": "en",
    "title": {
        "en": "Reminder - Mental Health Training - Last Chance",
        "fr": "Rappel - Formation sur la sant\u00e9 mentale - Derni\u00e8re chance"
    },
    "modified": "2018-05-10 00:00:00.0",
    "issued": "2018-03-29 00:00:00.0",
    "type_name": "intra-intra/news-nouv",
    "node_id": "1279030006975",
    "layout_name": null,
    "dc_date_created": "2018-03-28",
    "breadcrumb_label": "",
    "meta": {
        "issued": {
            "en": "2018-03-29",
            "fr": "2018-03-29"
        },
        "modified": {
            "en": "2018-05-10",
            "fr": "2018-05-10"
        },
        "format": {
            "en": "gcformat",
            "fr": "gcformat"
        },
        "title": {
            "en": "Reminder - Mental Health Training - Last Chance",
            "fr": "Rappel - Formation sur la sant\u00e9 mentale - Derni\u00e8re chance"
        },
        "subject": {
            "en": "communications",
            "fr": "communications"
        },
        "description": {
            "en": "Agriculture and Agri-Food Canada is committed to promoting employee mental health and workplace well-being.",
            "fr": "Agriculture et Agroalimentaire Canada s'engage \u00e0 promouvoir la sant\u00e9 mentale des employ\u00e9s et leur bien-\u00eatre au travail."
        },
        "language": {
            "en": "eng",
            "fr": "fra"
        },
        "audience": {
            "en": "gcaudience",
            "fr": "gcaudience"
        },
        "creator": {
            "en": "Agriculture and Agri-Food Canada",
            "fr": "Agriculture et Agroalimentaire Canada"
        },
        "spatial": {
            "en": "gcregions",
            "fr": "gcregions"
        },
        "service": {
            "en": "AAFC_AgriSource",
            "fr": "AAC_AgriSource"
        },
        "accessRights": {
            "en": "3",
            "fr": "3"
        }
    },
    "body": {
        "en": "<br>\n<br>\n<p>Agriculture and Agri-Food Canada (<abbr title=\"Agriculture and Agri-Food Canada\">AAFC</abbr>) is committed to promoting employee mental health and workplace well-being. The Department recognizes that an employee's overall health and wellness can be affected by personal and professional issues which, if not addressed, may have a negative impact on a person\u2019s well-being.</p>\n<p>The Working Mind\u2122, developed by the Mental Health Commission of Canada, is the recommended mental health training for <abbr title=\"Agriculture and Agri-Food Canada\">AAFC</abbr> employees. It is an education-based program designed to address and promote mental health and reduce the stigma of mental illness in the workplace. It also provides insight into workplace accommodations and identifies the appropriate actions to take.</p>\n<p>We ask that you support this initiative by attending The Working Mind\u2122 training as part of our collective efforts to promote mental health in the workplace.</p>\n<p>To register for upcoming sessions, please contact Workplace Wellness Programs at <a href=\"mailto:aafc.mentalhealth-santementale.aac@agr.gc.ca\">aafc.mentalhealth-santementale.aac@agr.gc.ca</a>.</p>\n<h2><strong>Upcoming sessions for managers</strong></h2>\n<table cellspacing=\"0\" border=\"1\" width=\"700\">\n<tbody>\n<tr>\n<td style=\"width: 76.3pt;\">\n<p><strong>\u00a0Date</strong></p>\n</td>\n<td style=\"border-color: windowtext windowtext windowtext #000000; width: 6cm;\">\n<p><strong>\u00a0Time</strong></p>\n</td>\n<td style=\"border-color: windowtext windowtext windowtext #000000; width: 155.9pt;\">\n<p><strong>\u00a0Location</strong></p>\n</td>\n<td style=\"border-color: windowtext windowtext windowtext #000000; width: 76.5pt;\">\n<p><strong>\u00a0Language</strong></p>\n</td>\n</tr>\n<tr>\n<td style=\"border-color: #000000 windowtext windowtext; width: 76.3pt;\">\n<p>\u00a0May 25</p>\n</td>\n<td style=\"border-color: #000000 windowtext windowtext #000000; width: 6cm;\">\n<p>\u00a08:30 a.m. to 4:30 p.m. (ET)</p>\n</td>\n<td style=\"border-color: #000000 windowtext windowtext #000000; width: 155.9pt;\">\n<p>\u00a0Saint-Jean-sur-Richelieu/VC</p>\n</td>\n<td style=\"border-color: #000000 windowtext windowtext #000000; width: 76.5pt;\">\n<p>\u00a0French</p>\n</td>\n</tr>\n</tbody>\n</table>\n<h2><strong>Upcoming sessions for employees </strong></h2>\n<table cellspacing=\"0\" border=\"1\" height=\"0\" width=\"700\">\n<tbody>\n<tr>\n<td style=\"width: 76.3pt;\">\n<p><strong>\u00a0Date</strong></p>\n</td>\n<td style=\"border-color: windowtext windowtext windowtext #000000; width: 6cm;\">\n<p><strong>\u00a0Time</strong></p>\n</td>\n<td style=\"border-color: windowtext windowtext windowtext #000000; width: 155.9pt;\">\n<p><strong>\u00a0Location</strong></p>\n</td>\n<td style=\"border-color: windowtext windowtext windowtext #000000; width: 76.5pt;\">\n<p><strong>\u00a0Language</strong></p>\n</td>\n</tr>\n<tr>\n<td style=\"border-color: #000000 windowtext windowtext; width: 76.3pt;\">\n<p>\u00a0May 17</p>\n</td>\n<td style=\"border-color: #000000 windowtext windowtext #000000; width: 6cm;\">\n<p>\u00a08:30 a.m. to 12:00 p.m. (ET)</p>\n</td>\n<td style=\"border-color: #000000 windowtext windowtext #000000; width: 155.9pt;\">\n<p>\u00a0NHCAP</p>\n</td>\n<td style=\"border-color: #000000 windowtext windowtext #000000; width: 76.5pt;\">\n<p>\u00a0English</p>\n</td>\n</tr>\n</tbody>\n</table>\n<p>\u00a0</p>\n<p>For more information, please visit\u00a0<a rel=\"external\" href=\"http://theworkingmind.ca/working-mind\">The Working Mind\u2122</a> website.</p>\n<p>\u00a0</p>\n<p>\n<img src=\"https://intranet.agr.gc.ca/resources/prod/news/images/HealthyWorkplace.png\" class=\"center-block\"></p>\n\n\t\t",
        "fr": "<br>\n<br>\n<p>Agriculture et Agroalimentaire Canada (<abbr title=\"Agriculture et Agroalimentaire Canada\">AAC</abbr>) s\u2019engage \u00e0 promouvoir la sant\u00e9 mentale des employ\u00e9s et leur bien-\u00eatre au travail. Le Minist\u00e8re reconna\u00eet que la sant\u00e9 et le bien-\u00eatre d\u2019un employ\u00e9 peuvent \u00eatre touch\u00e9s par des probl\u00e8mes personnels et professionnels qui, faute d\u2019\u00eatre r\u00e9gl\u00e9s, peuvent nuire au mieux-\u00eatre en g\u00e9n\u00e9ral.</p>\n<p>Le cours L\u2019esprit au travail<sup>MC</sup>, \u00e9labor\u00e9 par la Commission de la sant\u00e9 mentale du Canada, est la formation sur la sant\u00e9 mentale que devraient suivre les employ\u00e9s d\u2019<abbr title=\"Agriculture et Agroalimentaire Canada\">AAC</abbr>. Il s\u2019agit d\u2019un programme de sensibilisation con\u00e7u pour promouvoir la sant\u00e9 mentale et r\u00e9duire les pr\u00e9jug\u00e9s \u00e0 l\u2019\u00e9gard de la maladie mentale dans un contexte professionnel. Il fournit \u00e9galement des renseignements sur les mesures d\u2019adaptation au travail et les mesures qu\u2019il convient de prendre.</p>\n<p>Nous vous demandons d\u2019appuyer cette initiative en prenant le temps de suivre le cours L\u2019esprit au travail<sup>MC</sup> dans le cadre de nos efforts collectifs visant \u00e0 promouvoir la sant\u00e9 mentale au travail.</p>\n<p>Pour vous inscrire aux prochaines s\u00e9ances, veuillez communiquer avec les Programmes du mieux-\u00eatre en milieu de travail \u00e0 l\u2019adresse <a href=\"mailto:aafc.mentalhealth-santementale.aac@agr.gc.ca\">aafc.mentalhealth-santementale.aac@agr.gc.ca</a>.</p>\n<h2><strong>Prochaines s\u00e9ances pour les gestionnaires</strong></h2>\n<table cellspacing=\"0\" border=\"1\" width=\"700\">\n<tbody>\n<tr>\n<td style=\"width: 76.3pt;\">\n<p><strong>\u00a0Date</strong></p>\n</td>\n<td style=\"border-color: windowtext windowtext windowtext #000000; width: 6cm;\">\n<p><strong>\u00a0Heure</strong></p>\n</td>\n<td style=\"border-color: windowtext windowtext windowtext #000000; width: 155.9pt;\">\n<p><strong>\u00a0Lieu</strong></p>\n</td>\n<td style=\"border-color: windowtext windowtext windowtext #000000; width: 76.5pt;\">\n<p><strong>\u00a0Langue</strong></p>\n</td>\n</tr>\n<tr>\n<td style=\"border-color: #000000 windowtext windowtext; width: 76.3pt;\">\n<p>\u00a025 mai</p>\n</td>\n<td style=\"border-color: #000000 windowtext windowtext #000000; width: 6cm;\">\n<p>\u00a08 h 30 \u00e0 16 h 30 (HE)</p>\n</td>\n<td style=\"border-color: #000000 windowtext windowtext #000000; width: 155.9pt;\">\n<p>\u00a0Saint-Jean-sur-Richelieu/VC</p>\n</td>\n<td style=\"border-color: #000000 windowtext windowtext #000000; width: 76.5pt;\">\n<p>\u00a0Fran\u00e7ais</p>\n</td>\n</tr>\n</tbody>\n</table>\n<h2><strong>Prochaines s\u00e9ances pour les employ\u00e9s </strong></h2>\n<table cellspacing=\"0\" border=\"1\" width=\"700\">\n<tbody>\n<tr>\n<td style=\"width: 76.3pt;\">\n<p><strong>\u00a0Date</strong></p>\n</td>\n<td style=\"border-color: windowtext windowtext windowtext #000000; width: 6cm;\">\n<p><strong>\u00a0Heure</strong></p>\n</td>\n<td style=\"border-color: windowtext windowtext windowtext #000000; width: 155.9pt;\">\n<p><strong>\u00a0Lieu</strong></p>\n</td>\n<td style=\"border-color: windowtext windowtext windowtext #000000; width: 76.5pt;\">\n<p><strong>\u00a0Langue</strong></p>\n</td>\n</tr>\n<tr>\n<td style=\"border-color: #000000 windowtext windowtext; width: 76.3pt;\">\n<p>\u00a017 mai</p>\n</td>\n<td style=\"border-color: #000000 windowtext windowtext #000000; width: 6cm;\">\n<p>\u00a08 h 30 \u00e0 12 h (HE)</p>\n</td>\n<td style=\"border-color: #000000 windowtext windowtext #000000; width: 155.9pt;\">\n<p>\u00a0CACPA</p>\n</td>\n<td style=\"border-color: #000000 windowtext windowtext #000000; width: 76.5pt;\">\n<p>\u00a0Anglais</p>\n</td>\n</tr>\n</tbody>\n</table>\n<p>\u00a0</p>\n<p>Pour obtenir d\u2019autres pr\u00e9cisions\u00a0sur <a href=\"http://www.espritautravail.ca/lesprit-au-travail\">L\u2019esprit au travail<sup>MC</sup></a>, veuillez consulter le site Web.</p>\n<p>\u00a0</p>\n<p><img src=\"https://intranet.agr.gc.ca/resources/prod/news/images/HealthyWorkplace.png\" class=\"center-block\"></p>\n<p>\u00a0</p>\n\t\t"
    },
    "breadcrumb": {
        "en": "Reminder - Mental Health Training - Last Chance",
        "fr": "Rappel - Formation sur la sant\u00e9 mentale - Derni\u00e8re chance"
    },
    "news": {
        "date_posted": {
            "en": "2018-03-29",
            "fr": "2018-03-29"
        },
        "to": {
            "en": "All staff",
            "fr": "Tous les employ\u00e9s"
        },
        "by": {
            "en": "Human Resources, Corporate Management Branch",
            "fr": "Ressources humaines, Direction g\u00e9n\u00e9rale de la gestion int\u00e9gr\u00e9e"
        }
    }
}