{
    "dcr_id": "1522244891513",
    "lang": "en",
    "title": {
        "en": "This Week in The Harvest - Summerland and Agassiz Recognized for Outstanding Co-ops",
        "fr": "Au menu de La Moisson cette semaine - Les CRD de Summerland et d'Agassiz reconnus pour leur programme exceptionnel de stages COOP"
    },
    "modified": "2018-03-29 00:00:00.0",
    "issued": "2018-03-29 00:00:00.0",
    "type_name": "intra-intra/news-nouv",
    "node_id": "1279030006975",
    "layout_name": null,
    "dc_date_created": "2018-03-28",
    "breadcrumb_label": "",
    "meta": {
        "issued": {
            "en": "2018-03-29",
            "fr": "2018-03-29"
        },
        "modified": {
            "en": "2018-03-29",
            "fr": "2018-03-29"
        },
        "format": {
            "en": "gcformat",
            "fr": "gcformat"
        },
        "title": {
            "en": "This Week in The Harvest - Summerland and Agassiz Recognized for Outstanding Co-ops",
            "fr": "Au menu de La Moisson cette semaine - Les CRD de Summerland et d'Agassiz reconnus pour leur programme exceptionnel de stages COOP"
        },
        "subject": {
            "en": "communications",
            "fr": "communications"
        },
        "description": {
            "en": "In case you missed it, here's what's new in The Harvest this week.",
            "fr": "Au cas o\u00f9 vous l'auriez manqu\u00e9, voici le menu que la section La Moisson vous offre cette semaine."
        },
        "language": {
            "en": "eng",
            "fr": "fra"
        },
        "audience": {
            "en": "gcaudience",
            "fr": "gcaudience"
        },
        "creator": {
            "en": "Agriculture and Agri-Food Canada",
            "fr": "Agriculture et Agroalimentaire Canada"
        },
        "spatial": {
            "en": "gcregions",
            "fr": "gcregions"
        },
        "service": {
            "en": "AAFC_AgriSource",
            "fr": "AAC_AgriSource"
        },
        "accessRights": {
            "en": "3",
            "fr": "3"
        }
    },
    "body": {
        "en": "<br>\n<br>\n<p>In case you missed it, here\u2019s what\u2019s new in <a href=\"https://collab.agr.gc.ca/apps/harvest-moisson\">The Harvest</a> this week:</p>\n<p><strong>Feature story: </strong><a href=\"https://collab.agr.gc.ca/apps/harvest-moisson/\">Summerland and Agassiz Recognized for Outstanding Co-ops</a> \u2013 British Columbia\u2019s research and development centres significantly encourage and cultivate student success in the workplace. Work experiences provided for students can have a lasting impact on their future careers. </p>\n<p><strong>Quiz: </strong><a href=\"https://collab.agr.gc.ca/apps/harvest-moisson\">Approximately how many litres of sap are needed to make 1L of maple syrup?</a></p>\n<p><strong>Feature photo:</strong> <a href=\"https://collab.agr.gc.ca/apps/harvest-moisson/gallery/Lists/Posts/Post.aspx?ID=154\">Late Winter on Okanagan Lake</a>, By Robyn DeYoung, Science and Technology Branch, Summerland, BC.</p>\n<p><strong>Did you know?</strong> <a href=\"https://collab.agr.gc.ca/apps/harvest-moisson/Pages/DidYouKnow.aspx\">You could cross the country four times on the ethanol from a corn crop the size of a football field.</a></p>\n<p>You can get involved by posting a comment or \u201cliking\u201d an article. You can also check out what your colleagues are liking and saying.</p>\n<p>Should you have story ideas, scenic or artistic agriculture-related photos, or interesting facts, please share them with us by clicking on \u201cContribute\u201d in the top menu bar.</p>\n<p><img src=\"https://intranet.agr.gc.ca/resources/prod/news/images/HarvestCoopStudents.png\" class=\"center-block\" alt=\"Summerland RDC\u2019s 2017 Minor Use Pesticides Program Team.\"></p>\n\n\t\t",
        "fr": "<br>\n<br>\n<p>Au cas o\u00f9 vous l\u2019auriez manqu\u00e9, voici le menu que la section <a href=\"https://collab.agr.gc.ca/apps/harvest-moisson\">La Moisson</a> vous offre cette semaine :</p>\n<p><strong>Article vedette :</strong> <a href=\"https://collab.agr.gc.ca/apps/harvest-moisson/\">Les CRD de Summerland et d\u2019Agassiz reconnus pour leur programme exceptionnel de stages COOP</a><strong> </strong>\u2013 Les centres de recherche et de d\u00e9veloppement de la Colombie-Britannique encouragent et cultivent fortement la r\u00e9ussite des \u00e9tudiants en milieu de travail. L\u2019exp\u00e9rience que les \u00e9tudiants y acqui\u00e8rent peut avoir un effet durable sur leur future carri\u00e8re. </p>\n<p><strong>Sondage : </strong><a href=\"https://collab.agr.gc.ca/apps/harvest-moisson\">Environ combien de litres de s\u00e8ve faut-il pour produire un litre de sirop d\u2019\u00e9rable?</a></p>\n<p><strong>Photo vedette :</strong> <a href=\"https://collab.agr.gc.ca/apps/harvest-moisson/gallery/Lists/Posts/Post.aspx?ID=154\">Fin de l\u2019hiver sur le lac Okanagan</a>, Par<em> </em>Robyn DeYoung, Direction g\u00e9n\u00e9rale des sciences et de la technologie, Summerland (Colombie-Britannique).</p>\n<p><strong>Le saviez-vous?</strong> <a href=\"https://collab.agr.gc.ca/apps/harvest-moisson/Pages/DidYouKnow.aspx\">Vous pourriez traverser le pays quatre fois au moyen de l\u2019\u00e9thanol provenant d\u2019un champ de ma\u00efs de la taille d\u2019un terrain de football.</a></p>\n<p>Vous pouvez participer en affichant des commentaires ou en utilisant la fonction \u00ab J\u2019aime \u00bb ou \u00ab Partager \u00bb pour exprimer votre appr\u00e9ciation d\u2019un article. Vous pouvez aussi aller voir ce que vos coll\u00e8gues aiment et ont \u00e0 dire.</p>\n<p>Si vous avez des id\u00e9es d\u2019articles, des photos de paysages ou \u00e0 caract\u00e8re artistique li\u00e9es \u00e0 l\u2019agriculture ou encore des faits int\u00e9ressants, veuillez nous en faire part en cliquant sur \u00ab Collaborer \u00bb dans la barre de menu en haut de la page.</p>\n<p><img src=\"https://intranet.agr.gc.ca/resources/prod/news/images/HarvestCoopStudents.png\" class=\"center-block\" alt=\"\u00c9quipe du Programme des pesticides \u00e0 usage limit\u00e9 du CRD de Summerland en 2017.\"></p>\n\t\t"
    },
    "breadcrumb": {
        "en": "This Week in The Harvest - Summerland and Agassiz Recognized for Outstanding Co-ops",
        "fr": "Au menu de La Moisson cette semaine - Les CRD de Summerland et d'Agassiz reconnus pour leur..."
    },
    "news": {
        "date_posted": {
            "en": "2018-03-29",
            "fr": "2018-03-29"
        },
        "to": {
            "en": "All staff",
            "fr": "Tous les employ\u00e9s"
        },
        "by": {
            "en": "Corporate Communications, Public Affairs Branch",
            "fr": "Communications minist\u00e9rielles, Direction g\u00e9n\u00e9rale des affaires publiques"
        }
    }
}