{
    "dcr_id": "1522261415820",
    "lang": "en",
    "title": {
        "en": "Wear Pink on April 11",
        "fr": "Portez du rose le 11 avril"
    },
    "modified": "2018-04-04 00:00:00.0",
    "issued": "2018-04-03 00:00:00.0",
    "type_name": "intra-intra/news-nouv",
    "node_id": "1279030006975",
    "layout_name": null,
    "dc_date_created": "2018-03-28",
    "breadcrumb_label": "",
    "meta": {
        "issued": {
            "en": "2018-04-03",
            "fr": "2018-04-03"
        },
        "modified": {
            "en": "2018-04-04",
            "fr": "2018-04-05"
        },
        "format": {
            "en": "gcformat",
            "fr": "gcformat"
        },
        "title": {
            "en": "Wear Pink on April 11",
            "fr": "Portez du rose le 11 avril"
        },
        "subject": {
            "en": "communications",
            "fr": "communications"
        },
        "description": {
            "en": "On April 11, the International Day of Pink, communities unite in celebrating diversity and raising awareness against homophobia, transphobia and all forms of bullying.",
            "fr": "Le 11 avril, \u00e0 l'occasion de la Journ\u00e9e internationale du rose, les collectivit\u00e9s s'unissent pour c\u00e9l\u00e9brer la diversit\u00e9 et souligner l'importance de mettre fin \u00e0 l'homophobie, \u00e0 la transphobie et \u00e0 toutes les formes d'intimidation."
        },
        "language": {
            "en": "eng",
            "fr": "fra"
        },
        "audience": {
            "en": "gcaudience",
            "fr": "gcaudience"
        },
        "creator": {
            "en": "Agriculture and Agri-Food Canada",
            "fr": "Agriculture et Agroalimentaire Canada"
        },
        "spatial": {
            "en": "gcregions",
            "fr": "gcregions"
        },
        "service": {
            "en": "AAFC_AgriSource",
            "fr": "AAC_AgriSource"
        },
        "accessRights": {
            "en": "3",
            "fr": "3"
        }
    },
    "body": {
        "en": "<br>\n<br>\n<p>On April 11, the International Day of Pink, communities unite in celebrating diversity and raising awareness against homophobia, transphobia and all forms of bullying. The Gender and Sexual Diversity Inclusiveness Network (<abbr title=\"Gender and Sexual Diversity Inclusiveness Network\">GSDIN</abbr>) invites all AAFC staff to show their support and celebrate diversity by wearing pink at work.</p>\n<p>The day was inspired in 2007 by two Nova Scotia high school students who intervened when a fellow student was being bullied for wearing a pink shirt. They got their entire school to wear pink to stand together in solidarity and begin working to prevent homophobic and transphobic bullying. The campaign grew and in 2012 over 8 million people around the world participated in the International Day of Pink.</p>\n<h2>\n<strong>AAFC\u2019s \u201cDay of Pink\u201d Branch Challenge</strong></h2>\n<p>By wearing pink on Wednesday, April 11, you show more than your belief in celebrating diversity \u2013 you demonstrate your commitment to being open minded, to accepting differences, to learning more about those around you and to demonstrating respect.</p>\n<ol>\n<li>Grab some friends and colleagues who are showing off their pink clothing and snap your picture.</li>\n<li>Email a picture of your \u201cselfie\u201d to the <abbr title=\"Gender and Sexual Diversity Inclusiveness Network\">GSDIN</abbr> inbox at <a href=\"mailto:AAFC.GSDIN-RIDGS.AAC@agr.gc.ca\">AAFC.GSDIN-RIDGS.AAC@agr.gc.ca</a> <strong>by the end of the day April 12</strong>. Remember to include your branch name.</li>\n</ol>\n<p>You can sport anything PINK but it has to be visible to the eye! The branch with the greatest percentage of participation will win the challenge. To view the winning branch, please visit the <a href=\"https://collab.agr.gc.ca/co/lgbt-glbt/SitePages/Home.aspx\"><abbr title=\"Gender and Sexual Diversity Inclusiveness Network\">GSDIN</abbr> Knowledge Workspace page</a>. The winning branch will be featured in the network banner for the month of May, International Day against Homophobia and Transphobia.</p>\n<p><strong>Note:</strong> By submitting a photo, everyone in the picture agrees that it can be posted on the <abbr title=\"Gender and Sexual Diversity Inclusiveness Network\">GSDIN</abbr> Knowledge Workspace and may be used for other internal purposes. All photos will be posted on the <abbr title=\"Gender and Sexual Diversity Inclusiveness Network\">GSDIN</abbr> Knowledge Workspace page.</p>\n<h2><strong>Positive Space Initiative</strong></h2>\n<p>To learn more about how you can foster a workplace that is safe and inclusive to all individuals, including those who identify as part of the LGBTQ2+ community. Sign up for AAFC\u2019s <a href=\"https://collab.agr.gc.ca/co/lgbt-glbt/SitePages/Positive%20Space%20Initiative%20-%20Initative%20Espace%20positif.aspx\">Positive Space Training</a>.</p>\n<p>\u00a0</p>\n<p><img src=\"https://intranet.agr.gc.ca/resources/prod/news/images/DayofPink.png\" class=\"center-block\" alt=\"\"></p>\n\n\t\t",
        "fr": "<br>\n<br>\n<p>Le 11 avril, \u00e0 l\u2019occasion de la Journ\u00e9e internationale du rose, les collectivit\u00e9s s\u2019unissent pour c\u00e9l\u00e9brer la diversit\u00e9 et souligner l\u2019importance de mettre fin \u00e0 l\u2019homophobie, \u00e0 la transphobie et \u00e0 toutes les formes d\u2019intimidation. Le R\u00e9seau de l\u2019inclusivit\u00e9 et de la diversit\u00e9 des genres et de la sexualit\u00e9 (<abbr title=\"R\u00e9seau de l\u2019inclusivit\u00e9 et de la diversit\u00e9 des genres et de la sexualit\u00e9\">RIDGS</abbr>) invite tous les employ\u00e9s d\u2019AAC \u00e0 manifester leur soutien et \u00e0 c\u00e9l\u00e9brer la diversit\u00e9 en portant du rose au travail.</p>\n<p>Cette journ\u00e9e a \u00e9t\u00e9 lanc\u00e9e en 2007 par deux \u00e9l\u00e8ves du secondaire de la Nouvelle-\u00c9cosse, qui sont intervenus pour d\u00e9fendre un \u00e9l\u00e8ve victime d\u2019intimidation parce qu\u2019il portait un chandail rose. Ils ont invit\u00e9 l\u2019ensemble de l\u2019\u00e9cole \u00e0 porter du rose pour s\u2019unir dans la solidarit\u00e9 et commencer \u00e0 agir pour pr\u00e9venir l\u2019intimidation li\u00e9e \u00e0 l\u2019homophobie et \u00e0 la transphobie. La campagne a pris de l\u2019ampleur et en 2012, plus de\u00a0huit millions de personnes dans le monde ont particip\u00e9 \u00e0 la Journ\u00e9e internationale du rose.</p>\n<h2>D\u00e9fi Journ\u00e9e rose des directions g\u00e9n\u00e9rales </h2>\n<p>En portant du rose le mercredi 11 avril, vous faites plus qu\u2019afficher votre soutien \u00e0 l\u2019\u00e9gard de la diversit\u00e9 \u2013 vous affichez votre engagement \u00e0 faire preuve d\u2019ouverture, \u00e0 accepter les diff\u00e9rences, \u00e0 en apprendre davantage sur les gens qui vous entourent et \u00e0 faire preuve de respect.</p>\n<ol>\n<li>R\u00e9unissez quelques amis et coll\u00e8gues qui portent du rose et prenez-vous en photo.</li>\n<li>Envoyez votre \u00ab autoportrait \u00bb \u00e0 la bo\u00eete de r\u00e9ception du <abbr title=\"R\u00e9seau de l\u2019inclusivit\u00e9 et de la diversit\u00e9 des genres et de la sexualit\u00e9\">RIDGS</abbr> \u00e0 <a href=\"mailto:AAFC.GSDIN-RIDGS.AAC@agr.gc.ca\">AAFC.GSDIN-RIDGS.AAC@agr.gc.ca</a> <strong>d\u2019ici la fin de la journ\u00e9e du 12 avril</strong>. N\u2019oubliez pas d\u2019inclure le nom de votre direction g\u00e9n\u00e9rale.</li>\n</ol>\n<p>Vous pouvez porter n\u2019importe quoi de ROSE, tant que ce soit visible \u00e0 l\u2019\u0153il nu! La direction g\u00e9n\u00e9rale qui affichera le plus haut taux de participation remportera le d\u00e9fi. Pour voir qui a gagn\u00e9, consultez le site du <a href=\"https://collab.agr.gc.ca/co/lgbt-glbt/SitePages/Home.aspx\"><abbr title=\"R\u00e9seau de l\u2019inclusivit\u00e9 et de la diversit\u00e9 des genres et de la sexualit\u00e9\">RIDGS</abbr> dans l\u2019Espace de travail du savoir</a>. Le nom de la direction g\u00e9n\u00e9rale qui aura gagn\u00e9 le d\u00e9fi sera affich\u00e9 dans la banni\u00e8re du R\u00e9seau pendant le mois de mai pour c\u00e9l\u00e9brer la Journ\u00e9e internationale contre l'homophobie et la transphobie.</p>\n<p><strong>Remarque :</strong> En soumettant une photo, toutes les personnes qui y apparaissent acceptent que la photo puisse \u00eatre affich\u00e9e\u00a0sur le site du <abbr title=\"R\u00e9seau de l\u2019inclusivit\u00e9 et de la diversit\u00e9 des genres et de la sexualit\u00e9\">RIDGS</abbr> dans l\u2019Espace de travail du savoir et qu\u2019elle puisse \u00eatre utilis\u00e9e \u00e0 d\u2019autres fins internes. Toutes les photos seront publi\u00e9es sur le site du <abbr title=\"R\u00e9seau de l\u2019inclusivit\u00e9 et de la diversit\u00e9 des genres et de la sexualit\u00e9\">RIDGS</abbr> dans l\u2019Espace de travail du savoir.</p>\n<h2>Initiative de l\u2019Espace positif </h2>\n<p>Pour en apprendre davantage sur la fa\u00e7on de favoriser un milieu de travail s\u00e9curitaire et inclusif pour tous les employ\u00e9s, y compris ceux qui font partie de la communaut\u00e9 LGBTQ2+. Inscrivez-vous \u00e0 la <a href=\"https://collab.agr.gc.ca/co/lgbt-glbt/SitePages/Positive%20Space%20Initiative%20-%20Initative%20Espace%20positif.aspx\">formation sur l\u2019Espace positif</a> d\u2019AAC.</p>\n<p>\u00a0</p>\n<p><img src=\"https://intranet.agr.gc.ca/resources/prod/news/images/DayofPink.png\" class=\"center-block\"></p>\n\t\t"
    },
    "breadcrumb": {
        "en": "Wear Pink on April 11",
        "fr": "Portez du rose le 11 avril"
    },
    "news": {
        "date_posted": {
            "en": "2018-04-03",
            "fr": "2018-04-03"
        },
        "to": {
            "en": "All staff",
            "fr": "Tous les employ\u00e9s"
        },
        "by": {
            "en": "Gender and Sexual Diversity Inclusiveness Network",
            "fr": "R\u00e9seau de l'inclusivit\u00e9 et de la diversit\u00e9 des genres et de la sexualit\u00e9"
        }
    }
}