{
    "dcr_id": "1522778849604",
    "lang": "en",
    "title": {
        "en": "Expansion of Coverage for Contraceptives Under the Public Service Health Care Plan",
        "fr": "Protection suppl\u00e9mentaire pour les contraceptifs en vertu du R\u00e9gime de soins de sant\u00e9 de la fonction publique"
    },
    "modified": "2018-04-04 00:00:00.0",
    "issued": "2018-04-04 00:00:00.0",
    "type_name": "intra-intra/news-nouv",
    "node_id": "1279030006975",
    "layout_name": null,
    "dc_date_created": "2018-04-03",
    "breadcrumb_label": "",
    "meta": {
        "issued": {
            "en": "2018-04-04",
            "fr": "2018-04-04"
        },
        "modified": {
            "en": "2018-04-04",
            "fr": "2018-04-04"
        },
        "format": {
            "en": "gcformat",
            "fr": "gcformat"
        },
        "title": {
            "en": "Expansion of Coverage for Contraceptives Under the Public Service Health Care Plan",
            "fr": "Protection suppl\u00e9mentaire pour les contraceptifs en vertu du R\u00e9gime de soins de sant\u00e9 de la fonction publique"
        },
        "subject": {
            "en": "communications",
            "fr": "communications"
        },
        "description": {
            "en": "As of April 1, 2018, Public Service Health Care Plan members and their eligible dependants will be covered for a wider range of contraceptive options.",
            "fr": "\u00c0 compter du 1<sup>er</sup> avril 2018, les participants au R\u00e9gime de soins de sant\u00e9 de la fonction publique et leurs personnes \u00e0 charge admissibles seront couverts pour un \u00e9ventail \u00e9largi d'options en mati\u00e8re de contraceptifs."
        },
        "language": {
            "en": "eng",
            "fr": "fra"
        },
        "audience": {
            "en": "gcaudience",
            "fr": "gcaudience"
        },
        "creator": {
            "en": "Agriculture and Agri-Food Canada",
            "fr": "Agriculture et Agroalimentaire Canada"
        },
        "spatial": {
            "en": "gcregions",
            "fr": "gcregions"
        },
        "service": {
            "en": "AAFC_AgriSource",
            "fr": "AAC_AgriSource"
        },
        "accessRights": {
            "en": "3",
            "fr": "3"
        }
    },
    "body": {
        "en": "<br>\n<br>\n<p>As of April 1, 2018, Public Service Health Care Plan members and their eligible dependants will be covered for a wider range of contraceptive options. In addition to the contraceptive pill, coverage under the Plan will expand to include non-oral contraceptives, such as patches, vaginal rings, contraceptive implants (intrauterine and arm) and intrauterine devices (<abbr title=\"intrauterine device\">IUD</abbr>s) including copper <abbr title=\"intrauterine device\">IUD</abbr>s.</p>\n<p>Non-oral contraceptives will be reimbursed at 80% of the reasonable and customary amount, provided they are:</p>\n<ul>\n<li>prescribed by a physician or other qualified health professional, if the applicable provincial/territorial legislation permits them to prescribe the products</li>\n<li>dispensed by a pharmacist or a physician</li>\n<li>approved by Health Canada</li>\n<li>purchased on or after April 1, 2018</li>\n</ul>\n<p>Please note that contraceptives that are barrier methods, such as male or female condoms, diaphragms and cervical caps, as well as spermicide products such as foams and jellies, are not considered eligible for reimbursement under the Plan.</p>\n<p>Learn more about the <a href=\"https://www.canada.ca/en/treasury-board-secretariat/topics/benefit-plans/plans/health-care-plan.html\">Public Service Health Care Plan</a>\u00a0on the Treasury Board Secretariat's website.</p>\n\n\t\t",
        "fr": "<br>\n<br>\n<p>\u00c0 compter du 1<sup>er</sup> avril 2018, les participants au R\u00e9gime de soins de sant\u00e9 de la fonction publique et leurs personnes \u00e0 charge admissibles seront couverts pour un \u00e9ventail \u00e9largi d\u2019options en mati\u00e8re de contraceptifs. En plus de la pilule contraceptive, la nouvelle protection inclura les contraceptifs non oraux, tels que les timbres, les anneaux vaginaux, les implants contraceptifs (intra-ut\u00e9rins et au bras) et les dispositifs intra-ut\u00e9rins (<abbr title=\"dispositifs intra-ut\u00e9rins\">DIU</abbr>), y compris les <abbr title=\"dispositifs intra-ut\u00e9rins\">DIU</abbr> au cuivre.</p>\n<p>Les contraceptifs non oraux seront rembours\u00e9s \u00e0 80 % des frais habituels et raisonnables, \u00e0 condition qu\u2019ils soient :</p>\n<ul>\n<li>prescrits par un m\u00e9decin ou par un autre professionnel de la sant\u00e9 qualifi\u00e9, si les lois provinciales/territoriales applicables les autorisent \u00e0 prescrire les produits;</li>\n<li>fournis par un pharmacien ou un m\u00e9decin;</li>\n<li>approuv\u00e9s par Sant\u00e9 Canada;</li>\n<li>achet\u00e9s le 1<sup>er</sup> avril 2018 ou apr\u00e8s cette date.</li>\n</ul>\n<p>Veuillez noter que les m\u00e9thodes de contraception locale, comme les condoms f\u00e9minins ou masculins, les diaphragmes et les capes cervicales ainsi que les produits spermicides, comme les mousses et les gels, ne sont pas admissibles pour un remboursement en vertu du R\u00e9gime.</p>\n<p>Visitez le site Web de\u00a0Secr\u00e9tariat du Conseil du Tr\u00e9sor\u00a0pour en apprendre davantage sur le <a href=\"http://www.canada.ca/fr/secretariat-conseil-tresor/sujets/regimes-assurance/regimes/regime-soins-sante.html\">R\u00e9gime de soins de sant\u00e9 de la fonction publique</a>.</p>\n\t\t"
    },
    "breadcrumb": {
        "en": "Expansion of Coverage for Contraceptives Under the Public Service Health Care Plan",
        "fr": "Protection suppl\u00e9mentaire pour les contraceptifs en vertu du R\u00e9gime de soins de sant\u00e9 de la fonction publique"
    },
    "news": {
        "date_posted": {
            "en": "2018-04-03",
            "fr": "2018-04-03"
        },
        "to": {
            "en": "All staff",
            "fr": "Tous les employ\u00e9s"
        },
        "by": {
            "en": "Treasury Board Secretariat",
            "fr": "Secr\u00e9tariat du Conseil du Tr\u00e9sor"
        }
    }
}