{
    "dcr_id": "1522774321831",
    "lang": "en",
    "title": {
        "en": "Reminder - Is It Spring Yet? Send Us Your Photos",
        "fr": "Rappel - Le printemps est-il enfin arriv\u00e9? Envoyez-nous vos photos"
    },
    "modified": "2018-05-16 00:00:00.0",
    "issued": "2018-04-05 00:00:00.0",
    "type_name": "intra-intra/news-nouv",
    "node_id": "1279030006975",
    "layout_name": null,
    "dc_date_created": "2018-04-03",
    "breadcrumb_label": "",
    "meta": {
        "issued": {
            "en": "2018-04-05",
            "fr": "2018-04-05"
        },
        "modified": {
            "en": "2018-05-16",
            "fr": "2018-05-16"
        },
        "format": {
            "en": "gcformat",
            "fr": "gcformat"
        },
        "title": {
            "en": "Reminder - Is It Spring Yet? Send Us Your Photos",
            "fr": "Rappel - Le printemps est-il enfin arriv\u00e9? Envoyez-nous vos photos"
        },
        "subject": {
            "en": "communications",
            "fr": "communications"
        },
        "description": {
            "en": "Have you seen the first signs of spring where you live and work?",
            "fr": "Avez-vous vu les premiers signes du printemps \u00e0 la maison ou au travail?"
        },
        "language": {
            "en": "eng",
            "fr": "fra"
        },
        "audience": {
            "en": "gcaudience",
            "fr": "gcaudience"
        },
        "creator": {
            "en": "Agriculture and Agri-Food Canada",
            "fr": "Agriculture et Agroalimentaire Canada"
        },
        "spatial": {
            "en": "gcregions",
            "fr": "gcregions"
        },
        "service": {
            "en": "AAFC_AgriSource",
            "fr": "AAC_AgriSource"
        },
        "accessRights": {
            "en": "3",
            "fr": "3"
        }
    },
    "body": {
        "en": "<br>\n<br>\n<p>Have you seen the first signs of spring where you live and work? We are looking for photographers and aspiring photographers within the Department to send us photos of agricultural spring scenes.</p>\n<p>Submitted pictures could make an appearance in one of our internal communication products, including <a href=\"http://collab.agr.gc.ca/apps/harvest-moisson\">The Harvest</a>, where photos can be liked, shared and commented on. We hope to see photos from every region for a full look at\u00a0spring across Canada.</p>\n<p>Photographs should be of scenes and should not include people. Please submit your photos by clicking \u201cContribute\u201d in the top menu bar on <a href=\"https://collab.agr.gc.ca/apps/harvest-moisson\">The Harvest</a> site and suggest a title, provide a brief description of the image, and the place and date the photo was taken. You can also send your photos and descriptions by email to <a href=\"mailto:AAFC.TheHarvest-LaMoisson.AAC@agr.gc.ca\">AAFC.TheHarvest-LaMoisson.AAC@agr.gc.ca</a>.<br>\n<br>\nThanks to all those who have contributed photos previously. Check out the <a href=\"http://collab.agr.gc.ca/apps/harvest-moisson/Pages/photos.aspx\">galleries</a> in The Harvest and see the amazing photographic talent we have here at AAFC! And while you are visiting The Harvest, take the time to read the <a href=\"http://collab.agr.gc.ca/apps/harvest-moisson/Pages/articles.aspx\">inspiring articles</a> about your colleagues!</p>\n<p>\u00a0</p>\n<p><img src=\"https://intranet.agr.gc.ca/resources/prod/news/images/HarvestRabbit.png\" class=\"center-block\" alt=\"A rabbit\"></p>\n\n\t\t",
        "fr": "<br>\n<br>\n<p>Avez-vous vu les premiers signes du printemps \u00e0 la maison ou au travail? Nous invitons les adeptes de la photographie au Minist\u00e8re, qu'ils soient chevronn\u00e9s ou d\u00e9butants, \u00e0 nous envoyer des photos de paysages agricoles printaniers.</p>\n<p>Les photos soumises pourraient \u00eatre affich\u00e9es dans un de nos produits de communication interne, dont <a href=\"http://collab.agr.gc.ca/apps/harvest-moisson/\">La Moisson</a>, o\u00f9 vous pouvez accorder la mention \u00ab J'aime \u00bb \u00e0 vos photos favorites et laisser des commentaires. Nous esp\u00e9rons recevoir des photos d'un oc\u00e9an \u00e0 l'autre pour montrer le printemps canadien dans toutes ses nuances.</p>\n<p>Les photos doivent pr\u00e9senter une sc\u00e8ne agricole, mais ne doivent pas mettre en sc\u00e8ne de personnes. Veuillez envoyer vos photos en cliquant sur \u00ab Collaborer \u00bb dans la barre de menus du haut du site de <a href=\"https://collab.agr.gc.ca/apps/harvest-moisson\">La Moisson</a>. Veuillez sugg\u00e9rer un titre, fournir une br\u00e8ve description et indiquer la date et l'endroit o\u00f9 la photo a \u00e9t\u00e9 prise. Vous pouvez aussi envoyer vos photos et descriptions \u00e0 <a href=\"mailto:AAFC.TheHarvest-LaMoisson.AAC@agr.gc.ca\">AAFC.TheHarvest-LaMoisson.AAC@agr.gc.ca</a>.</p>\n<p>Nous remercions tous ceux qui nous ont envoy\u00e9 des photos dans le pass\u00e9. Allez jeter un coup d'\u0153il aux <a href=\"http://collab.agr.gc.ca/apps/harvest-moisson/Pages/photos.aspx\">galeries</a> de La Moisson et voyez l'\u00e9norme talent que nous avons ici \u00e0 AAC! Et pendant que vous y \u00eates, prenez le temps de lire les <a href=\"http://collab.agr.gc.ca/apps/harvest-moisson/Pages/articles.aspx\">articles inspirants</a> sur vos coll\u00e8gues!</p>\n<p>\u00a0</p>\n<p><img src=\"https://intranet.agr.gc.ca/resources/prod/news/images/HarvestRabbit.png\" class=\"center-block\" alt=\"Un lapin\"></p>\n\t\t"
    },
    "breadcrumb": {
        "en": "Reminder - Is It Spring Yet? Send Us Your Photos",
        "fr": "Rappel - Le printemps est-il enfin arriv\u00e9? Envoyez-nous vos photos"
    },
    "news": {
        "date_posted": {
            "en": "2018-04-05",
            "fr": "2018-04-05"
        },
        "to": {
            "en": "All staff",
            "fr": "Tous les employ\u00e9s"
        },
        "by": {
            "en": "Corporate Communications, Public Affairs Branch",
            "fr": "Communications minist\u00e9rielles, Direction g\u00e9n\u00e9rale des affaires publiques"
        }
    }
}