{
    "dcr_id": "1523380187048",
    "lang": "en",
    "title": {
        "en": "New to the Canadian Agriculture Library Collection",
        "fr": "Du nouveau dans la collection de la Biblioth\u00e8que canadienne de l'agriculture"
    },
    "modified": "2018-04-12 00:00:00.0",
    "issued": "2018-04-12 00:00:00.0",
    "type_name": "intra-intra/news-nouv",
    "node_id": "1279030006975",
    "layout_name": null,
    "dc_date_created": "2018-04-10",
    "breadcrumb_label": "",
    "meta": {
        "issued": {
            "en": "2018-04-12",
            "fr": "2018-04-12"
        },
        "modified": {
            "en": "2018-04-12",
            "fr": "2018-04-12"
        },
        "format": {
            "en": "gcformat",
            "fr": "gcformat"
        },
        "title": {
            "en": "New to the Canadian Agriculture Library Collection",
            "fr": "Du nouveau dans la collection de la Biblioth\u00e8que canadienne de l'agriculture"
        },
        "subject": {
            "en": "communications",
            "fr": "communications"
        },
        "description": {
            "en": "Check out the April List of new acquisitions!",
            "fr": "Voici la liste des ajouts du mois d'avril."
        },
        "language": {
            "en": "eng",
            "fr": "fra"
        },
        "audience": {
            "en": "gcaudience",
            "fr": "gcaudience"
        },
        "creator": {
            "en": "Agriculture and Agri-Food Canada",
            "fr": "Agriculture et Agroalimentaire Canada"
        },
        "spatial": {
            "en": "gcregions",
            "fr": "gcregions"
        },
        "service": {
            "en": "AAFC_AgriSource",
            "fr": "AAC_AgriSource"
        },
        "accessRights": {
            "en": "3",
            "fr": "3"
        }
    },
    "body": {
        "en": "<br>\n<br>\n<p>The Canadian Agriculture Library (<abbr title=\"Canadian Agriculture Library\">CAL</abbr>) compiles a list of new items added to the collection every month.</p>\n<p>The list includes books, eJournals, eBooks, technical reports, government publications, and more. Check out the <a href=\"https://collab.agr.gc.ca/co/kis-sis/_layouts/15/DocIdRedir.aspx?ID=AGR-6655637\"><strong>April list</strong></a> of new acquisitions!</p>\n<p>You can access the electronic content from your desktop by clicking on links found in the list, or request to borrow the physical item.</p>\n<p>For more information, contact <abbr title=\"Canadian Agriculture Library\">CAL</abbr> at <a href=\"mailto:cal-bca-ref@agr.gc.ca\">cal-bca-ref@agr.gc.ca</a>.</p>\n<p><img src=\"https://intranet.agr.gc.ca/resources/prod/news/images/CALbanner-EN.png\" class=\"center-block\"></p>\n\n\t\t",
        "fr": "<br>\n<br>\n<p>La Biblioth\u00e8que canadienne de l\u2019agriculture (<abbr title=\"Biblioth\u00e8que canadienne de l\u2019agriculture\">BCA</abbr>) compile mensuellement une liste de nouveaux documents ajout\u00e9s \u00e0 la collection.</p>\n<p>La liste comprend entre autres des livres, des revues \u00e9lectroniques, des livres \u00e9lectroniques, des rapports techniques et des publications gouvernementales. Voici la <a href=\"https://collab.agr.gc.ca/co/kis-sis/_layouts/15/DocIdRedir.aspx?ID=AGR-6655637\"><strong>liste des ajouts du mois d\u2019avril</strong></a><strong>.</strong></p>\n<p>Vous pouvez consulter le contenu \u00e9lectronique \u00e0 partir de votre ordinateur en cliquant sur le lien du document d\u00e9sir\u00e9 ou encore faire une demande d'emprunt du document imprim\u00e9.</p>\n<p>Pour plus de d\u00e9tails, veuillez communiquer avec la <abbr title=\"Biblioth\u00e8que canadienne de l\u2019agriculture\">BCA</abbr> \u00e0 <a href=\"mailto:cal-bca-ref@agr.gc.ca\">cal-bca-ref@agr.gc.ca</a>.</p>\n<p><img src=\"https://intranet.agr.gc.ca/resources/prod/news/images/CALbanniere-FR.png\" class=\"center-block\"></p>\n\t\t"
    },
    "breadcrumb": {
        "en": "New to the Canadian Agriculture Library Collection",
        "fr": "Du nouveau dans la collection de la Biblioth\u00e8que canadienne de l\u2019agriculture"
    },
    "news": {
        "date_posted": {
            "en": "2018-04-12",
            "fr": "2018-04-12"
        },
        "to": {
            "en": "All staff",
            "fr": "Tous les employ\u00e9s"
        },
        "by": {
            "en": "Canadian Agriculture Library",
            "fr": "Biblioth\u00e8que canadienne de l'agriculture"
        }
    }
}