{
    "dcr_id": "1523977035244",
    "lang": "en",
    "title": {
        "en": "Commerce Officer/Team Lead",
        "fr": "Agent(e) de commerce/ Chef d\u2019\u00e9quipe"
    },
    "modified": "2018-04-20 00:00:00.0",
    "issued": "2018-04-20 00:00:00.0",
    "type_name": "intra-intra/empl-empl",
    "node_id": "1279029955397",
    "layout_name": null,
    "dc_date_created": "2018-04-17",
    "breadcrumb_label": "Commerce Officer",
    "meta": {
        "issued": {
            "en": "2018-04-20",
            "fr": "2018-04-20"
        },
        "modified": {
            "en": "2018-04-20",
            "fr": "2018-04-20"
        },
        "format": {
            "en": "gcformat",
            "fr": "gcformat"
        },
        "title": {
            "en": "Commerce Officer/Team Lead",
            "fr": "Agent(e) de commerce/ Chef d\u2019\u00e9quipe"
        },
        "subject": {
            "en": "staffing",
            "fr": "dotation en personnel"
        },
        "language": {
            "en": "eng",
            "fr": "fra"
        },
        "audience": {
            "en": "gcaudience",
            "fr": "gcaudience"
        },
        "type": {
            "en": "notice",
            "fr": "avis"
        },
        "creator": {
            "en": "Agriculture and Agri-Food Canada",
            "fr": "Agriculture et Agroalimentaire Canada"
        },
        "spatial": {
            "en": "gcregions",
            "fr": "gcregions"
        },
        "service": {
            "en": "AAFC_AgriSource",
            "fr": "AAC_AgriSource"
        },
        "accessRights": {
            "en": "3",
            "fr": "3"
        }
    },
    "body": {
        "en": "\n<div>The Dairy Farm Investment Program aims at supporting the competitiveness of the dairy sector. A budget of $250 million over five years has been announced for the Program that will provide targeted contributions to help Canadian dairy farmers update farm technologies and ystems and improve productivity through upgrades to their equipment. This could include the adoption of robotic milkers, automated feeding systems, and herd management tools.\n</div>\n<div>\n<div><br>\n<strong><em>Duties</em></strong></div>\n</div>\n<div>We are currently looking for\u00a0Commerce Officer/Team Lead\u00a0(CO 02 or equivalent) to implement and lead the delivery of the Dairy Farm Investment Program. Duties will include, but not limited to, analyzing application for financial assistance, making recommendations to management for funding and program improvement, lead a team of junior officers, liaising and negotiating with stakeholders.<br>\n<br>\nTo excel in this position, you must be: highly motivated, able to work effectively in a team environment, a quick learner, client focused and able to thrive in a fast paced, high volume environment.<br>\n<br>\n<br>\n<strong>Essential Qualifications</strong></div>\n<div><em><em>Applicants must clearly demonstrate on their application that they meet all of the following essential qualifications and are within the area of selection. Failure to do so may result in the rejection of your application.</em><br><br><em>Candidates must clearly demonstrate IN THEIR COVER LETTER how they meet the education and experience factors listed in the essential qualifications by using concrete examples. Candidates must use each education and experience factors as a header and then write one of two paragraphs per element demonstrating how they meet them by giving concrete examples. Resumes may be used as a secondary source to validate the experience described in the cover letter. FAILURE TO CLEARLY DEMONSTRATE HOW YOU MEET THE SCREENING CRITERIA WILL RESULT IN THE REJECTION OF YOUR APPLICATION. CANDIDATES WILL NOT BE SOLICITED FOR INCOMPLETE OR POSSIBLE MISSING INFORMATION.</em></em></div>\n<div><strong><em>\u00a0</em></strong></div>\n<div><strong><em>Official Language Proficiency</em></strong></div>\n<div><em>Various language requirements:</em></div>\n<ul>\n<li><em>English Essential</em></li>\n<li><em>Bilingual Imperative BBB/BBB</em></li>\n<li><em>Bilingual Imperative CBC/CBC</em></li>\n<li><em>Bilingual Imperative CCC/CCC</em></li>\n</ul>\n<div><br>\nGraduation with a degree from a recognized\u00a0post-secondary institution\u00a0in a relevant discipline and/or an acceptable combination of education, training and experience.<br>\n<br>\nExperience in providing advice and recommendations to management through correspondence, briefings, and/or reports in support of policy, program, project and/or issue management.<br>\n<br>\nExperience in developing, implementing or delivering government grants and contributions programs<br>\n<br>\nKnowledge of policies, directives and guidelines related to the delivery of grants and contribution programs.</div>\n<div><br>\nWriting Skills<br>\nStrategic Thinking<br>\nInitiative<br>\nAdaptability<br>\nTeamwork<br>\nClient Focus</div>\n<div><br>\n<strong>Asset Qualifications</strong></div>\n<div>Experience in financial and business case analysis.<br>\nExperience in negotiating, coordinating and managing contracts, funding agreements, projects or partnerships between government departments or between government and private-sector organizations.<br>\nExperience in supervising employees' work.</div>\n<div><br>\n<strong>Operational Requirements</strong></div>\n<div>Willingness to work overtime.<br>\nWillingness to travel.</div>\n<div><br>\n<strong>Organizational Needs</strong></div>\n<div>In support of achieving a diversified workforce, consideration may be given to candidates self-identifying as belonging to one of the following Employment Equity groups: Aboriginal peoples, Persons with a Disability; Visible Minorities, Women.</div>\n<div><br>\n<strong>Conditions of Employment</strong></div>\n<div>Reliability Status security clearance OR Secret Security depending on the specific position being staffed.</div>\n<div><br>\n<strong>Applications:</strong></div>\n<div>Interested AAFC employees located in the National Capital Region\u00a0are encouraged to forward their resume and cover letter (2 pages maximum) to Stephen Desroches at <a href=\"mailto:stephendesroches@agr.gc.ca\">stephen.desroches@agr.gc.ca</a>.<br>\n<br>\nResumes must clearly identify:</div>\n<ul>\n<li>Your tenure (e.g. term or indeterminate)</li>\n<li>Your substantive group and level</li>\n</ul>\n<div><br>\n<strong>Notes:</strong></div>\n<ul>\n<li>This opportunity may be for a 12 month assignment (with the possibility of an extension) or deployment.</li>\n<li>A pool of qualified candidates may be established and may be used to staff similar positions on an assignment or deployment basis.</li>\n<li>Deployments cannot change the tenure of an employee (i.e: term to indeterminate) or constitute a promotion.</li>\n<li>Candidates must have manager\u2019s approval prior to applying.</li>\n<li>Candidates may be assessed through an interview.</li>\n<li>Reference checks may be sought.</li>\n<li>Communication for this process will be sent via email.</li>\n<li>General enquiries can be directed to Stephen Desroches at <a href=\"mailto:stephendesroches@agr.gc.ca\">stephend.esroches@agr.gc.ca</a></li>\n</ul>\n<div>\u00a0</div>\n<div>\u00a0</div>\n",
        "fr": "\n<p>Le Programme d\u2019investissement dans les fermes laiti\u00e8res vise \u00e0 favoriser la comp\u00e9titivit\u00e9 de l\u2019industrie laiti\u00e8re. Le budget de 250 millions de dollars r\u00e9parti sur cinq ans annonc\u00e9 pour le programme permettra de verser des contributions cibl\u00e9es pour aider les producteurs laitiers canadiens \u00e0 actualiser les technologies et les syst\u00e8mes agricoles et \u00e0 accro\u00eetre leur productivit\u00e9 gr\u00e2ce \u00e0 la modernisation de leur \u00e9quipement, notamment par l\u2019adoption de syst\u00e8mes de traite et d\u2019alimentation automatis\u00e9s et l\u2019utilisation d\u2019outils de gestion des troupeaux.</p>\n<p><em>\u00a0<br>\n<strong><em>Fonctions</em></strong></em></p>\n<p>Nous sommes \u00e0 la recherche d\u2019un(e) agent(e)\u00a0de commerche/chef d'\u00e9quipe\u00a0(CO-02 ou l\u2019\u00e9quivalent) pour \u00e9laborer, mettre en \u0153uvre et diriger le Programme d\u2019investissement dans les fermes laiti\u00e8res. Les fonctions du poste consistent, entre autres, \u00e0 analyser des demandes d\u2019aide financi\u00e8re, \u00e0 faire des recommandations \u00e0 la direction en mati\u00e8re de financement et l'am\u00e9lioration des programmes, diriger une \u00e9quipe d'officiers subalternes ainsi qu\u2019\u00e0 assurer la liaison avec les intervenants et \u00e0 n\u00e9gocier avec eux.</p>\n<p>Pour exceller dans ce poste, vous devez \u00eatre tr\u00e8s motiv\u00e9, capable de travailler efficacement en \u00e9quipe, apprendre rapidement, \u00eatre ax\u00e9 sur le service \u00e0 la client\u00e8le et \u00eatre \u00e0 l\u2019aise dans un environnement o\u00f9 les activit\u00e9s se d\u00e9roulent \u00e0 un rythme rapide et o\u00f9 il faut traiter un grand nombre de demandes.</p>\n<p>\u00a0</p>\n<p><strong>Qualifications essentielles</strong></p>\n<p><em>Les candidats doivent d\u00e9montrer clairement dans leur demande qu\u2019ils satisfont \u00e0 toutes les qualifications essentielles suivantes et qu\u2019ils sont dans la zone de s\u00e9lection. Le d\u00e9faut de le faire peut entra\u00eener le rejet de leur demande.<br><br><em>Les candidats doivent d\u00e9montrer clairement DANS LEUR LETTRE DE PR\u00c9SENTATION qu\u2019ils r\u00e9pondent aux crit\u00e8res relatifs aux \u00e9tudes et \u00e0 l\u2019exp\u00e9rience \u00e9num\u00e9r\u00e9s sous les qualifications essentielles en donnant des exemples concrets. Les candidats doivent r\u00e9diger un ou deux paragraphes pour chacun des crit\u00e8res relatifs aux \u00e9tudes et \u00e0 l\u2019exp\u00e9rience (le crit\u00e8re \u00e9tant utilis\u00e9 comme titre de rubrique) afin de d\u00e9montrer qu\u2019ils y r\u00e9pondent en donnant des exemples concrets. Le curriculum vitae pourrait \u00eatre utilis\u00e9 comme source secondaire d\u2019information pour valider l\u2019exp\u00e9rience d\u00e9crite dans la lettre de pr\u00e9sentation. LES CANDIDATS QUI N\u2019AURONS PAS CLAIREMENT D\u00c9MONTR\u00c9 QU\u2019ILS R\u00c9PONDENT AUX CRIT\u00c8RES DE PR\u00c9S\u00c9LECTION VERRONT LEUR CANDIDATURE REJET\u00c9E. NOUS NE COMMUNIQUERONS.</em></em></p>\n<p><strong><em>Comp\u00e9tence dans les langues officielles</em></strong></p>\n<p><em>Exigences linguistiques vari\u00e9es :</em></p>\n<ul>\n<li><em>Anglais Essentielle</em></li>\n<li><em>Bilingue imp\u00e9ratif BBB/BBB</em></li>\n<li><em>Bilingue imp\u00e9ratif CBC/CBC</em></li>\n<li><em>Bilingue imp\u00e9ratif CCC/CCC</em></li>\n</ul>\n<p>\nUn grade d'un \u00e9tablissement d'enseignement postsecondaire reconnu\u00a0dans un domaine pertinent et/ou agencement acceptable d'\u00e9tudes, de formation et d'exp\u00e9rience.</p>\n<p>Exp\u00e9rience de la formulation de conseils et de recommandations \u00e0 l'intention de la direction dans des lettres, des documents d'information et/ou des rapports \u00e0 l'appui de la gestion des politiques, des programmes, des projets et/ou de la gestion d\u2019enjeux.<br>\n<br>\nExp\u00e9rience de la conception, de la mise en oeuvre ou de l'ex\u00e9cution de programmes de subventions et de contributions</p>\n<p>Connaissance des politiques, des directives et des lignes directrices li\u00e9es \u00e0 la mise en oeuvre de programmes de subventions et de contributions.</p>\n<p><br>\nAptitude \u00e0 la r\u00e9daction<br>\nR\u00e9flexion strat\u00e9gique<br>\nInitiative<br>\nFacult\u00e9 d'adaptation<br>\nEsprit d'\u00e9quipe<br>\nSouci du service \u00e0 la client\u00e8le</p>\n<p><br>\n<strong>Qualification constituant un atout</strong></p>\n<p>Exp\u00e9rience de la r\u00e9alisation d'analyses financi\u00e8res et d'analyses de rentabilisation.<br>\nExp\u00e9rience de la n\u00e9gociation, de la coordination et de la gestion de contrats, d'accords de financement, de projets ou de partenariats avec d'autres minist\u00e8res ou avec des organisations du secteur priv\u00e9.<br>\nExp\u00e9rience dans la supervision du travail des employ\u00e9s.</p>\n<p><br>\n<strong>Exigences op\u00e9rationnelles</strong></p>\n<p>Consentir \u00e0 faire des heures suppl\u00e9mentaires.<br>\nConsentir \u00e0 voyager.</p>\n<p><br>\n<strong>Besoins de l\u2019organisation</strong></p>\n<p>Pour diversifier l\u2019effectif, on pourra examiner la candidature des personnes qui s\u2019identifient comme appartenant \u00e0 des groupes vis\u00e9s par l\u2019\u00e9quit\u00e9 en mati\u00e8re d\u2019emploi, soit les Autochtones, les personnes handicap\u00e9es, les membres de minorit\u00e9s visibles et les femmes<strong>. </strong></p>\n<p><br>\n<strong>Conditions d\u2019emploi</strong></p>\n<p>Autorisation s\u00e9curitaire Cote de fiabilit\u00e9 OU cote de s\u00e9curit\u00e9 de niveau \u00ab secret \u00bb, selon le poste \u00e0 pourvoir.</p>\n<p><br>\n<strong>Candidatures</strong></p>\n<p>Les employ\u00e9s d\u2019AAC dans la\u00a0R\u00e9gion de la capotale\u00a0nationale (RCN)\u00a0int\u00e9ress\u00e9s sont invit\u00e9s \u00e0 envoyer leur curriculum vitae et une lettre d\u2019accompagnement (maximum de deux pages) \u00e0 Stephen Desroches (<a href=\"mailto:stephendesroches@agr.gc.ca\">stephen.desroches@agr.gc.ca</a>).</p>\n<p><br>\nLes curriculum vitae doivent nettement pr\u00e9ciser :</p>\n<ul>\n<li>votre type de poste (p. ex., \u00e0 dur\u00e9e d\u00e9termin\u00e9e ou ind\u00e9termin\u00e9e);</li>\n<li>la classification de votre poste d\u2019attache.</li>\n</ul>\n<p><br>\n<strong>Remarques</strong></p>\n<ul>\n<li>Cette opportunit\u00e9 s'agit d'une possibilit\u00e9 d'affectation de 12 mois (avec une possibilit\u00e9 de prolongation) ou mutation.</li>\n<li>Un bassin de candidats qualifi\u00e9s pourra \u00eatre cr\u00e9\u00e9 et pourra servir \u00e0 doter des postes semblables sur une base d\u2019affectation ou de mutation.</li>\n<li>Une mutation ne peuvent servir \u00e0 modifier le type de poste d\u2019un employ\u00e9 ou d\u2019une employ\u00e9e (de dur\u00e9e d\u00e9termin\u00e9e \u00e0 dur\u00e9e ind\u00e9termin\u00e9e, etc.) ni constituer une promotion.</li>\n<li>Les candidats doivent obtenir l\u2019approbation de leur gestionnaire avant de poser leur candidature.</li>\n<li>Les candidats pourront \u00eatre \u00e9valu\u00e9s au moyen d\u2019une entrevue.</li>\n<li>Les r\u00e9f\u00e9rences pourraient faire l\u2019objet d\u2019une v\u00e9rification.</li>\n<li>Les communications relatives au processus de s\u00e9lection se feront par courriel.</li>\n<li>Les demandes de renseignements g\u00e9n\u00e9raux peuvent \u00eatre envoy\u00e9es \u00e0 Stephen Desroches (<a href=\"mailto:stephendesroches@agr.gc.ca\">stephen.desroches@agr.gc.ca</a>).</li>\n</ul>\n<p>\u00a0</p>\n\n"
    },
    "breadcrumb": {
        "en": "Commerce Officer",
        "fr": "Agent(e) de commerce"
    },
    "empl": {
        "type": {
            "en": "Assignment, Deployment",
            "fr": "Affectation, Mutation"
        },
        "classification": {
            "en": "CO-2 and equivalent",
            "fr": "CO-2 et \u00e9quivalent"
        },
        "branch": {
            "en": "Programs Branch",
            "fr": "Direction g\u00e9n\u00e9rale des programmes"
        },
        "locations": {
            "en": "Ottawa, Ontario - NHCAP",
            "fr": "Ottawa (Ontario) \u2013 CACPA"
        },
        "date_closing": {
            "en": "2018-04-27",
            "fr": "2018-04-27"
        },
        "open_to": {
            "en": "All AAFC Employees located in the National Capital Region (NCR)",
            "fr": "Tous les employ\u00e9s d'AAC dans la R\u00e9gion de la capitale nationale (RCN)"
        },
        "name": {
            "en": "Stephen Desroches",
            "fr": "Stephen Desroches"
        },
        "email": {
            "en": "stephen.desroches@agr.gc.ca",
            "fr": "stephen.desroches@agr.gc.ca"
        }
    }
}