{
    "dcr_id": "1524581187164",
    "lang": "en",
    "title": {
        "en": "Junior Policy Advisor",
        "fr": "Assistant conseiller ou assistante conseill\u00e8re en politiques"
    },
    "modified": "2018-04-25 00:00:00.0",
    "issued": "2018-04-24 00:00:00.0",
    "type_name": "intra-intra/empl-empl",
    "node_id": "1279029955397",
    "layout_name": null,
    "dc_date_created": "2018-04-24",
    "breadcrumb_label": "",
    "meta": {
        "issued": {
            "en": "2018-04-24",
            "fr": "2018-04-24"
        },
        "modified": {
            "en": "2018-04-25",
            "fr": "2018-04-25"
        },
        "format": {
            "en": "gcformat",
            "fr": "gcformat"
        },
        "title": {
            "en": "Junior Policy Advisor",
            "fr": "Assistant conseiller ou assistante conseill\u00e8re en politiques"
        },
        "subject": {
            "en": "staffing",
            "fr": "dotation en personnel"
        },
        "language": {
            "en": "eng",
            "fr": "fra"
        },
        "audience": {
            "en": "gcaudience",
            "fr": "gcaudience"
        },
        "type": {
            "en": "notice",
            "fr": "avis"
        },
        "creator": {
            "en": "Agriculture and Agri-Food Canada",
            "fr": "Agriculture et Agroalimentaire Canada"
        },
        "spatial": {
            "en": "gcregions",
            "fr": "gcregions"
        },
        "service": {
            "en": "AAFC_AgriSource",
            "fr": "AAC_AgriSource"
        },
        "accessRights": {
            "en": "3",
            "fr": "3"
        }
    },
    "body": {
        "en": "\n<p>Employees of Agriculture and Agri-Food Canada at the EC-03/EC-04 level in the EC Development Program are invited to express their interest in an assignment opportunity in the Assistant Deputy Minister\u2019s Office (ADMO) in Strategic Policy Branch. The position is for a 6-12 month rotational assignment.</p>\n<p>The position will allow you to work closely with the Senior Policy Advisor to gain:</p>\n<ul>\n<li>\n<p>An understanding of departmental processes;</p>\n</li>\n<li>\n<p>A broader view of key issues and senior decision-making processes;</p>\n</li>\n<li>\n<p>A unique perspective which further hones and develops all the core EC competencies.</p>\n<p>You will work closely with SPB\u2019s Policy Advisor to:</p>\n</li>\n<li>\n<p>Provide support to the Assistant Deputy Minister of SPB, by coordinating and facilitating Branch advice, services and information;</p>\n</li>\n<li>\n<p>Assist in the management of projects crossing Directorate or Departmental functional lines;</p>\n</li>\n<li>\n<p>Assist senior advisor and/or the Assistant Deputy Minister on numerous sensitive and evolving policy, program or operational matters; and</p>\n</li>\n<li>\n<p>Occasionally accompany senior advisor and/or the Assistant Deputy Minister in meetings.</p>\n</li>\n<li>\n<p>Coordinate the QP card process for the Strategic Policy Branch. This includes maintaining after-hours and early morning communication via blackberry for receipt of urgent QP card requests.</p>\n<p>Candidates should have strong analytical, communication and writing skills, as well as good judgement and initiative. Candidates should be prepared to operate in a fast paced, high volume environment.</p>\n<p>Candidates should be willing to work the hours of 9am-5pm, and be available to work overtime with short notice.</p>\n<p>Please note that this advertisement is intended for an assignment at level.</p>\n<p>Interested? Send your resume and an email (max 250 words) explaining why you are interested in this opportunity to Julie Levert <a href=\"mailto:julie.levert@canada.ca\">julie.levert@canada.ca</a>\u00a0before the deadline.</p>\n</li>\n</ul>\n",
        "fr": "\n<p>On invite les employ\u00e9s d\u2019Agriculture et Agroalimentaire Canada de niveau EC-03/EC-04 qui participent au Programme de perfectionnement des EC \u00e0 faire part de leur int\u00e9r\u00eat en ce qui concerne une occasion d\u2019affectation au Cabinet du sous\u2011ministre adjoint (CSMA) dans la Direction g\u00e9n\u00e9rale des politiques strat\u00e9giques. Le poste sera pourvu par affectation par rotation de 6 ou 12 mois.</p>\n<p>Le poste vous permettra de collaborer \u00e9troitement avec le conseiller principal en politiques afin :</p>\n<ul>\n<li>\n<p>de comprendre les processus du Minist\u00e8re;</p>\n</li>\n<li>\n<p>d\u2019avoir une meilleure vue d\u2019ensemble des probl\u00e8mes cl\u00e9s et des processus d\u00e9cisionnels de haut niveau;</p>\n</li>\n<li>\n<p>d\u2019obtenir un point de vue unique qui affine et renforce toutes les comp\u00e9tences de base des employ\u00e9s du groupe EC.</p>\n<p>Vous travaillerez en \u00e9troite collaboration avec le conseiller en politiques de la DGPS aux fins suivantes :</p>\n</li>\n<li>\n<p>offrir un soutien au sous\u2011ministre adjoint de la DGPS en coordonnant et en facilitant l\u2019acc\u00e8s aux conseils, aux services et aux renseignements de la Direction g\u00e9n\u00e9rale;</p>\n</li>\n<li>\n<p>aider \u00e0 g\u00e9rer des projets concernant les domaines fonctionnels de plusieurs directions ou minist\u00e8res;</p>\n</li>\n<li>\n<p>aider le conseiller principal ou le sous\u2011ministre adjoint \u00e0 r\u00e9gler de nombreuses questions d\u00e9licates et en \u00e9volution concernant les politiques, les programmes ou les op\u00e9rations;</p>\n</li>\n<li>\n<p>accompagner \u00e0 l\u2019occasion le conseiller principal ou le sous\u2011ministre adjoint aux r\u00e9unions;</p>\n</li>\n<li>\n<p>coordonner le processus de pr\u00e9paration des fiches pour la p\u00e9riode de questions pour la Direction g\u00e9n\u00e9rale des politiques strat\u00e9giques. Il s\u2019agit notamment d\u2019assurer les communications apr\u00e8s les heures normales de travail et tr\u00e8s t\u00f4t dans la matin\u00e9e avec un appareil BlackBerry pour la r\u00e9ception des demandes urgentes de fiches pour la p\u00e9riode de questions.</p>\n<p>Les candidats doivent poss\u00e9der de solides comp\u00e9tences en analyse, en communication et en r\u00e9daction, en plus de faire preuve de jugement et d\u2019esprit d\u2019initiative. Les candidats doivent \u00eatre pr\u00eats \u00e0 travailler dans un environnement \u00e0 haut d\u00e9bit et \u00e0 rythme rapide.</p>\n<p>Les candidats doivent \u00eatre pr\u00eats \u00e0 travailler de 9 h \u00e0 17 h et de faire des heures suppl\u00e9mentaires, avec un court pr\u00e9avis.</p>\n<p>Veuillez noter que ce processus donnera lieu \u00e0 une affectation au niveau d\u2019attache.</p>\n<p>Si cela vous int\u00e9resse, veuillez envoyer avant la date limite \u00e0 Julie Levert <a href=\"mailto:julie.levert@canada.ca\">julie.levert@canada.ca</a>\u00a0avec votre curriculum vit\u00e6 ainsi qu\u2019un courriel d\u2019au plus 250 mots dans lequel vous expliquez les raisons de votre int\u00e9r\u00eat.</p>\n</li>\n</ul>\n<p>\u00a0</p>\n\n"
    },
    "breadcrumb": {
        "en": "Junior Policy Advisor",
        "fr": "Assistant conseiller ou assistante conseill\u00e8re en politiques"
    },
    "empl": {
        "type": {
            "en": "Assignment",
            "fr": "Affectation"
        },
        "classification": {
            "en": "EC-3, EC-4 and equivalent",
            "fr": "EC-3, EC-4 et \u00e9quivalent"
        },
        "branch": {
            "en": "Strategic Policy Branch",
            "fr": "Direction g\u00e9n\u00e9rale des politiques strat\u00e9giques"
        },
        "locations": {
            "en": "National Capital Region",
            "fr": "R\u00e9gion de la capitale nationale"
        },
        "date_closing": {
            "en": "2018-04-30",
            "fr": "2018-04-30"
        },
        "open_to": {
            "en": "AAFC Employees at the EC-03/EC-04 level in the EC Development Program",
            "fr": "Employ\u00e9s d'AAC de niveau EC-03/EC-04 qui participent au Programme de perfectionnement des EC"
        },
        "name": {
            "en": "julie.levert@canada.ca",
            "fr": "julie.levert@canada.ca"
        },
        "email": {
            "en": "julie.levert@canada.ca",
            "fr": "julie.levert@canada.ca"
        }
    }
}