{
    "dcr_id": "1524568441417",
    "lang": "en",
    "title": {
        "en": "National Day of Mourning - April 28",
        "fr": "Jour de deuil national - Le 28 avril"
    },
    "modified": "2018-04-26 00:00:00.0",
    "issued": "2018-04-26 00:00:00.0",
    "type_name": "intra-intra/news-nouv",
    "node_id": "1279030006975",
    "layout_name": null,
    "dc_date_created": "2018-04-24",
    "breadcrumb_label": "",
    "meta": {
        "issued": {
            "en": "2018-04-26",
            "fr": "2018-04-26"
        },
        "modified": {
            "en": "2018-04-26",
            "fr": "2018-04-26"
        },
        "format": {
            "en": "gcformat",
            "fr": "gcformat"
        },
        "title": {
            "en": "National Day of Mourning - April 28",
            "fr": "Jour de deuil national - Le 28 avril"
        },
        "subject": {
            "en": "communications",
            "fr": "communications"
        },
        "description": {
            "en": "April 28 marks the National Day of Mourning. It is dedicated to remembering the thousands of workers who have been killed, injured or suffered illness as a result of work-related incidents.",
            "fr": "Le 28 avril est le Jour de deuil national. Cette journ\u00e9e vise \u00e0 rendre hommage aux milliers de travailleurs qui ont perdu la vie, subi des blessures ou contract\u00e9 des maladies en raison d'incidents survenus au travail."
        },
        "language": {
            "en": "eng",
            "fr": "fra"
        },
        "audience": {
            "en": "gcaudience",
            "fr": "gcaudience"
        },
        "creator": {
            "en": "Agriculture and Agri-Food Canada",
            "fr": "Agriculture et Agroalimentaire Canada"
        },
        "spatial": {
            "en": "gcregions",
            "fr": "gcregions"
        },
        "service": {
            "en": "AAFC_AgriSource",
            "fr": "AAC_AgriSource"
        },
        "accessRights": {
            "en": "3",
            "fr": "3"
        }
    },
    "body": {
        "en": "<br>\n<br>\n<p>April 28 marks the National Day of Mourning. It is dedicated to remembering the thousands of workers who have been killed, injured or suffered illness as a result of work-related incidents.</p>\n<p>The National Day of Mourning is not only a day to remember and honour those lives lost or workers injured due to a workplace tragedy, but also a day to renew the commitment to improve health and safety in the workplace and prevent further injuries, illnesses and deaths. Many Canadians work hard each day in an effort to minimize accidents and incidents. Risk of injury is an inherent element of many jobs, and this is why safety must be integrated in all jobs.</p>\n<p>AAFC\u2019s National Occupational Health and Safety Policy Committee is dedicated to establishing policies in continuing to ensure the well-being of our employees in the workplace. Recent accomplishments include:</p>\n<ul>\n<li>prioritizing hazard mitigation measures based on an analysis of accident trends;</li>\n<li>developing best practices for the prevention and resolution of workplace violence incidents; and</li>\n<li>incorporating psychological health and safety into AAFC\u2019s Occupational Health and Safety policy.</li>\n</ul>\n<h2><strong>Join the conversation</strong></h2>\n<p>The Canadian Centre for Occupational Health and Safety (<abbr title=\"Canadian Centre for Occupational Health and Safety\">CCOHS</abbr>) has prepared a social media campaign for the National Day of Mourning. Join the conversation by:</p>\n<ul>\n<li>using the hashtag #dayofmourning</li>\n<li>share the <abbr title=\"Canadian Centre for Occupational Health and Safety\">CCOHS</abbr>\u2019s messages on your social media channels</li>\n</ul>\n<h2><strong>Learn more</strong></h2>\n<p>Help strengthen the resolve to establish safe and healthy conditions in the workplace, and prevent further injuries and deaths.</p>\n<p>Every worker has the right to return home safe and sound at the end of each work day. We should all remain aware and alert to prevent injury and illness from occurring, and continually educate ourselves on workplace hazards so we can all thrive in safe and healthy workplaces.</p>\n<ul>\n<li><a rel=\"external\" href=\"http://www.ccohs.ca/events/mourning/default.html\">National Day of Mourning - Canadian Centre for Occupational Health and Safety (<abbr title=\"Canadian Centre for Occupational Health and Safety\">CCOHS</abbr>)</a></li>\n<li><a href=\"http://intranet.agr.gc.ca/ohs\">AAFC Hazard Prevention Program</a></li>\n</ul>\n<p>\u00a0<img src=\"https://intranet.agr.gc.ca/resources/prod/news/images/Day%20of%20Mourning-2017-EN.png\" class=\"center-block\" alt=\"Day of Mourning banner\"></p>\n\n\t\t",
        "fr": "<br>\n<br>\n<p>Le 28 avril est le Jour de deuil national. Cette journ\u00e9e vise \u00e0 rendre hommage aux milliers de travailleurs qui ont perdu la vie, subi des blessures ou contract\u00e9 des maladies en raison d\u2019incidents survenus au travail.</p>\n<p>Le Jour de deuil national n\u2019est pas seulement l\u2019occasion de rendre hommage aux personnes qui sont mortes ou qui ont \u00e9t\u00e9 bless\u00e9es par suite d\u2019une trag\u00e9die en milieu de travail, il est aussi l\u2019occasion de renouveler l\u2019engagement \u00e0 d\u2019am\u00e9liorer la sant\u00e9 et la s\u00e9curit\u00e9 en milieu de travail et de pr\u00e9venir les blessures, les maladies et les d\u00e9c\u00e8s. De nombreux Canadiens travaillent chaque jour d\u2019arrache pied dans le but de r\u00e9duire au minimum les accidents et les incidents. La s\u00e9curit\u00e9 doit faire partie int\u00e9grante de tous les emplois, car le risque est un \u00e9l\u00e9ment inh\u00e9rent \u00e0 bon nombre d\u2019entre eux.</p>\n<p>Le Comit\u00e9 national d\u2019orientation en mati\u00e8re de sant\u00e9 et de s\u00e9curit\u00e9 au travail d\u2019AAC se consacre \u00e0 l\u2019\u00e9tablissement de politiques afin de continuer \u00e0 assurer le bien-\u00eatre de nos employ\u00e9s au travail. Voici certaines de ses r\u00e9centes r\u00e9alisations :</p>\n<ul>\n<li>\u00c9tablir l\u2019ordre de priorit\u00e9 des mesures d\u2019att\u00e9nuation des risques en fonction d\u2019une analyse des tendances constat\u00e9es en ce qui concerne les accidents;</li>\n<li>\u00c9laborer des pratiques exemplaires pour la pr\u00e9vention et le r\u00e8glement des incidents de violence en milieu de travail;</li>\n<li>Int\u00e9grer la sant\u00e9 et la s\u00e9curit\u00e9 psychologiques \u00e0 la politique d\u2019AAC sur la sant\u00e9 et la s\u00e9curit\u00e9 au travail.</li>\n</ul>\n<h2><strong>Prenez part \u00e0 la conversation</strong></h2>\n<p>Le Centre canadien d\u2019hygi\u00e8ne et de s\u00e9curit\u00e9 au travail (<abbr title=\"Centre canadien d\u2019hygi\u00e8ne et de s\u00e9curit\u00e9 au travail\">CCHST</abbr>) a pr\u00e9par\u00e9 une campagne dans les m\u00e9dias sociaux pour le Jour de deuil national. Prenez part \u00e0 la conversation en :</p>\n<ul>\n<li>utilisant le mot-clic #jourdedeuil</li>\n<li>publiant les messages du <abbr title=\"Centre canadien d\u2019hygi\u00e8ne et de s\u00e9curit\u00e9 au travail\">CCHST</abbr> sur vos comptes de m\u00e9dias sociaux</li>\n</ul>\n<h2><strong>Pour en savoir plus</strong></h2>\n<p>Aidez \u00e0 sensibiliser les gens \u00e0 l\u2019importance d\u2019\u00e9tablir des conditions de travail s\u00e9curitaires pour pr\u00e9venir les blessures et les d\u00e9c\u00e8s.</p>\n<p>Les travailleurs ont tous le droit de rentrer chez eux sains et saufs apr\u00e8s leur journ\u00e9e de travail. Nous devons tous faire preuve de vigilance pour pr\u00e9venir les blessures et les maladies, en plus de demeurer au fait des dangers en milieu de travail afin de pouvoir nous \u00e9panouir dans des milieux de travail sains et s\u00e9curitaires.</p>\n<ul>\n<li><a rel=\"external\" href=\"http://www.cchst.ca/events/mourning/default.html\">Jour de deuil national \u2014 Centre canadien d\u2019hygi\u00e8ne et de s\u00e9curit\u00e9 au travail (<abbr title=\"Centre canadien d\u2019hygi\u00e8ne et de s\u00e9curit\u00e9 au travail\">CCHST</abbr>)</a></li>\n<li><a href=\"http://intranet.agr.gc.ca/agrisource/fra/ressources-humaines/sante-et-securite-au-travail?id=1321562720661\">Programme de pr\u00e9vention des risques d\u2019AAC</a></li>\n</ul>\n<p><strong>\u00a0<img src=\"https://intranet.agr.gc.ca/resources/prod/news/images/Day%20of%20Mourning-2017-FR.png\" class=\"center-block\" alt=\"Jour de Deuil\"></strong></p>\n\t\t"
    },
    "breadcrumb": {
        "en": "National Day of Mourning - April 28",
        "fr": "Jour de deuil national - Le 28 avril"
    },
    "news": {
        "date_posted": {
            "en": "2018-04-26",
            "fr": "2018-04-26"
        },
        "to": {
            "en": "All staff",
            "fr": "Tous les employ\u00e9s"
        },
        "by": {
            "en": "AAFC's National Occupational Health and Safety Policy Committee",
            "fr": "Comit\u00e9 national d'orientation en mati\u00e8re de sant\u00e9 et de s\u00e9curit\u00e9 au travail d'AAC"
        }
    }
}