{
    "dcr_id": "1524857374013",
    "lang": "en",
    "title": {
        "en": "Tips for Emergency Preparedness Week",
        "fr": "Conseils pour la Semaine de la s\u00e9curit\u00e9 civile"
    },
    "modified": "2018-05-03 00:00:00.0",
    "issued": "2018-05-03 00:00:00.0",
    "type_name": "intra-intra/news-nouv",
    "node_id": "1279030006975",
    "layout_name": null,
    "dc_date_created": "2018-04-27",
    "breadcrumb_label": "",
    "meta": {
        "issued": {
            "en": "2018-05-03",
            "fr": "2018-05-03"
        },
        "modified": {
            "en": "2018-05-03",
            "fr": "2018-05-03"
        },
        "format": {
            "en": "gcformat",
            "fr": "gcformat"
        },
        "title": {
            "en": "Tips for Emergency Preparedness Week",
            "fr": "Conseils pour la Semaine de la s\u00e9curit\u00e9 civile"
        },
        "subject": {
            "en": "communications",
            "fr": "communications"
        },
        "description": {
            "en": "Emergency Preparedness Week, May 6-12, is an annual event coordinated by Public Safety Canada encouraging everyone to become better prepared to face emergencies.",
            "fr": "La Semaine de la s\u00e9curit\u00e9 civile (6 au 12 mai), un \u00e9v\u00e9nement annuel coordonn\u00e9 par S\u00e9curit\u00e9 publique Canada, vise \u00e0 encourager tous les citoyens \u00e0 mieux se pr\u00e9parer aux situations d'urgence."
        },
        "language": {
            "en": "eng",
            "fr": "fra"
        },
        "audience": {
            "en": "gcaudience",
            "fr": "gcaudience"
        },
        "creator": {
            "en": "Agriculture and Agri-Food Canada",
            "fr": "Agriculture et Agroalimentaire Canada"
        },
        "spatial": {
            "en": "gcregions",
            "fr": "gcregions"
        },
        "service": {
            "en": "AAFC_AgriSource",
            "fr": "AAC_AgriSource"
        },
        "accessRights": {
            "en": "3",
            "fr": "3"
        }
    },
    "body": {
        "en": "<br>\n<br>\n<p>Emergency Preparedness Week, May 6-12, is an annual event coordinated by Public Safety Canada encouraging everyone to become better prepared to face emergencies. By taking a few simple steps, you can reduce the risk and impact of any emergency at AAFC.\n</p>\n<ul>\n<li><strong>Plan.</strong> Make sure you have a building emergency and evacuation plan.</li>\n<li><strong>Prepare.</strong> Review and practice your emergency plan with your colleagues.</li>\n<li><strong>Be aware. </strong>Get familiar with all of AAFC\u2019s tools and resources that help you get better prepared.</li>\n</ul>\n<h2><strong>AAFC Emergency Notification System</strong></h2>\n<p>This past year, Departmental Security Services launched the Agriculture and Agri-Food Canada <a href=\"http://intranet.agr.gc.ca/agrisource/eng/branches-and-offices/corporate-management-branch/services/emergency-notification-system?id=1506112642226\">Emergency Notification System</a> (<abbr title=\"Emergency Notification System \">ENS</abbr>). This tool sends information about emergency situations and lets you know what steps to take to stay safe. Follow these three steps to set up <abbr title=\"Emergency Notification System \">ENS</abbr>:</p>\n<ol>\n<li>Complete your registration in <abbr title=\"Emergency Notification System \">ENS</abbr>.</li>\n<li>Set your contact preferences.</li>\n<li>Keep your information up to date.</li>\n</ol>\n<p>Let\u2019s all be prepared.</p>\n<h2><strong>Learn more</strong></h2>\n<ul>\n<li><a href=\"http://intranet.agr.gc.ca/agrisource/eng/branches-and-offices/corporate-management-branch/services/office-of-emergency-management-business-continuity-planning?id=1381254584498\">Office of Emergency Management and Business Continuity Planning</a></li>\n<li><a rel=\"external\" href=\"http://www.getprepared.gc.ca/index-en.aspx\">GetPrepared.ca</a></li>\n</ul>\n<p>\u00a0<img src=\"https://intranet.agr.gc.ca/resources/prod/news/images/EmergencyPreparednessWeek-EN.png\" class=\"center-block\"></p>\n\n\t\t",
        "fr": "<br>\n<br>\n<p>La Semaine de la s\u00e9curit\u00e9 civile (6 au 12 mai), un \u00e9v\u00e9nement annuel coordonn\u00e9 par S\u00e9curit\u00e9 publique Canada, vise \u00e0 encourager tous les citoyens \u00e0 mieux se pr\u00e9parer aux situations d\u2019urgence. En prenant quelques mesures simples, vous pouvez r\u00e9duire les risques et les cons\u00e9quences de toute situation d\u2019urgence \u00e0 AAC.\n</p>\n<ul>\n<li><strong>Planification.</strong> Assurez-vous d\u2019avoir un plan d\u2019urgence et d\u2019\u00e9vacuation de l\u2019immeuble.</li>\n<li><strong>Pr\u00e9paration.</strong> Passez en revue et mettez en pratique votre plan d\u2019urgence avec vos coll\u00e8gues.</li>\n<li><strong>Vigilance. </strong>Familiarisez-vous avec l\u2019ensemble des outils et des ressources qu\u2019AAC met \u00e0 votre disposition pour vous aider \u00e0 mieux vous pr\u00e9parer.</li>\n</ul>\n<h2><strong>Syst\u00e8me de notification d\u2019urgence d\u2019AAC</strong></h2>\n<p>Les Services de s\u00e9curit\u00e9 minist\u00e9riels ont lanc\u00e9 le <a href=\"http://intranet.agr.gc.ca/agrisource/fra/directions-generales-et-bureaux/direction-generale-de-la-gestion-integree/services/systeme-de-notification-drsquourgence?id=1506112642226\">Syst\u00e8me de notification d'urgence</a> (<abbr title=\"Syst\u00e8me de notification d'urgence\">SNU</abbr>) d\u2019Agriculture et Agroalimentaire Canada au cours de la derni\u00e8re ann\u00e9e. Cet outil transmet de l\u2019information sur les situations d\u2019urgence et vous indique la marche \u00e0 suivre pour rester en s\u00e9curit\u00e9. Proc\u00e9dez comme suit pour activer votre compte dans le <abbr title=\"Syst\u00e8me de notification d'urgence\">SNU</abbr> :</p>\n<ol>\n<li>Terminez votre inscription dans le <abbr title=\"Syst\u00e8me de notification d'urgence\">SNU</abbr>.</li>\n<li>D\u00e9finissez vos moyens de communication privil\u00e9gi\u00e9s.</li>\n<li>Tenez vos renseignements \u00e0 jour.</li>\n</ol>\n<p>Soyons pr\u00eats.</p>\n<h2><strong>Pour plus d\u2019information</strong></h2>\n<ul>\n<li><a href=\"http://intranet.agr.gc.ca/agrisource/fra/directions-generales-et-bureaux/direction-generale-de-la-gestion-integree/services/bureau-de-la-gestion-des-mesures-durgence-et-de-la-planification-des-activites?id=1381254584498\">Bureau de la gestion des mesures d'urgence et de la planification des activit\u00e9s</a></li>\n<li><a rel=\"external\" href=\"https://www.preparez-vous.gc.ca/index-fr.aspx\">Pr\u00e9parez-vous.ca</a></li>\n</ul>\n<p>\u00a0<img src=\"https://intranet.agr.gc.ca/resources/prod/news/images/EmergencyPreparednessWeek-FR.png\" class=\"center-block\"></p>\n\t\t"
    },
    "breadcrumb": {
        "en": "Tips for Emergency Preparedness Week",
        "fr": "Conseils pour la Semaine de la s\u00e9curit\u00e9 civile"
    },
    "news": {
        "date_posted": {
            "en": "2018-05-03",
            "fr": "2018-05-03"
        },
        "to": {
            "en": "Other regions (not NCR)",
            "fr": "R\u00e9gions autres que la RCN"
        },
        "by": {
            "en": "Departmental Security Services, Corporate Management Branch",
            "fr": "Services de s\u00e9curit\u00e9 minist\u00e9riels, Direction g\u00e9n\u00e9rale de la gestion int\u00e9gr\u00e9e"
        }
    }
}