{
    "dcr_id": "1524165785871",
    "lang": "en",
    "title": {
        "en": "Winner of AAFC's Day of Pink Challenge",
        "fr": "Gagnante du d\u00e9fi de la Journ\u00e9e rose d'AAC"
    },
    "modified": "2018-04-26 00:00:00.0",
    "issued": "2018-04-26 00:00:00.0",
    "type_name": "intra-intra/news-nouv",
    "node_id": "1279030006975",
    "layout_name": null,
    "dc_date_created": "2018-04-20",
    "breadcrumb_label": "",
    "meta": {
        "issued": {
            "en": "2018-04-26",
            "fr": "2018-04-26"
        },
        "modified": {
            "en": "2018-04-26",
            "fr": "2018-04-26"
        },
        "format": {
            "en": "gcformat",
            "fr": "gcformat"
        },
        "title": {
            "en": "Winner of AAFC's Day of Pink Challenge",
            "fr": "Gagnante du d\u00e9fi de la Journ\u00e9e rose d'AAC"
        },
        "subject": {
            "en": "communications",
            "fr": "communications"
        },
        "description": {
            "en": "The Gender and Sexual Diversity Inclusiveness Network would like to thank everybody who participated in AAFC's International Day of Pink and the Branch Challenge on April 11.",
            "fr": "Le R\u00e9seau de l'inclusivit\u00e9 et de la diversit\u00e9 des genres et de la sexualit\u00e9 tient \u00e0 remercier tous les employ\u00e9s qui ont particip\u00e9 \u00e0 la Journ\u00e9e internationale du rose et au d\u00e9fi des directions g\u00e9n\u00e9rales d'AAC le 11 avril."
        },
        "language": {
            "en": "eng",
            "fr": "fra"
        },
        "audience": {
            "en": "gcaudience",
            "fr": "gcaudience"
        },
        "creator": {
            "en": "Agriculture and Agri-Food Canada",
            "fr": "Agriculture et Agroalimentaire Canada"
        },
        "spatial": {
            "en": "gcregions",
            "fr": "gcregions"
        },
        "service": {
            "en": "AAFC_AgriSource",
            "fr": "AAC_AgriSource"
        },
        "accessRights": {
            "en": "3",
            "fr": "3"
        }
    },
    "body": {
        "en": "<br>\n<br>\n<p>The Gender and Sexual Diversity Inclusiveness Network (<abbr title=\"Gender and Sexual Diversity Inclusiveness Network\">GSDIN</abbr>) would like to thank everybody who participated in AAFC\u2019s International Day of Pink and the Branch Challenge on April 11. It was great to see so many people wearing pink to celebrate diversity. The action may seem small but for your colleagues who have experienced homophobia, transphobia, or any form of bullying, actions like these are visible and can open a conversation, which is an important step to support all individuals at AAFC.</p>\n<p>We had an overwhelming response to the callout. Visit the <a href=\"https://collab.agr.gc.ca/co/lgbt-glbt/Photo%20Album\">Day of Pink photo album</a> to view all the photos that were submitted by our colleagues across the country. To find out which branch won the Day of Pink Branch Challenge, see the announcement on the <a href=\"https://collab.agr.gc.ca/co/lgbt-glbt/SitePages/Home.aspx\"><abbr title=\"Gender and Sexual Diversity Inclusiveness Network\">GSDIN</abbr> Knowledge Workspace page</a>.</p>\n<h2><strong>Positive Space Training and Survey</strong></h2>\n<p>To learn more about how you can foster a workplace that is safe and inclusive\u00a0for all individuals, including those who identify as part of the LGBTQ2+ community, sign up for AAFC\u2019s <a href=\"https://collab.agr.gc.ca/co/lgbt-glbt/SitePages/Positive%20Space%20Initiative%20-%20Initative%20Espace%20positif.aspx\">Positive Space Training</a>.</p>\n<p>If you have already taken Positive Space Training, please take time to fill out the <a rel=\"external\" href=\"https://www.surveymonkey.com/r/MDHVDKT\">Interdepartmental Positive Space Initiative Survey</a>. The purpose of the survey is to find out how the Positive Space Initiative has impacted workplace culture in the Federal Public Service. It is voluntary and anonymous.</p>\n<p><img src=\"https://intranet.agr.gc.ca/resources/prod/news/images/WinnerDayofPink.png\" class=\"center-block\" alt=\"AAFC employees wearing pink. \"></p>\n\n\t\t",
        "fr": "<br>\n<br>\n<p>Le R\u00e9seau de l\u2019inclusivit\u00e9 et de la diversit\u00e9 des genres et de la sexualit\u00e9 (<abbr title=\"R\u00e9seau de l\u2019inclusivit\u00e9 et de la diversit\u00e9 des genres et de la sexualit\u00e9\">RIDGS</abbr>) tient \u00e0 remercier tous les employ\u00e9s qui ont particip\u00e9 \u00e0 la Journ\u00e9e internationale du rose et au d\u00e9fi des directions g\u00e9n\u00e9rales d\u2019AAC le 11 avril. Nous avons \u00e9t\u00e9 ravis de voir autant de gens porter du rose pour c\u00e9l\u00e9brer la diversit\u00e9. Bien que les gestes de ce genre puissent sembler anodins, ils sont visibles et susceptibles d\u2019amorcer une conversation pour vos coll\u00e8gues qui ont \u00e9t\u00e9 victimes d\u2019homophobie, de transphobie ou d\u2019une forme quelconque d\u2019intimidation. Il s\u2019agit d\u2019une initiative importante pour appuyer tous les employ\u00e9s \u00e0 AAC.</p>\n<p>La participation au d\u00e9fi de la Journ\u00e9e rose a \u00e9t\u00e9 formidable. Consultez l\u2019<a href=\"https://collab.agr.gc.ca/co/lgbt-glbt/Photo%20Album\">album photo de la Journ\u00e9e rose</a> pour voir toutes les photos qu\u2019ont soumises nos coll\u00e8gues des diverses r\u00e9gions du pays. Pour d\u00e9couvrir quelle direction g\u00e9n\u00e9rale a remport\u00e9 le d\u00e9fi, consultez l\u2019annonce sur la <a href=\"https://collab.agr.gc.ca/co/lgbt-glbt/SitePages/Home.aspx\">page du <abbr title=\"R\u00e9seau de l\u2019inclusivit\u00e9 et de la diversit\u00e9 des genres et de la sexualit\u00e9\">RIDGS</abbr> dans l\u2019Espace de travail du savoir</a>.</p>\n<h2><strong>Formation et sondage sur l\u2019Espace positif</strong></h2>\n<p>Pour en apprendre davantage sur la fa\u00e7on de favoriser un milieu de travail s\u00e9curitaire et inclusif pour tous les employ\u00e9s, y compris ceux qui font partie de la communaut\u00e9 LGBTQ2+, inscrivez-vous \u00e0 la <a href=\"https://collab.agr.gc.ca/co/lgbt-glbt/SitePages/Positive%20Space%20Initiative%20-%20Initative%20Espace%20positif.aspx\">formation sur l\u2019Espace positif</a> d\u2019AAC.</p>\n<p>Si vous avez d\u00e9j\u00e0 suivi la formation sur l\u2019Espace positif, veuillez prendre le temps de r\u00e9pondre au <a rel=\"external\" href=\"https://fr.surveymonkey.com/r/J6JCGCP\">sondage sur l\u2019initiative interminist\u00e9rielle Espace positif</a>. Ce sondage vise \u00e0 d\u00e9terminer l\u2019incidence de l\u2019initiative Espace positif sur la culture du milieu de travail dans la fonction publique f\u00e9d\u00e9rale. La participation au sondage est volontaire et anonyme.</p>\n<p><img src=\"https://intranet.agr.gc.ca/resources/prod/news/images/WinnerDayofPink-FR.png\" class=\"center-block\" alt=\"Les employ\u00e9s d'AAC portent du rose. \"></p>\n\t\t"
    },
    "breadcrumb": {
        "en": "Winner of AAFC's Day of Pink Challenge",
        "fr": "Gagnante du d\u00e9fi de la Journ\u00e9e rose d'AAC"
    },
    "news": {
        "date_posted": {
            "en": "2018-04-26",
            "fr": "2018-04-26"
        },
        "to": {
            "en": "All staff",
            "fr": "Tous les employ\u00e9s"
        },
        "by": {
            "en": "Gender and Sexual Diversity Inclusiveness Network",
            "fr": "R\u00e9seau de l'inclusivit\u00e9 et de la diversit\u00e9 des genres et de la sexualit\u00e9"
        }
    }
}