{
    "dcr_id": "1525106995924",
    "lang": "en",
    "title": {
        "en": "Scheduled Maintenance of ISB Services - May 4-6",
        "fr": "Entretien pr\u00e9vu des services de la DGSI - Du 4 au 6 mai"
    },
    "modified": "2018-05-03 00:00:00.0",
    "issued": "2018-05-03 00:00:00.0",
    "type_name": "intra-intra/news-nouv",
    "node_id": "1279030006975",
    "layout_name": null,
    "dc_date_created": "2018-04-30",
    "breadcrumb_label": "",
    "meta": {
        "issued": {
            "en": "2018-05-03",
            "fr": "2018-05-03"
        },
        "modified": {
            "en": "2018-05-03",
            "fr": "2018-05-03"
        },
        "format": {
            "en": "gcformat",
            "fr": "gcformat"
        },
        "title": {
            "en": "Scheduled Maintenance of ISB Services - May 4-6",
            "fr": "Entretien pr\u00e9vu des services de la DGSI - Du 4 au 6 mai"
        },
        "subject": {
            "en": "communications",
            "fr": "communications"
        },
        "description": {
            "en": "Please be advised that preventative maintenance of ISB services will be performed from Friday, May 4 to Sunday May 6, 2018.",
            "fr": "Veuillez noter qu'un entretien pr\u00e9ventif des services de la DGSI aura lieu du vendredi 4 mai au dimanche 6 mai 2018."
        },
        "language": {
            "en": "eng",
            "fr": "fra"
        },
        "audience": {
            "en": "gcaudience",
            "fr": "gcaudience"
        },
        "creator": {
            "en": "Agriculture and Agri-Food Canada",
            "fr": "Agriculture et Agroalimentaire Canada"
        },
        "spatial": {
            "en": "gcregions",
            "fr": "gcregions"
        },
        "service": {
            "en": "AAFC_AgriSource",
            "fr": "AAC_AgriSource"
        },
        "accessRights": {
            "en": "3",
            "fr": "3"
        }
    },
    "body": {
        "en": "<br>\n<br>\n<p>Please be advised that preventative maintenance of ISB services will be performed from Friday, May 4 to Sunday May 6, 2018.</p>\n<p>These downtimes were planned as part of an infrastructure management plan. By upgrading these systems, we are improving performance and making sure that we don\u2019t experience major unplanned outages that affect employees.</p>\n<p>Consequently, the following services may not be available during the following times:</p>\n<p><strong>Friday, May 4 \u2013 7:00 p.m. until Sunday, May 6, 2018 \u2013 5:00 p.m. (ET)</strong></p>\n<ul>\n<li>Blueprint 2020 blog</li>\n<li>Blueprint 2020 Process Improvement (Lean)</li>\n<li>Blueprint 2020 Dragons\u2019 Den</li>\n<li>CFIA President\u2019s Blog</li>\n<li>Knowledge Workspace</li>\n<li>Market Access Support System (MISB-MASS)</li>\n<li>Proposal Submission System (STB-PSS)</li>\n</ul>\n<p><strong>Saturday, May 5 \u2013 9:00 a.m. until 7:00 p.m. (ET)</strong></p>\n<p>Affected workstation and phone services in Tower 4 (floor 6), Tower 5 (floor 1), Tower 6 (floor 1) and Tower 7 (floors 7,8,9 and 10) at\u00a0NHCAP, including:</p>\n<ul>\n<li>Access to all corporate applications</li>\n<li>Access to email</li>\n<li>Access to Internet</li>\n<li>Access to network drives</li>\n<li>Access to 911</li>\n<li>Outbound calls (inbound calls will go to voice mail)</li>\n<li>Access to auto-attendant services</li>\n<li>Access to voice mail</li>\n</ul>\n<p><strong>Note:</strong> As access to 911 will be interrupted, employees who plan to use these locations at NHCAP during this timeframe must have a mobile device to ensure health and safety considerations are met. Employees are responsible for ensuring that they have a mobile device available.</p>\n<p>\n<b>Sunday, May 6 \u2013 9:00 a.m. until 1:00 p.m. (ET)</b></p>\n<ul>\n<li>Agricultural Industry Market Information System </li>\n<li>Agroclimate Impact Reporter</li>\n<li>AgriRecovery\n</li>\n<li>AgriRisk</li>\n<li>\nAgriShare\n</li>\n</ul>\n<p>Should you have any questions or concerns, please do not hesitate to contact IT Centre TI.</p>\n<p><strong>IT Centre TI<br>\n</strong>Telephone: 1-855-545-4411<br>\n<a href=\"http://assystweb:8080/assystnet\">My IT Centre TI</a></p>\n<p><img src=\"https://intranet.agr.gc.ca/resources/prod/news/images/ITCentreTI2.png\" class=\"center-block\"></p>\n\n\t\t",
        "fr": "<br>\n<br>\n<p>Veuillez noter qu\u2019un entretien pr\u00e9ventif des services de la DGSI aura lieu du vendredi 4 mai au dimanche 6 mai 2018.</p>\n<p>Cette interruption est pr\u00e9vue dans un plan de gestion de l\u2019infrastructure. En mettant ces syst\u00e8mes \u00e0 niveau, nous am\u00e9liorons leur rendement et pr\u00e9venons des pannes majeures qui entravent le travail des employ\u00e9s.</p>\n<p>Par cons\u00e9quent, les services suivants pourraient ne pas \u00eatre accessibles pendant les p\u00e9riodes suivantes :</p>\n<p><strong>Du vendredi 4 mai, \u00e0 7 h, au dimanche 6 mai 2018, \u00e0 17 h (HE) </strong></p>\n<ul>\n<li>Blogue sur Objectif 2020</li>\n<li>Am\u00e9lioration des processus d\u2019Objectif 2020 (Lean)</li>\n<li>Objectif 2020 \u2013 Dans l\u2019\u0153il du dragon</li>\n<li>Blogue du pr\u00e9sident de l\u2019ACIA</li>\n<li>Espace de travail du savoir</li>\n<li>Syst\u00e8me de soutien de l\u2019acc\u00e8s aux march\u00e9s (DGSIM-SSAM)</li>\n<li>Syst\u00e8me de soumission de propositions (GGST-SSP)</li>\n</ul>\n<p><strong>Le samedi 5 mai 2018, de 9 h \u00e0 19 h (HE)</strong></p>\n<p>Les postes de travail et les services t\u00e9l\u00e9phoniques de la tour 4 (6<sup>e</sup> \u00e9tage), de la tour 5 (1<sup>er</sup> \u00e9tage), de la tour 6 (1<sup>er</sup> \u00e9tage) et de la tour 7 (7<sup>e</sup>, 8<sup>e</sup>, 9<sup>e</sup> et 10<sup>e</sup> \u00e9tages) au\u00a0CACPA, y compris :</p>\n<ul>\n<li>Acc\u00e8s \u00e0 toutes les applications minist\u00e9rielles</li>\n<li>Acc\u00e8s au courriel</li>\n<li>Acc\u00e8s \u00e0 Internet</li>\n<li>Acc\u00e8s aux lecteurs r\u00e9seau</li>\n<li>Acc\u00e8s au service 911</li>\n<li>Appels sortants (les appels entrants seront enregistr\u00e9s dans le syst\u00e8me de messagerie vocale)</li>\n<li>Acc\u00e8s aux services de r\u00e9ponse automatique</li>\n<li>Acc\u00e8s \u00e0 la messagerie vocale</li>\n</ul>\n<p><strong>Remarque :</strong> Comme l\u2019acc\u00e8s au service 911 sera interrompu, les employ\u00e9s qui pr\u00e9voient travailler dans ces locaux du CACPA pendant cette p\u00e9riode devront avoir un appareil mobile sur eux pour se conformer aux exigences en mati\u00e8re de sant\u00e9 et de s\u00e9curit\u00e9. Il incombe \u00e0 chaque employ\u00e9 d\u2019avoir un appareil mobile \u00e0 sa disposition.</p>\n<p><b>Le dimanche 6 mai 2018, de 9 h \u00e0 13 h (HE)</b></p>\n<ul>\n<li>Syst\u00e8me d\u2019information sur les march\u00e9s de l\u2019industrie agricole </li>\n<li>Rapports sur les r\u00e9percussions de l\u2019agroclimat</li>\n<li>Agri-relance</li>\n<li>\nAgri-risques\n</li>\n<li>\nAgri-\u00e9change</li>\n</ul>\n<p>\nSi vous avez des questions ou des pr\u00e9occupations \u00e0 ce sujet, n\u2019h\u00e9sitez pas \u00e0 communiquer avec le IT Centre TI.</p>\n<p><strong>IT Centre TI<br>\n</strong>T\u00e9l\u00e9phone : 1-855-545-4411<br>\n<a href=\"http://assystweb:8080/assystnet\">Mon IT Centre TI</a></p>\n<p><img src=\"https://intranet.agr.gc.ca/resources/prod/news/images/ITCentreTI2.png\" class=\"center-block\"></p>\n<p>\u00a0</p>\n\t\t"
    },
    "breadcrumb": {
        "en": "Scheduled Maintenance of ISB Services - May 4-6",
        "fr": "Entretien pr\u00e9vu des services de la DGSI - Du 4 au 6 mai"
    },
    "news": {
        "date_posted": {
            "en": "2018-05-03",
            "fr": "2018-05-03"
        },
        "to": {
            "en": "All staff",
            "fr": "Tous les employ\u00e9s"
        },
        "by": {
            "en": "IT Centre TI",
            "fr": "IT Centre TI"
        }
    }
}