{
    "dcr_id": "1525448627163",
    "lang": "en",
    "title": {
        "en": "Reminder - Call for Nominations: 2018 Promising New Public Servant Award - Nomination Deadline is June 1",
        "fr": "Rappel - Appel de mises en candidature: Prix du nouveau fonctionnaire prometteur de 2018 - Date limite des mises en candidature : 1<sup>er</sup> juin"
    },
    "modified": "2018-05-31 00:00:00.0",
    "issued": "2018-05-10 00:00:00.0",
    "type_name": "intra-intra/news-nouv",
    "node_id": "1279030006975",
    "layout_name": null,
    "dc_date_created": "2018-05-04",
    "breadcrumb_label": "Reminder - Call for Nominations: 2018 Promising New Public Servant Award - Nomination Deadline is...",
    "meta": {
        "issued": {
            "en": "2018-05-10",
            "fr": "2018-05-10"
        },
        "modified": {
            "en": "2018-05-31",
            "fr": "2018-05-30"
        },
        "format": {
            "en": "gcformat",
            "fr": "gcformat"
        },
        "title": {
            "en": "Reminder - Call for Nominations: 2018 Promising New Public Servant Award - Nomination Deadline is June 1",
            "fr": "Rappel - Appel de mises en candidature: Prix du nouveau fonctionnaire prometteur de 2018 - Date limite des mises en candidature : 1<sup>er</sup> juin"
        },
        "subject": {
            "en": "communications",
            "fr": "communications"
        },
        "description": {
            "en": "The Institute of Public Administration of Canada is currently accepting nominations for the Promising New Public Servant Award.",
            "fr": "L'Institut d'administration publique du Canada accepte les mises en candidature pour le Prix du nouveau fonctionnaire prometteur."
        },
        "language": {
            "en": "eng",
            "fr": "fra"
        },
        "audience": {
            "en": "gcaudience",
            "fr": "gcaudience"
        },
        "creator": {
            "en": "Agriculture and Agri-Food Canada",
            "fr": "Agriculture et Agroalimentaire Canada"
        },
        "spatial": {
            "en": "gcregions",
            "fr": "gcregions"
        },
        "service": {
            "en": "AAFC_AgriSource",
            "fr": "AAC_AgriSource"
        },
        "accessRights": {
            "en": "3",
            "fr": "3"
        }
    },
    "body": {
        "en": "<br>\n<br>\n<p>The Institute of Public Administration of Canada (<abbr title=\"Institute of Public Administration of Canada\">IPAC</abbr>) is currently accepting nominations for the Promising New Public Servant Award.</p>\n<p>This award is given to an emerging leader within the public sector who represents the ideals, values, and abilities of sound public administration.</p>\n<p>The nomination deadline for this award is June 1, 2018. Finalists will be notified in June, and the winners will be announced at <abbr title=\"Institute of Public Administration of Canada\">IPAC</abbr>\u2019s annual conference in August.</p>\n<p>Visit <a rel=\"external\" href=\"https://www.ipac.ca/IPAC/iPAC_EN/Events_Awards/Awards/Promising_New_Public_Servant_Award/iPAC_EN/Events___Awards/Promising_New_Public_Servant_Award.aspx?hkey=8ccf306a-fc8a-4a35-9e00-c82c98ff4a1f\"><abbr title=\"Institute of Public Administration of Canada\">IPAC</abbr>'s Promising New Public Servant Award website</a> to nominate a deserving colleague.</p>\n<h2><strong>Nomination criteria</strong></h2>\n<ul>\n<li>Leadership potential within the public service</li>\n<li>Positive attitude towards their work and learning</li>\n<li>Ideals and values of public administration</li>\n<li>Ability, initiative, and potential to continue and constantly improve upon the sound work of public administration and public servants in their region or across Canada</li>\n</ul>\n<h2><strong>Learn more</strong></h2>\n<ul>\n<li><a rel=\"external\" href=\"https://www.ipac.ca/\"><abbr title=\"Institute of Public Administration of Canada\">IPAC</abbr></a></li>\n<li><a rel=\"external\" href=\"https://www.ipac.ca/iPAC_EN/Events_Awards/Awards/iPAC_EN/Events___Awards/Awards.aspx?hkey=9c2f0fae-b10a-4758-b8c2-ccb802ba2c9f\"><abbr title=\"Institute of Public Administration of Canada\">IPAC</abbr> Awards</a></li>\n</ul>\n<p>We encourage you to take the time to nominate your deserving colleagues!</p>\n<p><img src=\"https://intranet.agr.gc.ca/resources/prod/news/images/IPAC.png\" class=\"center-block\"></p>\n\n\t\t",
        "fr": "<br>\n<br>\n<p>L\u2019Institut d\u2019administration publique du Canada (<abbr title=\"Institut d\u2019administration publique du Canada\">IAPC</abbr>) accepte les mises en candidature pour le Prix du nouveau fonctionnaire prometteur.</p>\n<p>Ce prix est d\u00e9cern\u00e9 \u00e0 un nouveau leader de la fonction publique qui repr\u00e9sente les id\u00e9aux, les valeurs et les capacit\u00e9s d\u2019une saine administration publique.</p>\n<p>Vous avez jusqu\u2019au\u00a01<sup>er</sup> juin\u00a02018 pour proposer des candidatures \u00e0 ce prix. Les finalistes seront\u00a0inform\u00e9s de leur entr\u00e9e en lice, en juin, et les r\u00e9cipiendaires seront annonc\u00e9s au congr\u00e8s annuel de l\u2019<abbr title=\"Institut d\u2019administration publique du Canada\">IAPC,</abbr> en ao\u00fbt.</p>\n<p>Veuillez consulter le <a rel=\"external\" href=\"https://www.ipac.ca/IPAC_FR/Evenements_et_Prix/Prix/Prix_du_nouveau_fonctionnaire_prometteur/IPAC_FR/Evenements_et_Prix/Prix_du_nouveau_fonctionnaire_prometteur.aspx?hkey=82c0f46a-cd7e-4595-877d-c47a519c33ac\">site Web du Prix du nouveau fonctionnaire prometteur de l\u2019<abbr title=\"Institut d\u2019administration publique du Canada\">IAPC</abbr></a> pour proposer la candidature d\u2019un coll\u00e8gue qui m\u00e9rite d\u2019\u00eatre ainsi reconnu.</p>\n<h2><strong>Crit\u00e8res\u00a0de mise en candidature</strong></h2>\n<ul>\n<li>Potentiel\u00a0en leadership\u00a0au sein de la fonction publique</li>\n<li>Attitude positive dans son travail et son apprentissage</li>\n<li>Id\u00e9aux et valeurs de l\u2019administration publique</li>\n<li>Capacit\u00e9, initiative et potentiel de pers\u00e9v\u00e9rer et d\u2019am\u00e9liorer constamment la qualit\u00e9 du travail de l\u2019administration publique et des fonctionnaires dans sa r\u00e9gion ou dans l\u2019ensemble du Canada.</li>\n</ul>\n<h2><strong>Pour en savoir plus</strong></h2>\n<ul>\n<li><a rel=\"external\" href=\"https://www.ipac.ca/ipac_fr\"><abbr title=\"Institut d\u2019administration publique du Canada\">IAPC</abbr></a></li>\n<li><a rel=\"external\" href=\"https://www.ipac.ca/IPAC_FR/Evenements_et_Prix/Prix/IPAC_FR/Evenements_et_Prix/Prix.aspx?hkey=ad808113-beeb-4faa-a783-788c117fe99e\">Prix de l\u2019<abbr title=\"Institut d\u2019administration publique du Canada\">IAPC</abbr></a></li>\n</ul>\n<p>\nNous vous encourageons \u00e0 pr\u00e9senter la candidature de vos coll\u00e8gues m\u00e9ritants!</p>\n<p><img src=\"https://intranet.agr.gc.ca/resources/prod/news/images/IPAC.png\" class=\"center-block\"></p>\n\t\t"
    },
    "breadcrumb": {
        "en": "Reminder - Call for Nominations: 2018 Promising New Public Servant Award - Nomination Deadline is...",
        "fr": "Rappel - Appel de mises en candidature: Prix du nouveau fonctionnaire prometteur de 2018 - Date..."
    },
    "news": {
        "date_posted": {
            "en": "2018-05-08",
            "fr": "2018-05-08"
        },
        "to": {
            "en": "All staff",
            "fr": "Tous les employ\u00e9s"
        },
        "by": {
            "en": "Human Resources, Corporate Management Branch",
            "fr": "Ressources humaines, Direction g\u00e9n\u00e9rale de la gestion int\u00e9gr\u00e9e"
        }
    }
}