{
    "dcr_id": "1525882997082",
    "lang": "en",
    "title": {
        "en": "Reminder - Aboriginal Awareness Week - May 22 to 25",
        "fr": "Rappel - Semaine de sensibilisation aux cultures autochtones - 22 au 25 mai"
    },
    "modified": "2018-05-16 00:00:00.0",
    "issued": "2018-05-09 00:00:00.0",
    "type_name": "intra-intra/news-nouv",
    "node_id": "1279030006975",
    "layout_name": null,
    "dc_date_created": "2018-05-09",
    "breadcrumb_label": "",
    "meta": {
        "issued": {
            "en": "2018-05-09",
            "fr": "2018-05-09"
        },
        "modified": {
            "en": "2018-05-16",
            "fr": "2018-05-16"
        },
        "format": {
            "en": "gcformat",
            "fr": "gcformat"
        },
        "title": {
            "en": "Reminder - Aboriginal Awareness Week - May 22 to 25",
            "fr": "Rappel - Semaine de sensibilisation aux cultures autochtones - 22 au 25 mai"
        },
        "subject": {
            "en": "communications",
            "fr": "communications"
        },
        "description": {
            "en": "Aboriginal Awareness Week, May 22 to 25, is a great opportunity to celebrate Indigenous history, culture and achievements and, most importantly, recognize the significant contribution Indigenous peoples make to our country and society.",
            "fr": "La Semaine de sensibilisation aux cultures autochtones, qui se d\u00e9roulera du 22 au 25 mai, est une excellente occasion de souligner l'histoire, la culture et les r\u00e9alisations des Autochtones et, plus important encore, de reconna\u00eetre l'importante contribution des peuples autochtones \u00e0 notre pays et \u00e0 la soci\u00e9t\u00e9."
        },
        "language": {
            "en": "eng",
            "fr": "fra"
        },
        "audience": {
            "en": "gcaudience",
            "fr": "gcaudience"
        },
        "creator": {
            "en": "Agriculture and Agri-Food Canada",
            "fr": "Agriculture et Agroalimentaire Canada"
        },
        "spatial": {
            "en": "gcregions",
            "fr": "gcregions"
        },
        "service": {
            "en": "AAFC_AgriSource",
            "fr": "AAC_AgriSource"
        },
        "accessRights": {
            "en": "3",
            "fr": "3"
        }
    },
    "body": {
        "en": "<br>\n<br>\n<p>Aboriginal Awareness Week (<abbr title=\"Aboriginal Awareness Week\">AAW</abbr>), May 22 to 25, is a great opportunity to celebrate Indigenous history, culture and achievements and, most importantly, recognize the significant contribution Indigenous peoples make to our country and society.</p>\n<h2>AAFC event: Indigenous Culture Presentation </h2>\n<p><b>Date:</b> Tuesday, May 22 <br><b>Time:</b> 11:30 a.m. to 1:30 p.m. (ET) <br><b>Location:</b>\u00a0T6 cafeteria, NHCAP</p>\n<p>AAFC\u2019s event will feature an opening prayer; a welcome by Deputy Minister Chris Forbes and a powerful presentation by a residential school survivor. There will be presentations on the history of the Inuit and on M\u00e9tis culture and a special throat singing performance. The event also features craft, birch bark and artifact displays and information on AAFC\u2019s <a rel=\"external\" href=\"https://collab.agr.gc.ca/co/isri-irea/SitePages/Home.aspx\">Indigenous Student Recruitment Initiative</a> and the <a rel=\"external\" href=\"https://collab.agr.gc.ca/co/acn-crea/SitePages/Home.aspx\">Indigenous Network Circle</a>.</p>\n<p><strong>To participate by video: </strong>610900260</p>\n<p><strong>To participate by telephone: </strong>dial<strong> </strong>1-855-470-7641 then code 610900260#</p>\n<p>Following this event, please join us for a <strong>Canada School of Public Service Panel Webcast </strong>regarding \u201cIndigenous Services: Border Management Considerations\u201d from 1:30 p.m.\u00a0to 3:00 p.m. (ET) in T6-1-136.</p>\n<h2>Learn more</h2>\n<p>You can visit <a rel=\"external\" href=\"http://canada.pch.gc.ca/eng/1447170804377\">Canadian Heritage</a> and <a rel=\"external\" href=\"https://www.aadnc-aandc.gc.ca/eng/1100100012788/1100100012792\">Indigenous and Northern Affairs Canada</a> to learn more about Indigenous peoples, their history, and their cultures.</p>\n<p>You are also encouraged to learn more about AAFC\u2019s active <a rel=\"external\" href=\"https://collab.agr.gc.ca/co/acn-crea/SitePages/Home.aspx\">Indigenous Network Circle</a>, and other <a rel=\"external\" href=\"https://collab.agr.gc.ca/co/eedi-emedi/SitePages/Home.aspx\">Diversity Networks</a>.</p>\n<p>\u00a0</p>\n<p><img src=\"https://intranet.agr.gc.ca/resources/prod/news/images/IndigenousNetworkCircleBanner-EN.png\" class=\"center-block\" alt=\"INC banner\"></p>\n\n\t\t",
        "fr": "<br>\n<br>\n<p>La Semaine de sensibilisation aux cultures autochtones, qui se d\u00e9roulera du 22 au 25 mai, est une excellente occasion de souligner l\u2019histoire, la culture et les r\u00e9alisations des Autochtones et, plus important encore, de reconna\u00eetre l\u2019importante contribution des peuples autochtones \u00e0 notre pays et \u00e0 la soci\u00e9t\u00e9.</p>\n<h2>Activit\u00e9 \u00e0 AAC : Expos\u00e9 sur la culture autochtone </h2>\n<p><b>Date :</b> Mardi 22 mai <br><b>Heure :</b> 11 h 30 \u00e0 13 h 30 (HE) <br><b>Location :</b> \u00e0 la caf\u00e9t\u00e9ria de la tour 6 (CACPA)</p>\n<p>Au programme : une pri\u00e8re d\u2019ouverture, un mot de bienvenue du sous-ministre Chris Forbes et un expos\u00e9 percutant d\u2019un survivant des pensionnats. Les participants pourront assister \u00e0 des expos\u00e9s sur l\u2019histoire des Inuits et sur la culture m\u00e9tisse ainsi qu\u2019\u00e0 un spectacle de chants gutturaux. En plus d\u2019obtenir de l\u2019information sur l\u2019<a href=\"https://collab.agr.gc.ca/co/isri-irea/SitePages/Home.aspx\">Initiative de recrutement d\u2019\u00e9tudiants autochtones</a> et le <a href=\"https://collab.agr.gc.ca/co/acn-crea/SitePages/Home.aspx\">Cercle de r\u00e9seautage des employ\u00e9s autochtones</a> d\u2019AAC, ils pourront voir des expositions d\u2019artisanat, d\u2019objets faits d\u2019\u00e9corce de bouleau et d\u2019artefacts.</p>\n<p><strong>Pour participer par vid\u00e9o : </strong>610900260</p>\n<p><strong>Pour participer par t\u00e9l\u00e9phone : </strong>composez le<strong> </strong>1-855-470-7641, puis entrez le code 610900260#</p>\n<p>Nous vous invitons, apr\u00e8s l\u2019activit\u00e9, \u00e0 vous joindre \u00e0 nous pour une <strong>discussion en groupe (diffus\u00e9e sur le Web) de l\u2019\u00c9cole de la fonction publique du canada </strong>concernant les \u00ab\u2009Services aux Autochtones : consid\u00e9rations sur la gestion des fronti\u00e8res\u2009\u00bb, de 13 h 30 \u00e0 15 h (HE), \u00e0 la salle T6\u20111\u2011136.</p>\n<h2>Pour en savoir davantage</h2>\n<p>Vous pouvez visiter <a href=\"https://www.canada.ca/fr/services/culture/identite-canadienne-societe/peuples-cultures-autochtones.html\">Patrimoine canadien</a> et <a href=\"https://www.aadnc-aandc.gc.ca/fra/1100100012788/1100100012792\">Affaires autochtones et du Nord Canada</a> pour en savoir plus sur les peuples autochtones, sur leur histoire et sur leur culture.</p>\n<p>Nous vous invitons \u00e9galement \u00e0 en apprendre davantage sur le <a href=\"https://collab.agr.gc.ca/co/acn-crea/SitePages/Home.aspx\">Cercle de r\u00e9seautage des employ\u00e9s autochtones</a> d\u2019AAC, et sur d\u2019autres <a href=\"https://collab.agr.gc.ca/co/eedi-emedi/SitePages/Home.aspx\">r\u00e9seaux sur la diversit\u00e9</a>.</p>\n<p>\u00a0</p>\n<p><img src=\"https://intranet.agr.gc.ca/resources/prod/news/images/IndigenousNetworkCircle-FR.png\" class=\"center-block\" alt=\"CRA\"></p>\n\t\t"
    },
    "breadcrumb": {
        "en": "Reminder - Aboriginal Awareness Week - May 22 to 25",
        "fr": "Rappel - Semaine de sensibilisation aux cultures autochtones - 22 au 25 mai"
    },
    "news": {
        "date_posted": {
            "en": "2018-05-10",
            "fr": "2018-05-10"
        },
        "to": {
            "en": "Other regions (not NCR)",
            "fr": "R\u00e9gions autres que la RCN"
        },
        "by": {
            "en": "Brian Gray, Champion, Indigenous Network Circle",
            "fr": "Brian Gray, Champion du Cercle de r\u00e9seautage des employ\u00e9s autochtones"
        }
    }
}