{
    "dcr_id": "1525193257537",
    "lang": "en",
    "title": {
        "en": "North American Occupational Safety and Health Week - May 6-12",
        "fr": "Semaine nord-am\u00e9ricaine de la s\u00e9curit\u00e9 et de la sant\u00e9 au travail - Du 6 au 12 mai"
    },
    "modified": "2018-05-03 00:00:00.0",
    "issued": "2018-05-03 00:00:00.0",
    "type_name": "intra-intra/news-nouv",
    "node_id": "1279030006975",
    "layout_name": null,
    "dc_date_created": "2018-05-01",
    "breadcrumb_label": "",
    "meta": {
        "issued": {
            "en": "2018-05-03",
            "fr": "2018-05-03"
        },
        "modified": {
            "en": "2018-05-03",
            "fr": "2018-05-03"
        },
        "format": {
            "en": "gcformat",
            "fr": "gcformat"
        },
        "title": {
            "en": "North American Occupational Safety and Health Week - May 6-12",
            "fr": "Semaine nord-am\u00e9ricaine de la s\u00e9curit\u00e9 et de la sant\u00e9 au travail - Du 6 au 12 mai"
        },
        "subject": {
            "en": "communications",
            "fr": "communications"
        },
        "description": {
            "en": "The North American Occupational Safety and Health Week promotes \"Making Safety a Habit.\"",
            "fr": "La Semaine nord-am\u00e9ricaine de la s\u00e9curit\u00e9 et de la sant\u00e9 au travail aura pour th\u00e8me \u00ab Faire de la s\u00e9curit\u00e9 une habitude \u00bb."
        },
        "language": {
            "en": "eng",
            "fr": "fra"
        },
        "audience": {
            "en": "gcaudience",
            "fr": "gcaudience"
        },
        "creator": {
            "en": "Agriculture and Agri-Food Canada",
            "fr": "Agriculture et Agroalimentaire Canada"
        },
        "spatial": {
            "en": "gcregions",
            "fr": "gcregions"
        },
        "service": {
            "en": "AAFC_AgriSource",
            "fr": "AAC_AgriSource"
        },
        "accessRights": {
            "en": "3",
            "fr": "3"
        }
    },
    "body": {
        "en": "<br>\n<br>\n<p>The North American Occupational Safety and Health (<abbr title=\"North American Occupational Safety and Health\">NAOSH</abbr>) Week promotes \u201c<strong>Making Safety a Habit</strong>.\" This week is an opportune time to reflect on how reporting a hazard \u2013 no matter how small \u2013 may prevent someone else from being injured or becoming sick. We are all responsible for proactively identifying potential causes of injury and illness as well as taking appropriate measures to correct those conditions, so that no one suffers.</p>\n<p>AAFC\u2019s Hazard Prevention Program consists of many different mitigation measures, all with one goal in mind: to <strong>Make Safety a Habit</strong> at work, at home, and in the community. This same goal resulted in a tripartite agreement involving Canada, the United States, and Mexico when <abbr title=\"North American Occupational Safety and Health\">NAOSH</abbr> Week was launched in June 1997.</p>\n<p>Let us take this opportunity to recognize all the hard work done throughout the year by AAFC\u2019s Workplace Occupational Health and Safety Committees and Health and Safety Representatives across the country. They are key partners in AAFC\u2019s Hazard Prevention Program as they are a forum or contact\u00a0point to help identify and resolve health and safety issues at your local work site.</p>\n<p>Please join the AAFC National Occupational Health and Safety Policy Committee and many others across the country in sharpening our focus on the causes of, and required actions to prevent, occupational injuries and illness.</p>\n<h2><strong>For more information</strong></h2>\n<ul>\n<li><abbr title=\"North American Occupational Safety and Health\">NAOSH</abbr> Week - consult the <a href=\"http://www.naosh.ca/english/\"><abbr title=\"North American Occupational Safety and Health\">NAOSH</abbr> website</a></li>\n<li>AAFC Hazard Prevention Program - consult the <a href=\"http://intranet.agr.gc.ca/ohs\">Occupational Health and Safety</a>\u00a0page</li>\n</ul>\n<p>\n\tRemember, we are <strong>ALL</strong> responsible for the prevention of occupational injuries and illness; health and safety is <strong>a Commitment for Life!</strong></p>\n<p><img src=\"https://intranet.agr.gc.ca/resources/prod/news/images/OHSLogoEN.png\" class=\"center-block\"></p>\n\n\t\t",
        "fr": "<br>\n<br>\n<p>La Semaine nord-am\u00e9ricaine de la s\u00e9curit\u00e9 et de la sant\u00e9 au travail (<abbr title=\"Semaine nord-am\u00e9ricaine de la s\u00e9curit\u00e9 et de la sant\u00e9 au travail\">SNASST</abbr>) aura pour th\u00e8me \u00ab <strong>Faire de la s\u00e9curit\u00e9 une habitude</strong> \u00bb. Prenez le temps de penser qu\u2019en signalant un risque \u2013 peu importe son importance \u2013 nous pouvons emp\u00eacher quelqu\u2019un de se blesser ou de tomber malade. Il nous appartient \u00e0 tous de rep\u00e9rer les causes potentielles de blessure et de maladie, et de prendre les mesures appropri\u00e9es pour corriger la situation afin que personne n\u2019en souffre.</p>\n<p>Le Programme de pr\u00e9vention des risques d\u2019AAC comprend de nombreuses mesures d'att\u00e9nuation, dont l\u2019objectif commun consiste \u00e0 <strong>Faire de la s\u00e9curit\u00e9 une habitude</strong> au travail, \u00e0 la maison et dans la collectivit\u00e9. Cet objectif d\u00e9coule de l\u2019accord tripartite conclu entre le Canada, les \u00c9tats-Unis et le Mexique lorsque la <abbr title=\"Semaine nord-am\u00e9ricaine de la s\u00e9curit\u00e9 et de la sant\u00e9 au travail\">SNASST</abbr> a \u00e9t\u00e9 lanc\u00e9e en juin 1997.</p>\n<p>Profitons de cette occasion pour reconna\u00eetre le travail acharn\u00e9 accompli tout au long de l'ann\u00e9e par nos comit\u00e9s locaux de sant\u00e9 et de s\u00e9curit\u00e9 au travail et les repr\u00e9sentants en mati\u00e8re de sant\u00e9 et de s\u00e9curit\u00e9 au travail partout au pays. Ils sont des partenaires cl\u00e9s du programme de pr\u00e9vention des risques d'AAC tout en servant de forum ou de point de contact pour aider \u00e0 rep\u00e9rer et \u00e0 r\u00e9soudre les probl\u00e8mes de sant\u00e9 et de s\u00e9curit\u00e9 \u00e0 vos lieux de travail.</p>\n<p>Joignez-vous au Comit\u00e9 national d\u2019orientation d\u2019AAC en mati\u00e8re de sant\u00e9 et de s\u00e9curit\u00e9 au travail et \u00e0 nombre d\u2019autres organisations au pays pour aider \u00e0 mieux cibler les causes des blessures et des maladies en milieu de travail, de m\u00eame que les mesures \u00e0 prendre pour les pr\u00e9venir.</p>\n<h2><strong>Pour obtenir de plus amples renseignements</strong></h2>\n<ul>\n<li>La <abbr title=\"Semaine nord-am\u00e9ricaine de la s\u00e9curit\u00e9 et de la sant\u00e9 au travail\">SNASST</abbr> - consultez le <a href=\"http://www.naosh.ca/french/\">site Web de la <abbr title=\"Semaine nord-am\u00e9ricaine de la s\u00e9curit\u00e9 et de la sant\u00e9 au travail\">SNASST</abbr></a></li>\n<li>Le Programme de pr\u00e9vention des risques d'AAC - consultez la page sur\n<a href=\"http://intranet.agr.gc.ca/sst\">la sant\u00e9 et s\u00e9curit\u00e9 au travail</a></li>\n</ul>\n<p>N\u2019oubliez pas : nous sommes <strong>TOUS</strong> responsables de la pr\u00e9vention des maladies et des blessures professionnelles. La sant\u00e9 et la s\u00e9curit\u00e9, c\u2019est <strong>un engagement \u00e0 vie!</strong></p>\n<p><img src=\"https://intranet.agr.gc.ca/resources/prod/news/images/OHSLogoFR.png\" class=\"center-block\"></p>\n\t\t"
    },
    "breadcrumb": {
        "en": "North American Occupational Safety and Health Week - May 6-12",
        "fr": "Semaine nord-am\u00e9ricaine de la s\u00e9curit\u00e9 et de la sant\u00e9 au travail - Du 6 au 12 mai"
    },
    "news": {
        "date_posted": {
            "en": "2018-05-03",
            "fr": "2018-05-03"
        },
        "to": {
            "en": "All staff",
            "fr": "Tous les employ\u00e9s"
        },
        "by": {
            "en": "AAFC's National Occupational Health and Safety Policy Committee",
            "fr": "Comit\u00e9 national d'orientation d'AAC en mati\u00e8re de sant\u00e9 et de s\u00e9curit\u00e9 au travail"
        }
    }
}