{
    "dcr_id": "1525789955289",
    "lang": "en",
    "title": {
        "en": "This Week in The Harvest - A Look Inside AAFC's National Emergency Operations Centre",
        "fr": "Au menu de La Moisson cette semaine - Une visite du Centre national des op\u00e9rations d'urgence d'AAC"
    },
    "modified": "2018-05-10 00:00:00.0",
    "issued": "2018-05-10 00:00:00.0",
    "type_name": "intra-intra/news-nouv",
    "node_id": "1279030006975",
    "layout_name": null,
    "dc_date_created": "2018-05-08",
    "breadcrumb_label": "",
    "meta": {
        "issued": {
            "en": "2018-05-10",
            "fr": "2018-05-10"
        },
        "modified": {
            "en": "2018-05-10",
            "fr": "2018-05-10"
        },
        "format": {
            "en": "gcformat",
            "fr": "gcformat"
        },
        "title": {
            "en": "This Week in The Harvest - A Look Inside AAFC's National Emergency Operations Centre",
            "fr": "Au menu de La Moisson cette semaine - Une visite du Centre national des op\u00e9rations d'urgence d'AAC"
        },
        "subject": {
            "en": "communications",
            "fr": "communications"
        },
        "description": {
            "en": "In case you missed it, here's what's new in The Harvest this week.",
            "fr": "Au cas o\u00f9 vous l'auriez manqu\u00e9, voici le menu que la section La Moisson vous offre cette semaine."
        },
        "language": {
            "en": "eng",
            "fr": "fra"
        },
        "audience": {
            "en": "gcaudience",
            "fr": "gcaudience"
        },
        "creator": {
            "en": "Agriculture and Agri-Food Canada",
            "fr": "Agriculture et Agroalimentaire Canada"
        },
        "spatial": {
            "en": "gcregions",
            "fr": "gcregions"
        },
        "service": {
            "en": "AAFC_AgriSource",
            "fr": "AAC_AgriSource"
        },
        "accessRights": {
            "en": "3",
            "fr": "3"
        }
    },
    "body": {
        "en": "<br>\n<br>\n<p>In case you missed it, here\u2019s what\u2019s new in <a rel=\"external\" href=\"https://collab.agr.gc.ca/apps/harvest-moisson\">The Harvest</a> this week:</p>\n<p><strong>Feature story: </strong><a rel=\"external\" href=\"https://collab.agr.gc.ca/apps/harvest-moisson/\">A Look Inside AAFC\u2019s National Emergency Operations Centre </a> \u2013 Imagine that a storm knocks out power to an AAFC building in Nova Scotia. A computer virus shuts down the network in St-Hyacinthe. There\u2019s a burst water main in Saskatoon. The main administrative building at the Guelph Research Centre has a major fire. If the incident seems likely to cause any interruption to AAFC business or services, the National Emergency Operations Centre (<abbr title=\"National Emergency Operations Centre\">NEOC</abbr>) goes into action. </p>\n<p><strong>Poll: </strong><a rel=\"external\" href=\"https://collab.agr.gc.ca/apps/harvest-moisson/\">How did you first hear about Open Government?</a></p>\n<p><strong>Feature photo:</strong> <a rel=\"external\" href=\"https://collab.agr.gc.ca/apps/harvest-moisson/gallery/Lists/Posts/Post.aspx?ID=163\">Prairie Crocus</a>, by Kosala Rajapaksha, Science and Technology Branch, Saskatoon, Saskatchewan.</p>\n<p><strong>Did you know?</strong> <a rel=\"external\" href=\"https://collab.agr.gc.ca/apps/harvest-moisson/Pages/DidYouKnow.aspx\">In case of an emergency, you can be kept up to date via the Emergency Notification System, by phone, email, text, SMS or voicemail</a>.</p>\n<p>You can get involved by posting a comment or \u201cliking\u201d an article. You can also check out what your colleagues are liking and saying.</p>\n<p>Should you have story ideas, scenic or artistic agriculture-related photos, or interesting facts, please share them with us by clicking on \u201cContribute\u201d in the top menu bar.</p>\n<p>\n<img src=\"https://intranet.agr.gc.ca/resources/prod/news/images/HarvestNEOC.png\" class=\"center-block\" alt=\"National Emergency Operations Centre\"></p>\n\n\t\t",
        "fr": "<br>\n<br>\n<p>Au cas o\u00f9 vous l\u2019auriez manqu\u00e9, voici le menu que la section <a href=\"https://collab.agr.gc.ca/apps/harvest-moisson\">La Moisson</a> vous offre cette semaine :</p>\n<p><strong>Article vedette :</strong> <a rel=\"external\" href=\"https://collab.agr.gc.ca/apps/harvest-moisson/\">Une visite du Centre national des op\u00e9rations d\u2019urgence d\u2019AAC</a> \u2013 Imaginez qu\u2019une temp\u00eate coupe l\u2019alimentation \u00e9lectrique d\u2019un immeuble d\u2019AAC en Nouvelle-\u00c9cosse. Un virus informatique cause une panne du r\u00e9seau \u00e0 St-Hyacinthe. Une conduite d\u2019eau se brise \u00e0 Saskatoon. Un grave incendie se d\u00e9clare dans l\u2019immeuble administratif principal au Centre de recherches de Guelph. S\u2019il semble probable qu\u2019un incident entra\u00eene une interruption des activit\u00e9s ou des services d\u2019AAC, le Centre national des op\u00e9rations d\u2019urgence (CNOU) passe \u00e0 l\u2019action. </p>\n<p><strong>S</strong><strong>ondage : </strong><a rel=\"external\" href=\"https://collab.agr.gc.ca/apps/harvest-moisson\">Comment avez-vous entendu parler de la notion de gouvernement ouvert pour la premi\u00e8re fois?</a></p>\n<p><strong>Photo vedette :</strong> <a href=\"https://collab.agr.gc.ca/apps/harvest-moisson/gallery/Lists/Posts/Post.aspx?ID=163\">An\u00e9mones des prairies</a>, par Kosala Rajapaksha, Direction g\u00e9n\u00e9rale des sciences et de la technologie, Saskatoon (Saskatchewan).</p>\n<p><strong>Le saviez-vous?</strong> <a href=\"https://collab.agr.gc.ca/apps/harvest-moisson/Pages/DidYouKnow.aspx\">Le Syst\u00e8me de notification d\u2019urgence peut vous informer des urgences par t\u00e9l\u00e9phone, par courriel, par message texte, par messagerie instantan\u00e9e ou par messagerie vocale.</a></p>\n<p>Vous pouvez participer en affichant des commentaires ou en utilisant la fonction \u00ab J\u2019aime \u00bb ou \u00ab Partager \u00bb pour exprimer votre appr\u00e9ciation d\u2019un article. Vous pouvez aussi aller voir ce que vos coll\u00e8gues aiment et ont \u00e0 dire.</p>\n<p>Si vous avez des id\u00e9es d\u2019articles, des photos de paysages ou \u00e0 caract\u00e8re artistique li\u00e9es \u00e0 l\u2019agriculture ou encore des faits int\u00e9ressants, veuillez nous en faire part en cliquant sur \u00ab Collaborer \u00bb dans la barre de menu en haut de la page.</p>\n<p><img src=\"https://intranet.agr.gc.ca/resources/prod/news/images/HarvestNEOC.png\" class=\"center-block\"></p>\n\t\t"
    },
    "breadcrumb": {
        "en": "This Week in The Harvest - A Look Inside AAFC's National Emergency Operations Centre",
        "fr": "Au menu de La Moisson cette semaine - Une visite du Centre national des op\u00e9rations d'urgence d'AAC"
    },
    "news": {
        "date_posted": {
            "en": "2018-05-10",
            "fr": "2018-05-10"
        },
        "to": {
            "en": "All staff",
            "fr": "Tous les employ\u00e9s"
        },
        "by": {
            "en": "Corporate Communications, Public Affairs Branch",
            "fr": "Communications minist\u00e9rielles, Direction g\u00e9n\u00e9rale des affaires publiques"
        }
    }
}