{
    "dcr_id": "1526391893932",
    "lang": "en",
    "title": {
        "en": "Governance Secretariat",
        "fr": "Secr\u00e9tariat \u00e0 la gouvernance"
    },
    "modified": "2018-05-15 00:00:00.0",
    "issued": "2018-05-15 00:00:00.0",
    "type_name": "intra-intra/empl-empl",
    "node_id": "1279029955397",
    "layout_name": null,
    "dc_date_created": "2018-05-15",
    "breadcrumb_label": "",
    "meta": {
        "issued": {
            "en": "2018-05-15",
            "fr": "2018-05-15"
        },
        "modified": {
            "en": "2018-05-15",
            "fr": "2018-05-15"
        },
        "format": {
            "en": "gcformat",
            "fr": "gcformat"
        },
        "title": {
            "en": "Governance Secretariat",
            "fr": "Secr\u00e9tariat \u00e0 la gouvernance"
        },
        "subject": {
            "en": "staffing",
            "fr": "dotation en personnel"
        },
        "language": {
            "en": "eng",
            "fr": "fra"
        },
        "audience": {
            "en": "gcaudience",
            "fr": "gcaudience"
        },
        "type": {
            "en": "notice",
            "fr": "avis"
        },
        "creator": {
            "en": "Agriculture and Agri-Food Canada",
            "fr": "Agriculture et Agroalimentaire Canada"
        },
        "spatial": {
            "en": "gcregions",
            "fr": "gcregions"
        },
        "service": {
            "en": "AAFC_AgriSource",
            "fr": "AAC_AgriSource"
        },
        "accessRights": {
            "en": "3",
            "fr": "3"
        }
    },
    "body": {
        "en": "\n<h3>Duties:</h3>\n<p>\u00a0</p>\n<p>1.\u00a0 Provide a governance secretariat function for various committees including:\u00a0 IPC, PRC, EMT, ARC, IMWG and the PM Forum.\u00a0</p>\n<p>2.\u00a0 Maintain the Master list that tracks all governance committee decisions on IM/IT investments.\u00a0 Maintain action item logs.\u00a0 Maintain history logs.\u00a0</p>\n<p>3.\u00a0 Maintain SharePoint presence for the committees listed above.</p>\n<p>4.\u00a0 Review and QA documentation for completeness and accuracy.</p>\n<p>5.\u00a0 Provide administrative support to the ISB PMO and other areas of IPPPM as required.</p>\n<h3>\u00a0</h3>\n<h3>Statement of Merit Criteria:</h3>\n<p>\u00a0</p>\n<p><strong>Essential Qualifications</strong></p>\n<p>Education</p>\n<p>Successful completion of a secondary school diploma OR an acceptable combination of education, training and/or experience.</p>\n<p>Experience(s)</p>\n<p>Experience coordinating and liaising with offices of senior executives and internal or external clients.</p>\n<p>Experience in reviewing and editing documents.</p>\n<p>Experience in the provision of administrative support services such as coordination of a bring forward system, scheduling meetings, drafting correspondence and managing agenda for senior executive(s).</p>\n<p>Experience consulting with managers and employees to obtain information, confirm requirements and seek clarification.\u00a0</p>\n<p>\u00a0</p>\n<p>Knowledge(s)</p>\n<p>Nil.</p>\n<p>\u00a0</p>\n<p>Competencies</p>\n<p>Interactive Communication</p>\n<p>Writing Skills</p>\n<p>Initiative</p>\n<p>\u00a0</p>\n<p><strong>Language Requirement(s) </strong></p>\n<p>Bilingual Imperative BBB/BBB</p>\n<p>\u00a0</p>\n<h3>Asset Qualifications</h3>\n<p>\u00a0</p>\n<p>Experience using Microsoft applications, including Excel, Word, and PowerPoint.\u00a0</p>\n<p>Experience in creating charts, tables, and schedules.\u00a0</p>\n<p>Experience in the preparation, analysis and modification of data reports.\u00a0</p>\n<p>Experience displaying and formatting content in the Knowledge Workspace / Microsoft SharePoint.\u00a0</p>\n<p>Experience in the development of reporting formats and templates and in the process of preparing such reports.\u00a0</p>\n<p>\u00a0</p>\n<h3>Organizational Needs</h3>\n<p>\u00a0</p>\n<p>In support of achieving a diversified workforce, consideration may be given to candidates self-identifying as belonging to one of the following Employment Equity groups: Aboriginal peoples, Persons with a Disability; Visible Minorities, Women.</p>\n<p>\u00a0</p>\n<h3>Conditions of Employment</h3>\n<p>\u00a0</p>\n<p><strong>Security Requirement(s)</strong></p>\n<p>Enhanced Reliability</p>\n<p>\u00a0</p>\n<p><strong>Notes:</strong></p>\n<p>\u00a0</p>\n<p>1.\u00a0 The Public Service of Canada is committed to developing inclusive, barrier-free selection and appointment processes and work environments. If contacted in relation to this process, please advise the organization's representative of your need for accommodation measures which must be taken to enable you to be assessed in a fair and equitable manner.\u00a0</p>\n<p>2.\u00a0 Deployments cannot change the tenure of an employee (i.e: term to indeterminate) or constitute a promotion.\u00a0\u00a0</p>\n<p>3.\u00a0 Communication for this process will be sent via email.</p>\n",
        "fr": "\n<h3>Fonctions:</h3>\n<p>\u00a0</p>\n<p>1.\u00a0 Fournir une fonction de secr\u00e9tariat de la gouvernance pour divers comit\u00e9s, y compris: IPC, PRC, EMT, ARC, IMWG et le Forum PM.\u00a0</p>\n<p>2.\u00a0 Maintenir la liste de Ma\u00eetre qui suit toutes les d\u00e9cisions du comit\u00e9 de gouvernance sur les investissements en GI / TI. Maintenir les journaux des \u00e9l\u00e9ments d'action. Maintenir les journaux d'historique.\u00a0</p>\n<p>3.\u00a0 Maintenir la pr\u00e9sence de SharePoint pour les comit\u00e9s \u00e9num\u00e9r\u00e9s ci-dessus.\u00a0</p>\n<p>4.\u00a0 Examen et documentation d'AQ pour l'exhaustivit\u00e9 et l'exactitude.\u00a0</p>\n<p>5.\u00a0 Fournir un soutien administratif au PMO de l'ISB et \u00e0 d'autres domaines de l'IPPPM, au besoin.\u00a0 <strong>\u00a0</strong></p>\n<p>\u00a0</p>\n<h3>\u00c9nonc\u00e9 des crit\u00e8res de m\u00e9rite:</h3>\n<p>\u00a0</p>\n<p><strong>Qualifications essentielles </strong></p>\n<p>\u00a0</p>\n<p>\u00c9tudes</p>\n<p>Dipl\u00f4me d\u2019\u00e9tudes secondaires ou combinaison acceptable d\u2019\u00e9tudes, de formation et/ou d\u2019exp\u00e9rience.</p>\n<p>\u00a0</p>\n<p>Exp\u00e9rience</p>\n<p>Exp\u00e9rience de coordination et de liaison avec les bureaux des cadres sup\u00e9rieurs et des clients internes ou externes.\u00a0</p>\n<p>Exp\u00e9rience en revue et \u00e9dition de documents.\u00a0</p>\n<p>Exp\u00e9rience dans la fourniture de services de soutien administratif tels que la coordination d'un syst\u00e8me d'avancement, la planification des r\u00e9unions, la r\u00e9daction de la correspondance et la gestion du programme pour les cadres sup\u00e9rieurs **.\u00a0</p>\n<p>Exp\u00e9rience de consultation avec les gestionnaires et les employ\u00e9s pour obtenir des informations, confirmer les exigences et demander des \u00e9claircissements.\u00a0</p>\n<p>\u00a0</p>\n<p>Connaissances</p>\n<p>N\u00e9ant.</p>\n<p>\u00a0</p>\n<p>Comp\u00e9tences</p>\n<p>Communication interactive</p>\n<p>Comp\u00e9tences en \u00e9criture</p>\n<p>Initiative</p>\n<p>\u00a0</p>\n<p><strong>Exigences linguistiques </strong>\u00a0</p>\n<p>Poste bilingue, niveau BBB/BBB imp\u00e9ratif \u00e0 la nomination.</p>\n<p>\u00a0</p>\n<p><strong>Qualifications constituant un atout \u00a0</strong></p>\n<p>\u00a0</p>\n<p>Exp\u00e9rience de l\u2019utilisation des applications de Microsoft, notamment d\u2019Excel, de Word et de PowerPoint.\u00a0</p>\n<p>Exp\u00e9rience de la cr\u00e9ation de graphiques, de tableaux, d\u2019\u00e9ch\u00e9anciers et de tableaux.\u00a0</p>\n<p>Exp\u00e9rience de la pr\u00e9paration, de l\u2019analyse et de la modification de rapports de donn\u00e9es.\u00a0</p>\n<p>Exp\u00e9rience de l\u2019affichage et de la mise en page de contenu dans l\u2019Espace de travail du savoir/Microsoft SharePoint.\u00a0</p>\n<p>Exp\u00e9rience de la proposition de formats de rapports et de mod\u00e8les sp\u00e9ciaux et du lancement du processus de pr\u00e9paration de ce type de rapports.\u00a0\u00a0</p>\n<h3>\u00a0</h3>\n<h3>Besoins organisationnels</h3>\n<p>\u00a0</p>\n<p>Pour les besoins de la diversification de l\u2019effectif, une attention particuli\u00e8re pourrait \u00eatre accord\u00e9e aux candidats qui auront indiqu\u00e9 leur appartenance \u00e0 l\u2019un des groupes suivants, vis\u00e9s par l\u2019\u00e9quit\u00e9 en mati\u00e8re d\u2019emploi : Autochtones, personnes handicap\u00e9es, membres d\u2019une minorit\u00e9 visible, femmes.\u00a0\u00a0</p>\n<p>\u00a0</p>\n<p><strong>Conditions d\u2019emploi</strong></p>\n<p>\u00a0</p>\n<p>Exigences relatives \u00e0 la s\u00e9curit\u00e9</p>\n<p>Fiabilit\u00e9 approfondie</p>\n<p>\u00a0</p>\n<p><strong>Remarque :</strong></p>\n<p>\u00a0</p>\n<p>1.\u00a0 La fonction publique du Canada s\u2019engage \u00e0 instaurer des processus de s\u00e9lection et de nomination ainsi qu\u2019un milieu de travail inclusifs et exempts d\u2019obstacles. Si l\u2019on communique avec vous au sujet de ce processus, et que vous avez des besoins particuliers, veuillez en informer le repr\u00e9sentant ou la repr\u00e9sentante de l\u2019organisation afin que les mesures d\u2019adaptation n\u00e9cessaires soient prises pour vous assurer une \u00e9valuation juste et \u00e9quitable.\u00a0</p>\n<p>2.\u00a0 Les mutations ne doivent pas entra\u00eener de modification \u00e0 la dur\u00e9e d\u2019emploi d\u2019un employ\u00e9 (d\u00e9termin\u00e9e ou ind\u00e9termin\u00e9e) ni constituer une promotion.\u00a0\u00a0\u00a0</p>\n<p>3.\u00a0 Les communications relatives \u00e0 ce processus se feront par courriel.</p>\n<p>\u00a0</p>\n<p>\u00a0</p>\n\n"
    },
    "breadcrumb": {
        "en": "Governance Secretariat",
        "fr": "Secr\u00e9tariat \u00e0 la gouvernance"
    },
    "empl": {
        "type": {
            "en": "Assignment, Deployment, Acting",
            "fr": "Affectation, Mutation, Int\u00e9rimaire"
        },
        "classification": {
            "en": "AS-3",
            "fr": "AS-3"
        },
        "branch": {
            "en": "Information Systems Branch",
            "fr": "Direction g\u00e9n\u00e9rale des syst\u00e8mes d'information"
        },
        "locations": {
            "en": "National Capital Region, NHCAP, Baseline Rd",
            "fr": "R\u00e9gion de la capitale nationale, CACPA, rue Baselin"
        },
        "date_closing": {
            "en": "2018-05-31",
            "fr": "2018-05-31"
        },
        "open_to": {
            "en": "Substantive Employees of AAFC and CFIA Located in the NCR",
            "fr": "Employ\u00e9s de fond d'AAC et de l'ACIA Situ\u00e9s dans la RCN"
        },
        "name": {
            "en": "Michael Boulet",
            "fr": "Michael Boulet"
        },
        "email": {
            "en": "michael.boulet@agr.gc.ca",
            "fr": "michael.boulet@agr.gc.ca"
        }
    }
}