{
    "dcr_id": "1526308873327",
    "lang": "en",
    "title": {
        "en": "Reminder - Scheduled Maintenance of ISB Services - May 26",
        "fr": "Rappel - Entretien pr\u00e9vu des services de la DGSI - 26 mai"
    },
    "modified": "2018-05-23 00:00:00.0",
    "issued": "2018-05-16 00:00:00.0",
    "type_name": "intra-intra/news-nouv",
    "node_id": "1279030006975",
    "layout_name": null,
    "dc_date_created": "2018-05-14",
    "breadcrumb_label": "",
    "meta": {
        "issued": {
            "en": "2018-05-16",
            "fr": "2018-05-16"
        },
        "modified": {
            "en": "2018-05-23",
            "fr": "2018-05-24"
        },
        "format": {
            "en": "gcformat",
            "fr": "gcformat"
        },
        "title": {
            "en": "Reminder - Scheduled Maintenance of ISB Services - May 26",
            "fr": "Rappel - Entretien pr\u00e9vu des services de la DGSI - 26 mai"
        },
        "subject": {
            "en": "communications",
            "fr": "communications"
        },
        "description": {
            "en": "Please be advised that preventative maintenance of ISB services will be performed on Saturday, May 26, 2018.",
            "fr": "Veuillez noter qu'un entretien pr\u00e9ventif des services de la DGSI aura lieu le samedi 26 mai 2018."
        },
        "language": {
            "en": "eng",
            "fr": "fra"
        },
        "audience": {
            "en": "gcaudience",
            "fr": "gcaudience"
        },
        "creator": {
            "en": "Agriculture and Agri-Food Canada",
            "fr": "Agriculture et Agroalimentaire Canada"
        },
        "spatial": {
            "en": "gcregions",
            "fr": "gcregions"
        },
        "service": {
            "en": "AAFC_AgriSource",
            "fr": "AAC_AgriSource"
        },
        "accessRights": {
            "en": "3",
            "fr": "3"
        }
    },
    "body": {
        "en": "<br>\n<br>\n<p>Please be advised that preventative maintenance of ISB services will be performed on Saturday, May 26, 2018.</p>\n<p>The following downtime is part of a management plan to upgrade our infrastructure systems. These measures are performed regularly to improve performance and ensure that the department does not experience any outages that would affect employees and the delivery of our services.</p>\n<p>As a result, the following services will not be available during the following times.</p>\n<p><strong>Saturday, May 26 \u2013 3:00 a.m. until 1:00 p.m. (ET)</strong></p>\n<ul>\n<li>\n<p>Data Services for Remote sites:</p>\n<ul>\n<li>Access to all corporate applications</li>\n<li>Access to email</li>\n<li>Access to Internet</li>\n<li>Access to network drives</li>\n</ul>\n</li>\n</ul>\n<ul>\n<li>Integrated Data and Voice Solution (<abbr title=\"Integrated Data and Voice Solution\">IDVS</abbr>) Phone Services will be impacted for Regional IDVS Sites including access to:\n\t\n<ul>\n<li>Voice Calls to other <abbr title=\"Integrated Data and Voice Solution\">IDVS</abbr> locations</li>\n<li>Voicemail</li>\n</ul>\n</li>\n</ul>\n<p><strong>Note:</strong> Local 911 and external calls will be available.</p>\n<p>Should you have any questions or concerns, please do not hesitate to contact IT Centre TI.</p>\n<p><strong>IT Centre TI<br>\n</strong>Telephone: 1-855-545-4411<br>\n<a href=\"http://assystweb.agr.gc.ca:8080/assystnet\">My IT Centre TI</a></p>\n<p><img src=\"https://intranet.agr.gc.ca/resources/prod/news/images/ITCentreTI2.png\" class=\"center-block\"></p>\n\n\t\t",
        "fr": "<br>\n<br>\n<p>Veuillez noter qu\u2019un entretien pr\u00e9ventif des services de la DGSI aura lieu le samedi 26 mai 2018.</p>\n<p>Cette interruption est pr\u00e9vue dans un plan de gestion pour la mise \u00e0 niveau de nos syst\u00e8mes d\u2019infrastructure. Ce type d\u2019entretien est effectu\u00e9 r\u00e9guli\u00e8rement afin d\u2019am\u00e9liorer le rendement et de pr\u00e9venir toute panne pouvant avoir des r\u00e9percussions sur les employ\u00e9s et la prestation des services du Minist\u00e8re.</p>\n<p>En cons\u00e9quence, les services suivants ne seront pas disponibles pendant les p\u00e9riodes suivantes.</p>\n<p><strong>Samedi 26 mai \u2013 de 3 h \u00e0 13 h (HE)</strong></p>\n<ul>\n<li>\n<p>Services de donn\u00e9es pour les sites \u00e9loign\u00e9s :</p>\n<ul>\n<li>Acc\u00e8s \u00e0 toutes les applications organisationnelles</li>\n<li>Acc\u00e8s au courriel</li>\n<li>Acc\u00e8s \u00e0 Internet</li>\n<li>Acc\u00e8s aux lecteurs r\u00e9seau</li>\n</ul>\n</li>\n</ul>\n<ul>\n<li>Les services t\u00e9l\u00e9phoniques IDVS (solution d\u2019interr\u00e9seautage voix-donn\u00e9es) pour les bureaux r\u00e9gionaux dot\u00e9s de tels services seront touch\u00e9s, y compris l\u2019acc\u00e8s aux services suivants :\n\t\n<ul>\n<li>Appels vocaux vers d\u2019autres bureaux dot\u00e9s de services IDVS</li>\n<li>Messagerie vocale</li>\n</ul>\n</li>\n</ul>\n<p><strong>Remarque :</strong> Le service 911 local et les appels externes seront disponibles.</p>\n<p>Pour toute question ou pr\u00e9occupation, n\u2019h\u00e9sitez pas \u00e0 communiquer avec le IT Centre TI.</p>\n<p><strong>IT Centre TI<br>\n</strong>T\u00e9l\u00e9phone : 1-855-545-4411<br>\n<a href=\"http://assystweb.agr.gc.ca:8080/assystnet\">Mon IT Centre TI</a></p>\n<p><img src=\"https://intranet.agr.gc.ca/resources/prod/news/images/ITCentreTI2.png\" class=\"center-block\"></p>\n\t\t"
    },
    "breadcrumb": {
        "en": "Reminder - Scheduled Maintenance of ISB Services - May 26",
        "fr": "Rappel - Entretien pr\u00e9vu des services de la DGSI - 26 mai"
    },
    "news": {
        "date_posted": {
            "en": "2018-05-16",
            "fr": "2018-05-16"
        },
        "to": {
            "en": "All staff",
            "fr": "Tous les employ\u00e9s"
        },
        "by": {
            "en": "IT Centre TI",
            "fr": "IT Centre TI"
        }
    }
}