{
    "dcr_id": "1526405784452",
    "lang": "en",
    "title": {
        "en": "Be Cautious of G7-themed Emails",
        "fr": "M\u00e9fiez-vous des courriels portant sur le G7"
    },
    "modified": "2018-05-17 00:00:00.0",
    "issued": "2018-05-17 00:00:00.0",
    "type_name": "intra-intra/news-nouv",
    "node_id": "1279030006975",
    "layout_name": null,
    "dc_date_created": "2018-05-15",
    "breadcrumb_label": "",
    "meta": {
        "issued": {
            "en": "2018-05-17",
            "fr": "2018-05-17"
        },
        "modified": {
            "en": "2018-05-17",
            "fr": "2018-05-17"
        },
        "format": {
            "en": "gcformat",
            "fr": "gcformat"
        },
        "title": {
            "en": "Be Cautious of G7-themed Emails",
            "fr": "M\u00e9fiez-vous des courriels portant sur le G7"
        },
        "subject": {
            "en": "communications",
            "fr": "communications"
        },
        "description": {
            "en": "The upcoming G7 Summit - being held in Charlevoix, QC, in June - may make different organizations in Canada targets of phishing emails using the G7 theme as a lure.",
            "fr": "Des courriels d'hame\u00e7onnage utilisant le th\u00e8me du G7 comme leurre pourraient \u00eatre envoy\u00e9s \u00e0 diff\u00e9rentes organisations au Canada \u00e0 l'occasion du prochain Sommet du G7, qui aura lieu dans Charlevoix (Qu\u00e9bec) en juin."
        },
        "language": {
            "en": "eng",
            "fr": "fra"
        },
        "audience": {
            "en": "gcaudience",
            "fr": "gcaudience"
        },
        "creator": {
            "en": "Agriculture and Agri-Food Canada",
            "fr": "Agriculture et Agroalimentaire Canada"
        },
        "spatial": {
            "en": "gcregions",
            "fr": "gcregions"
        },
        "service": {
            "en": "AAFC_AgriSource",
            "fr": "AAC_AgriSource"
        },
        "accessRights": {
            "en": "3",
            "fr": "3"
        }
    },
    "body": {
        "en": "<br>\n<br>\n<p>The upcoming G7 Summit \u2013 being held in Charlevoix, QC, in June \u2013 may make different organizations in Canada targets of phishing emails using the G7 theme as a lure. These types of emails are used to gather personal, financial, and password information, and can contain malicious links or attachments that can compromise your computer system. International and highly publicized events are frequently used as themes for phishing campaigns, targeting organizations that are involved in or supporting the event.</p>\n<h2><strong>Protect yourself: helpful tips</strong></h2>\n<p>To protect yourself and those around you, here are some tips and tricks to help identify phishing attempts:</p>\n<ul>\n<li>Be wary of any emails sent from a non-gc.ca or canada.ca email address. If you receive email from someone in a government department with one of these unusual addresses, contact the sender to confirm that they sent the message. Spear-phishing, or the sending of emails that look like they\u2019re coming from an individual known to the recipient, is a targeted form of phishing.</li>\n<li>If anything, such as the subject line, email content or frequent spelling errors, makes you suspicious, be careful. If the email contains links or attachments, hover your mouse over the text without clicking to see where the url would direct you.</li>\n<li>If you have not clicked anything within a suspicious email, delete it immediately. If you have clicked on a link or attachment, report it to <a href=\"http://intranet.agr.gc.ca/agrisource/eng/branches-and-offices/information-systems-branch/services/it-centre-ti?id=1313593700518&amp;src=sl-ls\">IT Centre TI</a> as soon as possible.</li>\n<li>Take the <strong>mandatory</strong> <a href=\"http://intranet.agr.gc.ca/agrisource/eng/branches-and-offices/corporate-management-branch/services/security-awareness-training?id=1325695839878\">web-based security awareness courses</a>.</li>\n<li>Be aware of key aspects of phishing emails. See the <a href=\"http://intranet.agr.gc.ca/resources/prod/pdf/cmb_dggi/ctec_cec_malicious_guide_malveillants-eng.pdf\">Malicious Email Detection Guide</a>.</li>\n<li>If you have local administrative rights, only use them for authorized purposes. Do not leave your admin account logged in and do not use them to read email or access web sites.</li>\n<li>Log off or restart your workstation at the end of every day to ensure regular patches/updates are installed.</li>\n</ul>\n<h2><strong>Beware of technical support scams</strong></h2>\n<p>Scammers may also attempt to phone you, claiming to be from an IT service group or the help desk. They may offer a few details to \u201cprove\u201d their legitimacy, and sometimes may follow up with an email, which can contain malicious links and attachments.</p>\n<p>The IT Centre TI at AAFC does not call users to provide unsolicited technical support, and if a problem is detected on your device, they will send out an analyst to provide on-site support.</p>\n<h2><strong>Report incidents and suspicious activity</strong></h2>\n<p>If you believe your device has been compromised by ransomware or other malware, please report it as soon as possible to your manager and <a href=\"http://intranet.agr.gc.ca/agrisource/eng/branches-and-offices/information-systems-branch/services/it-centre-ti?id=1313593700518&amp;src=sl-ls\">IT Centre TI</a>.</p>\n<p><img src=\"https://intranet.agr.gc.ca/resources/prod/news/images/Ransomware.png\" class=\"center-block\"></p>\n\n\t\t",
        "fr": "<br>\n<br>\n<p>Des courriels d\u2019hame\u00e7onnage utilisant le th\u00e8me du G7 comme leurre pourraient \u00eatre envoy\u00e9s \u00e0 diff\u00e9rentes organisations au Canada \u00e0 l\u2019occasion du prochain Sommet du G7, qui aura lieu dans Charlevoix (Qu\u00e9bec) en juin. Ce type de courriels sert \u00e0 recueillir des renseignements personnels et financiers ainsi que des mots de passe et peut contenir des pi\u00e8ces jointes ou des liens malveillants qui peuvent compromettre votre syst\u00e8me informatique. Les \u00e9v\u00e9nements internationaux tr\u00e8s publicis\u00e9s sont souvent exploit\u00e9s pour hame\u00e7onner des organisations qui participent \u00e0 l\u2019\u00e9v\u00e9nement ou en font la promotion.</p>\n<h2><strong>Prot\u00e9gez-vous : conseils utiles</strong></h2>\n<p>Pour assurer votre protection et celle de votre entourage, voici quelques conseils et astuces qui vous aideront \u00e0 d\u00e9celer les tentatives d\u2019hame\u00e7onnage :</p>\n<ul>\n<li>M\u00e9fiez-vous des courriels envoy\u00e9s d\u2019une adresse autre que les adresses gc.ca ou canada.ca. Si vous recevez un courriel de quelqu\u2019un travaillant dans un minist\u00e8re avec une adresse inhabituelle, communiquez avec l\u2019exp\u00e9diteur pour confirmer qu\u2019il a envoy\u00e9 le message. Le harponnage, ou l\u2019envoi de courriels qui ressemblent \u00e0 un message provenant d\u2019une personne connue du destinataire, est une forme cibl\u00e9e d\u2019hame\u00e7onnage.</li>\n<li>Si quelque chose vous met la puce \u00e0 l\u2019oreille, comme l\u2019objet du message, son contenu ou des erreurs d\u2019orthographe fr\u00e9quentes, soyez prudent. Si le courriel contient des liens ou des pi\u00e8ces jointes, passez le pointeur de votre souris sur le texte sans cliquer pour voir o\u00f9 vous m\u00e8nerait l\u2019adresse url.</li>\n<li>Si vous n\u2019avez cliqu\u00e9 sur rien dans un courriel suspect, supprimez-le imm\u00e9diatement. Si vous avez cliqu\u00e9 sur un lien ou une pi\u00e8ce jointe, signalez-le au <a href=\"http://intranet.agr.gc.ca/agrisource/fra/directions-generales-et-bureaux/direction-generale-des-systemes-dinformation/services/it-centre-ti?id=1313593700518\">IT Centre TI</a> dans les plus brefs d\u00e9lais.</li>\n<li>Suivez les <a href=\"http://intranet.agr.gc.ca/agrisource/fra/directions-generales-et-bureaux/direction-generale-de-la-gestion-integree/services/la-sensibilisation-a-la-securite/formation-en-ligne-sur-la-sensibilisation-a-la-securite?id=1325695839878\">cours <strong>obligatoires</strong> de sensibilisation \u00e0 la s\u00e9curit\u00e9 sur le Web</a>.</li>\n<li>Sachez reconna\u00eetre les principales caract\u00e9ristiques des courriels d\u2019hame\u00e7onnage. Consultez le <a href=\"http://intranet.agr.gc.ca/resources/prod/pdf/isb_dgsi/email/cec_guide_malveillants-fra.pdf\">Guide de d\u00e9tection des courriels malveillants</a>.</li>\n<li>Si vous d\u00e9tenez des droits d\u2019administrateur local, utilisez-les \u00e0 des fins autoris\u00e9es seulement. \u00c9vitez de laisser des sessions ouvertes dans votre compte d\u2019administrateur et \u00e9vitez d\u2019utiliser celui-ci pour lire des courriels ou acc\u00e9der \u00e0 des sites Web.</li>\n<li>Fermez la session ou red\u00e9marrez votre poste de travail \u00e0 la fin de chaque journ\u00e9e pour vous assurer que les correctifs et les mises \u00e0 jour r\u00e9guli\u00e8res sont install\u00e9s.</li>\n</ul>\n<h2><strong>M\u00e9fiez-vous des pourriels de soutien technique</strong></h2>\n<p>Les fraudeurs peuvent aussi essayer de vous t\u00e9l\u00e9phoner en se faisant passer pour une personne du groupe de service TI ou du d\u00e9pannage. Ils peuvent fournir quelques renseignements pour \u00ab prouver \u00bb leur l\u00e9gitimit\u00e9 et parfois faire un suivi en envoyant un courriel pouvant contenir des pi\u00e8ces jointes et des liens malveillants.</p>\n<p>Le IT Centre TI d\u2019AAC n\u2019appelle jamais d\u2019utilisateurs pour offrir un soutien technique non sollicit\u00e9, et si un probl\u00e8me est d\u00e9tect\u00e9 sur votre appareil, le centre enverra un analyste sur place.</p>\n<h2><strong>Signalez les incidents et les activit\u00e9s suspectes</strong></h2>\n<p>Si vous pensez qu\u2019un ran\u00e7ongiciel ou un autre logiciel malveillant a infiltr\u00e9 votre appareil, veuillez le signaler dans les plus d\u00e9lais \u00e0 votre gestionnaire et au <a href=\"http://intranet.agr.gc.ca/agrisource/fra/directions-generales-et-bureaux/direction-generale-des-systemes-dinformation/services/it-centre-ti?id=1313593700518\">IT Centre TI</a>.</p>\n<p><img src=\"https://intranet.agr.gc.ca/resources/prod/news/images/Ransomware.png\" class=\"center-block\"></p>\n\t\t"
    },
    "breadcrumb": {
        "en": "Be Cautious of G7-themed Emails",
        "fr": "M\u00e9fiez-vous des courriels portant sur le G7"
    },
    "news": {
        "date_posted": {
            "en": "2018-05-17",
            "fr": "2018-05-17"
        },
        "to": {
            "en": "All staff",
            "fr": "Tous les employ\u00e9s"
        },
        "by": {
            "en": "Corporate Management Branch and Information Services Branch",
            "fr": "Direction g\u00e9n\u00e9rale de la gestion int\u00e9gr\u00e9e et Direction g\u00e9n\u00e9rale des syst\u00e8mes d'information"
        }
    }
}