{
    "dcr_id": "1526065009944",
    "lang": "en",
    "title": {
        "en": "Reminder - Have Your Say on the Modernization of the Official Languages Act - Deadline is May 31",
        "fr": "Rappel - Ayez votre mot \u00e0 dire sur la modernisation de la Loi sur les langues officielles - La date limite est le 31 mai"
    },
    "modified": "2018-05-31 00:00:00.0",
    "issued": "2018-05-16 00:00:00.0",
    "type_name": "intra-intra/news-nouv",
    "node_id": "1279030006975",
    "layout_name": null,
    "dc_date_created": "2018-05-14",
    "breadcrumb_label": "",
    "meta": {
        "issued": {
            "en": "2018-05-16",
            "fr": "2018-05-16"
        },
        "modified": {
            "en": "2018-05-31",
            "fr": "2018-05-30"
        },
        "format": {
            "en": "gcformat",
            "fr": "gcformat"
        },
        "title": {
            "en": "Reminder - Have Your Say on the Modernization of the Official Languages Act - Deadline is May 31",
            "fr": "Rappel - Ayez votre mot \u00e0 dire sur la modernisation de la Loi sur les langues officielles - La date limite est le 31 mai"
        },
        "subject": {
            "en": "communications",
            "fr": "communications"
        },
        "description": {
            "en": "As the 50<sup>th</sup> anniversary of Canada's <I>Official Languages Act</I> (OLA) approaches, the Office of the Commissioner of Official Languages has started a discussion on possible amendments to the OLA.",
            "fr": "\u00c0 l'aube du 50<sup>e</sup> anniversaire de la <I>Loi sur les langues officielles</I> (LLO) du Canada, le Commissariat aux langues officielles a entam\u00e9 sa r\u00e9flexion sur les modifications possibles \u00e0 apporter \u00e0 la LLO pour l'actualiser afin qu'elle tienne compte des nombreux changements qui ont marqu\u00e9 la soci\u00e9t\u00e9 canadienne."
        },
        "language": {
            "en": "eng",
            "fr": "fra"
        },
        "audience": {
            "en": "gcaudience",
            "fr": "gcaudience"
        },
        "creator": {
            "en": "Agriculture and Agri-Food Canada",
            "fr": "Agriculture et Agroalimentaire Canada"
        },
        "spatial": {
            "en": "gcregions",
            "fr": "gcregions"
        },
        "service": {
            "en": "AAFC_AgriSource",
            "fr": "AAC_AgriSource"
        },
        "accessRights": {
            "en": "3",
            "fr": "3"
        }
    },
    "body": {
        "en": "<br>\n<br>\n<p>As the 50<sup>th</sup> anniversary of Canada\u2019s <em>Official Languages Act</em> (<abbr title=\"Official Languages Act\">OLA</abbr>) approaches, the Office of the Commissioner of Official Languages (<abbr title=\"Office of the Commissioner of Official Languages\">OCOL</abbr>) has started a discussion on possible amendments to the <abbr title=\"Official Languages Act\">OLA</abbr>. The goal is to update the Act to ensure that it reflects the many ways that Canadian society has changed.</p>\n<p><abbr title=\"Office of the Commissioner of Official Languages\">OCOL</abbr> wants to hear what you have to say regarding access to justice in both official languages, the delivery of government services in the digital age, the vitality and development of linguistic minorities, the promotion of the recognition and use of both official languages in Canadian society, the mandate and roles of the Commissioner of Official Languages, and other issues.</p>\n<p>Be part of the change! Join the conversation and complete the online questionnaire on the <a rel=\"external\" href=\"http://www.officiallanguages.gc.ca/en/language-rights/act/public-consultations-modernization\">Office of the Commissioner\u2019s website</a> before May 31.</p>\n<p><img src=\"https://intranet.agr.gc.ca/resources/prod/news/images/OLA-EN.png\" class=\"center-block\" alt=\"The official languages of Canada...what does that mean to you?\"></p>\n\n\t\t",
        "fr": "<br>\n<br>\n<p>\u00c0 l\u2019aube du 50<sup>e</sup> anniversaire de la <i>Loi sur les langues officielles</i> (<abbr title=\"Loi sur les langues officielles\">LLO</abbr>) du Canada, le Commissariat aux langues officielles (<abbr title=\"Commissariat aux langues officielles\">CLO</abbr>) a entam\u00e9 sa r\u00e9flexion sur les modifications possibles \u00e0 apporter \u00e0 la <abbr title=\"Loi sur les langues officielles\">LLO</abbr> pour l\u2019actualiser afin qu\u2019elle tienne compte des nombreux changements qui ont marqu\u00e9 la soci\u00e9t\u00e9 canadienne.</p>\n<p>Que ce soit sur l\u2019acc\u00e8s \u00e0 la justice dans les deux langues officielles, la prestation de services gouvernementaux \u00e0 l\u2019\u00e8re num\u00e9rique, l\u2019\u00e9panouissement et le d\u00e9veloppement des minorit\u00e9s linguistiques, la promotion de la reconnaissance et de l\u2019usage des deux langues officielles dans la soci\u00e9t\u00e9 canadienne, le mandat et les r\u00f4les du commissaire aux langues officielles, ou bien plus encore, le <abbr title=\"Commissariat aux langues officielles\">CLO</abbr> veut entendre ce que vous avez \u00e0 dire.</p>\n<p>Soyez des artisans du changement! Joignez-vous \u00e0 la conversation en remplissant le questionnaire en ligne sur le <a rel=\"external\" href=\"http://www.officiallanguages.gc.ca/fr/droits-linguistiques/loi/consultations-publiques-modernisation\">site Web du Commissariat</a> avant le 31 mai.</p>\n<p><img src=\"https://intranet.agr.gc.ca/resources/prod/news/images/OLA-FR.png\" class=\"center-block\" alt=\"Les langues officielles du Canada...qu'est-ce que cela signifie pour vous?\"></p>\n\t\t"
    },
    "breadcrumb": {
        "en": "Reminder - Have Your Say on the Modernization of the Official Languages Act - Deadline is May 31",
        "fr": "Rappel - Ayez votre mot \u00e0 dire sur la modernisation de la Loi sur les langues officielles - La..."
    },
    "news": {
        "date_posted": {
            "en": "2018-05-16",
            "fr": "2018-05-16"
        },
        "to": {
            "en": "All staff",
            "fr": "Tous les employ\u00e9s"
        },
        "by": {
            "en": "Pierre Corriveau, Official Langages Champion / Assistant Deputy Minister, Corporate Management Branch",
            "fr": "Pierre Corriveau, champion des langues officielles et sous-ministre adjoint, Direction g\u00e9n\u00e9rale de la gestion int\u00e9gr\u00e9e"
        }
    }
}