{
    "dcr_id": "1526391041933",
    "lang": "en",
    "title": {
        "en": "This Week in The Harvest - A 10,000 Year Legacy",
        "fr": "Au menu de La Moisson cette semaine - Une tradition vieille de 10 000 ans"
    },
    "modified": "2018-05-17 00:00:00.0",
    "issued": "2018-05-17 00:00:00.0",
    "type_name": "intra-intra/news-nouv",
    "node_id": "1279030006975",
    "layout_name": null,
    "dc_date_created": "2018-05-15",
    "breadcrumb_label": "",
    "meta": {
        "issued": {
            "en": "2018-05-17",
            "fr": "2018-05-17"
        },
        "modified": {
            "en": "2018-05-17",
            "fr": "2018-05-17"
        },
        "format": {
            "en": "gcformat",
            "fr": "gcformat"
        },
        "title": {
            "en": "This Week in The Harvest - A 10,000 Year Legacy",
            "fr": "Au menu de La Moisson cette semaine - Une tradition vieille de 10 000 ans"
        },
        "subject": {
            "en": "communications",
            "fr": "communications"
        },
        "description": {
            "en": "In case you missed it, here's what's new in The Harvest this week.",
            "fr": "Au cas o\u00f9 vous l'auriez manqu\u00e9, voici le menu que la section La Moisson vous offre cette semaine."
        },
        "language": {
            "en": "eng",
            "fr": "fra"
        },
        "audience": {
            "en": "gcaudience",
            "fr": "gcaudience"
        },
        "creator": {
            "en": "Agriculture and Agri-Food Canada",
            "fr": "Agriculture et Agroalimentaire Canada"
        },
        "spatial": {
            "en": "gcregions",
            "fr": "gcregions"
        },
        "service": {
            "en": "AAFC_AgriSource",
            "fr": "AAC_AgriSource"
        },
        "accessRights": {
            "en": "3",
            "fr": "3"
        }
    },
    "body": {
        "en": "<br>\n<br>\n<p>In case you missed it, here\u2019s what\u2019s new in <a rel=\"external\" href=\"https://collab.agr.gc.ca/apps/harvest-moisson\">The Harvest</a> this week:</p>\n<p><strong>Feature story: </strong><a rel=\"external\" href=\"https://collab.agr.gc.ca/apps/harvest-moisson\">A 10,000 Year Legacy</a> \u2013 Like most of us, you\u2019ve probably never wondered who is preserving the genetic diversity of cultivated plants that are important to Canada. Thankfully, some AAFC scientists did, and determined it was essential to take care of that diversity because our food security depends on it.</p>\n<p><strong>Quiz: </strong><a rel=\"external\" href=\"https://collab.agr.gc.ca/apps/harvest-moisson\">How many Canadian jobs are in agriculture and agri-food?</a></p>\n<p><strong>Feature photo:</strong> <a rel=\"external\" href=\"https://collab.agr.gc.ca/apps/harvest-moisson/gallery/Lists/Posts/Post.aspx?ID=165\">Apple Blossoms</a>, by Martin Fraser, Corporate Management Branch, Agassiz, BC.</p>\n<p><strong>Did you know?</strong> <a rel=\"external\" href=\"https://collab.agr.gc.ca/apps/harvest-moisson/Pages/DidYouKnow.aspx\">Canadian researchers and manufacturers are exploring the use of canola to produce a biodegradable spray-foam home insulation</a>. Oleochemicals \u2013 chemicals made from plant or animal fats \u2013 can be found in many industrial products, such as coatings, resins, and even flexible seat cushions.</p>\n<p>You can get involved by posting a comment or \u201cliking\u201d an article. You can also check out what your colleagues are liking and saying.</p>\n<p>Should you have story ideas, scenic or artistic agriculture-related photos, or interesting facts, please share them with us by clicking on \u201cContribute\u201d in the top menu bar.</p>\n<p><img src=\"https://intranet.agr.gc.ca/resources/prod/news/images/Harvest10000YearLegacy.png\" class=\"center-block\" alt=\"Dr. Axel Diederichsen among the stacks of the Plant Gene Resources of Canada collection.\"></p>\n\n\t\t",
        "fr": "<br>\n<br>\n<p>Au cas o\u00f9 vous l\u2019auriez manqu\u00e9, voici le menu que la section <a href=\"https://collab.agr.gc.ca/apps/harvest-moisson\">La Moisson</a> vous offre cette semaine :</p>\n<p><strong>Article vedette :</strong> <a href=\"https://collab.agr.gc.ca/apps/harvest-moisson\">Une tradition vieille de 10 000 ans</a> \u2013 Vous \u00eates-vous d\u00e9j\u00e0 demand\u00e9 qui veillait sur la diversit\u00e9 g\u00e9n\u00e9tique des plantes cultiv\u00e9es importantes pour le Canada? Probablement pas. Heureusement, des chercheurs d\u2019AAC se sont pos\u00e9 la question. La r\u00e9ponse? Il faut prot\u00e9ger cette diversit\u00e9 \u00e0 tout prix : notre s\u00e9curit\u00e9 alimentaire en d\u00e9pend!</p>\n<p><strong>Jeu-questionnaire</strong><strong> : </strong><a href=\"https://collab.agr.gc.ca/apps/harvest-moisson\">Combien y a-t-il d\u2019emplois dans le secteur de l\u2019agriculture et de l\u2019agroalimentaire au Canada?</a></p>\n<p><strong>Photo vedette :</strong> <a href=\"https://collab.agr.gc.ca/apps/harvest-moisson/gallery/Lists/Posts/Post.aspx?ID=165\">Fleurs de pommier</a>, par<em> </em>Martin Fraser, Direction g\u00e9n\u00e9rale de la gestion int\u00e9gr\u00e9e, Agassiz (C.-B.).</p>\n<p><strong>Le saviez-vous?</strong> <a href=\"https://collab.agr.gc.ca/apps/harvest-moisson/Pages/DidYouKnow.aspx\">Les chercheurs et les manufacturiers canadiens explorent l\u2019utilisation du canola dans la fabrication d\u2019une mousse d\u2019isolation biod\u00e9gradable \u00e0 vaporiser</a>. On trouve des produits ol\u00e9ochimiques, c\u2019est-\u00e0-dire fabriqu\u00e9s \u00e0 partir de grasses v\u00e9g\u00e9tales ou animales, dans de nombreux produits industriels tels que les enduits, les r\u00e9sines et m\u00eame les coussins de si\u00e8ges.</p>\n<p>Vous pouvez participer en affichant des commentaires ou en utilisant la fonction \u00ab J\u2019aime \u00bb ou \u00ab Partager \u00bb pour exprimer votre appr\u00e9ciation d\u2019un article. Vous pouvez aussi aller voir ce que vos coll\u00e8gues aiment et ont \u00e0 dire.</p>\n<p>Si vous avez des id\u00e9es d\u2019articles, des photos de paysages ou \u00e0 caract\u00e8re artistique li\u00e9es \u00e0 l\u2019agriculture ou encore des faits int\u00e9ressants, veuillez nous en faire part en cliquant sur \u00ab Collaborer \u00bb dans la barre de menu en haut de la page.</p>\n<p><img src=\"https://intranet.agr.gc.ca/resources/prod/news/images/Harvest10000YearLegacy.png\" class=\"center-block\" alt=\"Axel Diederichsen, Ph. D., parmi les sp\u00e9cimens de la collection des Ressources phytog\u00e9n\u00e9tiques du Canada.\"></p>\n\t\t"
    },
    "breadcrumb": {
        "en": "This Week in The Harvest - A 10,000 Year Legacy",
        "fr": "Au menu de La Moisson cette semaine - Une tradition vieille de 10 000 ans"
    },
    "news": {
        "date_posted": {
            "en": "2018-05-17",
            "fr": "2018-05-17"
        },
        "to": {
            "en": "All staff",
            "fr": "Tous les employ\u00e9s"
        },
        "by": {
            "en": "Corporate Communications, Public Affairs Branch",
            "fr": "Communications minist\u00e9rielles, Direction g\u00e9n\u00e9rale des affaires publiques"
        }
    }
}