{
    "dcr_id": "1526327013531",
    "lang": "en",
    "title": {
        "en": "Asian Heritage Month Employee Spotlight: Dr. Sankaran KrishnaRaj",
        "fr": "Pleins feux sur un employ\u00e9 \u00e0 l'occasion du Mois du patrimoine asiatique : Sankaran KrishnaRaj (Ph. D.)"
    },
    "modified": "2018-05-17 00:00:00.0",
    "issued": "2018-05-17 00:00:00.0",
    "type_name": "intra-intra/news-nouv",
    "node_id": "1279030006975",
    "layout_name": null,
    "dc_date_created": "2018-05-14",
    "breadcrumb_label": "",
    "meta": {
        "issued": {
            "en": "2018-05-17",
            "fr": "2018-05-17"
        },
        "modified": {
            "en": "2018-05-17",
            "fr": "2018-05-17"
        },
        "format": {
            "en": "gcformat",
            "fr": "gcformat"
        },
        "title": {
            "en": "Asian Heritage Month Employee Spotlight: Dr. Sankaran KrishnaRaj",
            "fr": "Pleins feux sur un employ\u00e9 \u00e0 l'occasion du Mois du patrimoine asiatique : Sankaran KrishnaRaj (Ph. D.)"
        },
        "subject": {
            "en": "communications",
            "fr": "communications"
        },
        "description": {
            "en": "To mark Asian Heritage Month, the Visible Minorities Network is featuring one AAFC employee profile per week. This week, we highlight the work and contributions of Dr. Sankaran KrishnaRaj.",
            "fr": "Pour c\u00e9l\u00e9brer le Mois du patrimoine asiatique, le R\u00e9seau des minorit\u00e9s visibles pr\u00e9sente le profil d'un employ\u00e9 d'AAC chaque semaine. Cette semaine, nous soulignons le travail et les r\u00e9alisations de Sankaran KrishnaRaj (Ph. D.)."
        },
        "language": {
            "en": "eng",
            "fr": "fra"
        },
        "audience": {
            "en": "gcaudience",
            "fr": "gcaudience"
        },
        "creator": {
            "en": "Agriculture and Agri-Food Canada",
            "fr": "Agriculture et Agroalimentaire Canada"
        },
        "spatial": {
            "en": "gcregions",
            "fr": "gcregions"
        },
        "service": {
            "en": "AAFC_AgriSource",
            "fr": "AAC_AgriSource"
        },
        "accessRights": {
            "en": "3",
            "fr": "3"
        }
    },
    "body": {
        "en": "<br>\n<br>\n<p>To mark Asian Heritage Month, the Visible Minorities Network is featuring one AAFC employee profile per week. This week, we highlight the work and contributions of Dr. Sankaran KrishnaRaj.</p>\n<p><img src=\"https://intranet.agr.gc.ca/resources/prod/news/images/DrSankaran_KrishnaRaj.png\" class=\"pull-left mrgn-rght-md\" alt=\"Dr. Sankaran KrishnaRaj\">Born and raised in India, Dr. KrishnaRaj grew up with agriculture. His father was a renowned agronomist, and most of his childhood was spent on the campuses of Tamil Nadu Agricultural University, one of the leading agricultural universities in India. Subsequently, he ended up attending the same university and earning his BSc in Agriculture and MSc in Plant Breeding and Genetics.</p>\n<p>Dr. KrishnaRaj moved to Calgary in 1990 and started his PhD at the University of Calgary, specializing in Experimental Plant Morphogenesis \u2013 Plant Stress Physiology. After completing his PhD, he joined as a Post-Doctoral Fellow and gradually evolved into the role of a Research Scientist at the University of Guelph. While at the University of Guelph, he authored more than 30 research papers and was awarded 2 international patents for innovations in the fields of phytoremediation and phytopharmaceuticals.</p>\n<p>In 2002, Dr. KrishnaRaj\u2019s career took a detour when he joined Environment and Climate Change Canada\u2019s (<abbr title=\"Environment and Climate Change Canada \">ECCC</abbr>) Environmental Emergencies Program. At <abbr title=\"Environment and Climate Change Canada\">ECCC</abbr>, he became a subject matter expert in the field of environmental emergency response. He provided expert advice and guided and trained stakeholders in dealing with major spills in Canada and abroad. A significant moment in his career was managing the operations of the National Environmental Emergencies Centre in Gatineau during the Vancouver 2010 Olympic and Paralympic Winter Games.</p>\n<p>In 2011, Dr. KrishnaRaj decided to return back to his roots, when he moved to AAFC to take on the role of Associate Director of Research, Development, and Technology at the Agassiz Research and Development Centre in British Columbia. Since June 2017, he has worked as the Director of Research Development and Technology Transfer, Guelph-St-Hyacinthe, within the Science and Technology Branch.</p>\n<p>Thank you, Dr. KrishnaRaj, for your contributions.</p>\n<h2><strong>Learn more</strong></h2>\n<ul>\n<li><a href=\"https://www.canada.ca/en/canadian-heritage/campaigns/asian-heritage-month.html\">Asian Heritage Month</a></li>\n<li><a href=\"https://collab.agr.gc.ca/co/vmn-rdmv/Lists/Asian%20Heritage%20Month/Tiles.aspx\">Employee Spotlights</a></li>\n<li><a href=\"https://collab.agr.gc.ca/co/vmn-rdmv/SitePages/Home.aspx\">Visible Minorities Network</a></li>\n<li><a href=\"https://collab.agr.gc.ca/co/eedi-emedi/SitePages/Home.aspx\">Diversity Networks</a><strong></strong></li>\n</ul>\n<p><strong><br>Carole Bidal<br></strong>Champion, Visible Minorities Network</p>\n<p><strong>John Shi and Augustus Reeves<br></strong>Co-Chairs of the Visible Minorities Network</p>\n\n\t\t",
        "fr": "<br>\n<br>\n<p>Pour c\u00e9l\u00e9brer le Mois du patrimoine asiatique, le R\u00e9seau des minorit\u00e9s visibles pr\u00e9sente le profil d\u2019un employ\u00e9 d\u2019AAC chaque semaine. Cette semaine, nous soulignons le travail et les r\u00e9alisations de Sankaran KrishnaRaj (Ph. D.).</p>\n<p><img src=\"https://intranet.agr.gc.ca/resources/prod/news/images/DrSankaran_KrishnaRaj.png\" class=\"pull-left mrgn-rght-md\" alt=\"Sankaran KrishnaRaj (Ph. D.)\">Originaire de l\u2019Inde, M. KrishnaRaj a grandi dans un milieu agricole. Fils d\u2019un agronome r\u00e9put\u00e9, il a pass\u00e9 la majeure partie de son enfance sur les campus de l\u2019Universit\u00e9 Tamil Nadu, un des \u00e9tablissements d\u2019enseignement en agriculture les plus reconnus de l\u2019Inde. Par la suite, il a fr\u00e9quent\u00e9 la m\u00eame universit\u00e9 et obtenu un baccalaur\u00e9at en agriculture et une ma\u00eetrise en am\u00e9lioration et en g\u00e9n\u00e9tique des plantes.</p>\n<p>M. KrishnaRaj a d\u00e9m\u00e9nag\u00e9 \u00e0 Calgary en 1990 pour entreprendre ses \u00e9tudes doctorales en phytomorphog\u00e9n\u00e8se exp\u00e9rimentale avec sp\u00e9cialisation en physiologie du stress des plantes \u00e0 l\u2019Universit\u00e9 de Calgary. Apr\u00e8s avoir obtenu son doctorat, il a re\u00e7u une bourse de recherches postdoctorales et est devenu chercheur scientifique \u00e0 l\u2019Universit\u00e9 de Guelph. Pendant son s\u00e9jour \u00e0 l\u2019Universit\u00e9 de Guelph, il a r\u00e9dig\u00e9 plus de 30 ouvrages de recherche et obtenu deux brevets internationaux pour des innovations dans les domaines de la phytorem\u00e9diation et des produits phytopharmaceutiques.</p>\n<p>En 2002, la carri\u00e8re de M. KrishnaRaj a pris un autre virage quand il s\u2019est joint au Programme des urgences environnementales d\u2019Environnement et Changement climatique Canada (<abbr title=\"Environnement et Changement climatique Canada\">ECCC</abbr>). \u00c0 <abbr title=\"Environnement et Changement climatique Canada\">ECCC</abbr>, il est devenu un expert dans le domaine des interventions en cas d\u2019urgence environnementale. Il a conseill\u00e9, guid\u00e9 et form\u00e9 les intervenants sur la fa\u00e7on de rem\u00e9dier \u00e0 certains des plus importants d\u00e9versements au Canada et \u00e0 l\u2019\u00e9tranger. Il a particip\u00e9 \u00e0 un projet qui lui tenait particuli\u00e8rement \u00e0 coeur, \u00e0 savoir la gestion des op\u00e9rations du Centre national des urgences environnementales \u00e0 Gatineau pendant les Jeux olympiques et paralympiques de Vancouver en 2010.</p>\n<p>En 2011, M. KrishnaRaj a d\u00e9cid\u00e9 de revenir \u00e0 ses racines et est entr\u00e9 au service d\u2019AAC pour occuper le poste de directeur associ\u00e9 (recherche, d\u00e9veloppement et technologie) au Centre de recherche et de d\u00e9veloppement d\u2019Agassiz en Colombie-Britannique. Depuis juin 2017, il exerce les fonctions de directeur de la recherche, du d\u00e9veloppement et du transfert de technologies (centres de Guelph et de Saint-Hyacinthe) au sein de la Direction g\u00e9n\u00e9rale des sciences et de la technologie.</p>\n<p>Nous remercions M. KrishnaRaj de sa contribution.</p>\n<h2><strong>Pour en savoir plus</strong></h2>\n<ul>\n<li><a href=\"https://www.canada.ca/fr/patrimoine-canadien/campagnes/mois-patrimoine-asiatique.html\">Mois du patrimoine asiatique</a></li>\n<li><a href=\"https://collab.agr.gc.ca/co/vmn-rdmv/Lists/Asian%20Heritage%20Month/Tiles.aspx\">Pleins feux sur les employ\u00e9s</a></li>\n<li><a href=\"https://collab.agr.gc.ca/co/vmn-rdmv/SitePages/Home.aspx\">R\u00e9seau des minorit\u00e9s visibles</a></li>\n<li><a href=\"https://collab.agr.gc.ca/co/eedi-emedi/SitePages/Home.aspx\">R\u00e9seaux de la diversit\u00e9</a></li>\n</ul>\n<p><strong><br>Carole Bidal<br></strong>Championne du R\u00e9seau des minorit\u00e9s visibles</p>\n<p><strong>John Shi et Augustus Reeves<br></strong>Copr\u00e9sidents du R\u00e9seau des minorit\u00e9s visibles</p>\n\t\t"
    },
    "breadcrumb": {
        "en": "Asian Heritage Month Employee Spotlight: Dr. Sankaran KrishnaRaj",
        "fr": "Pleins feux sur un employ\u00e9 \u00e0 l'occasion du Mois du patrimoine asiatique : Sankaran KrishnaRaj..."
    },
    "news": {
        "date_posted": {
            "en": "2018-05-17",
            "fr": "2018-05-17"
        },
        "to": {
            "en": "All staff",
            "fr": "Tous les employ\u00e9s"
        },
        "by": {
            "en": "Carole Bidal, Champion for Visible Minorities Network",
            "fr": "Carole Bidal, championne du R\u00e9seau des minorit\u00e9s visibles"
        }
    }
}