{
    "dcr_id": "1526999198564",
    "lang": "en",
    "title": {
        "en": "Asian Heritage Month Employee Spotlight: Dr. Yuxia Li",
        "fr": "Pleins feux sur une employ\u00e9e \u00e0 l'occasion du Mois du patrimoine asiatique : Yuxia Li (Ph. D.)"
    },
    "modified": "2018-05-24 00:00:00.0",
    "issued": "2018-05-24 00:00:00.0",
    "type_name": "intra-intra/news-nouv",
    "node_id": "1279030006975",
    "layout_name": null,
    "dc_date_created": "2018-05-22",
    "breadcrumb_label": "",
    "meta": {
        "issued": {
            "en": "2018-05-24",
            "fr": "2018-05-24"
        },
        "modified": {
            "en": "2018-05-24",
            "fr": "2018-05-24"
        },
        "format": {
            "en": "gcformat",
            "fr": "gcformat"
        },
        "title": {
            "en": "Asian Heritage Month Employee Spotlight: Dr. Yuxia Li",
            "fr": "Pleins feux sur une employ\u00e9e \u00e0 l'occasion du Mois du patrimoine asiatique : Yuxia Li (Ph. D.)"
        },
        "subject": {
            "en": "communications",
            "fr": "communications"
        },
        "description": {
            "en": "To celebrate Asian Heritage Month, the Visible Minorities Network is taking the time to recognize Dr. Yuxia Li and highlight her contributions to communities and the agriculture sector, both in Canada and worldwide.",
            "fr": "Pour c\u00e9l\u00e9brer le Mois du patrimoine asiatique, le R\u00e9seau des minorit\u00e9s visibles pr\u00e9sente le profil de Yuxia Li (Ph. D.) et souligne sa contribution aux collectivit\u00e9s et au secteur agricole, tant au Canada qu'\u00e0 l'\u00e9tranger."
        },
        "language": {
            "en": "eng",
            "fr": "fra"
        },
        "audience": {
            "en": "gcaudience",
            "fr": "gcaudience"
        },
        "creator": {
            "en": "Agriculture and Agri-Food Canada",
            "fr": "Agriculture et Agroalimentaire Canada"
        },
        "spatial": {
            "en": "gcregions",
            "fr": "gcregions"
        },
        "service": {
            "en": "AAFC_AgriSource",
            "fr": "AAC_AgriSource"
        },
        "accessRights": {
            "en": "3",
            "fr": "3"
        }
    },
    "body": {
        "en": "<br>\n<br>\n<p>To celebrate Asian Heritage Month, the Visible Minorities Network is taking the time to recognize Dr. Yuxia Li and highlight her contributions to communities and the agriculture sector, both in Canada and worldwide.</p>\n<p><img src=\"https://intranet.agr.gc.ca/resources/prod/news/images/AsianHeritageMonth-DrYuxiaLi.png\" class=\"pull-left mrgn-rght-md\" alt=\"Dr. Yuxia Li\">Dr. Li obtained a Bachelor\u2019s degree and a Master\u2019s degree in Agricultural Engineering from Shenyang Agricultural University and China Agricultural University, respectively. She later pursued her PhD in Agricultural Science at the University of Queensland, in Australia, where her study focused on the interactions between crop, soil, tractor wheel traffic, and tillage in a typical dryland agricultural production system. She also used a computer simulation model to evaluate their impact on sustainable agricultural development and soil conservation.</p>\n<p>In 2004, Dr. Li joined AAFC as a Post-Doctoral Fellow at the Ottawa Research and Development Centre, where she studied the impact of using biofuels in agricultural machinery on greenhouse gas emissions. Dr. Li joined Market and Industry Services Branch in 2006, and she was posted to Western China for 3 years as a Long\u00ad\u2011Term Technical Adviser under the China\u2013Canada Sustainable Agriculture Development Program. In that position, she managed regional offices in the Inner Mongolia Autonomous Region and Gansu Province, working with the Canadian program team to transfer successful Canadian sustainable agricultural technologies to Chinese counterparts and farmers in remote regions.</p>\n<p>Li undertook frequent visits to local farms and organized field days to demonstrate new technologies. She also collaborated with local counterparts to design and deliver a \u201ctrain the trainers\u201d program to local extension workers. Working with agricultural specialists from several countries, Dr. Li co-organized multiple events to promote sustainable agricultural development. Through collaboration and effort from the Canadian program team, these technologies were gradually adapted by local Chinese counterparts and farmers.</p>\n<p>In 2008, Dr. Li returned to Ottawa and worked as a Senior Program Officer in Science and Technology Branch. Currently, she works as a Senior Science Advisor in Programs Branch. To date, Dr. Li has published 2 books and more than 20 scientific papers.</p>\n<p>Thank you, Dr. Li, for your contributions.</p>\n<h2><strong>Learn more</strong></h2>\n<ul>\n<li><a href=\"https://www.canada.ca/en/canadian-heritage/campaigns/asian-heritage-month.html\">Asian Heritage Month</a></li>\n<li><a href=\"https://collab.agr.gc.ca/co/vmn-rdmv/Lists/Asian%20Heritage%20Month/Tiles.aspx\">Employee Spotlights</a></li>\n<li><a href=\"https://collab.agr.gc.ca/co/vmn-rdmv/SitePages/Home.aspx\">Visible Minorities Network</a></li>\n<li><a href=\"https://collab.agr.gc.ca/co/eedi-emedi/SitePages/Home.aspx\">Diversity Networks</a></li>\n</ul>\n<p>\u00a0</p>\n<p><strong>Carole Bidal</strong><br>\nChampion, Visible Minorities Network</p>\n<p><strong>John Shi and Augustus Reeves</strong><br>\nCo-Chairs of the Visible Minorities Network</p>\n\n\t\t",
        "fr": "<br>\n<br>\n<p>Pour c\u00e9l\u00e9brer le Mois du patrimoine asiatique, le R\u00e9seau des minorit\u00e9s visibles pr\u00e9sente le profil de Yuxia Li (Ph. D.) et souligne sa contribution aux collectivit\u00e9s et au secteur agricole, tant au Canada qu\u2019\u00e0 l\u2019\u00e9tranger.</p>\n<p><img src=\"https://intranet.agr.gc.ca/resources/prod/news/images/AsianHeritageMonth-DrYuxiaLi.png\" class=\"pull-left mrgn-rght-md\" alt=\"Yuxia Li (Ph. D.)\">Mme Li a obtenu un baccalaur\u00e9at en g\u00e9nie agricole de l\u2019Universit\u00e9 d\u2019agriculture de Shenyang et une ma\u00eetrise en g\u00e9nie agricole de l\u2019Universit\u00e9 d\u2019agriculture de la Chine. Elle a ensuite fait des \u00e9tudes doctorales en sciences agronomiques \u00e0 l\u2019Universit\u00e9 du Queensland en Australie, o\u00f9 elle s\u2019est pench\u00e9e particuli\u00e8rement sur les interactions entre la culture, le sol, le compactage par les roues des tracteurs et le travail du sol dans un syst\u00e8me traditionnel d\u2019aridoculture. En outre, elle a utilis\u00e9 un mod\u00e8le de simulation informatis\u00e9 pour \u00e9valuer l\u2019incidence de ces interactions sur le d\u00e9veloppement agricole durable et la conservation des sols.</p>\n<p>En 2004, Mme Li est entr\u00e9e au service d\u2019AAC comme boursi\u00e8re postdoctorale au Centre de recherche et de d\u00e9veloppement d\u2019Ottawa, o\u00f9 elle a \u00e9tudi\u00e9 l\u2019incidence de l\u2019utilisation de biocarburants pour les machines agricoles sur les \u00e9missions de gaz \u00e0 effet de serre. Mme Li s\u2019est jointe \u00e0 la Direction g\u00e9n\u00e9rale des services \u00e0 l\u2019industrie et aux march\u00e9s en 2006 et a \u00e9t\u00e9 d\u00e9tach\u00e9e en Chine occidentale pour une p\u00e9riode de trois ans en qualit\u00e9 de conseill\u00e8re technique \u00e0 long terme dans le cadre du Programme de d\u00e9veloppement agricole durable Canada-Chine. \u00c0 ce titre, elle a g\u00e9r\u00e9 des bureaux r\u00e9gionaux dans la r\u00e9gion autonome de la Mongolie int\u00e9rieure et dans la province de Gansu et travaill\u00e9 avec l\u2019\u00e9quipe du programme canadien pour transf\u00e9rer les technologies agricoles durables \u00e9prouv\u00e9es du Canada \u00e0 ses homologues et aux agriculteurs chinois dans les r\u00e9gions \u00e9loign\u00e9es.</p>\n<p>Mme Li a effectu\u00e9 de fr\u00e9quentes visites d\u2019exploitations agricoles locales et organis\u00e9 des journ\u00e9es champ\u00eatres pour faire la d\u00e9monstration de nouvelles technologies. Elle a aussi collabor\u00e9 avec ses homologues locaux pour concevoir un programme de \u00ab formation des formateurs \u00bb \u00e0 l\u2019intention des vulgarisateurs locaux. Mme Li a organis\u00e9 de nombreuses activit\u00e9s de promotion du d\u00e9veloppement agricole durable avec le concours de sp\u00e9cialistes agricoles de plusieurs pays. Gr\u00e2ce \u00e0 la collaboration et aux efforts de l\u2019\u00e9quipe du programme canadien, les homologues et les agriculteurs chinois locaux ont pu adapter graduellement les nouvelles technologies.</p>\n<p>En 2008, Mme Li est revenue \u00e0 Ottawa pour occuper un poste d\u2019agente principale des programmes \u00e0 la Direction g\u00e9n\u00e9rale des sciences et de la technologie. Elle exerce actuellement les fonctions de conseill\u00e8re scientifique principale \u00e0 la Direction g\u00e9n\u00e9rale des programmes. Mme Li a publi\u00e9 jusqu\u2019ici deux livres et plus de 20 articles scientifiques.</p>\n<p>Nous remercions Mme Li pour tout ce qu\u2019elle a accompli.</p>\n<h2><strong>Pour en savoir plus</strong></h2>\n<ul>\n<li><a href=\"https://www.canada.ca/fr/patrimoine-canadien/campagnes/mois-patrimoine-asiatique.html\">Mois du patrimoine asiatique</a></li>\n<li><a href=\"https://collab.agr.gc.ca/co/vmn-rdmv/Lists/Asian%20Heritage%20Month/Tiles.aspx\">Pleins feux sur les employ\u00e9s</a></li>\n<li><a href=\"https://collab.agr.gc.ca/co/vmn-rdmv/SitePages/Home.aspx\">R\u00e9seau des minorit\u00e9s visibles</a></li>\n<li><a href=\"https://collab.agr.gc.ca/co/eedi-emedi/SitePages/Home.aspx\">R\u00e9seaux de la diversit\u00e9</a></li>\n</ul>\n<p><strong><br>Carole Bidal</strong><br>\nChampionne du R\u00e9seau des minorit\u00e9s visibles</p>\n<p><strong>John Shi et Augustus Reeves</strong><br>\nCopr\u00e9sidents du R\u00e9seau des minorit\u00e9s visibles\u00a0</p>\n\t\t"
    },
    "breadcrumb": {
        "en": "Asian Heritage Month Employee Spotlight: Dr. Yuxia Li",
        "fr": "Pleins feux sur une employ\u00e9e \u00e0 l'occasion du Mois du patrimoine asiatique : Yuxia Li (Ph. D.)"
    },
    "news": {
        "date_posted": {
            "en": "2018-05-24",
            "fr": "2018-05-24"
        },
        "to": {
            "en": "All staff",
            "fr": "Tous les employ\u00e9s"
        },
        "by": {
            "en": "Carole Bidal, Champion for Visible Minorities Network",
            "fr": "Carole Bidal, championne du R\u00e9seau des minorit\u00e9s visibles"
        }
    }
}