{
    "dcr_id": "1527167489558",
    "lang": "en",
    "title": {
        "en": "This Week in The Harvest - AAFC Students Take a Tour of the Farm",
        "fr": "Au menu de La Moisson cette semaine - Des \u00e9tudiants d'AAC visitent la Ferme"
    },
    "modified": "2018-05-24 00:00:00.0",
    "issued": "2018-05-24 00:00:00.0",
    "type_name": "intra-intra/news-nouv",
    "node_id": "1279030006975",
    "layout_name": null,
    "dc_date_created": "2018-05-24",
    "breadcrumb_label": "",
    "meta": {
        "issued": {
            "en": "2018-05-24",
            "fr": "2018-05-24"
        },
        "modified": {
            "en": "2018-05-24",
            "fr": "2018-05-24"
        },
        "format": {
            "en": "gcformat",
            "fr": "gcformat"
        },
        "title": {
            "en": "This Week in The Harvest - AAFC Students Take a Tour of the Farm",
            "fr": "Au menu de La Moisson cette semaine - Des \u00e9tudiants d'AAC visitent la Ferme"
        },
        "subject": {
            "en": "communications",
            "fr": "communications"
        },
        "description": {
            "en": "In case you missed it, here's what's new in The Harvest this week.",
            "fr": "Au cas o\u00f9 vous l'auriez manqu\u00e9, voici le menu que la section La Moisson vous offre cette semaine."
        },
        "language": {
            "en": "eng",
            "fr": "fra"
        },
        "audience": {
            "en": "gcaudience",
            "fr": "gcaudience"
        },
        "creator": {
            "en": "Agriculture and Agri-Food Canada",
            "fr": "Agriculture et Agroalimentaire Canada"
        },
        "spatial": {
            "en": "gcregions",
            "fr": "gcregions"
        },
        "service": {
            "en": "AAFC_AgriSource",
            "fr": "AAC_AgriSource"
        },
        "accessRights": {
            "en": "3",
            "fr": "3"
        }
    },
    "body": {
        "en": "<br>\n<br>\n<p>In case you missed it, here\u2019s what\u2019s new in <a href=\"https://collab.agr.gc.ca/apps/harvest-moisson\">The Harvest</a> this week:</p>\n<p><strong>Feature story: </strong><a href=\"https://collab.agr.gc.ca/apps/harvest-moisson\">AAFC Students Take a Tour of the Farm</a> \u2013 On March 6, 2018, six students from the Public Affairs Branch (<abbr title=\"Public Affairs Branch\">PAB</abbr>) participated in a tour of the Central Experimental Farm (<abbr title=\"Central Experimental Farm\">CEF</abbr>) in Ottawa. The excursion was organized by <abbr title=\"Public Affairs Branch\">PAB</abbr>\u2019s student liaison team: James Voldock, Kirk Finken, and Mike Pereira. The farm tour gives students a chance to see the work that is going on just a few blocks away from the AAFC headquarters building.</p>\n<p><strong>Quiz: </strong><a href=\"https://collab.agr.gc.ca/apps/harvest-moisson\">How many Canadian jobs are in agriculture and agri-food?</a></p>\n<p><strong>Feature photo:</strong> <a href=\"https://collab.agr.gc.ca/apps/harvest-moisson/gallery/Lists/Posts/Post.aspx?ID=161\">Below the Cliffs</a>, By Kathryn Hunt, Public Affairs Branch, Ottawa.</p>\n<p><strong>Did you know?</strong> <a href=\"https://collab.agr.gc.ca/apps/harvest-moisson/Pages/DidYouKnow.aspx\">The Canadienne is the only breed of dairy cow native to North America</a>. It was developed in French Canada during the 16th and 17th centuries from breeds imported from Normandy and Brittany. There were once 300,000 Canadiennes in the country: today there are only about 1,000 left.</p>\n<p>You can get involved by posting a comment or \u201cliking\u201d an article. You can also check out what your colleagues are liking and saying.</p>\n<p>Should you have story ideas, scenic or artistic agriculture-related photos, or interesting facts, please share them with us by clicking on \u201cContribute\u201d in the top menu bar.</p>\n<p><img src=\"https://intranet.agr.gc.ca/resources/prod/news/images/Harveststudentsfarm.png\" class=\"center-block\" alt=\"AAFC Students take a tour of the farm.\"></p>\n\n\t\t",
        "fr": "<br>\n<br>\n<p>Au cas o\u00f9 vous l\u2019auriez manqu\u00e9, voici le menu que la section <a href=\"https://collab.agr.gc.ca/apps/harvest-moisson\">La Moisson</a> vous offre cette semaine :</p>\n<p><strong>Article vedette :</strong> <a href=\"https://collab.agr.gc.ca/apps/harvest-moisson\">Des \u00e9tudiants d'AAC visitent la Ferme</a> \u2013 Le 6 mars 2018, six \u00e9tudiants de la Direction g\u00e9n\u00e9rale des affaires publiques (<abbr title=\"Direction g\u00e9n\u00e9rale des affaires publiques \">DGAP</abbr>) ont visit\u00e9 la Ferme exp\u00e9rimentale centrale (<abbr title=\"Ferme exp\u00e9rimentale centrale\">FEC</abbr>) \u00e0 Ottawa. La visite \u00e9tait organis\u00e9e par l\u2019\u00e9quipe de liaison avec les \u00e9tudiants de la <abbr title=\"Direction g\u00e9n\u00e9rale des affaires publiques \">DGAP</abbr> : James Voldock, Kirk Finken et Mike Pereira. La visite de la <abbr title=\"Ferme exp\u00e9rimentale centrale\">FEC</abbr> donne l\u2019occasion aux \u00e9tudiants de se renseigner au sujet des travaux qui se d\u00e9roulent tout pr\u00e8s de l\u2019\u00e9difice de l\u2019administration centrale d\u2019AAC.</p>\n<p><strong>Jeu-questionnaire</strong><strong> : </strong><a href=\"https://collab.agr.gc.ca/apps/harvest-moisson\">Combien y a-t-il d\u2019emplois dans le secteur de l\u2019agriculture et de l\u2019agroalimentaire au Canada?</a></p>\n<p><strong>Photo vedette :</strong> <a href=\"https://collab.agr.gc.ca/apps/harvest-moisson/gallery/Lists/Posts/Post.aspx?ID=161\">Sous les falaises</a>, Par Kathryn Hunt, Direction g\u00e9n\u00e9rale des affaires publiques, Ottawa.</p>\n<p><strong>Le saviez-vous?</strong> <a href=\"https://collab.agr.gc.ca/apps/harvest-moisson/Pages/DidYouKnow.aspx\">La Canadienne est la seule race bovine laiti\u00e8re originaire d\u2019Am\u00e9rique du Nord</a>. Elle a \u00e9t\u00e9 cr\u00e9\u00e9e en Nouvelle France aux 16e et 17e si\u00e8cles \u00e0 partir du croisement entre des races de Normandie et de Bretagne. Elles ont d\u00e9j\u00e0 \u00e9t\u00e9 au nombre de 300 000 au pays : aujourd\u2019hui, il n\u2019en resterait que 1 000.</p>\n<p>Vous pouvez participer en affichant des commentaires ou en utilisant la fonction \u00ab J\u2019aime \u00bb ou \u00ab Partager \u00bb pour exprimer votre appr\u00e9ciation d\u2019un article. Vous pouvez aussi aller voir ce que vos coll\u00e8gues aiment et ont \u00e0 dire.</p>\n<p>Si vous avez des id\u00e9es d\u2019articles, des photos de paysages ou \u00e0 caract\u00e8re artistique li\u00e9es \u00e0 l\u2019agriculture ou encore des faits int\u00e9ressants, veuillez nous en faire part en cliquant sur \u00ab Collaborer \u00bb dans la barre de menu en haut de la page.</p>\n<p><img src=\"https://intranet.agr.gc.ca/resources/prod/news/images/Harveststudentsfarm.png\" class=\"center-block\" alt=\"Des \u00e9tudiants d'AAC visitent la Ferme.\"></p>\n\t\t"
    },
    "breadcrumb": {
        "en": "This Week in The Harvest - AAFC Students Take a Tour of the Farm",
        "fr": "Au menu de La Moisson cette semaine - Des \u00e9tudiants d'AAC visitent la Ferme"
    },
    "news": {
        "date_posted": {
            "en": "2018-05-24",
            "fr": "2018-05-24"
        },
        "to": {
            "en": "All staff",
            "fr": "Tous les employ\u00e9s"
        },
        "by": {
            "en": "Corporate Communications, Public Affairs Branch",
            "fr": "Communications minist\u00e9rielles, Direction g\u00e9n\u00e9rale des affaires publiques"
        }
    }
}