{
    "dcr_id": "1527254458410",
    "lang": "en",
    "title": {
        "en": "Mental Health Training for Employees - June Sessions",
        "fr": "Formation sur la sant\u00e9 mentale pour les employ\u00e9s - S\u00e9ances offertes en juin "
    },
    "modified": "2018-05-31 00:00:00.0",
    "issued": "2018-05-31 00:00:00.0",
    "type_name": "intra-intra/news-nouv",
    "node_id": "1279030006975",
    "layout_name": null,
    "dc_date_created": "2018-05-25",
    "breadcrumb_label": "",
    "meta": {
        "issued": {
            "en": "2018-05-31",
            "fr": "2018-05-31"
        },
        "modified": {
            "en": "2018-05-31",
            "fr": "2018-05-31"
        },
        "format": {
            "en": "gcformat",
            "fr": "gcformat"
        },
        "title": {
            "en": "Mental Health Training for Employees - June Sessions",
            "fr": "Formation sur la sant\u00e9 mentale pour les employ\u00e9s - S\u00e9ances offertes en juin "
        },
        "subject": {
            "en": "communications",
            "fr": "communications"
        },
        "description": {
            "en": "AAFC is committed to the mental health and well-being of its employees and recognizes that mental illness can touch all of us, whether directly or indirectly.",
            "fr": "AAC a \u00e0 coeur la sant\u00e9 mentale et le bien-\u00eatre de ses employ\u00e9s. Il reconna\u00eet que nous sommes tous vuln\u00e9rables, directement ou indirectement, \u00e0 la maladie mentale."
        },
        "language": {
            "en": "eng",
            "fr": "fra"
        },
        "audience": {
            "en": "gcaudience",
            "fr": "gcaudience"
        },
        "creator": {
            "en": "Agriculture and Agri-Food Canada",
            "fr": "Agriculture et Agroalimentaire Canada"
        },
        "spatial": {
            "en": "gcregions",
            "fr": "gcregions"
        },
        "service": {
            "en": "AAFC_AgriSource",
            "fr": "AAC_AgriSource"
        },
        "accessRights": {
            "en": "3",
            "fr": "3"
        }
    },
    "body": {
        "en": "<br>\n<br>\n<p>AAFC is committed to the mental health and well-being of its employees and recognizes that mental illness can touch all of us, whether directly or indirectly.</p>\n<p><a href=\"http://theworkingmind.ca/working-mind\">The Working Mind\u2122</a> is the education-based mental health training program of choice for AAFC, developed by the Mental Health Commission of Canada. It is designed to help employees and managers:</p>\n<ul>\n<li>address and promote mental health,</li>\n<li>dispel myths around mental health and mental illness; and</li>\n<li>reduce the stigma of mental illness in the workplace.</li>\n</ul>\n<h2><strong>Upcoming sessions for employees </strong></h2>\n<table cellspacing=\"0\" border=\"1\">\n<tbody>\n<tr>\n<td style=\"width: 90.45pt;\">\n<p><strong>\u00a0Date</strong></p>\n</td>\n<td style=\"border-color: windowtext windowtext windowtext #000000; width: 155.95pt;\">\n<p><strong>\u00a0Time</strong></p>\n</td>\n<td style=\"border-color: windowtext windowtext windowtext #000000; width: 155.9pt;\">\n<p><strong>\u00a0Location</strong></p>\n</td>\n<td style=\"border-color: windowtext windowtext windowtext #000000; width: 76.5pt;\">\n<p><strong>\u00a0Language</strong></p>\n</td>\n</tr>\n<tr>\n<td style=\"border-color: #000000 windowtext windowtext; width: 90.45pt;\">\n<p>\u00a0June 5</p>\n</td>\n<td style=\"border-color: #000000 windowtext windowtext #000000; width: 155.95pt;\">\n<p>\u00a01:00 to 4:30 p.m. (ET)</p>\n</td>\n<td style=\"border-color: #000000 windowtext windowtext #000000; width: 155.9pt;\">\n<p>\u00a0Montreal</p>\n</td>\n<td style=\"border-color: #000000 windowtext windowtext #000000; width: 76.5pt;\">\n<p>\u00a0French</p>\n</td>\n</tr>\n<tr>\n<td style=\"border-color: #000000 windowtext windowtext; width: 90.45pt;\">\n<p>\u00a0June 21</p>\n</td>\n<td style=\"border-color: #000000 windowtext windowtext #000000; width: 155.95pt;\">\n<p>\u00a08:30 a.m.\u00a0to 12:00 pm (ET)</p>\n</td>\n<td style=\"border-color: #000000 windowtext windowtext #000000; width: 155.9pt;\">\n<p>\u00a0NHCAP</p>\n</td>\n<td style=\"border-color: #000000 windowtext windowtext #000000; width: 76.5pt;\">\n<p>\u00a0English</p>\n</td>\n</tr>\n</tbody>\n</table>\n<p>\u00a0</p>\n<p>To register for the June employee sessions, find out about upcoming employee or manager sessions, or request a session for your team, please contact Workplace Wellness Programs at <a href=\"mailto:aafc.mentalhealth-santementale.aac@agr.gc.ca\">aafc.mentalhealth-santementale.aac@agr.gc.ca</a>.</p>\n<p>\u00a0<img src=\"https://intranet.agr.gc.ca/resources/prod/news/images/HealthyWorkplace.png\" class=\"center-block\"></p>\n\n\t\t",
        "fr": "<br>\n<br>\n<p>AAC a \u00e0 c\u0153ur la sant\u00e9 mentale et le bien-\u00eatre de ses employ\u00e9s. Il reconna\u00eet que nous sommes tous vuln\u00e9rables, directement ou indirectement, \u00e0 la maladie mentale.</p>\n<p><a href=\"http://www.espritautravail.ca/lesprit-au-travail\">L\u2019esprit au travail<sup>MC</sup></a> est le programme \u00e9ducatif sur la sant\u00e9 mentale que privil\u00e9gie AAC. Ce programme, qui a \u00e9t\u00e9 \u00e9labor\u00e9 par la Commission de la sant\u00e9 mentale du Canada, vise \u00e0 aider les employ\u00e9s et les gestionnaires \u00e0 :</p>\n<ul>\n<li>discuter de la sant\u00e9 mentale et \u00e0 la favoriser;</li>\n<li>briser les mythes li\u00e9s aux probl\u00e8mes de sant\u00e9 mentale et \u00e0 la maladie mentale;</li>\n<li>r\u00e9duire la stigmatisation de la maladie mentale au travail.</li>\n</ul>\n<h2><strong>Prochaines s\u00e9ances pour les employ\u00e9s </strong></h2>\n<table cellspacing=\"0\" border=\"1\">\n<tbody>\n<tr>\n<td style=\"width: 90.45pt;\">\n<p><strong>\u00a0Date</strong></p>\n</td>\n<td style=\"border-color: windowtext windowtext windowtext #000000; width: 155.95pt;\">\n<p><strong>\u00a0Heure</strong></p>\n</td>\n<td style=\"border-color: windowtext windowtext windowtext #000000; width: 155.9pt;\">\n<p><strong>\u00a0Endroit</strong></p>\n</td>\n<td style=\"border-color: windowtext windowtext windowtext #000000; width: 76.5pt;\">\n<p><strong>\u00a0Langue</strong></p>\n</td>\n</tr>\n<tr>\n<td style=\"border-color: #000000 windowtext windowtext; width: 90.45pt;\">\n<p>\u00a05 juin </p>\n</td>\n<td style=\"border-color: #000000 windowtext windowtext #000000; width: 155.95pt;\">\n<p>\u00a013 h\u00a0\u00e0 16 h 30 (HE)</p>\n</td>\n<td style=\"border-color: #000000 windowtext windowtext #000000; width: 155.9pt;\">\n<p>\u00a0Montr\u00e9al</p>\n</td>\n<td style=\"border-color: #000000 windowtext windowtext #000000; width: 76.5pt;\">\n<p>\u00a0Fran\u00e7ais</p>\n</td>\n</tr>\n<tr>\n<td style=\"border-color: #000000 windowtext windowtext; width: 90.45pt;\">\n<p>\u00a021 juin </p>\n</td>\n<td style=\"border-color: #000000 windowtext windowtext #000000; width: 155.95pt;\">\n<p>\u00a08 h 30\u00a0\u00e0 12 h (HE)</p>\n</td>\n<td style=\"border-color: #000000 windowtext windowtext #000000; width: 155.9pt;\">\n<p>\u00a0CACPA</p>\n</td>\n<td style=\"border-color: #000000 windowtext windowtext #000000; width: 76.5pt;\">\n<p>\u00a0Anglais</p>\n</td>\n</tr>\n</tbody>\n</table>\n<p>\u00a0</p>\n<p>Afin de vous inscrire aux s\u00e9ances offertes aux employ\u00e9s en juin, d\u2019obtenir plus d\u2019information sur les prochaines s\u00e9ances offertes aux employ\u00e9s ou aux gestionnaires ou de demander la tenue d\u2019une s\u00e9ance pour votre \u00e9quipe, veuillez communiquer avec les Programmes du mieux-\u00eatre en milieu de travail \u00e0 l\u2019adresse <a href=\"mailto:aafc.mentalhealth-santementale.aac@agr.gc.ca\">aafc.mentalhealth-santementale.aac@agr.gc.ca</a>.</p>\n<p><img src=\"https://intranet.agr.gc.ca/resources/prod/news/images/HealthyWorkplace.png\" class=\"center-block\">\u00a0</p>\n<p>\u00a0</p>\n\t\t"
    },
    "breadcrumb": {
        "en": "Mental Health Training for Employees - June Sessions",
        "fr": "Formation sur la sant\u00e9 mentale pour les employ\u00e9s - S\u00e9ances offertes en juin"
    },
    "news": {
        "date_posted": {
            "en": "2018-05-31",
            "fr": "2018-05-31"
        },
        "to": {
            "en": "All staff",
            "fr": "Tous les employ\u00e9s"
        },
        "by": {
            "en": "Human Resources, Corporate Management Branch",
            "fr": "Ressources humaines, Direction g\u00e9n\u00e9rale de la gestion int\u00e9gr\u00e9e"
        }
    }
}