{
    "dcr_id": "1527537976224",
    "lang": "en",
    "title": {
        "en": "Reminder - Invitation: AAFC All-Staff Meeting - June 8",
        "fr": "Rappel - Invitation : R\u00e9union du personnel d'AAC - Le 8 juin "
    },
    "modified": "2018-06-06 00:00:00.0",
    "issued": "2018-05-29 00:00:00.0",
    "type_name": "intra-intra/news-nouv",
    "node_id": "1279030006975",
    "layout_name": null,
    "dc_date_created": "2018-05-29",
    "breadcrumb_label": "",
    "meta": {
        "issued": {
            "en": "2018-05-29",
            "fr": "2018-05-29"
        },
        "modified": {
            "en": "2018-06-06",
            "fr": "2018-06-07"
        },
        "format": {
            "en": "gcformat",
            "fr": "gcformat"
        },
        "title": {
            "en": "Reminder - Invitation: AAFC All-Staff Meeting - June 8",
            "fr": "Rappel - Invitation : R\u00e9union du personnel d'AAC - Le 8 juin "
        },
        "subject": {
            "en": "communications",
            "fr": "communications"
        },
        "description": {
            "en": "Please join Deputy Minister Chris Forbes for an AAFC All-Staff Meeting.",
            "fr": "Nous vous invitons \u00e0 vous joindre au sous-ministre Chris Forbes pour assister \u00e0 une r\u00e9union du personnel d'AAC."
        },
        "language": {
            "en": "eng",
            "fr": "fra"
        },
        "audience": {
            "en": "gcaudience",
            "fr": "gcaudience"
        },
        "creator": {
            "en": "Agriculture and Agri-Food Canada",
            "fr": "Agriculture et Agroalimentaire Canada"
        },
        "spatial": {
            "en": "gcregions",
            "fr": "gcregions"
        },
        "service": {
            "en": "AAFC_AgriSource",
            "fr": "AAC_AgriSource"
        },
        "accessRights": {
            "en": "3",
            "fr": "3"
        }
    },
    "body": {
        "en": "<br>\n<br>\n<p>Please join Deputy Minister Chris Forbes for an AAFC All-Staff Meeting.</p>\n<p>Updates will be provided on the following workplace priorities and departmental initiatives:</p>\n<ul>\n<li>Phoenix and Pay</li>\n<li>Information Management/Information Technology</li>\n<li>Public Service Employee Survey 2017</li>\n<li>Science and Innovation</li>\n<li>Canadian Agricultural Partnership</li>\n<li>Food Policy</li>\n<li>Trade</li>\n</ul>\n<p><strong>Date and Time: </strong>Friday, June 8, 2018 |\u00a01:00 p.m. to 1:30 p.m. (ET)<br>\nNo scheduler is being sent for this meeting. Please block off the time in your Outlook calendar.</p>\n<p><strong>Location: </strong>Ottawa - T3-1-351 (limited seating available)</p>\n<p>We encourage staff to gather with colleagues, where possible, in boardrooms with videoconferencing facilities. Research centres and teams are asked to please coordinate room bookings.</p>\n<p>The meeting will also stream in the T6 Cafeteria.</p>\n<p><strong>Virtual Options: </strong></p>\n<ul>\n<li>Videoconference* (Bilingual): 6810900945</li>\n<li>Teleconference (Bilingual): 1-866-206-0153 or 613-954-9003 Passcode: 2532135#</li>\n<li>Teleconference (English): 1-866-805-7923 or 613-960-7518 Passcode: 9363630#</li>\n<li>Teleconference (French): 1-877-413-4814 or 613-960-7519 Passcode: 9479281#</li>\n</ul>\n<p>*Note: To access simultaneous interpretation by videoconference, please:</p>\n<ol>\n<li>Sign into the videoconference</li>\n<li>Select \"mute microphone\" on the videoconference remote</li>\n<li>Lower the volume completely on the TV</li>\n<li>Follow the instructions above to connect the telephone to the teleconference in the language of choice.</li>\n</ol>\n<p>To maximize AAFC's videoconferencing capacity, we ask that individuals refrain from connecting via their own PC. <strong>Please note, to avoid accidental noise, all lines will be muted.</strong></p>\n<p>If you experience difficulties in connecting, please contact the IT Centre at 1-855-545-4411 or <a href=\"mailto:service@itcentreti.collaboration.gc.ca\">service@itcentreti.collaboration.gc.ca</a>.</p>\n<p>We look forward to your participation at this AAFC event.<br>\n<br>\n<br>\n<strong>Steve Jurgutis</strong><br>\nA/Assistant Deputy Minister<br>\nPublic Affairs Branch</p>\n\n\t\t",
        "fr": "<br>\n<br>\n<p>Nous vous invitons \u00e0 vous joindre au sous-ministre Chris Forbes pour assister \u00e0 une r\u00e9union du personnel d\u2019AAC.</p>\n<p>Les initiatives minist\u00e9rielles et les priorit\u00e9s en milieu de travail feront l\u2019objet d\u2019une mise \u00e0 jour :</p>\n<ul>\n<li>Ph\u00e9nix et la paye</li>\n<li>Gestion de l\u2019information/technologie de l\u2019information</li>\n<li>Sondage aupr\u00e8s des fonctionnaires f\u00e9d\u00e9raux 2017</li>\n<li>Science et innovation</li>\n<li>Partenariat canadien pour l\u2019agriculture</li>\n<li>Politique alimentaire</li>\n<li>Commerce</li>\n</ul>\n<p><strong>Date et heure :</strong> Vendredi 8 juin 2018 |\u00a013 h \u00e0 13 h 30 (HE)<br>\nNous n\u2019enverrons pas d\u2019avis de convocation pour cette r\u00e9union. Veuillez r\u00e9server la plage horaire dans votre calendrier Outlook.</p>\n<p><strong>Lieu :</strong> Ottawa \u2013 T3-1-351 (les places sont limit\u00e9es)</p>\n<p>Nous vous prions de vous regrouper dans des salles de conf\u00e9rence munies d\u2019installations pour vid\u00e9oconf\u00e9rence, dans la mesure du possible. Les \u00e9quipes et les centres sont pri\u00e9s de coordonner la r\u00e9servation des salles.</p>\n<p>La r\u00e9union sera aussi diffus\u00e9e dans la caf\u00e9t\u00e9ria de la tour 6.</p>\n<p><strong>Options virtuelles :</strong></p>\n<ul>\n<li>Vid\u00e9oconf\u00e9rence* (bilingue) : 6810900945</li>\n<li>T\u00e9l\u00e9conf\u00e9rence (bilingue) : 1-866-206-0153 ou 613-954-9003, code: 2532135#</li>\n<li>T\u00e9l\u00e9conf\u00e9rence (anglais) : 1-866-805-7923 ou 613-960-7518, code: 9363630#</li>\n<li>T\u00e9l\u00e9conf\u00e9rence (fran\u00e7ais) : 1-877-413-4814 ou 613-960-7519, code: 9479281#</li>\n</ul>\n<p>*Remarque : Pour avoir acc\u00e8s \u00e0 l\u2019interpr\u00e9tation simultan\u00e9e par vid\u00e9oconf\u00e9rence :</p>\n<ol>\n<li>Connectez-vous \u00e0 la vid\u00e9oconf\u00e9rence.</li>\n<li>S\u00e9lectionnez \u00ab mute microphone \u00bb (d\u00e9sactiver le micro) sur la t\u00e9l\u00e9commande pour vid\u00e9oconf\u00e9rence.</li>\n<li>Baissez compl\u00e8tement le volume du t\u00e9l\u00e9viseur.</li>\n<li>Suivez les directives ci-dessus pour connecter le t\u00e9l\u00e9phone \u00e0 la t\u00e9l\u00e9conf\u00e9rence dans la langue de votre choix.</li>\n</ol>\n<p>Afin de maximiser les services de vid\u00e9oconf\u00e9rence, nous vous demandons d\u2019\u00e9viter de vous connecter par l\u2019interm\u00e9diaire de votre ordinateur.<strong> Veuillez noter que toutes les lignes seront mises en sourdine pour \u00e9viter les bruits accidentels.</strong></p>\n<p>Si vous \u00e9prouvez des difficult\u00e9s, veuillez communiquer avec le Centre de TI au 1-855-545-4411 ou par courriel \u00e0 <a href=\"mailto:service@itcentreti.collaboration.gc.ca\">service@itcentreti.collaboration.gc.ca</a>.</p>\n<p>Nous esp\u00e9rons vous compter parmi les participants \u00e0 cette activit\u00e9 d\u2019AAC.<br>\n<br>\n<br>\n<strong>Steve Jurgutis</strong><br>\nSous-ministre adjoint par int\u00e9rim<br>\nDirection g\u00e9n\u00e9rale des affaires publiques</p>\n\t\t"
    },
    "breadcrumb": {
        "en": "Reminder - Invitation: AAFC All-Staff Meeting - June 8",
        "fr": "Rappel - Invitation : R\u00e9union du personnel d'AAC - Le 8 juin"
    },
    "news": {
        "date_posted": {
            "en": "2018-05-28",
            "fr": "2018-05-28"
        },
        "to": {
            "en": "All staff",
            "fr": "Tous les employ\u00e9s"
        },
        "by": {
            "en": "Steve Jurgutis, A/Assistant Deputy Minister, Public Affairs Branch",
            "fr": "Steve Jurgutis, sous-ministre adjoint par int\u00e9rim, Direction g\u00e9n\u00e9rale des affaires publiques"
        }
    }
}