{
    "dcr_id": "1527615403842",
    "lang": "en",
    "title": {
        "en": "Reminder - National Public Service Week Events - June 11-15",
        "fr": "Rappel - Activit\u00e9s de la Semaine nationale de la fonction publique - Du 11 au 15 juin"
    },
    "modified": "2018-06-06 00:00:00.0",
    "issued": "2018-05-31 00:00:00.0",
    "type_name": "intra-intra/news-nouv",
    "node_id": "1279030006975",
    "layout_name": null,
    "dc_date_created": "2018-05-29",
    "breadcrumb_label": "",
    "meta": {
        "issued": {
            "en": "2018-05-31",
            "fr": "2018-05-31"
        },
        "modified": {
            "en": "2018-06-06",
            "fr": "2018-06-07"
        },
        "format": {
            "en": "gcformat",
            "fr": "gcformat"
        },
        "title": {
            "en": "Reminder - National Public Service Week Events - June 11-15",
            "fr": "Rappel - Activit\u00e9s de la Semaine nationale de la fonction publique - Du 11 au 15 juin"
        },
        "subject": {
            "en": "communications",
            "fr": "communications"
        },
        "description": {
            "en": "Mark your calendars! National Public Service Week activities will take place from June 11 to June 15.",
            "fr": "Faites une croix sur votre calendrier! Les activit\u00e9s de la Semaine nationale de la fonction publique auront lieu du 11 au 15 juin."
        },
        "language": {
            "en": "eng",
            "fr": "fra"
        },
        "audience": {
            "en": "gcaudience",
            "fr": "gcaudience"
        },
        "creator": {
            "en": "Agriculture and Agri-Food Canada",
            "fr": "Agriculture et Agroalimentaire Canada"
        },
        "spatial": {
            "en": "gcregions",
            "fr": "gcregions"
        },
        "service": {
            "en": "AAFC_AgriSource",
            "fr": "AAC_AgriSource"
        },
        "accessRights": {
            "en": "3",
            "fr": "3"
        }
    },
    "body": {
        "en": "<br>\n<br>\n<p>Mark your calendars! National Public Service Week (<abbr title=\"National Public Service Week\">NPSW</abbr>) activities will take place from June 11 to June 15.</p>\n<p><abbr title=\"National Public Service Week\">NPSW</abbr> is an annual celebration to recognize employees' valuable contributions to the public service. To acknowledge and thank employees for their hard work and dedication, AAFC has several activities planned, including:</p>\n<ul>\n<li>a Living Library event, where colleagues will speak about their interesting personal experiences</li>\n<li>the Departmental Awards Ceremony</li>\n<li>Employee and Family Assistance Program overview sessions</li>\n</ul>\n<p>Appreciation-O-Grams will be available online throughout the week and can be sent to colleagues as a simple gesture of gratitude to make them smile.</p>\n<p>Find out more about all of the activities taking place by visiting the <a href=\"https://collab.agr.gc.ca/co/npsw-snfp/SitePages/Home.aspx\"><abbr title=\"National Public Service Week\">NPSW</abbr> Knowledge Workspace page</a>.</p>\n<p>Celebrate being a proud member of the Public Service of Canada and join your colleagues at National Public Service Week events!</p>\n<p><img src=\"https://intranet.agr.gc.ca/resources/prod/news/images/NPSW-EN.png\" class=\"center-block\"></p>\n\n\t\t",
        "fr": "<br>\n<br>\n<p>Faites une croix sur votre calendrier! Les activit\u00e9s de la Semaine nationale de la fonction publique (<abbr title=\"Semaine nationale de la fonction publique\">SNFP</abbr>) auront lieu du 11 au 15 juin.</p>\n<p>La <abbr title=\"Semaine nationale de la fonction publique\">SNFP</abbr> est une c\u00e9l\u00e9bration annuelle qui vise \u00e0 reconna\u00eetre la contribution importante des employ\u00e9s \u00e0 la fonction publique. Pour remercier les employ\u00e9s de leurs efforts et de leur d\u00e9vouement, AAC pr\u00e9voit tenir plusieurs activit\u00e9s, notamment les suivantes :</p>\n<ul>\n<li>Activit\u00e9 de biblioth\u00e8que vivante o\u00f9 des coll\u00e8gues parleront de leurs exp\u00e9riences personnelles int\u00e9ressantes</li>\n<li>C\u00e9r\u00e9monie de remise des prix du Minist\u00e8re</li>\n<li>S\u00e9ances d\u2019orientation du Programme d\u2019aide aux employ\u00e9s et \u00e0 leur famille</li>\n</ul>\n<p>Des Appr\u00e9ciation-O-grammes seront disponibles en ligne pendant toute la semaine et pourront \u00eatre envoy\u00e9s \u00e0 des coll\u00e8gues pour les remercier et \u00e9gayer leur journ\u00e9e.</p>\n<p>Pour en savoir plus sur les activit\u00e9s, consultez la <a href=\"https://collab.agr.gc.ca/co/npsw-snfp/SitePages/Home.aspx\">page de la <abbr title=\"Semaine nationale de la fonction publique\">SNFP</abbr> dans l\u2019Espace de travail du savoir</a>.</p>\n<p>C\u00e9l\u00e9brez votre fiert\u00e9 de faire partie de la fonction publique du Canada et participez aux activit\u00e9s de la Semaine nationale de la fonction publique avec vos coll\u00e8gues!</p>\n<p><img src=\"https://intranet.agr.gc.ca/resources/prod/news/images/NPSW-FR.png\" class=\"center-block\"></p>\n\t\t"
    },
    "breadcrumb": {
        "en": "Reminder - National Public Service Week Events - June 11-15",
        "fr": "Rappel - Activit\u00e9s de la Semaine nationale de la fonction publique - Du 11 au 15 juin"
    },
    "news": {
        "date_posted": {
            "en": "2018-05-31",
            "fr": "2018-05-31"
        },
        "to": {
            "en": "Other regions (not NCR)",
            "fr": "R\u00e9gions autres que la RCN"
        },
        "by": {
            "en": "Human Resources, Corporate Management Branch",
            "fr": "Ressources humaines, Direction g\u00e9n\u00e9rale de la gestion int\u00e9gr\u00e9e"
        }
    }
}