{
    "dcr_id": "1528750380088",
    "lang": "en",
    "title": {
        "en": "NCR - Bicycle Parking",
        "fr": "RCN - Stationnement de bicyclettes"
    },
    "modified": "2018-06-13 00:00:00.0",
    "issued": "2018-06-13 00:00:00.0",
    "type_name": "intra-intra/news-nouv",
    "node_id": "1279030006975",
    "layout_name": null,
    "dc_date_created": "2018-06-12",
    "breadcrumb_label": "",
    "meta": {
        "issued": {
            "en": "2018-06-13",
            "fr": "2018-06-13"
        },
        "modified": {
            "en": "2018-06-13",
            "fr": "2018-06-13"
        },
        "format": {
            "en": "gcformat",
            "fr": "gcformat"
        },
        "title": {
            "en": "NCR - Bicycle Parking",
            "fr": "RCN - Stationnement de bicyclettes"
        },
        "subject": {
            "en": "communications",
            "fr": "communications"
        },
        "description": {
            "en": "Maple Leaf Property Management is reminding employees that bicycles are to be parked only in designated areas.",
            "fr": "Maple Leaf Property Management rappelle aux employ\u00e9s que les bicyclettes doivent \u00eatre stationn\u00e9es seulement dans les zones d\u00e9sign\u00e9es."
        },
        "language": {
            "en": "eng",
            "fr": "fra"
        },
        "audience": {
            "en": "gcaudience",
            "fr": "gcaudience"
        },
        "creator": {
            "en": "Agriculture and Agri-Food Canada",
            "fr": "Agriculture et Agroalimentaire Canada"
        },
        "spatial": {
            "en": "gcregions",
            "fr": "gcregions"
        },
        "service": {
            "en": "AAFC_AgriSource",
            "fr": "AAC_AgriSource"
        },
        "accessRights": {
            "en": "3",
            "fr": "3"
        }
    },
    "body": {
        "en": "<br>\n<br>\n<p>Maple Leaf Property Management is reminding employees that bicycles are to be parked only in designated areas. As of June 18, 2018, bicycles parking in unauthorized areas will have their locks cut off and the bikes relocated to one of the racks provided. As well, any locks left behind will also be cut off and disposed of.</p>\n<p>Please see the <a href=\"pcdocs://AAFCAAC/104151483/1\">Maple Leaf Property Management notice</a>\u00a0for more information.</p>\n<p><img src=\"https://intranet.agr.gc.ca/resources/prod/news/images/MapleLeafProperty.png\" class=\"center-block\"></p>\n\n\t\t",
        "fr": "<br>\n<br>\n<p>Maple Leaf Property Management rappelle aux employ\u00e9s que les bicyclettes doivent \u00eatre stationn\u00e9es seulement dans les zones d\u00e9sign\u00e9es. \u00c0 compter du 18 juin 2018, si des bicyclettes sont trouv\u00e9es \u00e0 des endroits interdits, leurs cadenas seront coup\u00e9s et elles seront d\u00e9plac\u00e9es \u00e0 l\u2019un des supports fournis. En outre, les cadenas laiss\u00e9s derri\u00e8re seront coup\u00e9s et jet\u00e9s.</p>\n<p>Veuillez consulter <a href=\"pcdocs://AAFCAAC/104151483/1\">l\u2019avis de Maple Leaf Property Management</a> pour obtenir de plus amples renseignements.</p>\n<p><img src=\"https://intranet.agr.gc.ca/resources/prod/news/images/MapleLeafProperty.png\" class=\"center-block\"></p>\n\t\t"
    },
    "breadcrumb": {
        "en": "NCR - Bicycle Parking",
        "fr": "RCN - Stationnement de bicyclettes"
    },
    "news": {
        "date_posted": {
            "en": "2018-06-13",
            "fr": "2018-06-13"
        },
        "to": {
            "en": "NCR only",
            "fr": "RCN seulement"
        },
        "by": {
            "en": "Maple Leaf Property Management",
            "fr": "Maple Leaf Property Management"
        }
    }
}