{
    "dcr_id": "1528216236916",
    "lang": "en",
    "title": {
        "en": "Celebrating AAFC's 2018 Award Recipients",
        "fr": "C\u00e9l\u00e9brons les laur\u00e9ats des prix 2018 d'AAC"
    },
    "modified": "2018-06-06 00:00:00.0",
    "issued": "2018-06-06 00:00:00.0",
    "type_name": "intra-intra/news-nouv",
    "node_id": "1279030006975",
    "layout_name": null,
    "dc_date_created": "2018-06-05",
    "breadcrumb_label": "",
    "meta": {
        "issued": {
            "en": "2018-06-06",
            "fr": "2018-06-06"
        },
        "modified": {
            "en": "2018-06-06",
            "fr": "2018-06-06"
        },
        "format": {
            "en": "gcformat",
            "fr": "gcformat"
        },
        "title": {
            "en": "Celebrating AAFC's 2018 Award Recipients",
            "fr": "C\u00e9l\u00e9brons les laur\u00e9ats des prix 2018 d'AAC"
        },
        "subject": {
            "en": "communications",
            "fr": "communications"
        },
        "description": {
            "en": "This National Public Service Week, I invite everyone to come out and celebrate the achievements of your colleagues at AAFC's Departmental Awards Ceremony where we will be honouring the recipients of the Gold Harvest Award, the Deputy Minister Commendation Award, and the Prize for Outstanding Achievement in Science.",
            "fr": "Je vous invite, dans le cadre de la Semaine nationale de la fonction publique, \u00e0 venir c\u00e9l\u00e9brer les r\u00e9alisations de vos coll\u00e8gues lors de la c\u00e9r\u00e9monie de remise des prix du Minist\u00e8re. Nous rendrons hommage aux laur\u00e9ats du prix Moisson d'or, du Prix de distinction du sous-ministre et du Prix pour contribution exceptionnelle \u00e0 la science."
        },
        "language": {
            "en": "eng",
            "fr": "fra"
        },
        "audience": {
            "en": "gcaudience",
            "fr": "gcaudience"
        },
        "creator": {
            "en": "Agriculture and Agri-Food Canada",
            "fr": "Agriculture et Agroalimentaire Canada"
        },
        "spatial": {
            "en": "gcregions",
            "fr": "gcregions"
        },
        "service": {
            "en": "AAFC_AgriSource",
            "fr": "AAC_AgriSource"
        },
        "accessRights": {
            "en": "3",
            "fr": "3"
        }
    },
    "body": {
        "en": "<br>\n<br>\n<p>This National Public Service Week, I invite everyone to come out and celebrate the achievements of your colleagues at AAFC's Departmental Awards Ceremony where we will be honouring the recipients of the Gold Harvest Award, the Deputy Minister Commendation Award, and the Prize for Outstanding Achievement in Science.</p>\n<p><strong>Date and Time:</strong> Tuesday, June 12 | 12:00 to 1:30 p.m. (ET)<br><strong>Location:</strong>\u00a0Ottawa - NHCAP T6 Cafeteria |\u00a0Available across Canada via videoconference and teleconference<br><strong>Videoconference:</strong>\u00a06610879794<br><strong>Teleconference:\u00a0</strong>613-960-7513 or 1-877-413-4788 |\u00a0Conference ID: 3699823#</p>\n<p>The Gold Harvest Award honours significant contributions made by AAFC employees and partners through their excellent work, exemplary behaviour, and positive results.</p>\n<p>The Deputy Minister Commendation Award recognizes the individuals and teams who made a significant impact in supporting the Department's strategic objectives, managing people and driving innovation.</p>\n<p>The Prize for Outstanding Achievement in Science recognizes those who have made an extensive contribution to an invention and/or the enhancement of a new idea or process.</p>\n<p>You can find descriptions of all of the award recipients on the <a href=\"http://intranet.agr.gc.ca/agrisource/eng?id=1527681253450\">2018 Departmental Award Recipients</a>\u00a0AgriSource page.</p>\n<p>Thank you for all your many valuable contributions and congratulations to all the recipients for their dedication, creativity and hard work.<br>\n<br>\n<br>\n<strong>Chris Forbes</strong><br>\nDeputy Minister</p>\n\n\t\t",
        "fr": "<br>\n<br>\n<p>Je vous invite, dans le cadre de la Semaine nationale de la fonction publique, \u00e0 venir c\u00e9l\u00e9brer les r\u00e9alisations de vos coll\u00e8gues lors de la c\u00e9r\u00e9monie de remise des prix du Minist\u00e8re. Nous rendrons hommage aux laur\u00e9ats du prix Moisson d\u2019or, du Prix de distinction du sous-ministre et du Prix pour contribution exceptionnelle \u00e0 la science.</p>\n<p><strong>Date et heure :</strong> Mardi 12 juin | 12 h \u00e0 13 h 30 (HE)<br><strong>Lieu :</strong> Ottawa \u2013 CACPA, caf\u00e9t\u00e9ria de la tour 6 | Partout au Canada par vid\u00e9oconf\u00e9rence et t\u00e9l\u00e9conf\u00e9rence<br><strong>Vid\u00e9oconf\u00e9rence :</strong> 6610879794<br><strong>T\u00e9l\u00e9conf\u00e9rence : </strong>613-960-7513 ou 1-877-413-4788 | Code de conf\u00e9rence : 3699823#</p>\n<p>Le prix Moisson d\u2019or honore la contribution exceptionnelle des employ\u00e9s et des partenaires d\u2019AAC qui s\u2019est manifest\u00e9e par l\u2019excellence de leur travail, leur comportement exemplaire et les r\u00e9sultats positifs qu\u2019ils ont obtenus.</p>\n<p>Le Prix de distinction du sous-ministre reconna\u00eet les personnes et les \u00e9quipes qui ont grandement contribu\u00e9 \u00e0 l\u2019atteinte des objectifs strat\u00e9giques du Minist\u00e8re, \u00e0 la gestion de l\u2019effectif et \u00e0 l\u2019innovation.</p>\n<p>Le Prix pour contribution exceptionnelle \u00e0 la science reconna\u00eet les personnes qui ont grandement contribu\u00e9 \u00e0 une invention ou \u00e0 l\u2019am\u00e9lioration d\u2019une nouvelle id\u00e9e ou d\u2019un nouveau processus.</p>\n<p>Vous trouverez une description de tous les laur\u00e9ats sur AgriSource, dans la page intitul\u00e9e <a href=\"http://intranet.agr.gc.ca/agrisource/fra?id=1527681253450\">Laur\u00e9ats des prix d\u00e9cern\u00e9s par le Minist\u00e8re en 2018</a>.</p>\n<p>Nous tenons aussi \u00e0 f\u00e9liciter tous les laur\u00e9ats et \u00e0 les remercier de leur d\u00e9vouement et de leur cr\u00e9ativit\u00e9.<br>\n<br><br>\n<strong>Chris Forbes</strong><br>\nSous-ministre</p>\n\t\t"
    },
    "breadcrumb": {
        "en": "Celebrating AAFC's 2018 Award Recipients",
        "fr": "C\u00e9l\u00e9brons les laur\u00e9ats des prix 2018 d'AAC"
    },
    "news": {
        "date_posted": {
            "en": "2018-06-05",
            "fr": "2018-06-05"
        },
        "to": {
            "en": "All staff",
            "fr": "Tous les employ\u00e9s"
        },
        "by": {
            "en": "Chris Forbes, Deputy Minister",
            "fr": "Chris Forbes, sous-ministre"
        }
    }
}