{
    "dcr_id": "1528217725189",
    "lang": "en",
    "title": {
        "en": "The June Edition of CUE Now Available",
        "fr": "Le num\u00e9ro de l'AIDE-M\u00c9MOIRE de juin est maintenant en ligne"
    },
    "modified": "2019-02-07 00:00:00.0",
    "issued": "2018-06-07 00:00:00.0",
    "type_name": "intra-intra/news-nouv",
    "node_id": "1279030006975",
    "layout_name": null,
    "dc_date_created": "2018-06-05",
    "breadcrumb_label": "",
    "meta": {
        "issued": {
            "en": "2018-06-07",
            "fr": "2018-06-07"
        },
        "modified": {
            "en": "2019-02-07",
            "fr": "2019-02-07"
        },
        "format": {
            "en": "gcformat",
            "fr": "gcformat"
        },
        "title": {
            "en": "The June Edition of CUE Now Available",
            "fr": "Le num\u00e9ro de l'AIDE-M\u00c9MOIRE de juin est maintenant en ligne"
        },
        "subject": {
            "en": "communications",
            "fr": "communications"
        },
        "description": {
            "en": "The June edition of <I>CUE: a quick reference tool for managers</I> is now available.",
            "fr": "Le num\u00e9ro de juin de l'<I>AIDE-M\u00c9MOIRE : un outil de r\u00e9f\u00e9rence rapide pour les gestionnaires</I> est maintenant en ligne."
        },
        "language": {
            "en": "eng",
            "fr": "fra"
        },
        "audience": {
            "en": "gcaudience",
            "fr": "gcaudience"
        },
        "creator": {
            "en": "Agriculture and Agri-Food Canada",
            "fr": "Agriculture et Agroalimentaire Canada"
        },
        "spatial": {
            "en": "gcregions",
            "fr": "gcregions"
        },
        "service": {
            "en": "AAFC_AgriSource",
            "fr": "AAC_AgriSource"
        },
        "accessRights": {
            "en": "3",
            "fr": "3"
        }
    },
    "body": {
        "en": "<br>\n<br>\n<p>The June edition of <em>CUE: a quick reference tool for managers</em> is now available.</p>\n<p>Included in this month\u2019s edition:</p>\n<ul>\n<li>update on Email Transformation and Windows and Office upgrades</li>\n<li>notable June events</li>\n<li>the latest on the Canadian Agriculture Partnership</li>\n<li>the Transportation Modernization Act (Bill C-49)</li>\n</ul>\n<p>The information you need and speaking points to help you deliver it to employees is at your fingertips. <a href=\"http://intranet.agr.gc.ca/agrisource/eng/branches-and-offices/public-affairs-branch/corporate-communications?id=1297348464656\">Download <em>CUE</em></a> and continue the dialogue with your team today.</p>\n<p><img src=\"https://intranet.agr.gc.ca/resources/prod/news/images/CUE-EN.png\" class=\"center-block\"></p>\n\n\t\t",
        "fr": "<br>\n<br>\n<p>Le num\u00e9ro de juin de l\u2019<em>AIDE-M\u00c9MOIRE</em> <em>: un outil de r\u00e9f\u00e9rence rapide pour les gestionnaires</em> est maintenant en ligne.</p>\n<p>Dans ce num\u00e9ro :</p>\n<ul>\n<li>le point sur la transformation du courriel et les mises \u00e0 niveau de Windows et d\u2019Office</li>\n<li>activit\u00e9s importantes en juin</li>\n<li>les derni\u00e8res nouvelles sur le Partenariat canadien pour l\u2019agriculture</li>\n<li>la loi sur la modernisation des transports (projet de loi C-49)</li>\n</ul>\n<p>L\u2019information dont vous avez besoin et les notes d\u2019allocution pour la communiquer aux employ\u00e9s sont \u00e0 votre disposition. <a href=\"http://intranet.agr.gc.ca/agrisource/fra/directions-generales-et-bureaux/direction-generale-des-affaires-publiques/communications-ministerielles?id=1297348464656\">T\u00e9l\u00e9chargez l\u2019<em>AIDE-M\u00c9MOIRE</em></a> et poursuivez la discussion avec votre \u00e9quipe d\u00e8s aujourd\u2019hui.</p>\n<p><img src=\"https://intranet.agr.gc.ca/resources/prod/news/images/CUE-FR.png\" class=\"center-block\"></p>\n\t\t"
    },
    "breadcrumb": {
        "en": "The June Edition of CUE Now Available",
        "fr": "Le num\u00e9ro de l'AIDE-M\u00c9MOIRE de juin est maintenant en ligne"
    },
    "news": {
        "date_posted": {
            "en": "2018-06-07",
            "fr": "2018-06-07"
        },
        "to": {
            "en": "All staff",
            "fr": "Tous les employ\u00e9s"
        },
        "by": {
            "en": "Public Affairs Branch",
            "fr": "Direction g\u00e9n\u00e9rale des affaires publiques"
        }
    }
}