{
    "dcr_id": "1528200893826",
    "lang": "en",
    "title": {
        "en": "See the Interesting Work Your Colleagues are Doing at Ag-Ignite - June 14",
        "fr": "Venez voir le travail int\u00e9ressant que vos coll\u00e8gues font lors de l'\u00e9v\u00e8nement Ag-Ignite - Le 14 juin"
    },
    "modified": "2018-06-07 00:00:00.0",
    "issued": "2018-06-07 00:00:00.0",
    "type_name": "intra-intra/news-nouv",
    "node_id": "1279030006975",
    "layout_name": null,
    "dc_date_created": "2018-06-05",
    "breadcrumb_label": "",
    "meta": {
        "issued": {
            "en": "2018-06-07",
            "fr": "2018-06-07"
        },
        "modified": {
            "en": "2018-06-07",
            "fr": "2018-06-07"
        },
        "format": {
            "en": "gcformat",
            "fr": "gcformat"
        },
        "title": {
            "en": "See the Interesting Work Your Colleagues are Doing at Ag-Ignite - June 14",
            "fr": "Venez voir le travail int\u00e9ressant que vos coll\u00e8gues font lors de l'\u00e9v\u00e8nement Ag-Ignite - Le 14 juin"
        },
        "subject": {
            "en": "communications",
            "fr": "communications"
        },
        "description": {
            "en": "As part of National Public Service Week activities, AAFC is holding a combined DG Policy and Programs Management Committee and DG Management Committee meeting to showcase and acknowledge the work of young professionals within the department.",
            "fr": "Dans le cadre des activit\u00e9s de la Semaine nationale de la fonction publique, AAC organisera une r\u00e9union du Comit\u00e9 de gestion des politiques et des programmes des DG et du Comit\u00e9 de gestion des DG pour c\u00e9l\u00e9brer et soulignerle travail des jeunes professionnels au sein du Minist\u00e8re."
        },
        "language": {
            "en": "eng",
            "fr": "fra"
        },
        "audience": {
            "en": "gcaudience",
            "fr": "gcaudience"
        },
        "creator": {
            "en": "Agriculture and Agri-Food Canada",
            "fr": "Agriculture et Agroalimentaire Canada"
        },
        "spatial": {
            "en": "gcregions",
            "fr": "gcregions"
        },
        "service": {
            "en": "AAFC_AgriSource",
            "fr": "AAC_AgriSource"
        },
        "accessRights": {
            "en": "3",
            "fr": "3"
        }
    },
    "body": {
        "en": "<br>\n<br>\n<p>As part of National Public Service Week (<abbr title=\"National Public Service Week\">NPSW</abbr>) activities, AAFC is holding a combined DG Policy and Programs Management Committee (<abbr title=\"DG Policy and Programs Management Committee \">DGPPMC</abbr>) and DG Management Committee (<abbr title=\"DG Management Committee\">DGMC)</abbr> meeting to showcase and acknowledge the work of young professionals within the department.</p>\n<p>\u201cAg-Ignite\u201d is open to all employees. Attend this special event to support your colleagues and learn about the interesting work that they are doing.</p>\n<h2>Event information</h2>\n<p><strong>Date and Time:</strong> Thursday, June 14 |<strong> </strong>10:30 a.m. to 12:00 p.m. (ET)<br><strong>Location:</strong> NHCAP - T3-1-351 (limited seating available)<br><strong>Videoconference: </strong>72500011529 (guest PIN: 2675#)</p>\n<p>We encourage staff to gather with colleagues, where possible, in boardrooms with videoconferencing facilities. <strong>To avoid accidental noise, please mute all lines.</strong></p>\n<h3><strong>Agenda</strong></h3>\n<p><strong>Tracking International Activities<br></strong>Presenter: Regina Palamar - IAB</p>\n<p><strong>Portfolio Coordination<br></strong>Presenter: Alyssa Walpole - DMO</p>\n<p><strong>The Rising Costs of Disasters \u2013 Paying for an Emergency<br></strong>Presenter: Garrett Milne - MISB</p>\n<p><strong>Canadian Drought Monitor: Origins, Challenges, and Updates<br></strong>Presenter (via VC): Maginda Magendrathajan - STB</p>\n<p><img src=\"https://intranet.agr.gc.ca/resources/prod/news/images/YPN-SPROUT-EN.png\" class=\"center-block\" alt=\"Young Professionals Network\"><img src=\"https://intranet.agr.gc.ca/resources/prod/news/images/NPSW-EN.png\" class=\"center-block\" alt=\"National Public Service Week\"></p>\n\n\t\t",
        "fr": "<br>\n<br>\n<p>Dans le cadre des activit\u00e9s de la Semaine nationale de la fonction publique (<abbr title=\"Semaine nationale de la fonction publique\">SNFP</abbr>), AAC organisera une r\u00e9union du Comit\u00e9 de gestion des politiques et des programmes des DG (<abbr title=\"Comit\u00e9 de gestion des politiques et des programmes des DG\">CGPPDG</abbr>) et du Comit\u00e9 de gestion des DG (<abbr title=\"Comit\u00e9 de gestion des DG\">CGDG</abbr>) pour c\u00e9l\u00e9brer et soulignerle travail des jeunes professionnels au sein du Minist\u00e8re.</p>\n<p>L\u2019\u00e9v\u00e8nement \u00ab pr\u00e9sentation Ag-Ignite \u00bb s\u2019adresse \u00e0 tous les employ\u00e9s! Assistez \u00e0 cet \u00e9v\u00e9nement sp\u00e9cial pour soutenir vos coll\u00e8gues et en apprendre davantage sur leur travail int\u00e9ressant.</p>\n<h2>\n<b>Renseignements sur l\u2019\u00e9v\u00e9nement\u00a0</b></h2>\n<p>\n<b>Date et heure :</b> le jeudi 14 juin\u00a0|<strong> </strong>de<strong> </strong>10 h 30\u00a0\u00e0 12 h\u00a0(HE)<br><b>Lieu :</b> CACPA - T3-1-351 (le nombre de place est limit\u00e9)<br><b>Vid\u00e9oconf\u00e9rence : </b>72500011529 (NIP d\u2019invit\u00e9 : 2675#)</p>\n<p>\nNous vous prions de vous regrouper dans des salles de conf\u00e9rence munies d'installations de vid\u00e9oconf\u00e9rence, dans la mesure du possible. <b>Pour \u00e9viter les bruits accidentels, veuillez \u00e9teindre tous les microphones.</b></p>\n<h3>\n<b>Programme</b></h3>\n<p>\n<b>Suivi des activit\u00e9s internationales <br></b>Pr\u00e9sentatrice : Regina Palamar - DGAI</p>\n<p>\n<b>Coordination de portefeuille<br></b>Pr\u00e9sentatrice : Alyssa Walpole - BSM</p>\n<p>\n<b>La hausse des co\u00fbts des catastrophes \u2013 Frais li\u00e9s \u00e0 une situation d\u2019urgence <br></b>Pr\u00e9sentateur : Garrett Milne - DGSIM</p>\n<p>\n<b>Surveillance des s\u00e9cheresses au Canada : origines, d\u00e9fis et mises \u00e0 jour<br></b>Pr\u00e9sentatrice (par VC) : Maginda Magendrathajan - DGST</p>\n<p><img src=\"https://intranet.agr.gc.ca/resources/prod/news/images/YPN-SPROUT-FR.png\" class=\"center-block\" alt=\"R\u00e9seau des jeunes professionnels \"><img src=\"https://intranet.agr.gc.ca/resources/prod/news/images/NPSW-FR.png\" class=\"center-block\" alt=\"Semaine nationale de la fonction publique \"></p>\n\t\t"
    },
    "breadcrumb": {
        "en": "See the Interesting Work Your Colleagues are Doing at Ag-Ignite - June 14",
        "fr": "Venez voir le travail int\u00e9ressant que vos coll\u00e8gues font lors de l'\u00e9v\u00e8nement Ag-Ignite - Le 14 juin"
    },
    "news": {
        "date_posted": {
            "en": "2018-06-07",
            "fr": "2018-06-07"
        },
        "to": {
            "en": "All staff",
            "fr": "Tous les employ\u00e9s"
        },
        "by": {
            "en": "Young Professionals Network",
            "fr": "R\u00e9seau des jeunes professionnels"
        }
    }
}