{
    "dcr_id": "1528400358634",
    "lang": "en",
    "title": {
        "en": "Scheduled Maintenance of ISB Services (Erwin) - June 18-19",
        "fr": "Entretien pr\u00e9vu des services de la DGSI (Erwin) - Du 18 au 19 juin"
    },
    "modified": "2018-06-20 00:00:00.0",
    "issued": "2018-06-13 00:00:00.0",
    "type_name": "intra-intra/news-nouv",
    "node_id": "1279030006975",
    "layout_name": null,
    "dc_date_created": "2018-06-08",
    "breadcrumb_label": "",
    "meta": {
        "issued": {
            "en": "2018-06-13",
            "fr": "2018-06-13"
        },
        "modified": {
            "en": "2018-06-20",
            "fr": "2018-06-13"
        },
        "format": {
            "en": "gcformat",
            "fr": "gcformat"
        },
        "title": {
            "en": "Scheduled Maintenance of ISB Services (Erwin) - June 18-19",
            "fr": "Entretien pr\u00e9vu des services de la DGSI (Erwin) - Du 18 au 19 juin"
        },
        "subject": {
            "en": "communications",
            "fr": "communications"
        },
        "description": {
            "en": "Please be advised that preventative maintenance of ISB services will be performed from Monday, June 18 to Tuesday, June 19, 2018.",
            "fr": "Veuillez noter qu'un entretien pr\u00e9ventif des services de la DGSI aura lieu du lundi 18 juin au mardi 19 juin 2018."
        },
        "language": {
            "en": "eng",
            "fr": "fra"
        },
        "audience": {
            "en": "gcaudience",
            "fr": "gcaudience"
        },
        "creator": {
            "en": "Agriculture and Agri-Food Canada",
            "fr": "Agriculture et Agroalimentaire Canada"
        },
        "spatial": {
            "en": "gcregions",
            "fr": "gcregions"
        },
        "service": {
            "en": "AAFC_AgriSource",
            "fr": "AAC_AgriSource"
        },
        "accessRights": {
            "en": "3",
            "fr": "3"
        }
    },
    "body": {
        "en": "<br>\n<br>\n<p>Please be advised that preventative maintenance of ISB services will be performed from Monday, June 18 to Tuesday, June 19, 2018.</p>\n<p>This downtime was planned as part of an infrastructure management plan. By upgrading the system, we are improving performance and making sure that we don\u2019t experience major unplanned outages that affect employees.</p>\n<p>Consequently, the following service will not be available:</p>\n<p><strong>Monday, June 18 \u2013 7:30 a.m. until Tuesday, June 19, 2018 \u2013 1:00 p.m. (ET)</strong></p>\n<ul>\n<li>Erwin</li>\n</ul>\n<p>Should you have any questions or concerns, please do not hesitate to contact IT Centre TI.</p>\n<p>\u00a0</p>\n<p><strong>IT Centre TI<br>\n</strong>Telephone: 1-855-545-4411<br>\n<a href=\"http://assystweb:8080/assystnet\">My IT Centre TI</a></p>\n<p><img src=\"https://intranet.agr.gc.ca/resources/prod/news/images/ITCentreTI2.png\" class=\"center-block\"></p>\n\n\t\t",
        "fr": "<br>\n<br>\n<p>Veuillez noter qu\u2019un entretien pr\u00e9ventif des services de la DGSI aura lieu du lundi 18 juin au mardi 19 juin 2018.</p>\n<p>Cette interruption est pr\u00e9vue dans un plan de gestion de l\u2019infrastructure. En mettant le syst\u00e8me \u00e0 niveau, nous am\u00e9liorons son rendement et pr\u00e9venons des pannes majeures qui entravent le travail des employ\u00e9s.</p>\n<p>Par cons\u00e9quent, le service ci-dessous ne sera pas accessible :</p>\n<p><strong>Du lundi 18 juin, 7 h 30, au mardi 19 juin 2018, 13 h (HE)</strong></p>\n<ul>\n<li>Erwin</li>\n</ul>\n<p>Si vous avez des questions ou des pr\u00e9occupations \u00e0 ce sujet, n\u2019h\u00e9sitez pas \u00e0 communiquer avec le IT Centre TI.</p>\n<p>\u00a0</p>\n<p><strong>IT Centre TI<br>\n</strong>T\u00e9l\u00e9phone : 1-855-545-4411<br>\n<a href=\"http://assystweb:8080/assystnet\">Mon IT Centre TI</a></p>\n<p><img src=\"https://intranet.agr.gc.ca/resources/prod/news/images/ITCentreTI2.png\" class=\"center-block\"></p>\n\t\t"
    },
    "breadcrumb": {
        "en": "Scheduled Maintenance of ISB Services (Erwin) - June 18-19",
        "fr": "Entretien pr\u00e9vu des services de la DGSI (Erwin) - Du 18 au 19 juin"
    },
    "news": {
        "date_posted": {
            "en": "2018-06-13",
            "fr": "2018-06-13"
        },
        "to": {
            "en": "All staff",
            "fr": "Tous les employ\u00e9s"
        },
        "by": {
            "en": "IT Centre TI",
            "fr": "IT Centre TI"
        }
    }
}