{
    "dcr_id": "1528143247769",
    "lang": "en",
    "title": {
        "en": "NCR - Invitation to Join AAFC's Policy Community of Practice ",
        "fr": "RCN - Invitation \u00e0 rejoindre les rangs de la Communaut\u00e9 de pratique du domaine des politiques d'AAC"
    },
    "modified": "2018-06-07 00:00:00.0",
    "issued": "2018-06-07 00:00:00.0",
    "type_name": "intra-intra/news-nouv",
    "node_id": "1279030006975",
    "layout_name": null,
    "dc_date_created": "2018-06-05",
    "breadcrumb_label": "",
    "meta": {
        "issued": {
            "en": "2018-06-07",
            "fr": "2018-06-07"
        },
        "modified": {
            "en": "2018-06-07",
            "fr": "2018-06-07"
        },
        "format": {
            "en": "gcformat",
            "fr": "gcformat"
        },
        "title": {
            "en": "NCR - Invitation to Join AAFC's Policy Community of Practice ",
            "fr": "RCN - Invitation \u00e0 rejoindre les rangs de la Communaut\u00e9 de pratique du domaine des politiques d'AAC"
        },
        "subject": {
            "en": "communications",
            "fr": "communications"
        },
        "description": {
            "en": "Do you influence, support, or communicate policy at AAFC? The Department's Policy Community of Practice embraces all of these functions. Join the Community and hone your policy-shaping skills, expand your horizons, and interact with other policy enthusiasts.",
            "fr": "Est-ce que vous influencez, appuyez ou communiquez les politiques \u00e0 AAC? La Communaut\u00e9 de pratique du domaine des politiques du Minist\u00e8re touche \u00e0 toutes ces fonctions. Rejoignez les rangs de la Communaut\u00e9 et perfectionnez vos comp\u00e9tences en \u00e9laboration des politiques, \u00e9largissez vos horizons et rencontrez d'autres amateurs de politiques."
        },
        "language": {
            "en": "eng",
            "fr": "fra"
        },
        "audience": {
            "en": "gcaudience",
            "fr": "gcaudience"
        },
        "creator": {
            "en": "Agriculture and Agri-Food Canada",
            "fr": "Agriculture et Agroalimentaire Canada"
        },
        "spatial": {
            "en": "gcregions",
            "fr": "gcregions"
        },
        "service": {
            "en": "AAFC_AgriSource",
            "fr": "AAC_AgriSource"
        },
        "accessRights": {
            "en": "3",
            "fr": "3"
        }
    },
    "body": {
        "en": "<br>\n<br>\n<p>Do you influence, support, or communicate policy at AAFC? The Department\u2019s Policy Community of Practice embraces all of these functions. Join the Community and hone your policy\u2011shaping skills, expand your horizons, and interact with other policy enthusiasts.</p>\n<p>The Policy Community of Practice uses a community-building approach and works with other AAFC communities on events and activities, all towards helping AAFC become more open, innovative, and collaborative in developing policy. The Community also works closely with the government-wide policy community through the Policy Community Partnership Office (<abbr title=\"Policy Community Partnership Office\">PCPO</abbr>).</p>\n<p>To join the Policy Community, contact Bruce Radburn at <a href=\"mailto:bruce.radburn@agr.gc.ca\">bruce.radburn@agr.gc.ca</a> or Preethi Ledchumykanthan at <a href=\"mailto:preethi.ledchumykanthan@canada.ca\">preethi.ledchumykanthan@canada.ca</a>.</p>\n<h2><strong>Learn more</strong></h2>\n<p>Visit us at our National Public Service Week Launch Day booth.</p>\n<p><strong>Date:</strong> Monday, June 11<br><strong>Time:</strong> 12:00 to 1:00 p.m.<br><strong>Location:</strong> Tower 6 cafeteria, NHCAP</p>\n<p>Representatives from <abbr title=\"Policy Community Partnership Office\">PCPO</abbr> will also be present.</p>\n<p>\u00a0</p>\n\n\t\t",
        "fr": "<br>\n<br>\n<p>Est-ce que vous influencez, appuyez ou communiquez les politiques \u00e0 AAC? La Communaut\u00e9 de pratique du domaine des politiques du Minist\u00e8re touche \u00e0 toutes ces fonctions. Rejoignez les rangs de la Communaut\u00e9 et perfectionnez vos comp\u00e9tences en \u00e9laboration des politiques, \u00e9largissez vos horizons et rencontrez d\u2019autres amateurs de politiques. </p>\n<p>La Communaut\u00e9 de pratique du domaine des politiques adopte une approche communautaire et collabore avec d\u2019autres communaut\u00e9s d\u2019AAC pour organiser des \u00e9v\u00e9nements et des activit\u00e9s afin d\u2019aider AAC \u00e0 devenir plus transparent et innovateur et \u00e0 collaborer davantage \u00e0 l\u2019\u00e9laboration de politiques. La Communaut\u00e9 travaille aussi en \u00e9troite collaboration avec la communaut\u00e9 des politiques \u00e0 l\u2019\u00e9chelle du gouvernement par l\u2019entremise du Bureau des partenariats de la communaut\u00e9 des politiques (<abbr title=\"Bureau des partenariats de la communaut\u00e9 des politiques\">BPCP</abbr>). </p>\n<p>Pour rejoindre les rangs de la Communaut\u00e9 des politiques, veuillez envoyer un message \u00e0 Bruce Radburn \u00e0 <a href=\"mailto:bruce.radburn@agr.gc.ca\">bruce.radburn@agr.gc.ca</a> ou \u00e0 Preethi Ledchumykanthan \u00e0 <a href=\"mailto:preethi.ledchumykanthan@canada.ca\">preethi.ledchumykanthan@canada.ca</a>.</p>\n<h2><strong>Pour en savoir plus</strong></h2>\n<p>Venez nous rencontrer \u00e0 notre kiosque lors du lancement de la Semaine nationale de la fonction publique.</p>\n<p><strong>Date :</strong> lundi 11 juin<br><strong>Heure :</strong> de 12 h \u00e0 13 h<br><strong>Endroit :</strong> caf\u00e9t\u00e9ria de la tour 6, CACPA</p>\n<p>Des repr\u00e9sentants du <abbr title=\"Bureau des partenariats de la communaut\u00e9 des politiques\">BPCP</abbr> seront \u00e9galement pr\u00e9sents.</p>\n<p>\u00a0</p>\n\t\t"
    },
    "breadcrumb": {
        "en": "NCR - Invitation to Join AAFC's Policy Community of Practice",
        "fr": "RCN - Invitation \u00e0 rejoindre les rangs de la Communaut\u00e9 de pratique du domaine des politiques d'AAC"
    },
    "news": {
        "date_posted": {
            "en": "2018-06-07",
            "fr": "2018-06-07"
        },
        "to": {
            "en": "NCR only",
            "fr": "RCN seulement"
        },
        "by": {
            "en": "AAFC Policy Community of Practice",
            "fr": "La Communaut\u00e9 de pratique du domaine des politiques"
        }
    }
}