{
    "dcr_id": "1528727232141",
    "lang": "en",
    "title": {
        "en": "National Public Service Week",
        "fr": "Semaine nationale de la fonction publique"
    },
    "modified": "2018-06-14 00:00:00.0",
    "issued": "2018-06-11 00:00:00.0",
    "type_name": "intra-intra/news-nouv",
    "node_id": "1279030006975",
    "layout_name": null,
    "dc_date_created": "2018-06-11",
    "breadcrumb_label": "",
    "meta": {
        "issued": {
            "en": "2018-06-11",
            "fr": "2018-06-11"
        },
        "modified": {
            "en": "2018-06-14",
            "fr": "2018-06-11"
        },
        "format": {
            "en": "gcformat",
            "fr": "gcformat"
        },
        "title": {
            "en": "National Public Service Week",
            "fr": "Semaine nationale de la fonction publique"
        },
        "subject": {
            "en": "communications",
            "fr": "communications"
        },
        "description": {
            "en": "Today marks the start of National Public Service Week. It's a time to celebrate the excellent work you do each day that contributes to building and shaping Canada and its agriculture and agri-food sector.",
            "fr": "La Semaine nationale de la fonction publique d\u00e9bute aujourd'hui. C'est le moment de c\u00e9l\u00e9brer l'excellent travail que vous accomplissez chaque jour pour aider \u00e0 b\u00e2tir le Canada et son secteur agricole et agroalimentaire."
        },
        "language": {
            "en": "eng",
            "fr": "fra"
        },
        "audience": {
            "en": "gcaudience",
            "fr": "gcaudience"
        },
        "creator": {
            "en": "Agriculture and Agri-Food Canada",
            "fr": "Agriculture et Agroalimentaire Canada"
        },
        "spatial": {
            "en": "gcregions",
            "fr": "gcregions"
        },
        "service": {
            "en": "AAFC_AgriSource",
            "fr": "AAC_AgriSource"
        },
        "accessRights": {
            "en": "3",
            "fr": "3"
        }
    },
    "body": {
        "en": "<br>\n<br>\n<p>Today marks the start of National Public Service Week. It's a time to celebrate the excellent work you do each day that contributes to building and shaping Canada and its agriculture and agri-food sector.</p>\n<p>That is why the theme of National Public Service Week - \"Proudly Serving Canadians\" - is so fitting.\u00a0</p>\n<p>This week is about recognizing the value of the contributions of public service employees. I encourage you to take part in the many <a href=\"https://collab.agr.gc.ca/co/npsw-snfp/SitePages/Home.aspx\"><abbr title=\"National Public Service Week\">NPSW</abbr> activities planned in your area</a>, including AAFC's <a href=\"http://intranet.agr.gc.ca/agrisource/eng?id=1527681253450\">Departmental Awards Ceremony</a> on June 12.</p>\n<p>You can learn more about <abbr title=\"National Public Service Week\">NPSW</abbr> by reading the <a href=\"https://www.canada.ca/en/privy-council/news/2018/06/message-from-the-clerk-to-all-public-servants-on-national-public-service-week.html\">Clerk's <abbr title=\"National Public Service Week\">NPSW</abbr> message</a>.</p>\n<p>The <a href=\"https://www.canada.ca/en/treasury-board-secretariat/site/proudly-serving.html\">Proudly Serving Canadians website</a> is also worth a visit. An array of public servants and their work is featured and, like our employees, it highlights the diversity, innovation and commitment of public servants across the country.\u00a0</p>\n<p>Thank you for your hard work and dedication. Enjoy this week's celebrations.\u00a0\u00a0<br>\n<br>\n<br>\n<strong>Chris Forbes</strong><br>\nDeputy Minister</p>\n\n\t\t",
        "fr": "<br>\n<br>\n<p>La Semaine nationale de la fonction publique d\u00e9bute aujourd'hui. C'est le moment de c\u00e9l\u00e9brer l'excellent travail que vous accomplissez chaque jour pour aider \u00e0 b\u00e2tir le Canada et son secteur agricole et agroalimentaire.</p>\n<p>C'est pourquoi le th\u00e8me de la Semaine nationale de la fonction publique - \u00ab Fiers de servir les Canadiennes et les Canadiens \u00bb - est tout \u00e0 fait appropri\u00e9.\u00a0</p>\n<p>Cette semaine vise \u00e0 reconna\u00eetre l'importance de la contribution des employ\u00e9s de la fonction publique. Je vous invite \u00e0 participer aux nombreuses <a href=\"https://collab.agr.gc.ca/co/npsw-snfp/SitePages/Home.aspx\">activit\u00e9s de la <abbr title=\"Semaine nationale de la fonction publique\">SNFP</abbr> pr\u00e9vues dans votre r\u00e9gion</a>, y compris la <a href=\"http://intranet.agr.gc.ca/agrisource/fra?id=1527681253450\">c\u00e9r\u00e9monie de remise des prix du Minist\u00e8re</a> le 12 juin.</p>\n<p>Vous pouvez en apprendre davantage sur la <abbr title=\"Semaine nationale de la fonction publique\">SNFP</abbr> en lisant le <a href=\"https://www.canada.ca/fr/conseil-prive/nouvelles/2018/06/message-du-greffier-concernant-la-semaine-nationale-de-la-fonction-publique-a-lintention-de-tous-les-fonctionnaires.html\">message du greffier sur la <abbr title=\"Semaine nationale de la fonction publique\">SNFP</abbr></a>.</p>\n<p>Je vous recommande \u00e9galement de visiter le site Web <a href=\"https://www.canada.ca/fr/secretariat-conseil-tresor/site/fiers-servir.html\">Fiers de servir les Canadiennes et les Canadiens</a>. Le site met en vedette le travail accompli par divers fonctionnaires et souligne la diversit\u00e9, l'esprit d'innovation et l'engagement des fonctionnaires comme les n\u00f4tres dans toutes les r\u00e9gions du pays.</p>\n<p>Je vous remercie de votre travail acharn\u00e9 et de votre d\u00e9vouement. Je vous invite \u00e0 profiter des c\u00e9l\u00e9brations de la semaine.<br>\n<br>\n<br>\n<strong>Chris Forbes</strong><br>\nSous-ministre</p>\n\t\t"
    },
    "breadcrumb": {
        "en": "National Public Service Week",
        "fr": "Semaine nationale de la fonction publique"
    },
    "news": {
        "date_posted": {
            "en": "2018-06-11",
            "fr": "2018-06-11"
        },
        "to": {
            "en": "All staff",
            "fr": "Tous les employ\u00e9s"
        },
        "by": {
            "en": "Chris Forbes, Deputy Minister",
            "fr": "Chris Forbes, sous-ministre"
        }
    }
}