{
    "dcr_id": "1529418635434",
    "lang": "en",
    "title": {
        "en": "This Week in The Harvest - Honouring Women, Our Knowledge Keepers, for Aboriginal Awareness Week",
        "fr": "Au menu de La Moisson cette semaine - Rendre hommage aux femmes, nos gardiennes du savoir, \u00e0 l'occasion de la Semaine de sensibilisation aux cultures autochtones"
    },
    "modified": "2018-06-21 00:00:00.0",
    "issued": "2018-06-21 00:00:00.0",
    "type_name": "intra-intra/news-nouv",
    "node_id": "1279030006975",
    "layout_name": null,
    "dc_date_created": "2018-06-19",
    "breadcrumb_label": "",
    "meta": {
        "issued": {
            "en": "2018-06-21",
            "fr": "2018-06-21"
        },
        "modified": {
            "en": "2018-06-21",
            "fr": "2018-06-21"
        },
        "format": {
            "en": "gcformat",
            "fr": "gcformat"
        },
        "title": {
            "en": "This Week in The Harvest - Honouring Women, Our Knowledge Keepers, for Aboriginal Awareness Week",
            "fr": "Au menu de La Moisson cette semaine - Rendre hommage aux femmes, nos gardiennes du savoir, \u00e0 l'occasion de la Semaine de sensibilisation aux cultures autochtones"
        },
        "subject": {
            "en": "communications",
            "fr": "communications"
        },
        "description": {
            "en": "In case you missed it, here's what's new in The Harvest this week.",
            "fr": "Au cas o\u00f9 vous l'auriez manqu\u00e9, voici le menu que la section La Moisson vous offre cette semaine."
        },
        "language": {
            "en": "eng",
            "fr": "fra"
        },
        "audience": {
            "en": "gcaudience",
            "fr": "gcaudience"
        },
        "creator": {
            "en": "Agriculture and Agri-Food Canada",
            "fr": "Agriculture et Agroalimentaire Canada"
        },
        "spatial": {
            "en": "gcregions",
            "fr": "gcregions"
        },
        "service": {
            "en": "AAFC_AgriSource",
            "fr": "AAC_AgriSource"
        },
        "accessRights": {
            "en": "3",
            "fr": "3"
        }
    },
    "body": {
        "en": "<br>\n<br>\n<p>In case you missed it, here\u2019s what\u2019s new in <a rel=\"external\" href=\"https://collab.agr.gc.ca/apps/harvest-moisson\">The Harvest</a> this week:</p>\n<p><strong>Feature story: </strong><a rel=\"external\" href=\"https://collab.agr.gc.ca/apps/harvest-moisson\">Honouring Women, Our Knowledge Keepers, for Aboriginal Awareness Week</a> \u2013 AAFC marked Aboriginal Awareness Week (May 22-25, 2018) with a number of events across the country. The national theme was \u201cHonouring Women, Our Knowledge Keepers.\u201d</p>\n<p><strong>Quiz: </strong><a rel=\"external\" href=\"https://collab.agr.gc.ca/apps/harvest-moisson\">What piece of farm equipment helps limit grasshopper population to protect crops?</a></p>\n<p><strong>Feature photo:</strong> <a rel=\"external\" href=\"https://collab.agr.gc.ca/apps/harvest-moisson/gallery/Lists/Posts/Post.aspx?ID=171\">Happy Tulips</a>, by Lynne Thacker, Information Systems Branch, Ottawa, Ontario.</p>\n<p><strong>Did you know?</strong> In the last two years, daily <a rel=\"external\" target=\"_blank\" href=\"https://collab.agr.gc.ca/apps/harvest-moisson/Pages/didyouknow.aspx\">milk production in Quebec</a> has increased by 1 million litres. The increased interest in dairy with a higher fat content \u2014 such as butter and cream \u2014 can be directly linked to two things: studies showing that dairy saturated fat could actually reduce the risk of cardiovascular diseases and the rise of the foodie.</p>\n<p>You can get involved by posting a comment or \u201cliking\u201d an article. You can also check out what your colleagues are liking and saying.</p>\n<p>Should you have story ideas, scenic or artistic agriculture-related photos, or interesting facts, please share them with us by clicking on \u201cContribute\u201d in the top menu bar.</p>\n<p>\n<img src=\"https://intranet.agr.gc.ca/resources/prod/news/images/HarvestBigDrum.png\" class=\"center-block\" alt=\"AAFC employees and the Indigenous Big Drum.\"></p>\n\n\t\t",
        "fr": "<br>\n<br>\n<p>Au cas o\u00f9 vous l\u2019auriez manqu\u00e9, voici le menu que la section <a rel=\"external\" href=\"https://collab.agr.gc.ca/apps/harvest-moisson\">La Moisson</a> vous offre cette semaine :</p>\n<p><strong>Article vedette :</strong> <a rel=\"external\" href=\"https://collab.agr.gc.ca/apps/harvest-moisson\">Rendre hommage aux femmes, nos gardiennes du savoir, \u00e0 l\u2019occasion de la Semaine de sensibilisation aux cultures autochtones</a> \u2013 AAC a c\u00e9l\u00e9br\u00e9 la Semaine de sensibilisation aux cultures autochtones (22 au 25 mai 2018) en organisant divers \u00e9v\u00e9nements \u00e0 l\u2019\u00e9chelle nationale. Le th\u00e8me de cette ann\u00e9e \u00e9tait \u00ab Rendre hommage aux femmes, nos gardiennes du savoir \u00bb.</p>\n<p><strong>Jeux-questionnare</strong><strong> : </strong><a rel=\"external\" href=\"https://collab.agr.gc.ca/apps/harvest-moisson\">Quelle machine agricole aide \u00e0 contr\u00f4ler les populations de sauterelles pour prot\u00e9ger les cultures?</a></p>\n<p><strong>Photo vedette :</strong> <a rel=\"external\" href=\"https://collab.agr.gc.ca/apps/harvest-moisson/gallery/Lists/Posts/Post.aspx?ID=171\">Des tulipes \u00e9panouies</a><em>, </em>par Lynne Thacker, Direction g\u00e9n\u00e9rale des syst\u00e8mes d\u2019information, Ottawa (Ontario).</p>\n<p><strong>Le saviez-vous?</strong> Au cours des deux derni\u00e8res ann\u00e9es, <a rel=\"external\" href=\"https://collab.agr.gc.ca/apps/harvest-moisson/Pages/didyouknow.aspx\">la production laiti\u00e8re quotidienne</a> au Qu\u00e9bec a augment\u00e9 de 1 million de litres. L\u2019int\u00e9r\u00eat accru \u00e0 l\u2019\u00e9gard des produits laitiers avec une teneur plus \u00e9lev\u00e9e en mati\u00e8res grasses \u2013 comme le beurre et la cr\u00e8me \u2013 peut \u00eatre directement attribuable \u00e0 deux choses : des \u00e9tudes d\u00e9montrent que les gras satur\u00e9s dans les produits laitiers pourraient r\u00e9duire les risques de maladies cardio-vasculaires, et l\u2019augmentation du nombre de cuisinomanes.</p>\n<p>Vous pouvez participer en affichant des commentaires ou en utilisant la fonction \u00ab J\u2019aime \u00bb ou \u00ab Partager \u00bb pour exprimer votre appr\u00e9ciation d\u2019un article. Vous pouvez aussi aller voir ce que vos coll\u00e8gues aiment et ont \u00e0 dire.</p>\n<p>Si vous avez des id\u00e9es d\u2019articles, des photos de paysages ou \u00e0 caract\u00e8re artistique li\u00e9es \u00e0 l\u2019agriculture ou encore des faits int\u00e9ressants, veuillez nous en faire part en cliquant sur \u00ab Collaborer \u00bb dans la barre de menu en haut de la page.</p>\n<p>\n<img src=\"https://intranet.agr.gc.ca/resources/prod/news/images/HarvestBigDrum.png\" class=\"center-block\" alt=\"Des employ\u00e9s d'AAC et le grand tambour autochtone.\"></p>\n\t\t"
    },
    "breadcrumb": {
        "en": "This Week in The Harvest - Honouring Women, Our Knowledge Keepers, for Aboriginal Awareness Week",
        "fr": "Au menu de La Moisson cette semaine - Rendre hommage aux femmes, nos gardiennes du savoir, \u00e0..."
    },
    "news": {
        "date_posted": {
            "en": "2018-06-21",
            "fr": "2018-06-21"
        },
        "to": {
            "en": "All staff",
            "fr": "Tous les employ\u00e9s"
        },
        "by": {
            "en": "Corporate Communications, Public Affairs Branch",
            "fr": "Communications minist\u00e9rielles, Direction g\u00e9n\u00e9rale des affaires publiques"
        }
    }
}