{
    "dcr_id": "1530295940910",
    "lang": "en",
    "title": {
        "en": "NCR - Save Valuable Time - Visit the Canadian Agriculture Library - July 11",
        "fr": "RCN - Gagnez du temps en visitant la Biblioth\u00e8que canadienne de l'agriculture - 11 juillet"
    },
    "modified": "2018-07-05 00:00:00.0",
    "issued": "2018-07-05 00:00:00.0",
    "type_name": "intra-intra/news-nouv",
    "node_id": "1279030006975",
    "layout_name": null,
    "dc_date_created": "2018-06-29",
    "breadcrumb_label": "",
    "meta": {
        "issued": {
            "en": "2018-07-05",
            "fr": "2018-07-05"
        },
        "modified": {
            "en": "2018-07-05",
            "fr": "2018-07-05"
        },
        "format": {
            "en": "gcformat",
            "fr": "gcformat"
        },
        "title": {
            "en": "NCR - Save Valuable Time - Visit the Canadian Agriculture Library - July 11",
            "fr": "RCN - Gagnez du temps en visitant la Biblioth\u00e8que canadienne de l'agriculture - 11 juillet"
        },
        "subject": {
            "en": "communications",
            "fr": "communications"
        },
        "description": {
            "en": "Invest one hour at the Canadian Agriculture Library and save hundreds of hours looking for accurate and reliable information.",
            "fr": "Investissez une heure \u00e0 la Biblioth\u00e8que canadienne de l'agriculture et \u00e9vitez de perdre des centaines d'heures \u00e0 chercher de l'information exacte et pertinente."
        },
        "language": {
            "en": "eng",
            "fr": "fra"
        },
        "audience": {
            "en": "gcaudience",
            "fr": "gcaudience"
        },
        "creator": {
            "en": "Agriculture and Agri-Food Canada",
            "fr": "Agriculture et Agroalimentaire Canada"
        },
        "spatial": {
            "en": "gcregions",
            "fr": "gcregions"
        },
        "service": {
            "en": "AAFC_AgriSource",
            "fr": "AAC_AgriSource"
        },
        "accessRights": {
            "en": "3",
            "fr": "3"
        }
    },
    "body": {
        "en": "<br>\n<br>\n<p>Invest one hour at the Canadian Agriculture Library (<abbr title=\"Canadian Agriculture Library\">CAL</abbr>) and save hundreds of hours looking for accurate and reliable information.</p>\n<p>AAFC and CFIA employees are invited to join us in a tour to learn about our virtual and in-person services, see a demo of the <a href=\"http://fsl-bsf.scitech.gc.ca/eng/intranet/home/\">Federal Science Library Portal</a> and the <a href=\"https://collab.agr.gc.ca/co/kis-sis/SitePages/Home.aspx\"><abbr title=\"Canadian Agriculture Library\">CAL</abbr> Client Support Site</a>, visit the premises and get a glimpse of the rare book collection.</p>\n<p>Did you know that the oldest English language book in the collection dates back to <strong>1631</strong> and the oldest French language book was published in <strong>1833</strong>?\n</p>\n<h2><strong>Guided tour information</strong></h2>\n<p><strong>Date: </strong>July 11<br>\n<strong>Time: </strong>10:00 to 11:00 a.m. (ET)<br>\n<strong>Location: </strong>The tour will begin at the Knowledge Centre located in T6-1-318 (across from the fish pond).<br><strong>RSVP:</strong> Please <a href=\"mailto:cal-bca-ref@agr.gc.ca?subject=Tour%20-%20July%2011%20juillet%202018\">email the Library</a> to confirm your attendance</p>\n<p>If this time does not suit you or if you would like to arrange a group tour for your team, please contact <a href=\"mailto:cal-bca-ref@agr.gc.ca\"><abbr title=\"Canadian Agriculture Library\">CAL</abbr></a> to schedule a tour tailored to your particular needs.</p>\n<p><img src=\"https://intranet.agr.gc.ca/resources/prod/news/images/CALbanner-EN.png\" class=\"center-block\"></p>\n\n\t\t",
        "fr": "<br>\n<br>\n<p>Investissez une heure \u00e0 la Biblioth\u00e8que canadienne de l\u2019agriculture (<abbr title=\"Biblioth\u00e8que canadienne de l\u2019agriculture\">BCA</abbr>) et \u00e9vitez de perdre des centaines d\u2019heures \u00e0 chercher de l\u2019information exacte et pertinente.</p>\n<p>Les employ\u00e9s d\u2019AAC et de l\u2019ACIA sont invit\u00e9s \u00e0 participer \u00e0 une visite guid\u00e9e pour d\u00e9couvrir nos services offerts virtuellement et en personne. Vous pourrez assister \u00e0 une d\u00e9monstration du <a href=\"http://fsl-bsf.scitech.gc.ca/fra/intranet/accueil/\">portail de la Biblioth\u00e8que scientifique f\u00e9d\u00e9rale</a> et du <a href=\"https://collab.agr.gc.ca/co/kis-sis/SitePages/Home.aspx\">site de soutien \u00e0 la client\u00e8le</a> ainsi que jeter un coup d\u2019\u0153il \u00e0 la collection de livres rares.</p>\n<p>Saviez-vous que le plus vieux livre en anglais de la collection date de <strong>1631</strong> et que le plus vieux livre en fran\u00e7ais a \u00e9t\u00e9 publi\u00e9 en <strong>1833?</strong></p>\n<h2>\n<strong>Information sur la visite guid\u00e9e </strong></h2>\n<p><strong>Date : </strong>11 juillet <br>\n<strong>Heure : </strong>10 h \u00e0 11 h (HE)<br>\n<strong>Lieu : </strong>La visite commencera au Centre du savoir dans le local T6-1-318 (en face de l\u2019\u00e9tang \u00e0 poissons).<br><strong>R\u00e9servation :</strong> Veuillez envoyer un <a href=\"mailto:cal-bca-ref@agr.gc.ca?subject=Tour%20-%20July%2011%20juillet%202018\">courriel \u00e0 la biblioth\u00e8que</a> pour confirmer votre pr\u00e9sence</p>\n<p>Si cette date ne vous convient pas ou si vous souhaitez organiser une visite de groupe adapt\u00e9e aux besoins de votre \u00e9quipe, veuillez communiquer avec la <a href=\"mailto:cal-bca-ref@agr.gc.ca\"><abbr title=\"Biblioth\u00e8que canadienne de l\u2019agriculture\">BCA</abbr></a>.</p>\n<p>\n<img src=\"https://intranet.agr.gc.ca/resources/prod/news/images/CALbanniere-FR.png\" class=\"center-block\"></p>\n\t\t"
    },
    "breadcrumb": {
        "en": "NCR - Save Valuable Time - Visit the Canadian Agriculture Library - July 11",
        "fr": "RCN - Gagnez du temps en visitant la Biblioth\u00e8que canadienne de l'agriculture - 11 juillet"
    },
    "news": {
        "date_posted": {
            "en": "2018-07-05",
            "fr": "2018-07-05"
        },
        "to": {
            "en": "NCR only",
            "fr": "RCN seulement"
        },
        "by": {
            "en": "Canadian Agriculture Library",
            "fr": "Biblioth\u00e8que canadienne de l'agriculture"
        }
    }
}