{
    "dcr_id": "1530907490994",
    "lang": "en",
    "title": {
        "en": "New Microsoft Word Add-Ins Scenario Note Macro",
        "fr": "Nouvelle macro pour les notes de sc\u00e9nario dans le module Compl\u00e9ments de Microsoft Word"
    },
    "modified": "2018-07-12 00:00:00.0",
    "issued": "2018-07-12 00:00:00.0",
    "type_name": "intra-intra/news-nouv",
    "node_id": "1279030006975",
    "layout_name": null,
    "dc_date_created": "2018-07-09",
    "breadcrumb_label": "",
    "meta": {
        "issued": {
            "en": "2018-07-12",
            "fr": "2018-07-12"
        },
        "modified": {
            "en": "2018-07-12",
            "fr": "2018-07-12"
        },
        "format": {
            "en": "gcformat",
            "fr": "gcformat"
        },
        "title": {
            "en": "New Microsoft Word Add-Ins Scenario Note Macro",
            "fr": "Nouvelle macro pour les notes de sc\u00e9nario dans le module Compl\u00e9ments de Microsoft Word"
        },
        "subject": {
            "en": "communications",
            "fr": "communications"
        },
        "description": {
            "en": "A new Microsoft Word Add-Ins macro for scenario notes will be available on July 18, 2018.",
            "fr": "Une nouvelle macro pour les notes de sc\u00e9nario sera disponible le 18 juillet prochain dans le module Compl\u00e9ments de Microsoft Word."
        },
        "language": {
            "en": "eng",
            "fr": "fra"
        },
        "audience": {
            "en": "gcaudience",
            "fr": "gcaudience"
        },
        "creator": {
            "en": "Agriculture and Agri-Food Canada",
            "fr": "Agriculture et Agroalimentaire Canada"
        },
        "spatial": {
            "en": "gcregions",
            "fr": "gcregions"
        },
        "service": {
            "en": "AAFC_AgriSource",
            "fr": "AAC_AgriSource"
        },
        "accessRights": {
            "en": "3",
            "fr": "3"
        }
    },
    "body": {
        "en": "<br>\n<br>\n<p>A\u00a0new Microsoft Word Add-Ins macro for scenario notes will be available on July 18, 2018. The macro should always be used when drafting scenario notes for the Deputy Minister or Minister.</p>\n<p>To access the macro, click on \u201cAdd-Ins\u201d on your Word top menu bar, choose \u201cAGR\u201d, and select \u201cScenario Note\u201d.</p>\n<p><img src=\"https://intranet.agr.gc.ca/resources/prod/news/images/WordAdd-in-EN.png\" class=\"center-block\">\u00a0</p>\n<p>Additional tools to help you prepare briefing materials and executive correspondence are available on the <a href=\"https://collab.agr.gc.ca/co/mcu-scm/Documents/Forms/Main.aspx?RootFolder=%2Fco%2Fmcu%2Dscm%2FDocuments%2FAAFC%20Tool%20Box%20for%20Effective%20Writing&amp;FolderCTID=0x012000B31EA3C4461AFB46826326601C04FF22&amp;View=%7BBABD6E09%2DE561%2D4C23%2DA7A2%2D11C63FEC9536%7D\">AAFC Tool Box for Effective Writing Knowledge Workspace page</a>.</p>\n<p>If you have any questions, please contact Susan Steele, Deputy Director, Ministerial Correspondence and Briefings Division, Deputy Minister\u2019s Office, at <a href=\"mailto:susan.steele@canada.ca\">susan.steele@canada.ca</a> or 613-773-1165.</p>\n<p>\u00a0</p>\n\n\t\t",
        "fr": "<br>\n<br>\n<p>Une nouvelle macro pour les notes de sc\u00e9nario sera disponible le 18 juillet prochain dans le module Compl\u00e9ments de Microsoft Word. La macro devrait toujours \u00eatre utilis\u00e9e lors de la r\u00e9daction de notes de sc\u00e9nario pour le sous-ministre ou le ministre.</p>\n<p>Pour acc\u00e9der \u00e0 la macro, cliquez sur \u00ab Compl\u00e9ments \u00bb dans la barre de menu sup\u00e9rieure de Word, s\u00e9lectionnez \u00ab AGR \u00bb et choisissez <br>\u00ab Sc\u00e9nario \u00bb.</p>\n<p><img src=\"https://intranet.agr.gc.ca/resources/prod/news/images/WordAdd-in-FR.png\" class=\"center-block\"></p>\n<p>Des outils suppl\u00e9mentaires pour vous aider \u00e0 pr\u00e9parer les documents de breffage et la correspondance minist\u00e9rielle sont disponibles sur la <a href=\"https://collab.agr.gc.ca/co/mcu-scm/Documents/Forms/Main.aspx?RootFolder=%2Fco%2Fmcu%2Dscm%2FDocuments%2FAAFC%20Tool%20Box%20for%20Effective%20Writing&amp;FolderCTID=0x012000B31EA3C4461AFB46826326601C04FF22&amp;View=%7BBABD6E09%2DE561%2D4C23%2DA7A2%2D11C63FEC9536%7D\">page Bo\u00eete \u00e0 outils d\u2019AAC pour la r\u00e9daction efficace\u00a0dans l\u2019Espace de travail du savoir</a>.</p>\n<p>Si vous avez des questions, veuillez communiquer avec Susan Steele, directrice adjointe, Division de la correspondance minist\u00e9rielle et des breffages, Bureau du sous-ministre,\u00a0par courriel au\u00a0<a href=\"mailto:susan.steele@canada.ca\">susan.steele@canada.ca</a> ou par t\u00e9l\u00e9phone\u00a0au 613-773-1165.</p>\n\t\t"
    },
    "breadcrumb": {
        "en": "New Microsoft Word Add-Ins Scenario Note Macro",
        "fr": "Nouvelle macro pour les notes de sc\u00e9nario dans le module Compl\u00e9ments de Microsoft Word"
    },
    "news": {
        "date_posted": {
            "en": "2018-07-12",
            "fr": "2018-07-12"
        },
        "to": {
            "en": "All staff",
            "fr": "Tous les employ\u00e9s"
        },
        "by": {
            "en": "Ministerial Correspondence and Briefings Division, Deputy Minister's Office",
            "fr": "Division de la correspondance minist\u00e9rielle et des breffages, Bureau du sous-ministre"
        }
    }
}