{
    "dcr_id": "1530647156811",
    "lang": "en",
    "title": {
        "en": "Introducing the Tick Hazard Awareness Guideline",
        "fr": "Nouvelle Ligne directrice sur les risques li\u00e9s aux tiques"
    },
    "modified": "2018-07-05 00:00:00.0",
    "issued": "2018-07-05 00:00:00.0",
    "type_name": "intra-intra/news-nouv",
    "node_id": "1279030006975",
    "layout_name": null,
    "dc_date_created": "2018-07-03",
    "breadcrumb_label": "",
    "meta": {
        "issued": {
            "en": "2018-07-05",
            "fr": "2018-07-05"
        },
        "modified": {
            "en": "2018-07-05",
            "fr": "2018-07-05"
        },
        "format": {
            "en": "gcformat",
            "fr": "gcformat"
        },
        "title": {
            "en": "Introducing the Tick Hazard Awareness Guideline",
            "fr": "Nouvelle Ligne directrice sur les risques li\u00e9s aux tiques"
        },
        "subject": {
            "en": "communications",
            "fr": "communications"
        },
        "description": {
            "en": "AAFC's National Occupational Health and Safety Policy Committee has developed a tick hazard awareness guideline to help educate employees about ticks and prevent tick-borne illnesses.",
            "fr": "Le Comit\u00e9 national d'orientation en mati\u00e8re de sant\u00e9 et de s\u00e9curit\u00e9 au travail d'AAC a pr\u00e9par\u00e9 une ligne directrice sur les risques li\u00e9s aux tiques pour \u00e9duquer les employ\u00e9s sur ces arachnides et pr\u00e9venir les maladies qu'ils transmettent."
        },
        "language": {
            "en": "eng",
            "fr": "fra"
        },
        "audience": {
            "en": "gcaudience",
            "fr": "gcaudience"
        },
        "creator": {
            "en": "Agriculture and Agri-Food Canada",
            "fr": "Agriculture et Agroalimentaire Canada"
        },
        "spatial": {
            "en": "gcregions",
            "fr": "gcregions"
        },
        "service": {
            "en": "AAFC_AgriSource",
            "fr": "AAC_AgriSource"
        },
        "accessRights": {
            "en": "3",
            "fr": "3"
        }
    },
    "body": {
        "en": "<br>\n<br>\n<p>A growing number of people are exposed to ticks and tick-borne illnesses. Employees who are required to work in tick affected regions are urged to take appropriate precautions by protecting themselves and covering up. The risk for exposure is greater during spring, early summer and during moist conditions.</p>\n<p>\nAAFC\u2019s National Occupational Health and Safety Policy Committee has developed a tick hazard awareness guideline to help educate employees about ticks and prevent tick-borne illnesses.</p>\n<p>\nThe <a href=\"https://collab.agr.gc.ca/gv/ohsct-ensst/Documents/Hazard%20Prevention%20Program%20for%20Visitors%20(linked%20to%20webpage)/Health%20of%20employees/Lyme%20and%20Ticks%202017/Ticks_Hazard%20_Awareness_Guideline_EN.DOCX\">Tick Hazard Awareness Guideline</a> provides information about:</p>\n<ul>\n<li>tick-borne illnesses;</li>\n<li>your role and responsibilities as an employee, manager or supervisor;</li>\n<li>best practices for preventing tick bites;</li>\n<li>what to do if you are bitten by a tick; and</li>\n<li>how to properly remove a tick.</li>\n</ul>\n<hr>\n<p>\nLearn more about <a href=\"http://intranet.agr.gc.ca/ohs\">Occupational Health and Safety</a> at Agriculture and Agri-Food Canada.</p>\n<p>\nRemember, we are <strong>all</strong> responsible for the prevention of occupational injuries and illness; health and safety is <strong>a Commitment for Life!</strong></p>\n<p>\n<strong>\u00a0<img src=\"https://intranet.agr.gc.ca/resources/prod/news/images/OHSLogoEN.png\" class=\"center-block\">\u00a0</strong></p>\n\n\t\t",
        "fr": "<br>\n<br>\n<p>Un nombre croissant de personnes sont expos\u00e9es aux tiques et aux maladies transmises par les tiques. Nous prions les employ\u00e9s qui doivent travailler dans des r\u00e9gions o\u00f9 les tiques sont pr\u00e9sentes\u00a0de prendre les pr\u00e9cautions appropri\u00e9es en se prot\u00e9geant et en se couvrant. Le risque d\u2019\u00eatre expos\u00e9 est plus \u00e9lev\u00e9 au printemps, au d\u00e9but de l\u2019\u00e9t\u00e9 et en p\u00e9riodes d\u2019humidit\u00e9.</p>\n<p>\nLe Comit\u00e9 national d\u2019orientation en mati\u00e8re de sant\u00e9 et de s\u00e9curit\u00e9 au travail d\u2019AAC a pr\u00e9par\u00e9 une ligne directrice sur les risques li\u00e9s aux tiques pour \u00e9duquer les employ\u00e9s sur ces arachnides et pr\u00e9venir les maladies qu\u2019ils transmettent.</p>\n<p>\nLa <a href=\"https://collab.agr.gc.ca/gv/ohsct-ensst/Documents/Hazard%20Prevention%20Program%20for%20Visitors%20(linked%20to%20webpage)/Health%20of%20employees/Lyme%20and%20Ticks%202017/Tick_Hazard_Awareness_Guideline_FR.docx\">Ligne directrice sur les risques li\u00e9s aux tiques</a> donne des renseignements sur :</p>\n<ul>\n<li>les maladies transmises par les tiques;</li>\n<li>les r\u00f4les et les responsabilit\u00e9s des employ\u00e9s, des gestionnaires et des superviseurs;</li>\n<li>les pratiques exemplaires pour pr\u00e9venir les morsures de tiques;</li>\n<li>que faire si vous \u00eates mordu par une tique;</li>\n<li>comment bien retirer une tique.</li>\n</ul>\n<hr>\n<p>\nRenseignez-vous sur la <a href=\"http://intranet.agr.gc.ca/agrisource/fra/ressources-humaines/sante-et-securite-au-travail?id=1321562720661\">sant\u00e9 et la s\u00e9curit\u00e9 au travail</a> \u00e0 Agriculture et Agroalimentaire Canada.</p>\n<p>\nN\u2019oubliez pas : nous sommes <strong>tous</strong> responsables de la pr\u00e9vention des maladies et des blessures professionnelles. La sant\u00e9 et la s\u00e9curit\u00e9, c\u2019est un <strong>engagement \u00e0 vie!</strong><strong> </strong></p>\n<p>\n<img src=\"https://intranet.agr.gc.ca/resources/prod/news/images/OHSLogoFR.png\" class=\"center-block\"></p>\n\t\t"
    },
    "breadcrumb": {
        "en": "Introducing the Tick Hazard Awareness Guideline",
        "fr": "Nouvelle Ligne directrice sur les risques li\u00e9s aux tiques"
    },
    "news": {
        "date_posted": {
            "en": "2018-07-05",
            "fr": "2018-07-05"
        },
        "to": {
            "en": "All staff",
            "fr": "Tous les employ\u00e9s"
        },
        "by": {
            "en": "AAFC's National Occupational Health and Safety Policy Committee",
            "fr": "Comit\u00e9 national d'orientation en mati\u00e8re de sant\u00e9 et de s\u00e9curit\u00e9 au travail d'AAC"
        }
    }
}