{
    "dcr_id": "1531838097591",
    "lang": "en",
    "title": {
        "en": "Help AAFC Reduce its Environmental Footprint ",
        "fr": "Aider AAC \u00e0 r\u00e9duire son empreinte \u00e9cologique "
    },
    "modified": "2018-07-19 00:00:00.0",
    "issued": "2018-07-19 00:00:00.0",
    "type_name": "intra-intra/news-nouv",
    "node_id": "1279030006975",
    "layout_name": null,
    "dc_date_created": "2018-07-17",
    "breadcrumb_label": "",
    "meta": {
        "issued": {
            "en": "2018-07-19",
            "fr": "2018-07-19"
        },
        "modified": {
            "en": "2018-07-19",
            "fr": "2018-07-19"
        },
        "format": {
            "en": "gcformat",
            "fr": "gcformat"
        },
        "title": {
            "en": "Help AAFC Reduce its Environmental Footprint ",
            "fr": "Aider AAC \u00e0 r\u00e9duire son empreinte \u00e9cologique "
        },
        "subject": {
            "en": "communications",
            "fr": "communications"
        },
        "description": {
            "en": "AAFC is committed to greening its operations. Visit AAFC's Greening Government page to learn how the Department is working towards reducing its environmental footprint.",
            "fr": "AAC s'est engag\u00e9 \u00e0 \u00e9cologiser ses op\u00e9rations. Veuillez consulter la page \u00c9cologisation du gouvernement d'AAC pour savoir comment le Minist\u00e8re s'y prend pour r\u00e9duire son empreinte \u00e9cologique."
        },
        "language": {
            "en": "eng",
            "fr": "fra"
        },
        "audience": {
            "en": "gcaudience",
            "fr": "gcaudience"
        },
        "creator": {
            "en": "Agriculture and Agri-Food Canada",
            "fr": "Agriculture et Agroalimentaire Canada"
        },
        "spatial": {
            "en": "gcregions",
            "fr": "gcregions"
        },
        "service": {
            "en": "AAFC_AgriSource",
            "fr": "AAC_AgriSource"
        },
        "accessRights": {
            "en": "3",
            "fr": "3"
        }
    },
    "body": {
        "en": "<br>\n<br>\n<p>AAFC is committed to greening its operations. Guided by the Government Greening Strategy, AAFC\u2019s efforts concentrate on these key areas:</p>\n<ul>\n<li>greenhouse gas (<abbr title=\"greenhouse gas\">GHG</abbr>) reduction</li>\n<li>low-carbon, energy efficient real property</li>\n<li>green procurement</li>\n</ul>\n<p>Here are some examples of how the Department is fulfilling its commitments:</p>\n<ul>\n<li>expanding the number of electric vehicle charging stations and electric vehicles in AAFC\u2019s fleet</li>\n<li>purchasing green electricity</li>\n<li>disposing of waste in an eco-friendly manner and participating in recycling programs</li>\n<li>purchasing printer paper that contains a minimum of 30% recycled content</li>\n</ul>\n<h2><strong>6 tips for employees</strong></h2>\n<p>Here are 6 ways you can help AAFC reduce its environmental footprint:</p>\n<ul>\n<li>use videoconferencing to participate in offsite meetings</li>\n<li>print only necessary meeting documents double-sided in a paper-conserving layout</li>\n<li>turn off boardroom lights after meetings</li>\n<li>turn off computers, monitors, and other electrical devices when you leave at the end of the day</li>\n<li>use recycling programs available at your facility. For example, you can recycle batteries up to 5kg through the Call2Recycle collection boxes</li>\n<li>close the blinds before leaving on hot days</li>\n</ul>\n<h2><strong>Learn more</strong></h2>\n<p>Visit AAFC\u2019s <a href=\"http://intranet.agr.gc.ca/agrisource/eng/our-department/departmental-overview/greening-government-operations?id=1329914325255\">Greening Government page</a> to learn how the Department is working towards reducing its environmental footprint.</p>\n<p><img src=\"https://intranet.agr.gc.ca/resources/prod/news/images/GreeningGovWebpages.png\" class=\"center-block\"></p>\n\n\t\t",
        "fr": "<br>\n<br>\n<p>AAC s\u2019est engag\u00e9 \u00e0 \u00e9cologiser ses op\u00e9rations. Inspir\u00e9 par la Strat\u00e9gie pour un gouvernement vert, AAC concentre ses efforts dans les principaux domaines suivants :</p>\n<ul>\n<li>r\u00e9duction des \u00e9missions de gaz \u00e0 effet de serre\u00a0(<abbr title=\"gaz \u00e0 effet de serre\">GES</abbr>)</li>\n<li>biens immobiliers \u00e9conerg\u00e9tiques \u00e0 faibles \u00e9missions de carbone</li>\n<li>achats \u00e9cologiques</li>\n</ul>\n<p>Voici des exemples de la fa\u00e7on dont le Minist\u00e8re remplit ses engagements :</p>\n<ul>\n<li>expansion du num\u00e9ro des bornes de recharge pour v\u00e9hicules \u00e9lectriques et des v\u00e9hicules \u00e9lectriques dans le parc automobile d\u2019AAC</li>\n<li>achat d\u2019\u00e9lectricit\u00e9 verte</li>\n<li>\u00e9limination des d\u00e9chets d\u2019une mani\u00e8re respectueuse de l\u2019environnement et participation \u00e0 des programmes de recyclage</li>\n<li>achat de papier contenant un minimum de 30 % de mati\u00e8res recycl\u00e9es</li>\n</ul>\n<h2><strong>Six\u00a0conseils pour les employ\u00e9s</strong></h2>\n<p>Voici\u00a0six fa\u00e7ons d\u2019aider AAC \u00e0 r\u00e9duire son empreinte \u00e9cologique :</p>\n<ul>\n<li>avoir recours \u00e0 la vid\u00e9oconf\u00e9rence pour participer aux r\u00e9unions \u00e0 l\u2019ext\u00e9rieur du lieu de travail</li>\n<li>n\u2019imprimer que les documents de r\u00e9union n\u00e9cessaires en mode recto verso\u00a0avec une mise en page favorisant la conservation du papier</li>\n<li>\u00e9teindre les lumi\u00e8res de la salle de conf\u00e9rence apr\u00e8s la r\u00e9union</li>\n<li>\u00e9teindre les ordinateurs, les \u00e9crans et les autres appareils \u00e9lectriques \u00e0 la fin de la journ\u00e9e</li>\n<li>utiliser les programmes de recyclage offerts au travail. Par exemple, il est possible de recycler les piles d\u2019au plus 5 kg dans les bo\u00eetes de collecte du programme Appel \u00e0 recycler</li>\n<li>fermer les stores avant de partir les jours de canicule</li>\n</ul>\n<h2><strong>En savoir plus</strong></h2>\n<p>Veuillez consulter la <a href=\"http://intranet.agr.gc.ca/agrisource/fra/notre-ministere/vue-densemble-du-ministere/ecologisation-des-operations-gouvernementales?id=1329914325255\">page \u00c9cologisation du gouvernement</a> d\u2019AAC pour savoir comment le Minist\u00e8re s\u2019y prend pour r\u00e9duire son empreinte \u00e9cologique.</p>\n<p><img src=\"https://intranet.agr.gc.ca/resources/prod/news/images/GreeningGovWebpages.png\" class=\"center-block\"></p>\n\t\t"
    },
    "breadcrumb": {
        "en": "Help AAFC Reduce its Environmental Footprint",
        "fr": "Aider AAC \u00e0 r\u00e9duire son empreinte \u00e9cologique"
    },
    "news": {
        "date_posted": {
            "en": "2018-07-19",
            "fr": "2018-07-19"
        },
        "to": {
            "en": "All staff",
            "fr": "Tous les employ\u00e9s"
        },
        "by": {
            "en": "Corporate Management Branch",
            "fr": "Direction g\u00e9n\u00e9rale de la gestion int\u00e9gr\u00e9e"
        }
    }
}