{
    "dcr_id": "1532000261147",
    "lang": "en",
    "title": {
        "en": "What to Do in the Event of an Armed Intruder",
        "fr": "Que faire en cas d'intrusion arm\u00e9e"
    },
    "modified": "2018-07-19 00:00:00.0",
    "issued": "2018-07-19 00:00:00.0",
    "type_name": "intra-intra/news-nouv",
    "node_id": "1279030006975",
    "layout_name": null,
    "dc_date_created": "2018-07-19",
    "breadcrumb_label": "",
    "meta": {
        "issued": {
            "en": "2018-07-19",
            "fr": "2018-07-19"
        },
        "modified": {
            "en": "2018-07-19",
            "fr": "2018-07-19"
        },
        "format": {
            "en": "gcformat",
            "fr": "gcformat"
        },
        "title": {
            "en": "What to Do in the Event of an Armed Intruder",
            "fr": "Que faire en cas d'intrusion arm\u00e9e"
        },
        "subject": {
            "en": "communications",
            "fr": "communications"
        },
        "description": {
            "en": "While the likelihood of facing an armed intruder in the workplace is remote, it's important to make sure that you are prepared.",
            "fr": "Bien que la probabilit\u00e9 d'\u00eatre confront\u00e9 \u00e0 un intrus arm\u00e9 sur le lieu de travail soit faible, vous devez vous assurer d'\u00eatre pr\u00eat."
        },
        "language": {
            "en": "eng",
            "fr": "fra"
        },
        "audience": {
            "en": "gcaudience",
            "fr": "gcaudience"
        },
        "creator": {
            "en": "Agriculture and Agri-Food Canada",
            "fr": "Agriculture et Agroalimentaire Canada"
        },
        "spatial": {
            "en": "gcregions",
            "fr": "gcregions"
        },
        "service": {
            "en": "AAFC_AgriSource",
            "fr": "AAC_AgriSource"
        },
        "accessRights": {
            "en": "3",
            "fr": "3"
        }
    },
    "body": {
        "en": "<br>\n<br>\n<p>While the likelihood of facing an armed intruder in the workplace is remote, it\u2019s important to make sure that you are prepared. To increase awareness and provide guidance on what to do in the event of an armed intruder situation, Government of Canada security officials have developed instructions for employees.</p>\n<p>If faced with an armed intruder incident, here are 3 things you can do that can help you to stay safe:</p>\n<h2><strong>Run</strong></h2>\n<ul>\n<li>If you hear shooting or screaming, your first option is to run</li>\n<li>Don\u2019t take things with you \u2013 just get out</li>\n<li>Tell others about the threat on your way out</li>\n<li>Leave, even if others don\u2019t follow</li>\n<li>Call 911 when safe to do so</li>\n</ul>\n<h2><strong>Hide</strong></h2>\n<ul>\n<li>If you can\u2019t run, look for a place to hide that conceals you and protects you from gunfire.</li>\n<li>Be quiet and still to avoid detection</li>\n<li>Lock or barricade doors, close blinds, turn off lights and silence phones</li>\n<li>Do not let anyone into your secured area</li>\n<li>Call 911 when safe to do so and wait for police</li>\n</ul>\n<h2><strong>Defend</strong></h2>\n<ul>\n<li>As a last resort and only if your life is in imminent danger, defend yourself physically</li>\n<li>Be silent</li>\n<li>Be aggressive and forceful</li>\n<li>Use whatever you can find as weapons to stop the armed intruder</li>\n</ul>\n<p>When your safety is at stake, what you do can make a difference.</p>\n<h2><strong>Learn more</strong></h2>\n<p>Visit the <a rel=\"external\" href=\"https://collab.agr.gc.ca/co/dss-ssm/SitePages/Home.aspx\">Departmental Security Services Knowledge Workspace page</a> to view Armed Intruder \u2013 Do You Know What To Do? (video). Please be advised that this video production is dramatic and realistic. Some viewers may find it disturbing. Viewer discretion is advised.</p>\n<p>\u00a0</p>\n<p><img src=\"https://intranet.agr.gc.ca/resources/prod/news/images/ArmedIntruder1-EN.png\" class=\"center-block\" alt=\"Run. Hide. Defend.\"></p>\n\n\t\t",
        "fr": "<br>\n<br>\n<p>\nBien que la probabilit\u00e9 d\u2019\u00eatre confront\u00e9 \u00e0 un intrus arm\u00e9 sur le lieu de travail soit faible, vous devez vous assurer d\u2019\u00eatre pr\u00eat. Pour accro\u00eetre la sensibilisation et fournir une orientation sur ce qu\u2019il faut faire dans une situation d\u2019intrusion arm\u00e9e, les agents de s\u00e9curit\u00e9 du gouvernement du Canada ont d\u00e9velopp\u00e9 des instructions pour les employ\u00e9s.</p>\n<p>Si vous vous trouvez dans une situation d\u2019intrusion arm\u00e9e, il y a 3 choses que vous pouvez faire pour vous aider \u00e0 rester en s\u00e9curit\u00e9 :</p>\n<h2><strong>Se sauver</strong></h2>\n<ul>\n<li>Si vous entendez des coups de feu ou des cris, fuyez</li>\n<li>Ne prenez rien avec vous, partez sans tarder</li>\n<li>Avertissez ceux que vous croisez de la menace</li>\n<li>Partez, m\u00eame si certains ne vous suivent pas</li>\n<li>Appelez le 911 lorsque vous pouvez le faire en toute s\u00e9curit\u00e9</li>\n</ul>\n<h2><strong>Se cacher</strong></h2>\n<ul>\n<li>Si vous ne pouvez fuir, cherchez un endroit pour vous cacher et vous prot\u00e9ger contre les coups de feu</li>\n<li>Restez silencieux et immobiles pour \u00e9viter qu\u2019on vous d\u00e9tecte</li>\n<li>Verrouillez ou barricadez les portes, fermez les stores, \u00e9teignez les lumi\u00e8res et vos t\u00e9l\u00e9phones</li>\n<li>Ne laissez personne entrer dans votre zone s\u00e9curis\u00e9e</li>\n<li>Appelez le 911 lorsque vous pouvez le faire en toute s\u00e9curit\u00e9, puis attendez la police</li>\n</ul>\n<h2><strong>Se d\u00e9fendre</strong></h2>\n<ul>\n<li>En dernier recours et uniquement si votre vie est en danger, d\u00e9fendez-vous physiquement</li>\n<li>Restez silencieux</li>\n<li>Soyez d\u00e9termin\u00e9 et combatif</li>\n<li>Utilisez tout ce que vous pouvez trouver comme armes afin d\u2019arr\u00eater l\u2019intrus arm\u00e9</li>\n</ul>\n<p>Lorsque votre s\u00e9curit\u00e9 est en jeu, les gestes que vous posez peuvent changer la situation.</p>\n<h2><strong>Pour en savoir plus</strong></h2>\n<p>Consultez la <a rel=\"external\" href=\"https://collab.agr.gc.ca/co/dss-ssm/SitePages/Home.aspx\">page des Services de s\u00e9curit\u00e9 minist\u00e9riels dans l\u2019Espace de travail du savoir</a> pour voir la vid\u00e9o Intrusion arm\u00e9e \u2013 savez-vous quoi faire? Cette production vid\u00e9o est r\u00e9aliste et dramatique. Certains spectateurs pourraient trouver cela d\u00e9rangeant. Elle s'adresse \u00e0 un public averti.</p>\n<p>\u00a0</p>\n<p><img src=\"https://intranet.agr.gc.ca/resources/prod/news/images/ArmedIntruder1-FR.png\" class=\"center-block\" alt=\"Se sauver. Se cacher. Se d\u00e9fendre.\"></p>\n\t\t"
    },
    "breadcrumb": {
        "en": "What to Do in the Event of an Armed Intruder",
        "fr": "Que faire en cas d'intrusion arm\u00e9e"
    },
    "news": {
        "date_posted": {
            "en": "2018-07-19",
            "fr": "2018-07-19"
        },
        "to": {
            "en": "All staff",
            "fr": "Tous les employ\u00e9s"
        },
        "by": {
            "en": "Departmental Security Services, Corporate Management Branch",
            "fr": "Services de s\u00e9curit\u00e9 minist\u00e9riels, Direction g\u00e9n\u00e9rale de la gestion int\u00e9gr\u00e9e"
        }
    }
}