{
    "dcr_id": "1532537034294",
    "lang": "en",
    "title": {
        "en": "Deputy Minister's Visit to the Ottawa Research and Development Centre and Regina Regional Office",
        "fr": "Visite du sous-ministre au Centre de recherche et de d\u00e9veloppement d'Ottawa et au bureau r\u00e9gional de Regina "
    },
    "modified": "2018-07-26 00:00:00.0",
    "issued": "2018-07-26 00:00:00.0",
    "type_name": "intra-intra/news-nouv",
    "node_id": "1279030006975",
    "layout_name": null,
    "dc_date_created": "2018-07-25",
    "breadcrumb_label": "",
    "meta": {
        "issued": {
            "en": "2018-07-26",
            "fr": "2018-07-26"
        },
        "modified": {
            "en": "2018-07-26",
            "fr": "2018-07-26"
        },
        "format": {
            "en": "gcformat",
            "fr": "gcformat"
        },
        "title": {
            "en": "Deputy Minister's Visit to the Ottawa Research and Development Centre and Regina Regional Office",
            "fr": "Visite du sous-ministre au Centre de recherche et de d\u00e9veloppement d'Ottawa et au bureau r\u00e9gional de Regina "
        },
        "subject": {
            "en": "communications",
            "fr": "communications"
        },
        "description": {
            "en": "On June 25, I visited with staff at the Ottawa Research and Development Centre, and on July 10, I met with staff at the Regina regional office.",
            "fr": "Le 25 juin, j'ai rencontr\u00e9 des employ\u00e9s du Centre de recherche et de d\u00e9veloppement d'Ottawa et, le 10 juillet, je suis all\u00e9 voir des employ\u00e9s du bureau r\u00e9gional de Regina."
        },
        "language": {
            "en": "eng",
            "fr": "fra"
        },
        "audience": {
            "en": "gcaudience",
            "fr": "gcaudience"
        },
        "creator": {
            "en": "Agriculture and Agri-Food Canada",
            "fr": "Agriculture et Agroalimentaire Canada"
        },
        "spatial": {
            "en": "gcregions",
            "fr": "gcregions"
        },
        "service": {
            "en": "AAFC_AgriSource",
            "fr": "AAC_AgriSource"
        },
        "accessRights": {
            "en": "3",
            "fr": "3"
        }
    },
    "body": {
        "en": "<br>\n<br>\n<p>On June 25, I visited with staff at the Ottawa Research and Development Centre, and on July 10, I met with staff at the Regina regional office. Both visits were a great chance to connect with AAFC employees about our work and priorities. I truly appreciate the time people take to share their thoughts with me.</p>\n<p>Photos from my visit to <a href=\"https://collab.agr.gc.ca/apps/dmtpg-vgpsm/Articles/Lists/Posts/Post.aspx?List=ca2c96e6%2D16f5%2D463c%2Da2ac%2D7e31b2b3f16d&amp;ID=32&amp;Web=22a9e7e7%2Db8b2%2D47a5%2Da7cf%2D7f1180c1ab01\">Ottawa</a> and <a href=\"https://collab.agr.gc.ca/apps/dmtpg-vgpsm/Articles/Lists/Posts/Post.aspx?List=ca2c96e6%2D16f5%2D463c%2Da2ac%2D7e31b2b3f16d&amp;ID=34&amp;Web=22a9e7e7%2Db8b2%2D47a5%2Da7cf%2D7f1180c1ab01\">Regina</a> are now available. Take a look at the photo gallery if you are interested in seeing more of my visits to research centres and regional offices.</p>\n<p><img src=\"https://intranet.agr.gc.ca/resources/prod/news/images/DMReginaOutreachJuly2018.png\" class=\"center-block\" alt=\"Deputy Minister Chris Forbes and Bill Houston.\"></p>\n\n\t\t",
        "fr": "<br>\n<br>\n<p>Le 25 juin, j\u2019ai rencontr\u00e9 des employ\u00e9s du Centre de recherche et de d\u00e9veloppement d\u2019Ottawa et, le 10 juillet, je suis all\u00e9 voir des employ\u00e9s du bureau r\u00e9gional de Regina. Les deux visites m\u2019ont donn\u00e9 la chance de parler de notre travail et de nos priorit\u00e9s avec des employ\u00e9s d\u2019AAC. J\u2019aime vraiment quand les gens prennent le temps de me faire part de leurs id\u00e9es.</p>\n<p>Vous pouvez maintenant acc\u00e9der aux photos de mes visites \u00e0 <a href=\"https://collab.agr.gc.ca/apps/dmtpg-vgpsm/Articles/Lists/Posts/Post.aspx?List=ca2c96e6%2D16f5%2D463c%2Da2ac%2D7e31b2b3f16d&amp;ID=32&amp;Web=22a9e7e7%2Db8b2%2D47a5%2Da7cf%2D7f1180c1ab01\">Ottawa</a> et \u00e0 <a href=\"https://collab.agr.gc.ca/apps/dmtpg-vgpsm/Articles/Lists/Posts/Post.aspx?List=ca2c96e6%2D16f5%2D463c%2Da2ac%2D7e31b2b3f16d&amp;ID=34&amp;Web=22a9e7e7%2Db8b2%2D47a5%2Da7cf%2D7f1180c1ab01\">Regina</a>. Jetez un \u0153il \u00e0 la galerie de photos si vous souhaitez voir mes autres visites dans les centres de recherche et les bureaux r\u00e9gionaux.</p>\n<p><img src=\"https://intranet.agr.gc.ca/resources/prod/news/images/DMReginaOutreachJuly2018.png\" class=\"center-block\" alt=\"Le sous-ministre, Chris Forbes, et Bill Houston.\"></p>\n\t\t"
    },
    "breadcrumb": {
        "en": "Deputy Minister's Visit to the Ottawa Research and Development Centre and Regina Regional Office",
        "fr": "Visite du sous-ministre au Centre de recherche et de d\u00e9veloppement d'Ottawa et au bureau r\u00e9gional de Regina"
    },
    "news": {
        "date_posted": {
            "en": "2018-07-26",
            "fr": "2018-07-26"
        },
        "to": {
            "en": "All staff",
            "fr": "Tous les employ\u00e9s"
        },
        "by": {
            "en": "Chris Forbes, Deputy Minister",
            "fr": "Chris Forbes, sous-ministre"
        }
    }
}