{
    "dcr_id": "1533055098395",
    "lang": "en",
    "title": {
        "en": "Join the Grain Transportation Hackathon!",
        "fr": "Participez au marathon de remue-m\u00e9ninges sur le transport des grains!"
    },
    "modified": "2018-08-01 00:00:00.0",
    "issued": "2018-08-01 00:00:00.0",
    "type_name": "intra-intra/news-nouv",
    "node_id": "1279030006975",
    "layout_name": null,
    "dc_date_created": "2018-08-01",
    "breadcrumb_label": "",
    "meta": {
        "issued": {
            "en": "2018-08-01",
            "fr": "2018-08-01"
        },
        "modified": {
            "en": "2018-08-01",
            "fr": "2018-08-01"
        },
        "format": {
            "en": "gcformat",
            "fr": "gcformat"
        },
        "title": {
            "en": "Join the Grain Transportation Hackathon!",
            "fr": "Participez au marathon de remue-m\u00e9ninges sur le transport des grains!"
        },
        "subject": {
            "en": "communications",
            "fr": "communications"
        },
        "description": {
            "en": "Grain transportation has been in the spotlight for the past number of years and presents a multi-faceted challenge for bright minds from across the Government of Canada.",
            "fr": "Le transport des grains est sous les feux de l'actualit\u00e9 depuis plusieurs ann\u00e9es et pose un d\u00e9fi \u00e0 multiples facettes aux brillants esprits du gouvernement du Canada."
        },
        "language": {
            "en": "eng",
            "fr": "fra"
        },
        "audience": {
            "en": "gcaudience",
            "fr": "gcaudience"
        },
        "creator": {
            "en": "Agriculture and Agri-Food Canada",
            "fr": "Agriculture et Agroalimentaire Canada"
        },
        "spatial": {
            "en": "gcregions",
            "fr": "gcregions"
        },
        "service": {
            "en": "AAFC_AgriSource",
            "fr": "AAC_AgriSource"
        },
        "accessRights": {
            "en": "3",
            "fr": "3"
        }
    },
    "body": {
        "en": "<br>\n<br>\n<p>Grain transportation has been in the spotlight for the past number of years and presents a multi-faceted challenge for bright minds from across the Government of Canada. Hackathons provide a great opportunity to work collaboratively to solve a problem and have been quite successful in both the public and private sector. That is why AAFC, in collaboration with Statistics Canada and Transport Canada, is hosting a hackathon on grain transportation. </p>\n<p>\nUnlike a more traditional hackathon, which asks participants to provide technical solutions, our event will instead seek new insights on grain transportation and present ideas to our panel of judges. Participants will be assigned to interdepartmental teams with prizes awarded to the top teams.</p>\n<p>\nWe are looking for a variety and diverse range of skills, so please do not hesitate to apply!</p>\n<h2>\nEvent information</h2>\n<p>\n<strong>Date:</strong> August 21 to 23<br><strong>Location:</strong> Statistics Canada\u2019s Innovation Hub<br><strong>Registration:</strong> Please obtain approval from your supervisor and confirm your interest with Preethi Ledchumykanthan (<a href=\"mailto:Preethi.Ledchumykanthan@canada.ca\">Preethi.Ledchumykanthan@canada.ca</a>) by <b>August 7</b>.</p>\n<p>\nAlong with your confirmation, please provide the following information: </p>\n<ul>\n<li>\nyour role (e.g., team coordinator, impact communicator, data scientist, GIS analyst)</li>\n<li>branch</li>\n<li>subject matter expertise (e.g., transportation, grain)</li>\n<li>your top three skills (e.g., project management, communications, GIS, data analysis, programming, design) </li>\n</ul>\n<p>Further details will be provided to interested participants.</p>\n\n\t\t",
        "fr": "<br>\n<br>\n<p>Le transport des grains est sous les feux de l\u2019actualit\u00e9 depuis plusieurs ann\u00e9es et pose un d\u00e9fi \u00e0 multiples facettes aux brillants esprits du gouvernement du Canada. Les marathons de remue-m\u00e9ninges sont une excellente occasion de collaborer pour trouver de nouvelles solutions \u00e0 un probl\u00e8me, et ils ont donn\u00e9 de bons r\u00e9sultats dans les secteurs public et priv\u00e9. C\u2019est pourquoi AAC, en collaboration avec Statistique Canada et Transports Canada, tient un marathon de remue-m\u00e9ninges sur le transport des grains.</p>\n<p>\nContrairement \u00e0 un marathon de remue-m\u00e9ninges traditionnel o\u00f9 les participants sont appel\u00e9s \u00e0 proposer des solutions techniques, le n\u00f4tre consistera \u00e0 g\u00e9n\u00e9rer de nouvelles id\u00e9es sur le transport des grains et \u00e0 les pr\u00e9senter \u00e0 notre jury. Les participants seront divis\u00e9s en \u00e9quipes interminist\u00e9rielles et des prix seront remis aux meilleures \u00e9quipes!</p>\n<p>\nComme vous pouvez le constater, nous visons un large \u00e9ventail de comp\u00e9tences. Par cons\u00e9quent, n\u2019h\u00e9sitez pas \u00e0 poser votre candidature.</p>\n<h2>\nRenseignements sur l\u2019\u00e9v\u00e9nement\u00a0</h2>\n<p>\n<b>Date :</b> 21 au 23 ao\u00fbt<br><b>Lieu :</b> Centre d\u2019innovation de Statistique Canada<br><strong>Inscription :</strong> Veuillez obtenir l\u2019approbation de votre superviseur et confirmer votre int\u00e9r\u00eat \u00e0 Preethi Ledchumykanthan (<a href=\"mailto:Preethi.Ledchumykanthan@canada.ca\">Preethi.Ledchumykanthan@canada.ca</a>) d\u2019ici le <b>7 ao\u00fbt</b>. </p>\n<p>\nVeuillez transmettre les renseignements suivants :</p>\n<ul>\n<li>\nvotre r\u00f4le (p. ex. coordonnateur d\u2019\u00e9quipe, communicateur d\u2019impact, expert en science des donn\u00e9es, analyste de SIG)</li>\n<li>votre direction g\u00e9n\u00e9rale</li>\n<li>votre expertise en la mati\u00e8re (p. ex. transport, grains) </li>\n<li>trois comp\u00e9tences principales que vous pouvez mettre \u00e0 contribution (p. ex. gestion de projets, communications, SIG, analyse de donn\u00e9es, programmes, conception) </li>\n</ul>\n<p>\nNous communiquerons d\u2019autres pr\u00e9cisions aux participants int\u00e9ress\u00e9s.</p>\n\t\t"
    },
    "breadcrumb": {
        "en": "Join the Grain Transportation Hackathon!",
        "fr": "Participez au marathon de remue-m\u00e9ninges sur le transport des grains!"
    },
    "news": {
        "date_posted": {
            "en": "2018-08-01",
            "fr": "2018-08-01"
        },
        "to": {
            "en": "All staff",
            "fr": "Tous les employ\u00e9s"
        },
        "by": {
            "en": "Strategic Policy Branch",
            "fr": "Direction g\u00e9n\u00e9rale des politiques strat\u00e9giques"
        }
    }
}