{
    "dcr_id": "1533654600199",
    "lang": "en",
    "title": {
        "en": "This Week in The Harvest - Drought Specialists \"On Fire\" After Successful Forum",
        "fr": "Au menu de La Moisson cette semaine - Des sp\u00e9cialistes de la s\u00e9cheresse \u00ab en feu \u00bb apr\u00e8s un forum r\u00e9ussi"
    },
    "modified": "2018-08-09 00:00:00.0",
    "issued": "2018-08-09 00:00:00.0",
    "type_name": "intra-intra/news-nouv",
    "node_id": "1279030006975",
    "layout_name": null,
    "dc_date_created": "2018-08-07",
    "breadcrumb_label": "",
    "meta": {
        "issued": {
            "en": "2018-08-09",
            "fr": "2018-08-09"
        },
        "modified": {
            "en": "2018-08-09",
            "fr": "2018-08-09"
        },
        "format": {
            "en": "gcformat",
            "fr": "gcformat"
        },
        "title": {
            "en": "This Week in The Harvest - Drought Specialists \"On Fire\" After Successful Forum",
            "fr": "Au menu de La Moisson cette semaine - Des sp\u00e9cialistes de la s\u00e9cheresse \u00ab en feu \u00bb apr\u00e8s un forum r\u00e9ussi"
        },
        "subject": {
            "en": "communications",
            "fr": "communications"
        },
        "description": {
            "en": "In case you missed it, here's what's new in The Harvest this week.",
            "fr": "Au cas o\u00f9 vous l'auriez manqu\u00e9, voici le menu que la section La Moisson vous offre cette semaine."
        },
        "language": {
            "en": "eng",
            "fr": "fra"
        },
        "audience": {
            "en": "gcaudience",
            "fr": "gcaudience"
        },
        "creator": {
            "en": "Agriculture and Agri-Food Canada",
            "fr": "Agriculture et Agroalimentaire Canada"
        },
        "spatial": {
            "en": "gcregions",
            "fr": "gcregions"
        },
        "service": {
            "en": "AAFC_AgriSource",
            "fr": "AAC_AgriSource"
        },
        "accessRights": {
            "en": "3",
            "fr": "3"
        }
    },
    "body": {
        "en": "<br>\n<br>\n<p>In case you missed it, here\u2019s what\u2019s new in <a rel=\"external\" href=\"https://collab.agr.gc.ca/apps/harvest-moisson\">The Harvest</a> this week:</p>\n<p><strong>Feature story: </strong><a rel=\"external\" href=\"https://collab.agr.gc.ca/apps/harvest-moisson\">Drought Specialists \u201cOn Fire\u201d After Successful Forum</a> \u2013 From May 1 to 3, 2018, AAFC\u2019s National Agroclimate Information Service (<abbr title=\"National Agroclimate Information Service\">NAIS</abbr>) hosted the North American Drought Monitor (<abbr title=\"North American Drought Monitor \">NADM</abbr>) Forum in Calgary, where drought experts across North America congregated to discuss the science of drought monitoring, and build cross-border collaborations.</p>\n<p><strong>Quiz: </strong><a rel=\"external\" href=\"https://collab.agr.gc.ca/apps/harvest-moisson\">Where will the next International Open Data Conference be held?</a></p>\n<p><strong>Feature photo:</strong><strong> </strong><a rel=\"external\" href=\"https://collab.agr.gc.ca/apps/harvest-moisson/gallery/Lists/Posts/Post.aspx?ID=208\">Bright Yellow Fields</a>, by Ameeta Vohra, Public Affairs Branch, Halifax, Nova Scotia.</p>\n<p><strong>Did you know?</strong> <a rel=\"external\" href=\"https://collab.agr.gc.ca/apps/harvest-moisson/Pages/didyouknow.aspx\">At present, canola meal is fed primarily to farm animals</a>. But new processes have been developed to extract protein from canola meal for human consumption \u2013 as both a protein supplement and as an emulsifier to keep food ingredients blended and stable.</p>\n<p>You can get involved by posting a comment or \u201cliking\u201d an article. You can also check out what your colleagues are liking and saying.</p>\n<p>Should you have story ideas, scenic or artistic agriculture-related photos, or interesting facts, please share them with us by clicking on \u201cContribute\u201d in the top menu bar.</p>\n<p>\n<img src=\"https://intranet.agr.gc.ca/resources/prod/news/images/HarvestDrought.png\" class=\"center-block\" alt=\"A tractor in a dusty field.\"></p>\n\n\t\t",
        "fr": "<br>\n<br>\n<p>Au cas o\u00f9 vous l\u2019auriez manqu\u00e9, voici le menu que la section <a rel=\"external\" href=\"https://collab.agr.gc.ca/apps/harvest-moisson\">La Moisson</a> vous offre cette semaine :</p>\n<p><strong>Article vedette :</strong> <a rel=\"external\" href=\"https://collab.agr.gc.ca/apps/harvest-moisson\">Des sp\u00e9cialistes de la s\u00e9cheresse \u00ab\u2009en feu\u2009\u00bb apr\u00e8s un forum r\u00e9ussi</a> \u2013 Du 1er au 3 mai 2018, le Service national d\u2019information sur l\u2019agroclimat (<abbr title=\"Service national d\u2019information sur l\u2019agroclimat\">SNIA</abbr>) d\u2019AAC a tenu le Forum North American Drought Monitor (<abbr title=\"North American Drought Monitor\">NADM</abbr>) \u00e0 Calgary, dans le cadre duquel des experts de toute l\u2019Am\u00e9rique du Nord se sont r\u00e9unis pour discuter de la science de la surveillance des conditions de s\u00e9cheresse et \u00e9tablir des liens de collaboration transfrontali\u00e8re.</p>\n<p><strong>Jeu-questionnaire</strong><strong> : </strong><a rel=\"external\" href=\"https://collab.agr.gc.ca/apps/harvest-moisson\">O\u00f9 aura lieu la prochaine Conf\u00e9rence internationale sur les donn\u00e9es ouvertes?</a></p>\n<p><strong>Photo vedette :</strong> <a rel=\"external\" href=\"https://collab.agr.gc.ca/apps/harvest-moisson/gallery/Lists/Posts/Post.aspx?ID=208\">Champs jaune vif</a><em>, </em>par Ameeta Vohra, Direction g\u00e9n\u00e9rale des affaires publiques, Halifax (Nouvelle-\u00c9cosse).</p>\n<p><strong>Le saviez-vous?</strong> <a rel=\"external\" href=\"https://collab.agr.gc.ca/apps/harvest-moisson/Pages/didyouknow.aspx\">Pour l\u2019instant, le tourteau de canola ne sert qu\u2019\u00e0 nourrir les animaux</a>. Toutefois, de nouveaux proc\u00e9d\u00e9s permettent maintenant d\u2019extraire des prot\u00e9ines du tourteau pour la consommation humaine, tant comme suppl\u00e9ment prot\u00e9in\u00e9 qu\u2019\u00e9mulsifiant pour maintenir dans un \u00e9tat stable des m\u00e9langes d\u2019ingr\u00e9dients alimentaires.</p>\n<p>Vous pouvez participer en affichant des commentaires ou en utilisant la fonction \u00ab J\u2019aime \u00bb ou \u00ab Partager \u00bb pour exprimer votre appr\u00e9ciation d\u2019un article. Vous pouvez aussi aller voir ce que vos coll\u00e8gues aiment et ont \u00e0 dire.</p>\n<p>Si vous avez des id\u00e9es d\u2019articles, des photos de paysages ou \u00e0 caract\u00e8re artistique li\u00e9es \u00e0 l\u2019agriculture ou encore des faits int\u00e9ressants, veuillez nous en faire part en cliquant sur \u00ab Collaborer \u00bb dans la barre de menu en haut de la page.</p>\n<p>\n<img src=\"https://intranet.agr.gc.ca/resources/prod/news/images/HarvestDrought.png\" class=\"center-block\" alt=\"Un tracteur dans un champ poussi\u00e9reux.\"></p>\n\t\t"
    },
    "breadcrumb": {
        "en": "This Week in The Harvest - Drought Specialists \"On Fire\" After Successful Forum",
        "fr": "Au menu de La Moisson cette semaine - Des sp\u00e9cialistes de la s\u00e9cheresse \u00ab en feu \u00bb apr\u00e8s un forum..."
    },
    "news": {
        "date_posted": {
            "en": "2018-08-09",
            "fr": "2018-08-09"
        },
        "to": {
            "en": "All staff",
            "fr": "Tous les employ\u00e9s"
        },
        "by": {
            "en": "Corporate Communications, Public Affairs Branch",
            "fr": "Communications minist\u00e9rielles, Direction g\u00e9n\u00e9rale des affaires publiques"
        }
    }
}