{
    "dcr_id": "1533652168128",
    "lang": "en",
    "title": {
        "en": "Reminder - Traditional Knowledge and Environmental Governance - September 6",
        "fr": "Rappel - Le savoir traditionnel et la gouvernance en mati\u00e8re d'environnement - 6 septembre "
    },
    "modified": "2018-08-31 00:00:00.0",
    "issued": "2018-08-08 00:00:00.0",
    "type_name": "intra-intra/news-nouv",
    "node_id": "1279030006975",
    "layout_name": null,
    "dc_date_created": "2018-08-07",
    "breadcrumb_label": "",
    "meta": {
        "issued": {
            "en": "2018-08-08",
            "fr": "2018-08-08"
        },
        "modified": {
            "en": "2018-08-31",
            "fr": "2018-08-31"
        },
        "format": {
            "en": "gcformat",
            "fr": "gcformat"
        },
        "title": {
            "en": "Reminder - Traditional Knowledge and Environmental Governance - September 6",
            "fr": "Rappel - Le savoir traditionnel et la gouvernance en mati\u00e8re d'environnement - 6 septembre "
        },
        "subject": {
            "en": "communications",
            "fr": "communications"
        },
        "description": {
            "en": "Presented in collaboration with Fisheries and Oceans Canada, this discussion will explore the potential of Indigenous Traditional Knowledge to shape environmental governance in Canada.",
            "fr": "Pr\u00e9sent\u00e9e en collaboration avec P\u00eaches et Oc\u00e9ans Canada, cette discussion portera sur la possibilit\u00e9 que le savoir traditionnel autochtone puisse guider la gouvernance en mati\u00e8re d'environnement au Canada."
        },
        "language": {
            "en": "eng",
            "fr": "fra"
        },
        "audience": {
            "en": "gcaudience",
            "fr": "gcaudience"
        },
        "creator": {
            "en": "Agriculture and Agri-Food Canada",
            "fr": "Agriculture et Agroalimentaire Canada"
        },
        "spatial": {
            "en": "gcregions",
            "fr": "gcregions"
        },
        "service": {
            "en": "AAFC_AgriSource",
            "fr": "AAC_AgriSource"
        },
        "accessRights": {
            "en": "3",
            "fr": "3"
        }
    },
    "body": {
        "en": "<br>\n<br>\n<p>Presented in collaboration with Fisheries and Oceans Canada, this discussion will explore the potential of Indigenous Traditional Knowledge to shape environmental governance in Canada. Incorporating Traditional Knowledge in this field presents both opportunities and challenges, including important ethical considerations.</p>\n<p>Leading the conversation will be Dr. Deborah McGregor, an Indigenous scholar from Whitefish River First Nation, Birch Island, Ontario, who previously worked for Environment Canada. She will explain the nature of Traditional Knowledge and key methods for documenting and collecting it, as well as related protocols that are laying the foundations of a new approach to environmental governance in Canada.</p>\n<h2><strong>Event information</strong></h2>\n<p><strong>Date and Time</strong>: September 6 | 1:30 to 3:00 p.m. (ET)<br>\n<strong>Location (NEW ADDRESS): </strong>Algonquin Room, John G. Diefenbaker Building, 111 Sussex Drive, Ottawa |<strong> </strong>Available across Canada by webcast<br>\n<strong>Language</strong>: English with interpretation in French<br>\n<strong>Registration: </strong>Ottawa\u2014FULL or <a rel=\"external\" href=\"https://papp.csps-efpc.gc.ca/Saba/Web/Main/goto/GuestOfferingDetails?offeringId=class000000000119934&amp;locale=en_US\">Webcast</a> | The registration deadline is <strong>September 5</strong>.</p>\n<p>If attending in person or by webcast, please register your attendance with the Canada School of Public Service (<abbr title=\"Canada School of Public Service\">CSPS</abbr>) with your MyAccount login name and password. If you do not have an account, please contact the <a rel=\"external\" href=\"https://www.csps-efpc.gc.ca/Contact_Us/index-eng.aspx#gi\">Client Contact Centre</a>.</p>\n<p>For more information, please visit the <a rel=\"external\" href=\"https://www.csps-efpc.gc.ca/events/tk-eg/index-eng.aspx\"><abbr title=\"Canada School of Public Service\">CSPS</abbr> website</a>.</p>\n\n\t\t",
        "fr": "<br>\n<br>\n<p>Pr\u00e9sent\u00e9e en collaboration avec P\u00eaches et Oc\u00e9ans Canada, cette discussion portera sur la possibilit\u00e9 que le savoir traditionnel autochtone puisse guider la gouvernance en mati\u00e8re d'environnement au Canada. L'int\u00e9gration du savoir traditionnel \u00e0 ce domaine pr\u00e9sente des avantages et des d\u00e9fis, ainsi que d'importants enjeux sur le plan de l'\u00e9thique.</p>\n<p>La discussion sera men\u00e9e par Deborah McGregor, Ph. D., chercheuse autochtone de la Premi\u00e8re nation de Whitefish River, \u00e0 Birch Island, en Ontario, qui a d\u00e9j\u00e0 travaill\u00e9 pour Environnement Canada. Elle expliquera ce qu'est le savoir traditionnel, ainsi que les principales m\u00e9thodes de documentation et de collecte de ce savoir. Elle parlera \u00e9galement de protocoles \u00e0 l'appui d'une nouvelle approche pour la gouvernance en mati\u00e8re d'environnement au Canada.</p>\n<h2><strong>Renseignements sur l'\u00e9v\u00e9nement</strong></h2>\n<p><strong>Date et heure : </strong>6 septembre | 13 h 30 \u00e0 15 h (HE)<br>\n<strong>Lieu (NOUVELLE ADRESSE) :\u00a0</strong>Salle Algonquin, \u00c9difice John G. Diefenbaker, 111, promenade Sussex, Ottawa | Offert partout au Canada par webdiffusion<br><strong>Langue : </strong>En anglais avec interpr\u00e9tation en fran\u00e7ais<br>\n<strong>Inscription : </strong>Ottawa\u2014COMPLET ou <a rel=\"external\" href=\"https://papp.csps-efpc.gc.ca/Saba/Web/Main/goto/GuestOfferingDetails?offeringId=class000000000119934&amp;locale=fr_CA\">Webdiffusion</a> | La date limite d'inscription est le <strong>5 septembre</strong>.</p>\n<p>Pour assister \u00e0 la discussion en personne ou par webdiffusion, vous devez vous inscrire aupr\u00e8s de l\u2019\u00c9cole de la fonction publique du Canada (<abbr title=\"\u00c9cole de la fonction publique du Canada\">EFPC</abbr>) au moyen de votre nom d\u2019utilisateur et de votre mot de passe MonDossier. Si vous n\u2019avez pas de compte, communiquez avec le <a rel=\"external\" href=\"https://www.csps-efpc.gc.ca/Contact_Us/index-fra.aspx#gi\">Centre de contact avec la client\u00e8le</a>.</p>\n<p>Pour de plus amples renseignements, veuillez consulter le <a href=\"https://www.csps-efpc.gc.ca/events/tk-eg/index-fra.aspx\">site Web de l'<abbr title=\"\u00c9cole de la fonction publique du Canada\">EFPC</abbr></a>.</p>\n\t\t"
    },
    "breadcrumb": {
        "en": "Reminder - Traditional Knowledge and Environmental Governance - September 6",
        "fr": "Rappel - Le savoir traditionnel et la gouvernance en mati\u00e8re d'environnement - 6 septembre"
    },
    "news": {
        "date_posted": {
            "en": "2018-08-08",
            "fr": "2018-08-08"
        },
        "to": {
            "en": "All staff",
            "fr": "Tous les employ\u00e9s"
        },
        "by": {
            "en": "Canada School of Public Service",
            "fr": "\u00c9cole de la fonction publique du Canada"
        }
    }
}