{
    "dcr_id": "1534947987621",
    "lang": "en",
    "title": {
        "en": "Financial Systems Analyst",
        "fr": "Analyst(e), syst\u00e8me financiers"
    },
    "modified": "2018-08-23 00:00:00.0",
    "issued": "2018-08-23 00:00:00.0",
    "type_name": "intra-intra/empl-empl",
    "node_id": "1279029955397",
    "layout_name": null,
    "dc_date_created": "2018-08-22",
    "breadcrumb_label": "",
    "meta": {
        "issued": {
            "en": "2018-08-23",
            "fr": "2018-08-23"
        },
        "modified": {
            "en": "2018-08-23",
            "fr": "2018-08-23"
        },
        "format": {
            "en": "gcformat",
            "fr": "gcformat"
        },
        "title": {
            "en": "Financial Systems Analyst",
            "fr": "Analyst(e), syst\u00e8me financiers"
        },
        "subject": {
            "en": "staffing",
            "fr": "dotation en personnel"
        },
        "language": {
            "en": "eng",
            "fr": "fra"
        },
        "audience": {
            "en": "gcaudience",
            "fr": "gcaudience"
        },
        "type": {
            "en": "notice",
            "fr": "avis"
        },
        "creator": {
            "en": "Agriculture and Agri-Food Canada",
            "fr": "Agriculture et Agroalimentaire Canada"
        },
        "spatial": {
            "en": "gcregions",
            "fr": "gcregions"
        },
        "service": {
            "en": "AAFC_AgriSource",
            "fr": "AAC_AgriSource"
        },
        "accessRights": {
            "en": "3",
            "fr": "3"
        }
    },
    "body": {
        "en": "\n<p>\u00a0</p>\n<p><strong>Duties:</strong><em> </em></p>\n<p>The SAP Center of Expertise team at Agriculture and Agri-Foods Canada (AAFC) has several deployment opportunities for FI-02 Financial Systems Analysts. These positions support, maintain and develop the SAP Financial Systems solution for five (5) departments. It is an exciting opportunity as the SAP AAFC Cluster is in the process of migrating to the SAP Hana 2.0 platform and upgrading to enhancement pack 8.</p>\n<p>\u00a0</p>\n<p><strong>Statement of Merit Criteria &amp; Conditions of Employment</strong></p>\n<p><strong>\u00a0</strong></p>\n<p><strong>Essential Qualifications</strong></p>\n<p>\u00a0</p>\n<p><b>Education</b></p>\n<ul>\n<li>A degree from a recognized post-secondary institution with specialization* in accounting, finance, business administration, commerce or economics and experience** related to positions in the Financial Management Group;</li>\n</ul>\n<p>\u00a0</p>\n<p>AND/OR</p>\n<p>\u00a0</p>\n<ul>\n<li>Possession of a recognized professional accounting designation (i.e. CPA, CA, CMA, or CGA)</li>\n</ul>\n<p>\u00a0</p>\n<p style=\"padding-left: 30px;\">* Specialization is defined as a minimum of 30 credits within one of these areas: accounting, finance, business administration, commerce or economics</p>\n<p style=\"padding-left: 30px;\">** Experience required must be related to financial management and relevant to the FI position being staffed. It can be acquired in the Public Service as well as through other means, e.g. private sector, volunteer work, self-employment, etc.</p>\n<p>\u00a0</p>\n<p><b>Experience(s)</b></p>\n<ul>\n<li>Recent* experience working as a Functional Analyst in an SAP system administration and functional support team performing development, testing and configuration, gathering and assessing client requirements or support.</li>\n</ul>\n<p style=\"padding-left: 30px;\">\u00a0 *Recent experience is defined as the performance of duties on a continuous basis over a 2 year period within the last 5 years.</p>\n<p>\u00a0</p>\n<p>OR</p>\n<p>\u00a0</p>\n<ul>\n<li>Recent** experience in using the SAP system and its various modules and reporting tools in support of your day to day job activities and duties.</li>\n</ul>\n<p style=\"padding-left: 30px;\">\u00a0 **Recent experience is defined as the performance of duties on a continuous basis over a 3 year period within the last 5 years.</p>\n<ul>\n<li>Experience in at least two (2) of the following areas:</li>\n</ul>\n<p style=\"padding-left: 30px;\">\u00a0 Accounting operations, financial policies, financial planning and resource management, financial management advisory services, budgeting, costing, financial reporting or financial systems.</p>\n<p>\u00a0</p>\n<p><b>Language Requirement(s) Various</b></p>\n<p>\u00a0</p>\n<p><strong>Organizational Needs</strong></p>\n<p>In support of achieving a diversified workforce, consideration may be given to candidates self-identifying as belonging to one of the following Employment Equity groups: Aboriginal peoples, Persons with a Disability; Visible Minorities, Women.</p>\n<p>\u00a0</p>\n<p><strong>Conditions of Employment</strong><strong> </strong></p>\n<p>Security Requirement(s) : Secret Level II</p>\n<p>Other conditions of employment: (i.e.: overtime and/or travel)</p>\n<p>Ability and willingness to work overtime on short notice.</p>\n<p>\u00a0</p>\n",
        "fr": "\n<p>\u00a0</p>\n<p><b>Fonctions</b></p>\n<p>L\u2019\u00e9quipe du Centre d\u2019Expertise SAP \u00e0 Agriculture et Agroalimentaire Canada (AAC) a plusieurs opportunit\u00e9s de mutation en tant qu\u2019analyste des syst\u00e8mes financiers au niveau FI-02. Ces postes sont responsables de soutenir, maintenir et d\u00e9velopper la solution du syst\u00e8me financier SAP aupr\u00e8s de 5 minist\u00e8res. Il s\u2019agit d\u2019une excellente opportunit\u00e9, car le syst\u00e8me financier SAP d\u2019AAC progresse vers la nouvelle plate-forme SAP Hana 2.0 et va b\u00e9n\u00e9ficier d\u2019une mise-\u00e0-jour de niveau 8 (pack 8).</p>\n<p>\u00a0</p>\n<p><strong>L\u2019\u00e9nonc\u00e9 des crit\u00e8res de m\u00e9rite et conditions d\u2019emploi</strong></p>\n<p><strong>\u00a0</strong></p>\n<p><strong><strong>Qualifications Essentielles<strong><strong> </strong></strong></strong></strong></p>\n<p><strong>\u00a0</strong></p>\n<p><strong>\u00c9tudes</strong></p>\n<ul>\n<li>Un grade d'un \u00e9tablissement d'enseignement postsecondaire reconnu avec *sp\u00e9cialisation en comptabilit\u00e9, en finances,en administration des affaires, en commerce ou en \u00e9conomie et **une exp\u00e9rience reli\u00e9e aux postes du groupe de Gestion des finances;</li>\n</ul>\n<p>\u00a0</p>\n<p>ET/OU</p>\n<p>\u00a0</p>\n<ul>\n<li>Poss\u00e9der un titre comptable octroy\u00e9 par une association professionnelle reconnue (c.-\u00e0-d. CPA,CA,CMA ou CGA).</li>\n</ul>\n<p style=\"padding-left: 30px;\">* \u00ab Sp\u00e9cialisation\u00bb est d\u00e9finie comme \u00e9tant un minimum de 30 cr\u00e9dits dans l\u2019un de ces champs: comptabilit\u00e9, finance, administration des affaires, commerce ou \u00e9conomie.</p>\n<p style=\"padding-left: 30px;\">** L\u2019exp\u00e9rience requise doit \u00eatre li\u00e9e \u00e0 la gestion des finances et pertinente au poste FI \u00e0 doter. Elle peut avoir \u00e9t\u00e9 acquise au sein de la fonction publique aussi bien que par d\u2019autres moyens, p. ex. secteur priv\u00e9, travail de b\u00e9n\u00e9volat, travail \u00e0 son compte, etc.</p>\n<p>\u00a0</p>\n<p><strong>Exp\u00e9rience</strong></p>\n<ul>\n<li>Exp\u00e9rience r\u00e9cente* comme analyste fonctionnel au sein d\u2019une \u00e9quipe d\u2019administration de syst\u00e8me SAP et de support fonctionnel comprenant le d\u00e9veloppement, les tests, la configuration, la collecte et l\u2019analyse des besoins des clients ou le support.</li>\n</ul>\n<p style=\"padding-left: 30px;\">*Exp\u00e9rience r\u00e9cente est d\u00e9finie comme l\u2019exercice de vos fonctions sur une base continue pour une p\u00e9riode de plus de deux ans, au cours des 5 derni\u00e8res ann\u00e9es.</p>\n<p>\u00a0</p>\n<p>Ou</p>\n<p>\u00a0</p>\n<ul>\n<li>Exp\u00e9rience r\u00e9cente** de l\u2019utilisation du syst\u00e8me SAP au niveau de ses divers modules et outils de rapport, ou autre syst\u00e8me financier dans le cadre de votre travail quotidien.</li>\n</ul>\n<p style=\"padding-left: 30px;\">\u00a0 **Exp\u00e9rience r\u00e9cente est d\u00e9finie comme l\u2019exercice de vos fonctions sur une base continue pour une p\u00e9riode de 3 ans ou plus, au cours des 5 derni\u00e8res ann\u00e9es.</p>\n<ul>\n<li>Exp\u00e9rience dans au moins deux (2) des domaines suivants:</li>\n</ul>\n<p style=\"padding-left: 30px;\">\u00a0 op\u00e9rations comptables, politiques financi\u00e8res, planification financi\u00e8re et gestion des ressources, prestation de services de gestion financi\u00e8re, budg\u00e9tisation, \u00e9tablissement des co\u00fbts, rapports financiers ou syst\u00e8me financier.</p>\n<p>\u00a0</p>\n<p><strong>Exigences linguistiques - </strong>Profils linguistiques varies</p>\n<p>\u00a0</p>\n<p><strong>Besoins organisationnels</strong></p>\n<p>Pour r\u00e9pondre aux besoins de diversification de l\u2019effectif, la pr\u00e9f\u00e9rence pourrait \u00eatre accord\u00e9e aux personnes qui auront indiqu\u00e9 leur appartenance \u00e0 l\u2019un des groupes suivants, vis\u00e9s par l\u2019\u00e9quit\u00e9 en mati\u00e8re d\u2019emploi : Autochtones, personnes handicap\u00e9es, membres d\u2019une minorit\u00e9 visible, et femmes.</p>\n<p>\u00a0</p>\n<p><strong>Conditions d\u2019emploi</strong></p>\n<p>Fiabilit\u00e9 et s\u00e9curit\u00e9: Secret (niveau II)</p>\n<p>\u00catre apte et dispos\u00e9 \u00e0 faire des heures suppl\u00e9mentaires \u00e0 bref pr\u00e9avis.</p>\n<p>\u00a0</p>\n\n"
    },
    "breadcrumb": {
        "en": "Financial Systems Analyst",
        "fr": "Analyst(e), syst\u00e8me financiers"
    },
    "empl": {
        "type": {
            "en": "Deployment",
            "fr": "Mutation"
        },
        "classification": {
            "en": "FI-2 and equivalent",
            "fr": "FI-2 et \u00e9quivalent"
        },
        "branch": {
            "en": "Information Systems Branch",
            "fr": "Direction g\u00e9n\u00e9rale des syst\u00e8mes d'information"
        },
        "locations": {
            "en": "960 Carling \u2013 Building 34, Ottawa",
            "fr": "960 Carling \u2013 Building 34, Ottawa"
        },
        "date_closing": {
            "en": "2018-09-07",
            "fr": "2018-09-07"
        },
        "open_to": {
            "en": "All AAFC Employees",
            "fr": "Tous les employ\u00e9s d'AAC"
        },
        "name": {
            "en": "Lucie Malette",
            "fr": "Lucie Malette"
        },
        "email": {
            "en": "lucie.malette3@canada.ca",
            "fr": "lucie.malette3@canada.ca"
        }
    }
}