{
    "dcr_id": "1534190205327",
    "lang": "en",
    "title": {
        "en": "Scheduled Maintenance of ISB Services Including Email Services - August 18",
        "fr": "Entretien pr\u00e9vu des services de la DGSI y compris les services de courriel - 18 ao\u00fbt"
    },
    "modified": "2018-08-16 00:00:00.0",
    "issued": "2018-08-15 00:00:00.0",
    "type_name": "intra-intra/news-nouv",
    "node_id": "1279030006975",
    "layout_name": null,
    "dc_date_created": "2018-08-13",
    "breadcrumb_label": "",
    "meta": {
        "issued": {
            "en": "2018-08-15",
            "fr": "2018-08-15"
        },
        "modified": {
            "en": "2018-08-16",
            "fr": "2018-08-16"
        },
        "format": {
            "en": "gcformat",
            "fr": "gcformat"
        },
        "title": {
            "en": "Scheduled Maintenance of ISB Services Including Email Services - August 18",
            "fr": "Entretien pr\u00e9vu des services de la DGSI y compris les services de courriel - 18 ao\u00fbt"
        },
        "subject": {
            "en": "communications",
            "fr": "communications"
        },
        "description": {
            "en": "Please be advised that preventative maintenance of ISB services will be performed from Saturday, August 18, 2018.",
            "fr": "Veuillez noter qu'un entretien pr\u00e9ventif des services de la DGSI aura lieu le samedi 18 ao\u00fbt 2018."
        },
        "language": {
            "en": "eng",
            "fr": "fra"
        },
        "audience": {
            "en": "gcaudience",
            "fr": "gcaudience"
        },
        "creator": {
            "en": "Agriculture and Agri-Food Canada",
            "fr": "Agriculture et Agroalimentaire Canada"
        },
        "spatial": {
            "en": "gcregions",
            "fr": "gcregions"
        },
        "service": {
            "en": "AAFC_AgriSource",
            "fr": "AAC_AgriSource"
        },
        "accessRights": {
            "en": "3",
            "fr": "3"
        }
    },
    "body": {
        "en": "<br>\n<br>\n<p>Please be advised that preventative maintenance of ISB services will be performed from Saturday, August 18, 2018.</p>\n<p>The following downtime\u00a0is part of a management plan to upgrade our infrastructure systems. These measures are performed regularly to improve performance and ensure that the department does not experience any outages that would affect employees and the delivery of our services.</p>\n<p>As a result, the following services will not be available during the following time.</p>\n<p><strong>Saturday, August 18 \u2013 3:00 a.m. until 6:00 a.m. (ET)</strong></p>\n<ul>\n<li><strong><strong>@agr.gc.ca Email Services</strong></strong></li>\n<li>Knowledge Workspace\n\t\n<ul style=\"list-style-type: disc;\">\n<li>Blueprint 2020 blog</li>\n<li>Blueprint 2020 Process Improvement (Lean)</li>\n<li>Blueprint 2020 Dragons\u2019 Den</li>\n<li>CFIA President\u2019s Blog</li>\n<li>Market Access Support System (MISB-MASS)</li>\n<li>Proposal Submission System (STB-PSS)</li>\n</ul>\n</li>\n<li>My IT Centre TI</li>\n<li>Skype for Business</li>\n</ul>\n<p>Should you have any questions or concerns, please do not hesitate to contact IT Centre TI.<br><br><br><strong>IT Centre TI<br>\n</strong>Telephone: 1-855-545-4411<br>\n<a href=\"http://assystweb.agr.gc.ca:8080/assystnet\">My IT Centre TI</a></p>\n<p><img src=\"https://intranet.agr.gc.ca/resources/prod/news/images/ITCentreTI2.png\" class=\"center-block\"></p>\n\n\t\t",
        "fr": "<br>\n<br>\n<p>Veuillez noter qu\u2019un entretien pr\u00e9ventif des services de la DGSI aura lieu\u00a0le samedi 18 ao\u00fbt 2018.</p>\n<p>Cette\u00a0interruption\u00a0est pr\u00e9vue dans un plan de gestion visant la mise \u00e0 niveau de nos syst\u00e8mes d\u2019infrastructure. Ce type d\u2019entretien est effectu\u00e9 r\u00e9guli\u00e8rement afin d\u2019am\u00e9liorer le rendement et de pr\u00e9venir toute panne pouvant avoir des r\u00e9percussions sur les employ\u00e9s et la prestation des services du Minist\u00e8re.</p>\n<p>En cons\u00e9quence, les services suivants ne seront pas disponibles pendant la p\u00e9riode suivante.</p>\n<p><strong>Samedi 18 ao\u00fbt \u2013\u00a03 h \u00e0 6 h (HE)</strong></p>\n<ul>\n<li><strong><strong>Services de courriel @agr.gc.ca </strong></strong></li>\n<li>Espace de travail du savoir\n\t\n<ul style=\"list-style-type: disc;\">\n<li>Blogue sur Objectif 2020</li>\n<li>Am\u00e9lioration des processus d\u2019Objectif 2020 (Lean)</li>\n<li>Objectif 2020 \u2013 Dans l\u2019\u0153il du dragon</li>\n<li>Blogue du pr\u00e9sident de l\u2019ACIA</li>\n<li>Syst\u00e8me de soutien de l\u2019acc\u00e8s aux march\u00e9s (DGSIM-SSAM)</li>\n<li>Syst\u00e8me de soumission de propositions (GGST-SSP)</li>\n</ul>\n</li>\n<li>Mon IT Centre TI</li>\n<li>Skype Entreprise</li>\n</ul>\n<p>Si vous avez des questions ou des pr\u00e9occupations, n\u2019h\u00e9sitez pas \u00e0 communiquer avec le IT Centre TI.<br><br><br><strong>IT Centre TI<br>\n</strong>T\u00e9l\u00e9phone : 1-855-545-4411<br>\n<a href=\"http://assystweb.agr.gc.ca:8080/assystnet\">Mon IT Centre TI</a></p>\n<p><img src=\"https://intranet.agr.gc.ca/resources/prod/news/images/ITCentreTI2.png\" class=\"center-block\"></p>\n\t\t"
    },
    "breadcrumb": {
        "en": "Scheduled Maintenance of ISB Services Including Email Services - August 18",
        "fr": "Entretien pr\u00e9vu des services de la DGSI y compris les services de courriel - 18 ao\u00fbt"
    },
    "news": {
        "date_posted": {
            "en": "2018-08-15",
            "fr": "2018-08-15"
        },
        "to": {
            "en": "All staff",
            "fr": "Tous les employ\u00e9s"
        },
        "by": {
            "en": "IT Centre TI",
            "fr": "IT Centre TI"
        }
    }
}