{
    "dcr_id": "1534863714417",
    "lang": "en",
    "title": {
        "en": "This Week in The Harvest - SPROUT Student Tours 2018",
        "fr": "Au menu de La Moisson cette semaine - Visites des \u00e9tudiants du POUSSE en 2018"
    },
    "modified": "2018-08-23 00:00:00.0",
    "issued": "2018-08-23 00:00:00.0",
    "type_name": "intra-intra/news-nouv",
    "node_id": "1279030006975",
    "layout_name": null,
    "dc_date_created": "2018-08-21",
    "breadcrumb_label": "",
    "meta": {
        "issued": {
            "en": "2018-08-23",
            "fr": "2018-08-23"
        },
        "modified": {
            "en": "2018-08-23",
            "fr": "2018-08-23"
        },
        "format": {
            "en": "gcformat",
            "fr": "gcformat"
        },
        "title": {
            "en": "This Week in The Harvest - SPROUT Student Tours 2018",
            "fr": "Au menu de La Moisson cette semaine - Visites des \u00e9tudiants du POUSSE en 2018"
        },
        "subject": {
            "en": "communications",
            "fr": "communications"
        },
        "description": {
            "en": "In case you missed it, here's what's new in The Harvest this week.",
            "fr": "Au cas o\u00f9 vous l'auriez manqu\u00e9, voici le menu que la section La Moisson vous offre cette semaine."
        },
        "language": {
            "en": "eng",
            "fr": "fra"
        },
        "audience": {
            "en": "gcaudience",
            "fr": "gcaudience"
        },
        "creator": {
            "en": "Agriculture and Agri-Food Canada",
            "fr": "Agriculture et Agroalimentaire Canada"
        },
        "spatial": {
            "en": "gcregions",
            "fr": "gcregions"
        },
        "service": {
            "en": "AAFC_AgriSource",
            "fr": "AAC_AgriSource"
        },
        "accessRights": {
            "en": "3",
            "fr": "3"
        }
    },
    "body": {
        "en": "<br>\n<br>\n<p>In case you missed it, here\u2019s what\u2019s new in <a rel=\"external\" href=\"https://collab.agr.gc.ca/apps/harvest-moisson\">The Harvest</a> this week:</p>\n<p><strong>Feature story: </strong><a rel=\"external\" href=\"https://collab.agr.gc.ca/apps/harvest-moisson\">SPROUT Student Tours 2018</a> \u2013 On August 10, 2018, AAFC students took a tour of the Central Experimental Farm in Ottawa to gain insight into the historical and ongoing scientific research being conducted in the National Capital Region. A separate tour of the Canadian Grain Commission for students in Winnipeg, Manitoba, was also organized in August.</p>\n<p><strong>Poll: </strong><a rel=\"external\" href=\"https://collab.agr.gc.ca/apps/harvest-moisson\">What do you do to take a moment and decompress?</a></p>\n<p><strong>Feature photo:</strong><strong> </strong><a rel=\"external\" href=\"https://collab.agr.gc.ca/apps/harvest-moisson/gallery/Lists/Posts/Post.aspx?ID=211\">Sunset on the Bay of Fundy</a>, by Beata Lees, Science and Technology Branch, Kentville, Nova Scotia.</p>\n<p><strong>Did you know?</strong> <a rel=\"external\" href=\"https://collab.agr.gc.ca/apps/harvest-moisson/Pages/didyouknow.aspx\">Until 2012</a>, schools in farming communities across New Brunswick would start classes two weeks early, in August, and close for two weeks in late September. This was so that students could help with the potato harvest. The last \"potato break\" was in Carleton County, NB, in 2011.</p>\n<p>You can get involved by posting a comment or \u201cliking\u201d an article. You can also check out what your colleagues are liking and saying.</p>\n<p>Should you have story ideas, scenic or artistic agriculture-related photos, or interesting facts, please share them with us by clicking on \u201cContribute\u201d in the top menu bar.</p>\n<p><img src=\"https://intranet.agr.gc.ca/resources/prod/news/images/HarvestSproutFarmTour2018.png\" class=\"center-block\" alt=\"Students on the Central Experimental Farm in Ottawa.\"></p>\n\n\t\t",
        "fr": "<br>\n<br>\n<p>Au cas o\u00f9 vous l\u2019auriez manqu\u00e9, voici le menu que la section <a rel=\"external\" href=\"https://collab.agr.gc.ca/apps/harvest-moisson\">La Moisson</a> vous offre cette semaine :</p>\n<p><strong>Article vedette :</strong> <a rel=\"external\" href=\"https://collab.agr.gc.ca/apps/harvest-moisson\">Visites des \u00e9tudiants du POUSSE en 2018</a> \u2013 Le 10 ao\u00fbt 2018, les \u00e9tudiants d\u2019AAC ont visit\u00e9 la Ferme exp\u00e9rimentale centrale \u00e0 Ottawa pour avoir une id\u00e9e de la recherche historique et scientifique en cours dans la r\u00e9gion de la capitale nationale. En ao\u00fbt \u00e9galement, les \u00e9tudiants de Winnipeg, au Manitoba, ont visit\u00e9 la Commission canadienne des grains.</p>\n<p><strong>Sondage</strong><strong> : </strong><a rel=\"external\" href=\"https://collab.agr.gc.ca/apps/harvest-moisson\">Que faites-vous pour prendre une pause et d\u00e9compresser?</a></p>\n<p><strong>Photo vedette :</strong> <a rel=\"external\" href=\"https://collab.agr.gc.ca/apps/harvest-moisson/gallery/Lists/Posts/Post.aspx?ID=211\"> Coucher de soleil sur la baie de Fundy</a><em>, </em>par Beata Lees, Direction g\u00e9n\u00e9rale des sciences et de la technologie, Kentville (Nouvelle-\u00c9cosse).</p>\n<p><strong>Le saviez-vous?</strong> <a rel=\"external\" href=\"https://collab.agr.gc.ca/apps/harvest-moisson/Pages/didyouknow.aspx\">Jusqu\u2019en 2012</a>, les \u00e9coles dans les collectivit\u00e9s agricoles \u00e0 travers le Nouveau-Brunswick avaient leur rentr\u00e9e deux semaines plus t\u00f4t, au mois d\u2019ao\u00fbt, et fermaient pendant deux semaines \u00e0 la fin septembre, pour que les \u00e9l\u00e8ves puissent participer \u00e0 la r\u00e9colte de pommes de terre. La derni\u00e8re \u00ab rel\u00e2che de la pomme de terre \u00bb a eu lieu dans le comt\u00e9 de Carleton, au N.-B., en 2011.</p>\n<p>Vous pouvez participer en affichant des commentaires ou en utilisant la fonction \u00ab J\u2019aime \u00bb ou \u00ab Partager \u00bb pour exprimer votre appr\u00e9ciation d\u2019un article. Vous pouvez aussi aller voir ce que vos coll\u00e8gues aiment et ont \u00e0 dire.</p>\n<p>Si vous avez des id\u00e9es d\u2019articles, des photos de paysages ou \u00e0 caract\u00e8re artistique li\u00e9es \u00e0 l\u2019agriculture ou encore des faits int\u00e9ressants, veuillez nous en faire part en cliquant sur \u00ab Collaborer \u00bb dans la barre de menu en haut de la page.</p>\n<p><img src=\"https://intranet.agr.gc.ca/resources/prod/news/images/HarvestSproutFarmTour2018.png\" class=\"center-block\" alt=\"\u00c9tudiants \u00e0 la Ferme exp\u00e9rimentale centrale d\u2019Ottawa.\"></p>\n\t\t"
    },
    "breadcrumb": {
        "en": "This Week in The Harvest - SPROUT Student Tours 2018",
        "fr": "Au menu de La Moisson cette semaine - Visites des \u00e9tudiants du POUSSE en 2018"
    },
    "news": {
        "date_posted": {
            "en": "2018-08-23",
            "fr": "2018-08-23"
        },
        "to": {
            "en": "All staff",
            "fr": "Tous les employ\u00e9s"
        },
        "by": {
            "en": "Corporate Communications, Public Affairs Branch",
            "fr": "Communications minist\u00e9rielles, Direction g\u00e9n\u00e9rale des affaires publiques"
        }
    }
}