{
    "dcr_id": "1535467448770",
    "lang": "en",
    "title": {
        "en": "Reminder - NCR - 2018 GCWCC Launch Events",
        "fr": "Rappel - RCN - Activit\u00e9s de lancement de la CCMTGC de 2018"
    },
    "modified": "2018-09-12 00:00:00.0",
    "issued": "2018-08-30 00:00:00.0",
    "type_name": "intra-intra/news-nouv",
    "node_id": "1279030006975",
    "layout_name": null,
    "dc_date_created": "2018-08-28",
    "breadcrumb_label": "",
    "meta": {
        "issued": {
            "en": "2018-08-30",
            "fr": "2018-08-30"
        },
        "modified": {
            "en": "2018-09-12",
            "fr": "2018-09-13"
        },
        "format": {
            "en": "gcformat",
            "fr": "gcformat"
        },
        "title": {
            "en": "Reminder - NCR - 2018 GCWCC Launch Events",
            "fr": "Rappel - RCN - Activit\u00e9s de lancement de la CCMTGC de 2018"
        },
        "subject": {
            "en": "communications",
            "fr": "communications"
        },
        "description": {
            "en": "Join us as we launch the 2018 Campaign with two events in the NCR - at NHCAP and on the Central Experimental Farm!",
            "fr": "Joignez-vous \u00e0 nous pour le lancement de la Campagne de 2018 \u00e0 l'occasion de deux activit\u00e9s organis\u00e9es dans la RCN - au CACPA et \u00e0 la Ferme exp\u00e9rimentale centrale!"
        },
        "language": {
            "en": "eng",
            "fr": "fra"
        },
        "audience": {
            "en": "gcaudience",
            "fr": "gcaudience"
        },
        "creator": {
            "en": "Agriculture and Agri-Food Canada",
            "fr": "Agriculture et Agroalimentaire Canada"
        },
        "spatial": {
            "en": "gcregions",
            "fr": "gcregions"
        },
        "service": {
            "en": "AAFC_AgriSource",
            "fr": "AAC_AgriSource"
        },
        "accessRights": {
            "en": "3",
            "fr": "3"
        }
    },
    "body": {
        "en": "<br>\n<br>\n<p><img src=\"https://intranet.agr.gc.ca/resources/prod/news/images/GCWCCLaunch2018-EN.png\" class=\"pull-right mrgn-lft-md\" alt=\"GCWCC launch.\">The Government of Canada Workplace Charitable Campaign (<abbr title=\"Government of Canada Workplace Charitable Campaign\">GCWCC</abbr>) is just around the corner!</p>\n<p>\n<abbr title=\"Government of Canada Workplace Charitable Campaign\">GCWCC</abbr> enables us at AAFC to make impactful contributions to our communities in a simple and powerful way. This year, our goal is to raise $200,000 for the 86,000 registered charities in Canada.</p>\n<p>Join us as we launch the 2018 campaign with two events in the NCR\u2014at NHCAP and on the Central Experimental Farm! Come out and have fun with colleagues while learning more about the campaign, the different ways you can pledge, and the various charities that you can help to support within our community.</p>\n<h2><strong><abbr title=\"Government of Canada Workplace Charitable Campaign\">GCWCC</abbr> Launch Carnival</strong></h2>\n<p>\n<strong>Date:</strong> Thursday, September 20\n<br>\n<strong>Time:</strong> 12:30 to 2:30 p.m.<br><strong>Location:</strong> NHCAP Tower 6 cafeteria</p>\n<p>Come one, come all!</p>\n<ul>\n<li>Get your ticket in the morning from greeters at NHCAP entrances. Then come to the afternoon event and exchange your ticket to play carnival-themed games or to enjoy cotton candy, snow cones, or popcorn</li>\n<li>Enjoy more games or treats with a free-will donation</li>\n<li>Learn about and sign up for fun departmental events taking place throughout the campaign</li>\n</ul>\n<h2><strong><abbr title=\"Government of Canada Workplace Charitable Campaign\">GCWCC</abbr> Food Truck Launch and Tour de Farm</strong></h2>\n<p><strong>Date: </strong>Tuesday, September 18 (*rain date September 19)<br><strong>\nTime: </strong>11:30 a.m. to 1:30 p.m.<br><strong>\nLocation: </strong>South Entrance of K.W. Neatby</p>\n<p>Roll on up!</p>\n<ul>\n<li>Participate in or cheer on colleagues at the crowd\u2011favourite event, Tour de Farm (contact Bruce Radburn at <a href=\"mailto:bruce.radburn@agr.gc.ca\">bruce.radburn@agr.gc.ca</a>\u00a0to register)</li>\n<li>Purchase your lunch at one of the food trucks on-site</li>\n<li>Meet your canvassers</li>\n</ul>\n<h2><strong>Learn more</strong></h2>\n<p>Visit the <a rel=\"external\" href=\"https://collab.agr.gc.ca/co/gcwcc-support-ccmtgc/SitePages/GCWCC%20Home.aspx\">2018 <abbr title=\"Government of Canada Workplace Charitable Campaign\">GCWCC</abbr> Knowledge Workspace page</a> and watch news@work for more information about this year\u2019s campaign and other upcoming events.</p>\n<p><img src=\"https://intranet.agr.gc.ca/resources/prod/news/images/GCWCC2018-EN.png\" class=\"center-block\" alt=\"GCWCC: Cultivating our spirit of sharing.\"></p>\n\n\t\t",
        "fr": "<br>\n<br>\n<p><img src=\"https://intranet.agr.gc.ca/resources/prod/news/images/GCWCCLaunch2018-FR.png\" class=\"pull-right mrgn-lft-md\" alt=\"Le lancement de la CCMTGC.\">La Campagne de charit\u00e9 en milieu de travail du gouvernement du Canada (<abbr title=\"Campagne de charit\u00e9 en milieu de travail du gouvernement du Canada\">CCMTGC</abbr>) arrive \u00e0 grands pas!</p>\n<p>\nLa <abbr title=\"Campagne de charit\u00e9 en milieu de travail du gouvernement du Canada\">CCMTGC</abbr> permet aux employ\u00e9s d\u2019AAC d\u2019apporter d\u2019importantes contributions \u00e0 leurs communaut\u00e9s de fa\u00e7on simple et efficace. Cette ann\u00e9e, notre objectif est d\u2019amasser 200 000 dollars pour les 86 000 organismes de bienfaisance enregistr\u00e9s du Canada.</p>\n<p>Joignez-vous \u00e0 nous pour le lancement de la Campagne de 2018 \u00e0 l\u2019occasion de deux activit\u00e9s organis\u00e9es dans la RCN \u2013 au CACPA et \u00e0 la Ferme exp\u00e9rimentale centrale! Venez vous amuser avec vos coll\u00e8gues tout en en apprenant davantage sur la Campagne, sur les diff\u00e9rentes fa\u00e7ons de faire un don et sur les divers organismes de bienfaisance que vous pouvez aider dans votre communaut\u00e9.</p>\n<h2><strong>Carnaval de lancement de la <abbr title=\"Campagne de charit\u00e9 en milieu de travail du gouvernement du Canada\">CCMTGC</abbr></strong></h2>\n<p>\n<strong>Date :</strong> Jeudi 20 septembre<br><strong>Heure :</strong> 12 h 30 \u00e0 14 h 30<br><strong>Endroit :</strong> Caf\u00e9t\u00e9ria de la tour 6 du CACPA</p>\n<p>Venez en grand nombre!</p>\n<ul>\n<li>Obtenez votre billet le matin aupr\u00e8s d\u2019un pr\u00e9pos\u00e9 \u00e0 l\u2019accueil aux entr\u00e9es du CACPA. Revenez pour les activit\u00e9s de l\u2019apr\u00e8s-midi et pr\u00e9sentez votre billet pour jouer \u00e0 des jeux sur le th\u00e8me du carnaval ou pour d\u00e9guster de la barbe \u00e0 papa, des cornets glac\u00e9s ou du ma\u00efs souffl\u00e9.</li>\n<li>Participez \u00e0 d\u2019autres jeux ou r\u00e9galez-vous encore plus en faisant un don libre.</li>\n<li>Informez-vous sur les activit\u00e9s amusantes du Minist\u00e8re qui auront lieu pendant la Campagne et inscrivez-vous.</li>\n</ul>\n<h2><strong>Arriv\u00e9e des camions-restaurants et le \u00ab Tour de Farm \u00bb\u00a0de la <abbr title=\"Campagne de charit\u00e9 en milieu de travail du gouvernement du Canada\">CCMTGC</abbr></strong></h2>\n<p><strong>Date :</strong> Mardi 18 septembre (*19 septembre en cas de pluie)<br>\n<strong>Heure :</strong> 11 h 30 \u00e0 13 h 30<br>\n<strong>Endroit :</strong> Entr\u00e9e Sud de l\u2019\u00e9difice K.W. Neatby</p>\n<p>Une activit\u00e9 pour tous!</p>\n<ul>\n<li>Participez \u00e0 l\u2019activit\u00e9 pr\u00e9f\u00e9r\u00e9e du public, le Tour de Farm, ou venez encourager vos coll\u00e8gues (pour s\u2019inscrire, communiquez avec Bruce Radburn\u00a0\u00e0 <a href=\"mailto:bruce.radburn@agr.gc.ca\">bruce.radburn@agr.gc.ca</a>)</li>\n<li>Achetez votre d\u00eener \u00e0 l\u2019un des camions-restaurants sur place.</li>\n<li>Rencontrez vos solliciteurs.\u00a0</li>\n</ul>\n<h2><strong>Pour en savoir plus</strong></h2>\n<p>Consultez la <a href=\"https://collab.agr.gc.ca/co/gcwcc-support-ccmtgc/SitePages/GCWCC%20Home.aspx\">page de l\u2019espace de travail du savoir de la <abbr title=\"Campagne de charit\u00e9 en milieu de travail du gouvernement du Canada\">CCMTGC</abbr> de 2018</a> et les nouvelles@l\u2019ouvrage pour de plus amples informations sur la Campagne de cette ann\u00e9e et sur les autres activit\u00e9s \u00e0 venir.</p>\n<p><img src=\"https://intranet.agr.gc.ca/resources/prod/news/images/GCWCC2018-FR.png\" class=\"center-block\" alt=\"CCMTG : Cultivons l'esprit de g\u00e9n\u00e9rosit\u00e9.\"></p>\n\t\t"
    },
    "breadcrumb": {
        "en": "NCR - Reminder - NCR - 2018 GCWCC Launch Events",
        "fr": "RCN - Rappel - RCN - Activit\u00e9s de lancement de la CCMTGC de 2018"
    },
    "news": {
        "date_posted": {
            "en": "2018-08-30",
            "fr": "2018-08-30"
        },
        "to": {
            "en": "NCR only",
            "fr": "RCN seulement"
        },
        "by": {
            "en": "2018 GCWCC Organizing Committee",
            "fr": "Comit\u00e9 organisateur de la CCMTGC de 2018"
        }
    }
}