{
    "dcr_id": "1535641576405",
    "lang": "en",
    "title": {
        "en": "Trade Policy Analyst ",
        "fr": "Analyste des Politiques Commerciales "
    },
    "modified": "2018-08-31 00:00:00.0",
    "issued": "2018-08-31 00:00:00.0",
    "type_name": "intra-intra/empl-empl",
    "node_id": "1279029955397",
    "layout_name": null,
    "dc_date_created": "2018-08-31",
    "breadcrumb_label": "",
    "meta": {
        "issued": {
            "en": "2018-08-31",
            "fr": "2018-08-31"
        },
        "modified": {
            "en": "2018-08-31",
            "fr": "2018-08-31"
        },
        "format": {
            "en": "gcformat",
            "fr": "gcformat"
        },
        "title": {
            "en": "Trade Policy Analyst ",
            "fr": "Analyste des Politiques Commerciales "
        },
        "subject": {
            "en": "staffing",
            "fr": "dotation en personnel"
        },
        "language": {
            "en": "eng",
            "fr": "fra"
        },
        "audience": {
            "en": "gcaudience",
            "fr": "gcaudience"
        },
        "type": {
            "en": "notice",
            "fr": "avis"
        },
        "creator": {
            "en": "Agriculture and Agri-Food Canada",
            "fr": "Agriculture et Agroalimentaire Canada"
        },
        "spatial": {
            "en": "gcregions",
            "fr": "gcregions"
        },
        "service": {
            "en": "AAFC_AgriSource",
            "fr": "AAC_AgriSource"
        },
        "accessRights": {
            "en": "3",
            "fr": "3"
        }
    },
    "body": {
        "en": "\n<p>Employees of Agriculture and Agri-Food Canada at the EC-02/EC-03/EC-04 level in the EC Development Program are invited to express their interest in an assignment opportunity in the Americas division of the Market Access Secretariat. The position is a 12 month assignment.</p>\n<p>Successful candidates will be responsible for conducting international trade policy analysis pertaining to Canada\u2019s agriculture issues with the United States. This involves working closely with a number of key players including portfolio colleagues, other government departments, posts abroad, and industry. Duties will include analyzing and making recommendations for senior management on major foreign trade policy developments that could impact the Canadian agri-food sector. Tasks may also include organizing activities and developing advocacy tools to strengthen our bilateral relationship.</p>\n<p>Candidates should have strong analytical, communication and writing skills, as well as good judgement and initiative.</p>\n<p>Candidates should be willing to work overtime occasionally.</p>\n<p>Candidates must have their manager\u2019s approval prior to applying to an assignment opportunity. </p>\n<p>Interested? Send your resume and a cover letter explaining why you are interested in this opportunity to Jean-Francois Lefier (<a href=\"mailto:Jean-Francois.Lefier@AGR.GC.CA\">Jean-Francois.Lefier@AGR.GC.CA</a>) before the deadline.</p>\n",
        "fr": "\n<p>On invite les employ\u00e9s d\u2019Agriculture et Agroalimentaire Canada de niveau EC\u201102, EC\u201103 ou EC\u201104 qui participent au Programme de perfectionnement des EC \u00e0 faire part de leur int\u00e9r\u00eat pour une occasion d\u2019affectation au sein de la Division des Am\u00e9riques du Secr\u00e9tariat de l\u2019acc\u00e8s aux march\u00e9s. Le poste sera pourvu au moyen d\u2019une affectation de 12 mois.</p>\n<p>Les candidats retenus auront la responsabilit\u00e9 d\u2019analyser les politiques commerciales internationales concernant les enjeux propres \u00e0 l\u2019agriculture entre le Canada et les \u00c9tats-Unis. Pour ce faire, ils devront travailler \u00e9troitement avec un certain nombre d\u2019intervenants cl\u00e9s du portefeuille, d\u2019autres minist\u00e8res, des missions \u00e0 l\u2019\u00e9tranger et de l\u2019industrie. Les t\u00e2ches consisteront \u00e0 mener des analyses et \u00e0 formuler des recommandations \u00e0 la haute direction en mati\u00e8re d\u2019\u00e9laboration de politiques portant sur le commerce ext\u00e9rieur pouvant avoir une incidence sur le secteur agroalimentaire au Canada. Les t\u00e2ches pourraient aussi inclure l\u2019organisation d\u2019activit\u00e9s et la conception d\u2019outils de promotion visant \u00e0 renforcer nos relations bilat\u00e9rales.</p>\n<p>Les candidats doivent poss\u00e9der de solides comp\u00e9tences en analyse, en communication et en r\u00e9daction, en plus de faire preuve de jugement et d\u2019esprit d\u2019initiative.</p>\n<p>Les candidats doivent \u00eatre pr\u00eats \u00e0 faire des heures suppl\u00e9mentaires, \u00e0 l\u2019occasion.</p>\n<p>\nLes candidats doivent obtenir l\u2019approbation de leur gestionnaire avant de poser leur candidature pour une affectation.</p>\n<p>Si cette occasion vous int\u00e9resse, veuillez envoyer \u00e0 Jean-Francois Lefier (<a href=\"mailto:Jean-Francois.Lefier@AGR.GC.CA\">Jean-Francois.Lefier@AGR.GC.CA</a>) votre curriculum vit\u00e6 ainsi qu\u2019une lettre de pr\u00e9sentation dans laquelle vous expliquez les raisons de votre int\u00e9r\u00eat.</p>\n\n"
    },
    "breadcrumb": {
        "en": "Trade Policy Analyst",
        "fr": "Analyste des Politiques Commerciales"
    },
    "empl": {
        "type": {
            "en": "Assignment",
            "fr": "Affectation"
        },
        "classification": {
            "en": "EC-2, EC-3, EC-4",
            "fr": "EC-2, EC-3, EC-4"
        },
        "branch": {
            "en": "Market and Industry Services Branch",
            "fr": "Direction g\u00e9n\u00e9rale des services \u00e0 l'industrie et aux march\u00e9s"
        },
        "locations": {
            "en": "National Capital Region",
            "fr": "R\u00e9gion de la capitale nationale"
        },
        "date_closing": {
            "en": "2018-09-12",
            "fr": "2018-09-12"
        },
        "open_to": {
            "en": "Employees of Agriculture and Agri-Food Canada at the EC-02/EC-03/EC-04 level in the EC Development Program",
            "fr": "les employ\u00e9s d\u2019Agriculture et Agroalimentaire Canada de niveau EC 02, EC 03 ou EC 04 qui participent au Progra"
        },
        "name": {
            "en": "Jean-Francois Lefier",
            "fr": "Jean-Francois Lefier"
        },
        "email": {
            "en": "Jean-Francois.Lefier@agr.gc.ca",
            "fr": "Jean-Francois.Lefier@agr.gc.ca"
        }
    }
}