{
    "dcr_id": "1535574184962",
    "lang": "en",
    "title": {
        "en": "Market Research Analyst",
        "fr": "Analyste en recherche sur les march\u00e9s internationaux"
    },
    "modified": "2018-09-13 00:00:00.0",
    "issued": "2018-09-04 00:00:00.0",
    "type_name": "intra-intra/empl-empl",
    "node_id": "1279029955397",
    "layout_name": null,
    "dc_date_created": "2018-08-30",
    "breadcrumb_label": "",
    "meta": {
        "issued": {
            "en": "2018-09-04",
            "fr": "2018-09-04"
        },
        "modified": {
            "en": "2018-09-13",
            "fr": "2018-09-13"
        },
        "format": {
            "en": "gcformat",
            "fr": "gcformat"
        },
        "title": {
            "en": "Market Research Analyst",
            "fr": "Analyste en recherche sur les march\u00e9s internationaux"
        },
        "subject": {
            "en": "staffing",
            "fr": "dotation en personnel"
        },
        "language": {
            "en": "eng",
            "fr": "fra"
        },
        "audience": {
            "en": "gcaudience",
            "fr": "gcaudience"
        },
        "type": {
            "en": "notice",
            "fr": "avis"
        },
        "creator": {
            "en": "Agriculture and Agri-Food Canada",
            "fr": "Agriculture et Agroalimentaire Canada"
        },
        "spatial": {
            "en": "gcregions",
            "fr": "gcregions"
        },
        "service": {
            "en": "AAFC_AgriSource",
            "fr": "AAC_AgriSource"
        },
        "accessRights": {
            "en": "3",
            "fr": "3"
        }
    },
    "body": {
        "en": "\n<p><strong>\u00a0</strong></p>\n<p>\u2022 For those who are currently enrolled in the EC Development program (ECDP): Please note that consistent with the objectives of the program, acting opportunities are not allowed. Only assignments at the EC-5 level are available. </p>\n<p>\u2022 For those who are not currently enrolled in the EC Development program (ECDP): Assignments at the EC-5 and equivalent level or acting opportunities will be considered. </p>\n<p><strong>\u00a0</strong></p>\n<p><strong>Duties:</strong><br>\nThe Global Analysis Group is responsible for providing market intelligence and analysis to Industry and to the Market Access Secretariat as well as to Senior AAFC officials and Communications. The Group provides a holistic and strategic solution to servicing internal and external clients and is looking for creative analysts to deliver its mandate. The work entails conducting market research and analysis and developing tools to better support market development in the identification of foreign market opportunities for industry and to support market access priorities and work plans.</p>\n<p><strong>Statement of Merit Criteria &amp; Conditions of Employment</strong></p>\n<p><strong>Essential Qualifications</strong><br>\nLanguage Requirement: Bilingual imperative BBB/BBB<br>\n<br>\nGraduation with a degree from a recognized university with acceptable specialization in economics, sociology, or statistics.</p>\n<p>Experience in one or more of the following areas:</p>\n<p>1.audit and evaluation functions<br>\n2.program evaluation functions<br>\n3.quantitative research<br>\n4.qualitative research<br>\n5.econometrics<br>\n6.strategic planning<br>\n7.trade policy analysis<br>\n8.environmental policy analysis<br>\n9.rural analysis<br>\n10. policy analysis<br>\n11. market analysis<br>\n12. statistical analysis<br>\n13. sociological analysis<br>\n14. economic analysis<br>\n15.science policy analysis</p>\n<p>Experience preparing research and analysis<br>\nExperience reporting and presenting research or analysis findings<br>\nExperience providing advice and recommendation to management<br>\nExperience participating on projects and/or working groups</p>\n<p>Knowledge of policy environment/issues and trends<br>\nKnowledge of economic, or sociological or statistical principles, practices, techniques, tools and/or methods</p>\n<p>Adaptability<br>\nAnalytical Thinking<br>\nInitiative<br>\nInteractive Communication<br>\nJudgment<br>\nTeamwork<br>\nWriting Skills</p>\n<p><strong>Asset Qualifications </strong><br>\n<br>\nCourses or degree in economics or regional or sectoral development or in rural or co-operative development<br>\nCourses or degrees in international trade</p>\n<p>Experience working with external stakeholders (e.g., non-governmental organizations, provinces, other departments, etc.) as it relates to field of work.</p>\n<p>Knowledge of the agriculture industry and its component sectors as it relates to the mandate of the department<br>\nKnowledge of AAFC priorities, objectives, structure and processes<br>\nKnowledge of external partners and/or stakeholders and/or fora (e.g., governmental and non-governmental organizations, provinces, other departments, etc.) pertaining to field of work.</p>\n<p><strong>Conditions of employment: </strong><br>\nAbility and willingness to work overtime including evenings and weekends<br>\nReliability Status security clearance</p>\n<p><strong>Applications:</strong> Interested AAFC employees located in the NCR are encouraged to forward their resume and cover letter to <a href=\"mailto:Marc.Gervais@AGR.GC.CA\">Marc.Gervais@AGR.GC.CA</a> by September 21, 2018. Resumes must clearly identify your tenure (e.g. term or indeterminate) and your substantive group and level.</p>\n<p>\u2022Communication for this process will be sent via email.<br>\u2022Candidates must have their manager\u2019s approval prior to applying to an assignment opportunity.</p>\n<p>\u00a0</p>\n",
        "fr": "\n<p><strong>\u00a0</strong></p>\n<p>\u2022 Pour les employ\u00e9s inscrits actuellement au Programme de perfectionnement des EC (PPEC) : Veuillez prendre note qu\u2019il n\u2019est pas permis d\u2019offrir des possibilit\u00e9s de nomination int\u00e9rimaire conform\u00e9ment aux objectifs du programme. Seules des affectations au niveau EC-5 seront offertes. </p>\n<p>\u2022 Pour les employ\u00e9s non inscrits actuellement au Programme de perfectionnement des EC (PPEC) : Les possibilit\u00e9s d\u2019affectation au m\u00eame niveau ou de nomination int\u00e9rimaire seront prises en consid\u00e9ration. </p>\n<p><strong>Fonctions:</strong><br>\nLe Groupe des analyses des march\u00e9s mondiaux est responsable de fournir des renseignements commerciaux et des analyses de march\u00e9s \u00e0 l\u2019industrie en pr\u00e9cisant les d\u00e9bouch\u00e9s. Le Groupe offre une solution holistique et strat\u00e9gique en mati\u00e8re de prestation de services \u00e0 l\u2019intention des clients internes et externes et recherche des analystes cr\u00e9atifs pour concr\u00e9tiser son mandat. L\u2019occupant de la fonction devra effectuer des analyses et des recherches de march\u00e9s et devra d\u00e9velopper des outils d\u2019analyses qui permettent l\u2018identification d\u2019opportunit\u00e9s dans les march\u00e9s \u00e9trangers pour l\u2019industrie agro-alimentaire en support aux priorit\u00e9s de l\u2019acc\u00e8s aux march\u00e9s et aux plans de travail de la direction.</p>\n<p><strong>\u00c9nonc\u00e9 des crit\u00e8res de m\u00e9rite et des conditions d\u2019emploi</strong></p>\n<p><strong>Qualifications essentielles</strong><br>\nExigences linguistiques : Bilingue imp\u00e9ratif BBB/BBB</p>\n<p>Un grade d\u2019un \u00e9tablissement d\u2019enseignement postsecondaire reconnu avec sp\u00e9cialisation acceptable en \u00e9conomie, en sociologie ou en statistique.</p>\n<p>Exp\u00e9rience dans au moins un des domaines suivants</p>\n<p>1. Fonctions de v\u00e9rification et d'\u00e9valuation;<br>\n2. Fonctions d\u2019\u00e9valuation de programmes;<br>\n3. Recherche quantitative;<br>\n4. Recherche qualitative;<br>\n5. \u00c9conom\u00e9trie;<br>\n6. Planification strat\u00e9gique;<br>\n7. Analyse de politiques commerciales;<br>\n8. Analyse de politiques environnementales;<br>\n9. Analyse rurale;<br>\n10. Analyse de politiques;<br>\n11. Analyse du march\u00e9;<br>\n12. Analyse statistique;<br>\n13. Analyse sociologique;<br>\n14. Analyse \u00e9conomique.<br>\n15. Analyse de politiques scientifiques</p>\n<p>Exp\u00e9rience de la pr\u00e9paration de recherches et d\u2019analyses.<br>\nExp\u00e9rience de la pr\u00e9sentation de r\u00e9sultats de recherches et d\u2019analyses et de la production de rapports connexes.<br>\nExp\u00e9rience de la formulation de conseils et de recommandations \u00e0 l\u2019intention de la direction.<br>\nExp\u00e9rience de la participation aux activit\u00e9s de groupes de travail ou de projets.<br>\n<br>\nConnaissance des enjeux et des tendances en mati\u00e8re de politique.<br>\nConnaissance des principes, des pratiques, des techniques, des outils et/ou des m\u00e9thodes se rapportant \u00e0 l\u2019\u00e9conomie, la sociologie ou la statistique.</p>\n<p>R\u00e9flexion analytique<br>\nCommunication interactive<br>\nComp\u00e9tences en r\u00e9daction<br>\nEsprit d\u2019\u00e9quipe<br>\nEsprit d\u2019initiative<br>\nFacult\u00e9 d\u2019adaptation<br>\nJugement</p>\n<p><strong>Qualifications constituant un atout</strong></p>\n<p>Cours ou dipl\u00f4me en \u00e9conomie , en d\u00e9veloppement r\u00e9gional ou sectoriel, ou en d\u00e9veloppement rural ou coop\u00e9ratif.<br>\nCours ou dipl\u00f4mes en commerce ou en commerce international.</p>\n<p>Exp\u00e9rience du travail avec des intervenants de l\u2019ext\u00e9rieur (p. ex. des organismes non gouvernementaux, des provinces ou d\u2019autres minist\u00e8res) en lien avec le domaine de travail.</p>\n<p>Connaissance de l\u2019industrie agricole et de ses secteurs en lien avec le mandat du Minist\u00e8re.<br>\nConnaissance des priorit\u00e9s, des objectifs, de la structure et des processus d\u2019AAC.<br>\nConnaissance des partenaires, des intervenants ou des forums de l\u2019ext\u00e9rieur (p. ex. des organismes gouvernementaux ou non gouvernementaux, des provinces et d\u2019autres minist\u00e8res) en lien avec le domaine de travail.<br>\n<br>\n<strong>Conditions d'emploi:</strong><br>\nConsentir \u00e0 effectuer des heures suppl\u00e9mentaires et habilet\u00e9 de le faire.<br>\nAutorisation s\u00e9curitaire Cote de fiabilit\u00e9</p>\n<p><strong>Demandes :</strong> Les employ\u00e9s d\u2019AAC dans la RCN qui souhaitent poser leur candidature sont invit\u00e9s \u00e0 envoyer leur curriculum vitae et une lettre de pr\u00e9sentation \u00e0 <a href=\"mailto:Marc.Gervais@AGR.GC.CA\">Marc.Gervais@AGR.GC.CA</a> d\u2019ici le\u00a021 septembre, 2018. Dans leur curriculum vitae, les candidats doivent indiquer clairement la dur\u00e9e de leur emploi (p. ex. d\u00e9termin\u00e9e ou ind\u00e9termin\u00e9e) ainsi que leur groupe et niveau de poste d'attache.</p>\n<p>\u2022Les communications relatives \u00e0 ce processus seront envoy\u00e9es par courriel.<br>\u2022Les candidats doivent obtenir l\u2019approbation de leur gestionnaire avant de poser leur candidature pour une affectation.</p>\n<p>\u00a0</p>\n\n"
    },
    "breadcrumb": {
        "en": "Market Research Analyst",
        "fr": "Analyste en recherche sur les march\u00e9s internationaux"
    },
    "empl": {
        "type": {
            "en": "Assignment, Acting",
            "fr": "Affectation, Int\u00e9rimaire"
        },
        "classification": {
            "en": "EC-5, EC-2, EC-3, EC-4 and equivalent",
            "fr": "EC-5, EC-2, EC-3, EC-4 et \u00e9quivalent"
        },
        "branch": {
            "en": "Market and Industry Services Branch",
            "fr": "Direction g\u00e9n\u00e9rale des services \u00e0 l'industrie et aux march\u00e9s"
        },
        "locations": {
            "en": "NCR",
            "fr": "RCN"
        },
        "date_closing": {
            "en": "2018-09-21",
            "fr": "2018-09-21"
        },
        "open_to": {
            "en": "AAFC employees in the National Capital Region",
            "fr": "Les employ\u00e9s d'AAC dans la r\u00e9gion de la capitale nationale"
        },
        "name": {
            "en": "Marc Gervais",
            "fr": "Marc Gervais"
        },
        "email": {
            "en": "Marc.Gervais@agr.gc.ca",
            "fr": "Marc.Gervais@agr.gc.ca"
        }
    }
}