{
    "dcr_id": "1535736770292",
    "lang": "en",
    "title": {
        "en": "Scheduled Maintenance of ISB Services - September 7-9",
        "fr": "Entretien pr\u00e9vu des services de la DGSI - Du 7 au 9 septembre"
    },
    "modified": "2018-09-07 00:00:00.0",
    "issued": "2018-09-05 00:00:00.0",
    "type_name": "intra-intra/news-nouv",
    "node_id": "1279030006975",
    "layout_name": null,
    "dc_date_created": "2018-08-31",
    "breadcrumb_label": "",
    "meta": {
        "issued": {
            "en": "2018-09-05",
            "fr": "2018-09-05"
        },
        "modified": {
            "en": "2018-09-07",
            "fr": "2018-09-07"
        },
        "format": {
            "en": "gcformat",
            "fr": "gcformat"
        },
        "title": {
            "en": "Scheduled Maintenance of ISB Services - September 7-9",
            "fr": "Entretien pr\u00e9vu des services de la DGSI - Du 7 au 9 septembre"
        },
        "subject": {
            "en": "communications",
            "fr": "communications"
        },
        "description": {
            "en": "Please be advised that preventative maintenance of ISB services will be performed from Friday, September 7 to Sunday, September 9, 2018.",
            "fr": "Veuillez prendre note qu'un entretien pr\u00e9ventif des services de la DGSI aura lieu du vendredi 7 septembre au dimanche 9 septembre 2018."
        },
        "language": {
            "en": "eng",
            "fr": "fra"
        },
        "audience": {
            "en": "gcaudience",
            "fr": "gcaudience"
        },
        "creator": {
            "en": "Agriculture and Agri-Food Canada",
            "fr": "Agriculture et Agroalimentaire Canada"
        },
        "spatial": {
            "en": "gcregions",
            "fr": "gcregions"
        },
        "service": {
            "en": "AAFC_AgriSource",
            "fr": "AAC_AgriSource"
        },
        "accessRights": {
            "en": "3",
            "fr": "3"
        }
    },
    "body": {
        "en": "<br>\n<br>\n<p>Please be advised that preventative maintenance of ISB services will be performed from Friday, September 7 to Sunday, September 9, 2018.</p>\n<p>The following downtimes are part of a management plan to upgrade our infrastructure systems. These measures are performed regularly to improve performance and ensure that the department does not experience any outages that would affect employees and the delivery of our services.</p>\n<p>Consequently, the following services will not be available during the following times.</p>\n<p><strong>Friday, September 7 \u2013 7:00 p.m. until Sunday, September 9 - 8:00 p.m. (ET)</strong></p>\n<ul>\n<li>ccmMercury</li>\n<li>ccmEnterprise</li>\n</ul>\n<p><strong>Friday, September\u00a07 \u2013 6:00 p.m. until Sunday, September 9 - 8:00 p.m. (ET)</strong></p>\n<ul>\n<li>Phoenix</li>\n<li>My GCHR</li>\n<li>Compensation Web Application</li>\n<li>Managed Secure File Transfer</li>\n<li>Canada Website</li>\n</ul>\n<p>Should you have any questions or concerns, please do not hesitate to contact IT Centre TI.</p>\n<p>\u00a0</p>\n<p><strong>IT Centre TI<br>\n</strong>Telephone: 1-855-545-4411<br>\n<a href=\"http://assystweb.agr.gc.ca:8080/assystnet\">My IT Centre TI</a></p>\n<p><img src=\"https://intranet.agr.gc.ca/resources/prod/news/images/ITCentreTI2.png\" class=\"center-block\" alt=\"IT Centre TI\"></p>\n\n\t\t",
        "fr": "<br>\n<br>\n<p>Veuillez prendre note qu\u2019un entretien pr\u00e9ventif des services de la DGSI aura lieu du vendredi\u00a07 septembre au\u00a0dimanche\u00a09 septembre 2018.</p>\n<p>Les interruptions suivantes font partie d\u2019un plan de gestion pour mettre \u00e0 niveau nos syst\u00e8mes d\u2019infrastructure. Ces entretiens sont faits r\u00e9guli\u00e8rement pour am\u00e9liorer le rendement des syst\u00e8mes et veiller \u00e0 ce que le Minist\u00e8re ne subisse pas de pannes pouvant nuire aux employ\u00e9s et \u00e0 la prestation de nos services.</p>\n<p>En cons\u00e9quence, les services suivants ne seront pas accessibles au cours des p\u00e9riodes suivantes :</p>\n<p><strong>De 19 h le vendredi 7 septembre \u00e0 20 h le dimanche 9 septembre (HE)</strong></p>\n<ul>\n<li>ccmMercury</li>\n<li>ccmEnterprise</li>\n</ul>\n<p><strong>De 18 h le vendredi 7 septembre \u00e0 20 h le dimanche 9 septembre (HE)</strong></p>\n<ul>\n<li>Ph\u00e9nix</li>\n<li>MesRHGC</li>\n<li>Applications Web de la r\u00e9mun\u00e9ration</li>\n<li>Services g\u00e9r\u00e9s de transfert s\u00e9curis\u00e9 de fichiers</li>\n<li>Site Web du Canada</li>\n</ul>\n<p>Si vous avez des questions ou des pr\u00e9occupations \u00e0 ce sujet, n\u2019h\u00e9sitez pas \u00e0 communiquer avec le\u00a0IT Centre TI.</p>\n<p>\u00a0</p>\n<p><strong>IT Centre TI<br>\n</strong>T\u00e9l\u00e9phone : 1-855-545-4411<br>\n<a href=\"http://assystweb.agr.gc.ca:8080/assystnet\">Mon IT Centre TI</a></p>\n<p><img src=\"https://intranet.agr.gc.ca/resources/prod/news/images/ITCentreTI2.png\" class=\"center-block\" alt=\"IT Centre TI\"></p>\n\t\t"
    },
    "breadcrumb": {
        "en": "Scheduled Maintenance of ISB Services - September 7-9",
        "fr": "Entretien pr\u00e9vu des services de la DGSI - Du 7 au 9 septembre"
    },
    "news": {
        "date_posted": {
            "en": "2018-09-05",
            "fr": "2018-09-05"
        },
        "to": {
            "en": "All staff",
            "fr": "Tous les employ\u00e9s"
        },
        "by": {
            "en": "IT Centre TI",
            "fr": "IT Centre TI"
        }
    }
}