{
    "dcr_id": "1535463155787",
    "lang": "en",
    "title": {
        "en": "Display Changes for Benefit Enrollments in Phoenix Self Service",
        "fr": "Changements \u00e0 l'affichage des  inscriptions aux avantages sociaux dans le libre-service de Ph\u00e9nix"
    },
    "modified": "2018-08-30 00:00:00.0",
    "issued": "2018-08-30 00:00:00.0",
    "type_name": "intra-intra/news-nouv",
    "node_id": "1279030006975",
    "layout_name": null,
    "dc_date_created": "2018-08-28",
    "breadcrumb_label": "",
    "meta": {
        "issued": {
            "en": "2018-08-30",
            "fr": "2018-08-30"
        },
        "modified": {
            "en": "2018-08-30",
            "fr": "2018-08-30"
        },
        "format": {
            "en": "gcformat",
            "fr": "gcformat"
        },
        "title": {
            "en": "Display Changes for Benefit Enrollments in Phoenix Self Service",
            "fr": "Changements \u00e0 l'affichage des  inscriptions aux avantages sociaux dans le libre-service de Ph\u00e9nix"
        },
        "subject": {
            "en": "communications",
            "fr": "communications"
        },
        "description": {
            "en": "Public Services and Procurement Canada has made modifications to the \"Benefits Summary\" page in Phoenix's Employee Self Service.",
            "fr": "Services publics et Approvisionnement Canada a apport\u00e9 des modifications \u00e0 la page \u00ab Sommaire avantages \u00bb dans le libre-service de Ph\u00e9nix pour les employ\u00e9s."
        },
        "language": {
            "en": "eng",
            "fr": "fra"
        },
        "audience": {
            "en": "gcaudience",
            "fr": "gcaudience"
        },
        "creator": {
            "en": "Agriculture and Agri-Food Canada",
            "fr": "Agriculture et Agroalimentaire Canada"
        },
        "spatial": {
            "en": "gcregions",
            "fr": "gcregions"
        },
        "service": {
            "en": "AAFC_AgriSource",
            "fr": "AAC_AgriSource"
        },
        "accessRights": {
            "en": "3",
            "fr": "3"
        }
    },
    "body": {
        "en": "<br>\n<br>\n<p>Public Services and Procurement Canada has made modifications to the \u201cBenefits Summary\u201d page in Phoenix\u2019s Employee Self Service. Employees will now be able to view their coverage status, the effective date of coverage and their certificate number or Individual Agency Number for Dental Care Plan, Public Service Management Insurance Plan, Disability or Long-Term Disability Plan in the Phoenix pay system.</p>\n<p>For the latest information related to pay, including troubleshooting tips, consult <a href=\"http://intranet.agr.gc.ca/agrisource/eng/human-resources/pay-and-benefits/phoenix-pay-system-issues?id=1511367056518\">Phoenix pay system issues</a>.</p>\n<p><img src=\"https://intranet.agr.gc.ca/resources/prod/news/images/pheonix2-eng.png\" class=\"center-block\" alt=\"\"></p>\n\n\t\t",
        "fr": "<br>\n<br>\n<p>Services publics et Approvisionnement Canada a apport\u00e9 des modifications \u00e0 la page \u00ab Sommaire avantages \u00bb dans le libre-service de Ph\u00e9nix pour les employ\u00e9s. Ces derniers pourront d\u00e9sormais voir l\u2019\u00e9tat de leur protection, la date d\u2019entr\u00e9e en vigueur de la protection et leur num\u00e9ro de certificat ou le num\u00e9ro individuel de l\u2019organisme pour le R\u00e9gime de soins dentaires, le R\u00e9gime d\u2019assurance pour les cadres de gestion de la Fonction publique, le R\u00e9gime d\u2019assurance-invalidit\u00e9 ou le R\u00e9gime d\u2019assurance-invalidit\u00e9 de longue dur\u00e9e dans le syst\u00e8me de paye Ph\u00e9nix.</p>\n<p>Pour obtenir les derni\u00e8res nouvelles concernant la paye et des conseils de d\u00e9pannage,\u00a0consulter\u00a0<a href=\"http://intranet.agr.gc.ca/agrisource/fra/ressources-humaines/remuneration-et-avantages-sociaux/problemes-lies-au-systeme-de-paye-phenix?id=1511367056518\">les probl\u00e8mes li\u00e9s au syst\u00e8me de paye Ph\u00e9nix</a>.</p>\n<p><img src=\"https://intranet.agr.gc.ca/resources/prod/news/images/pheonix2-fra.png\" class=\"center-block\"></p>\n\t\t"
    },
    "breadcrumb": {
        "en": "Display Changes for Benefit Enrollments in Phoenix Self Service",
        "fr": "Changements \u00e0 l'affichage des inscriptions aux avantages sociaux dans le libre-service de Ph\u00e9nix"
    },
    "news": {
        "date_posted": {
            "en": "2018-08-30",
            "fr": "2018-08-30"
        },
        "to": {
            "en": "All staff",
            "fr": "Tous les employ\u00e9s"
        },
        "by": {
            "en": "Public Services and Procurement Canada",
            "fr": "Services publics et Approvisionnement Canada"
        }
    }
}