{
    "dcr_id": "1535738052653",
    "lang": "en",
    "title": {
        "en": "The September Edition of CUE Now Available",
        "fr": "Le num\u00e9ro de septembre de l'AIDE-M\u00c9MOIRE est maintenant disponible "
    },
    "modified": "2019-02-07 00:00:00.0",
    "issued": "2018-09-06 00:00:00.0",
    "type_name": "intra-intra/news-nouv",
    "node_id": "1279030006975",
    "layout_name": null,
    "dc_date_created": "2018-08-31",
    "breadcrumb_label": "",
    "meta": {
        "issued": {
            "en": "2018-09-06",
            "fr": "2018-09-06"
        },
        "modified": {
            "en": "2019-02-07",
            "fr": "2019-02-07"
        },
        "format": {
            "en": "gcformat",
            "fr": "gcformat"
        },
        "title": {
            "en": "The September Edition of CUE Now Available",
            "fr": "Le num\u00e9ro de septembre de l'AIDE-M\u00c9MOIRE est maintenant disponible "
        },
        "subject": {
            "en": "communications",
            "fr": "communications"
        },
        "description": {
            "en": "<I>CUE: a quick reference tool for managers</I> - the information you need and speaking points to help you deliver it to employees is at your fingertips.",
            "fr": "AIDE-M\u00c9MOIRE : un outil de r\u00e9f\u00e9rence rapide pour les gestionnaires - l'information dont vous avez besoin et les notes d'allocution pour la communiquer aux employ\u00e9s sont \u00e0 votre disposition."
        },
        "language": {
            "en": "eng",
            "fr": "fra"
        },
        "audience": {
            "en": "gcaudience",
            "fr": "gcaudience"
        },
        "creator": {
            "en": "Agriculture and Agri-Food Canada",
            "fr": "Agriculture et Agroalimentaire Canada"
        },
        "spatial": {
            "en": "gcregions",
            "fr": "gcregions"
        },
        "service": {
            "en": "AAFC_AgriSource",
            "fr": "AAC_AgriSource"
        },
        "accessRights": {
            "en": "3",
            "fr": "3"
        }
    },
    "body": {
        "en": "<br>\n<br>\n<p><em>CUE: a quick reference tool for managers</em>\u00a0-\u00a0the information you need and speaking points to help you deliver it to employees is\u00a0at your fingertips. </p>\n<p>Content is updated as new information becomes available. </p>\n<p>Bookmark and <a href=\"http://intranet.agr.gc.ca/agrisource/eng/branches-and-offices/public-affairs-branch/corporate-communications?id=1297348464656\">download <em>CUE</em></a> to continue the dialogue with your team today.</p>\n<p>Included in this month\u2019s edition:</p>\n<ul>\n<li>ISB updates on new mobility devices, Windows upgrades, and email transformation</li>\n<li>Public Service Employee Survey (<abbr title=\"Public Service Employee Survey \">PSES</abbr>) 2018</li>\n<li>Government of Canada Workplace Charitable Campaign (<abbr title=\"Government of Canada Workplace Charitable Campaign \">GCWCC</abbr>)</li>\n<li>Update on market access and market development</li>\n<li>Results and Delivery update</li>\n</ul>\n<p><img src=\"https://intranet.agr.gc.ca/resources/prod/news/images/CUE-EN.png\" class=\"center-block\" alt=\"CUE: a quick reference tool for managers\"></p>\n\n\t\t",
        "fr": "<br>\n<br>\n<p><em>AIDE-M\u00c9MOIRE : un outil de r\u00e9f\u00e9rence rapide pour les gestionnaires</em>\u00a0\u2013 l\u2019information dont vous avez besoin et les notes d\u2019allocution pour la communiquer aux employ\u00e9s sont \u00e0 votre disposition. </p>\n<p>Le document est mis \u00e0 jour d\u00e8s que de nouveaux renseignements sont obtenus.</p>\n<p><a href=\"http://intranet.agr.gc.ca/agrisource/fra/directions-generales-et-bureaux/direction-generale-des-affaires-publiques/communications-ministerielles?id=1297348464656\">T\u00e9l\u00e9chargez<em> l\u2019AIDE-M\u00c9MOIRE</em></a> et mettez-le dans vos favoris afin de poursuivre le dialogue avec votre \u00e9quipe d\u00e8s aujourd\u2019hui.</p>\n<p>Dans ce num\u00e9ro :</p>\n<ul>\n<li>Comptes rendus de la DGSI sur les nouveaux appareils mobiles, les mises \u00e0 niveau Windows et la transformation des services de courriel</li>\n<li>Le Sondage aupr\u00e8s des fonctionnaires f\u00e9d\u00e9raux (<abbr title=\"Sondage aupr\u00e8s des fonctionnaires f\u00e9d\u00e9raux\">SAFF</abbr>) de 2018</li>\n<li>La Campagne de charit\u00e9 en milieu de travail du gouvernement du Canada (<abbr title=\"Campagne de charit\u00e9 en milieu de travail du gouvernement du Canada\">CCMTGC</abbr>)</li>\n<li>Le point sur l\u2019acc\u00e8s aux march\u00e9s et le d\u00e9veloppement des march\u00e9s</li>\n<li>Le point sur les r\u00e9sultats et la livraison</li>\n</ul>\n<p><img src=\"https://intranet.agr.gc.ca/resources/prod/news/images/CUE-FR.png\" class=\"center-block\" alt=\"AIDE-M\u00c9MOIRE : un outil de r\u00e9f\u00e9rence rapide pour les gestionnaires\"></p>\n\t\t"
    },
    "breadcrumb": {
        "en": "The September Edition of CUE Now Available",
        "fr": "Le num\u00e9ro de septembre de l'AIDE-M\u00c9MOIRE est maintenant disponible"
    },
    "news": {
        "date_posted": {
            "en": "2018-09-06",
            "fr": "2018-09-06"
        },
        "to": {
            "en": "All staff",
            "fr": "Tous les employ\u00e9s"
        },
        "by": {
            "en": "Public Affairs Branch",
            "fr": "Direction g\u00e9n\u00e9rale des affaires publiques"
        }
    }
}