{
    "dcr_id": "1536674881736",
    "lang": "en",
    "title": {
        "en": "This Week in The Harvest - Three Sisters Competition Tests Kentville Employees' Gardening Skills",
        "fr": "Au menu de La Moisson cette semaine - Le concours des Trois soeurs met \u00e0 l'\u00e9preuve les aptitudes au jardinage des employ\u00e9s du Centre de Kentville"
    },
    "modified": "2018-09-13 00:00:00.0",
    "issued": "2018-09-13 00:00:00.0",
    "type_name": "intra-intra/news-nouv",
    "node_id": "1279030006975",
    "layout_name": null,
    "dc_date_created": "2018-09-12",
    "breadcrumb_label": "",
    "meta": {
        "issued": {
            "en": "2018-09-13",
            "fr": "2018-09-13"
        },
        "modified": {
            "en": "2018-09-13",
            "fr": "2018-09-13"
        },
        "format": {
            "en": "gcformat",
            "fr": "gcformat"
        },
        "title": {
            "en": "This Week in The Harvest - Three Sisters Competition Tests Kentville Employees' Gardening Skills",
            "fr": "Au menu de La Moisson cette semaine - Le concours des Trois soeurs met \u00e0 l'\u00e9preuve les aptitudes au jardinage des employ\u00e9s du Centre de Kentville"
        },
        "subject": {
            "en": "communications",
            "fr": "communications"
        },
        "description": {
            "en": "In case you missed it, here's what's new in The Harvest this week.",
            "fr": "Au cas o\u00f9 vous l'auriez manqu\u00e9, voici le menu que la section La Moisson vous offre cette semaine."
        },
        "language": {
            "en": "eng",
            "fr": "fra"
        },
        "audience": {
            "en": "gcaudience",
            "fr": "gcaudience"
        },
        "creator": {
            "en": "Agriculture and Agri-Food Canada",
            "fr": "Agriculture et Agroalimentaire Canada"
        },
        "spatial": {
            "en": "gcregions",
            "fr": "gcregions"
        },
        "service": {
            "en": "AAFC_AgriSource",
            "fr": "AAC_AgriSource"
        },
        "accessRights": {
            "en": "3",
            "fr": "3"
        }
    },
    "body": {
        "en": "<br>\n<br>\n<p>In case you missed it, here\u2019s what\u2019s new in <a rel=\"external\" href=\"https://collab.agr.gc.ca/apps/harvest-moisson\">The Harvest</a> this week:</p>\n<p><strong>Feature story: </strong><a rel=\"external\" href=\"https://collab.agr.gc.ca/apps/harvest-moisson\">Three Sisters Competition Tests Kentville Employees\u2019 Gardening Skills</a> \u2013 The Kentville Research and Development Centre is known for developing new crop varieties and farming practices. But this summer, staff have borrowed a centuries-old farming practice from the Indigenous community for a friendly competition to not only grow corn, beans and squash but also awareness.</p>\n<p><strong>Quiz: </strong><a rel=\"external\" href=\"https://collab.agr.gc.ca/apps/harvest-moisson\">Researchers have found the best way to cook beans, peas and lentils at home. What is it?</a></p>\n<p><strong>Feature photo:</strong><strong> </strong><a rel=\"external\" href=\"https://collab.agr.gc.ca/apps/harvest-moisson/gallery/Lists/Posts/Post.aspx?ID=189\">Madge Lake, Saskatchewan</a>, by Connie Kirychuk, Science and Technology Branch, Regina, Saskatchewan.</p>\n<p><strong>Did you know?</strong> <a rel=\"external\" href=\"https://collab.agr.gc.ca/apps/harvest-moisson/Pages/didyouknow.aspx\">One hundred years ago</a>, Canadians spent 50 cents of every dollar earned on food. Today, Canadians spend only 10.6 cents of every dollar earned on food. We have among the lowest food prices in the world.</p>\n<p>You can get involved by posting a comment or \u201cliking\u201d an article. You can also check out what your colleagues are liking and saying.</p>\n<p>Should you have story ideas, scenic or artistic agriculture-related photos, or interesting facts, please share them with us by clicking on \u201cContribute\u201d in the top menu bar.</p>\n<p><img src=\"https://intranet.agr.gc.ca/resources/prod/news/images/HarvestThreeSistersCompetition.png\" class=\"center-block\" alt=\"Students with their harvest.\">\u00a0</p>\n\n\t\t",
        "fr": "<br>\n<br>\n<p>Au cas o\u00f9 vous l\u2019auriez manqu\u00e9, voici le menu que la section <a rel=\"external\" href=\"https://collab.agr.gc.ca/apps/harvest-moisson\">La Moisson</a> vous offre cette semaine :</p>\n<p><strong>Article vedette :</strong> <a rel=\"external\" href=\"https://collab.agr.gc.ca/apps/harvest-moisson\">Le concours des Trois s\u0153urs met \u00e0 l\u2019\u00e9preuve les aptitudes au jardinage des employ\u00e9s du Centre de Kentville</a> \u2013 Le Centre de recherche et de d\u00e9veloppement de Kentville est r\u00e9put\u00e9 pour \u00e9laborer de nouvelles vari\u00e9t\u00e9s de cultures et pratiques agricoles. Mais cet \u00e9t\u00e9, les employ\u00e9s ont emprunt\u00e9 aux Autochtones une pratique agricole qui dure depuis plusieurs si\u00e8cles dans le cadre d\u2019un concours amical qui contribuera non seulement \u00e0 cultiver le ma\u00efs, la courge et le haricot, mais aussi \u00e0 mieux faire conna\u00eetre cette pratique ancestrale.</p>\n<p><strong>Jeu-questionnaire</strong><strong> : </strong><a rel=\"external\" href=\"https://collab.agr.gc.ca/apps/harvest-moisson\">Des chercheurs ont d\u00e9couvert la meilleure fa\u00e7on de faire cuire des haricots, des pois et des lentilles \u00e0 la maison. Quelle est-elle?</a></p>\n<p><strong>Photo vedette :</strong> <a href=\"https://collab.agr.gc.ca/apps/harvest-moisson/gallery/Lists/Posts/Post.aspx?ID=189\">Lac Madge, Saskatchewan</a><em>, </em>par Connie Kirychuk, Direction g\u00e9n\u00e9rale des sciences et de la technologie, Regina (Saskatchewan).</p>\n<p><strong>Le saviez-vous?</strong> <a rel=\"external\" href=\"https://collab.agr.gc.ca/apps/harvest-moisson/Pages/didyouknow.aspx\">Il y a un si\u00e8cle</a>, les Canadiens d\u00e9pensaient 50 cents de chaque dollar pour se nourrir. Aujourd\u2019hui, c\u2019est seulement 10,6 cents de chaque dollar. Les prix de nos aliments comptent parmi les plus bas au monde.</p>\n<p>Vous pouvez participer en affichant des commentaires ou en utilisant la fonction \u00ab J\u2019aime \u00bb ou \u00ab Partager \u00bb pour exprimer votre appr\u00e9ciation d\u2019un article. Vous pouvez aussi aller voir ce que vos coll\u00e8gues aiment et ont \u00e0 dire.</p>\n<p>Si vous avez des id\u00e9es d\u2019articles, des photos de paysages ou \u00e0 caract\u00e8re artistique li\u00e9es \u00e0 l\u2019agriculture ou encore des faits int\u00e9ressants, veuillez nous en faire part en cliquant sur \u00ab Collaborer \u00bb dans la barre de menu en haut de la page.</p>\n<p><img src=\"https://intranet.agr.gc.ca/resources/prod/news/images/HarvestThreeSistersCompetition.png\" class=\"center-block\" alt=\"Les \u00e9tudiants au milieu de leur r\u00e9colte.\"></p>\n\t\t"
    },
    "breadcrumb": {
        "en": "This Week in The Harvest - Three Sisters Competition Tests Kentville Employees' Gardening Skills",
        "fr": "Au menu de La Moisson cette semaine - Le concours des Trois soeurs met \u00e0 l'\u00e9preuve les aptitudes..."
    },
    "news": {
        "date_posted": {
            "en": "2018-09-13",
            "fr": "2018-09-13"
        },
        "to": {
            "en": "All staff",
            "fr": "Tous les employ\u00e9s"
        },
        "by": {
            "en": "Corporate Communications, Public Affairs Branch",
            "fr": "Communications minist\u00e9rielles, Direction g\u00e9n\u00e9rale des affaires publiques"
        }
    }
}