{
    "dcr_id": "1537367594475",
    "lang": "en",
    "title": {
        "en": "Learn with the Canadian Agriculture Library",
        "fr": "Apprenez avec la Biblioth\u00e8que canadienne de l'agriculture "
    },
    "modified": "2018-09-27 00:00:00.0",
    "issued": "2018-09-27 00:00:00.0",
    "type_name": "intra-intra/news-nouv",
    "node_id": "1279030006975",
    "layout_name": null,
    "dc_date_created": "2018-09-25",
    "breadcrumb_label": "",
    "meta": {
        "issued": {
            "en": "2018-09-27",
            "fr": "2018-09-27"
        },
        "modified": {
            "en": "2018-09-27",
            "fr": "2018-09-27"
        },
        "format": {
            "en": "gcformat",
            "fr": "gcformat"
        },
        "title": {
            "en": "Learn with the Canadian Agriculture Library",
            "fr": "Apprenez avec la Biblioth\u00e8que canadienne de l'agriculture "
        },
        "subject": {
            "en": "communications",
            "fr": "communications"
        },
        "description": {
            "en": "It's mid-year performance time! In other words, perfect time to give some thought to learning opportunities available to you.",
            "fr": "Nous sommes en p\u00e9riode d'\u00e9valuation de mi-ann\u00e9e! Il n'y a donc pas meilleur moment pour se pencher sur les occasions d'apprentissage qui s'offrent \u00e0 vous."
        },
        "language": {
            "en": "eng",
            "fr": "fra"
        },
        "audience": {
            "en": "gcaudience",
            "fr": "gcaudience"
        },
        "creator": {
            "en": "Agriculture and Agri-Food Canada",
            "fr": "Agriculture et Agroalimentaire Canada"
        },
        "spatial": {
            "en": "gcregions",
            "fr": "gcregions"
        },
        "service": {
            "en": "AAFC_AgriSource",
            "fr": "AAC_AgriSource"
        },
        "accessRights": {
            "en": "3",
            "fr": "3"
        }
    },
    "body": {
        "en": "<br>\n<br>\n<p>It\u2019s mid-year performance time! In other words, perfect time to give some thought to learning opportunities available to you. The Canadian Agriculture Library (<abbr title=\"Canadian Agriculture Library\">CAL</abbr>) offers plenty of those. Check out these monthly learn-it sessions you can access from your desktop!</p>\n<p><strong>1. Cite while you write, save, and organize your research references</strong>. </p>\n<p style=\"padding-left: 30px;\">Learn-it session: <strong><a href=\"https://collab.agr.gc.ca/co/kis-sis/SitePages/Training.aspx\">Introduction to EndNote</a></strong></p>\n<p><strong>2. Find full-text current research, in your research area, from your desktop.</strong> </p>\n<p style=\"padding-left: 30px;\">Learn-it session: <a href=\"https://collab.agr.gc.ca/co/kis-sis/SitePages/Training.aspx\"><strong>Scopus: Search &amp; Discover</strong></a></p>\n<p><strong>3. Access service, service, service \u2013 right at your fingertips!</strong> </p>\n<ul>\n<li>Register and create your personal <abbr title=\"Canadian Agriculture Library\">CAL</abbr> account</li>\n<li>Get questions answered</li>\n<li>Request an expert, efficient, literature search</li>\n<li>Access eBooks, eJournals, manuals, conference proceedings, and more</li>\n</ul>\n<p style=\"padding-left: 30px;\">Learn-it session: <strong><a href=\"https://collab.agr.gc.ca/co/kis-sis/SitePages/Training.aspx\">Library: Key to Your Knowledge</a></strong></p>\n<h2><strong>Ready to learn it? </strong></h2>\n<p>It is as easy as contacting\u00a0<abbr title=\"Canadian Agriculture Library\">CAL</abbr> (<a href=\"mailto:cal-bca-ref@agr.gc.ca\">cal-bca-ref@agr.gc.ca</a>) or\u00a0register for any of the learning sessions using the <a href=\"https://collab.agr.gc.ca/co/kis-sis/Lists/Events/Overlay.aspx\">online calendar</a>.</p>\n<p>\n<img src=\"https://intranet.agr.gc.ca/resources/prod/news/images/CALbanner-EN.png\" class=\"center-block\"></p>\n\n\t\t",
        "fr": "<br>\n<br>\n<p>Nous sommes en p\u00e9riode d\u2019\u00e9valuation de mi-ann\u00e9e! Il n\u2019y a donc pas meilleur moment pour se pencher sur les occasions d\u2019apprentissage qui s\u2019offrent \u00e0 vous. Justement, l\u2019offre de la Biblioth\u00e8que canadienne de l'agriculture (<abbr title=\"Biblioth\u00e8que canadienne de l'agriculture\">BCA</abbr>) \u00e0 ce chapitre est consid\u00e9rable.</p>\n<p>Jetez un coup d\u2019\u0153il sur les s\u00e9ances mensuelles d\u2019apprentissage \u00e0 partir de votre poste de travail!</p>\n<p><strong>1. Utiliser la fonction Cite while you write pour sauvegarder et organiser vos r\u00e9f\u00e9rences de recherche</strong>. <em>\u00a0</em></p>\n<p style=\"padding-left: 30px;\">S\u00e9ance \u00ab\u00a0Apprenez-le\u00a0\u00bb  : <a href=\"https://collab.agr.gc.ca/co/kis-sis/SitePages/Training.aspx\"><strong>Introduction \u00e0 EndNote</strong></a></p>\n<p><strong>2. Trouver des articles en texte int\u00e9gral dans votre domaine de recherche \u00e0 partir de votre poste de travail.</strong> <em>\u00a0</em></p>\n<p style=\"padding-left: 30px;\">S\u00e9ance \u00ab\u00a0Apprenez-le\u00a0\u00bb : <a href=\"https://collab.agr.gc.ca/co/kis-sis/SitePages/Training.aspx\"><strong>Scopus : recherche et d\u00e9couverte</strong></a></p>\n<p><strong>3. Des services \u00e0 port\u00e9e de la main!</strong> </p>\n<ul>\n<li>Inscrivez-vous et cr\u00e9ez votre compte personnel de la <abbr title=\"Biblioth\u00e8que canadienne de l'agriculture\">BCA</abbr></li>\n<li>Obtenez des r\u00e9ponses \u00e0 vos questions</li>\n<li>Faites appel \u00e0 un expert pour une recherche documentaire efficace</li>\n<li>Consultez des livres et revues \u00e9lectroniques, des manuels, des comptes rendus de congr\u00e8s, etc.</li>\n</ul>\n<p style=\"padding-left: 30px;\">S\u00e9ance \u00ab\u00a0Apprenez-le\u00a0\u00bb: <strong><a href=\"https://collab.agr.gc.ca/co/kis-sis/SitePages/Training.aspx\">La Biblioth\u00e8que : Votre cl\u00e9 vers le savoir</a></strong></p>\n<h2><strong>Pr\u00eat(e) pour l\u2019apprentissage?</strong></h2>\n<p>Il suffit de communiquer avec la <abbr title=\"Biblioth\u00e8que canadienne de l'agriculture\">BCA</abbr> (<a href=\"mailto:cal-bca-ref@agr.gc.ca\">cal-bca-ref@agr.gc.ca</a>) ou de s\u2019inscrire \u00e0 l\u2019une ou l\u2019autre des s\u00e9ances d\u2019apprentissage en utilisant le <a href=\"https://collab.agr.gc.ca/co/kis-sis/Lists/Events/Overlay.aspx\">calendrier en ligne</a>.</p>\n<p>\n<img src=\"https://intranet.agr.gc.ca/resources/prod/news/images/CALbanniere-FR.png\" class=\"center-block\"></p>\n\t\t"
    },
    "breadcrumb": {
        "en": "Learn with the Canadian Agriculture Library",
        "fr": "Apprenez avec la Biblioth\u00e8que canadienne de l'agriculture"
    },
    "news": {
        "date_posted": {
            "en": "2018-09-27",
            "fr": "2018-09-27"
        },
        "to": {
            "en": "All staff",
            "fr": "Tous les employ\u00e9s"
        },
        "by": {
            "en": "Canadian Agriculture Library",
            "fr": "Biblioth\u00e8que canadienne de l'agriculture"
        }
    }
}