{
    "dcr_id": "1537908109736",
    "lang": "en",
    "title": {
        "en": "This Week in The Harvest - AAFC Scientist Awarded Canada's Highest Honour",
        "fr": "Au menu de La Moisson cette semaine - Un chercheur d'AAC re\u00e7oit la plus haute distinction du Canada"
    },
    "modified": "2018-09-27 00:00:00.0",
    "issued": "2018-09-27 00:00:00.0",
    "type_name": "intra-intra/news-nouv",
    "node_id": "1279030006975",
    "layout_name": null,
    "dc_date_created": "2018-09-26",
    "breadcrumb_label": "",
    "meta": {
        "issued": {
            "en": "2018-09-27",
            "fr": "2018-09-27"
        },
        "modified": {
            "en": "2018-09-27",
            "fr": "2018-09-27"
        },
        "format": {
            "en": "gcformat",
            "fr": "gcformat"
        },
        "title": {
            "en": "This Week in The Harvest - AAFC Scientist Awarded Canada's Highest Honour",
            "fr": "Au menu de La Moisson cette semaine - Un chercheur d'AAC re\u00e7oit la plus haute distinction du Canada"
        },
        "subject": {
            "en": "communications",
            "fr": "communications"
        },
        "description": {
            "en": "In case you missed it, here's what's new in The Harvest this week.",
            "fr": "Au cas o\u00f9 vous l'auriez manqu\u00e9, voici le menu que la section La Moisson vous offre cette semaine."
        },
        "language": {
            "en": "eng",
            "fr": "fra"
        },
        "audience": {
            "en": "gcaudience",
            "fr": "gcaudience"
        },
        "creator": {
            "en": "Agriculture and Agri-Food Canada",
            "fr": "Agriculture et Agroalimentaire Canada"
        },
        "spatial": {
            "en": "gcregions",
            "fr": "gcregions"
        },
        "service": {
            "en": "AAFC_AgriSource",
            "fr": "AAC_AgriSource"
        },
        "accessRights": {
            "en": "3",
            "fr": "3"
        }
    },
    "body": {
        "en": "<br>\n<br>\n<p>In case you missed it, here\u2019s what\u2019s new in <a rel=\"external\" href=\"https://collab.agr.gc.ca/apps/harvest-moisson\">The Harvest</a> this week:</p>\n<p><strong>Feature story: </strong><a rel=\"external\" href=\"https://collab.agr.gc.ca/apps/harvest-moisson\">AAFC Scientist Awarded Canada\u2019s Highest Honour</a> \u2013 One of the newest recipients of Canada\u2019s highest honour is AAFC scientist Dr. Ernest (Ernie) Small, who was invested in the Order of Canada by the Governor General on September 6, 2018.</p>\n<p><strong>Poll: </strong><a rel=\"external\" href=\"https://collab.agr.gc.ca/apps/harvest-moisson\"> Have you completed the Public Service Employee Survey yet?</a></p>\n<p><strong>Feature photo:</strong><strong> </strong><a rel=\"external\" href=\"https://collab.agr.gc.ca/apps/harvest-moisson/gallery/Lists/Posts/Post.aspx?ID=191\">Canola and Flax</a>, by Kosala Rajapaksha, Science and Technology Branch, Saskatoon, Saskatchewan.</p>\n<p><strong>Did you know?</strong> <a rel=\"external\" href=\"https://collab.agr.gc.ca/apps/harvest-moisson/Pages/didyouknow.aspx\">Canada is the world leader in flax production and export</a>. We produced over 501,000 tonnes of flaxseed in 2017, most of which (81%) came from Saskatchewan.</p>\n<p>You can get involved by posting a comment or \u201cliking\u201d an article. You can also check out what your colleagues are liking and saying.</p>\n<p>Should you have story ideas, scenic or artistic agriculture-related photos, or interesting facts, please share them with us by clicking on \u201cContribute\u201d in the top menu bar.</p>\n<p>\n<img src=\"https://intranet.agr.gc.ca/resources/prod/news/images/HarvestErnestSmall.png\" class=\"center-block\" alt=\"Ernest Small and Governor General Julie Payette\"></p>\n\n\t\t",
        "fr": "<br>\n<br>\n<p>Au cas o\u00f9 vous l\u2019auriez manqu\u00e9, voici le menu que la section <a rel=\"external\" href=\"https://collab.agr.gc.ca/apps/harvest-moisson\">La Moisson</a> vous offre cette semaine :</p>\n<p><strong>Article vedette :</strong> <a rel=\"external\" href=\"https://collab.agr.gc.ca/apps/harvest-moisson\">Un chercheur d'AAC re\u00e7oit la plus haute distinction du Canada</a><strong> </strong>\u2013 Le chercheur Ernest (Ernie) Small, Ph. D., est l\u2019un des nouveaux r\u00e9cipiendaires de l\u2019Ordre du Canada, la plus haute distinction du Canada qui a \u00e9t\u00e9 d\u00e9cern\u00e9e par la gouverneure g\u00e9n\u00e9rale du Canada le 6 septembre 2018.</p>\n<p><strong>Sondage</strong><strong> : </strong><a rel=\"external\" href=\"https://collab.agr.gc.ca/apps/harvest-moisson\">Avez-vous d\u00e9j\u00e0 r\u00e9pondu au Sondage aupr\u00e8s des fonctionnaires f\u00e9d\u00e9raux?</a></p>\n<p><strong>Photo vedette :</strong> <a rel=\"external\" href=\"https://collab.agr.gc.ca/apps/harvest-moisson/gallery/Lists/Posts/Post.aspx?ID=191\">Canola et lin</a>,<em> </em>par Kosala Rajapaksha, Direction g\u00e9n\u00e9rale des sciences et de la technologie, Saskatoon (Saskatchewan).</p>\n<p><strong>Le saviez-vous?</strong> <a rel=\"external\" href=\"https://collab.agr.gc.ca/apps/harvest-moisson/Pages/didyouknow.aspx\">Le Canada est le chef de file mondial de la production et de l\u2019exportation de lin</a>. Nous avons produit plus de 501 000 tonnes de graines de lin en 2017, dont la majorit\u00e9 (81 %) a \u00e9t\u00e9 r\u00e9colt\u00e9e en Saskatchewan.</p>\n<p>Vous pouvez participer en affichant des commentaires ou en utilisant la fonction \u00ab J\u2019aime \u00bb ou \u00ab Partager \u00bb pour exprimer votre appr\u00e9ciation d\u2019un article. Vous pouvez aussi aller voir ce que vos coll\u00e8gues aiment et ont \u00e0 dire.</p>\n<p>Si vous avez des id\u00e9es d\u2019articles, des photos de paysages ou \u00e0 caract\u00e8re artistique li\u00e9es \u00e0 l\u2019agriculture ou encore des faits int\u00e9ressants, veuillez nous en faire part en cliquant sur \u00ab Collaborer \u00bb dans la barre de menu en haut de la page.</p>\n<p><img src=\"https://intranet.agr.gc.ca/resources/prod/news/images/HarvestErnestSmall.png\" class=\"center-block\" alt=\"Ernest Small et la gouverneure g\u00e9n\u00e9rale Julie Payette\"></p>\n\t\t"
    },
    "breadcrumb": {
        "en": "This Week in The Harvest - AAFC Scientist Awarded Canada's Highest Honour",
        "fr": "Au menu de La Moisson cette semaine - Un chercheur d'AAC re\u00e7oit la plus haute distinction du Canada"
    },
    "news": {
        "date_posted": {
            "en": "2018-09-27",
            "fr": "2018-09-27"
        },
        "to": {
            "en": "All staff",
            "fr": "Tous les employ\u00e9s"
        },
        "by": {
            "en": "Corporate Communications, Public Affairs Branch",
            "fr": "Communications minist\u00e9rielles, Direction g\u00e9n\u00e9rale des affaires publiques"
        }
    }
}