{
    "dcr_id": "1537199516053",
    "lang": "en",
    "title": {
        "en": "Nanomulsions, Nanomaterials, Animal Welfare, Alternative Food Crops and More: September Additions to the Canadian Agriculture Library Collection",
        "fr": "Nano\u00e9mulsions, nanomat\u00e9riaux, bien-\u00eatre des animaux, cultures vivri\u00e8res de remplacement et plus encore : Ajouts de septembre \u00e0 la collection de la Biblioth\u00e8que canadienne de l'agriculture"
    },
    "modified": "2018-09-19 00:00:00.0",
    "issued": "2018-09-19 00:00:00.0",
    "type_name": "intra-intra/news-nouv",
    "node_id": "1279030006975",
    "layout_name": null,
    "dc_date_created": "2018-09-17",
    "breadcrumb_label": "Nanomulsions, Nanomaterials, Animal Welfare, Alternative Food Crops and More: September Additions...",
    "meta": {
        "issued": {
            "en": "2018-09-19",
            "fr": "2018-09-19"
        },
        "modified": {
            "en": "2018-09-19",
            "fr": "2018-09-20"
        },
        "format": {
            "en": "gcformat",
            "fr": "gcformat"
        },
        "title": {
            "en": "Nanomulsions, Nanomaterials, Animal Welfare, Alternative Food Crops and More: September Additions to the Canadian Agriculture Library Collection",
            "fr": "Nano\u00e9mulsions, nanomat\u00e9riaux, bien-\u00eatre des animaux, cultures vivri\u00e8res de remplacement et plus encore : Ajouts de septembre \u00e0 la collection de la Biblioth\u00e8que canadienne de l'agriculture"
        },
        "subject": {
            "en": "communications",
            "fr": "communications"
        },
        "description": {
            "en": "Fall is here, school has started, and the Canadian Agriculture Library has acquired many fresh new publications, including items from the popular <I>Advances in Science</I> series.",
            "fr": "L'automne est arriv\u00e9, l'ann\u00e9e scolaire est commenc\u00e9e et la Biblioth\u00e8que canadienne de l'agriculture vient de faire l'acquisition de nombreuses nouvelles publications, dont certaines de la s\u00e9rie Advances in Science (en anglais seulement)."
        },
        "language": {
            "en": "eng",
            "fr": "fra"
        },
        "audience": {
            "en": "gcaudience",
            "fr": "gcaudience"
        },
        "creator": {
            "en": "Agriculture and Agri-Food Canada",
            "fr": "Agriculture et Agroalimentaire Canada"
        },
        "spatial": {
            "en": "gcregions",
            "fr": "gcregions"
        },
        "service": {
            "en": "AAFC_AgriSource",
            "fr": "AAC_AgriSource"
        },
        "accessRights": {
            "en": "3",
            "fr": "3"
        }
    },
    "body": {
        "en": "<br>\n<br>\n<p>Fall is here, school has started, and the Canadian Agriculture Library (<abbr title=\"Canadian Agriculture Library\">CAL</abbr>) has acquired many fresh new publications, including items from the popular <em>Advances in Science</em> series. Check out the <strong><a href=\"https://collab.agr.gc.ca/co/kis-sis/Documents/CAL%20New%20Acquisitions%202018-09%20(September%202018)%20-%20Nouveaut%C3%A9s%20%C3%A0%20la%20BCA%202018-09%20(Septembre%202018).pdf\">September\u00a0additions to the collection</a></strong>.</p>\n<p>You can access electronic content from your desktop by clicking on links found in the list, or submit a request to borrow physical items.</p>\n<p>For more information, contact <abbr title=\"Canadian Agriculture Library\">CAL</abbr> at: <a href=\"mailto:cal-bca-ref@agr.gc.ca\">cal-bca-ref@agr.gc.ca</a>.\u00a0</p>\n<p><img src=\"https://intranet.agr.gc.ca/resources/prod/news/images/CALbanner-EN.png\" class=\"center-block\" alt=\"Canadian Agriculture Library\"></p>\n\n\t\t",
        "fr": "<br>\n<br>\n<p>L\u2019automne est arriv\u00e9, l\u2019ann\u00e9e scolaire est commenc\u00e9e et la Biblioth\u00e8que canadienne de l'agriculture (<abbr title=\"Biblioth\u00e8que canadienne de l'agriculture\">BCA</abbr>) vient de faire l\u2019acquisition de nombreuses nouvelles publications, dont certaines de la s\u00e9rie <em>Advances in Science</em>\u00a0(en anglais seulement). Consultez <a href=\"https://collab.agr.gc.ca/co/kis-sis/_layouts/15/DocIdRedir.aspx?ID=AGR-6982371\"><strong>les ajouts de septembre \u00e0 la collection</strong></a>. </p>\n<p>Vous pouvez consulter le contenu \u00e9lectronique \u00e0 partir de votre ordinateur en cliquant sur le lien du document d\u00e9sir\u00e9 ou faire une demande d'emprunt de la version imprim\u00e9e.</p>\n<p>Pour plus de renseignements, veuillez communiquer avec la <abbr title=\"Biblioth\u00e8que canadienne de l'agriculture\">BCA</abbr> \u00e0 : <a href=\"mailto:cal-bca-ref@agr.gc.ca\">cal-bca-ref@agr.gc.ca</a>.</p>\n<p><img src=\"https://intranet.agr.gc.ca/resources/prod/news/images/CALbanniere-FR.png\" class=\"center-block\" alt=\"Biblioth\u00e8que canadienne de l'agriculture\"></p>\n\t\t"
    },
    "breadcrumb": {
        "en": "Nanomulsions, Nanomaterials, Animal Welfare, Alternative Food Crops and More: September Additions...",
        "fr": "Nano\u00e9mulsions, nanomat\u00e9riaux, bien-\u00eatre des animaux, cultures vivri\u00e8res de remplacement et plus..."
    },
    "news": {
        "date_posted": {
            "en": "2018-09-19",
            "fr": "2018-09-19"
        },
        "to": {
            "en": "All staff",
            "fr": "Tous les employ\u00e9s"
        },
        "by": {
            "en": "Canadian Agriculture Library",
            "fr": "Biblioth\u00e8que canadienne de l'agriculture"
        }
    }
}