{
    "dcr_id": "1537276264698",
    "lang": "en",
    "title": {
        "en": "Deadline Fast Approaching - Complete the 2018 Public Service Employee Survey Today",
        "fr": "Il ne vous reste plus beaucoup de temps pour r\u00e9pondre au Sondage aupr\u00e8s des fonctionnaires f\u00e9d\u00e9raux de 2018 "
    },
    "modified": "2018-09-19 00:00:00.0",
    "issued": "2018-09-19 00:00:00.0",
    "type_name": "intra-intra/news-nouv",
    "node_id": "1279030006975",
    "layout_name": null,
    "dc_date_created": "2018-09-18",
    "breadcrumb_label": "",
    "meta": {
        "issued": {
            "en": "2018-09-19",
            "fr": "2018-09-19"
        },
        "modified": {
            "en": "2018-09-19",
            "fr": "2018-09-19"
        },
        "format": {
            "en": "gcformat",
            "fr": "gcformat"
        },
        "title": {
            "en": "Deadline Fast Approaching - Complete the 2018 Public Service Employee Survey Today",
            "fr": "Il ne vous reste plus beaucoup de temps pour r\u00e9pondre au Sondage aupr\u00e8s des fonctionnaires f\u00e9d\u00e9raux de 2018 "
        },
        "subject": {
            "en": "communications",
            "fr": "communications"
        },
        "description": {
            "en": "The government-wide 2018 Public Service Employee Survey will close on September 28, 2018.",
            "fr": "Le Sondage aupr\u00e8s des fonctionnaires f\u00e9d\u00e9raux de 2018 se terminera le 28 septembre 2018."
        },
        "language": {
            "en": "eng",
            "fr": "fra"
        },
        "audience": {
            "en": "gcaudience",
            "fr": "gcaudience"
        },
        "creator": {
            "en": "Agriculture and Agri-Food Canada",
            "fr": "Agriculture et Agroalimentaire Canada"
        },
        "spatial": {
            "en": "gcregions",
            "fr": "gcregions"
        },
        "service": {
            "en": "AAFC_AgriSource",
            "fr": "AAC_AgriSource"
        },
        "accessRights": {
            "en": "3",
            "fr": "3"
        }
    },
    "body": {
        "en": "<br>\n<br>\n<p>The government-wide 2018 Public Service Employee Survey (<abbr title=\"Public Service Employee Survey \">PSES</abbr>) will close on <strong>September 28, 2018</strong>. All employees are encouraged to take the time to share their opinions on workplace matters. Responses to the survey are completely confidential and are protected under the <em>Privacy Act</em>.</p>\n<p>The results from the <abbr title=\"Public Service Employee Survey \">PSES</abbr> will help AAFC measure the progress of our people management practices. Your participation is essential to providing an accurate portrait of our department as we continue our efforts to foster a healthy and engaged workplace.</p>\n<p>To complete the survey:</p>\n<ul>\n<li>Look for an email from \u201c2018 <abbr title=\"Public Service Employee Survey \">PSES</abbr> - SAFF 2018\u201d (<a href=\"mailto:pses-saff@advanis.ca\">pses-saff@advanis.ca</a>). It contains a personal link to the survey that is only accessible to you.</li>\n<li>If you have not received an email with a link to the survey or have misplaced it, you can <a href=\"https://pses-saff.advanis.ca/en/pses2018/getlink\">request a new link</a>.</li>\n<li>If you are unable to complete the survey online, a paper copy can be requested by contacting <a href=\"mailto:PSES_Coordination_SAFF@agr.gc.ca\">PSES_Coordination_SAFF@agr.gc.ca</a>.</li>\n</ul>\n<p>More than 37% of AAFC employees have completed the survey. Join your colleagues. Take 20 minutes out of your day and complete the 2018 <abbr title=\"Public Service Employee Survey \">PSES</abbr> today.</p>\n<p>Visit the <a href=\"http://intranet.agr.gc.ca/agrisource/eng/our-department/public-service-employee-survey?id=1407756839813\"><abbr title=\"Public Service Employee Survey \">PSES</abbr> AgriSource page</a> for more information about this year\u2019s survey.</p>\n<p><img src=\"https://intranet.agr.gc.ca/resources/prod/news/images/PSES2018-EN.png\" class=\"center-block\" alt=\"PSES\"></p>\n\n\t\t",
        "fr": "<br>\n<br>\n<p>Le Sondage aupr\u00e8s des fonctionnaires f\u00e9d\u00e9raux (<abbr title=\"Sondage aupr\u00e8s des fonctionnaires f\u00e9d\u00e9raux\">SAFF</abbr>) de 2018 se terminera <strong>le 28 septembre 2018</strong>. Tous les employ\u00e9s sont invit\u00e9s \u00e0 faire part de leur opinion sur les questions li\u00e9es au milieu de travail. Les r\u00e9ponses au sondage sont trait\u00e9es de mani\u00e8re confidentielle en vertu de la <em>Loi sur la protection des renseignements personnels</em>.</p>\n<p>Les r\u00e9sultats du <abbr title=\"Sondage aupr\u00e8s des fonctionnaires f\u00e9d\u00e9raux\">SAFF</abbr> aideront AAC \u00e0 mesurer les progr\u00e8s de ses pratiques de gestion des personnes. Nous avons absolument besoin de votre participation pour dresser un portrait fid\u00e8le de notre minist\u00e8re et continuer de favoriser un milieu de travail sain et dynamique.</p>\n<p>Pour r\u00e9pondre au sondage :</p>\n<ul>\n<li>Ouvrez le courriel intitul\u00e9 \u00ab 2018 PSES - <abbr title=\"Sondage aupr\u00e8s des fonctionnaires f\u00e9d\u00e9raux\">SAFF</abbr> 2018 \u00bb (<a href=\"mailto:pses-saff@advanis.ca\">pses-saff@advanis.ca</a>). Il contient un lien personnalis\u00e9 vers le sondage auquel vous seul avez acc\u00e8s.</li>\n<li>Si vous n\u2019avez pas re\u00e7u le courriel renfermant le lien vers le sondage, ou si vous l\u2019avez \u00e9gar\u00e9, vous pouvez <a href=\"https://pses-saff.advanis.ca/fr/pses2018/getlink\">demander un nouveau lien</a>.</li>\n<li>Si vous ne pouvez pas r\u00e9pondre au sondage en ligne, vous pouvez demander une copie papier en \u00e9crivant \u00e0 <a href=\"mailto:PSES_Coordination_SAFF@agr.gc.ca\">PSES_Coordination_SAFF@agr.gc.ca</a>.</li>\n</ul>\n<p>Plus de 37 % des employ\u00e9s d\u2019AAC ont r\u00e9pondu au sondage. Faites comme ces coll\u00e8gues. Prenez 20 minutes pour remplir le <abbr title=\"Sondage aupr\u00e8s des fonctionnaires f\u00e9d\u00e9raux\">SAFF</abbr> de 2018 d\u00e8s aujourd\u2019hui.</p>\n<p>Consultez la <a href=\"http://intranet.agr.gc.ca/agrisource/fra/notre-ministere/strategie-de-gestion-des-personnes/sondage-aupres-des-fonctionnaires-federaux?id=1407756839813\">page du <abbr title=\"Sondage aupr\u00e8s des fonctionnaires f\u00e9d\u00e9raux\">SAFF</abbr> dans AgriSource</a> pour de plus amples renseignements sur le sondage de cette ann\u00e9e.</p>\n<p><img src=\"https://intranet.agr.gc.ca/resources/prod/news/images/PSES2018-FR.png\" class=\"center-block\" alt=\"SAFF\"></p>\n\t\t"
    },
    "breadcrumb": {
        "en": "Deadline Fast Approaching - Complete the 2018 Public Service Employee Survey Today",
        "fr": "Il ne vous reste plus beaucoup de temps pour r\u00e9pondre au Sondage aupr\u00e8s des fonctionnaires f\u00e9d\u00e9raux de 2018"
    },
    "news": {
        "date_posted": {
            "en": "2018-09-19",
            "fr": "2018-09-19"
        },
        "to": {
            "en": "All staff",
            "fr": "Tous les employ\u00e9s"
        },
        "by": {
            "en": "Andrew Goldstein, Director General, Human Resources",
            "fr": "Andrew Goldstein, directeur g\u00e9n\u00e9ral, Ressources humaines"
        }
    }
}