{
    "dcr_id": "1537381187050",
    "lang": "en",
    "title": {
        "en": "Seeking an Additional Co-Chair for the Gender and Sexual Diversity Inclusiveness Network",
        "fr": "Sollicitation d'un nouveau copr\u00e9sident pour le R\u00e9seau de l'inclusivit\u00e9 et de la diversit\u00e9 des genres et de la sexualit\u00e9"
    },
    "modified": "2018-09-20 00:00:00.0",
    "issued": "2018-09-20 00:00:00.0",
    "type_name": "intra-intra/news-nouv",
    "node_id": "1279030006975",
    "layout_name": null,
    "dc_date_created": "2018-09-19",
    "breadcrumb_label": "",
    "meta": {
        "issued": {
            "en": "2018-09-20",
            "fr": "2018-09-20"
        },
        "modified": {
            "en": "2018-09-20",
            "fr": "2018-09-20"
        },
        "format": {
            "en": "gcformat",
            "fr": "gcformat"
        },
        "title": {
            "en": "Seeking an Additional Co-Chair for the Gender and Sexual Diversity Inclusiveness Network",
            "fr": "Sollicitation d'un nouveau copr\u00e9sident pour le R\u00e9seau de l'inclusivit\u00e9 et de la diversit\u00e9 des genres et de la sexualit\u00e9"
        },
        "subject": {
            "en": "communications",
            "fr": "communications"
        },
        "description": {
            "en": "Diversity in perspectives, ideas, and talent helps drive innovation and supports a workplace where employees feel inspired, valued and respected.",
            "fr": "La diversit\u00e9 des perspectives, des id\u00e9es et des talents favorise l'innovation et soutient un milieu de travail o\u00f9 le personnel se sent inspir\u00e9, appr\u00e9ci\u00e9 et respect\u00e9."
        },
        "language": {
            "en": "eng",
            "fr": "fra"
        },
        "audience": {
            "en": "gcaudience",
            "fr": "gcaudience"
        },
        "creator": {
            "en": "Agriculture and Agri-Food Canada",
            "fr": "Agriculture et Agroalimentaire Canada"
        },
        "spatial": {
            "en": "gcregions",
            "fr": "gcregions"
        },
        "service": {
            "en": "AAFC_AgriSource",
            "fr": "AAC_AgriSource"
        },
        "accessRights": {
            "en": "3",
            "fr": "3"
        }
    },
    "body": {
        "en": "<br>\n<br>\n<p>Diversity in perspectives, ideas, and talent helps drive innovation and supports a workplace where\u00a0employees feel inspired, valued and respected. AAFC is committed to an inclusive workplace that celebrates all forms of diversity. The <strong>Gender and Sexual Diversity Inclusiveness Network (<abbr title=\"Gender and Sexual Diversity Inclusiveness Network \">GSDIN</abbr>)</strong> is an\u00a0employee-led network that supports AAFC\u2019s commitment to enhance the work experience of all its staff, with a focus on members of the lesbian, gay, bisexual, transgender, queer and two-spirit community (LGBTQ2+).</p>\n<p>Due to its success, the <abbr title=\"Gender and Sexual Diversity Inclusiveness Network \">GSDIN</abbr> is looking for a third co-chair to help lead the network and promote AAFC\u2019s Positive Space Initiative. The co-chair will have the opportunity to gain experience in leadership, meeting and event coordination, and exposure to a broad range of networks both within AAFC and interdepartmentally.</p>\n<p>The co-chair\u2019s duties are shared and include:</p>\n<ul>\n<li>organizing and chairing <abbr title=\"Gender and Sexual Diversity Inclusiveness Network \">GSDIN</abbr> meetings;</li>\n<li>liaising with <abbr title=\"Gender and Sexual Diversity Inclusiveness Network \">GSDIN</abbr> members and acting as a bridge with senior management;</li>\n<li>implementing action items and decisions made by senior management and the <abbr title=\"Gender and Sexual Diversity Inclusiveness Network \">GSDIN</abbr>; and</li>\n<li>presenting to and briefing senior management and other committees, networks and management teams.</li>\n</ul>\n<p>The <abbr title=\"Gender and Sexual Diversity Inclusiveness Network \">GSDIN</abbr> is looking for someone who is able to demonstrate an understanding of the issues faced by the LGBTQ2+ community, as well as the <abbr title=\"Gender and Sexual Diversity Inclusiveness Network \">GSDIN</abbr> priorities. Managers are strongly encouraged to support interested members of their staff to put their names forward for this opportunity and allow for up to 15% of their work time to be dedicated to network activities.</p>\n<h2><strong>Apply now</strong></h2>\n<p>If you are interested in helping AAFC achieve its vision of a diverse and inclusive workplace:</p>\n<ol>\n<li>Speak with your manager.</li>\n<li>Complete the <a href=\"https://collab.agr.gc.ca/co/lgbt-glbt/Documents/GSDIN%20Co-Chair%20Expression%20of%20Interest%20-%20RIDGS%20Sollicitation%20d%E2%80%99un%20nouveau%20copr%C3%A9sident/GSDIN%20Co-Chair%20Expression%20of%20Interest%20Form.docx\">Expression of Interest Form</a>.</li>\n<li>Return the completed form to <a href=\"mailto:AAFC.GSDIN-RIDGS.AAC@AGR.GC.CA\">AAFC.GSDIN-RIDGS.AAC@AGR.GC.CA</a> by <strong>September 26, 2018.</strong></li>\n</ol>\n<p>Learn more about the <a href=\"https://collab.agr.gc.ca/co/lgbt-glbt/SitePages/Home.aspx\">Gender and Sexual Diversity Inclusiveness Network</a> and its activities. If you have any questions or require more information on the co-chair responsibilities, please contact the <abbr title=\"Gender and Sexual Diversity Inclusiveness Network \">GSDIN</abbr> at <a href=\"mailto:AAFC.GSDIN-RIDGS.AAC@AGR.GC.CA\">AAFC.GSDIN-RIDGS.AAC@AGR.GC.CA</a>.</p>\n<p>\u00a0</p>\n<p><img src=\"https://intranet.agr.gc.ca/resources/prod/news/images/GSDINLogo.png\" class=\"center-block\"></p>\n\n\t\t",
        "fr": "<br>\n<br>\n<p>La diversit\u00e9 des perspectives, des id\u00e9es et des talents favorise l\u2019innovation et soutient un milieu de travail o\u00f9 le personnel se sent inspir\u00e9, appr\u00e9ci\u00e9 et respect\u00e9. AAC s\u2019est engag\u00e9 \u00e0 cr\u00e9er un milieu de travail inclusif qui c\u00e9l\u00e8bre toutes les formes de diversit\u00e9. Le <strong>R\u00e9seau de l\u2019inclusivit\u00e9 et de la diversit\u00e9 des genres et de la sexualit\u00e9 (<abbr title=\"R\u00e9seau de l\u2019inclusivit\u00e9 et de la diversit\u00e9 des genres et de la sexualit\u00e9\">RIDGS</abbr>)</strong> est un r\u00e9seau dirig\u00e9 par le personnel qui appuie l\u2019engagement d\u2019AAC \u00e0 am\u00e9liorer l\u2019exp\u00e9rience de travail de tous ses employ\u00e9s, dont les membres de la communaut\u00e9 lesbienne, gaie, bisexuelle, transgenre, allosexuelle et bispirituelle (LGBTQ2+).</p>\n<p>En raison de son succ\u00e8s, le <abbr title=\"R\u00e9seau de l\u2019inclusivit\u00e9 et de la diversit\u00e9 des genres et de la sexualit\u00e9\">RIDGS</abbr> est \u00e0 la recherche d\u2019un troisi\u00e8me copr\u00e9sident pour l\u2019aider \u00e0 diriger le r\u00e9seau et \u00e0 promouvoir l\u2019initiative sur l\u2019Espace positif d\u2019AAC. Le copr\u00e9sident aura l\u2019occasion d\u2019acqu\u00e9rir de l\u2019exp\u00e9rience en mati\u00e8re de leadership, de coordination de r\u00e9unions et d\u2019\u00e9v\u00e9nements, et de se familiariser avec une vaste gamme de r\u00e9seaux tant \u00e0 AAC qu\u2019\u00e0 l\u2019\u00e9chelle interminist\u00e9rielle.</p>\n<p>Les fonctions du copr\u00e9sident sont partag\u00e9es et comprennent ce qui suit :</p>\n<ul>\n<li>organiser et pr\u00e9sider les r\u00e9unions du <abbr title=\"R\u00e9seau de l\u2019inclusivit\u00e9 et de la diversit\u00e9 des genres et de la sexualit\u00e9\">RIDGS</abbr>;</li>\n<li>assurer la liaison avec les membres du <abbr title=\"R\u00e9seau de l\u2019inclusivit\u00e9 et de la diversit\u00e9 des genres et de la sexualit\u00e9\">RIDGS</abbr> et servir de lien avec la haute direction;</li>\n<li>mettre en \u0153uvre les mesures de suivi et les d\u00e9cisions prises par la haute direction et le <abbr title=\"R\u00e9seau de l\u2019inclusivit\u00e9 et de la diversit\u00e9 des genres et de la sexualit\u00e9\">RIDGS</abbr>;</li>\n<li>donner des pr\u00e9sentations et des s\u00e9ances d\u2019information \u00e0 la haute direction et \u00e0 d\u2019autres comit\u00e9s, r\u00e9seaux et \u00e9quipes de gestion.</li>\n</ul>\n<p>Le <abbr title=\"R\u00e9seau de l\u2019inclusivit\u00e9 et de la diversit\u00e9 des genres et de la sexualit\u00e9\">RIDGS</abbr> est \u00e0 la recherche d\u2019une personne capable de d\u00e9montrer sa compr\u00e9hension des enjeux auxquels fait face la communaut\u00e9 LGBTQ2+, ainsi que des priorit\u00e9s du R\u00e9seau. Les gestionnaires sont fortement encourag\u00e9s \u00e0 appuyer les membres de leur personnel qui souhaitent se porter candidats et \u00e0 consacrer jusqu\u2019\u00e0 15 % de leur temps de travail aux activit\u00e9s du R\u00e9seau.</p>\n<h2><strong>Pr\u00e9sentez une demande maintenant</strong></h2>\n<p>Si vous souhaitez aider AAC \u00e0 r\u00e9aliser sa vision d\u2019un milieu de travail diversifi\u00e9 et inclusif :</p>\n<ol>\n<li>Parlez-en \u00e0 votre gestionnaire.</li>\n<li>Remplissez le <a href=\"https://collab.agr.gc.ca/co/lgbt-glbt/Documents/GSDIN%20Co-Chair%20Expression%20of%20Interest%20-%20RIDGS%20Sollicitation%20d%E2%80%99un%20nouveau%20copr%C3%A9sident/GSDIN%20Co-Chair%20Expression%20of%20Interest%20Form%20FR.docx\">Formulaire de d\u00e9claration d\u2019int\u00e9r\u00eat</a>.</li>\n<li>Renvoyez le formulaire d\u00fbment rempli \u00e0 l\u2019adresse <a href=\"mailto:AAFC.GSDIN-RIDGS.AAC@AGR.GC.CA\">AAFC.GSDIN-RIDGS.AAC@AGR.GC.CA</a> d\u2019ici le <strong>26 septembre 2018</strong>.</li>\n</ol>\n<p>Renseignez-vous sur le <a href=\"https://collab.agr.gc.ca/co/lgbt-glbt/SitePages/Home.aspx\">R\u00e9seau de l\u2019inclusivit\u00e9 et de la diversit\u00e9 des genres et de la sexualit\u00e9</a> et ses activit\u00e9s. Si vous avez des questions ou si vous avez besoin de plus amples renseignements sur les responsabilit\u00e9s des copr\u00e9sidents, veuillez communiquer avec le <abbr title=\"R\u00e9seau de l\u2019inclusivit\u00e9 et de la diversit\u00e9 des genres et de la sexualit\u00e9\">RIDGS</abbr> \u00e0 l\u2019adresse <a href=\"mailto:AAFC.GSDIN-RIDGS.AAC@AGR.GC.CA\">AAFC.GSDIN-RIDGS.AAC@AGR.GC.CA</a>.</p>\n<p><img src=\"https://intranet.agr.gc.ca/resources/prod/news/images/GSDINLogo.png\" class=\"center-block\"></p>\n\t\t"
    },
    "breadcrumb": {
        "en": "Seeking an Additional Co-Chair for the Gender and Sexual Diversity Inclusiveness Network",
        "fr": "Sollicitation d'un nouveau copr\u00e9sident pour le R\u00e9seau de l'inclusivit\u00e9 et de la diversit\u00e9 des..."
    },
    "news": {
        "date_posted": {
            "en": "2018-09-20",
            "fr": "2018-09-20"
        },
        "to": {
            "en": "All staff",
            "fr": "Tous les employ\u00e9s"
        },
        "by": {
            "en": "Jane Taylor, Champion, Gender and Sexual Diversity Inclusiveness Network",
            "fr": "Jane Taylor, championne, R\u00e9seau de l'inclusivit\u00e9 et de la diversit\u00e9 des genres et de la sexualit\u00e9"
        }
    }
}