{
    "dcr_id": "1538509578044",
    "lang": "en",
    "title": {
        "en": "The October Edition of CUE Now Available",
        "fr": "Le num\u00e9ro d'octobre de l'AIDE-M\u00c9MOIRE est maintenant en ligne"
    },
    "modified": "2019-02-07 00:00:00.0",
    "issued": "2018-10-04 00:00:00.0",
    "type_name": "intra-intra/news-nouv",
    "node_id": "1279030006975",
    "layout_name": null,
    "dc_date_created": "2018-10-02",
    "breadcrumb_label": "",
    "meta": {
        "issued": {
            "en": "2018-10-04",
            "fr": "2018-10-04"
        },
        "modified": {
            "en": "2019-02-07",
            "fr": "2019-02-07"
        },
        "format": {
            "en": "gcformat",
            "fr": "gcformat"
        },
        "title": {
            "en": "The October Edition of CUE Now Available",
            "fr": "Le num\u00e9ro d'octobre de l'AIDE-M\u00c9MOIRE est maintenant en ligne"
        },
        "subject": {
            "en": "communications",
            "fr": "communications"
        },
        "description": {
            "en": "<I>CUE: a quick reference tool for managers </I> - the information you need and speaking points to help you deliver it to employees is at your fingertips.",
            "fr": "<I>AIDE-M\u00c9MOIRE : un outil de r\u00e9f\u00e9rence rapide pour les gestionnaires</I> - l'information dont vous avez besoin et les notes d'allocution pour la communiquer aux employ\u00e9s sont \u00e0 votre disposition."
        },
        "language": {
            "en": "eng",
            "fr": "fra"
        },
        "audience": {
            "en": "gcaudience",
            "fr": "gcaudience"
        },
        "creator": {
            "en": "Agriculture and Agri-Food Canada",
            "fr": "Agriculture et Agroalimentaire Canada"
        },
        "spatial": {
            "en": "gcregions",
            "fr": "gcregions"
        },
        "service": {
            "en": "AAFC_AgriSource",
            "fr": "AAC_AgriSource"
        },
        "accessRights": {
            "en": "3",
            "fr": "3"
        }
    },
    "body": {
        "en": "<br>\n<br>\n<p><em>CUE: a quick reference tool for managers</em> \u2013 the information you need and speaking points to help you deliver it to employees is\u00a0at your fingertips.</p>\n<p>Content is updated as new information becomes available.</p>\n<p>Bookmark and <a href=\"http://intranet.agr.gc.ca/agrisource/eng/branches-and-offices/public-affairs-branch/corporate-communications?id=1297348464656\">download <em>CUE</em></a> to continue the dialogue with your team today.</p>\n<p>Included in this month\u2019s edition:</p>\n<ul>\n<li>Workplace wellness</li>\n<li>United States-Mexico-Canada Agreement</li>\n<li>Government of Canada Charitable Workplace Campaign (<abbr title=\"\u2022Government of Canada Charitable Workplace Campaign\">GCWCC</abbr>)</li>\n<li>Take Our Kids to Work Day</li>\n<li>Performance management \u2013 mid-year reviews due October 19</li>\n<li>Investment in agricultural science</li>\n</ul>\n<p>\u00a0<img src=\"https://intranet.agr.gc.ca/resources/prod/news/images/CUE-EN.png\" class=\"center-block\"></p>\n<ul>\n</ul>\n\n\t\t",
        "fr": "<br>\n<br>\n<p><em>AIDE-M\u00c9MOIRE</em> <em>: un outil de r\u00e9f\u00e9rence rapide pour les gestionnaires</em> \u2013 l\u2019information dont vous avez besoin et les notes d\u2019allocution pour la communiquer aux employ\u00e9s sont \u00e0 votre disposition.</p>\n<p>Le document est mis \u00e0 jour d\u00e8s que de nouveaux renseignements sont obtenus.</p>\n<p>T\u00e9l\u00e9chargez <a href=\"http://intranet.agr.gc.ca/agrisource/fra/directions-generales-et-bureaux/direction-generale-des-affaires-publiques/communications-ministerielles?id=1297348464656\"><em>l\u2019AIDE-M\u00c9MOIRE</em></a> et mettez-le dans vos favoris afin de poursuivre le dialogue avec votre \u00e9quipe d\u00e8s aujourd\u2019hui.</p>\n<p>Dans ce num\u00e9ro :</p>\n<ul>\n<li>Mieux-\u00eatre en milieu de travail</li>\n<li>Accord \u00c9tats-Unis-Mexique-Canada</li>\n<li>Campagne de charit\u00e9 en milieu de travail du gouvernement du Canada (<abbr title=\"\u2022Campagne de charit\u00e9 en milieu de travail du gouvernement du Canada\">CCMTGC</abbr>)</li>\n<li>Journ\u00e9e Invitons nos jeunes au travail</li>\n<li>Gestion du rendement \u2013 examens de mi- exercice au plus tard le 19 octobre</li>\n<li>Investissement dans la science agricole</li>\n</ul>\n<p><img src=\"https://intranet.agr.gc.ca/resources/prod/news/images/CUE-FR.png\" class=\"center-block\"></p>\n\t\t"
    },
    "breadcrumb": {
        "en": "The October Edition of CUE Now Available",
        "fr": "Le num\u00e9ro d'octobre de l'AIDE-M\u00c9MOIRE est maintenant en ligne"
    },
    "news": {
        "date_posted": {
            "en": "2018-10-04",
            "fr": "2018-10-04"
        },
        "to": {
            "en": "All staff",
            "fr": "Tous les employ\u00e9s"
        },
        "by": {
            "en": "Public Affairs Branch",
            "fr": "Direction g\u00e9n\u00e9rale des affaires publiques"
        }
    }
}