{
    "dcr_id": "1538423921241",
    "lang": "en",
    "title": {
        "en": "NCR - GCWCC \"Escape the Haunted Headquarters\" Event - Registration Deadline October 9",
        "fr": "RCN - Activit\u00e9 \u00ab \u00c9vadez-vous du CACPA hant\u00e9 \u00bb pour la CCMTGC - Vous avez jusqu'au 9 octobre pour vous inscrire"
    },
    "modified": "2018-10-04 00:00:00.0",
    "issued": "2018-10-04 00:00:00.0",
    "type_name": "intra-intra/news-nouv",
    "node_id": "1279030006975",
    "layout_name": null,
    "dc_date_created": "2018-10-01",
    "breadcrumb_label": "",
    "meta": {
        "issued": {
            "en": "2018-10-04",
            "fr": "2018-10-04"
        },
        "modified": {
            "en": "2018-10-04",
            "fr": "2018-10-04"
        },
        "format": {
            "en": "gcformat",
            "fr": "gcformat"
        },
        "title": {
            "en": "NCR - GCWCC \"Escape the Haunted Headquarters\" Event - Registration Deadline October 9",
            "fr": "RCN - Activit\u00e9 \u00ab \u00c9vadez-vous du CACPA hant\u00e9 \u00bb pour la CCMTGC - Vous avez jusqu'au 9 octobre pour vous inscrire"
        },
        "subject": {
            "en": "communications",
            "fr": "communications"
        },
        "description": {
            "en": "Do you and your colleagues have what it takes to escape the haunted headquarters?",
            "fr": "Croyez-vous \u00eatre capable de vous \u00e9vader du CACPA hant\u00e9?"
        },
        "language": {
            "en": "eng",
            "fr": "fra"
        },
        "audience": {
            "en": "gcaudience",
            "fr": "gcaudience"
        },
        "creator": {
            "en": "Agriculture and Agri-Food Canada",
            "fr": "Agriculture et Agroalimentaire Canada"
        },
        "spatial": {
            "en": "gcregions",
            "fr": "gcregions"
        },
        "service": {
            "en": "AAFC_AgriSource",
            "fr": "AAC_AgriSource"
        },
        "accessRights": {
            "en": "3",
            "fr": "3"
        }
    },
    "body": {
        "en": "<br>\n<br>\n<p>Do you and your colleagues have what it takes to escape the haunted headquarters? Come participate in this fun Corporate Management Branch\u00a0(<abbr title=\"Corporate Management Branch \">CMB</abbr>) escape room event!</p>\n<p>The <abbr title=\"Corporate Management Branch \">CMB</abbr> escape room is a unique team\u2011building activity for employees to:</p>\n<ul>\n<li>have fun while solving puzzles</li>\n<li>test colleagues\u2019 abilities to communicate and work together</li>\n<li>challenge players with healthy conflict</li>\n</ul>\n<p>In teams of 4 to 6, players will be required to solve a series of mysterious and AAFC-related riddles and puzzles to escape the room within 35 minutes.</p>\n<h2>Event information</h2>\n<p><strong>Date:</strong> October 10, 11, and 12<br><strong>Time:</strong> 8 a.m. to 4 p.m.<br><strong>Location</strong>: T6-1-136 (NHCAP)<br><strong>Cost:</strong> $15 per person<br><strong>Registration:</strong> Email Maurice Semaan (<a href=\"mailto:maurice.semaan@canada.ca\">maurice.semaan@canada.ca</a>) or Laeticia Landa (<a href=\"mailto:laeticia.landa@canada.ca\">laeticia.landa@canada.ca</a>) by <strong>Tuesday, October 9 </strong>with your team\u2019s preferred start time<strong> </strong>(spots are limited!).</p>\n<p>If you have any questions, please contact Maurice Semaan or Laeticia Landa.</p>\n<p>100% of proceeds will be donated to the GCWCC campaign.</p>\n<p>\u00a0<img src=\"https://intranet.agr.gc.ca/resources/prod/news/images/GCWCCEscapeRoom-EN.png\" class=\"center-block\"></p>\n\n\t\t",
        "fr": "<br>\n<br>\n<p>Croyez-vous \u00eatre capable de vous \u00e9vader du CACPA hant\u00e9? Participez \u00e0 ce jeu d\u2019\u00e9vasion amusant organis\u00e9 par la Direction g\u00e9n\u00e9rale de la gestion int\u00e9gr\u00e9e (<abbr title=\"Direction g\u00e9n\u00e9rale de la gestion int\u00e9gr\u00e9e\">DGGI</abbr>)!</p>\n<p>Le jeu d\u2019\u00e9vasion de la <abbr title=\"Direction g\u00e9n\u00e9rale de la gestion int\u00e9gr\u00e9e\">DGGI</abbr> est une activit\u00e9 de promotion du travail d\u2019\u00e9quipe hors de l\u2019ordinaire. L\u2019activit\u00e9 permettra aux employ\u00e9s de :</p>\n<ul>\n<li>S\u2019amuser et de r\u00e9soudre des \u00e9nigmes</li>\n<li>Mettre \u00e0 l\u2019\u00e9preuve les capacit\u00e9s de leurs coll\u00e8gues de communiquer et de travailler ensemble</li>\n<li>Mettre leurs co\u00e9quipiers au d\u00e9fi au moyen de conflits constructifs</li>\n</ul>\n<p>En \u00e9quipes de quatre \u00e0 six joueurs, les participants devront r\u00e9soudre une s\u00e9rie d\u2019\u00e9nigmes myst\u00e9rieuses et d\u2019\u00e9nigmes sur AAC pour s\u2019\u00e9vader de la\u00a0salle dans un d\u00e9lai maximal de 35 minutes.</p>\n<h2><strong>Renseignements sur l\u2019activit\u00e9</strong></h2>\n<p><strong>Date :</strong> 10, 11 et 12 octobre<br><strong>Heure :</strong> 8 h \u00e0 16 h<br><strong>Lieu :\u00a0</strong>T6-1-136 (CACPA)<br><strong>Co\u00fbt :</strong> 15 $ par personne<br><strong>Inscription :</strong> Envoyez un courriel \u00e0 Maurice Semaan (<a href=\"mailto:maurice.semaan@canada.ca\">maurice.semaan@canada.ca</a>) ou \u00e0 Laeticia Landa (<a href=\"mailto:laeticia.landa@canada.ca\">laeticia.landa@canada.ca</a>) d\u2019ici le <strong>mardi 9 octobre</strong> en indiquant l\u2019heure \u00e0 laquelle votre \u00e9quipe aimerait commencer le jeu. (Le nombre de places est limit\u00e9.)</p>\n<p>Si vous avez des questions, veuillez communiquer avec Maurice Semaan ou Laeticia Landa.</p>\n<p>Tous les fonds amass\u00e9s seront vers\u00e9s \u00e0 la CCMTGC.</p>\n<p><img src=\"https://intranet.agr.gc.ca/resources/prod/news/images/GCWCCEscapeRoom-FR.png\" class=\"center-block\"></p>\n\t\t"
    },
    "breadcrumb": {
        "en": "NCR - GCWCC \"Escape the Haunted Headquarters\" Event - Registration Deadline October 9",
        "fr": "RCN - Activit\u00e9 \u00ab \u00c9vadez-vous du CACPA hant\u00e9 \u00bb pour la CCMTGC - Vous avez jusqu'au 9 octobre pour..."
    },
    "news": {
        "date_posted": {
            "en": "2018-10-04",
            "fr": "2018-10-04"
        },
        "to": {
            "en": "NCR only",
            "fr": "RCN seulement"
        },
        "by": {
            "en": "Corporate Management Branch",
            "fr": "Direction g\u00e9n\u00e9rale de la gestion int\u00e9gr\u00e9e"
        }
    }
}