{
    "dcr_id": "1538575336077",
    "lang": "en",
    "title": {
        "en": "United States-Mexico-Canada Agreement",
        "fr": "Accord \u00c9tats-Unis-Mexique-Canada"
    },
    "modified": "2018-10-03 00:00:00.0",
    "issued": "2018-10-03 00:00:00.0",
    "type_name": "intra-intra/news-nouv",
    "node_id": "1279030006975",
    "layout_name": null,
    "dc_date_created": "2018-10-03",
    "breadcrumb_label": "",
    "meta": {
        "issued": {
            "en": "2018-10-03",
            "fr": "2018-10-03"
        },
        "modified": {
            "en": "2018-10-03",
            "fr": "2018-10-03"
        },
        "format": {
            "en": "gcformat",
            "fr": "gcformat"
        },
        "title": {
            "en": "United States-Mexico-Canada Agreement",
            "fr": "Accord \u00c9tats-Unis-Mexique-Canada"
        },
        "subject": {
            "en": "communications",
            "fr": "communications"
        },
        "description": {
            "en": "Canada and the United States reached an agreement this week, alongside Mexico, on a new, modernized trade agreement: the United States-Mexico-Canada Agreement.",
            "fr": "Le Canada, les \u00c9tats-Unis et le Mexique se sont entendus cette semaine sur un nouvel accord modernis\u00e9, l'Accord \u00c9tats-Unis-Mexique-Canada."
        },
        "language": {
            "en": "eng",
            "fr": "fra"
        },
        "audience": {
            "en": "gcaudience",
            "fr": "gcaudience"
        },
        "creator": {
            "en": "Agriculture and Agri-Food Canada",
            "fr": "Agriculture et Agroalimentaire Canada"
        },
        "spatial": {
            "en": "gcregions",
            "fr": "gcregions"
        },
        "service": {
            "en": "AAFC_AgriSource",
            "fr": "AAC_AgriSource"
        },
        "accessRights": {
            "en": "3",
            "fr": "3"
        }
    },
    "body": {
        "en": "<br>\n<br>\n<p>Canada and the United States reached an agreement this week, alongside Mexico, on a new, modernized trade agreement: the United States-Mexico-Canada Agreement (<abbr title=\"United States-Mexico-Canada Agreement\">USMCA</abbr>). This agreement marks an important achievement for the government and the department and is the result of many months of hard work and collaboration.</p>\n<p>Thank you to everyone involved for your dedication, professionalism and your focused effort in reaching this agreement.</p>\n<p>Information about the agricultural components of the agreement can be found in the <a rel=\"external\" href=\"http://international.gc.ca/trade-commerce/trade-agreements-accords-commerciaux/agr-acc/usmca-aeumc/agri.aspx?lang=eng\">Agricultural Chapter summary</a>.</p>\n<p>\u00a0</p>\n<p><strong>Chris Forbes</strong><br>\nDeputy Minister</p>\n\n\t\t",
        "fr": "<br>\n<br>\n<p>Le Canada, les \u00c9tats-Unis et le Mexique se sont entendus cette semaine sur un nouvel accord modernis\u00e9, l\u2019Accord \u00c9tats-Unis-Mexique-Canada (<abbr title=\"Accord \u00c9tats-Unis-Mexique-Canada\">AEUMC</abbr>). Cet accord est une importante r\u00e9alisation du gouvernement et du Minist\u00e8re. Il est l\u2019aboutissement de nombreux mois de travail acharn\u00e9 et d\u2019\u00e9troite collaboration.</p>\n<p>Je remercie tous ceux et celles qui ont travaill\u00e9 sur ce dossier de leur d\u00e9vouement et de leur professionnalisme. Ils ont d\u00e9ploy\u00e9s des efforts cibl\u00e9s pour conclure cet accord.</p>\n<p>Vous trouverez de plus amples renseignements sur les volets portant sur l\u2019agriculture dans le <a rel=\"external\" href=\"http://international.gc.ca/trade-commerce/trade-agreements-accords-commerciaux/agr-acc/usmca-aeumc/agri.aspx?lang=fra\">r\u00e9sum\u00e9 du chapitre sur l\u2019agriculture</a>.</p>\n<p>\u00a0</p>\n<p><strong>Chris Forbes</strong><br>\nSous-ministre</p>\n\t\t"
    },
    "breadcrumb": {
        "en": "United States-Mexico-Canada Agreement",
        "fr": "Accord \u00c9tats-Unis-Mexique-Canada"
    },
    "news": {
        "date_posted": {
            "en": "2018-10-02",
            "fr": "2018-10-02"
        },
        "to": {
            "en": "All staff",
            "fr": "Tous les employ\u00e9s"
        },
        "by": {
            "en": "Chris Forbes, Deputy Minister",
            "fr": "Chris Forbes, Sous-ministre"
        }
    }
}