{
    "dcr_id": "1538506735434",
    "lang": "en",
    "title": {
        "en": "Reminder - NCR - Deadline Extended - Buy Your Tickets Now for the AAFC-CFIA Take Me With You Draw!",
        "fr": "Rappel - RCN - La date limite est prolong\u00e9e - Achetez vos billets d\u00e8s maintenant pour le tirage \u00ab Emmenez-moi avec vous \u00bb d'AAC et de l'ACIA!"
    },
    "modified": "2018-10-17 00:00:00.0",
    "issued": "2018-10-04 00:00:00.0",
    "type_name": "intra-intra/news-nouv",
    "node_id": "1279030006975",
    "layout_name": null,
    "dc_date_created": "2018-10-02",
    "breadcrumb_label": "",
    "meta": {
        "issued": {
            "en": "2018-10-04",
            "fr": "2018-10-04"
        },
        "modified": {
            "en": "2018-10-17",
            "fr": "2018-10-17"
        },
        "format": {
            "en": "gcformat",
            "fr": "gcformat"
        },
        "title": {
            "en": "Reminder - NCR - Deadline Extended - Buy Your Tickets Now for the AAFC-CFIA Take Me With You Draw!",
            "fr": "Rappel - RCN - La date limite est prolong\u00e9e - Achetez vos billets d\u00e8s maintenant pour le tirage \u00ab Emmenez-moi avec vous \u00bb d'AAC et de l'ACIA!"
        },
        "subject": {
            "en": "communications",
            "fr": "communications"
        },
        "description": {
            "en": "If you've ever wondered what a day in the life of a senior executive is like, this is your chance to find out!",
            "fr": "Si vous vous \u00eates d\u00e9j\u00e0 demand\u00e9 \u00e0 quoi ressemblait une journ\u00e9e dans la vie d'un cadre sup\u00e9rieur, voil\u00e0 votre chance de le d\u00e9couvrir!"
        },
        "language": {
            "en": "eng",
            "fr": "fra"
        },
        "audience": {
            "en": "gcaudience",
            "fr": "gcaudience"
        },
        "creator": {
            "en": "Agriculture and Agri-Food Canada",
            "fr": "Agriculture et Agroalimentaire Canada"
        },
        "spatial": {
            "en": "gcregions",
            "fr": "gcregions"
        },
        "service": {
            "en": "AAFC_AgriSource",
            "fr": "AAC_AgriSource"
        },
        "accessRights": {
            "en": "3",
            "fr": "3"
        }
    },
    "body": {
        "en": "<br>\n<br>\n<p>If you\u2019ve ever wondered what a day in the life of a senior executive is like, this is your chance to find out! Purchase AAFC-CFIA Take Me With You raffle tickets to win time with a senior executive at AAFC or CFIA.</p>\n<p><strong>Winners can:</strong></p>\n<ul>\n<li>spend the day with a senior executive</li>\n<li>attend a high-level meeting or</li>\n<li>ask career-related questions over lunch\u00a0</li>\n</ul>\n<h2><strong>Tickets</strong></h2>\n<p><strong>Cost:</strong> $2 per ticket</p>\n<p><strong>Where to buy your tickets:</strong></p>\n<ul>\n<li>12:00 to 1:00 p.m., October 1 to 25, Tower 2 cafeteria</li>\n<li>From Chelsey Gerrard (T7-5-326) (<a href=\"mailto:chelsey.gerrard@canada.ca\">chelsey.gerrard@canada.ca</a>)</li>\n<li>From Qamer Hameed (T7-5-142) (<a href=\"mailto:qamer.hameed@canada.ca\">qamer.hameed@canada.ca</a>)</li>\n</ul>\n<p><strong>Draw:</strong> Winners will be chosen October\u00a026 at 12:00 p.m. in the Tower 2 cafeteria. Winners will also be notified by email or phone.</p>\n<p>Each ticket you purchase not only increases your chances of winning, but you\u2019re also helping members of the community, as proceeds will go to GCWCC.</p>\n<h2><strong>Learn more</strong></h2>\n<p>For a list of participating executives, see the <a href=\"https://collab.agr.gc.ca/co/gcwcc-support-ccmtgc/SitePages/NCR%20CAMPAIGN%20-%20Events%20-%20YPN%20Raffle.aspx\">Take Me With You Draw page on Knowledge Workspace</a>.</p>\n<p><img src=\"https://intranet.agr.gc.ca/resources/prod/news/images/GCWCC12018-EN.png\" class=\"center-block\" alt=\"\"><br><img src=\"https://intranet.agr.gc.ca/resources/prod/news/images/YPN-EN.png\" class=\"center-block\"></p>\n\n\t\t",
        "fr": "<br>\n<br>\n<p>Si vous vous \u00eates d\u00e9j\u00e0 demand\u00e9 \u00e0 quoi ressemblait une journ\u00e9e dans la vie d\u2019un cadre sup\u00e9rieur, voil\u00e0 votre chance de le d\u00e9couvrir! Achetez des billets pour le tirage \u00ab Emmenez-moi avec vous \u00bb et courez la chance de passer du temps avec un cadre d\u2019AAC ou de l\u2019ACIA.</p>\n<p><strong>Les gagnants pourront choisir l\u2019une des options suivantes :</strong></p>\n<ul>\n<li>Passer une journ\u00e9e avec un cadre sup\u00e9rieur;</li>\n<li>Assister \u00e0 une r\u00e9union de haut niveau;</li>\n<li>Poser des questions \u00e0 un cadre sur sa carri\u00e8re pendant un d\u00eener.\u00a0</li>\n</ul>\n<h2><strong>Billets</strong></h2>\n<p><strong>Co\u00fbt :</strong> 2 $ le billet</p>\n<p><strong>Achetez vos billets :</strong></p>\n<ul>\n<li>\u00c0 la caf\u00e9t\u00e9ria de la tour 2, du 1<sup>er</sup> au\u00a025 octobre, de 12 h \u00e0 13 h</li>\n<li>Aupr\u00e8s de Chelsey Gerrard (T7-5-326) (<a href=\"mailto:chelsey.gerrard@canada.ca\">chelsey.gerrard@canada.ca</a>)</li>\n<li>Aupr\u00e8s de Qamer Hameed (T7-5-142) (<a href=\"mailto:qamer.hameed@canada.ca\">qamer.hameed@canada.ca</a>)</li>\n</ul>\n<p><strong>Tirage :</strong> Les gagnants seront choisis le\u00a026 octobre \u00e0 12 h \u00e0 la caf\u00e9t\u00e9ria de la tour 2. Les gagnants seront \u00e9galement inform\u00e9s par courriel ou par t\u00e9l\u00e9phone.</p>\n<p>Chaque billet que vous achetez accro\u00eet non seulement vos chances de gagner, mais vous permet aussi\u00a0d\u2019aider des membres de votre collectivit\u00e9, car tous les fonds amass\u00e9s seront vers\u00e9s \u00e0 la CCMTGC.</p>\n<h2><strong>Pour en savoir plus</strong></h2>\n<p>Pour conna\u00eetre la liste des cadres participants, consultez la <a rel=\"external\" href=\"https://collab.agr.gc.ca/co/gcwcc-support-ccmtgc/SitePages/NCR%20CAMPAIGN%20-%20Events%20-%20YPN%20Raffle.aspx\">page du tirage \u00ab Emmenez-moi avec vous \u00bb dans l'Espace de travail du savoir</a>.</p>\n<p><img src=\"https://intranet.agr.gc.ca/resources/prod/news/images/GCWCC12018-FR.png\" class=\"center-block\" alt=\"\"><br><img src=\"https://intranet.agr.gc.ca/resources/prod/news/images/YPN-FR.png\" class=\"center-block\"></p>\n\t\t"
    },
    "breadcrumb": {
        "en": "NCR - Reminder - NCR - Deadline Extended - Buy Your Tickets Now for the AAFC-CFIA Take Me With You Draw!",
        "fr": "RCN - Rappel - RCN - La date limite est prolong\u00e9e - Achetez vos billets d\u00e8s maintenant pour le tirage..."
    },
    "news": {
        "date_posted": {
            "en": "2018-10-04",
            "fr": "2018-10-04"
        },
        "to": {
            "en": "NCR only",
            "fr": "RCN seulement"
        },
        "by": {
            "en": "Young Professionals Network",
            "fr": "R\u00e9seau des jeunes professionnels"
        }
    }
}