{
    "dcr_id": "1538509508981",
    "lang": "en",
    "title": {
        "en": "Celebrate Women's History Month - October 2018",
        "fr": "C\u00e9l\u00e9brons le Mois de l'histoire des femmes - octobre 2018"
    },
    "modified": "2018-10-10 00:00:00.0",
    "issued": "2018-10-10 00:00:00.0",
    "type_name": "intra-intra/news-nouv",
    "node_id": "1279030006975",
    "layout_name": null,
    "dc_date_created": "2018-10-02",
    "breadcrumb_label": "",
    "meta": {
        "issued": {
            "en": "2018-10-10",
            "fr": "2018-10-10"
        },
        "modified": {
            "en": "2018-10-10",
            "fr": "2018-10-10"
        },
        "format": {
            "en": "gcformat",
            "fr": "gcformat"
        },
        "title": {
            "en": "Celebrate Women's History Month - October 2018",
            "fr": "C\u00e9l\u00e9brons le Mois de l'histoire des femmes - octobre 2018"
        },
        "subject": {
            "en": "communications",
            "fr": "communications"
        },
        "description": {
            "en": "October is Women's History Month, a time for Canadians to celebrate the achievements of women and girls throughout our history and to recognize the trailblazing women who have shaped our country and way of life.",
            "fr": "Octobre est le Mois de l'histoire des femmes. C'est l'occasion pour les Canadiens de c\u00e9l\u00e9brer les r\u00e9alisations des femmes et des filles tout au long de notre histoire et de reconna\u00eetre les femmes qui ont fait figure de pionni\u00e8res et qui ont fa\u00e7onn\u00e9 notre pays et notre mode de vie."
        },
        "language": {
            "en": "eng",
            "fr": "fra"
        },
        "audience": {
            "en": "gcaudience",
            "fr": "gcaudience"
        },
        "creator": {
            "en": "Agriculture and Agri-Food Canada",
            "fr": "Agriculture et Agroalimentaire Canada"
        },
        "spatial": {
            "en": "gcregions",
            "fr": "gcregions"
        },
        "service": {
            "en": "AAFC_AgriSource",
            "fr": "AAC_AgriSource"
        },
        "accessRights": {
            "en": "3",
            "fr": "3"
        }
    },
    "body": {
        "en": "<br>\n<br>\n<p>October is Women\u2019s History Month, a time for Canadians to celebrate the achievements of women and girls throughout our history and to recognize the trailblazing women who have shaped our country and way of life.</p>\n<p>Women\u2019s History Month also includes the recognition of Persons Day on October 18. This day marks the anniversary of the historic decision in 1929 that expanded the legal definition of \u201cpersons\u201d to include women. This change gave women the right to be appointed to the Senate of Canada and paved the way for women's increased participation in public and political life.</p>\n<p>To celebrate Women\u2019s History Month, you can:</p>\n<ul>\n<li>learn more about <a rel=\"external\" href=\"https://swc-cfc.gc.ca/commemoration/whm-mhf/index-en.html\">Women\u2019s History Month</a> and <a rel=\"external\" href=\"https://swc-cfc.gc.ca/commemoration/whm-mhf/persons-personne-en.html\">Persons Day</a></li>\n<li>take the <a rel=\"external\" href=\"https://swc-cfc.gc.ca/gba-acs/course-cours-en.html\">Gender-Based Analysis Plus</a> course to learn how various identity factors can influence the experience of federal government initiatives</li>\n<li>view the <a rel=\"external\" href=\"https://swc-cfc.gc.ca/commemoration/whm-mhf/question-en.html\">Discussion Topics and Questions for Discussion</a> on Status of Women Canada\u2019s website to start a conversation in the workplace or at home</li>\n<li>follow <a rel=\"external\" href=\"https://twitter.com/hashtag/makeanimpact?ref_src=twsrc%5Egoogle%7Ctwcamp%5Eserp%7Ctwgr%5Ehashtag\">#MakeAnImpact on Twitter</a> to learn about extraordinary Canadian women, past and present</li>\n<li>visit AAFC\u2019s Women in Science Network's <a rel=\"external\" href=\"https://collab.agr.gc.ca/co/wis-fes/SitePages/Home.aspx\">Knowledge Workspace</a> to learn more about the network and its activities</li>\n</ul>\n<p>You are also encouraged to learn more about AAFC\u2019s other <a rel=\"external\" href=\"https://collab.agr.gc.ca/co/eedi-emedi/SitePages/Home.aspx\">Diversity Networks</a> and their upcoming events.</p>\n<p><img src=\"https://intranet.agr.gc.ca/resources/prod/news/images/WomensHistoryMonth2018-EN.png\" class=\"center-block\"></p>\n\n\t\t",
        "fr": "<br>\n<br>\n<p>Octobre est le Mois de l\u2019histoire des femmes. C\u2019est l\u2019occasion pour les Canadiens de c\u00e9l\u00e9brer les r\u00e9alisations des femmes et des filles tout au long de notre histoire et de reconna\u00eetre les femmes qui ont fait figure de pionni\u00e8res et qui ont fa\u00e7onn\u00e9 notre pays et notre mode de vie.</p>\n<p>Nous c\u00e9l\u00e9brons aussi la Journ\u00e9e de l\u2019affaire \u00ab personne \u00bb le 18 octobre. Cette journ\u00e9e souligne l\u2019anniversaire de la d\u00e9cision historique prise en 1929 qui a reconnu aux femmes le statut juridique de \u00ab personnes \u00bb. Cette d\u00e9cision a ouvert les portes du S\u00e9nat aux Canadiennes et a pr\u00e9par\u00e9 le terrain \u00e0 leur participation accrue \u00e0 la vie publique et politique.</p>\n<p>Vous pouvez c\u00e9l\u00e9brer le Mois de l\u2019histoire des femmes en :</p>\n<ul>\n<li>consultant les sites web du <a rel=\"external\" href=\"https://swc-cfc.gc.ca/commemoration/whm-mhf/index-fr.html\">Mois de l\u2019histoire des femmes</a> et de la <a rel=\"external\" href=\"https://swc-cfc.gc.ca/commemoration/whm-mhf/persons-personne-fr.html\">Journ\u00e9e de l\u2019affaire \u00ab personne \u00bb</a> pour en savoir plus\n</li>\n<li>suivant le cours sur <a rel=\"external\" href=\"https://swc-cfc.gc.ca/gba-acs/course-cours-fr.html\">L'analyse comparative entre les sexes plus</a> pour apprendre \u00e0 reconna\u00eetre l\u2019influence que peuvent avoir divers facteurs identitaires sur la mani\u00e8re dont les initiatives f\u00e9d\u00e9rales touchent diff\u00e9rentes personnes</li>\n<li>consultant la page\u00a0<a rel=\"external\" href=\"https://swc-cfc.gc.ca/commemoration/whm-mhf/question-fr.html\">Sujet de discussion et questions \u00e0 d\u00e9battre</a> sur le site web de Condition f\u00e9minine Canada pour commencer une conversation au travail ou \u00e0 la maison</li>\n<li>suivant le mot-clic <a rel=\"external\" href=\"https://twitter.com/hashtag/OnInfluence?src=hash\">#OnInfluence sur Twitter</a> pour d\u00e9couvrir des Canadiennes extraordinaires \u2013 d\u2019hier et d\u2019aujourd\u2019hui</li>\n<li>visitant la page du R\u00e9seau des femmes en science d\u2019AAC dans l\u2019<a rel=\"external\" href=\"https://collab.agr.gc.ca/co/wis-fes/SitePages/Home.aspx\">Espace de travail du savoir</a> pour obtenir de plus amples renseignements sur le R\u00e9seau et ses activit\u00e9s</li>\n</ul>\n<p>Vous \u00eates \u00e9galement invit\u00e9 \u00e0 vous renseigner sur les autres <a rel=\"external\" href=\"https://collab.agr.gc.ca/co/eedi-emedi/SitePages/Home.aspx\">r\u00e9seaux de la diversit\u00e9</a> d\u2019AAC et sur leurs prochaines activit\u00e9s.</p>\n<p><img src=\"https://intranet.agr.gc.ca/resources/prod/news/images/WomensHistoryMonth2018-FR.png\" class=\"center-block\"></p>\n\t\t"
    },
    "breadcrumb": {
        "en": "Celebrate Women's History Month - October 2018",
        "fr": "C\u00e9l\u00e9brons le Mois de l'histoire des femmes - octobre 2018"
    },
    "news": {
        "date_posted": {
            "en": "2018-10-10",
            "fr": "2018-10-10"
        },
        "to": {
            "en": "All staff",
            "fr": "Tous les employ\u00e9s"
        },
        "by": {
            "en": "Women in Science Network and Corporate Management Branch",
            "fr": "R\u00e9seau des femmes en science et Direction g\u00e9n\u00e9rale de la gestion int\u00e9gr\u00e9e"
        }
    }
}