{
    "dcr_id": "1539093333369",
    "lang": "en",
    "title": {
        "en": "NCR - Moose Hide Campaign - National Gathering and Day of Fasting - October 18",
        "fr": "RCN - Campagne Moose Hide - Rassemblement national et journ\u00e9e nationale de je\u00fbne et de soutien - 18 octobre"
    },
    "modified": "2018-10-11 00:00:00.0",
    "issued": "2018-10-11 00:00:00.0",
    "type_name": "intra-intra/news-nouv",
    "node_id": "1279030006975",
    "layout_name": null,
    "dc_date_created": "2018-10-09",
    "breadcrumb_label": "",
    "meta": {
        "issued": {
            "en": "2018-10-11",
            "fr": "2018-10-11"
        },
        "modified": {
            "en": "2018-10-11",
            "fr": "2018-10-11"
        },
        "format": {
            "en": "gcformat",
            "fr": "gcformat"
        },
        "title": {
            "en": "NCR - Moose Hide Campaign - National Gathering and Day of Fasting - October 18",
            "fr": "RCN - Campagne Moose Hide - Rassemblement national et journ\u00e9e nationale de je\u00fbne et de soutien - 18 octobre"
        },
        "subject": {
            "en": "communications",
            "fr": "communications"
        },
        "description": {
            "en": "The 3<sup>rd</sup> annual National Moose Hide Campaign Gathering and Day of Fasting will take place on Thursday, October 18, in Ottawa.",
            "fr": "Le 3<sup>e</sup> rassemblement annuel national et la journ\u00e9e de je\u00fbne de la campagne Moose Hide aura lieu \u00e0 Ottawa, le jeudi 18 octobre."
        },
        "language": {
            "en": "eng",
            "fr": "fra"
        },
        "audience": {
            "en": "gcaudience",
            "fr": "gcaudience"
        },
        "creator": {
            "en": "Agriculture and Agri-Food Canada",
            "fr": "Agriculture et Agroalimentaire Canada"
        },
        "spatial": {
            "en": "gcregions",
            "fr": "gcregions"
        },
        "service": {
            "en": "AAFC_AgriSource",
            "fr": "AAC_AgriSource"
        },
        "accessRights": {
            "en": "3",
            "fr": "3"
        }
    },
    "body": {
        "en": "<br>\n<br>\n<p>The 3<sup>rd</sup> annual National Moose Hide Campaign Gathering and Day of Fasting will take place on <strong>Thursday, October 18, </strong>in Ottawa. This event brings together members of Parliament, senators, Aboriginal leaders, service leaders, the philanthropic community, community leaders, public servants and other guests.</p>\n<p>Participants are able to listen to speakers of honour and take part in ceremonies in support of efforts to end violence against women and children. These efforts include a day of fasting, participation in ceremonies and healing circles for men and women, and a feast at sunset marking the end of the fast.</p>\n<p><strong>To register for this event, or for more information, please visit the <a rel=\"external\" href=\"https://www.moosehidecampaign.ca/events/national-gathering-and-day-of-fasting-2018/gathering-2018\">Moose Hide Campaign website</a>.</strong></p>\n<p><img src=\"https://intranet.agr.gc.ca/resources/prod/news/images/MooseHideCampaign.png\" class=\"center-block\"></p>\n\n\t\t",
        "fr": "<br>\n<br>\n<p>Le 3<sup>e</sup> rassemblement annuel national et la journ\u00e9e de je\u00fbne de la campagne Moose Hide aura lieu \u00e0 Ottawa, <strong>le jeudi 18 octobre</strong>. L\u2019\u00e9v\u00e9nement r\u00e9unit des d\u00e9put\u00e9s, des s\u00e9nateurs, des dirigeants autochtones, des chefs d\u2019organismes de services, la communaut\u00e9 philanthropique, des dirigeants communautaires, des fonctionnaires et d\u2019autres invit\u00e9s.</p>\n<p>Les participants pourront \u00e9couter des conf\u00e9renciers d\u2019honneur et prendre part \u00e0 des c\u00e9r\u00e9monies \u00e0 l\u2019appui des efforts visant \u00e0 mettre fin \u00e0 la violence contre les femmes et les enfants. Ces efforts comprennent une journ\u00e9e de je\u00fbne, la participation \u00e0 des c\u00e9r\u00e9monies et \u00e0 des cercles de gu\u00e9rison pour hommes et pour femmes, ainsi qu\u2019un festin au coucher du soleil marquant la fin du je\u00fbne.</p>\n<p><b>Pour de plus amples renseignements ou pour vous inscrire \u00e0 l\u2019activit\u00e9, veuillez consulter le <a rel=\"external\" href=\"https://www.moosehidecampaign.ca/events/fr/rassemblement-national-des-hommes-de-la-campagne-moose-hide\">site Web de la campagne Moose Hide</a>.</b></p>\n<p><b>\n<img src=\"https://intranet.agr.gc.ca/resources/prod/news/images/MooseHideCampaign.png\" class=\"center-block\"></b></p>\n\t\t"
    },
    "breadcrumb": {
        "en": "NCR - Moose Hide Campaign - National Gathering and Day of Fasting - October 18",
        "fr": "RCN - Campagne Moose Hide - Rassemblement national et journ\u00e9e nationale de je\u00fbne et de soutien..."
    },
    "news": {
        "date_posted": {
            "en": "2018-10-11",
            "fr": "2018-10-11"
        },
        "to": {
            "en": "NCR only",
            "fr": "RCN seulement"
        },
        "by": {
            "en": "Indigenous Support and Awareness Office",
            "fr": "Bureau de soutien et de sensibilisation des Autochtones"
        }
    }
}