{
    "dcr_id": "1539090987599",
    "lang": "en",
    "title": {
        "en": "Healthy Workplace Month - Events October 15 to 19 - Seminar Registration",
        "fr": "Mois de la sant\u00e9 au travail - Activit\u00e9s pr\u00e9vues pour la semaine du 15 au 19 octobre - Inscription au s\u00e9minaire"
    },
    "modified": "2018-10-11 00:00:00.0",
    "issued": "2018-10-11 00:00:00.0",
    "type_name": "intra-intra/news-nouv",
    "node_id": "1279030006975",
    "layout_name": null,
    "dc_date_created": "2018-10-09",
    "breadcrumb_label": "",
    "meta": {
        "issued": {
            "en": "2018-10-11",
            "fr": "2018-10-11"
        },
        "modified": {
            "en": "2018-10-11",
            "fr": "2019-01-28"
        },
        "format": {
            "en": "gcformat",
            "fr": "gcformat"
        },
        "title": {
            "en": "Healthy Workplace Month - Events October 15 to 19 - Seminar Registration",
            "fr": "Mois de la sant\u00e9 au travail - Activit\u00e9s pr\u00e9vues pour la semaine du 15 au 19 octobre - Inscription au s\u00e9minaire"
        },
        "subject": {
            "en": "communications",
            "fr": "communications"
        },
        "description": {
            "en": "We are pleased to remind you of the upcoming Healthy Workplace Month events planned for the week of October 15 to 19.",
            "fr": "Nous sommes heureux de vous rappeler les activit\u00e9s pr\u00e9vues pour la semaine du 15 au 19 octobre dans le cadre du Mois de la sant\u00e9 au travail."
        },
        "language": {
            "en": "eng",
            "fr": "fra"
        },
        "audience": {
            "en": "gcaudience",
            "fr": "gcaudience"
        },
        "creator": {
            "en": "Agriculture and Agri-Food Canada",
            "fr": "Agriculture et Agroalimentaire Canada"
        },
        "spatial": {
            "en": "gcregions",
            "fr": "gcregions"
        },
        "service": {
            "en": "AAFC_AgriSource",
            "fr": "AAC_AgriSource"
        },
        "accessRights": {
            "en": "3",
            "fr": "3"
        }
    },
    "body": {
        "en": "<br>\n<br>\n<p>We are pleased to remind you of the upcoming Healthy Workplace Month events planned for the week of October 15 to 19. The theme for this week is <strong>workplace/life balance</strong>. Registration and further event details can be found in the <a href=\"https://collab.agr.gc.ca/co/aafcwe-beaac/SitePages/Healthy%20Workplace%20Month.aspx?WikiPageMode=Edit&amp;amp;InitialTabId=Ribbon.EditingTools.CPEditTab&amp;amp;VisibilityContext=WSSWikiPage\">Workplace Wellness calendar</a> \u2013 come out and support mental health and workplace well-being at AAFC!</p>\n<h2><strong>Resiliency at Work Seminar</strong></h2>\n<p>This seminar will provide participants with an understanding of the different components that contribute to resiliency and will show them how they can thrive under pressure.</p>\n<p><strong>Date and time:</strong> Monday, October 15 |\u00a02:00 to 3:00 p.m. (AT)<br><strong>Language:</strong> English<br><strong>Location:</strong> Dieppe - 459 Paul St., Room HR1. To attend this seminar in person, register on <a href=\"https://collab.agr.gc.ca/co/aafcwe-beaac/Lists/Events/DispForm.aspx?ID=33\">Knowledge Workspace</a>.<br><strong>Videoconference: </strong>75000010471; <strong>Guest Pin:</strong> 2832 (no registration required).</p>\n<p><em>Employees in the NCR are encouraged to attend in the following rooms to maximize videoconference capacity: T4-2-11, T5-2-211 (1:00 to 2:00 p.m. ET).</em></p>\n<h2><strong>The Sandwich<em> </em>Generation Seminar</strong></h2>\n<p>For people in the <em>sandwich generation</em>\u2014those who care for children and elderly parents\u2014life can be especially demanding. This seminar will encourage participants to tune into important considerations in their lives with respect to caring for elderly family members as well as children and grandchildren,\u00a0while still\u00a0caring for themselves.</p>\n<p><strong>Date and time:</strong> Thursday, October 18 |\u00a012:00 to 1:00 p.m. (CT)<br><strong>Language:</strong> English<br><strong>Location:</strong> 167 Lombard Ave., Boardroom 707 - 7th floor, Winnipeg, MB. To attend this seminar in person, register on <a href=\"https://collab.agr.gc.ca/co/aafcwe-beaac/Lists/Events/DispForm.aspx?ID=34\">Knowledge Workspace</a>.<br><strong>Videoconference: </strong>75000010471; <strong>Guest Pin:</strong> 2832 (no registration required).</p>\n<p><em>Employees in the NCR are encouraged to attend in the following rooms to maximize videoconference capacity: T3-1-370 (1:00 to 2:00 p.m. ET). </em></p>\n<h2><strong>Bullying in the Workplace Seminar</strong></h2>\n<p>Unfortunately, bullying is far too common in the workplace and can have dire consequences for the victim. Bullying not only affects work productivity, but can have long-lasting psychological effects. In this seminar, participants will learn how to play a proactive role in assisting someone that is being bullied and how to stop bullying in the workplace.</p>\n<p><strong>Date and time:</strong> Friday, October 19 |\u00a011:00 a.m. to 12:00 p.m. (ET)<br><strong>Language:</strong> English<br><strong>Location:</strong> NHCAP (T3-1-313). To attend this seminar in person, register on <a href=\"https://collab.agr.gc.ca/co/aafcwe-beaac/Lists/Events/DispForm.aspx?ID=28\">Knowledge Workspace</a>.<br><strong>Videoconference: </strong>75000010471; <strong>Guest Pin:</strong> 2832 (no registration required)</p>\n<p><img src=\"https://intranet.agr.gc.ca/resources/prod/news/images/HealthyWorkplaceMonth2018-EN.png\" class=\"center-block\"></p>\n<p>\u00a0</p>\n\n\t\t",
        "fr": "<br>\n<br>\n<p>Nous sommes heureux de vous rappeler les activit\u00e9s pr\u00e9vues pour la semaine du 15 au 19 octobre dans le cadre du Mois de la sant\u00e9 au travail. Le th\u00e8me de cette semaine est l\u2019<strong>\u00e9quilibre entre le travail et la vie personnelle</strong>. Pour vous inscrire aux activit\u00e9s et obtenir plus de d\u00e9tails \u00e0 ce sujet, consultez le <a href=\"https://collab.agr.gc.ca/co/aafcwe-beaac/SitePages/Healthy%20Workplace%20Month.aspx?WikiPageMode=Edit&amp;amp;InitialTabId=Ribbon.EditingTools.CPEditTab&amp;amp;VisibilityContext=WSSWikiPage\">Calendrier d\u2019activit\u00e9s sur le mieux-\u00eatre en milieu de travail</a>. Venez appuyer la sant\u00e9 mentale et le mieux-\u00eatre en milieu de travail \u00e0 AAC!</p>\n<h2><strong>S\u00e9minaire sur la r\u00e9silience au travail</strong></h2>\n<p>Ce s\u00e9minaire permettra aux participants de comprendre les diverses composantes qui contribuent \u00e0 la r\u00e9silience et leur montrera comment ils peuvent bien travailler sous pression.</p>\n<p><strong>Date et heure :</strong> Lundi 15 octobre |\u00a014 h \u00e0 15 h (HA)<br><strong>Langue :</strong> Anglais<br><strong>Lieu :</strong> Dieppe \u2013 459, rue Paul,\u00a0salle HR1. Pour participer \u00e0 ce s\u00e9minaire en personne, veuillez vous inscrire dans l'<a href=\"https://collab.agr.gc.ca/co/aafcwe-beaac/Lists/Events/DispForm.aspx?ID=33\">Espace de travail du\u00a0savoir</a>.\u00a0<br><strong>Vid\u00e9oconf\u00e9rence : </strong>75000010471; <strong>NIP d\u2019invit\u00e9 :</strong> 2832 (aucune inscription n\u00e9cessaire)</p>\n<p><em>Les employ\u00e9s de la RCN sont invit\u00e9s \u00e0 se pr\u00e9senter aux salles suivantes pour optimiser la capacit\u00e9 de vid\u00e9oconf\u00e9rence : T4-2-11 et T5-2-211 (13 h \u00e0 14 h, HE).</em></p>\n<h2><strong>S\u00e9minaire sur la <em>g\u00e9n\u00e9ration sandwich</em></strong></h2>\n<p>La vie peut \u00eatre particuli\u00e8rement exigeante pour les personnes de la <em>g\u00e9n\u00e9ration sandwich</em> qui prennent soin \u00e0 la fois de leurs enfants et de leurs parents \u00e2g\u00e9s. Ce s\u00e9minaire encouragera les participants \u00e0 examiner des aspects importants de leur vie en ce qui a trait \u00e0 la fa\u00e7on dont ils s\u2019occupent des membres \u00e2g\u00e9s de leur famille, de leurs enfants, de leurs petits enfants et aussi d\u2019eux-m\u00eames.</p>\n<p><strong>Date et heure :</strong> Jeudi 18 octobre\u00a0| 12 h \u00e0 13 h (HC)<br><strong>Langue :</strong> Anglais<br><strong>Lieu :</strong> 167, av. Lombard, salle de conf\u00e9rence 707, 7<sup>e</sup> \u00e9tage, Winnipeg (Manitoba). Pour participer \u00e0 ce s\u00e9minaire en personne, veuillez vous inscrire dans l'<a href=\"https://collab.agr.gc.ca/co/aafcwe-beaac/Lists/Events/DispForm.aspx?ID=34\">Espace de travail du savoir</a>.<br><strong>Vid\u00e9oconf\u00e9rence : </strong>75000010471; <strong>NIP d\u2019invit\u00e9 :</strong> 2832 (aucune inscription n\u00e9cessaire)</p>\n<p><em>Les employ\u00e9s de la RCN sont invit\u00e9s \u00e0 se pr\u00e9senter \u00e0 la salle suivante pour maximiser la capacit\u00e9 lors de la vid\u00e9oconf\u00e9rence : T3-1-370 (13 h \u00e0 14 h, HE). </em></p>\n<h2><strong>S\u00e9minaire sur l\u2019intimidation en milieu de travail</strong></h2>\n<p>Malheureusement, l\u2019intimidation est beaucoup trop courante en milieu de travail et peut avoir de graves cons\u00e9quences chez la victime. L\u2019intimidation affecte non seulement la productivit\u00e9 au travail, mais elle peut avoir des effets psychologiques \u00e0 long terme. Dans ce s\u00e9minaire, les participants apprendront comment jouer un r\u00f4le proactif afin d\u2019aider une personne qui fait l\u2019objet d\u2019intimidation et comment mettre fin \u00e0 ce ph\u00e9nom\u00e8ne en milieu de travail.</p>\n<p><strong>Date et heure :</strong> Vendredi 19 octobre\u00a0| 11 h \u00e0 12 h (HE)<br><strong>Langue :</strong> Anglais<br><strong>Lieu :</strong> CACPA (T3-1-313). Pour participer \u00e0 ce s\u00e9minaire en personne, veuillez vous inscrire dans l'<a href=\"https://collab.agr.gc.ca/co/aafcwe-beaac/Lists/Events/DispForm.aspx?ID=28\">Espace de travail du savoir</a>.<br><strong>Vid\u00e9oconf\u00e9rence : </strong>75000010471; <strong>NIP d\u2019invit\u00e9 :</strong> 2832 (aucune inscription n\u00e9cessaire)</p>\n<p><img src=\"https://intranet.agr.gc.ca/resources/prod/news/images/HealthyWorkplaceMonth2018-FR.png\" class=\"center-block\"></p>\n\t\t"
    },
    "breadcrumb": {
        "en": "Healthy Workplace Month - Events October 15 to 19 - Seminar Registration",
        "fr": "Mois de la sant\u00e9 au travail - Activit\u00e9s pr\u00e9vues pour la semaine du 15 au 19 octobre - Inscription..."
    },
    "news": {
        "date_posted": {
            "en": "2018-10-11",
            "fr": "2018-10-11"
        },
        "to": {
            "en": "All staff",
            "fr": "Tous les employ\u00e9s"
        },
        "by": {
            "en": "Human Resources, Corporate Management Branch",
            "fr": "Ressources humaines, Direction g\u00e9n\u00e9rale de la gestion int\u00e9gr\u00e9e"
        }
    }
}