{
    "dcr_id": "1539697504926",
    "lang": "en",
    "title": {
        "en": "Healthy Workplace Month - Events October 22 to 26 - Registration is Open",
        "fr": "Mois de la sant\u00e9 au travail - Activit\u00e9s du 22 au 26 octobre - L'inscription est ouverte"
    },
    "modified": "2018-10-18 00:00:00.0",
    "issued": "2018-10-18 00:00:00.0",
    "type_name": "intra-intra/news-nouv",
    "node_id": "1279030006975",
    "layout_name": null,
    "dc_date_created": "2018-10-17",
    "breadcrumb_label": "",
    "meta": {
        "issued": {
            "en": "2018-10-18",
            "fr": "2018-10-18"
        },
        "modified": {
            "en": "2018-10-18",
            "fr": "2018-10-18"
        },
        "format": {
            "en": "gcformat",
            "fr": "gcformat"
        },
        "title": {
            "en": "Healthy Workplace Month - Events October 22 to 26 - Registration is Open",
            "fr": "Mois de la sant\u00e9 au travail - Activit\u00e9s du 22 au 26 octobre - L'inscription est ouverte"
        },
        "subject": {
            "en": "communications",
            "fr": "communications"
        },
        "description": {
            "en": "We are pleased to remind you of the upcoming Healthy Workplace Month events planned for the week of October 22 to 26.",
            "fr": "Nous sommes heureux de vous rappeler les activit\u00e9s pr\u00e9vues pour la semaine du 22 octobre dans le cadre du Mois de la sant\u00e9 au travail."
        },
        "language": {
            "en": "eng",
            "fr": "fra"
        },
        "audience": {
            "en": "gcaudience",
            "fr": "gcaudience"
        },
        "creator": {
            "en": "Agriculture and Agri-Food Canada",
            "fr": "Agriculture et Agroalimentaire Canada"
        },
        "spatial": {
            "en": "gcregions",
            "fr": "gcregions"
        },
        "service": {
            "en": "AAFC_AgriSource",
            "fr": "AAC_AgriSource"
        },
        "accessRights": {
            "en": "3",
            "fr": "3"
        }
    },
    "body": {
        "en": "<br>\n<br>\n<p>We are pleased to remind you of the upcoming Healthy Workplace Month events planned for the week of October 22 to 26. The theme for this week is <strong>Mindfulness</strong>. Registration and event details can be found in the <a rel=\"external\" href=\"https://collab.agr.gc.ca/co/aafcwe-beaac/Lists/Calendar/calendar.aspx\">Workplace Wellness calendar of events</a> \u2013 come out and support mental health and workplace well-being at AAFC!</p>\n<h2><strong>Boosting Your Positive Outlook seminar</strong></h2>\n<p>This seminar will help participants understand the ways in which seemingly automatic negative thinking occurs, recognize its typical manifestations, and develop a process for tackling negative thoughts effectively.</p>\n<p><strong>Date and time:</strong> Monday, October 22 | 10:00 to 11:00 a.m. (ET)<br><strong>Language:</strong> English<br><strong>Location:</strong> NHCAP (T7-6-244). To attend this seminar in person, register on <a rel=\"external\" href=\"https://collab.agr.gc.ca/co/aafcwe-beaac/Lists/Events/DispForm.aspx?ID=35\">Knowledge Workspace</a>.<br><strong>Videoconference: </strong>75000010471. <strong>Guest Pin:</strong> 2832 (no registration required).</p>\n<h2><strong>Presentation on parental burnout and depression</strong></h2>\n<p>Melissa Scullion from the Federal Speakers\u2019 Bureau presents her personal experience with burnout and depression. She shares her story in the hopes that people will realize they are not alone, and that a burnout or depression can hit anyone at any time.</p>\n<p><strong>Date and time:</strong> Friday, October 26 | 1:30 to 2:30 p.m. (ET)<br><strong>Language:</strong> English<br><strong>Location:</strong> NHCAP (T3-1-370). To attend this seminar in person, register on <a rel=\"external\" href=\"https://collab.agr.gc.ca/co/aafcwe-beaac/Lists/Events/DispForm.aspx?ID=29\">Knowledge Workspace</a>.<br><strong>Videoconference: </strong>75000010471. <strong>Guest Pin:</strong> 2832 (no registration required).</p>\n<p><img src=\"https://intranet.agr.gc.ca/resources/prod/news/images/HealthyWorkplaceMonth2018-EN.png\" class=\"center-block\"></p>\n\n\t\t",
        "fr": "<br>\n<br>\n<p>Nous sommes heureux de vous rappeler les activit\u00e9s pr\u00e9vues pour la semaine du 22 octobre dans le cadre du Mois de la sant\u00e9 au travail. Le th\u00e8me de cette semaine est la <strong>pleine conscience</strong>. Vous trouverez de l\u2019information sur les activit\u00e9s et l\u2019inscription dans le <a rel=\"external\" href=\"https://collab.agr.gc.ca/co/aafcwe-beaac/Lists/Calendar/calendar.aspx\">calendrier sur le mieux-\u00eatre au travail</a>. Venez appuyer la sant\u00e9 mentale et le mieux-\u00eatre au travail \u00e0 AAC!</p>\n<h2><strong>S\u00e9minaire Boosting Your Positive Outlook (dynamisez votre approche positive)</strong></h2>\n<p>Ce s\u00e9minaire aidera les participants \u00e0 comprendre comment se produit la pens\u00e9e n\u00e9gative qui semble automatique, \u00e0 reconna\u00eetre ses manifestations typiques et \u00e0 d\u00e9velopper un processus pour \u00e9liminer efficacement les pens\u00e9es n\u00e9gatives.</p>\n<p><strong>Date et heure :</strong> Lundi 22 octobre | 10 h \u00e0 11 h (HE)<br><strong>Langue :</strong> Anglais<br><strong>Lieu :</strong> CACPA (T7-6-244). Pour participer \u00e0 ce s\u00e9minaire en personne, veuillez vous inscrire dans l'<a rel=\"external\" href=\"https://collab.agr.gc.ca/co/aafcwe-beaac/Lists/Events/DispForm.aspx?ID=35\">Espace de travail du savoir</a>.<br><strong>Vid\u00e9oconf\u00e9rence : </strong>75000010471; <strong>NIP d\u2019invit\u00e9 :</strong> 2832 (aucune inscription requise).</p>\n<h2><strong>Pr\u00e9sentation sur l\u2019\u00e9puisement parental et la d\u00e9pression</strong></h2>\n<p>Melissa Scullion, du Bureau des conf\u00e9renciers f\u00e9d\u00e9raux, parlera de son exp\u00e9rience personnelle de l\u2019\u00e9puisement parental et de la d\u00e9pression. Elle t\u00e9moigne afin que les gens r\u00e9alisent qu\u2019ils ne sont pas seuls et que personne n\u2019est \u00e0 l\u2019abri de l\u2019\u00e9puisement ou de la d\u00e9pression.</p>\n<p><strong>Date et heure :</strong>\u00a0Vendredi 26 octobre |\u00a013 h 30 \u00e0 14 h 30 (HE)<br><strong>Langue :</strong> Anglais<br><strong>Lieu :</strong> CACPA (T3-1-370). Pour participer \u00e0 ce s\u00e9minaire en personne, veuillez vous inscrire dans l'<a rel=\"external\" href=\"https://collab.agr.gc.ca/co/aafcwe-beaac/Lists/Events/DispForm.aspx?ID=29\">Espace de travail du savoir</a>.<br><strong>Vid\u00e9oconf\u00e9rence : </strong>75000010471; <strong>NIP d\u2019invit\u00e9 :</strong> 2832 (aucune inscription requise).</p>\n<p><img src=\"https://intranet.agr.gc.ca/resources/prod/news/images/HealthyWorkplaceMonth2018-FR.png\" class=\"center-block\"></p>\n\t\t"
    },
    "breadcrumb": {
        "en": "Healthy Workplace Month - Events October 22 to 26 - Registration is Open",
        "fr": "Mois de la sant\u00e9 au travail - Activit\u00e9s du 22 au 26 octobre - L'inscription est ouverte"
    },
    "news": {
        "date_posted": {
            "en": "2018-10-18",
            "fr": "2018-10-18"
        },
        "to": {
            "en": "All staff",
            "fr": "Tous les employ\u00e9s"
        },
        "by": {
            "en": "Human Resources, Corporate Management Branch",
            "fr": "Ressources humaines, Direction g\u00e9n\u00e9rale de la gestion int\u00e9gr\u00e9e"
        }
    }
}