{
    "dcr_id": "1539117887947",
    "lang": "en",
    "title": {
        "en": "Media Relations Officer",
        "fr": "Agent des relations avec les m\u00e9dias"
    },
    "modified": "2018-10-10 00:00:00.0",
    "issued": "2018-10-10 00:00:00.0",
    "type_name": "intra-intra/empl-empl",
    "node_id": "1279029955397",
    "layout_name": null,
    "dc_date_created": "2018-10-10",
    "breadcrumb_label": "",
    "meta": {
        "issued": {
            "en": "2018-10-10",
            "fr": "2018-10-10"
        },
        "modified": {
            "en": "2018-10-10",
            "fr": "2018-10-10"
        },
        "format": {
            "en": "gcformat",
            "fr": "gcformat"
        },
        "title": {
            "en": "Media Relations Officer",
            "fr": "Agent des relations avec les m\u00e9dias"
        },
        "subject": {
            "en": "staffing",
            "fr": "dotation en personnel"
        },
        "language": {
            "en": "eng",
            "fr": "fra"
        },
        "audience": {
            "en": "gcaudience",
            "fr": "gcaudience"
        },
        "type": {
            "en": "notice",
            "fr": "avis"
        },
        "creator": {
            "en": "Agriculture and Agri-Food Canada",
            "fr": "Agriculture et Agroalimentaire Canada"
        },
        "spatial": {
            "en": "gcregions",
            "fr": "gcregions"
        },
        "service": {
            "en": "AAFC_AgriSource",
            "fr": "AAC_AgriSource"
        },
        "accessRights": {
            "en": "3",
            "fr": "3"
        }
    },
    "body": {
        "en": "\n<p><strong>\u00a0</strong></p>\n<p><strong>Duties:</strong><em> </em></p>\n<p>\u00a0</p>\n<p>The Regions, Media, Events and Consultations Directorate of PAB has an opening among its team for a Media Relations Officer. The position reports to the Manager of the unit and entails responding to various queries from the media, stakeholders and the general public in regards to the agricultural sector. The position also includes providing communications advice and services to higher management and consulting with internal clients and other government departments. Your knowledge of the department, your ability to work within tight deadlines and to communicate effectively make you an ideal candidate.</p>\n<p>If you are looking for a challenging position and an opportunity to learn more about the communications field, this position is for you. Don\u2019t miss out on this great job opportunity!</p>\n<p>\u00a0</p>\n<p><strong>Statement of Merit Criteria &amp; Conditions of Employment</strong></p>\n<p>\u00a0</p>\n<p><strong>Essential Qualifications</strong></p>\n<p>\u00a0</p>\n<p><b>Education:</b></p>\n<ul>\n<li>University or college degree from a recognized institution with specialization in communications or in another field related to the position to be staffed.</li>\n</ul>\n<p>\u00a0</p>\n<p><b>Experience:</b></p>\n<ul>\n<li>\n<p>Experience in providing communications services and advice to supervisors/managers and clients.</p>\n</li>\n<li>\n<p>Experience in writing, editing and implementing communications products (such as news releases, media lines, communications plans and strategies, brochures, webpages, social media, articles, etc).</p>\n</li>\n<li>\n<p>Experience in coordinating diverse communications activities in support of at least two of the following: public events, press conferences, and internal or external outreach activities.</p>\n</li>\n<li>\n<p>Experience in balancing competing priorities associated with a changing workload.</p>\n</li>\n</ul>\n<p>\u00a0</p>\n<p><strong>Knowledge:</strong></p>\n<ul>\n<li>\n<p>Knowledge of the Department\u2019s mandate, priorities, programs and services.</p>\n</li>\n<li>\n<p>Knowledge of communications principles and practices, including the Government of Canada Communications Policy.</p>\n</li>\n</ul>\n<p>\u00a0</p>\n<p><b>Competencies:</b></p>\n<ul>\n<li>\n<p>Good judgement</p>\n</li>\n<li>\n<p>Effective interpersonal skills</p>\n</li>\n<li>\n<p>Initiative</p>\n</li>\n<li>\n<p>Thoroughness</p>\n</li>\n</ul>\n<p>\u00a0</p>\n<p><b>Language Requirement(s):</b></p>\n<ul>\n<li>\n<p>Bilingual Imperative (CBC/CBC)</p>\n</li>\n</ul>\n<p>\u00a0</p>\n<p><strong>Assets Qualifications: </strong></p>\n<ul>\n<li>\n<p>\nExperience in analyzing public and/or stakeholder attitudes/reactions and other related activities.</p>\n</li>\n<li>\n<p>Experience in media relations.</p>\n</li>\n</ul>\n<p>\u00a0</p>\n<h3><strong>Organizational Needs</strong></h3>\n<p>\u00a0</p>\n<p>In support of achieving a diversified workforce, consideration may be given to candidates self-identifying as belonging to one of the following Employment Equity groups: Aboriginal peoples, Persons with a Disability; Visible Minorities, Women.</p>\n<p>\u00a0</p>\n<p><strong>Conditions of Employment:</strong><strong> </strong></p>\n<ul>\n<li>\n<p>Security Requirement(s): Secret security clearance;</p>\n</li>\n<li>\n<p>Willingness to work flexible hours;</p>\n</li>\n<li>\n<p>Willingness and ability to work overtime.</p>\n</li>\n</ul>\n<p>\u00a0</p>\n<p><strong>Applications:</strong></p>\n<p>\u00a0</p>\n<p>Interested Government of Canada employees are encouraged to forward their resume and cover letter to Patrick Girard at <a href=\"patrick.girard@canada.ca%20\">patrick.girard@canada.ca</a><em> </em></p>\n<p>\u00a0</p>\n<p>Resumes must clearly identify:</p>\n<ul>\n<li>\n<p>Your tenure (e.g. term or indeterminate)</p>\n</li>\n<li>\n<p>Your substantive group and level</p>\n</li>\n</ul>\n<p>\u00a0</p>\n<ul>\n</ul>\n",
        "fr": "\n<p><strong>\u00a0</strong></p>\n<p><strong>Fonctions :</strong><em>\u00a0\u00a0</em></p>\n<p>La Direction des r\u00e9gions, des m\u00e9dias, des consultations et des \u00e9v\u00e9nements de la Direction g\u00e9n\u00e9rale des affaires publiques a un poste d\u2019agent des relations avec les m\u00e9dias \u00e0 pourvoir. Le titulaire du poste rel\u00e8vera du gestionnaire de l\u2019\u00e9quipe et devra r\u00e9pondre aux questions des m\u00e9dias, des intervenants et du public concernant le secteur agricole. Le titulaire devra \u00e9galement offrir des conseils et des services en communications \u00e0 la haute direction et consulter des clients internes et des repr\u00e9sentants d\u2019autres minist\u00e8res. Le candidat id\u00e9al conna\u00eet bien le Minist\u00e8re, est capable de respecter des \u00e9ch\u00e9ances serr\u00e9es et peut communiquer avec efficacit\u00e9. Si vous aimez les d\u00e9fis et voulez en apprendre davantage sur le domaine des communications, ce poste est pour vous. Ne ratez pas votre chance!</p>\n<p>\u00a0</p>\n<p><strong>\u00c9nonc\u00e9 des crit\u00e8res de m\u00e9rite et conditions d\u2019emplois</strong></p>\n<p>\u00a0</p>\n<p><strong>Qualifications</strong> <strong>essentielles</strong></p>\n<p>\u00a0</p>\n<p><strong>\u00c9tudes</strong></p>\n<ul>\n<li>Dipl\u00f4me universitaire ou coll\u00e9gial d\u2019un \u00e9tablissement reconnu avec sp\u00e9cialisation en communications ou dans un domaine connexe au poste \u00e0 pourvoir.</li>\n</ul>\n<p>\u00a0</p>\n<p><strong>Exp\u00e9rience</strong></p>\n<ul>\n<li>\n<p>Exp\u00e9rience de la prestation de conseils ou de services en communications \u00e0 des cadres sup\u00e9rieurs, ainsi que de la consultation aupr\u00e8s de clients internes et d\u2019autres minist\u00e8res.</p>\n</li>\n<li>Exp\u00e9rience des relations avec les m\u00e9dias ou de la r\u00e9ponse aux demandes du public, verbalement et par \u00e9crit.</li>\n<li>\n<p>Exp\u00e9rience de la r\u00e9daction, de la r\u00e9vision et de la diffusion de produits de communication (communiqu\u00e9s, infocapsules, plans et strat\u00e9gies de communication, brochures, pages Web, m\u00e9dias sociaux, articles, etc.)</p>\n</li>\n<li>\n<p>Exp\u00e9rience de la coordination de diverses activit\u00e9s de communication \u00e0 l\u2019appui d\u2019au moins deux des activit\u00e9s suivantes : activit\u00e9s publiques, points de presse et activit\u00e9s de sensibilisation internes ou externes.</p>\n</li>\n</ul>\n<ul>\n<li>\n<p>Exp\u00e9rience de la conciliation de priorit\u00e9s concurrentes associ\u00e9es \u00e0 l\u2019\u00e9volution de la charge de travail.</p>\n</li>\n</ul>\n<p>\u00a0</p>\n<p><strong>Connaissances</strong></p>\n<ul>\n<li>\n<p>Connaissance du mandat, des priorit\u00e9s, des programmes et des services du Minist\u00e8re.</p>\n</li>\n<li>\n<p>Connaissance des principes et des pratiques de communication, y compris de la Politique de communication du gouvernement du Canada.</p>\n</li>\n</ul>\n<p>\u00a0</p>\n<p><strong>Comp\u00e9tences</strong></p>\n<ul>\n<li>\n<p>Jugement</p>\n</li>\n<li>\n<p>Entregent</p>\n</li>\n<li>\n<p>Initiative</p>\n</li>\n<li>\n<p>Rigueur</p>\n</li>\n</ul>\n<p>\u00a0</p>\n<p><strong>Exigences linguistiques</strong> :</p>\n<ul>\n<li>Bilinguisme imp\u00e9ratif \u00e0 la nomination \u2013 CBC</li>\n</ul>\n<p>\u00a0</p>\n<p><strong>Qualifications constituant un atout </strong></p>\n<ul>\n<li>\n<p>Exp\u00e9rience de l\u2019analyse des attitudes ou r\u00e9actions du public ou des intervenants et d\u2019autres activit\u00e9s connexes.</p>\n</li>\n<li>\n<p>Exp\u00e9rience des relations avec les m\u00e9dias.</p>\n</li>\n</ul>\n<p>\u00a0</p>\n<h3><strong>Besoins organisationnels</strong></h3>\n<p>\u00a0</p>\n<p>Pour les besoins de la diversification de l\u2019effectif, une attention particuli\u00e8re pourrait \u00eatre accord\u00e9e aux candidats qui auront indiqu\u00e9 leur appartenance \u00e0 l\u2019un des groupes suivants, vis\u00e9s par l\u2019\u00e9quit\u00e9 en mati\u00e8re d\u2019emploi : Autochtones, personnes handicap\u00e9es, membres d\u2019une minorit\u00e9 visible, femmes.</p>\n<p><strong>\u00a0</strong></p>\n<p><strong>Conditions d\u2019emploi</strong></p>\n<p>\u00a0</p>\n<p>Exigences en mati\u00e8re de s\u00e9curit\u00e9 : Cote de s\u00e9curit\u00e9 de niveau \u00ab\u2009Secret\u2009\u00bb</p>\n<p>\u00a0</p>\n<p>Volont\u00e9 de travailler selon un horaire variable.</p>\n<p>\u00a0</p>\n<p>Consentir et \u00eatre apte \u00e0 faire des heures suppl\u00e9mentaires.</p>\n<p>\u00a0</p>\n<p><strong>Demandes</strong></p>\n<p>\u00a0</p>\n<p>Les employ\u00e9s du gouvernement du Canada sont encourag\u00e9s \u00e0 faire parvenir leur curriculum vitae et leur lettre de pr\u00e9sentation \u00e0 Patrick Girard \u00e0 l\u2019adresse <a href=\"mailto:patrick.girard@canada.ca\">patrick.girard@canada.ca</a><em> </em></p>\n<p>\u00a0</p>\n<p>Dans leur curriculum vit\u00e6, les candidats doivent clairement indiquer :</p>\n<ul>\n<li>\n<p>la dur\u00e9e de leur emploi (p. ex. d\u00e9termin\u00e9e ou ind\u00e9termin\u00e9e);</p>\n</li>\n<li>\n<p>leur groupe et niveau de titularisation.</p>\n</li>\n</ul>\n<p>\u00a0</p>\n<ul>\n</ul>\n\n"
    },
    "breadcrumb": {
        "en": "Media Relations Officer",
        "fr": "Agent des relations avec les m\u00e9dias"
    },
    "empl": {
        "type": {
            "en": "Assignment, Acting",
            "fr": "Affectation, Int\u00e9rimaire"
        },
        "classification": {
            "en": "IS-4 and equivalent",
            "fr": "IS-4 et \u00e9quivalent"
        },
        "branch": {
            "en": "Public Affairs Branch",
            "fr": "Direction g\u00e9n\u00e9rale des affaires publiques"
        },
        "locations": {
            "en": "NCR",
            "fr": "RCN"
        },
        "date_closing": {
            "en": "2018-10-18",
            "fr": "2018-10-18"
        },
        "open_to": {
            "en": "Employees of AAFC",
            "fr": "Employ\u00e9s d'AAC"
        },
        "name": {
            "en": "Patrick Girard",
            "fr": "Patrick Girard"
        },
        "email": {
            "en": "patrick.girard@canada.ca",
            "fr": "patrick.girard@canada.ca"
        }
    }
}