{
    "dcr_id": "1540822745289",
    "lang": "en",
    "title": {
        "en": "Deputy Ministers' Office Staffing Announcement",
        "fr": "Annonce de dotation du bureau des sous-ministres "
    },
    "modified": "2018-10-29 00:00:00.0",
    "issued": "2018-10-29 00:00:00.0",
    "type_name": "intra-intra/news-nouv",
    "node_id": "1279030006975",
    "layout_name": null,
    "dc_date_created": "2018-10-29",
    "breadcrumb_label": "",
    "meta": {
        "issued": {
            "en": "2018-10-29",
            "fr": "2018-10-29"
        },
        "modified": {
            "en": "2018-10-29",
            "fr": "2018-10-29"
        },
        "format": {
            "en": "gcformat",
            "fr": "gcformat"
        },
        "title": {
            "en": "Deputy Ministers' Office Staffing Announcement",
            "fr": "Annonce de dotation du bureau des sous-ministres "
        },
        "subject": {
            "en": "communications",
            "fr": "communications"
        },
        "description": {
            "en": "We are pleased to announce that Bonnie Fung has accepted a one-year assignment as Senior Policy Advisor to the Associate Deputy Minister, effective October 29, 2018.",
            "fr": "Nous sommes heureux d'annoncer que Bonnie Fung a accept\u00e9 une affectation d'un an \u00e0 titre de conseill\u00e8re principale en politiques de la sous-ministre d\u00e9l\u00e9gu\u00e9e \u00e0 compter du 29 octobre 2018."
        },
        "language": {
            "en": "eng",
            "fr": "fra"
        },
        "audience": {
            "en": "gcaudience",
            "fr": "gcaudience"
        },
        "creator": {
            "en": "Agriculture and Agri-Food Canada",
            "fr": "Agriculture et Agroalimentaire Canada"
        },
        "spatial": {
            "en": "gcregions",
            "fr": "gcregions"
        },
        "service": {
            "en": "AAFC_AgriSource",
            "fr": "AAC_AgriSource"
        },
        "accessRights": {
            "en": "3",
            "fr": "3"
        }
    },
    "body": {
        "en": "<br>\n<br>\n<p>We are pleased to announce that Bonnie Fung has accepted a one-year assignment as Senior Policy Advisor to the Associate Deputy Minister, effective October 29, 2018.</p>\n<p>Bonnie brings with her a deep knowledge of the department with over eight years of experience with the Market and Industry Services Branch, most recently as Deputy Director, Trade Remedies, Strategic Trade Policy Division.</p>\n<p>Prior to joining AAFC, Bonnie held positions at Foreign Affairs and International Trade Canada, within the North American Trade Policy Division and the Technical Barriers and Regulation Division.</p>\n<p>Please join us in wishing Bonnie well in her new position.</p>\n<p>\u00a0</p>\n<p><strong>Chris Forbes</strong><br>\nDeputy Minister</p>\n<p><strong>Annette Gibbons</strong><br>\nAssociate Deputy Minister</p>\n<p>\u00a0</p>\n\n\t\t",
        "fr": "<br>\n<br>\n<p>Nous sommes heureux d\u2019annoncer que Bonnie Fung a accept\u00e9 une affectation d\u2019un an \u00e0 titre de conseill\u00e8re principale en politiques de la sous-ministre d\u00e9l\u00e9gu\u00e9e \u00e0 compter du 29 octobre 2018.</p>\n<p>Bonnie poss\u00e8de une grande connaissance du Minist\u00e8re. Elle a travaill\u00e9 huit ans \u00e0 la Direction g\u00e9n\u00e9rale des services \u00e0 l\u2019industrie et aux march\u00e9s, plus r\u00e9cemment comme directrice adjointe des Recours commerciaux, Division de la politique commerciale strat\u00e9gique.</p>\n<p>Avant d\u2019entrer au service d\u2019AAC, Bonnie a occup\u00e9 des postes \u00e0 Affaires \u00e9trang\u00e8res et Commerce international Canada, dans la Division de la politique commerciale de l\u2019Am\u00e9rique du Nord et la Division des r\u00e8glements et des obstacles techniques.</p>\n<p>Nous vous invitons \u00e0 souhaiter bonne chance \u00e0 Bonnie dans son nouveau poste.</p>\n<p>\u00a0</p>\n<p><strong>Chris Forbes</strong><br>\nSous-ministre</p>\n<p><strong>Annette Gibbons</strong><br>\nSous-ministre d\u00e9l\u00e9gu\u00e9e</p>\n\t\t"
    },
    "breadcrumb": {
        "en": "Deputy Ministers' Office Staffing Announcement",
        "fr": "Annonce de dotation du bureau des sous-ministres"
    },
    "news": {
        "date_posted": {
            "en": "2018-10-26",
            "fr": "2018-10-26"
        },
        "to": {
            "en": "All staff",
            "fr": "Tous les employ\u00e9s"
        },
        "by": {
            "en": "Chris Forbes, Deputy Minister, and Annette Gibbons, Associate Deputy Minister",
            "fr": "Chris Forbes, sous-ministre et Annette Gibbons, sous-ministre d\u00e9l\u00e9gu\u00e9e"
        }
    }
}