{
    "dcr_id": "1540233235624",
    "lang": "en",
    "title": {
        "en": "Saskatchewan Provincial Sales Tax Refund or Recovery for Some Employees ",
        "fr": "Remboursement ou recouvrement de la taxe de vente provinciale de la Saskatchewan pour certains employ\u00e9s "
    },
    "modified": "2018-10-25 00:00:00.0",
    "issued": "2018-10-25 00:00:00.0",
    "type_name": "intra-intra/news-nouv",
    "node_id": "1279030006975",
    "layout_name": null,
    "dc_date_created": "2018-10-22",
    "breadcrumb_label": "",
    "meta": {
        "issued": {
            "en": "2018-10-25",
            "fr": "2018-10-25"
        },
        "modified": {
            "en": "2018-10-25",
            "fr": "2018-10-25"
        },
        "format": {
            "en": "gcformat",
            "fr": "gcformat"
        },
        "title": {
            "en": "Saskatchewan Provincial Sales Tax Refund or Recovery for Some Employees ",
            "fr": "Remboursement ou recouvrement de la taxe de vente provinciale de la Saskatchewan pour certains employ\u00e9s "
        },
        "subject": {
            "en": "communications",
            "fr": "communications"
        },
        "description": {
            "en": "In February 2018, the Government of Saskatchewan removed the 6% Provincial Sales Tax on insurance premiums effective retroactively as of August 1, 2017 (date when the sales tax was originally instated).",
            "fr": "En f\u00e9vrier 2018, le gouvernement de la Saskatchewan a supprim\u00e9 la taxe de vente provinciale de 6 % sur les primes d'assurance r\u00e9troactivement au 1<sup>er</sup> ao\u00fbt 2017 (date \u00e0 laquelle la taxe de vente avait \u00e9t\u00e9 instaur\u00e9e)."
        },
        "language": {
            "en": "eng",
            "fr": "fra"
        },
        "audience": {
            "en": "gcaudience",
            "fr": "gcaudience"
        },
        "creator": {
            "en": "Agriculture and Agri-Food Canada",
            "fr": "Agriculture et Agroalimentaire Canada"
        },
        "spatial": {
            "en": "gcregions",
            "fr": "gcregions"
        },
        "service": {
            "en": "AAFC_AgriSource",
            "fr": "AAC_AgriSource"
        },
        "accessRights": {
            "en": "3",
            "fr": "3"
        }
    },
    "body": {
        "en": "<br>\n<br>\n<p>In February 2018, the Government of Saskatchewan removed the 6% Provincial Sales Tax (<abbr title=\"Provincial Sales Tax\">PST</abbr>) on insurance premiums effective retroactively as of August 1, 2017 (date when the sales tax was originally instated). As a result, Public Services and Procurement Canada has removed the Saskatchewan sales tax from the Phoenix pay system as of July 1, 2018.</p>\n<p>Employees who lived and worked in Saskatchewan and were paying this tax will notice an adjustment to their pay. Some employees will receive a refund based on <abbr title=\"Provincial Sales Tax\">PST</abbr> amounts they paid between August 1, 2017 and June 30, 2018, and others will see a recovery of the <abbr title=\"Provincial Sales Tax\">PST</abbr> amount that was refunded incorrectly due to manual processing.</p>\n<p>Any automated refund or a recovery will be processed for the October 31, 2018 paycheque.</p>\n<p>Please note that if a recovery of this sales tax is required, it will not be subject to the repayment flexibilities provided for overpayments.</p>\n<p>Impacted employees are encouraged to review their pay stubs for more information as to whether they were paying the Saskatchewan <abbr title=\"Provincial Sales Tax\">PST</abbr> or if they received a <abbr title=\"Provincial Sales Tax\">PST</abbr> refund.</p>\n<p>For assistance on how to read your pay stub, please consult the <a rel=\"external\" href=\"http://www.tpsgc-pwgsc.gc.ca/remuneration-compensation/services-paye-pay-services/paye-information-pay/lire-paye-talon-read-pay-stub-eng.html\">How to read your pay stub</a> web page or the <a href=\"http://intranet.agr.gc.ca/agrisource/eng/human-resources/pay-benefits-and-phoenix?id=1511367056518\">Pay, Benefits and Phoenix\u00a0AgriSource\u00a0page</a>.</p>\n\n\t\t",
        "fr": "<br>\n<br>\n<p>En f\u00e9vrier 2018, le gouvernement de la Saskatchewan a supprim\u00e9 la taxe de vente provinciale (<abbr title=\"taxe de vente provinciale\">TVP</abbr>) de 6\u00a0% sur les primes d\u2019assurance r\u00e9troactivement au 1<sup>er</sup> ao\u00fbt 2017 (date \u00e0 laquelle la taxe de vente avait \u00e9t\u00e9 instaur\u00e9e). Par cons\u00e9quent, Services publics et Approvisionnement Canada a supprim\u00e9 la taxe de vente de la Saskatchewan du syst\u00e8me de paye Ph\u00e9nix en date du 1<sup>er\u00a0</sup>juillet\u00a02018.</p>\n<p>\nLes employ\u00e9s qui ont habit\u00e9 et travaill\u00e9 en Saskatchewan et qui ont pay\u00e9 cette taxe verront un rajustement sur leur paye. Certains employ\u00e9s auront un remboursement en fonction du montant de TVP qu\u2019ils ont pay\u00e9 entre le 1<sup>er</sup> ao\u00fbt 2018 et le 30 juin 2018. D\u2019autres employ\u00e9s devront rembourser le montant \u00e9quivalent de la <abbr title=\"taxe de vente provinciale\">TVP</abbr> qui leur avait \u00e9t\u00e9 vers\u00e9 de fa\u00e7on erron\u00e9e en raison d\u2019un traitement manuel.</p>\n<p>\nTout remboursement ou recouvrement automatique sera appliqu\u00e9 \u00e0 la paye du 31 octobre 2018.</p>\n<p>\nVeuillez noter que si un recouvrement de cette taxe de vente doit \u00eatre effectu\u00e9, les modalit\u00e9s de remboursement souples offertes pour les trop-pay\u00e9s ne pourront pas \u00eatre appliqu\u00e9es.</p>\n<p>\nLes employ\u00e9s touch\u00e9s sont encourag\u00e9s \u00e0 v\u00e9rifier leurs talons de paye afin de v\u00e9rifier s\u2019ils ont pay\u00e9 la <abbr title=\"taxe de vente provinciale\">TVP</abbr> de la Saskatchewan ou s\u2019ils ont re\u00e7u un remboursement de cette <abbr title=\"taxe de vente provinciale\">TVP</abbr>.</p>\n<p>\nPour obtenir de l\u2019aide sur la fa\u00e7on de lire votre talon de paye, veuillez consulter la page Web intitul\u00e9e <a href=\"http://www.tpsgc-pwgsc.gc.ca/remuneration-compensation/services-paye-pay-services/paye-information-pay/lire-paye-talon-read-pay-stub-fra.html\">Comment interpr\u00e9ter votre talon de paye</a>\u00a0ou la <a href=\"http://intranet.agr.gc.ca/agrisource/fra/ressources-humaines/remuneration-avantages-sociaux-et-phenix?id=1511367056518\">page R\u00e9mun\u00e9ration, avantages sociaux et Ph\u00e9nix dans\u00a0AgriSource</a>.</p>\n\t\t"
    },
    "breadcrumb": {
        "en": "Saskatchewan Provincial Sales Tax Refund or Recovery for Some Employees",
        "fr": "Remboursement ou recouvrement de la taxe de vente provinciale de la Saskatchewan pour certains employ\u00e9s"
    },
    "news": {
        "date_posted": {
            "en": "2018-10-25",
            "fr": "2018-10-25"
        },
        "to": {
            "en": "All staff",
            "fr": "Tous les employ\u00e9s"
        },
        "by": {
            "en": "Public Services and Procurement Canada",
            "fr": "Services publics et Approvisionnement Canada"
        }
    }
}