{
    "dcr_id": "1541714663771",
    "lang": "en",
    "title": {
        "en": "Gender Based Analysis Plus Awareness Week: November 19 to 23",
        "fr": "Semaine de sensibilisation \u00e0 l'analyse comparative entre les sexes plus : du 19 au 23 novembre"
    },
    "modified": "2018-11-15 00:00:00.0",
    "issued": "2018-11-14 00:00:00.0",
    "type_name": "intra-intra/news-nouv",
    "node_id": "1279030006975",
    "layout_name": null,
    "dc_date_created": "2018-11-08",
    "breadcrumb_label": "",
    "meta": {
        "issued": {
            "en": "2018-11-14",
            "fr": "2018-11-14"
        },
        "modified": {
            "en": "2018-11-15",
            "fr": "2018-11-15"
        },
        "format": {
            "en": "gcformat",
            "fr": "gcformat"
        },
        "title": {
            "en": "Gender Based Analysis Plus Awareness Week: November 19 to 23",
            "fr": "Semaine de sensibilisation \u00e0 l'analyse comparative entre les sexes plus : du 19 au 23 novembre"
        },
        "subject": {
            "en": "communications",
            "fr": "communications"
        },
        "description": {
            "en": "Gender Based Analysis Plus is an important part of the federal government's efforts to embrace diversity and deliver real results for Canadians.",
            "fr": "L'analyse comparative entre les sexes plus fait partie des initiatives f\u00e9d\u00e9rales importantes visant \u00e0 pr\u00f4ner la diversit\u00e9 et \u00e0 produire des r\u00e9sultats concrets pour les Canadiens."
        },
        "language": {
            "en": "eng",
            "fr": "fra"
        },
        "audience": {
            "en": "gcaudience",
            "fr": "gcaudience"
        },
        "creator": {
            "en": "Agriculture and Agri-Food Canada",
            "fr": "Agriculture et Agroalimentaire Canada"
        },
        "spatial": {
            "en": "gcregions",
            "fr": "gcregions"
        },
        "service": {
            "en": "AAFC_AgriSource",
            "fr": "AAC_AgriSource"
        },
        "accessRights": {
            "en": "3",
            "fr": "3"
        }
    },
    "body": {
        "en": "<br>\n<br>\n<p>Gender Based Analysis Plus (<abbr title=\"Gender Based Analysis Plus\">GBA+) </abbr>is an important part of the federal government\u2019s efforts to embrace diversity and deliver real results for Canadians. We all have a role to play in supporting this priority. Join us in celebrating the annual <abbr title=\"Gender Based Analysis Plus\">GBA+</abbr> Awareness Week, November 19 to November 23, and learn how you can incorporate <abbr title=\"Gender Based Analysis Plus\">GBA+</abbr> into your work life.</p>\n<h2><strong>AAFC\u2019s events at a glance</strong></h2>\n<p>The following events are all hosted in Ottawa at NHCAP. Videoconferencing will be available unless otherwise indicated. To register for events, please contact Tonya Temple at <a href=\"mailto:tonya.temple@canada.ca\">tonya.temple@canada.ca</a>. For more information, check out the <a href=\"https://collab.agr.gc.ca/co/si-is/SitePages/GBA+%20Awareness%20Week.aspx?WikiPageMode=Edit&amp;InitialTabId=Ribbon.EditingTools.CPEditTab&amp;VisibilityContext=WSSWikiPage\">events page</a> on Knowledge Workspace.</p>\n<p><strong>Kick-off event with a presentation on advancing women in agriculture<br>Date: </strong>Monday, November 19<br><strong>\nTime: </strong>9:30 to 11:00 a.m. (ET)<br><strong>\nLocation: </strong>T3-1-351<br><strong>\nVideoconference: </strong>76137730901;<strong> Guest PIN: </strong>1445#<br><strong>\n</strong>No registration required.</p>\n<p><strong>Workshop: Gender and Sexual Diversity in the Workplace\u00a0 <br>Date: </strong>Tuesday, November 20<br><strong>\nTime: </strong>10:00 to 11:30 a.m. (ET)<br>\nFurther details will be provided to registered participants through a meeting scheduler.</p>\n<p><strong>Panel Discussion: Advancing Diversity <br>Date: </strong>Wednesday, November 21<br><strong>\nTime: </strong>1:00 to 2:30 p.m. (ET)<br>\nFurther details will be provided to registered participants through a meeting scheduler.</p>\n<p><strong>Introduction to <abbr title=\"Gender Based Analysis Plus\">GBA+</abbr> Training <br>Date: </strong>Thursday, November 22<br><strong>\nTime: </strong>Drop in between 12:00 and 4:00 p.m. (ET)<br><strong>\nLocation: </strong>T5-1-366<br><strong>\n</strong>No registration required; videoconference not available. </p>\n<p><strong>Unconscious Bias Training <br>Date: </strong>Friday, November 23<br><strong>\nTime: </strong>10:00 a.m. to 12:00 p.m. (ET)<br><strong>\n</strong>Further details will be provided to registered participants through a meeting scheduler.</p>\n<h2><strong>What is <abbr title=\"Gender Based Analysis Plus\">GBA+?</abbr></strong></h2>\n<p><abbr title=\"Gender Based Analysis Plus\">GBA+</abbr> is an analytical tool used to assess potential impacts of initiatives on diverse groups of women and men, taking into account gender and other identity factors. The \"plus\" includes the examination of a range of intersecting identity factors (such as age, education, language, geography, culture and income). It provides a lens to help us understand how diverse groups of women and men experience public policy in Canada.</p>\n<p><img src=\"https://intranet.agr.gc.ca/resources/prod/news/images/GBAPlusAwarenessWeek-EN.png\" class=\"center-block\"></p>\n\n\t\t",
        "fr": "<br>\n<br>\n<p>L\u2019analyse comparative entre les sexes plus (<abbr title=\"analyse comparative entre les sexes plus \">ACS+</abbr>) fait partie des initiatives f\u00e9d\u00e9rales importantes visant \u00e0 pr\u00f4ner la diversit\u00e9 et \u00e0 produire des r\u00e9sultats concrets pour les Canadiens. Nous avons tous un r\u00f4le \u00e0 jouer pour appuyer cette priorit\u00e9. C\u00e9l\u00e9brons la Semaine annuelle de sensibilisation \u00e0 l\u2019<abbr title=\"analyse comparative entre les sexes plus \">ACS+</abbr> (du 19 au 23 novembre) et apprenons comment nous pouvons int\u00e9grer l\u2019<abbr title=\"analyse comparative entre les sexes plus \">ACS+</abbr> au travail que nous accomplissons.</p>\n<h2><strong>Aper\u00e7u des activit\u00e9s d\u2019AAC</strong></h2>\n<p>\nLes activit\u00e9s suivantes ont toutes lieu au CACPA, \u00e0 Ottawa. La participation par vid\u00e9oconf\u00e9rence sera possible, \u00e0 moins d\u2019avis contraire. Pour vous inscrire aux activit\u00e9s, veuillez communiquer avec Tonya Temple \u00e0 l\u2019adresse <a href=\"mailto:tonya.temple@canada.ca\">tonya.temple@canada.ca</a>. Pour obtenir plus d\u2019information, consultez la <a href=\"https://collab.agr.gc.ca/co/si-is/SitePages/GBA+%20Awareness%20Week.aspx\">page d'\u00e9v\u00e9nements</a>, dans l\u2019Espace de travail du savoir.</p>\n<p><strong>Lancement de la semaine par une pr\u00e9sentation sur l\u2019avancement des femmes en agriculture<br>Date : </strong>lundi 19 novembre<br><strong>\nHeure :\u00a0</strong>9 h 30 \u00e0 11 h\u00a0(HE)<br><strong>\nLieu : </strong>T3-1-351<br><strong>\nVid\u00e9oconf\u00e9rence : </strong>76137730901; <strong>NIP d\u2019invit\u00e9 : </strong>1445#<br><strong>\n</strong>Aucune inscription requise</p>\n<p><strong>Atelier : La diversit\u00e9 des genres et de la sexualit\u00e9 en milieu de travail <br>Date : </strong>jeudi 20 novembre<br><strong>\nHeure : </strong>10 h \u00e0 11 h 30 (HE)<br>\nDe plus amples renseignements seront fournis aux participants inscrits dans la convocation \u00e0 la r\u00e9union.</p>\n<p><strong>Discussion en groupe : Promouvoir la diversit\u00e9 <br>Date : </strong>mercredi 21 novembre<br><strong>\nHeure : </strong>13 h \u00e0 14 h 30 (HE)<br>\nDe plus amples renseignements seront fournis aux participants inscrits dans la convocation \u00e0 la r\u00e9union.</p>\n<p><strong>Formation de base sur l\u2019<abbr title=\"analyse comparative entre les sexes plus \">ACS+ </abbr><br>Date : </strong>jeudi 22 novembre<br><strong>\nHeure : </strong>Vous pouvez vous pr\u00e9senter entre midi et 16 h (HE)<br><strong>\nLieu :\u00a0</strong>T5-1-366<br>\nAucune inscription requise; aucune participation par vid\u00e9oconf\u00e9rence.</p>\n<p><strong>Formation sur les pr\u00e9jug\u00e9s inconscients <br>Date : </strong>vendredi 23 novembre<br><strong>\nHeure : </strong>10 h \u00e0 midi (HE)<br>\nDe plus amples renseignements seront fournis aux participants inscrits dans la convocation \u00e0 la r\u00e9union.</p>\n<h2><strong>Qu\u2019est-ce que l\u2019<abbr title=\"analyse comparative entre les sexes plus \">ACS+?</abbr></strong></h2>\n<p>L\u2019<abbr title=\"analyse comparative entre les sexes plus \">ACS+</abbr> est une m\u00e9thode d\u2019analyse qui permet d\u2019\u00e9valuer les effets \u00e9ventuels d\u2019initiatives sur les femmes et les hommes de diff\u00e9rents horizons en tenant compte du sexe et d\u2019autres facteurs identitaires. Le \u00ab plus \u00bb sert \u00e0 souligner que l\u2019<abbr title=\"analyse comparative entre les sexes plus \">ACS+</abbr> s\u2019\u00e9tend \u00e0 tout un \u00e9ventail de facteurs identitaires (comme l\u2019\u00e2ge, l\u2019\u00e9ducation, la langue, la g\u00e9ographie, la culture et le revenu). L\u2019<abbr title=\"analyse comparative entre les sexes plus \">ACS+</abbr> nous permet de comprendre l\u2019incidence des politiques publiques sur divers groupes de femmes et d\u2019hommes au Canada.</p>\n<p><img src=\"https://intranet.agr.gc.ca/resources/prod/news/images/GBAPlusAwarenessWeek-FR.png\" class=\"center-block\"></p>\n\t\t"
    },
    "breadcrumb": {
        "en": "Gender Based Analysis Plus Awareness Week: November 19 to 23",
        "fr": "Semaine de sensibilisation \u00e0 l'analyse comparative entre les sexes plus : du 19 au 23 novembre"
    },
    "news": {
        "date_posted": {
            "en": "2018-11-14",
            "fr": "2018-11-14"
        },
        "to": {
            "en": "All staff",
            "fr": "Tous les employ\u00e9s"
        },
        "by": {
            "en": "Strategic Integration and Competitiveness Policy, Strategic Policy Branch",
            "fr": "Int\u00e9gration strat\u00e9gique et politique de comp\u00e9titivit\u00e9, Direction g\u00e9n\u00e9rale des politiques strat\u00e9giques"
        }
    }
}