{
    "dcr_id": "1541089409233",
    "lang": "en",
    "title": {
        "en": "Reminder - Mental Health Training - November Sessions",
        "fr": "Rappel - Formation sur la sant\u00e9 mentale - S\u00e9ances en novembre"
    },
    "modified": "2018-11-21 00:00:00.0",
    "issued": "2018-11-08 00:00:00.0",
    "type_name": "intra-intra/news-nouv",
    "node_id": "1279030006975",
    "layout_name": null,
    "dc_date_created": "2018-11-01",
    "breadcrumb_label": "",
    "meta": {
        "issued": {
            "en": "2018-11-08",
            "fr": "2018-11-08"
        },
        "modified": {
            "en": "2018-11-21",
            "fr": "2018-11-21"
        },
        "format": {
            "en": "gcformat",
            "fr": "gcformat"
        },
        "title": {
            "en": "Reminder - Mental Health Training - November Sessions",
            "fr": "Rappel - Formation sur la sant\u00e9 mentale - S\u00e9ances en novembre"
        },
        "subject": {
            "en": "communications",
            "fr": "communications"
        },
        "description": {
            "en": "AAFC is committed to the mental health and well-being of its employees and recognizes that mental illness can touch all of us, directly or indirectly.",
            "fr": "AAC a \u00e0 coeur la sant\u00e9 mentale et le bien-\u00eatre de ses employ\u00e9s et reconna\u00eet que nous sommes tous vuln\u00e9rables, directement ou indirectement, \u00e0 la maladie mentale."
        },
        "language": {
            "en": "eng",
            "fr": "fra"
        },
        "audience": {
            "en": "gcaudience",
            "fr": "gcaudience"
        },
        "creator": {
            "en": "Agriculture and Agri-Food Canada",
            "fr": "Agriculture et Agroalimentaire Canada"
        },
        "spatial": {
            "en": "gcregions",
            "fr": "gcregions"
        },
        "service": {
            "en": "AAFC_AgriSource",
            "fr": "AAC_AgriSource"
        },
        "accessRights": {
            "en": "3",
            "fr": "3"
        }
    },
    "body": {
        "en": "<br>\n<br>\n<p>AAFC is committed to the mental health and well-being of its employees and recognizes that mental illness can touch all of us, directly or indirectly.</p>\n<p><a rel=\"external\" href=\"http://theworkingmind.ca/working-mind\">The Working Mind\u2122</a> is the awareness-based mental health training program of choice for AAFC, developed by the Mental Health Commission of Canada. It is designed to help employees and managers:</p>\n<ul>\n<li>address, promote and build awareness of mental health;</li>\n<li>dispel myths around mental health and mental illness; and</li>\n<li>reduce the stigma of mental illness in the workplace.</li>\n</ul>\n<h2><strong>Upcoming sessions for managers</strong></h2>\n<table cellspacing=\"0\" border=\"1\" width=\"700\">\n<tbody>\n<tr>\n<td style=\"width: 90.45pt;\">\n<p><strong>\u00a0Date</strong></p>\n</td>\n<td style=\"border-color: windowtext windowtext windowtext #000000; width: 155.95pt;\">\n<p><strong>\u00a0Time</strong></p>\n</td>\n<td style=\"border-color: windowtext windowtext windowtext #000000; width: 155.9pt;\">\n<p><strong>\u00a0Location</strong></p>\n</td>\n<td style=\"border-color: windowtext windowtext windowtext #000000; width: 76.5pt;\">\n<p><strong>\u00a0Language</strong></p>\n</td>\n</tr>\n<tr>\n<td style=\"border-color: #000000 windowtext windowtext; width: 90.45pt;\">\n<p>\u00a0November 26\u00a0</p>\n</td>\n<td style=\"border-color: #000000 windowtext windowtext #000000; width: 155.95pt;\">\n<p>\u00a09:00 a.m. to 4:00 p.m. (ET)\u00a0</p>\n</td>\n<td style=\"border-color: #000000 windowtext windowtext #000000; width: 155.9pt;\">\n<p>\u00a0London\u00a0</p>\n</td>\n<td style=\"border-color: #000000 windowtext windowtext #000000; width: 76.5pt;\">\n<p>\u00a0English\u00a0</p>\n</td>\n</tr>\n<tr>\n<td style=\"border-color: #000000 windowtext windowtext; width: 90.45pt;\">\n<p>\u00a0November 28</p>\n</td>\n<td style=\"border-color: #000000 windowtext windowtext #000000; width: 155.95pt;\">\n<p>\u00a08:30 a.m. to 4:30 p.m. (ET)</p>\n</td>\n<td style=\"border-color: #000000 windowtext windowtext #000000; width: 155.9pt;\">\n<p>\u00a0Guelph</p>\n</td>\n<td style=\"border-color: #000000 windowtext windowtext #000000; width: 76.5pt;\">\n<p>\u00a0English</p>\n</td>\n</tr>\n<tr>\n<td style=\"border-color: #000000 windowtext windowtext; width: 90.45pt;\">\n<p>\u00a0November 28</p>\n</td>\n<td style=\"border-color: #000000 windowtext windowtext #000000; width: 155.95pt;\">\n<p>\u00a08:30 a.m. to 4:30 p.m. (CT)</p>\n</td>\n<td style=\"border-color: #000000 windowtext windowtext #000000; width: 155.9pt;\">\n<p>\u00a0Morden</p>\n</td>\n<td style=\"border-color: #000000 windowtext windowtext #000000; width: 76.5pt;\">\n<p>\u00a0English</p>\n</td>\n</tr>\n<tr>\n<td style=\"border-color: #000000 windowtext windowtext; width: 90.45pt;\">\n<p>\u00a0November 30</p>\n</td>\n<td style=\"border-color: #000000 windowtext windowtext #000000; width: 155.95pt;\">\n<p>\u00a08:30 a.m. to 4:30 p.m. (ET)</p>\n</td>\n<td style=\"border-color: #000000 windowtext windowtext #000000; width: 155.9pt;\">\n<p>\u00a0Vineland</p>\n</td>\n<td style=\"border-color: #000000 windowtext windowtext #000000; width: 76.5pt;\">\n<p>\u00a0English</p>\n</td>\n</tr>\n</tbody>\n</table>\n<h2><strong>Upcoming sessions for employees </strong></h2>\n<table cellspacing=\"0\" border=\"1\" width=\"700\">\n<tbody>\n<tr>\n<td style=\"width: 90.45pt;\">\n<p><strong>\u00a0Date</strong></p>\n</td>\n<td style=\"border-color: windowtext windowtext windowtext #000000; width: 155.95pt;\">\n<p><strong>\u00a0Time</strong></p>\n</td>\n<td style=\"border-color: windowtext windowtext windowtext #000000; width: 155.9pt;\">\n<p><strong>\u00a0Location</strong></p>\n</td>\n<td style=\"border-color: windowtext windowtext windowtext #000000; width: 76.5pt;\">\n<p><strong>\u00a0Language</strong></p>\n</td>\n</tr>\n<tr>\n<td style=\"border-color: #000000 windowtext windowtext; width: 90.45pt;\">\n<p>\u00a0November 27</p>\n</td>\n<td style=\"border-color: #000000 windowtext windowtext #000000; width: 155.95pt;\">\n<p>\u00a09:00 a.m. to 12:30 p.m. (ET)</p>\n</td>\n<td style=\"border-color: #000000 windowtext windowtext #000000; width: 155.9pt;\">\n<p>\u00a0London</p>\n</td>\n<td style=\"border-color: #000000 windowtext windowtext #000000; width: 76.5pt;\">\n<p>\u00a0English</p>\n</td>\n</tr>\n<tr>\n<td style=\"border-color: #000000 windowtext windowtext; width: 90.45pt;\">\n<p>\u00a0November 27</p>\n</td>\n<td style=\"border-color: #000000 windowtext windowtext #000000; width: 155.95pt;\">\n<p>\u00a012:30 p.m. to 4:00 p.m. (ET)</p>\n</td>\n<td style=\"border-color: #000000 windowtext windowtext #000000; width: 155.9pt;\">\n<p>\u00a0London</p>\n</td>\n<td style=\"border-color: #000000 windowtext windowtext #000000; width: 76.5pt;\">\n<p>\u00a0English</p>\n</td>\n</tr>\n<tr>\n<td style=\"border-color: #000000 windowtext windowtext; width: 90.45pt;\">\n<p>\u00a0November 28</p>\n</td>\n<td style=\"border-color: #000000 windowtext windowtext #000000; width: 155.95pt;\">\n<p>\u00a08:30 a.m. to 12:00 p.m. (CT)</p>\n</td>\n<td style=\"border-color: #000000 windowtext windowtext #000000; width: 155.9pt;\">\n<p>\u00a0Morden</p>\n</td>\n<td style=\"border-color: #000000 windowtext windowtext #000000; width: 76.5pt;\">\n<p>\u00a0English</p>\n</td>\n</tr>\n<tr>\n<td style=\"border-color: #000000 windowtext windowtext; width: 90.45pt;\">\n<p>\u00a0November 29</p>\n</td>\n<td style=\"border-color: #000000 windowtext windowtext #000000; width: 155.95pt;\">\n<p>\u00a08:30 a.m. to 12:00 p.m. (ET)</p>\n</td>\n<td style=\"border-color: #000000 windowtext windowtext #000000; width: 155.9pt;\">\n<p>\u00a0Guelph</p>\n</td>\n<td style=\"border-color: #000000 windowtext windowtext #000000; width: 76.5pt;\">\n<p>\u00a0English</p>\n</td>\n</tr>\n<tr>\n<td style=\"border-color: #000000 windowtext windowtext; width: 90.45pt;\">\n<p>\u00a0November 29</p>\n</td>\n<td style=\"border-color: #000000 windowtext windowtext #000000; width: 155.95pt;\">\n<p>\u00a01:00 p.m. to 4:30 p.m. (ET)</p>\n</td>\n<td style=\"border-color: #000000 windowtext windowtext #000000; width: 155.9pt;\">\n<p>\u00a0Guelph</p>\n</td>\n<td style=\"border-color: #000000 windowtext windowtext #000000; width: 76.5pt;\">\n<p>\u00a0English</p>\n</td>\n</tr>\n<tr>\n<td style=\"border-color: #000000 windowtext windowtext; width: 90.45pt;\">\n<p>\u00a0November 29</p>\n</td>\n<td style=\"border-color: #000000 windowtext windowtext #000000; width: 155.95pt;\">\n<p>\u00a08:30 a.m. to 12:00 p.m. (ET)</p>\n</td>\n<td style=\"border-color: #000000 windowtext windowtext #000000; width: 155.9pt;\">\n<p>\u00a0Qu\u00e9bec</p>\n</td>\n<td style=\"border-color: #000000 windowtext windowtext #000000; width: 76.5pt;\">\n<p>\u00a0French</p>\n</td>\n</tr>\n<tr>\n<td style=\"border-color: #000000 windowtext windowtext; width: 90.45pt;\">\n<p>\u00a0November 30</p>\n</td>\n<td style=\"border-color: #000000 windowtext windowtext #000000; width: 155.95pt;\">\n<p>\u00a08:30 a.m. to 12:00 p.m. (ET)</p>\n</td>\n<td style=\"border-color: #000000 windowtext windowtext #000000; width: 155.9pt;\">\n<p>\u00a0Vineland</p>\n</td>\n<td style=\"border-color: #000000 windowtext windowtext #000000; width: 76.5pt;\">\n<p>\u00a0English</p>\n</td>\n</tr>\n</tbody>\n</table>\n<p>\u00a0</p>\n<p>To register for\u00a0November employee or manager sessions, find out about upcoming sessions, or request a session for your team, please contact Workplace Wellness Programs at <a href=\"mailto:aafc.mentalhealth-santementale.aac@canada.ca\">aafc.mentalhealth-santementale.aac@canada.ca</a>. </p>\n<p><img src=\"https://intranet.agr.gc.ca/resources/prod/news/images/HealthyWorkplace.png\" class=\"center-block\"></p>\n\n\t\t",
        "fr": "<br>\n<br>\n<p>AAC a \u00e0 c\u0153ur la sant\u00e9 mentale et le bien-\u00eatre de ses employ\u00e9s et reconna\u00eet que nous sommes tous vuln\u00e9rables, directement ou indirectement, \u00e0 la maladie mentale.</p>\n<p>\nL\u2019<a rel=\"external\" href=\"https://www.espritautravail.ca/lesprit-au-travail\">esprit au travail<sup>MC</sup></a> est le programme de promotion de la sant\u00e9 mentale que privil\u00e9gie AAC. Ce programme, qui a \u00e9t\u00e9 \u00e9labor\u00e9 par la Commission de la sant\u00e9 mentale du Canada, vise \u00e0 aider les employ\u00e9s et les gestionnaires \u00e0 :</p>\n<ul>\n<li>discuter et faire la promotion de la sant\u00e9 mentale;</li>\n<li>briser les mythes li\u00e9s aux probl\u00e8mes de sant\u00e9 mentale et \u00e0 la maladie mentale;</li>\n<li>r\u00e9duire la stigmatisation de la maladie mentale au travail.</li>\n</ul>\n<h2>\n<strong>Prochaines s\u00e9ances pour les gestionnaires</strong></h2>\n<table cellspacing=\"0\" border=\"1\" width=\"700\">\n<tbody>\n<tr>\n<td style=\"width: 90.45pt;\">\n<p>\n<strong>\u00a0Date</strong>\n</p>\n</td>\n<td style=\"border-color: windowtext windowtext windowtext #000000; width: 155.95pt;\">\n<p>\n<strong>\u00a0<strong>Heure</strong></strong>\n</p>\n</td>\n<td style=\"border-color: windowtext windowtext windowtext #000000; width: 155.9pt;\">\n<p>\n<strong>\u00a0<strong>Lieu</strong></strong>\n</p>\n</td>\n<td style=\"border-color: windowtext windowtext windowtext #000000; width: 76.5pt;\">\n<p>\n<strong>\u00a0<strong>Langue</strong></strong>\n</p>\n</td>\n</tr>\n<tr>\n<td style=\"border-color: #000000 windowtext windowtext; width: 90.45pt;\">\n<p>\n\u00a026\u00a0novembre\n</p>\n</td>\n<td style=\"border-color: #000000 windowtext windowtext #000000; width: 155.95pt;\">\n<p>\n\u00a09 h \u00e0\u00a016 h\u00a0(HE)\n</p>\n</td>\n<td style=\"border-color: #000000 windowtext windowtext #000000; width: 155.9pt;\">\n<p>\n\u00a0London\u00a0\n</p>\n</td>\n<td style=\"border-color: #000000 windowtext windowtext #000000; width: 76.5pt;\">\n<p>\n\u00a0Anglais\u00a0\n</p>\n</td>\n</tr>\n<tr>\n<td style=\"border-color: #000000 windowtext windowtext; width: 90.45pt;\">\n<p>\n\u00a028 novembre\n</p>\n</td>\n<td style=\"border-color: #000000 windowtext windowtext #000000; width: 155.95pt;\">\n<p>\n\u00a08 h 30 \u00e0\u00a016 h 30 (HE)\n</p>\n</td>\n<td style=\"border-color: #000000 windowtext windowtext #000000; width: 155.9pt;\">\n<p>\n\u00a0Guelph\n</p>\n</td>\n<td style=\"border-color: #000000 windowtext windowtext #000000; width: 76.5pt;\">\n<p>\n\u00a0Anglais\n</p>\n</td>\n</tr>\n<tr>\n<td style=\"border-color: #000000 windowtext windowtext; width: 90.45pt;\">\n<p>\n\u00a028 novembre\n</p>\n</td>\n<td style=\"border-color: #000000 windowtext windowtext #000000; width: 155.95pt;\">\n<p>\n\u00a08 h 30 \u00e0\u00a016 h 30 (HC)\n</p>\n</td>\n<td style=\"border-color: #000000 windowtext windowtext #000000; width: 155.9pt;\">\n<p>\n\u00a0Morden\n</p>\n</td>\n<td style=\"border-color: #000000 windowtext windowtext #000000; width: 76.5pt;\">\n<p>\n\u00a0Anglais\n</p>\n</td>\n</tr>\n<tr>\n<td style=\"border-color: #000000 windowtext windowtext; width: 90.45pt;\">\n<p>\n\u00a030 novembre\n</p>\n</td>\n<td style=\"border-color: #000000 windowtext windowtext #000000; width: 155.95pt;\">\n<p>\n\u00a08 h 30 \u00e0\u00a016 h 30 (HE)\n</p>\n</td>\n<td style=\"border-color: #000000 windowtext windowtext #000000; width: 155.9pt;\">\n<p>\n\u00a0Vineland\n</p>\n</td>\n<td style=\"border-color: #000000 windowtext windowtext #000000; width: 76.5pt;\">\n<p>\n\u00a0Anglais\n</p>\n</td>\n</tr>\n</tbody>\n</table>\n<h2><strong>Prochaines s</strong><strong>\u00e9ances pour les </strong><strong>employ\u00e9s</strong></h2>\n<table cellspacing=\"0\" border=\"1\" width=\"700\">\n<tbody>\n<tr>\n<td style=\"width: 90.45pt;\">\n<p>\n<strong>\u00a0Date</strong>\n</p>\n</td>\n<td style=\"border-color: windowtext windowtext windowtext #000000; width: 155.95pt;\">\n<p>\n<strong>\u00a0<strong>Heure</strong></strong>\n</p>\n</td>\n<td style=\"border-color: windowtext windowtext windowtext #000000; width: 155.9pt;\">\n<p>\n<strong>\u00a0<strong>Lieu</strong></strong>\n</p>\n</td>\n<td style=\"border-color: windowtext windowtext windowtext #000000; width: 76.5pt;\">\n<p>\n<strong><strong>\u00a0<strong>Langue</strong></strong></strong>\n</p>\n</td>\n</tr>\n<tr>\n<td style=\"border-color: #000000 windowtext windowtext; width: 90.45pt;\">\n<p>\n\u00a027 novembre\n</p>\n</td>\n<td style=\"border-color: #000000 windowtext windowtext #000000; width: 155.95pt;\">\n<p>\n\u00a09 h\u00a0\u00e0 12 h 30 (HE)\n</p>\n</td>\n<td style=\"border-color: #000000 windowtext windowtext #000000; width: 155.9pt;\">\n<p>\n\u00a0London\n</p>\n</td>\n<td style=\"border-color: #000000 windowtext windowtext #000000; width: 76.5pt;\">\n<p>\n\u00a0Anglais\n</p>\n</td>\n</tr>\n<tr>\n<td style=\"border-color: #000000 windowtext windowtext; width: 90.45pt;\">\n<p>\n\u00a027 novembre\n</p>\n</td>\n<td style=\"border-color: #000000 windowtext windowtext #000000; width: 155.95pt;\">\n<p>\n\u00a012 h 30 \u00e0\u00a016 h\u00a0(HE)\n</p>\n</td>\n<td style=\"border-color: #000000 windowtext windowtext #000000; width: 155.9pt;\">\n<p>\n\u00a0London\n</p>\n</td>\n<td style=\"border-color: #000000 windowtext windowtext #000000; width: 76.5pt;\">\n<p>\n\u00a0Anglais\n</p>\n</td>\n</tr>\n<tr>\n<td style=\"border-color: #000000 windowtext windowtext; width: 90.45pt;\">\n<p>\n\u00a028 novembre\n</p>\n</td>\n<td style=\"border-color: #000000 windowtext windowtext #000000; width: 155.95pt;\">\n<p>\n\u00a08 h 30\u00a0\u00e0 12 h\u00a0(HC)\n</p>\n</td>\n<td style=\"border-color: #000000 windowtext windowtext #000000; width: 155.9pt;\">\n<p>\n\u00a0Morden\n</p>\n</td>\n<td style=\"border-color: #000000 windowtext windowtext #000000; width: 76.5pt;\">\n<p>\n\u00a0Anglais\n</p>\n</td>\n</tr>\n<tr>\n<td style=\"border-color: #000000 windowtext windowtext; width: 90.45pt;\">\n<p>\n\u00a029 novembre\n</p>\n</td>\n<td style=\"border-color: #000000 windowtext windowtext #000000; width: 155.95pt;\">\n<p>\n\u00a08 h 30\u00a0\u00e0 12 h\u00a0(HE)\n</p>\n</td>\n<td style=\"border-color: #000000 windowtext windowtext #000000; width: 155.9pt;\">\n<p>\n\u00a0Guelph\n</p>\n</td>\n<td style=\"border-color: #000000 windowtext windowtext #000000; width: 76.5pt;\">\n<p>\n\u00a0Anglais\n</p>\n</td>\n</tr>\n<tr>\n<td style=\"border-color: #000000 windowtext windowtext; width: 90.45pt;\">\n<p>\n\u00a029 novembre\n</p>\n</td>\n<td style=\"border-color: #000000 windowtext windowtext #000000; width: 155.95pt;\">\n<p>\n\u00a013 h \u00e0\u00a016 h 30\u00a0(HE)\n</p>\n</td>\n<td style=\"border-color: #000000 windowtext windowtext #000000; width: 155.9pt;\">\n<p>\n\u00a0Guelph\n</p>\n</td>\n<td style=\"border-color: #000000 windowtext windowtext #000000; width: 76.5pt;\">\n<p>\n\u00a0Anglais\n</p>\n</td>\n</tr>\n<tr>\n<td style=\"border-color: #000000 windowtext windowtext; width: 90.45pt;\">\n<p>\n\u00a029 novembre\n</p>\n</td>\n<td style=\"border-color: #000000 windowtext windowtext #000000; width: 155.95pt;\">\n<p>\n\u00a08 h 30\u00a0\u00e0 12 h\u00a0(HE)\n</p>\n</td>\n<td style=\"border-color: #000000 windowtext windowtext #000000; width: 155.9pt;\">\n<p>\n\u00a0Qu\u00e9bec\n</p>\n</td>\n<td style=\"border-color: #000000 windowtext windowtext #000000; width: 76.5pt;\">\n<p>\n\u00a0Fran\u00e7ais\n</p>\n</td>\n</tr>\n<tr>\n<td style=\"border-color: #000000 windowtext windowtext; width: 90.45pt;\">\n<p>\n\u00a030 novembre\n</p>\n</td>\n<td style=\"border-color: #000000 windowtext windowtext #000000; width: 155.95pt;\">\n<p>\n\u00a08 h 30\u00a0\u00e0\u00a012 h\u00a0(HE)\n</p>\n</td>\n<td style=\"border-color: #000000 windowtext windowtext #000000; width: 155.9pt;\">\n<p>\n\u00a0Vineland\n</p>\n</td>\n<td style=\"border-color: #000000 windowtext windowtext #000000; width: 76.5pt;\">\n<p>\n\u00a0Anglais\n</p>\n</td>\n</tr>\n</tbody>\n</table>\n<p>\u00a0</p>\n<p>Afin de vous inscrire aux s\u00e9ances offertes aux employ\u00e9s ou aux gestionnaires en novembre, d\u2019obtenir plus d\u2019information sur les prochaines s\u00e9ances offertes ou de demander la tenue d\u2019une s\u00e9ance pour votre \u00e9quipe, veuillez communiquer avec les Programmes du mieux-\u00eatre en milieu de travail \u00e0 <a href=\"mailto:aafc.mentalhealth-santementale.aac@canada.ca\">aafc.mentalhealth-santementale.aac@canada.ca</a>.</p>\n<p><img src=\"https://intranet.agr.gc.ca/resources/prod/news/images/HealthyWorkplace.png\" class=\"center-block\"></p>\n\t\t"
    },
    "breadcrumb": {
        "en": "Reminder - Mental Health Training - November Sessions",
        "fr": "Rappel - Formation sur la sant\u00e9 mentale - S\u00e9ances en novembre"
    },
    "news": {
        "date_posted": {
            "en": "2018-11-08",
            "fr": "2018-11-08"
        },
        "to": {
            "en": "Other regions (not NCR)",
            "fr": "R\u00e9gions autres que la RCN"
        },
        "by": {
            "en": "Human Resources, Corporate Management Branch",
            "fr": "Ressources humaines, Direction g\u00e9n\u00e9rale de la gestion int\u00e9gr\u00e9e"
        }
    }
}