{
    "dcr_id": "1542124557040",
    "lang": "en",
    "title": {
        "en": "Introducing Idea Farm: Supporting Innovation at AAFC",
        "fr": "La P\u00e9pini\u00e8re d'id\u00e9es : Soutenir l'innovation \u00e0 AAC"
    },
    "modified": "2018-11-13 00:00:00.0",
    "issued": "2018-11-13 00:00:00.0",
    "type_name": "intra-intra/news-nouv",
    "node_id": "1279030006975",
    "layout_name": null,
    "dc_date_created": "2018-11-13",
    "breadcrumb_label": "",
    "meta": {
        "issued": {
            "en": "2018-11-13",
            "fr": "2018-11-13"
        },
        "modified": {
            "en": "2018-11-13",
            "fr": "2018-11-13"
        },
        "format": {
            "en": "gcformat",
            "fr": "gcformat"
        },
        "title": {
            "en": "Introducing Idea Farm: Supporting Innovation at AAFC",
            "fr": "La P\u00e9pini\u00e8re d'id\u00e9es : Soutenir l'innovation \u00e0 AAC"
        },
        "subject": {
            "en": "communications",
            "fr": "communications"
        },
        "description": {
            "en": "Have you been in a situation at work where you saw an opportunity and thought, \"I have an idea about how we can do that better\"? If so, you may be able to turn that thought into action with the help of Idea Farm, a new initiative to support employee innovation.",
            "fr": "Vous est-il d\u00e9j\u00e0 arriv\u00e9 de flairer une bonne occasion au travail et de vous dire : \u00ab Je sais comment nous pourrions am\u00e9liorer les choses \u00bb? Si c'est le cas, vous pourriez concr\u00e9tiser cette id\u00e9e avec l'aide de la P\u00e9pini\u00e8re d'id\u00e9es, une nouvelle initiative qui favorise l'innovation chez les employ\u00e9s."
        },
        "language": {
            "en": "eng",
            "fr": "fra"
        },
        "audience": {
            "en": "gcaudience",
            "fr": "gcaudience"
        },
        "creator": {
            "en": "Agriculture and Agri-Food Canada",
            "fr": "Agriculture et Agroalimentaire Canada"
        },
        "spatial": {
            "en": "gcregions",
            "fr": "gcregions"
        },
        "service": {
            "en": "AAFC_AgriSource",
            "fr": "AAC_AgriSource"
        },
        "accessRights": {
            "en": "3",
            "fr": "3"
        }
    },
    "body": {
        "en": "<br>\n<br>\n<p>Have you been in a situation at work where you saw an opportunity and thought, \u201cI have an idea about how we can do that better\u201d? If so, you may be able to turn that thought into action with the help of Idea Farm, a new initiative to support employee innovation.</p>\n<p>Idea Farm opens today for its first round of submissions. The objective is to empower employees to experiment with new approaches, tools and technologies that could improve how we function as a department or how we serve stakeholders and Canadians.</p>\n<p>This initiative is meant to encourage you to collaborate and to try new things without worrying about failure. We want you to think big \u2013 but start small, by testing before you scale out. You can read about Idea Farm, and how to submit your idea, on <a href=\"https://collab.agr.gc.ca/co/AAFCif-FiAAC/SitePages/Home.aspx\">Knowledge Workspace</a>.</p>\n<p>Submissions that are selected in this first round could receive support, including funding, as early as January 2019. While the deadline for this round is <strong>November 30, 2018</strong>, the Idea Farm will continue to accept submissions for future consideration.</p>\n<p>We know you have great insights on how we can make things better. We heard them during our recent discussions on AAFC\u2019s People Strategy and Public\u00a0Service Employee Survey. If you have a suggestion on how to meet a need, solve a problem, or capitalize on an opportunity, the department wants to hear about it.</p>\n<p>We look forward to seeing the results!</p>\n<p>Let\u2019s innovate!</p>\n<p>\u00a0</p>\n<p><strong>Chris Forbes</strong><br>\nDeputy Minister</p>\n<p><strong>Annette Gibbons</strong><br>\nAssociate Deputy Minister</p>\n\n\t\t",
        "fr": "<br>\n<br>\n<p>Vous est-il d\u00e9j\u00e0 arriv\u00e9 de flairer une bonne occasion au travail et de vous dire : \u00ab Je sais comment nous pourrions am\u00e9liorer les choses \u00bb? Si c\u2019est le cas, vous pourriez concr\u00e9tiser cette id\u00e9e avec l\u2019aide de la P\u00e9pini\u00e8re d\u2019id\u00e9es, une nouvelle initiative qui favorise l\u2019innovation chez les employ\u00e9s.</p>\n<p>La P\u00e9pini\u00e8re d\u2019id\u00e9es accepte d\u00e8s aujourd\u2019hui la premi\u00e8re vague de propositions. L\u2019objectif est de permettre aux employ\u00e9s d\u2019essayer de nouveaux outils et de nouvelles approches et technologies qui pourraient am\u00e9liorer nos fa\u00e7ons de faire au Minist\u00e8re ou les services que nous offrons aux intervenants et aux Canadiens.</p>\n<p>Cette initiative vise \u00e0 vous encourager \u00e0 collaborer et \u00e0 essayer de nouvelles choses sans avoir peur d\u2019\u00e9chouer. Voyez grand, mais commencez en mettant vos id\u00e9es \u00e0 l\u2019essai \u00e0 petite \u00e9chelle. Vous pouvez vous renseigner sur la P\u00e9pini\u00e8re d\u2019id\u00e9es, et apprendre comment soumettre vos propositions, dans <a href=\"https://collab.agr.gc.ca/co/AAFCif-FiAAC/SitePages/Home.aspx\">l\u2019Espace de travail du savoir</a>.</p>\n<p>Les employ\u00e9s dont les propositions seront choisies pendant cette premi\u00e8re vague de soumission pourraient recevoir de l\u2019aide, y compris des fonds, d\u00e8s janvier 2019. Bien que la date limite pour cette premi\u00e8re vague ait \u00e9t\u00e9 fix\u00e9e au <strong>30 novembre 2018</strong>, la P\u00e9pini\u00e8re d\u2019id\u00e9es continuera d\u2019accepter des propositions pour examen ult\u00e9rieur.</p>\n<p>Nous savons que vous avez de bonnes id\u00e9es sur la fa\u00e7on dont nous pouvons am\u00e9liorer les choses. Vous nous en avez fait part pendant nos r\u00e9centes discussions sur la Strat\u00e9gie de gestion des personnes d\u2019AAC et le Sondage aupr\u00e8s des fonctionnaires f\u00e9d\u00e9raux. Si vous avez une suggestion \u00e0 faire sur la fa\u00e7on de combler un besoin, de r\u00e9soudre un probl\u00e8me ou de tirer profit d\u2019une occasion, nous voulons le savoir.</p>\n<p>Nous avons h\u00e2te de voir les r\u00e9sultats!</p>\n<p>Innovons!</p>\n<p>\u00a0</p>\n<p><strong>Chris Forbes</strong><br>\nSous-ministre</p>\n<p><strong>Annette Gibbons</strong><br>\nSous-ministre d\u00e9l\u00e9gu\u00e9e</p>\n\t\t"
    },
    "breadcrumb": {
        "en": "Introducing Idea Farm: Supporting Innovation at AAFC",
        "fr": "La P\u00e9pini\u00e8re d'id\u00e9es : Soutenir l'innovation \u00e0 AAC"
    },
    "news": {
        "date_posted": {
            "en": "2018-11-13",
            "fr": "2018-11-13"
        },
        "to": {
            "en": "All staff",
            "fr": "Tous les employ\u00e9s"
        },
        "by": {
            "en": "Chris Forbes, Deputy Minister, and Annette Gibbons, Associate Deputy Minister",
            "fr": "Chris Forbes, sous-ministre et Annette Gibbons, sous-ministre d\u00e9l\u00e9gu\u00e9e"
        }
    }
}