{
    "dcr_id": "1542383510505",
    "lang": "en",
    "title": {
        "en": "Policy Analyst",
        "fr": "Analyste de politiques"
    },
    "modified": "2018-11-20 00:00:00.0",
    "issued": "2018-11-20 00:00:00.0",
    "type_name": "intra-intra/empl-empl",
    "node_id": "1279029955397",
    "layout_name": null,
    "dc_date_created": "2018-11-16",
    "breadcrumb_label": "",
    "meta": {
        "issued": {
            "en": "2018-11-20",
            "fr": "2018-11-20"
        },
        "modified": {
            "en": "2018-11-20",
            "fr": "2018-11-20"
        },
        "format": {
            "en": "gcformat",
            "fr": "gcformat"
        },
        "title": {
            "en": "Policy Analyst",
            "fr": "Analyste de politiques"
        },
        "subject": {
            "en": "staffing",
            "fr": "dotation en personnel"
        },
        "language": {
            "en": "eng",
            "fr": "fra"
        },
        "audience": {
            "en": "gcaudience",
            "fr": "gcaudience"
        },
        "type": {
            "en": "notice",
            "fr": "avis"
        },
        "creator": {
            "en": "Agriculture and Agri-Food Canada",
            "fr": "Agriculture et Agroalimentaire Canada"
        },
        "spatial": {
            "en": "gcregions",
            "fr": "gcregions"
        },
        "service": {
            "en": "AAFC_AgriSource",
            "fr": "AAC_AgriSource"
        },
        "accessRights": {
            "en": "3",
            "fr": "3"
        }
    },
    "body": {
        "en": "\n<p><strong>\u00a0</strong></p>\n<p>The development of <em>A Food Policy for Canada</em> has sparked national interest. Consultations in 2017 resulted in passionate engagement sessions with a diverse range of stakeholders, including industry, civil society, and Indigenous organizations. In addition, nearly 45,000 Canadians responded to the online consultations, a record for the Government of Canada. Through the consultations, a shared vision was developed that \u201cAll people in Canada have access to a sufficient amount of safe, nutritious, and culturally appropriate food, through a sustainable and innovative Canadian food system that promotes and protects health, and supports our economy.\u201d</p>\n<p>\u00a0</p>\n<p>Leading the development of Canada\u2019s first-ever federal food policy presents an opportunity and challenge for AAFC. It requires new thinking about the exercise of the department's mandate and how we can work with both traditional and new stakeholders to achieve social, environmental, health, and economic food policy goals. It entails collaborating across Government to bridge disconnects and ensure various levers and actors in the food system work cohesively towards achieving interconnected goals and addressing partial solutions or unintended consequences. Furthermore, the policy will need to complement the work of other levels of government, communities, and Indigenous and non-government organizations.</p>\n<p>\u00a0</p>\n<p>Joining the Food Policy Division will provide a challenging and invaluable experience on an amazing team in a fast-paced and dynamic environment. Successful candidates will be able to further develop all EC competencies, gain experience on the process to develop a new policy (e.g., developing a policy framework), work interdepartmentally to bring about meaningful change, and address important issues that are vital to Canadians.</p>\n<p>\u00a0</p>\n<p>We are currently seeking to fill two EC-07 positions through deployment, acting or assignment.</p>\n<p>\u00a0</p>\n<p>We are also seeking to fill up to three analyst positions at the EC-03 to EC-06 levels through deployment or assignment.</p>\n<p><strong>\u00a0</strong></p>\n<p><strong>Security: Secret clearance is required</strong></p>\n<p>\u00a0</p>\n<p>If you are interested, please send your CV along with a cover letter to Julie Levert (julie.levert@canada.ca) by <strong>November 27, 2018.</strong></p>\n<p>\u00a0</p>\n",
        "fr": "\n<p><strong>\u00a0</strong></p>\n<p>L\u2019\u00e9laboration d\u2019<em>Une politique alimentaire pour le Canada</em> a suscit\u00e9 un int\u00e9r\u00eat national. Les consultations men\u00e9es en 2017 ont donn\u00e9 lieu \u00e0 des s\u00e9ances de mobilisation passionn\u00e9es avec un \u00e9ventail diversifi\u00e9 d\u2019intervenants issus de l\u2019industrie, de la soci\u00e9t\u00e9 civile et des organisations autochtones. De plus, pr\u00e8s de 45 000 Canadiens ont r\u00e9pondu aux consultations en ligne, un record pour le gouvernement du Canada. Les consultations ont permis d\u2019articuler une vision commune, o\u00f9 tous les Canadiens ont acc\u00e8s \u00e0 une quantit\u00e9 suffisante d\u2019aliments salubres, nutritifs et adapt\u00e9s \u00e0 leur culture, gr\u00e2ce \u00e0 un syst\u00e8me alimentaire canadien durable et novateur qui favorise et prot\u00e8ge la sant\u00e9 et soutient notre \u00e9conomie.</p>\n<p>\u00a0</p>\n<p>Diriger l\u2019\u00e9laboration de la toute premi\u00e8re politique alimentaire f\u00e9d\u00e9rale du Canada repr\u00e9sente une occasion et un d\u00e9fi pour AAC. Cela requiert une nouvelle r\u00e9flexion sur l\u2019ex\u00e9cution du mandat du Minist\u00e8re et sur la fa\u00e7on dont nous pouvons travailler avec les intervenants traditionnels et les nouveaux intervenants pour atteindre les objectifs sociaux, environnementaux, sanitaires et \u00e9conomiques de la politique alimentaire. Cela suppose une collaboration pangouvernementale pour combler les \u00e9carts et faire en sorte que les divers leviers et acteurs du syst\u00e8me alimentaire travaillent de concert \u00e0 l\u2019atteinte d\u2019objectifs interd\u00e9pendants et \u00e0 la recherche de solutions partielles ou de cons\u00e9quences non voulues. De plus, la politique devra s\u2019ajouter en compl\u00e9ment du travail des autres ordres de gouvernement, des collectivit\u00e9s et des organisations autochtones et non gouvernementales.</p>\n<p>\u00a0</p>\n<p>Rejoindre la Division de la politique alimentaire constitue une exp\u00e9rience stimulante et inestimable, au sein d\u2019une \u00e9quipe extraordinaire et dans un environnement dynamique et au rythme rapide. Les candidats retenus seront en mesure de perfectionner davantage toutes les comp\u00e9tences du groupe EC, d\u2019acqu\u00e9rir de l\u2019exp\u00e9rience sur le processus d\u2019\u00e9laboration d\u2019une nouvelle politique (p. ex. l\u2019\u00e9laboration d\u2019un cadre strat\u00e9gique), de collaborer avec d\u2019autres minist\u00e8res pour apporter des changements significatifs et de s\u2019attaquer aux questions importantes qui sont essentielles pour les Canadiens.</p>\n<p>\u00a0</p>\n<p>Nous cherchons actuellement \u00e0 pourvoir deux postes EC\u201107 par mutation, pour int\u00e9rimaire ou affectation.</p>\n<p>\u00a0</p>\n<p>Nous cherchons \u00e9galement \u00e0 pourvoir jusqu\u2019\u00e0 trois postes d\u2019analystes, allant du niveau EC\u201103 au niveau EC\u201106 par mutation ou affectation.</p>\n<p><strong>\u00a0</strong></p>\n<p><strong>S\u00e9curit\u00e9 : Une cote de s\u00e9curit\u00e9 de niveau secr\u00e8te est requise</strong>.</p>\n<p>\u00a0</p>\n<p>Les personnes int\u00e9ress\u00e9es doivent faire parvenir leur CV accompagn\u00e9 d\u2019une lettre de pr\u00e9sentation \u00e0 Julie Levert, par courriel, \u00e0 julie.levert@canada.ca, d\u2019ici le <strong>27 novembre 2018.</strong></p>\n<p>\u00a0</p>\n\n"
    },
    "breadcrumb": {
        "en": "Policy Analyst",
        "fr": "Analyste de politiques"
    },
    "empl": {
        "type": {
            "en": "Assignment, Deployment, Acting",
            "fr": "Affectation, Mutation, Int\u00e9rimaire"
        },
        "classification": {
            "en": "EC-3, EC-4, EC-5, EC-6, EC-7 and equivalent",
            "fr": "EC-3, EC-4, EC-5, EC-6, EC-7 et \u00e9quivalent"
        },
        "branch": {
            "en": "Strategic Policy Branch",
            "fr": "Direction g\u00e9n\u00e9rale des politiques strat\u00e9giques"
        },
        "locations": {
            "en": "National Capital Region",
            "fr": "R\u00e9gion de la capitale nationale"
        },
        "date_closing": {
            "en": "2018-11-27",
            "fr": "2018-11-27"
        },
        "open_to": {
            "en": "AAFC Employees at the EC-03 to EC-07 group and level (or equivalent)",
            "fr": "Tous les employ\u00e9s d\u2019AAC des groupes et niveaux EC-03 \u00e0 EC-07 (ou l\u2019\u00e9quivalent)"
        },
        "name": {
            "en": "Julie.Levert@canada.ca",
            "fr": "Julie.Levert@canada.ca"
        },
        "email": {
            "en": "Julie.Levert@canada.ca",
            "fr": "Julie.Levert@canada.ca"
        }
    }
}