{
    "dcr_id": "1543332291718",
    "lang": "en",
    "title": {
        "en": "Reminder - Deputy Minister Speaker Series: \"Farm Size, Technology Adoption and Agricultural Trade Reform: Evidence from Canada\" - December 12",
        "fr": "Rappel - S\u00e9rie de conf\u00e9rences du sous-ministre : \u00ab Taille des exploitations agricoles, adoption de technologies et r\u00e9forme du commerce agricole : R\u00e9sultats probants du Canada \u00bb - 12 d\u00e9cembre"
    },
    "modified": "2018-12-05 00:00:00.0",
    "issued": "2018-11-29 00:00:00.0",
    "type_name": "intra-intra/news-nouv",
    "node_id": "1279030006975",
    "layout_name": null,
    "dc_date_created": "2018-11-27",
    "breadcrumb_label": "Reminder - Deputy Minister Speaker Series: Farm Size, Technology Adoption and Agricultural Trade...",
    "meta": {
        "issued": {
            "en": "2018-11-29",
            "fr": "2018-11-29"
        },
        "modified": {
            "en": "2018-12-05",
            "fr": "2018-12-05"
        },
        "format": {
            "en": "gcformat",
            "fr": "gcformat"
        },
        "title": {
            "en": "Reminder - Deputy Minister Speaker Series: \"Farm Size, Technology Adoption and Agricultural Trade Reform: Evidence from Canada\" - December 12",
            "fr": "Rappel - S\u00e9rie de conf\u00e9rences du sous-ministre : \u00ab Taille des exploitations agricoles, adoption de technologies et r\u00e9forme du commerce agricole : R\u00e9sultats probants du Canada \u00bb - 12 d\u00e9cembre"
        },
        "subject": {
            "en": "communications",
            "fr": "communications"
        },
        "description": {
            "en": "How do farmers adapt their cultivation strategies in response to a significant change in prices? Does farm size influence their adaptation strategy?",
            "fr": "Comment les agriculteurs adaptent-ils leurs modes de culture \u00e0 la suite d'une variation importante des prix? La taille de leur exploitation a-t-elle une incidence sur leur strat\u00e9gie d'adaptation?"
        },
        "language": {
            "en": "eng",
            "fr": "fra"
        },
        "audience": {
            "en": "gcaudience",
            "fr": "gcaudience"
        },
        "creator": {
            "en": "Agriculture and Agri-Food Canada",
            "fr": "Agriculture et Agroalimentaire Canada"
        },
        "spatial": {
            "en": "gcregions",
            "fr": "gcregions"
        },
        "service": {
            "en": "AAFC_AgriSource",
            "fr": "AAC_AgriSource"
        },
        "accessRights": {
            "en": "3",
            "fr": "3"
        }
    },
    "body": {
        "en": "<br>\n<br>\n<p>How do farmers adapt their cultivation strategies in response to a significant change in prices? Does farm size influence their adaptation strategy?</p>\n<p>Join us for a presentation by Professor Crina Viju-Miljusevic, where she will examine the effects of terminating the rail subsidy in Western Canada in 1995, a policy decision that led to lower grain prices on the Prairies. She will discuss long-term effects including changes to land management practices, as well the crop mix that farmers adopted.</p>\n<p>For more information, please contact Samuel Bonti-Ankomah (<a href=\"mailto:Samuel.Bonti-Ankomah@canada.ca\">Samuel.Bonti-Ankomah@canada.ca</a>)\u00a0or Douglas Ruby (<a href=\"mailto:Douglas.Ruby@canada.ca\">Douglas.Ruby@canada.ca</a>).</p>\n<h2><strong>Event information </strong></h2>\n<p><strong>Date: </strong>Wednesday, December 12<br><strong>Time: </strong>1:30 to 3:00 p.m. (ET)<br><strong>Location: </strong>NHCAP (T3-1-313) <br><strong>Overflow room with videoconference: </strong>NHCAP (T7-4-211)<br><strong>Videoconference: </strong>76137731343;<strong> Guest PIN: </strong>9018</p>\n<h2><strong>Speaker biography </strong></h2>\n<p><img src=\"https://intranet.agr.gc.ca/resources/prod/news/images/DMSpeakerSeries-CrinaViju.png\" class=\"pull-left mrgn-rght-md\" alt=\"Crina Viju-Miljusevic\">Crina Viju-Miljusevic is an associate professor at the Institute of European, Russian and Eurasian Studies and the associate director of the Centre for European Studies at Carleton University. She is also the coordinator of the Jean Monnet Project \u201cStudying EU in Canadian High Schools\u201d at Carleton University\u2019s Center for European Studies.\u00a0</p>\n<p>Her research interests include the economic effects of trade policies applied within the EU, U.S. and Canada, European economic integration, economies in transition and EU enlargement. Professor Viju\u2019s current research focuses on the EU trade policy, impacts of agricultural trade reforms in Canada, Canada-EU Comprehensive Economic and Trade Agreement (<abbr title=\"Comprehensive Economic and Trade Agreement \">CETA</abbr>) and on current issues in European economics and politics.</p>\n<p>She has a strong background in applied economic theory and contemporary quantitative methods. Professor Viju has an extensive publication record, including edited or co-edited volumes, and numerous journal articles, book chapters and conference presentations.</p>\n<h2><strong>About the Deputy Minister Speaker Series</strong></h2>\n<p>The Deputy Minister Speaker Series brings in leading expert guest speakers on critical policy issues affecting the agriculture and agri-food sector. The invited presenters benefit AAFC by raising awareness of alternative perspectives, information and potential approaches on key research areas affecting the sector.\u00a0</p>\n\n\t\t",
        "fr": "<br>\n<br>\n<p>Comment les agriculteurs adaptent-ils leurs modes de culture \u00e0 la suite d\u2019une variation importante des prix? La taille de leur exploitation a-t-elle une incidence sur leur strat\u00e9gie d\u2019adaptation?</p>\n<p>Nous vous invitons \u00e0 assister \u00e0 un expos\u00e9 de la professeure Crina Viju-Miljusevic sur les effets de l\u2019abolition de la subvention au transport ferroviaire dans l\u2019Ouest canadien en 1995, une d\u00e9cision strat\u00e9gique qui a entra\u00een\u00e9 une baisse des prix des grains dans les Prairies. Elle d\u00e9crira les r\u00e9percussions \u00e0 long terme de cette mesure, y compris la r\u00e9forme des pratiques de gestion des terres, et l\u2019\u00e9ventail de cultures que les agriculteurs ont adopt\u00e9.</p>\n<p>Pour obtenir d\u2019autres pr\u00e9cisions, veuillez communiquer avec Samuel Bonti-Ankomah (<a href=\"mailto:Samuel.Bonti-Ankomah@canada.ca\">Samuel.Bonti-Ankomah@canada.ca</a>) ou Douglas Ruby (<a href=\"mailto:Douglas.Ruby@canada.ca\">Douglas.Ruby@canada.ca</a>).</p>\n<h2><strong>Renseignements sur l\u2019activit\u00e9 </strong></h2>\n<p><strong>Date :\u00a0</strong>Mercredi 12 d\u00e9cembre <br><strong>Heure : </strong>13 h 30 \u00e0 15 h (HE)<br><strong>Lieu :\u00a0</strong>CACPA (T3-1-313)<br><strong>Salle pour la vid\u00e9oconf\u00e9rence : </strong>CACPA (T7-4-211)<br><strong>Vid\u00e9oconf\u00e9rence : </strong>76137731343;<strong> NIP d\u2019invit\u00e9 : </strong>9018</p>\n<h2><strong>Notice biographique de la conf\u00e9renci\u00e8re </strong></h2>\n<p><img src=\"https://intranet.agr.gc.ca/resources/prod/news/images/DMSpeakerSeries-CrinaViju.png\" class=\"pull-left mrgn-rght-md\" alt=\"Crina Viju-Miljusevic\">Crina Viju-Miljusevic est professeure agr\u00e9g\u00e9e \u00e0 l\u2019Institut des \u00e9tudes europ\u00e9ennes, russes et eurasiennes et directrice associ\u00e9e du Centre des \u00e9tudes europ\u00e9ennes de l\u2019Universit\u00e9 Carleton. Elle est aussi la coordonnatrice du projet Jean Monnet intitul\u00e9 \u00ab \u00c9tude de l\u2019UE dans les \u00e9coles secondaires canadiennes \u00bb au Centre des \u00e9tudes europ\u00e9ennes de l\u2019Universit\u00e9 Carleton.</p>\n<p>Mme Viju s\u2019int\u00e9resse notamment aux effets \u00e9conomiques des politiques commerciales appliqu\u00e9es en UE, aux \u00c9tats-Unis et au Canada, \u00e0 l\u2019int\u00e9gration \u00e9conomique de l\u2019Europe, aux \u00e9conomies en transition et \u00e0 l\u2019\u00e9largissement de l\u2019UE. Ses travaux de recherche actuels portent sur la politique commerciale de l\u2019UE, les r\u00e9percussions des r\u00e9formes du commerce agricole au Canada, l\u2019Accord \u00e9conomique et commercial global (<abbr title=\"Accord \u00e9conomique et commercial global \">AECG</abbr>) Canada-UE et les enjeux \u00e9conomiques et politiques en Europe.</p>\n<p>Mme Viju a une connaissance approfondie de la th\u00e9orie \u00e9conomique appliqu\u00e9e et des m\u00e9thodes quantitatives contemporaines. Elle a un dossier de publications impressionnant, y compris des ouvrages \u00e9dit\u00e9s ou co\u00e9dit\u00e9s et de nombreux articles de revues, chapitres de livres et expos\u00e9s dans le cadre de conf\u00e9rences.</p>\n<h2><strong>\u00c0 propos de la s\u00e9rie de conf\u00e9rences du sous-ministre</strong></h2>\n<p>Dans le cadre de la s\u00e9rie de conf\u00e9rences du sous-ministre, des conf\u00e9renciers experts sont invit\u00e9s \u00e0 venir discuter d\u2019enjeux strat\u00e9giques critiques ayant une incidence sur le secteur de l\u2019agriculture et de l\u2019agroalimentaire. Ces conf\u00e9rences permettent au personnel d\u2019AAC de conna\u00eetre d\u2019autres points de vue, d\u2019obtenir de l\u2019information et de prendre connaissance des approches potentielles concernant les domaines de recherche importants pour le secteur.</p>\n\t\t"
    },
    "breadcrumb": {
        "en": "Reminder - Deputy Minister Speaker Series: \"Farm Size, Technology Adoption and Agricultural Trade...",
        "fr": "Rappel - S\u00e9rie de conf\u00e9rences du sous-ministre : \u00ab Taille des exploitations agricoles, adoption..."
    },
    "news": {
        "date_posted": {
            "en": "2018-11-29",
            "fr": "2018-11-29"
        },
        "to": {
            "en": "All staff",
            "fr": "Tous les employ\u00e9s"
        },
        "by": {
            "en": "Research and Analysis Directorate, Strategic Policy Branch",
            "fr": "Direction de la recherche et de l'analyse, Direction g\u00e9n\u00e9rale des politiques strat\u00e9giques"
        }
    }
}