{
    "dcr_id": "1543951757087",
    "lang": "en",
    "title": {
        "en": "Idea Farm Inbox Overflows with Ideas: 92 Received as of Deadline",
        "fr": "La bo\u00eete de r\u00e9ception de la P\u00e9pini\u00e8re d'id\u00e9es d\u00e9borde d'id\u00e9es : nous en avons re\u00e7u 92 avant la date limite"
    },
    "modified": "2018-12-06 00:00:00.0",
    "issued": "2018-12-06 00:00:00.0",
    "type_name": "intra-intra/news-nouv",
    "node_id": "1279030006975",
    "layout_name": null,
    "dc_date_created": "2018-12-04",
    "breadcrumb_label": "",
    "meta": {
        "issued": {
            "en": "2018-12-06",
            "fr": "2018-12-06"
        },
        "modified": {
            "en": "2018-12-06",
            "fr": "2018-12-06"
        },
        "format": {
            "en": "gcformat",
            "fr": "gcformat"
        },
        "title": {
            "en": "Idea Farm Inbox Overflows with Ideas: 92 Received as of Deadline",
            "fr": "La bo\u00eete de r\u00e9ception de la P\u00e9pini\u00e8re d'id\u00e9es d\u00e9borde d'id\u00e9es : nous en avons re\u00e7u 92 avant la date limite"
        },
        "subject": {
            "en": "communications",
            "fr": "communications"
        },
        "description": {
            "en": "We want to thank everyone who submitted ideas, commented on them, offered to review them and generally supported the Idea Farm initiative.",
            "fr": "Nous voulons remercier tous ceux et celles qui ont envoy\u00e9 ou comment\u00e9 des id\u00e9es, qui ont propos\u00e9 de les examiner ou qui ont appuy\u00e9 l'initiative de la P\u00e9pini\u00e8re d'id\u00e9es en g\u00e9n\u00e9ral."
        },
        "language": {
            "en": "eng",
            "fr": "fra"
        },
        "audience": {
            "en": "gcaudience",
            "fr": "gcaudience"
        },
        "creator": {
            "en": "Agriculture and Agri-Food Canada",
            "fr": "Agriculture et Agroalimentaire Canada"
        },
        "spatial": {
            "en": "gcregions",
            "fr": "gcregions"
        },
        "service": {
            "en": "AAFC_AgriSource",
            "fr": "AAC_AgriSource"
        },
        "accessRights": {
            "en": "3",
            "fr": "3"
        }
    },
    "body": {
        "en": "<br>\n<br>\n<p>WOW! We want to thank everyone who submitted ideas, commented on them, offered to review them and generally supported the Idea Farm initiative. Ideas poured into our Inbox up to the last second of the November 30 first-round deadline. We received 92 ideas.</p>\n<p>The ideas have, so far, run the gamut from the ambitious, to the straightforward, to others that would create efficiencies thereby leaving more time for staff to concentrate on what we\u2019re here to do, serve the needs of Canadians.</p>\n<p>Looks like the Idea Farm concept is a hit. Clearly, we are an engaged, enthusiastic and generous bunch!</p>\n<p>The next step is to identify projects ready for a go-ahead in January. Once they are underway, we will turn attention to how the remaining ideas can move forward or be supported.</p>\n<p>And of course, the Idea Farm is not closing\u2014we are still accepting new ideas to consider in a future round: <a rel=\"external\" href=\"https://collab.agr.gc.ca/co/AAFCif-FiAAC/SitePages/Submit%20an%20Idea.aspx\">Submit Ideas</a>.</p>\n<p>To see and read about ideas submitted, please visit our <a rel=\"external\" href=\"https://collab.agr.gc.ca/co/AAFCif-FiAAC/SitePages/Comment%20on%20Submitted%20Ideas.aspx\">Idea Gallery</a>.</p>\n<p>We promised to keep you posted.</p>\n\n\t\t",
        "fr": "<br>\n<br>\n<p>WOW! Nous voulons remercier tous ceux et celles qui ont envoy\u00e9 ou comment\u00e9 des id\u00e9es, qui ont propos\u00e9 de les examiner ou qui ont appuy\u00e9 l\u2019initiative de la P\u00e9pini\u00e8re d\u2019id\u00e9es en g\u00e9n\u00e9ral. Les id\u00e9es ont d\u00e9ferl\u00e9 dans notre bo\u00eete de r\u00e9ception, et ce, jusqu\u2019\u00e0 la derni\u00e8re seconde, le 30 novembre, date limite de la premi\u00e8re phase. Nous en avons re\u00e7u 92.</p>\n<p>Jusqu\u2019\u00e0 pr\u00e9sent, les id\u00e9es formul\u00e9es vont des plus ambitieuses aux plus simples, en passant par d\u2019autres qui nous permettraient de gagner en efficacit\u00e9, ce qui laisserait plus de temps au personnel pour se consacrer \u00e0 notre mission, qui est de r\u00e9pondre aux besoins des Canadiens.</p>\n<p>Il semble que le concept de P\u00e9pini\u00e8re d\u2019id\u00e9es soit un succ\u00e8s. De toute \u00e9vidence, nous formons un groupe engag\u00e9, enthousiaste et g\u00e9n\u00e9reux!</p>\n<p>La prochaine \u00e9tape consiste \u00e0 d\u00e9terminer quels projets seront pr\u00eats \u00e0 \u00eatre lanc\u00e9s d\u00e8s janvier. Une fois ces projets mis en route, nous pourrons nous pencher sur la fa\u00e7on dont les id\u00e9es restantes peuvent aller de l\u2019avant ou \u00eatre appuy\u00e9es.</p>\n<p>Bien s\u00fbr, la P\u00e9pini\u00e8re d\u2019id\u00e9es ne dispara\u00eet pas : nous acceptons toujours les nouvelles id\u00e9es, qui seront prises en consid\u00e9ration \u00e0 une prochaine phase. <a rel=\"external\" href=\"https://collab.agr.gc.ca/co/AAFCif-FiAAC/SitePages/Submit%20an%20Idea.aspx\">Pr\u00e9senter\u00a0une id\u00e9e</a>.</p>\n<p>Pour consulter les id\u00e9es re\u00e7ues, visitez notre <a href=\"https://collab.agr.gc.ca/co/AAFCif-FiAAC/SitePages/Comment%20on%20Submitted%20Ideas.aspx\">galerie d\u2019id\u00e9es</a>.</p>\n<p>Voil\u00e0 donc les nouvelles, telles que promises.</p>\n\t\t"
    },
    "breadcrumb": {
        "en": "Idea Farm Inbox Overflows with Ideas: 92 Received as of Deadline",
        "fr": "La bo\u00eete de r\u00e9ception de la P\u00e9pini\u00e8re d'id\u00e9es d\u00e9borde d'id\u00e9es : nous en avons re\u00e7u 92 avant la..."
    },
    "news": {
        "date_posted": {
            "en": "2018-12-06",
            "fr": "2018-12-06"
        },
        "to": {
            "en": "All staff",
            "fr": "Tous les employ\u00e9s"
        },
        "by": {
            "en": "Idea Farm Team",
            "fr": "\u00c9quipe de la P\u00e9pini\u00e8re d'id\u00e9es"
        }
    }
}