{
    "dcr_id": "1544465942666",
    "lang": "en",
    "title": {
        "en": "Policy Analyst",
        "fr": "Analyste des politiques"
    },
    "modified": "2019-01-02 00:00:00.0",
    "issued": "2018-12-12 00:00:00.0",
    "type_name": "intra-intra/empl-empl",
    "node_id": "1279029955397",
    "layout_name": null,
    "dc_date_created": "2018-12-10",
    "breadcrumb_label": "",
    "meta": {
        "issued": {
            "en": "2018-12-12",
            "fr": "2018-12-12"
        },
        "modified": {
            "en": "2019-01-02",
            "fr": "2019-01-02"
        },
        "format": {
            "en": "gcformat",
            "fr": "gcformat"
        },
        "title": {
            "en": "Policy Analyst",
            "fr": "Analyste des politiques"
        },
        "subject": {
            "en": "staffing",
            "fr": "dotation en personnel"
        },
        "language": {
            "en": "eng",
            "fr": "fra"
        },
        "audience": {
            "en": "gcaudience",
            "fr": "gcaudience"
        },
        "type": {
            "en": "notice",
            "fr": "avis"
        },
        "creator": {
            "en": "Agriculture and Agri-Food Canada",
            "fr": "Agriculture et Agroalimentaire Canada"
        },
        "spatial": {
            "en": "gcregions",
            "fr": "gcregions"
        },
        "service": {
            "en": "AAFC_AgriSource",
            "fr": "AAC_AgriSource"
        },
        "accessRights": {
            "en": "3",
            "fr": "3"
        }
    },
    "body": {
        "en": "\n<div><br><br><b>Nombre de postes disponibles: </b>2</div>\n<div>\n<b>\u00a0</b></div>\n<div><b>Language profile: </b>BBB and English Essential</div>\n<div>\n<b>\u00a0</b></div>\n<div><b>Description</b></div>\n<div>\nEmployees of Agriculture and Agri-Food Canada at the EC-3, EC-4, EC-5 and equivalent levels are invited to express their interest for a deployment, assignment or acting opportunity in the Policy and coordination team (PPEM) of the Market and Industry Services Branch (MISB).</div>\n<div>\u00a0</div>\n<div>Successful candidates will contribute to the advancement of the following files:</div>\n<ul>\n<li>\nAgriculture and Agri-Food international strategic framework</li>\n<li>Strategy design and coordination</li>\n<li>Cross sectoral issues coordination </li>\n<li>Federal, Provincial and Industry engagement</li>\n<li>Knowledge development and management</li>\n</ul>\n<div>\u00a0</div>\n<div>This involves working closely with a number of key players including portfolio colleagues, other government departments, and industry.</div>\n<div>\u00a0</div>\n<div>The ideal candidate should have significant experience with the agri-food sector, strong analytical, interactive communication and writing skills, as well as good judgement and initiative.</div>\n<div>\n<p><b>\u00a0</b></p>\n<p><b>Education</b></p>\n</div>\n<div>\n<p>Graduation with a degree from a recognized post-secondary institution with acceptable specialization in economics, sociology or statistics.</p>\n<p>Part A Notes:</p>\n<p>1.\tCandidates must always have a degree. The courses for the specialization must be acceptable and may have been taken at a recognized post-secondary institution, but not necessarily within a degree program in the required specialization. The specialization may also be obtained through an acceptable combination of education, training and/or experience. </p>\n<p>2.\tAn indeterminate incumbent of a former ES position on June 30, 1967 who became an EC on June 22, 2009, who does not possess the minimum level of education as indicated for Part A above is deemed to meet this minimum educational standard based on his/her education, training and/or experience.</p>\n<p><b><b>Operational requirements</b></b></p>\n</div>\n<p>\nAbility and willingness to occasionally work overtime.</p>\n<div>\nAbility and willingness to travel.</div>\n<div>\n<b>\u00a0</b></div>\n<div><b>Condition of employment</b></div>\n<div>\nReliability Status security clearance - OR Secret Status security clearance will be required (depending on the position being staffed).</div>\n<div>\n<div>\u00a0</div>\n<b>Applications:</b></div>\n<div>\nInterested candidates should send their resume and a cover letter to motivate their interest to Amrane Boumghar \u2013 Deputy Director Policy and Coordination (PPEM-MISB) amrane.boumghar@canada.ca \u00a0before the deadline.</div>\n<div>\n<b>\u00a0</b></div>\n<div><b>Notes:</b></div>\n<ul>\n<li>\nYour cover letter may be used to assess your communication and writing skills.</li>\n<li>Candidates may be assessed through an interview.</li>\n<li>Reference checks may be sought.</li>\n<li>Candidates must have their manager\u2019s approval prior to applying for this opportunity</li>\n<li>Communication for this process will be sent via email.</li>\n</ul>\n<div>\u00a0</div>\n",
        "fr": "\n<p><br><b>Nombre de postes disponibles:</b> 2</p>\n<p>\n<b>\u00a0</b></p>\n<p><b>Profil linguistique\u00a0: </b>BBB et Anglais Essentiel<br><br></p>\n<p><b>Description</b></p>\n<p>\nOn invite les employ\u00e9s d\u2019Agriculture et Agroalimentaire Canada de niveaux EC\u20113, EC\u20114 ou EC\u20115\u00a0 et \u00e9quivalents \u00e0 faire part de leur int\u00e9r\u00eat pour une mutation, affectation ou int\u00e9rim \u00a0au sein de l\u2019\u00e9quipe des politiques et coordination (PPGU) de la Direction g\u00e9n\u00e9rale des services \u00e0 l\u2019industrie et aux march\u00e9s (DGSIM). </p>\n<p>\u00a0</p>\n<p>Les candidats retenus contribueront entre autres \u00e0 l\u2019avancement des dossiers suivants\u00a0: </p>\n<ul>\n<li>\nLe cadre strat\u00e9gique international\u00a0 du secteur agricole et agroalimentaire</li>\n<li>Conception et coordination de strat\u00e9gies</li>\n<li>Coordination des enjeux intersectoriels</li>\n<li>Engagement au niveau f\u00e9d\u00e9ral, provincial et industrie</li>\n<li>D\u00e9veloppement et gestion des connaissances</li>\n</ul>\n<p>\n<br>Ceci implique de travailler \u00e9troitement avec un certain nombre d\u2019intervenants cl\u00e9s du portefeuille, d\u2019autres minist\u00e8res, et de l\u2019industrie. </p>\n<p>\n<br>Le (La) candidat(e) id\u00e9al(e) \u00a0doit poss\u00e9der une exp\u00e9rience significative dans le secteur agroalimentaire, de solides comp\u00e9tences en analyse, en communication interactive et en r\u00e9daction, en plus de faire preuve de jugement et d\u2019esprit d\u2019initiative.</p>\n<p>\u00a0</p>\n<p><b>\u00c9tudes</b></p>\n<p>Un grade d\u2019un \u00e9tablissement d\u2019enseignement postsecondaire reconnu avec sp\u00e9cialisation acceptable en \u00e9conomie, en sociologie ou en statistique. </p>\n<p>Remarques de la partie A :</p>\n<ol>\n<li>Les candidats doivent toujours d\u00e9tenir un grade. Les cours de sp\u00e9cialisation doivent \u00eatre acceptables et avoir \u00e9t\u00e9 suivis aupr\u00e8s d\u2019un \u00e9tablissement d\u2019enseignement postsecondaire reconnu, mais pas n\u00e9cessairement dans le cadre d\u2019un programme menant \u00e0 l\u2019obtention d\u2019un grade dans le domaine de la sp\u00e9cialisation requise. La sp\u00e9cialisation peut \u00e9galement \u00eatre form\u00e9e d\u2019un agencement acceptable d\u2019\u00e9tudes, de formation et (ou) d\u2019exp\u00e9rience. </li>\n<li>Le titulaire ind\u00e9termin\u00e9 d\u2019un ancien poste ES au 30 juin 1967 qui est devenu EC le 22 juin 2009, et qui ne poss\u00e8de pas le niveau d\u2019\u00e9tudes minimal indiqu\u00e9 \u00e0 la partie A ci-dessus est consid\u00e9r\u00e9 comme satisfaisant \u00e0 la norme minimale d\u2019\u00e9tudes de par ses \u00e9tudes, sa formation et (ou) son exp\u00e9rience.</li>\n</ol>\n<p><b>\u00a0</b></p>\n<p><b>Besoins op\u00e9rationnels </b></p>\n<p>\nVolont\u00e9 et capacit\u00e9 de faire des heures suppl\u00e9mentaires.</p>\n<p>\nVolont\u00e9 et capacit\u00e9 \u00e0 voyager.</p>\n<p>\n<b>\u00a0</b></p>\n<p><b>Conditions d\u2019emploi </b></p>\n<p>\nAutorisation s\u00e9curitaire Cote de fiabilit\u00e9 OU cote de s\u00e9curit\u00e9 de niveau secret sera n\u00e9cessaire (selon le poste \u00e0 doter).</p>\n<p>\n<b>\u00a0</b></p>\n<p><b>Candidature\u00a0:</b></p>\n<p>\nLes candidats int\u00e9ress\u00e9s sont invit\u00e9s \u00e0 envoyer leurs CV et une lettre de motivation \u00e0 Amrane Boumghar \u2013 Directeur Adjoint Politiques et Coordination (PPGU-DGSIM) <a href=\"mailto:amrane.boumghar@canada.ca\">amrane.boumghar@canada.ca</a> avant la date limite. </p>\n<p>\n<b>\u00a0</b></p>\n<p><b>Remarques</b></p>\n<ul>\n<li>\nVotre lettre de pr\u00e9sentation pourrait \u00eatre utilis\u00e9e pour \u00e9valuer vos comp\u00e9tences en communication et en r\u00e9daction.</li>\n<li>Les candidats pourront \u00eatre \u00e9valu\u00e9s au moyen d\u2019une entrevue.</li>\n<li>Une v\u00e9rification des r\u00e9f\u00e9rences pourra \u00eatre effectu\u00e9e.</li>\n<li>Les candidats doivent obtenir l\u2019approbation de leur gestionnaire avant de poser leur candidature pour cette possibilit\u00e9 d\u2019emploi.</li>\n<li>Les communications relatives au processus de s\u00e9lection se feront par courriel.</li>\n</ul>\n<p>\u00a0</p>\n\n"
    },
    "breadcrumb": {
        "en": "Policy Analyst",
        "fr": "Analyste des politiques"
    },
    "empl": {
        "type": {
            "en": "Assignment, Deployment, Acting",
            "fr": "Affectation, Mutation, Int\u00e9rimaire"
        },
        "classification": {
            "en": "EC-5, EC-4",
            "fr": "EC-5, EC-4 et \u00e9quivalent"
        },
        "branch": {
            "en": "Market and Industry Services Branch",
            "fr": "Direction g\u00e9n\u00e9rale des services \u00e0 l'industrie et aux march\u00e9s"
        },
        "locations": {
            "en": "Ottawa",
            "fr": "Ottawa"
        },
        "date_closing": {
            "en": "2019-01-14",
            "fr": "2019-01-14"
        },
        "open_to": {
            "en": "AAFC Employees at the EC-3/4/5 levels and equivalent",
            "fr": "Tous les employ\u00e9s d\u2019AAC des groupes et niveaux EC3, EC4 et EC5"
        },
        "name": {
            "en": "Amrane Boumghar",
            "fr": "Amrane Boumghar"
        },
        "email": {
            "en": "amrane.boumghar@canada.ca",
            "fr": "amrane.boumghar@canada.ca"
        }
    }
}