{
    "dcr_id": "1544719215426",
    "lang": "en",
    "title": {
        "en": "Happy Holidays and All the Best in 2019",
        "fr": "Joyeuses F\u00eates et bonne ann\u00e9e 2019"
    },
    "modified": "2018-12-13 00:00:00.0",
    "issued": "2018-12-13 00:00:00.0",
    "type_name": "intra-intra/news-nouv",
    "node_id": "1279030006975",
    "layout_name": null,
    "dc_date_created": "2018-12-13",
    "breadcrumb_label": "",
    "meta": {
        "issued": {
            "en": "2018-12-13",
            "fr": "2018-12-13"
        },
        "modified": {
            "en": "2018-12-13",
            "fr": "2018-12-13"
        },
        "format": {
            "en": "gcformat",
            "fr": "gcformat"
        },
        "title": {
            "en": "Happy Holidays and All the Best in 2019",
            "fr": "Joyeuses F\u00eates et bonne ann\u00e9e 2019"
        },
        "subject": {
            "en": "communications",
            "fr": "communications"
        },
        "description": {
            "en": "As we near the end of 2018, we want to take a moment to say thank you and wish you all a safe holiday season and a Happy New Year.",
            "fr": "Alors que l'ann\u00e9e 2018 tire \u00e0 sa fin, nous tenons \u00e0 prendre un instant pour vous remercier et vous souhaiter de joyeuses F\u00eates et une bonne ann\u00e9e."
        },
        "language": {
            "en": "eng",
            "fr": "fra"
        },
        "audience": {
            "en": "gcaudience",
            "fr": "gcaudience"
        },
        "creator": {
            "en": "Agriculture and Agri-Food Canada",
            "fr": "Agriculture et Agroalimentaire Canada"
        },
        "spatial": {
            "en": "gcregions",
            "fr": "gcregions"
        },
        "service": {
            "en": "AAFC_AgriSource",
            "fr": "AAC_AgriSource"
        },
        "accessRights": {
            "en": "3",
            "fr": "3"
        }
    },
    "body": {
        "en": "<br>\n<br>\n<p>As we near the end of 2018, we want to take a moment to say thank you and wish you all a safe holiday season and a Happy New Year.</p>\n<p>We are so thankful to be working with such dedicated and professional employees who care so much about their work. We hope you take the time to celebrate your favourite holiday traditions with family and friends. We too have our own <a href=\"http://intranet.agr.gc.ca/agrisource/eng/our-department/deputy-ministers-corner/seasons-greetings?id=1544707637662\">holiday traditions</a> that we want to share with you.</p>\n<p>We look forward to meeting with many of you in the new year to hear first-hand about the ground-breaking, innovative and important work you do. On behalf of AAFC\u2019s senior management team, best wishes for a joyful holiday season.</p>\n<p>\u00a0</p>\n<p><strong>Chris Forbes</strong><br>\nDeputy Minister</p>\n<p><strong>Annette Gibbons</strong><br>\nAssociate Deputy Minister</p>\n\n\t\t",
        "fr": "<br>\n<br>\n<p>Alors que l\u2019ann\u00e9e 2018 tire \u00e0 sa fin, nous tenons \u00e0 prendre un instant pour vous remercier et vous souhaiter de joyeuses F\u00eates et une bonne ann\u00e9e.</p>\n<p>Nous sommes tr\u00e8s heureux de travailler avec des employ\u00e9s d\u00e9vou\u00e9s et professionnels tels que vous qui ont \u00e0 c\u0153ur leur travail. Nous esp\u00e9rons que vous prendrez le temps de c\u00e9l\u00e9brer vos traditions favorites des F\u00eates avec parents et amis. Nous avons nous aussi nos <a href=\"http://intranet.agr.gc.ca/agrisource/fra/notre-ministere/coin-des-sous-ministres/joyeuses-fetes?id=1544707637662\">traditions des F\u00eates</a> que nous souhaitons souligner avec vous.</p>\n<p>Nous sommes impatients de rencontrer un grand nombre d\u2019entre vous au cours de la nouvelle ann\u00e9e pour entendre parler du travail important et innovateur que vous accomplissez. Au nom de la haute direction d\u2019AAC, nous vous souhaitons de tr\u00e8s joyeuses F\u00eates!</p>\n<p>\u00a0</p>\n<p><strong>Chris Forbes</strong><br>\nSous-ministre</p>\n<p><strong>Annette Gibbons</strong><br>\nSous-ministre d\u00e9l\u00e9gu\u00e9e</p>\n\t\t"
    },
    "breadcrumb": {
        "en": "Happy Holidays and All the Best in 2019",
        "fr": "Joyeuses F\u00eates et bonne ann\u00e9e 2019"
    },
    "news": {
        "date_posted": {
            "en": "2018-12-13",
            "fr": "2018-12-13"
        },
        "to": {
            "en": "All staff",
            "fr": "Tous les employ\u00e9s"
        },
        "by": {
            "en": "Chris Forbes, Deputy Minister, and Annette Gibbons, Associate Deputy Minister",
            "fr": "Chris Forbes, sous-ministre, et Annette Gibbons, sous-ministre d\u00e9l\u00e9gu\u00e9e"
        }
    }
}