{
    "dcr_id": "1544561299137",
    "lang": "en",
    "title": {
        "en": "Reminder - Mobile Device Use and International Travel",
        "fr": "Rappel - Utilisation des appareils mobiles et d\u00e9placements \u00e0 l'\u00e9tranger"
    },
    "modified": "2018-12-19 00:00:00.0",
    "issued": "2018-12-13 00:00:00.0",
    "type_name": "intra-intra/news-nouv",
    "node_id": "1279030006975",
    "layout_name": null,
    "dc_date_created": "2018-12-11",
    "breadcrumb_label": "",
    "meta": {
        "issued": {
            "en": "2018-12-13",
            "fr": "2018-12-13"
        },
        "modified": {
            "en": "2018-12-19",
            "fr": "2018-12-19"
        },
        "format": {
            "en": "gcformat",
            "fr": "gcformat"
        },
        "title": {
            "en": "Reminder - Mobile Device Use and International Travel",
            "fr": "Rappel - Utilisation des appareils mobiles et d\u00e9placements \u00e0 l'\u00e9tranger"
        },
        "subject": {
            "en": "communications",
            "fr": "communications"
        },
        "description": {
            "en": "As the holiday season approaches, it is important to be mindful of the acceptable use of Government of Canada mobile devices.",
            "fr": "\u00c0 l'approche du temps des F\u00eates, il est important de garder \u00e0 l'esprit les r\u00e8gles sur l'utilisation acceptable des appareils mobiles du gouvernement du Canada."
        },
        "language": {
            "en": "eng",
            "fr": "fra"
        },
        "audience": {
            "en": "gcaudience",
            "fr": "gcaudience"
        },
        "creator": {
            "en": "Agriculture and Agri-Food Canada",
            "fr": "Agriculture et Agroalimentaire Canada"
        },
        "spatial": {
            "en": "gcregions",
            "fr": "gcregions"
        },
        "service": {
            "en": "AAFC_AgriSource",
            "fr": "AAC_AgriSource"
        },
        "accessRights": {
            "en": "3",
            "fr": "3"
        }
    },
    "body": {
        "en": "<br>\n<br>\n<p><img src=\"https://intranet.agr.gc.ca/resources/prod/news/images/MobileDeviceUseHoliday1.png\" class=\"pull-right\" alt=\"\">As the holiday season approaches, it is important to be mindful of the <a rel=\"external\" href=\"http://service.ssc.gc.ca/en/policies_processes/policies/celluse\">acceptable use</a> of Government of Canada mobile devices.</p>\n<p>If you are planning to travel internationally, this is a reminder that using a Government of Canada mobile device while <a href=\"http://intranet.agr.gc.ca/agrisource/eng/branches-and-offices/corporate-management-branch/services/prepare-for-your-travel?id=1415297726311\">travelling</a> outside of Canada for business is subject to departmental approval.</p>\n<p>Keep in mind that all voice calls, text messaging and data usage outside Canada incur significant charges. Please visit the <a rel=\"external\" href=\"http://service.ssc-spc.gc.ca/en/services/communicating/mobile-dev-phones/mobile-users/travel\">Using your mobile phone while travelling outside Canada</a> web page for more information, including ways to manage costs.</p>\n<p>For more details and tips on the use of mobile devices, please see <a rel=\"external\" href=\"http://service.ssc-spc.gc.ca/en/services/communicating/mobile-dev-phones/mobile-users\">Mobile devices \u2013 for GC employees</a>.</p>\n<p>Thank you and enjoy the holiday season.</p>\n<p>\u00a0</p>\n\n\t\t",
        "fr": "<br>\n<br>\n<p><img src=\"https://intranet.agr.gc.ca/resources/prod/news/images/MobileDeviceUseHoliday1.png\" class=\"pull-right mrgn-lft-md\">\u00c0 l\u2019approche du temps des F\u00eates, il est important de garder \u00e0 l\u2019esprit les r\u00e8gles sur l\u2019<a href=\"http://service.ssc.gc.ca/fr/politiques_processus/politiques/normecell\">utilisation acceptable</a> des appareils mobiles du gouvernement du Canada.</p>\n<p>\nAux employ\u00e9s qui pr\u00e9voient <a href=\"http://intranet.agr.gc.ca/agrisource/fra/directions-generales-et-bureaux/direction-generale-de-la-gestion-integree/services/preparez-votre-voyage?id=1415297726311\">voyager \u00e0 l\u2019\u00e9tranger</a>, nous rappelons qu\u2019il est interdit d\u2019utiliser un appareil mobile du gouvernement \u00e0 l\u2019ext\u00e9rieur du pays, sauf \u00e0 des fins professionnelles. Ce type d\u2019utilisation doit \u00eatre approuv\u00e9 par le Minist\u00e8re.</p>\n<p>\nLes appels t\u00e9l\u00e9phoniques, les messages textes et l\u2019utilisation de donn\u00e9es \u00e0 l\u2019ext\u00e9rieur du Canada entra\u00eenent des co\u00fbts consid\u00e9rables. Veuillez visiter la page <a href=\"http://service.ssc-spc.gc.ca/fr/services/communication/appareils-mobiles-lignefixe/mobiles-utils/voyage\">Utilisation de votre appareil mobile lors de vos d\u00e9placements \u00e0 l\u2019ext\u00e9rieur du Canada</a>\u00a0pour obtenir plus de renseignements, y compris sur les fa\u00e7ons de limiter les frais.</p>\n<p>\nPour de plus amples renseignements et des conseils sur l\u2019utilisation des appareils mobiles, consultez la page <a href=\"http://service.ssc-spc.gc.ca/fr/services/communication/appareils-mobiles-lignefixe/mobiles-utils\">Appareils mobiles \u2014 pour les employ\u00e9s du gouvernement du Canada</a>.</p>\n<p>\nMerci et joyeuses F\u00eates.</p>\n\t\t"
    },
    "breadcrumb": {
        "en": "Reminder - Mobile Device Use and International Travel",
        "fr": "Rappel - Utilisation des appareils mobiles et d\u00e9placements \u00e0 l'\u00e9tranger"
    },
    "news": {
        "date_posted": {
            "en": "2018-12-13",
            "fr": "2018-12-13"
        },
        "to": {
            "en": "All staff",
            "fr": "Tous les employ\u00e9s"
        },
        "by": {
            "en": "Information Systems Branch",
            "fr": "Direction g\u00e9n\u00e9rale des syst\u00e8mes d'information"
        }
    }
}