{
    "dcr_id": "1545315662929",
    "lang": "en",
    "title": {
        "en": "Holiday Message from the Clerk",
        "fr": "Message du temps des F\u00eates de la part du Greffier"
    },
    "modified": "2018-12-20 00:00:00.0",
    "issued": "2018-12-20 00:00:00.0",
    "type_name": "intra-intra/news-nouv",
    "node_id": "1279030006975",
    "layout_name": null,
    "dc_date_created": "2018-12-20",
    "breadcrumb_label": "",
    "meta": {
        "issued": {
            "en": "2018-12-20",
            "fr": "2018-12-20"
        },
        "modified": {
            "en": "2018-12-20",
            "fr": "2018-12-20"
        },
        "format": {
            "en": "gcformat",
            "fr": "gcformat"
        },
        "title": {
            "en": "Holiday Message from the Clerk",
            "fr": "Message du temps des F\u00eates de la part du Greffier"
        },
        "subject": {
            "en": "communications",
            "fr": "communications"
        },
        "description": {
            "en": "The holiday season is here, and so is the end of a very successful year.",
            "fr": "Le temps des F\u00eates est arriv\u00e9 et, avec lui, s'ach\u00e8ve une ann\u00e9e couronn\u00e9e de succ\u00e8s."
        },
        "language": {
            "en": "eng",
            "fr": "fra"
        },
        "audience": {
            "en": "gcaudience",
            "fr": "gcaudience"
        },
        "creator": {
            "en": "Agriculture and Agri-Food Canada",
            "fr": "Agriculture et Agroalimentaire Canada"
        },
        "spatial": {
            "en": "gcregions",
            "fr": "gcregions"
        },
        "service": {
            "en": "AAFC_AgriSource",
            "fr": "AAC_AgriSource"
        },
        "accessRights": {
            "en": "3",
            "fr": "3"
        }
    },
    "body": {
        "en": "<br>\n<br>\n<p>The holiday season is here, and so is the end of a very successful year.</p>\n<p>I would like to thank you for all the work you do to serve Canadians and to help make Canada such an extraordinary country. Your extraordinary service is unparalleled, and you should be proud to be a part of the most effective public service in the world.</p>\n<p>Each of you helps us, as a Public Service, to achieve our common goals - whether it is ensuring the health and safety of Canadians, improving services and operations, or advancing the priorities of our democratically elected government.</p>\n<p>I hope that many of you are able to take some time during the holidays to rest and celebrate with your loved ones. If you have to hold down the fort at work for your team, please know that your dedication is noticed and appreciated.</p>\n<p>At the close of this busy and productive year, I look ahead to 2019, which will bring new opportunities to achieve great things together.</p>\n<p>I wish you, your friends and your families a safe and peaceful holiday season, as well as happiness and health in the New Year.</p>\n<p>\u00a0</p>\n<p><strong>Michael Wernick</strong><br>\nClerk of the Privy Council and Secretary to Cabinet</p>\n<p><img src=\"https://intranet.agr.gc.ca/resources/prod/news/images/HolidayMessageClerk20181.png\" class=\"center-block\" alt=\"\"></p>\n\n\t\t",
        "fr": "<br>\n<br>\n<p>Le temps des F\u00eates est arriv\u00e9 et, avec lui, s'ach\u00e8ve une ann\u00e9e couronn\u00e9e de succ\u00e8s.</p>\n<p>Je tiens \u00e0 vous remercier pour tout le travail que vous faites pour servir les Canadiens et contribuer \u00e0 faire du Canada un pays aussi extraordinaire. Rien n'\u00e9gale votre professionnalisme et vous devriez \u00eatre fiers de faire partie de la fonction publique la plus efficace du monde.</p>\n<p>Chacun de vous nous aide, en tant que fonction publique, \u00e0 atteindre nos objectifs communs, qu'il s'agisse d'assurer la sant\u00e9 et la s\u00e9curit\u00e9 des Canadiens, d'am\u00e9liorer les services et les op\u00e9rations ou encore de r\u00e9aliser les priorit\u00e9s de notre gouvernement d\u00e9mocratiquement \u00e9lu.</p>\n<p>J'esp\u00e8re que la plupart d'entre vous profiteront des vacances pour se reposer et f\u00eater avec leurs proches. Par contre, si vous devez travailler pour assurer la continuit\u00e9 des services de votre \u00e9quipe, sachez que d\u00e9vouement ne passe pas inaper\u00e7u et que nous l'appr\u00e9cions.</p>\n<p>\u00c0 la fin de cette ann\u00e9e productive et charg\u00e9e, je me tourne vers 2019, qui offrira de nouvelles occasions d'accomplir ensemble de grandes choses.</p>\n<p>Je vous souhaite, ainsi qu'\u00e0 vos familles et \u00e0 vos amis, de joyeuses F\u00eates, et une nouvelle ann\u00e9e remplie de bonheur et florissante de sant\u00e9.</p>\n<p>\u00a0</p>\n<p><strong>Michael Wernick</strong><br>\nGreffier du Conseil priv\u00e9 et secr\u00e9taire du Cabinet</p>\n<p><img src=\"https://intranet.agr.gc.ca/resources/prod/news/images/HolidayMessageClerk20181.png\" class=\"center-block\"></p>\n\t\t"
    },
    "breadcrumb": {
        "en": "Holiday Message from the Clerk",
        "fr": "Message du temps des F\u00eates de la part du Greffier"
    },
    "news": {
        "date_posted": {
            "en": "2018-12-19",
            "fr": "2018-12-19"
        },
        "to": {
            "en": "All staff",
            "fr": "Tous les employ\u00e9s"
        },
        "by": {
            "en": "Michael Wernick, Clerk of the Privy Council and Secretary to Cabinet",
            "fr": "Michael Wernick, Greffier du Conseil priv\u00e9 et secr\u00e9taire du Cabinet"
        }
    }
}