{
    "dcr_id": "1545229546258",
    "lang": "en",
    "title": {
        "en": "Policy Analyst ",
        "fr": "Analyste des politiques"
    },
    "modified": "2019-01-02 00:00:00.0",
    "issued": "2018-12-21 00:00:00.0",
    "type_name": "intra-intra/empl-empl",
    "node_id": "1279029955397",
    "layout_name": null,
    "dc_date_created": "2018-12-19",
    "breadcrumb_label": "",
    "meta": {
        "issued": {
            "en": "2018-12-21",
            "fr": "2018-12-21"
        },
        "modified": {
            "en": "2019-01-02",
            "fr": "2019-01-02"
        },
        "format": {
            "en": "gcformat",
            "fr": "gcformat"
        },
        "title": {
            "en": "Policy Analyst ",
            "fr": "Analyste des politiques"
        },
        "subject": {
            "en": "staffing",
            "fr": "dotation en personnel"
        },
        "language": {
            "en": "eng",
            "fr": "fra"
        },
        "audience": {
            "en": "gcaudience",
            "fr": "gcaudience"
        },
        "type": {
            "en": "notice",
            "fr": "avis"
        },
        "creator": {
            "en": "Agriculture and Agri-Food Canada",
            "fr": "Agriculture et Agroalimentaire Canada"
        },
        "spatial": {
            "en": "gcregions",
            "fr": "gcregions"
        },
        "service": {
            "en": "AAFC_AgriSource",
            "fr": "AAC_AgriSource"
        },
        "accessRights": {
            "en": "3",
            "fr": "3"
        }
    },
    "body": {
        "en": "\n<p>\u00a0</p>\n<p>The Biotechnology and Emerging Technologies Issues team (BETI) in the Policy, Planning and Integration Directorate (PPI) of the Strategic Policy Branch (SPB) is seeking expressions of interest for a one-year assignment (at level) at the EC-03 to EC-05 levels, including employees in the EC Development Program (ECDP).</p>\n<p>As part of the Innovation and Growth Policy Division, BETI provides evidence-based policy advice to promote and foster innovation, drive competitive growth of the agriculture and agri-food sector, and advance AAFC priorities and those of its portfolio partners. BETI currently supports and facilitates the adoption of emerging and transformative agricultural technologies, including through leading and co-ordinating analysis in areas such as precision/\u201csmart\u201d agriculture, artificial intelligence (AI), block chain and agricultural biotechnology. BETI develops strategies and provides recommendations to address domestic market and consumer acceptance challenges, regulatory hurdles, and other barriers to competitiveness.</p>\n<p>The successful candidate will be responsible for undertaking research and analysis and providing advice and recommendations on policy considerations of transformative digital technologies including precision agriculture, AI and applications for block chain technologies in the agricultural sector. Responsibilities may include providing perspectives on future transformative technologies to AAFC\u2019s Medium Term Planning analysis process. The successful candidate may also be asked to respond to requests for information from internal and external clients, and will be responsible for acting as a policy resource to other branches, as required.</p>\n<p>Candidates should have strong written and verbal communication skills, as well as demonstrating good judgement, initiative and proven analytical abilities.</p>\n<p>Please note that this advertisement is intended for an assignment at level.</p>\n<p><strong>\u00a0</strong></p>\n<p><strong>Applications</strong></p>\n<p>Interested? Send your resume and an email (max 250 words) explaining why you are interested in this opportunity to Julie Levert (<a href=\"mailto:julie.levert@canada.ca\">julie.levert@canada.ca</a>) before the deadline.</p>\n<p>R\u00e9sum\u00e9s must clearly identify:</p>\n<ul>\n<li>Your tenure (e.g., term or indeterminate)</li>\n<li>Your security clearance</li>\n<li>Your substantive group and level</li>\n</ul>\n<p>Covering emails should briefly identify:</p>\n<ul>\n<li>Your education and work experience, as well as any qualifications that may be an asset (e.g., experience as a leader or member of intra or inter-departmental working groups) for this position.</li>\n</ul>\n<p><strong>\u00a0</strong></p>\n<p><strong>Notes:</strong></p>\n<ul>\n<li>Communication for this process will be sent via email.</li>\n<li>Candidates may be assessed through an interview.</li>\n<li>A written exam may be administered.</li>\n<li>Reference checks may be sought.</li>\n</ul>\n<p>\u00a0</p>\n<ul>\n</ul>\n",
        "fr": "\n<p>\u00a0</p>\n<p>L\u2019\u00e9quipe des Questions sur la biotechnologie et les technologies \u00e9mergentes (QBTE) au sein de la Direction de la planification et de l\u2019int\u00e9gration des politiques (PIP) de la Direction g\u00e9n\u00e9rale des politiques strat\u00e9giques (DGPS) invite les personnes int\u00e9ress\u00e9es \u00e0 lui soumettre une d\u00e9claration d\u2019int\u00e9r\u00eat en vue d\u2019une affectation d\u2019un an aux niveaux EC-03 \u00e0 EC-05, y compris les employ\u00e9s participant au Programme de perfectionnement des EC (PPEC).</p>\n<p>Faisant partie de la Division des politiques sur l\u2019innovation et la croissance (DPIC), QBTE offre des conseils fond\u00e9s sur des donn\u00e9es probantes afin de promouvoir et de favoriser l\u2019innovation, de stimuler une croissance comp\u00e9titive du secteur de l\u2019agriculture et de l\u2019agroalimentaire et de mettre en \u0153uvre les priorit\u00e9s d\u2019AAC et de ses partenaires du portefeuille. Actuellement, QBTE soutient et facilite l\u2019adoption de technologies agricoles transformatrices en menant et en coordonnant des analyses dans des secteurs comme l\u2019agriculture de pr\u00e9cision/intelligente, l\u2019intelligence artificielle (IA), le cha\u00eenage de blocs et la biotechnologie agricole. QBTE \u00e9labore des strat\u00e9gies et formule des recommandations en vue de r\u00e9gler les probl\u00e8mes li\u00e9s au march\u00e9 int\u00e9rieur et \u00e0 l\u2019acceptation des consommateurs.</p>\n<p>La personne retenue sera charg\u00e9e d\u2019entreprendre des recherches et des analyses et de formuler des conseils et des recommandations sur des consid\u00e9rations strat\u00e9giques des technologies num\u00e9riques transformatrices, dont l\u2019agriculture de pr\u00e9cision, l\u2019IA et les applications de la technologie de la cha\u00eene de blocs dans le secteur agricole. Elle pourrait \u00e9galement \u00eatre appel\u00e9e \u00e0 fournir des perspectives sur des technologies transformatrices \u00e0 venir dans le cadre du processus d\u2019analyse de la planification \u00e0 moyen terme d\u2019AAC. On pourrait \u00e9galement lui demander de r\u00e9pondre \u00e0 des demandes d\u2019information de la part de clients internes et externes, et elle sera charg\u00e9e d\u2019agir \u00e0 titre de ressource strat\u00e9gique pour les autres Directions g\u00e9n\u00e9rales, au besoin.</p>\n<p>Les personnes int\u00e9ress\u00e9es doivent poss\u00e9der de solides habilet\u00e9s de communication \u00e9crite et verbale et faire preuve de jugement, d\u2019initiative et de capacit\u00e9s d\u2019analyse d\u00e9montr\u00e9es.</p>\n<p>Veuillez noter que ce processus donnera lieu \u00e0 une affectation \u00e0 un poste de m\u00eame niveau.</p>\n<p><strong>\u00a0</strong></p>\n<p><strong>Demandes</strong></p>\n<p>Cela vous int\u00e9resse? Faites parvenir votre curriculum vit\u00e6 ainsi qu\u2019un courriel (d\u2019au plus, 250 mots) dans lequel vous expliquez pourquoi cette occasion vous int\u00e9resse \u00e0 Julie Levert (<a href=\"https://collab.agr.gc.ca/co/bprmpf-epgrdgdp/BPRM%20Files/HR/Assignment%20Posters/PPI-Biotechnology/julie.levert@canada.ca\">julie.levert@canada.ca</a>), avant la date de cl\u00f4ture.</p>\n<p>Dans votre curriculum vit\u00e6, indiquez clairement :</p>\n<ul>\n<li>Le type de poste que vous occupez (p. ex. d\u00e9termin\u00e9e ou ind\u00e9termin\u00e9e)</li>\n<li>Votre cote de s\u00e9curit\u00e9</li>\n<li>Votre groupe et niveau de titularisation.</li>\n</ul>\n<p>Votre courriel de pr\u00e9sentation doit indiquer bri\u00e8vement :</p>\n<ul>\n<li>Vos \u00e9tudes et vos exp\u00e9riences de travail, de m\u00eame que toute qualification pouvant constituer un atout (p. ex., exp\u00e9rience comme chef ou membre d\u2019un groupe de travail interminist\u00e9riel) pour ce poste.</li>\n</ul>\n<p><strong>\u00a0</strong></p>\n<p><strong>Remarques :</strong></p>\n<ul>\n<li>Les communications relatives \u00e0 ce processus se feront par courriel.</li>\n<li>Les candidats pourront \u00eatre \u00e9valu\u00e9s au moyen d\u2019une entrevue.</li>\n<li>Les candidats pourraient devoir passer un examen \u00e9crit.</li>\n<li>Les r\u00e9f\u00e9rences des candidats pourraient faire l\u2019objet d\u2019une v\u00e9rification.</li>\n</ul>\n<p>\u00a0</p>\n<ul>\n</ul>\n\n"
    },
    "breadcrumb": {
        "en": "Policy Analyst",
        "fr": "Analyste des politiques"
    },
    "empl": {
        "type": {
            "en": "Assignment",
            "fr": "Affectation"
        },
        "classification": {
            "en": "EC-3 and equivalent",
            "fr": "EC-3 et \u00e9quivalent"
        },
        "branch": {
            "en": "Strategic Policy Branch",
            "fr": "Direction g\u00e9n\u00e9rale des politiques strat\u00e9giques"
        },
        "locations": {
            "en": "NCR",
            "fr": "RCN"
        },
        "date_closing": {
            "en": "2019-01-11",
            "fr": "2019-01-11"
        },
        "open_to": {
            "en": "All AAFC Employees at the EC-03 to EC-05 level in the NCR",
            "fr": "Tous les employ\u00e9s d\u2019AAC de niveaux EC-03 \u00e0 EC-05 dans la RCN"
        },
        "name": {
            "en": "Julie Levert",
            "fr": "Julie Levert"
        },
        "email": {
            "en": "julie.levert@canada.ca",
            "fr": "julie.levert@canada.ca"
        }
    }
}