{
    "dcr_id": "1545148938886",
    "lang": "en",
    "title": {
        "en": "Sustainable Cultivation, Applied Microbiology, Crop Management and More: December Additions to the Canadian Agriculture Library Collection",
        "fr": "Culture durable, microbiologie appliqu\u00e9e, gestion des cultures et plus encore : liste des nouveaut\u00e9s de d\u00e9cembre dans la collection de la Biblioth\u00e8que canadienne de l'agriculture"
    },
    "modified": "2018-12-27 00:00:00.0",
    "issued": "2018-12-20 00:00:00.0",
    "type_name": "intra-intra/news-nouv",
    "node_id": "1279030006975",
    "layout_name": null,
    "dc_date_created": "2018-12-18",
    "breadcrumb_label": "Sustainable Cultivation, Applied Microbiology, Crop Management and More: December Additions to...",
    "meta": {
        "issued": {
            "en": "2018-12-20",
            "fr": "2018-12-20"
        },
        "modified": {
            "en": "2018-12-27",
            "fr": "2018-12-21"
        },
        "format": {
            "en": "gcformat",
            "fr": "gcformat"
        },
        "title": {
            "en": "Sustainable Cultivation, Applied Microbiology, Crop Management and More: December Additions to the Canadian Agriculture Library Collection",
            "fr": "Culture durable, microbiologie appliqu\u00e9e, gestion des cultures et plus encore : liste des nouveaut\u00e9s de d\u00e9cembre dans la collection de la Biblioth\u00e8que canadienne de l'agriculture"
        },
        "subject": {
            "en": "communications",
            "fr": "communications"
        },
        "description": {
            "en": "It's the holidays - the perfect chance to use some downtime to catch up on your reading.",
            "fr": "C'est le temps des F\u00eates, voici l'occasion id\u00e9ale de vous rattraper dans vos lectures en cette p\u00e9riode de cong\u00e9."
        },
        "language": {
            "en": "eng",
            "fr": "fra"
        },
        "audience": {
            "en": "gcaudience",
            "fr": "gcaudience"
        },
        "creator": {
            "en": "Agriculture and Agri-Food Canada",
            "fr": "Agriculture et Agroalimentaire Canada"
        },
        "spatial": {
            "en": "gcregions",
            "fr": "gcregions"
        },
        "service": {
            "en": "AAFC_AgriSource",
            "fr": "AAC_AgriSource"
        },
        "accessRights": {
            "en": "3",
            "fr": "3"
        }
    },
    "body": {
        "en": "<br>\n<br>\n<p>It\u2019s the holidays\u2014the perfect chance to use some downtime to catch up on your reading. The Canadian Agriculture Library\u2019s (<abbr title=\"Canadian Agriculture Library\">CAL</abbr>) <a href=\"https://collab.agr.gc.ca/co/kis-sis/Documents/CAL%20New%20Acquisitions%202018-12%20(December%202018)%20-%20Nouveaut%C3%A9s%20%C3%A0%20la%20BCA%202018-12%20(D%C3%A9cembre%202018).pdf\">December list of new additions to the collection</a> highlights the latest publications available at the library. This month\u2019s list includes:</p>\n<ul>\n<li>the latest titles from the <em>Advances in Science </em>series;</li>\n<li>up-to-date proceedings from <em>Acta Horticulturae; </em>and</li>\n<li>the newest titles from our rotating Bibliaff book collection of personal and professional development titles.</li>\n</ul>\n<p>You can access the electronic content from your desktop by clicking on links found in the list, or request to borrow physical items.</p>\n<p>For more information, contact <abbr title=\"Canadian Agriculture Library\">CAL</abbr> (<a href=\"http://mailto:%20cal-bca-ref@agr.gc.ca\">cal-bca-ref@agr.gc.ca</a>).</p>\n<p><img src=\"https://intranet.agr.gc.ca/resources/prod/news/images/CALbanner-EN.png\" class=\"center-block\"></p>\n\n\t\t",
        "fr": "<br>\n<br>\n<p>C\u2019est le temps des F\u00eates, voici l\u2019occasion id\u00e9ale de vous rattraper dans vos lectures en cette p\u00e9riode de cong\u00e9. <a href=\"https://collab.agr.gc.ca/co/kis-sis/Documents/Nouveaut%C3%A9s%20%C3%A0%20la%20BCA%202018-12%20(D%C3%A9cembre%202018)%20-%20CAL%20New%20Acquisitions%202018-12%20(December%202018).pdf\">La liste des nouveaut\u00e9s de d\u00e9cembre dans la collection</a> de la Biblioth\u00e8que canadienne de l\u2019agriculture (<abbr title=\"Biblioth\u00e8que canadienne de l\u2019agriculture\">BCA</abbr>) comprend ce qui suit :</p>\n<ul>\n<li>les derniers titres de la s\u00e9rie <em>Advances in Science</em>;</li>\n<li>les plus r\u00e9cents actes de conf\u00e9rence d\u2019<em>Acta Horticulturae</em>;</li>\n<li>les titres les plus r\u00e9cents de notre collection <em>Bibliaff</em> qui porte sur diff\u00e9rents sujets li\u00e9s au d\u00e9veloppement personnel et professionnel.</li>\n</ul>\n<p>Vous pouvez consulter le contenu \u00e9lectronique \u00e0 partir de votre ordinateur, en cliquant sur le lien du document souhait\u00e9 ou faire une demande d\u2019emprunt de la version imprim\u00e9e.</p>\n<p>Pour plus de renseignements, veuillez communiquer avec la <abbr title=\"Biblioth\u00e8que canadienne de l\u2019agriculture\">BCA</abbr>, \u00e0 <a href=\"mailto:cal-bca-ref@agr.gc.ca\">cal-bca-ref@agr.gc.ca</a>.</p>\n<p><br><img src=\"https://intranet.agr.gc.ca/resources/prod/news/images/CALbanniere-FR.png\" class=\"center-block\"></p>\n\t\t"
    },
    "breadcrumb": {
        "en": "Sustainable Cultivation, Applied Microbiology, Crop Management and More: December Additions to...",
        "fr": "Culture durable, microbiologie appliqu\u00e9e, gestion des cultures et plus encore : liste des..."
    },
    "news": {
        "date_posted": {
            "en": "2018-12-20",
            "fr": "2018-12-20"
        },
        "to": {
            "en": "All staff",
            "fr": "Tous les employ\u00e9s"
        },
        "by": {
            "en": "Canadian Agriculture Library",
            "fr": "Biblioth\u00e8que canadienne de l'agriculture"
        }
    }
}