{
    "dcr_id": "1545152800435",
    "lang": "en",
    "title": {
        "en": "Reminder - NCR - NHCAP - Testing of Fire Alarms - January 4",
        "fr": "Rappel - RCN - CACPA - Mise \u00e0 l'essai des alarmes d'incendie - 4 janvier"
    },
    "modified": "2019-01-03 00:00:00.0",
    "issued": "2018-12-20 00:00:00.0",
    "type_name": "intra-intra/news-nouv",
    "node_id": "1279030006975",
    "layout_name": null,
    "dc_date_created": "2018-12-18",
    "breadcrumb_label": "",
    "meta": {
        "issued": {
            "en": "2018-12-20",
            "fr": "2018-12-20"
        },
        "modified": {
            "en": "2019-01-03",
            "fr": "2019-01-03"
        },
        "format": {
            "en": "gcformat",
            "fr": "gcformat"
        },
        "title": {
            "en": "Reminder - NCR - NHCAP - Testing of Fire Alarms - January 4",
            "fr": "Rappel - RCN - CACPA - Mise \u00e0 l'essai des alarmes d'incendie - 4 janvier"
        },
        "subject": {
            "en": "communications",
            "fr": "communications"
        },
        "description": {
            "en": "This notice is to advise you of the audible fire alarm testing Friday, January 4 at 10:00 a.m.",
            "fr": "La pr\u00e9sente a pour but de vous aviser que l'alarme d'incendie avec signal sonore sera mise \u00e0 l'essai le vendredi 4 janvier \u00e0 10 h."
        },
        "language": {
            "en": "eng",
            "fr": "fra"
        },
        "audience": {
            "en": "gcaudience",
            "fr": "gcaudience"
        },
        "creator": {
            "en": "Agriculture and Agri-Food Canada",
            "fr": "Agriculture et Agroalimentaire Canada"
        },
        "spatial": {
            "en": "gcregions",
            "fr": "gcregions"
        },
        "service": {
            "en": "AAFC_AgriSource",
            "fr": "AAC_AgriSource"
        },
        "accessRights": {
            "en": "3",
            "fr": "3"
        }
    },
    "body": {
        "en": "<br>\n<br>\n<p>This notice is to advise you of the audible fire alarm testing <strong>Friday, January 4 at 10:00 a.m.</strong></p>\n<p>Details of the tests are outlined in the\u00a0<a href=\"https://intranet.agr.gc.ca/agrisource/AgriDoc.do?id=104471283&amp;lang=eng\" target=\"_blank\">Maple Leaf Property Management notice</a>.</p>\n<p><img src=\"https://intranet.agr.gc.ca/resources/prod/news/images/MapleLeafProperty.png\" class=\"center-block\"></p>\n\n\t\t",
        "fr": "<br>\n<br>\n<p>La pr\u00e9sente a pour but de vous aviser que l\u2019alarme d\u2019incendie avec signal sonore sera mise \u00e0 l\u2019essai le vendredi 4 janvier \u00e0 10 h.</p>\n<p>La mise \u00e0 l\u2019essai est d\u00e9crite dans l\u2019<a href=\"https://intranet.agr.gc.ca/agrisource/AgriDoc.do?id=104471283&amp;lang=fra\" target=\"_blank\">annonce de Maple Leaf Property Management</a>.</p>\n<p><img src=\"https://intranet.agr.gc.ca/resources/prod/news/images/MapleLeafProperty.png\" class=\"center-block\"></p>\n\t\t"
    },
    "breadcrumb": {
        "en": "NCR - Reminder - NCR - NHCAP - Testing of Fire Alarms - January 4",
        "fr": "RCN - Rappel - RCN - CACPA - Mise \u00e0 l'essai des alarmes d'incendie - 4 janvier"
    },
    "news": {
        "date_posted": {
            "en": "2018-12-20",
            "fr": "2018-12-20"
        },
        "to": {
            "en": "NCR only",
            "fr": "RCN seulement"
        },
        "by": {
            "en": "Maple Leaf Property Management",
            "fr": "Maple Leaf Property Management"
        }
    }
}