{
    "dcr_id": "1546031667509",
    "lang": "en",
    "title": {
        "en": "Reminder - Indigenous Learning Event: The Cree of Eeyou Istchee Story - January 15",
        "fr": "Rappel - L'histoire des Cris d'Eeyou Istchee - 15 janvier"
    },
    "modified": "2019-01-09 00:00:00.0",
    "issued": "2019-01-03 00:00:00.0",
    "type_name": "intra-intra/news-nouv",
    "node_id": "1279030006975",
    "layout_name": null,
    "dc_date_created": "2018-12-31",
    "breadcrumb_label": "",
    "meta": {
        "issued": {
            "en": "2019-01-03",
            "fr": "2019-01-03"
        },
        "modified": {
            "en": "2019-01-09",
            "fr": "2019-01-09"
        },
        "format": {
            "en": "gcformat",
            "fr": "gcformat"
        },
        "title": {
            "en": "Reminder - Indigenous Learning Event: The Cree of Eeyou Istchee Story - January 15",
            "fr": "Rappel - L'histoire des Cris d'Eeyou Istchee - 15 janvier"
        },
        "subject": {
            "en": "communications",
            "fr": "communications"
        },
        "description": {
            "en": "The story of the Cree of Eeyou Istchee illustrates a unique journey that offers hope and serves as a template for the future of Canada's relationship with Indigenous peoples.",
            "fr": "L'histoire des Cris d'Eeyou Istchee illustre un parcours unique qui donne espoir et sert de mod\u00e8le pour l'avenir des relations du Canada avec les peuples autochtones."
        },
        "language": {
            "en": "eng",
            "fr": "fra"
        },
        "audience": {
            "en": "gcaudience",
            "fr": "gcaudience"
        },
        "creator": {
            "en": "Agriculture and Agri-Food Canada",
            "fr": "Agriculture et Agroalimentaire Canada"
        },
        "spatial": {
            "en": "gcregions",
            "fr": "gcregions"
        },
        "service": {
            "en": "AAFC_AgriSource",
            "fr": "AAC_AgriSource"
        },
        "accessRights": {
            "en": "3",
            "fr": "3"
        }
    },
    "body": {
        "en": "<br>\n<br>\n<p>The story of the Cree of Eeyou Istchee illustrates a unique journey that offers hope and serves as a template for the future of Canada\u2019s relationship with Indigenous peoples.</p>\n<p>The James Bay and Northern Quebec Agreement (<abbr title=\"James Bay and Northern Quebec Agreement\">JBNQA</abbr>) of 1975 is the first modern Aboriginal land claim agreement and treaty in Canada. It serves as a strong shield to permanently protect Cree rights and is a key pillar of support for Cree Nation governance. The Cree have secured the tools for exercising jurisdiction and control over their traditional territory. They have developed political mechanisms and secured resources that have greatly improved the lives of their people.</p>\n<p>The Grand Council of the Crees (Eeyou Istchee)/Cree Nation Government (<abbr title=\"Grand Council of the Crees (Eeyou Istchee)/Cree Nation Government \">GCC(EI)/CNG</abbr>) have achieved many of the important recommendations of the report on the Royal Commission on Aboriginal Peoples and have successfully applied key principles of the United Nations Declaration on the Rights of Indigenous Peoples. The Cree have moved from an era of exclusion to inclusion and from an era of conflict to cooperation.</p>\n<p>Rodney is a member of the Waskaganish Cree Nation and beneficiary of the <abbr title=\"James Bay and Northern Quebec Agreement\">JBNQA</abbr>. He has served in senior management capacities for the <abbr title=\"Grand Council of the Crees (Eeyou Istchee)/Cree Nation Government \">GCC(EI)/CNG</abbr>.</p>\n<h2><strong>Event information</strong></h2>\n<p><strong>Date and Time:</strong> January 15 | 1:30 to 3:00 p.m. (ET)<br><strong>Speaker:</strong> <strong>Rodney Hester</strong><strong>,</strong> Manager, Indigenous Peoples Employment Program, First Nations and Inuit Health Branch, Indigenous Services Canada<br><strong>Moderator:</strong> <strong>Benoit Trottier</strong><strong>,</strong> Learning Specialist, Canada School of Public Service<br><strong>Language:</strong> English with interpretation in French<br><strong>Location:</strong> Collaboration Lounge, Acad\u00e9mie De-La-Salle, 373 Sussex Drive (Guigues Avenue entrance), Ottawa. Available across Canada by webcast.<br><strong>Registration:</strong> <a rel=\"external\" href=\"https://learn-apprendre.csps-efpc.gc.ca/application/en/content/cree-eeyou-istchee-story\">In-Person</a> | <a rel=\"external\" href=\"https://learn-apprendre.csps-efpc.gc.ca/application/en/content/cree-eeyou-istchee-story\">Webcast</a> (<strong>Registration deadline: January 14</strong>)</p>\n<p>Notes:</p>\n<ul>\n<li>Please ensure that you have your MyAccount login name and password. If you do not have an account, please contact the <a rel=\"external\" href=\"https://www.csps-efpc.gc.ca/Contact_Us/index-eng.aspx#gi\">Canada School of Public Service Client Contact Centre</a>.</li>\n<li>The School encourages learners to view webcast events in groups to conserve bandwidth and facilitate discussion. To minimize the risk of technical difficulties during the webcast, check connectivity prior to the session by using the School's <a href=\"http://the.canwebcast.net/test/csp/\">test link</a>. If you experience any problems, please contact your IM/IT department.</li>\n</ul>\n<p><strong>Information:</strong> <a href=\"mailto:csps.learningevents-evenementsdapprentissage.efpc@canada.ca\">csps.learningevents-evenementsdapprentissage.efpc@canada.ca</a> </p>\n<p><img src=\"https://intranet.agr.gc.ca/resources/prod/news/images/IndigenousLearningEventCreeofEeyouIstchee-EN.png\" class=\"center-block\"></p>\n\n\t\t",
        "fr": "<br>\n<br>\n<p>L'histoire des Cris d'Eeyou Istchee illustre un parcours unique qui donne espoir et sert de mod\u00e8le pour l'avenir des relations du Canada avec les peuples autochtones.</p>\n<p>La Convention de la Baie-James et du Nord qu\u00e9b\u00e9cois de 1975 (<abbr title=\"Convention de la Baie-James et du Nord qu\u00e9b\u00e9cois\">CBJNQ</abbr>) est la premi\u00e8re entente (trait\u00e9) moderne de r\u00e8glement d'une revendication territoriale autochtone conclue au Canada. Elle sert de bouclier pour prot\u00e9ger en permanence les droits du peuple cri et constitue un important pilier de la gouvernance de la nation crie. Les Cris se sont dot\u00e9s des outils n\u00e9cessaires pour exercer leur comp\u00e9tence et leur contr\u00f4le sur leur territoire traditionnel. Ils ont instaur\u00e9 des instances politiques et ont obtenu des ressources qui ont grandement am\u00e9lior\u00e9 les conditions de vie de leur population.</p>\n<p>Le Grand Conseil des Cris (Eeyou Istchee)/gouvernement de la Nation crie (<abbr title=\"Grand Conseil des Cris (Eeyou Istchee) / gouvernement de la Nation crie\">GCC(EI)/GNC</abbr>) a mis en \u0153uvre nombre des recommandations importantes du rapport de la Commission royale sur les peuples autochtones et a appliqu\u00e9 avec succ\u00e8s les principes cl\u00e9s de la D\u00e9claration des Nations Unies sur les droits des peuples autochtones. Les Cris sont pass\u00e9s d'une \u00e8re d'exclusion \u00e0 une \u00e8re d'inclusion, et d'une \u00e8re de conflit \u00e0 une \u00e8re de coop\u00e9ration.</p>\n<p>Rodney est membre de la Nation crie de Waskaganish et b\u00e9n\u00e9ficiaire de la <abbr title=\"Convention de la Baie-James et du Nord qu\u00e9b\u00e9cois\">CBJNQ</abbr>. Il a assur\u00e9 un r\u00f4le de direction pour le <abbr title=\"Grand Conseil des Cris (Eeyou Istchee) / gouvernement de la Nation crie\">GCC(EI)/GNC</abbr>.</p>\n<h2><strong>Renseignements sur l'\u00e9v\u00e9nement</strong></h2>\n<p><strong>Date et heure :</strong>\u00a015 janvier |\u00a013 h 30 \u00e0 15 h (HE)<br><strong>Conf\u00e9rencier :</strong> <strong>Rodney Hester</strong>, gestionnaire, programme d'emploi pour les Autochtones, Direction g\u00e9n\u00e9rale de la sant\u00e9 des Premi\u00e8res nations et des Inuits, Services aux Autochtones Canada<br><strong>Animateur :</strong> <strong>Benoit Trottier</strong>, sp\u00e9cialiste en apprentissage, \u00c9cole de la fonction publique du Canada<br><strong>Langue :</strong> En anglais avec interpr\u00e9tation en fran\u00e7ais<br><strong>Lieu :</strong> Salon de la collaboration, acad\u00e9mie De-La-Salle, 373, promenade Sussex (entr\u00e9e de l'avenue Guigues), Ottawa. \nOffert partout au Canada par webdiffusion.<br><strong>Inscription : </strong><a rel=\"external\" href=\"https://learn-apprendre.csps-efpc.gc.ca/application/fr/content/lhistoire-des-cris-deeyou-istchee\">Ottawa</a> | <a rel=\"external\" href=\"https://learn-apprendre.csps-efpc.gc.ca/application/fr/content/lhistoire-des-cris-deeyou-istchee\">Webdiffusion</a>\u00a0(<strong>Date limite d'inscription : 14 janvier</strong>)<strong> </strong></p>\n<p>Nota :</p>\n<ul>\n<li>Veuillez vous assurer d\u2019avoir un nom d'utilisateur et un mot de\u00a0passe MonDossier. Si vous n\u2019avez pas de compte, communiquez avec le <u><a rel=\"external\" href=\"https://www.csps-efpc.gc.ca/Contact_Us/index-fra.aspx#gi\">Centre de contact avec la client\u00e8le de l'\u00c9cole de la\u00a0fonction publique du Canada</a></u>.\n</li>\n<li>L'\u00c9cole encourage les apprenants \u00e0 regarder les webdiffusions en groupe afin d'optimiser la bande passante et de favoriser la discussion. Pour r\u00e9duire le risque de probl\u00e8mes de transmission, v\u00e9rifiez la connectivit\u00e9 au pr\u00e9alable \u00e0 l'aide du <a rel=\"external\" href=\"http://the.canwebcast.net/test/csp/\">lien pour les essais</a> de l'\u00c9cole. Si vous \u00e9prouvez des probl\u00e8mes d'ordre technique, veuillez communiquer avec votre service de GI/TI.</li>\n</ul>\n<p>Renseignements : <a href=\"mailto:csps.learningevents-evenementsdapprentissage.efpc@canada.ca\">csps.learningevents-evenementsdapprentissage.efpc@canada.ca</a></p>\n<p><img src=\"https://intranet.agr.gc.ca/resources/prod/news/images/IndigenousLearningEventCreeofEeyouIstchee-FR.png\" class=\"center-block\"></p>\n\t\t"
    },
    "breadcrumb": {
        "en": "Reminder - Indigenous Learning Event: The Cree of Eeyou Istchee Story - January 15",
        "fr": "Rappel - L'histoire des Cris d'Eeyou Istchee - 15 janvier"
    },
    "news": {
        "date_posted": {
            "en": "2019-01-03",
            "fr": "2019-01-03"
        },
        "to": {
            "en": "All staff",
            "fr": "Tous les employ\u00e9s"
        },
        "by": {
            "en": "Canada School of Public Service",
            "fr": "\u00c9cole de la fonction publique du Canada"
        }
    }
}