{
    "dcr_id": "1546964016618",
    "lang": "en",
    "title": {
        "en": "Reminder - Indigenous Reconciliation and Restoration in Canada - January 25",
        "fr": "Rappel - R\u00e9conciliation et restauration pour les peuples autochtones au Canada - 25 janvier"
    },
    "modified": "2019-01-23 00:00:00.0",
    "issued": "2019-01-09 00:00:00.0",
    "type_name": "intra-intra/news-nouv",
    "node_id": "1279030006975",
    "layout_name": null,
    "dc_date_created": "2019-01-08",
    "breadcrumb_label": "",
    "meta": {
        "issued": {
            "en": "2019-01-09",
            "fr": "2019-01-09"
        },
        "modified": {
            "en": "2019-01-23",
            "fr": "2019-01-16"
        },
        "format": {
            "en": "gcformat",
            "fr": "gcformat"
        },
        "title": {
            "en": "Reminder - Indigenous Reconciliation and Restoration in Canada - January 25",
            "fr": "Rappel - R\u00e9conciliation et restauration pour les peuples autochtones au Canada - 25 janvier"
        },
        "subject": {
            "en": "communications",
            "fr": "communications"
        },
        "description": {
            "en": "We invite you to join us for a discussion with Taiaiake (Gerald) Alfred, one of Canada's foremost experts on Indigenous issues ranging from assimilation to the environmental destruction of Indigenous lands.",
            "fr": "Nous vous invitons \u00e0 vous joindre \u00e0 une discussion avec Taiaiake (Gerald) Alfred, l'un des grands sp\u00e9cialistes des questions autochtones, dont l'assimilation \u00e0 la destruction environnementale des terres autochtones."
        },
        "language": {
            "en": "eng",
            "fr": "fra"
        },
        "audience": {
            "en": "gcaudience",
            "fr": "gcaudience"
        },
        "creator": {
            "en": "Agriculture and Agri-Food Canada",
            "fr": "Agriculture et Agroalimentaire Canada"
        },
        "spatial": {
            "en": "gcregions",
            "fr": "gcregions"
        },
        "service": {
            "en": "AAFC_AgriSource",
            "fr": "AAC_AgriSource"
        },
        "accessRights": {
            "en": "3",
            "fr": "3"
        }
    },
    "body": {
        "en": "<br>\n<br>\n<p><img src=\"https://intranet.agr.gc.ca/resources/prod/news/images/TaiaiakeGeraldAlfred1.png\" class=\"pull-left mrgn-rght-md\" alt=\"Taiaiake (Gerald) Alfred\">We invite you to join us for a discussion with Taiaiake (Gerald) Alfred, one of Canada\u2019s foremost experts on Indigenous issues ranging from assimilation to the environmental destruction of Indigenous lands. He is a Professor of Indigenous Governance in the Department of Political Science at the University of Victoria, where he specializes in studies of traditional governance, the restoration of land-based traditional practices, and decolonization strategies.</p>\n<p>Taiaiake Alfred is also an advisor to many First Nations as well as government organizations. He has been awarded a Canada Research Chair, a National Aboriginal Achievement Award in the field of education, and the Native American Journalists Association award for best column writing.</p>\n<p>Join us to discuss the relationship between First Nations and agriculture, including ways in which the department can engage with First Nations to support cultural resurgence, food security and economic development in the future.</p>\n<h2>Event information</h2>\n<p><strong>Date: </strong>Friday, January 25<br><strong>\nTime:</strong> 1:30\u00a0to 3:00 p.m. (ET)<br>\n<strong>Location: </strong>NHCAP (T3-1-351)<br><strong>Videoconference: </strong>611133685</p>\n\n\t\t",
        "fr": "<br>\n<br>\n<p><img src=\"https://intranet.agr.gc.ca/resources/prod/news/images/TaiaiakeGeraldAlfred1.png\" class=\"pull-left mrgn-rght-md\" alt=\"Taiaiake (Gerald) Alfred\">Nous vous invitons \u00e0 vous joindre \u00e0 une discussion avec Taiaiake (Gerald) Alfred, l\u2019un des grands sp\u00e9cialistes des questions autochtones, dont l\u2019assimilation et la destruction environnementale des terres autochtones. Professeur de gouvernance autochtone au d\u00e9partement des sciences politiques de l\u2019Universit\u00e9 de Victoria, Taiaiake Alfred se sp\u00e9cialise dans les \u00e9tudes sur la gouvernance traditionnelle, la restauration des pratiques traditionnelles ax\u00e9es sur la terre et les strat\u00e9gies de d\u00e9colonisation.</p>\n<p>Taiaiake Alfred est aussi conseiller aupr\u00e8s de nombreuses Premi\u00e8res Nations et organisations gouvernementales. Il est titulaire d\u2019une chaire de recherche du Canada, et a re\u00e7u un Prix national d\u2019excellence d\u00e9cern\u00e9 aux Autochtones dans le domaine de l\u2019enseignement, ainsi que le prix de la meilleure chronique d\u00e9cern\u00e9 par la Native American Journalists Association.</p>\n<p>Venez examiner avec nous la relation entre les Premi\u00e8res Nations et l\u2019agriculture, notamment les fa\u00e7ons dont le Minist\u00e8re peut collaborer avec les Premi\u00e8res Nations pour appuyer la renaissance culturelle, la s\u00e9curit\u00e9 alimentaire et le d\u00e9veloppement \u00e9conomique dans l\u2019avenir.</p>\n<h2><strong>Renseignements sur l\u2019\u00e9v\u00e9nement</strong></h2>\n<p><strong>Date : </strong>vendredi 25 janvier<br><strong>\nHeure :</strong> 13 h 30 \u00e0 15 h (HE)<br>\n<strong>Lieu : </strong>CACPA (T3-1-351)<br><strong>Vid\u00e9oconf\u00e9rence : </strong>611133685</p>\n\t\t"
    },
    "breadcrumb": {
        "en": "Reminder - Indigenous Reconciliation and Restoration in Canada - January 25",
        "fr": "Rappel - R\u00e9conciliation et restauration pour les peuples autochtones au Canada - 25 janvier"
    },
    "news": {
        "date_posted": {
            "en": "2019-01-09",
            "fr": "2019-01-09"
        },
        "to": {
            "en": "All staff",
            "fr": "Tous les employ\u00e9s"
        },
        "by": {
            "en": "Medium Term Planning, Strategic Policy Branch and the Indigenous Support and Awareness Office",
            "fr": "Planification \u00e0 moyen terme, Direction g\u00e9n\u00e9rale des politiques strat\u00e9giques et Bureau d'aide et de sensibilisation aux Autochtones"
        }
    }
}