{
    "dcr_id": "1547040224788",
    "lang": "en",
    "title": {
        "en": "2019 Federal Rate Changes for Benefit Plans",
        "fr": "Modification aux taux de cotisation f\u00e9d\u00e9raux de 2019 pour les r\u00e9gimes d'avantages sociaux"
    },
    "modified": "2019-01-10 00:00:00.0",
    "issued": "2019-01-10 00:00:00.0",
    "type_name": "intra-intra/news-nouv",
    "node_id": "1279030006975",
    "layout_name": null,
    "dc_date_created": "2019-01-09",
    "breadcrumb_label": "",
    "meta": {
        "issued": {
            "en": "2019-01-10",
            "fr": "2019-01-10"
        },
        "modified": {
            "en": "2019-01-10",
            "fr": "2019-01-10"
        },
        "format": {
            "en": "gcformat",
            "fr": "gcformat"
        },
        "title": {
            "en": "2019 Federal Rate Changes for Benefit Plans",
            "fr": "Modification aux taux de cotisation f\u00e9d\u00e9raux de 2019 pour les r\u00e9gimes d'avantages sociaux"
        },
        "subject": {
            "en": "communications",
            "fr": "communications"
        },
        "description": {
            "en": "Public Services and Procurement Canada would like to inform you of the changes to the contribution rate for federal government benefit plans, which took effect in the Phoenix pay system on January 1, 2019.",
            "fr": "Services publics et Approvisionnement Canada souhaite vous aviser des modifications apport\u00e9es aux taux de cotisation pour les r\u00e9gimes d'avantages sociaux du gouvernement f\u00e9d\u00e9ral."
        },
        "language": {
            "en": "eng",
            "fr": "fra"
        },
        "audience": {
            "en": "gcaudience",
            "fr": "gcaudience"
        },
        "creator": {
            "en": "Agriculture and Agri-Food Canada",
            "fr": "Agriculture et Agroalimentaire Canada"
        },
        "spatial": {
            "en": "gcregions",
            "fr": "gcregions"
        },
        "service": {
            "en": "AAFC_AgriSource",
            "fr": "AAC_AgriSource"
        },
        "accessRights": {
            "en": "3",
            "fr": "3"
        }
    },
    "body": {
        "en": "<br>\n<br>\n<p>Public Services and Procurement Canada (<abbr title=\"Public Services and Procurement Canada\">PSPC</abbr>) would like to inform you of the changes to the contribution rate for federal government benefit plans, which took effect in the Phoenix pay system on January 1, 2019. Employees contributing to the benefit plans may notice a new deduction amount appear on their January 9, 2019 pay.</p>\n<p><abbr title=\"Public Services and Procurement Canada\">PSPC</abbr> has created a <a rel=\"external\" href=\"http://www.gcpedia.gc.ca/gcwiki/images/1/10/Federal_Rate_Changes_for_Benefit_plans_2019.pdf\">2019 Federal rate changes for benefit plans job aid</a> which provides information on the revised contribution rates for the following:</p>\n<ul>\n<li>The Public Service Dental Care Plan (<abbr title=\"Public Service Dental Care Plan\">PSDCP</abbr>)</li>\n<li>The Pensioners\u2019 Dental Services Plan (<abbr title=\"Pensioners\u2019 Dental Services Plan\">PDSP</abbr>)</li>\n<li>Public Service Management Insurance Plan (<abbr title=\"Public Service Management Insurance Plan\">PSMIP</abbr>)</li>\n<li>Disability Insurance (<abbr title=\"Disability Insurance\">DI</abbr>)</li>\n<li>Long-Term Disability Insurance (<abbr title=\"Long Term Disability Insurance\">LTD</abbr>)</li>\n<li>Members of the Canadian Forces and RCMP</li>\n<li>Judges Medicare</li>\n</ul>\n\n\t\t",
        "fr": "<br>\n<br>\n<p>Services publics et Approvisionnement Canada (<abbr title=\"Services publics et Approvisionnement Canada \">SPAC</abbr>) souhaite vous aviser des modifications apport\u00e9es aux taux de cotisation pour les r\u00e9gimes d\u2019avantages sociaux du gouvernement f\u00e9d\u00e9ral. Ces modifications sont entr\u00e9es en vigueur dans le syst\u00e8me de paye Ph\u00e9nix le 1<sup>er</sup> janvier 2019. Les employ\u00e9s qui cotisent aux r\u00e9gimes d\u2019avantages sociaux pourraient remarquer qu\u2019un nouveau montant de retenue appara\u00eet sur leur paye du 9 janvier 2019.</p>\n<p><abbr title=\"Services publics et Approvisionnement Canada \">SPAC</abbr> a cr\u00e9\u00e9 un outil de travail intitul\u00e9 <a rel=\"external\" href=\"http://www.gcpedia.gc.ca/gcwiki/images/7/7a/FR-Federal_Rate_Changes_for_Benefit_plans_2019.pdf\">Modification aux taux de cotisation f\u00e9d\u00e9raux de 2019 pour les r\u00e9gimes d\u2019avantages sociaux</a>, lequel fournit des renseignements sur les taux de cotisation r\u00e9vis\u00e9s pour les r\u00e9gimes suivants :</p>\n<ul>\n<li>R\u00e9gime de soins dentaires de la fonction publique (<abbr title=\"R\u00e9gime de soins dentaires de la fonction publique\">RSDFP</abbr>)</li>\n<li>R\u00e9gime de services dentaires pour les pensionn\u00e9s (<abbr title=\"R\u00e9gime de services dentaires pour les pensionn\u00e9s\">RSDP</abbr>)</li>\n<li>R\u00e9gime d\u2019assurance pour les cadres de gestion de la fonction publique (<abbr title=\"R\u00e9gime d\u2019assurance pour les cadres de gestion de la fonction publique\">RACGFP</abbr>)</li>\n<li>Assurance-invalidit\u00e9 (<abbr title=\"Assurance-invalidit\u00e9 \">AI</abbr>)</li>\n<li>Assurance-invalidit\u00e9 de longue dur\u00e9e (<abbr title=\"Assurance-invalidit\u00e9 de longue dur\u00e9e\">AILD</abbr>)</li>\n<li>Membres des Forces canadiennes et de la GRC</li>\n<li>Soins m\u00e9dicaux des juges</li>\n</ul>\n\t\t"
    },
    "breadcrumb": {
        "en": "2019 Federal Rate Changes for Benefit Plans",
        "fr": "Modification aux taux de cotisation f\u00e9d\u00e9raux de 2019 pour les r\u00e9gimes d'avantages sociaux"
    },
    "news": {
        "date_posted": {
            "en": "2019-01-10",
            "fr": "2019-01-10"
        },
        "to": {
            "en": "All staff",
            "fr": "Tous les employ\u00e9s"
        },
        "by": {
            "en": "Public Services and Procurement Canada",
            "fr": "Services publics et Approvisionnement Canada"
        }
    }
}