{
    "dcr_id": "1547647542891",
    "lang": "en",
    "title": {
        "en": "Draft Legislative Proposals: Overpayments ",
        "fr": "Dispositions l\u00e9gislatives propos\u00e9es : Trop pay\u00e9s"
    },
    "modified": "2019-01-17 00:00:00.0",
    "issued": "2019-01-17 00:00:00.0",
    "type_name": "intra-intra/news-nouv",
    "node_id": "1279030006975",
    "layout_name": null,
    "dc_date_created": "2019-01-16",
    "breadcrumb_label": "",
    "meta": {
        "issued": {
            "en": "2019-01-17",
            "fr": "2019-01-17"
        },
        "modified": {
            "en": "2019-01-17",
            "fr": "2019-01-17"
        },
        "format": {
            "en": "gcformat",
            "fr": "gcformat"
        },
        "title": {
            "en": "Draft Legislative Proposals: Overpayments ",
            "fr": "Dispositions l\u00e9gislatives propos\u00e9es : Trop pay\u00e9s"
        },
        "subject": {
            "en": "communications",
            "fr": "communications"
        },
        "description": {
            "en": "Finance Canada has launched consultations for changes to tax legislation on January 15, 2019.",
            "fr": "Le minist\u00e8re des Finances Canada a lanc\u00e9 des consultations le 15 janvier 2019 en vue d'apporter des modifications l\u00e9gislatives."
        },
        "language": {
            "en": "eng",
            "fr": "fra"
        },
        "audience": {
            "en": "gcaudience",
            "fr": "gcaudience"
        },
        "creator": {
            "en": "Agriculture and Agri-Food Canada",
            "fr": "Agriculture et Agroalimentaire Canada"
        },
        "spatial": {
            "en": "gcregions",
            "fr": "gcregions"
        },
        "service": {
            "en": "AAFC_AgriSource",
            "fr": "AAC_AgriSource"
        },
        "accessRights": {
            "en": "3",
            "fr": "3"
        }
    },
    "body": {
        "en": "<br>\n<br>\n<p>Finance Canada has launched consultations for changes to tax legislation on January 15, 2019.</p>\n<p>Under the current legislation, any employee who incurs an overpayment that occurred in a previous year is required to repay the gross amount to their employer and recover excess withholdings from the Canada Revenue Agency.</p>\n<p>The draft legislative proposals would allow an employee to repay to their employer only the net amount of the overpayment received in a previous year, rather than the gross amount (including taxes, the Canada Pension Plan (<abbr title=\"Canada Pension Plan\">CPP</abbr>) and Employment Insurance (<abbr title=\"Employment Insurance \">EI</abbr>)). </p>\n<p>Public Services and Procurement Canada is currently assessing implications for the Phoenix pay system as a result of the proposed legislation. We will keep you updated on any changes to the processing of overpayments as a result of new legislation. Until then, we continue to provide employees with flexibility to minimize financial impacts and hardship. Specifically, the repayment of overpayment amounts will not begin until all of the employees\u2019 outstanding pay transactions have been completed; the employee has received three consecutive accurate pays; and the employee has indicated their preferred repayment option.</p>\n<p>We are continuing our efforts to stabilize the pay system, resolve pay issues and support employees.</p>\n<p>For questions on the proposed\u00a0changes to the legislation, please contact\u00a0<a rel=\"external\" href=\"https://www.fin.gc.ca/fin-eng.asp\">Finance Canada</a>. For additional information or questions about overpayments, employees are encouraged to first speak with their manager and consult the <a href=\"https://www.tpsgc-pwgsc.gc.ca/remuneration-compensation/services-paye-pay-services/ressources-phoenix-resources/trop-paye-systeme-overpayment-system-eng.html\">Overpayments and the pay system</a> web page, or contact the <a href=\"https://www.tpsgc-pwgsc.gc.ca/remuneration-compensation/services-paye-pay-services/paye-centre-pay/cn-cu-eng.html\">Client Contact Centre</a>.</p>\n\n\t\t",
        "fr": "<br>\n<br>\n<p>Le minist\u00e8re des Finances Canada a lanc\u00e9 des consultations le 15 janvier 2019 en vue d\u2019apporter des modifications l\u00e9gislatives.</p>\n<p>\nSelon les dispositions l\u00e9gislatives actuelles, un employ\u00e9 qui re\u00e7oit un trop-pay\u00e9 pour une ann\u00e9e ant\u00e9rieure est tenu de rembourser le montant brut \u00e0 son employeur et de r\u00e9cup\u00e9rer toute retenue d\u2019imp\u00f4t exc\u00e9dentaire aupr\u00e8s de l\u2019Agence du revenu du Canada.</p>\n<p>Les dispositions l\u00e9gislatives propos\u00e9es permettraient \u00e0 un employ\u00e9 de rembourser \u00e0 son employeur seulement le montant net du paiement en trop re\u00e7u au cours d\u2019une ann\u00e9e ant\u00e9rieure, plut\u00f4t que le montant brut (y compris les retenues applicables \u00e0 l\u2019imp\u00f4t, au R\u00e9gime de pensions du Canada (<abbr title=\"R\u00e9gime de pensions du Canada\">RPC</abbr>) et \u00e0 l\u2019assurance-emploi (<abbr title=\"assurance-emploi\">AE</abbr>)).</p>\n<p>\nServices publics et Approvisionnement Canada \u00e9value actuellement les r\u00e9percussions des modifications l\u00e9gislatives propos\u00e9es sur le syst\u00e8me de paye Ph\u00e9nix. Nous vous tiendrons au courant de tout changement qui pourrait \u00eatre apport\u00e9 au traitement des trop-pay\u00e9s \u00e0 la suite des nouvelles dispositions l\u00e9gislatives. Nous continuons d\u2019offrir aux employ\u00e9s des plans souples de remboursement des trop-pay\u00e9s pour minimiser les difficult\u00e9s financi\u00e8res. Plus pr\u00e9cis\u00e9ment, le remboursement des montants pay\u00e9s en trop ne commencera pas avant que tous les mouvements de paye en suspens de l\u2019employ\u00e9 aient \u00e9t\u00e9 trait\u00e9s, que l\u2019employ\u00e9 ait re\u00e7u trois paiements exacts cons\u00e9cutifs et qu\u2019il ait indiqu\u00e9 son option de remboursement pr\u00e9f\u00e9r\u00e9e.</p>\n<p>Nous poursuivons nos efforts pour stabiliser le syst\u00e8me de paye, r\u00e9soudre les probl\u00e8mes de paye et soutenir les employ\u00e9s.</p>\n<p>\nPour toute question sur les modifications l\u00e9gislatives propos\u00e9es, veuillez communiquer avec le <a rel=\"external\" href=\"https://www.fin.gc.ca/fin-fra.asp\">minist\u00e8re des Finances Canada</a>.Les employ\u00e9s qui veulent obtenir d\u2019autres pr\u00e9cisions ou qui ont des questions concernant les trop-pay\u00e9s sont invit\u00e9s \u00e0 s\u2019adresser d\u2019abord \u00e0 leur gestionnaire et \u00e0 consulter la page Web <a rel=\"external\" href=\"https://www.tpsgc-pwgsc.gc.ca/remuneration-compensation/services-paye-pay-services/ressources-phoenix-resources/trop-paye-systeme-overpayment-system-fra.html\">Les trop-pay\u00e9s et le syst\u00e8me de paye</a>, ou \u00e0 communiquer avec le <a rel=\"external\" href=\"https://www.tpsgc-pwgsc.gc.ca/remuneration-compensation/services-paye-pay-services/paye-centre-pay/cn-cu-fra.html\">Centre de contact avec la client\u00e8le</a>.</p>\n\t\t"
    },
    "breadcrumb": {
        "en": "Draft Legislative Proposals: Overpayments",
        "fr": "Dispositions l\u00e9gislatives propos\u00e9es : Trop pay\u00e9s"
    },
    "news": {
        "date_posted": {
            "en": "2019-01-17",
            "fr": "2019-01-17"
        },
        "to": {
            "en": "All staff",
            "fr": "Tous les employ\u00e9s"
        },
        "by": {
            "en": "Public Services and Procurement Canada",
            "fr": "Services publics et Approvisionnement Canada"
        }
    }
}