{
    "dcr_id": "1547223820438",
    "lang": "en",
    "title": {
        "en": "Policy Analyst ",
        "fr": "Analyste en politiques"
    },
    "modified": "2019-01-15 00:00:00.0",
    "issued": "2019-01-15 00:00:00.0",
    "type_name": "intra-intra/empl-empl",
    "node_id": "1279029955397",
    "layout_name": null,
    "dc_date_created": "2019-01-11",
    "breadcrumb_label": "",
    "meta": {
        "issued": {
            "en": "2019-01-15",
            "fr": "2019-01-15"
        },
        "modified": {
            "en": "2019-01-15",
            "fr": "2019-01-15"
        },
        "format": {
            "en": "gcformat",
            "fr": "gcformat"
        },
        "title": {
            "en": "Policy Analyst ",
            "fr": "Analyste en politiques"
        },
        "subject": {
            "en": "staffing",
            "fr": "dotation en personnel"
        },
        "language": {
            "en": "eng",
            "fr": "fra"
        },
        "audience": {
            "en": "gcaudience",
            "fr": "gcaudience"
        },
        "type": {
            "en": "notice",
            "fr": "avis"
        },
        "creator": {
            "en": "Agriculture and Agri-Food Canada",
            "fr": "Agriculture et Agroalimentaire Canada"
        },
        "spatial": {
            "en": "gcregions",
            "fr": "gcregions"
        },
        "service": {
            "en": "AAFC_AgriSource",
            "fr": "AAC_AgriSource"
        },
        "accessRights": {
            "en": "3",
            "fr": "3"
        }
    },
    "body": {
        "en": "\n<p><strong>\u00a0</strong></p>\n<p>The successful candidate will have strong analytical skills, experience in writing strategic documents and the ability to work effectively in multi-disciplinary teams. He/she will join a dynamic and motivated team and provide meaningful information to senior management, Canadians and Parliament. Specific tasks include researching and writing about key achievements of Innovation programs and projects, and leading the directorate\u2019s contribution to the departmental plan, the departmental report and government-wide reporting exercises. He/she will also be responsible for the directorate\u2019s contribution to briefing materials for senior management.</p>\n<p>This position offers opportunities to gain experience in briefing senior management, interacting with industry stakeholders, writing reports, working on horizontal reporting exercises, and getting practical experience in performance measurement, a key government priority area.</p>\n<p><strong><br>Essential Qualifications</strong></p>\n<p>Experience in writing reports</p>\n<p>Experience developing briefing products such as, but not limited to briefing notes, PowerPoint presentations, policy papers etc.</p>\n<p>Experience in providing strategic advice and recommendations to senior management</p>\n<p>\u00a0</p>\n<p><b>Language Requirement(s)</b></p>\n<p>English Essential</p>\n<p><strong><br>Competencies</strong></p>\n<p>Analytical thinking</p>\n<p>Teamwork</p>\n<p>Strategic Thinking</p>\n<p>Writing</p>\n<p>Interactive Communication</p>\n<p><strong><br>Asset Criteria</strong></p>\n<p>Experience in data analysis or performance measurement would be an asset.</p>\n<p>Experience working in program delivery.<br>\n<br>\n<strong><br>Organizational Needs</strong></p>\n<p>In support of achieving a diversified workforce, consideration may be given to candidates self-identifying as belonging to one of the following Employment Equity groups: Aboriginal peoples, Persons with a Disability, Visible Minorities, and Women.<br>\n<br>\n<strong><br>Conditions of Employment</strong></p>\n<p>Security Requirement(s): Reliability</p>\n<p><br>\n<strong>Applications</strong><br>\nResumes must clearly identify:</p>\n<ul>\n<li>Your tenure (e.g. term or indeterminate)</li>\n<li>Your substantive group and level</li>\n</ul>\n<p><strong><br>Notes: </strong></p>\n<ul>\n<li>Candidates must have their manager\u2019s approval prior to applying for this opportunity.</li>\n<li>Communication for this process will be sent via email.</li>\n<li>Candidates may be assessed through an interview.</li>\n<li>Reference checks may be sought.</li>\n</ul>\n<p>\u00a0</p>\n<p>\u00a0</p>\n",
        "fr": "\n<p>\u00a0</p>\n<p>La direction des programmes d\u2019innovation est \u00e0 la recherche d\u2019une personne motiv\u00e9e pour prendre en charge les activit\u00e9s de r\u00e9daction entourant les r\u00e9sultats de ses programmes.</p>\n<p>Le candidat choisi aura de fortes habilet\u00e9s analytiques, de l\u2019exp\u00e9rience \u00e0 r\u00e9diger des documents strat\u00e9giques et une capacit\u00e9 \u00e0 travailler efficacement au sein d\u2019\u00e9quipes multidisciplinaires. Cette personne se joindra \u00e0 une \u00e9quipe dynamique et motiv\u00e9e et offrira \u00e0 la haute gestion, aux canadiens et au parlement de l\u2019information significative. Les responsabilit\u00e9s sp\u00e9cifiques incluent la recherche et la r\u00e9daction au sujet des r\u00e9sultats des programmes et des projets d\u2019innovation, et de prendre en charge la contribution de la direction au plan minist\u00e9riel, au rapport minist\u00e9riel et aux rapports pangouvernementaux. Il ou elle sera aussi responsable de la contribution de la direction aux mat\u00e9riels de breffage pour la haute gestion.</p>\n<p>Ce poste offre la possibilit\u00e9 d\u2019acqu\u00e9rir de l\u2019exp\u00e9rience \u00e0 breffer la haute gestion, \u00e0 interagir avec des partenaires de l\u2019industrie, \u00e0 r\u00e9diger des rapports, \u00e0 travailler sur des initiatives horizontales, et de l\u2019exp\u00e9rience pratique en mesure du rendement , une priorit\u00e9 cl\u00e9 gouvernementale.</p>\n<p><strong><br>Qualifications essentielles</strong></p>\n<p>Exp\u00e9rience \u00e0 r\u00e9diger des rapports.</p>\n<p>Exp\u00e9rience de la pr\u00e9paration de produits d\u2019information, comme des notes d\u2019information, des pr\u00e9sentations PowerPoint, des documents d\u2019analyse politique, etc.</p>\n<p>Exp\u00e9rience de la formulation de conseils et de recommandations strat\u00e9giques \u00e0 l\u2019intention de la haute direction.<strong> </strong></p>\n<p>\u00a0</p>\n<p><b>Exigences linguistiques</b></p>\n<p>Anglais essentiel</p>\n<p><strong><br>Comp\u00e9tences</strong></p>\n<p>R\u00e9flexion analytique<br>\nTravail d'\u00e9quipe<br>\nR\u00e9flexion strat\u00e9gique<br>\nR\u00e9daction<br>\nCommunication interactive<br>\nFacult\u00e9 d'adaptation</p>\n<p><strong><br>Qualifications constituant un atout</strong></p>\n<p>Exp\u00e9rience de l\u2019analyse de donn\u00e9es ou de la mesure du rendement.</p>\n<p>Exp\u00e9rience dans la prestation des programmes</p>\n<p><strong><br>Besoins de l'organisation </strong></p>\n<p>Pour diversifier l\u2019effectif, on pourra examiner la candidature des personnes qui s\u2019identifient comme appartenant \u00e0 des groupes vis\u00e9s par l\u2019\u00e9quit\u00e9 en mati\u00e8re d\u2019emploi, soit les autochtones, les personnes handicap\u00e9es, les membres des minorit\u00e9s visibles et les femmes.<br>\n<br>\n<strong><br>Conditions d'emploi </strong></p>\n<p>S\u00e9curit\u00e9: Cote de fiabilit\u00e9</p>\n<p><strong>Candidatures</strong></p>\n<p>Les curriculum vitae doivent nettement pr\u00e9ciser:</p>\n<ul>\n<li>\n<p>Votre type de poste (p. ex., \u00e0 dur\u00e9e d\u00e9termin\u00e9e ou ind\u00e9termin\u00e9e);</p>\n</li>\n<li>\n<p>La classification de votre poste d\u2019attache.</p>\n</li>\n</ul>\n<p><strong><br>Remarques</strong></p>\n<ul>\n<li>\n<p>Les candidats doivent recevoir l\u2019approbation de leur gestionnaire avant de postuler pour cette opportunit\u00e9.</p>\n</li>\n<li>\n<p>Les communications relatives au processus de s\u00e9lection se feront par courriel.</p>\n</li>\n<li>\n<p>Les candidats pourraient \u00eatre \u00e9valu\u00e9s au moyen d\u2019une entrevue.</p>\n</li>\n<li>\n<p>Une v\u00e9rification des r\u00e9f\u00e9rences pourrait \u00eatre faite.</p>\n</li>\n</ul>\n<p>\u00a0</p>\n<p><em>\u00a0</em></p>\n\n"
    },
    "breadcrumb": {
        "en": "Policy Analyst",
        "fr": "Analyste en politiques"
    },
    "empl": {
        "type": {
            "en": "Assignment",
            "fr": "Affectation"
        },
        "classification": {
            "en": "CO-2, EC-6 and equivalent",
            "fr": "CO-2, EC-6 et \u00e9quivalent"
        },
        "branch": {
            "en": "Programs Branch",
            "fr": "Direction g\u00e9n\u00e9rale des programmes"
        },
        "locations": {
            "en": "Ottawa, Ontario",
            "fr": "Ottawa, Ontario"
        },
        "date_closing": {
            "en": "2019-01-25",
            "fr": "2019-01-25"
        },
        "open_to": {
            "en": "All AAFC Employees in the NCR",
            "fr": "Tous les employ\u00e9s d'AAC de la RCN"
        },
        "name": {
            "en": "Jos\u00e9e Boisvert",
            "fr": "Jos\u00e9e Boisvert"
        },
        "email": {
            "en": "josee.boisvert@canada.ca",
            "fr": "josee.boisvert@canada.ca"
        }
    }
}