{
    "dcr_id": "1548952325659",
    "lang": "en",
    "title": {
        "en": "Executive Assistant",
        "fr": "Adjoint(e) administratif"
    },
    "modified": "2019-01-31 00:00:00.0",
    "issued": "2019-01-31 00:00:00.0",
    "type_name": "intra-intra/empl-empl",
    "node_id": "1279029955397",
    "layout_name": null,
    "dc_date_created": "2019-01-31",
    "breadcrumb_label": "",
    "meta": {
        "issued": {
            "en": "2019-01-31",
            "fr": "2019-01-31"
        },
        "modified": {
            "en": "2019-01-31",
            "fr": "2019-01-31"
        },
        "format": {
            "en": "gcformat",
            "fr": "gcformat"
        },
        "title": {
            "en": "Executive Assistant",
            "fr": "Adjoint(e) administratif"
        },
        "subject": {
            "en": "staffing",
            "fr": "dotation en personnel"
        },
        "language": {
            "en": "eng",
            "fr": "fra"
        },
        "audience": {
            "en": "gcaudience",
            "fr": "gcaudience"
        },
        "type": {
            "en": "notice",
            "fr": "avis"
        },
        "creator": {
            "en": "Agriculture and Agri-Food Canada",
            "fr": "Agriculture et Agroalimentaire Canada"
        },
        "spatial": {
            "en": "gcregions",
            "fr": "gcregions"
        },
        "service": {
            "en": "AAFC_AgriSource",
            "fr": "AAC_AgriSource"
        },
        "accessRights": {
            "en": "3",
            "fr": "3"
        }
    },
    "body": {
        "en": "\n<p><strong>\u00a0</strong></p>\n<p><strong>Duties:</strong></p>\n<p>Supports the Director General of Partnerships and Planning Directorate. The duties include, but not limited to, managing the day-to-day agenda for a Director General (DG); organizes and provides administrative support for meetings (responsible for the logistics, documents, conference calls and hospitality); initiates follow-up action on files with subordinate managers; distributes information on behalf of the DG; liaises with senior management offices, other branches or managers of the department to request and/or provide information on behalf of the DG; and makes travel arrangements, confirms travel arrangements meet requirements of various agendas and schedules.</p>\n<p><strong><br>Essential Qualifications</strong></p>\n<p><strong><br>Language Profile</strong></p>\n<p>Bilingual - Imperative (BBB/BBB)</p>\n<p><strong><br>Education</strong></p>\n<p>Secondary school diploma or an acceptable combination of education, training and/or experience relevant to the position to be staffed.</p>\n<p><strong><br>Experience</strong></p>\n<p>Recent* experience working in a senior executive office (Director or Director General\u2019s office).<br>\n<br>\nExperience coordinating the collection of and dissemination of briefing materials and liaising with offices of senior officials and internal or external clients.<br>\n<br>\nExperience managing or organizing the daily agenda for management such as meetings, conferences, travel and training.<br>\n<br>\nExperience in the preparation and management of correspondence and information: composing, editing, formatting, controlling, tracking, filing correspondence and briefing notes, emails, compilation of information or project data into an electronic information system.<br>\n<br>\nRecent* experience in coordinating domestic and international travel arrangements.<br>\n<br>\nExperience in the provision of financial, travel and hospitality services.<br>\n<br>\nExperience using common word processing, spreadsheet and e-mail software (i.e. Word, Excel, Outlook).</p>\n<p>*Recent means the experience was gained no more than two years in the past.</p>\n<p><br>\n<strong>Competencies</strong></p>\n<p>Initiative</p>\n<p>\nDependability</p>\n<p>\nAdaptability</p>\n<p>\nTeamwork</p>\n<p>\nWriting skills</p>\n<p>\nInteractive Communication</p>\n<p>\nDiscretion</p>\n<p>\u00a0<br><strong>Asset Qualifications</strong></p>\n<p>Experience in providing functional guidance (training) and supervising staff.</p>\n<p>Experience using departmental correspondence tracking system such as TRECS (CCM Mercury), Agridoc or other similar electronic document management systems.</p>\n<p>Knowledge of federal government policies on handling and working with sensitive and confidential information.</p>\n<p>Ability to maintain a constant level of superior service in a demanding and high-pressure environment, respecting deadlines and setting priorities.</p>\n<p>\u00a0</p>\n<p><strong>Organizational Needs</strong></p>\n<p>In support of achieving a diversified workforce, consideration may be given to candidates self-identifying as belonging to one of the following Employment Equity groups: Aboriginal peoples, Persons with a Disability, Visible Minorities, and Women</p>\n<p>\u00a0</p>\n<p><strong>Conditions of employment</strong></p>\n<p>Secret security clearance</p>\n<p>Ability and willingness to work overtime, as required, at times on short notice.</p>\n<p>\u00a0</p>\n<p><strong>APPLICATIONS</strong></p>\n<p>AAFC staff at the AS-1, AS-2 or AS-3 level or equivalent who are interested in a one year\u00a0assignment or acting opportunity with the Director General\u2019s Office, Partnerships and Planning Directorate should provide a copy of their resume and cover letter (maximum 250 words) to Kathryn Jarrett (kathryn.jarrett@canada.ca) by February 15, 2019.</p>\n<p>Resumes must clearly identify:</p>\n<ul>\n<li>Your tenure (e.g. term or indeterminate)</li>\n<li>Your substantive group and level</li>\n<li>Your language profile</li>\n<li>Your security level</li>\n</ul>\n<p><br>\n<strong>Notes: </strong></p>\n<ul>\n<li>Candidates must have their manager\u2019s approval prior to applying for this opportunity.</li>\n<li>Communication for this process will be sent via email.</li>\n<li>Candidates may be assessed through an interview.</li>\n<li>Reference checks may be sought.</li>\n</ul>\n<p>\u00a0</p>\n<ul>\n</ul>\n",
        "fr": "\n<p><strong>\u00a0</strong></p>\n<p><strong>Fonctions</strong></p>\n<p>Soutien au bureau de la Directrice g\u00e9n\u00e9rale de la Direction des partenariats et de la planification. Les fonctions comprennent les t\u00e2ches suivantes, sans s\u2019y limiter : g\u00e9rer l\u2019agenda de la Directrice g\u00e9n\u00e9ral (DG) ; organiser et assurer les t\u00e2ches administratives lors de r\u00e9unions (responsable de la logistique, des documents, des t\u00e9l\u00e9conf\u00e9rences et des demandes d\u2019accueil) ; assurer le suivi des dossiers avec les directeurs et directrices; distribuer de l\u2019information de la part du Directeur g\u00e9n\u00e9ral ; assurer la liaison avec les bureaux de la haute direction, d\u2019autres directions g\u00e9n\u00e9rales ou avec les gestionnaires pour demander ou fournir de l\u2019information de la part du Directeur g\u00e9n\u00e9ral ; et faire des arrangements de voyage, confirmer les arrangements de voyage et s\u2019assurer qu\u2019ils rencontrent les besoins de divers agendas et horaires.</p>\n<p><br>\n<strong>Qualifications essentielles</strong></p>\n<p><strong><br>Langue </strong></p>\n<p>Poste bilingue, niveau BBB/BBB imp\u00e9ratif \u00e0 la nomination.</p>\n<p><br>\n<strong>\u00c9tudes</strong></p>\n<p>Dipl\u00f4me d\u2019\u00e9tudes secondaires ou combinaison acceptable d\u2019\u00e9tudes, de formation et/ou d\u2019exp\u00e9rience li\u00e9e aux fonctions du poste \u00e0 pourvoir.</p>\n<p><br>\n<strong>Exp\u00e9rience</strong></p>\n<p>Exp\u00e9rience r\u00e9cente* de travail dans un bureau de cadre sup\u00e9rieur (Directeur ou bureau du Directeur g\u00e9n\u00e9ral).<br>\n<br>\nExp\u00e9rience de la coordination de la collecte et de la diffusion de notes d\u2019information et de l\u2019\u00e9tablissement de liaisons avec les bureaux des cadres sup\u00e9rieurs et des clients internes ou externes.<br>\n<br>\nExp\u00e9rience de la gestion ou de l'organisation de l'horaire quotidien de la direction tel que r\u00e9unions, conf\u00e9rences, d\u00e9placements et formation.<br>\n<br>\nExp\u00e9rience dans la pr\u00e9paration et la gestion de la correspondance et de l\u2019information : composition, r\u00e9vision, formatage, contr\u00f4le, suivi et classement de la correspondance et des notes de synth\u00e8se, des courriels, des compilations d\u2019informations ou des donn\u00e9es de projets aux fins d\u2019enregistrement dans un syst\u00e8me d'information \u00e9lectronique.<br>\n<br>\nExp\u00e9rience r\u00e9cente* de la coordination des voyages domestiques et internationaux.<br>\n<br>\nExp\u00e9rience de la prestation de services relatifs aux finances, aux voyages et \u00e0 l'accueil.<br>\n<br>\nExp\u00e9rience de l'utilisation des logiciels courants de traitement de texte, de tableur et de courrier \u00e9lectronique (c. \u00e0. d. Word, Excel, Outlook).</p>\n<p>*Exp\u00e9rience r\u00e9cente s\u2019entend d\u2019une exp\u00e9rience acquise au cours des deux derni\u00e8res ann\u00e9es.</p>\n<p><br>\n<strong>Comp\u00e9tence</strong></p>\n<p>Initiative<br>\n<br>Fiabilit\u00e9<br>\n<br>Facult\u00e9 d\u2019adaptation<br>\n<br>Travail d\u2019\u00e9quipe<br>\n<br>Aptitudes \u00e0 \u00e9crire<br>\n<br>Communication interactive<br>\n<br>Discr\u00e9tion</p>\n<p><br>\n<strong>QUALIFICATIONS CONSTITUANT UN ATOUT </strong></p>\n<p>Exp\u00e9rience des conseils fonctionnels (formation), et de la supervision d\u2019employ\u00e9s.</p>\n<p>Exp\u00e9rience de l'utilisation d'un syst\u00e8me de suivi de la correspondance minist\u00e9rielle comme le Syst\u00e8me de suivi et de rapports pour la correspondance de la haute direction (SSRCHD-CCM Mercury), Agridoc ou d\u2019autres types de syst\u00e8me \u00e9lectronique de gestion des documents.<br>\n<br>\nConnaissance des directives, quant aux pratiques et processus administratifs du gouvernement dans le traitement des documents prot\u00e9g\u00e9s et confidentiels.</p>\n<p>Capacit\u00e9 de porter attention aux d\u00e9tails, de r\u00e9viser des documents et de d\u00e9celer les fautes d\u2019orthographe et de grammaire.</p>\n<p>\u00a0</p>\n<p><strong>Besoins organisationnels</strong></p>\n<p>Pour les besoins de la diversification de l\u2019effectif, la pr\u00e9f\u00e9rence pourrait \u00eatre accord\u00e9e aux candidats qui auront indiqu\u00e9 leur appartenance \u00e0 l\u2019un des groupes suivants, vis\u00e9s par l\u2019\u00e9quit\u00e9 en mati\u00e8re d\u2019emploi : Autochtones, personnes handicap\u00e9es, membres d\u2019une minorit\u00e9 visible, femmes.</p>\n<p>\u00a0</p>\n<p><strong>Conditions d\u2019emploi</strong></p>\n<p>Exigences en mati\u00e8re de s\u00e9curit\u00e9 : Secret</p>\n<p>Consentir et \u00eatre apte \u00e0 faire des heures suppl\u00e9mentaires occasionnellement \u00e0 court pr\u00e9avis selon les besoins.</p>\n<p>\u00a0</p>\n<p><strong>Demandes</strong></p>\n<p><br>\nLes employ\u00e9s d\u2019AAC de niveau AS-1, AS-2 ou AS-3 ou de niveau \u00e9quivalent int\u00e9ress\u00e9s par une occasion d\u2019affectation ou de nomination int\u00e9rimaire (pour un an)\u00a0pour le bureau du Directrice g\u00e9n\u00e9rale de la Direction des partenariats et de la planification doivent envoyer leur curriculum vitae et leur lettre de pr\u00e9sentation (maximum 250 mots) \u00e0 Kathryn Jarrett (kathryn.jarrett@canada.ca) avant le 15 f\u00e9vrier 2019.</p>\n<p>Dans leur curriculum vitae, les candidats doivent clairement indiquer :</p>\n<ul>\n<li>la dur\u00e9e de leur emploi (p. ex. d\u00e9termin\u00e9e ou ind\u00e9termin\u00e9e);</li>\n<li>leur groupe et niveau de titularisation;</li>\n<li>leur profil linguistique;</li>\n<li>leur cote de s\u00e9curit\u00e9.</li>\n</ul>\n<p><br>\n<strong>Remarques </strong></p>\n<ul>\n<li>Les candidats doivent obtenir l\u2019approbation de leur gestionnaire avant de pr\u00e9senter leur candidature pour ce poste.</li>\n<li>Les communications relatives \u00e0 ce processus se feront par courriel.</li>\n<li>Les candidats pourraient \u00eatre \u00e9valu\u00e9s au moyen d\u2019une entrevue.</li>\n<li>Une v\u00e9rification des r\u00e9f\u00e9rences pourrait \u00eatre effectu\u00e9e.</li>\n</ul>\n<p>\u00a0</p>\n\n"
    },
    "breadcrumb": {
        "en": "Executive Assistant",
        "fr": "Adjoint(e) administratif"
    },
    "empl": {
        "type": {
            "en": "Assignment, Acting",
            "fr": "Affectation, Int\u00e9rimaire"
        },
        "classification": {
            "en": "AS-3",
            "fr": "AS-3"
        },
        "branch": {
            "en": "Science and Technology Branch",
            "fr": "Direction g\u00e9n\u00e9rale des sciences et de la technologie"
        },
        "locations": {
            "en": "NCR, Ottawa",
            "fr": "RCN, Ottawa"
        },
        "date_closing": {
            "en": "2019-02-15",
            "fr": "2019-02-15"
        },
        "open_to": {
            "en": "All AAFC Employees in the NCR at the AS-1, AS-2 or AS-3 level or equivalent",
            "fr": "Tous les employ\u00e9s d\u2019AAC dans la RCN de niveau AS-1, AS-2 ou AS-3 ou de niveau \u00e9quivalent"
        },
        "name": {
            "en": "Kathryn Jarrett",
            "fr": "Kathryn Jarrett"
        },
        "email": {
            "en": "kathryn.jarrett@canada.ca",
            "fr": "kathryn.jarrett@canada.ca"
        }
    }
}