{
    "dcr_id": "1549995949035",
    "lang": "en",
    "title": {
        "en": "This Week in The Harvest - AAFC Scientists Achieve Great Canadian Honour",
        "fr": "Au menu de La Moisson cette semaine - Des scientifiques d'AAC acc\u00e8dent aux plus hautes distinctions canadiennes"
    },
    "modified": "2019-02-14 00:00:00.0",
    "issued": "2019-02-14 00:00:00.0",
    "type_name": "intra-intra/news-nouv",
    "node_id": "1279030006975",
    "layout_name": null,
    "dc_date_created": "2019-02-12",
    "breadcrumb_label": "",
    "meta": {
        "issued": {
            "en": "2019-02-14",
            "fr": "2019-02-14"
        },
        "modified": {
            "en": "2019-02-14",
            "fr": "2019-02-14"
        },
        "format": {
            "en": "gcformat",
            "fr": "gcformat"
        },
        "title": {
            "en": "This Week in The Harvest - AAFC Scientists Achieve Great Canadian Honour",
            "fr": "Au menu de La Moisson cette semaine - Des scientifiques d'AAC acc\u00e8dent aux plus hautes distinctions canadiennes"
        },
        "subject": {
            "en": "communications",
            "fr": "communications"
        },
        "description": {
            "en": "In case you missed it, here's what's new in The Harvest this week.",
            "fr": "Au cas o\u00f9 vous l'auriez manqu\u00e9, voici le menu que la section La Moisson vous offre cette semaine."
        },
        "language": {
            "en": "eng",
            "fr": "fra"
        },
        "audience": {
            "en": "gcaudience",
            "fr": "gcaudience"
        },
        "creator": {
            "en": "Agriculture and Agri-Food Canada",
            "fr": "Agriculture et Agroalimentaire Canada"
        },
        "spatial": {
            "en": "gcregions",
            "fr": "gcregions"
        },
        "service": {
            "en": "AAFC_AgriSource",
            "fr": "AAC_AgriSource"
        },
        "accessRights": {
            "en": "3",
            "fr": "3"
        }
    },
    "body": {
        "en": "<br>\n<br>\n<p>In case you missed it, here\u2019s what\u2019s new in <a href=\"https://collab.agr.gc.ca/apps/harvest-moisson\">The Harvest</a> this week:</p>\n<p><strong>Feature story:</strong> <a href=\"https://collab.agr.gc.ca/apps/harvest-moisson\">AAFC Scientists Achieve Great Canadian Honour</a> \u2013 As 2018 drew to a close, Her Excellency the Right Honourable Julie Payette, Governor General of Canada, announced 103 new appointments to the Order of Canada. Among them were AAFC scientists Dr. Raymond Desjardins and Dr. Vernon Burrows, both from the Ottawa Research and Development Centre.</p>\n<p><strong>Quiz: </strong><a href=\"https://collab.agr.gc.ca/apps/harvest-moisson\">February 5 marks the start of the Chinese New Year! 2019 is the year of the...?</a></p>\n<p><strong>Feature photo: </strong><a href=\"https://collab.agr.gc.ca/apps/harvest-moisson/gallery/Lists/Posts/Post.aspx?ID=270\">Serenity</a>, by C\u00e9lin Alexiuk, Programs Branch, Ottawa, Ontario.</p>\n<p><strong>Did you know?</strong> In February, we celebrate the contributions of Black farmers to agriculture. A number of Black Canadians lived on the prairies early in the 19th century. <a href=\"https://collab.agr.gc.ca/apps/harvest-moisson/Pages/didyouknow.aspx\">John Ware is one of the best known</a>; arriving in 1882 from Texas, he was among the first cowboys in Alberta and a respected member of the ranching community. He is credited with introducing longhorn cattle to Alberta.</p>\n<p>You can get involved by posting a comment or \u201cliking\u201d an article. You can also check out what your colleagues are liking and saying.</p>\n<p>Should you have story ideas, scenic or artistic agriculture-related photos, or interesting facts, please share them with us by clicking on \u201cContribute\u201d in the top menu bar.</p>\n<p>\n<img src=\"https://intranet.agr.gc.ca/resources/prod/news/images/HarvestOrderofCanada2019.png\" class=\"center-block\"></p>\n\n\t\t",
        "fr": "<br>\n<br>\n<p>Au cas o\u00f9 vous l\u2019auriez manqu\u00e9, voici le menu que la section <a href=\"https://collab.agr.gc.ca/apps/harvest-moisson\">La Moisson</a> vous offre cette semaine :</p>\n<p><strong>Article vedette :</strong> <a href=\"https://collab.agr.gc.ca/apps/harvest-moisson\">Des scientifiques d\u2019AAC acc\u00e8dent aux plus hautes distinctions canadiennes</a> \u2013 \u00c0 la fin de 2018, Son Excellence la tr\u00e8s honorable Julie Payette, gouverneure g\u00e9n\u00e9rale du Canada, a annonc\u00e9 103 nouvelles nominations au sein de l\u2019Ordre du Canada. Du nombre, mentionnons les scientifiques d\u2019AAC Raymond Desjardins (Ph.D.) et Vernon Burrows (Ph.D.), tous deux du Centre de recherche et de d\u00e9veloppement d\u2019Ottawa.</p>\n<p><strong>Jeu-questionnaire : </strong><a href=\"https://collab.agr.gc.ca/apps/harvest-moisson\">Le 5 f\u00e9vrier marquera le d\u00e9but du Nouvel an chinois! 2019 est l\u2019ann\u00e9e...?</a></p>\n<p><strong>Photo vedette :</strong> <a href=\"https://collab.agr.gc.ca/apps/harvest-moisson/gallery/Lists/Posts/Post.aspx?ID=270\"> S\u00e9r\u00e9nit\u00e9</a>, par C\u00e9lin Alexiuk, Direction g\u00e9n\u00e9rale des programmes, Ottawa (Ontario).</p>\n<p><strong>Le saviez-vous?</strong> En f\u00e9vrier, nous c\u00e9l\u00e9brons la contribution des agriculteurs noirs \u00e0 l\u2019agriculture. Au d\u00e9but du XIXe si\u00e8cle, bon nombre de Canadiens noirs habitaient les Prairies. <a href=\"https://collab.agr.gc.ca/apps/harvest-moisson/Pages/didyouknow.aspx\">John Ware compte parmi les plus connus d\u2019entre eux</a>. Apr\u00e8s son arriv\u00e9e du Texas en 1882, il devint l\u2019un des premiers cowboys de l\u2019Alberta et un membre respect\u00e9 de la communaut\u00e9 d\u2019\u00e9leveurs. On lui attribue l\u2019introduction du b\u00e9tail \u00e0 longues cornes dans cette province.</p>\n<p>Vous pouvez participer en affichant des commentaires ou en utilisant la fonction \u00ab J\u2019aime \u00bb ou \u00ab Partager \u00bb pour exprimer votre appr\u00e9ciation d\u2019un article. Vous pouvez aussi aller voir ce que vos coll\u00e8gues aiment et ont \u00e0 dire.</p>\n<p>Si vous avez des id\u00e9es d\u2019articles, des photos de paysages ou \u00e0 caract\u00e8re artistique li\u00e9es \u00e0 l\u2019agriculture ou encore des faits int\u00e9ressants, veuillez nous en faire part en cliquant sur \u00ab Collaborer \u00bb dans la barre de menu en haut de la page.</p>\n<p>\n<img src=\"https://intranet.agr.gc.ca/resources/prod/news/images/HarvestOrderofCanada2019.png\" class=\"center-block\"></p>\n\t\t"
    },
    "breadcrumb": {
        "en": "This Week in The Harvest - AAFC Scientists Achieve Great Canadian Honour",
        "fr": "Au menu de La Moisson cette semaine - Des scientifiques d'AAC acc\u00e8dent aux plus hautes..."
    },
    "news": {
        "date_posted": {
            "en": "2019-02-14",
            "fr": "2019-02-14"
        },
        "to": {
            "en": "All staff",
            "fr": "Tous les employ\u00e9s"
        },
        "by": {
            "en": "Corporate Communications, Public Affairs Branch",
            "fr": "Communications minist\u00e9rielles, Direction g\u00e9n\u00e9rale des affaires publiques"
        }
    }
}