{
    "dcr_id": "1550180749377",
    "lang": "en",
    "title": {
        "en": "Team Leader of Application Development",
        "fr": "Chef d\u2019\u00e9quipe de d\u00e9veloppement des applications "
    },
    "modified": "2019-02-15 00:00:00.0",
    "issued": "2019-02-15 00:00:00.0",
    "type_name": "intra-intra/empl-empl",
    "node_id": "1279029955397",
    "layout_name": null,
    "dc_date_created": "2019-02-15",
    "breadcrumb_label": "",
    "meta": {
        "issued": {
            "en": "2019-02-15",
            "fr": "2019-02-15"
        },
        "modified": {
            "en": "2019-02-15",
            "fr": "2019-02-15"
        },
        "format": {
            "en": "gcformat",
            "fr": "gcformat"
        },
        "title": {
            "en": "Team Leader of Application Development",
            "fr": "Chef d\u2019\u00e9quipe de d\u00e9veloppement des applications "
        },
        "subject": {
            "en": "staffing",
            "fr": "dotation en personnel"
        },
        "language": {
            "en": "eng",
            "fr": "fra"
        },
        "audience": {
            "en": "gcaudience",
            "fr": "gcaudience"
        },
        "type": {
            "en": "notice",
            "fr": "avis"
        },
        "creator": {
            "en": "Agriculture and Agri-Food Canada",
            "fr": "Agriculture et Agroalimentaire Canada"
        },
        "spatial": {
            "en": "gcregions",
            "fr": "gcregions"
        },
        "service": {
            "en": "AAFC_AgriSource",
            "fr": "AAC_AgriSource"
        },
        "accessRights": {
            "en": "3",
            "fr": "3"
        }
    },
    "body": {
        "en": "\n<p>\u00a0</p>\n<p>The Corporate Business Solutions unit in the Information Systems Branch (ISB) is looking for a <strong>Team Leader of Application Development (CS-03)</strong> interested in joining us through an at-level deployment.</p>\n<p>As the Team Leader of HR Applications, you will joining a team at the threshold of a portfolio transformation activity. We are currently in the process of establishing a comprehensive strategy to take a number of legacy HR systems and bring them forward using modern technologies, practices, and procedures from the domain of application development. This is an opportunity to build an integrated service delivery platform for Human Resources functions (outside of PeopleSoft) from the ground up by leveraging modern technologies and practices such as cloud, DevOps, microservices, and agile development to name a few.</p>\n<p>Your main responsibilities will include:</p>\n<ul>\n<li>\n<p>Managing an application portfolio that supports the Human Resources team at AAFC in areas such as staffing, classification, official languages, health and safety, learning and development, and organizational planning.</p>\n</li>\n<li>\n<p>Managing projects by following departmental governance approvals and ensuring appropriate practices and procedures are followed to ensure successful delivery.</p>\n</li>\n<li>\n<p>Leading a team of two full time developers; establishing work plans; identifying when additional capacity is required, and facilitating collaboration and innovation across the immediate team as well as with key stakeholders.</p>\n</li>\n<li>\n<p>Communicating with clients to ensure that solutions are consistently in alignment with current and future business needs and processes.</p>\n</li>\n</ul>\n<p>The ideal candidate for this position is someone who:</p>\n<ul>\n<li>\n<p>Has a background in application development that will enable them to guide the technical team through the entirety of the software development lifecycle</p>\n</li>\n<li>\n<p>Has experience leading IT projects and teams</p>\n</li>\n<li>\n<p>Is a strong communicator with a focus on client service</p>\n</li>\n<li>\n<p>Is adept in organizing teams and activities (for example: scheduling, budgeting, strategizing)</p>\n</li>\n<li>\n<p>Consistently demonstrates initiative and problem solving based on appropriate analysis.</p>\n</li>\n</ul>\n<p>Other required qualifications:</p>\n<ul>\n<li>\n<p>The position is located in Ottawa, at 1341 Baseline Road. Applicants from the National Capital Region will be considered prior to candidates working outside the NCR.</p>\n</li>\n<li>\n<p>This is a bilingual position, as such we are looking for employees proficient in both official languages with a minimum BBB/BBB level.</p>\n</li>\n<li>\n<p>Successful completion of two years of an acceptable post-secondary educational program, or a bachelor\u2019s degree from a recognized post-secondary institution, with specialization in Computer Sciences, Computer Engineering or any other field related to the position.</p>\n</li>\n</ul>\n<p>Interested candidates can send their resume to <strong>Christopher.Lenko@canada.ca by March 8, 2019</strong>.</p>\n<p>\u00a0</p>\n",
        "fr": "\n<p>\u00a0</p>\n<p>L\u2019unit\u00e9 Solutions minist\u00e9rielles et op\u00e9rationnelles de la Direction g\u00e9n\u00e9rale des syst\u00e8mes d\u2019information (DGSI) est \u00e0 la recherche d\u2019un <strong>Chef d\u2019\u00e9quipe de d\u00e9veloppement des applications (CS-03)</strong> souhaitant se joindre \u00e0 elle dans le cadre d\u2019une mutation au m\u00eame niveau.</p>\n<p>\u00c0 titre de Chef d\u2019\u00e9quipe, Applications des ressources humaines (RH), vous vous joindrez \u00e0 une \u00e9quipe qui s\u2019appr\u00eate \u00e0 transformer son portefeuille. Nous \u00e9laborons actuellement une strat\u00e9gie globale visant \u00e0 donner un nouveau souffle \u00e0 un certain nombre d\u2019anciens syst\u00e8mes des RH au moyen de technologies, de pratiques et de proc\u00e9dures modernes dans le domaine du d\u00e9veloppement d\u2019applications. Il s\u2019agit d\u2019une occasion de cr\u00e9er de toutes pi\u00e8ces une plateforme int\u00e9gr\u00e9e de prestation de services pour les fonctions des ressources humaines (en dehors de <em>PeopleSoft</em>), en tirant parti de technologies et de pratiques modernes comme l\u2019infonuagique, le DevOps, les microservices et le d\u00e9veloppement agile, pour n\u2019en citer que quelques\u2011uns.</p>\n<p>Vos principales responsabilit\u00e9s comprendront les suivantes :</p>\n<ul>\n<li>\n<p>G\u00e9rer un portefeuille d\u2019applications qui appuie l\u2019\u00e9quipe des ressources humaines d\u2019AAC dans des domaines comme la dotation, la classification, les langues officielles, la sant\u00e9 et la s\u00e9curit\u00e9, l\u2019apprentissage et le perfectionnement, et la planification organisationnelle.</p>\n</li>\n<li>\n<p>G\u00e9rer des projets en respectant les approbations de gouvernance minist\u00e9rielle et en veillant \u00e0 ce que les pratiques et les proc\u00e9dures appropri\u00e9es soient suivies afin d\u2019assurer une mise en \u0153uvre r\u00e9ussie.</p>\n</li>\n<li>\n<p>Diriger une \u00e9quipe de deux d\u00e9veloppeurs \u00e0 temps plein, \u00e9tablir des plans de travail, d\u00e9terminer la n\u00e9cessit\u00e9 de se doter de capacit\u00e9s suppl\u00e9mentaires, et faciliter la collaboration et l\u2019innovation au sein de l\u2019\u00e9quipe imm\u00e9diate ainsi qu\u2019aupr\u00e8s des principaux intervenants.</p>\n</li>\n<li>\n<p>Communiquer avec les clients pour s\u2019assurer que les solutions sont syst\u00e9matiquement harmonis\u00e9es avec les besoins et les processus op\u00e9rationnels actuels et futurs.</p>\n</li>\n</ul>\n<p>Le candidat id\u00e9al pour ce poste est une personne qui :</p>\n<ul>\n<li>\n<p>Poss\u00e8de des connaissances et de l\u2019exp\u00e9rience en d\u00e9veloppement d\u2019applications lui permettant de guider l\u2019\u00e9quipe technique tout au long du cycle de vie du d\u00e9veloppement logiciel.</p>\n</li>\n<li>\n<p>Poss\u00e8de de l\u2019exp\u00e9rience dans la direction de projets et d\u2019\u00e9quipes de TI.</p>\n</li>\n<li>\n<p>Communique efficacement et met l\u2019accent sur le service \u00e0 la client\u00e8le.</p>\n</li>\n<li>\n<p>Est habile dans l\u2019organisation d\u2019\u00e9quipes et d\u2019activit\u00e9s (par exemple : planification, budg\u00e9tisation, \u00e9laboration de strat\u00e9gies).</p>\n</li>\n<li>\n<p>D\u00e9montre en toute circonstance un esprit d\u2019initiative et des comp\u00e9tences en r\u00e9solution de probl\u00e8mes en se basant sur une analyse appropri\u00e9e.</p>\n</li>\n</ul>\n<p>Autres qualifications requises :</p>\n<ul>\n<li>\n<p>Le poste est situ\u00e9 \u00e0 Ottawa, au 1341, chemin Baseline. La candidature des employ\u00e9s de la r\u00e9gion de la capitale nationale sera consid\u00e9r\u00e9 avant celle des employ\u00e9s qui travaillent \u00e0 l\u2019ext\u00e9rieur de la RCN.</p>\n</li>\n<li>\n<p>Il s\u2019agit d\u2019un poste bilingue, nous recherchons donc des employ\u00e9s qui ma\u00eetrisent les deux langues officielles \u00e0 un niveau BBB/BBB minimum.</p>\n</li>\n<li>\n<p>Deux ann\u00e9es d\u2019\u00e9tudes postsecondaires termin\u00e9es avec succ\u00e8s dans un programme de formation acceptable ou baccalaur\u00e9at d\u2019un \u00e9tablissement d\u2019enseignement postsecondaire reconnu, avec sp\u00e9cialisation en informatique, en g\u00e9nie informatique ou dans tout autre domaine li\u00e9 au poste.</p>\n</li>\n</ul>\n<p>Les candidats int\u00e9ress\u00e9s peuvent faire parvenir leur curriculum vitae \u00e0 <strong>Christopher.Lenko@canada.ca d\u2019ici le 08 mars 2019.</strong></p>\n<p>\u00a0</p>\n\n"
    },
    "breadcrumb": {
        "en": "Team Leader of Application Development",
        "fr": "Chef d\u2019\u00e9quipe de d\u00e9veloppement des applications"
    },
    "empl": {
        "type": {
            "en": "Assignment, Deployment",
            "fr": "Affectation, Mutation"
        },
        "classification": {
            "en": "CS-3 and equivalent",
            "fr": "CS-3 et \u00e9quivalent"
        },
        "branch": {
            "en": "Information Systems Branch",
            "fr": "Direction g\u00e9n\u00e9rale des syst\u00e8mes d'information"
        },
        "locations": {
            "en": "Ottawa - National Capital Region",
            "fr": "Ottawa -  R\u00e9gion de la capitale nationale"
        },
        "date_closing": {
            "en": "2019-03-08",
            "fr": "2019-03-08"
        },
        "open_to": {
            "en": "Employees of Agriculture and Agri-Food Canada occupying a position across Canada",
            "fr": "Les fonctionnaires d\u2019Agriculture et agroalimentaire Canada occupant un poste \u00e0 travers le Canada"
        },
        "name": {
            "en": "Christopher Lenko",
            "fr": "Christopher Lenko"
        },
        "email": {
            "en": "christopher.lenko@canada.ca",
            "fr": "christopher.lenko@canada.ca"
        }
    }
}