{
    "dcr_id": "1550594155916",
    "lang": "en",
    "title": {
        "en": "This Week in The Harvest - \"On the Job\": Performance and Talent Management - It's About the People",
        "fr": "Au menu de La Moisson cette semaine - \u00ab Au travail \u00bb : Gestion du rendement et du talent - L'important c'est la personne"
    },
    "modified": "2019-02-21 00:00:00.0",
    "issued": "2019-02-21 00:00:00.0",
    "type_name": "intra-intra/news-nouv",
    "node_id": "1279030006975",
    "layout_name": null,
    "dc_date_created": "2019-02-20",
    "breadcrumb_label": "",
    "meta": {
        "issued": {
            "en": "2019-02-21",
            "fr": "2019-02-21"
        },
        "modified": {
            "en": "2019-02-21",
            "fr": "2019-02-21"
        },
        "format": {
            "en": "gcformat",
            "fr": "gcformat"
        },
        "title": {
            "en": "This Week in The Harvest - \"On the Job\": Performance and Talent Management - It's About the People",
            "fr": "Au menu de La Moisson cette semaine - \u00ab Au travail \u00bb : Gestion du rendement et du talent - L'important c'est la personne"
        },
        "subject": {
            "en": "communications",
            "fr": "communications"
        },
        "description": {
            "en": "In case you missed it, here's what's new in The Harvest this week.",
            "fr": "Au cas o\u00f9 vous l'auriez manqu\u00e9, voici le menu que la section La Moisson vous offre cette semaine."
        },
        "language": {
            "en": "eng",
            "fr": "fra"
        },
        "audience": {
            "en": "gcaudience",
            "fr": "gcaudience"
        },
        "creator": {
            "en": "Agriculture and Agri-Food Canada",
            "fr": "Agriculture et Agroalimentaire Canada"
        },
        "spatial": {
            "en": "gcregions",
            "fr": "gcregions"
        },
        "service": {
            "en": "AAFC_AgriSource",
            "fr": "AAC_AgriSource"
        },
        "accessRights": {
            "en": "3",
            "fr": "3"
        }
    },
    "body": {
        "en": "<br>\n<br>\n<p>In case you missed it, here\u2019s what\u2019s new in <a rel=\"external\" href=\"https://collab.agr.gc.ca/apps/harvest-moisson\">The Harvest</a> this week:</p>\n<p><strong>Feature story:</strong> <a rel=\"external\" href=\"https://collab.agr.gc.ca/apps/harvest-moisson\">\u201cOn the Job\u201d: Performance and Talent Management - It\u2019s About the People</a> \u2013 Danitsa Lauder may not know you personally, but she wants to help you succeed at your job.</p>\n<p><strong>Poll: </strong><a rel=\"external\" href=\"https://collab.agr.gc.ca/apps/harvest-moisson\"> How do you beat the winter blahs?</a></p>\n<p><strong>Feature photo: </strong><a rel=\"external\" href=\"https://collab.agr.gc.ca/apps/harvest-moisson/gallery/Lists/Posts/Post.aspx?ID=255\">Winter Morning</a>, by Sabrina Schiavi, Information Systems Branch, Ottawa, Ontario.</p>\n<p><strong>Did you know?</strong> <a rel=\"external\" href=\"https://collab.agr.gc.ca/apps/harvest-moisson/Pages/DidYouKnow.aspx\">Carbon footprint, water consumption, and land use</a> associated with Canadian milk production have decreased by 7%, 6%, and 11%, respectively, in the past 5 years.</p>\n<p>You can get involved by posting a comment or \u201cliking\u201d an article. You can also check out what your colleagues are liking and saying.</p>\n<p>Should you have story ideas, scenic or artistic agriculture-related photos, or interesting facts, please share them with us by clicking on \u201cContribute\u201d in the top menu bar.</p>\n<p>\n<img src=\"https://intranet.agr.gc.ca/resources/prod/news/images/HarvestDanitsaLauder.png\" class=\"center-block\" alt=\"Danitsa Lauder\"></p>\n\n\t\t",
        "fr": "<br>\n<br>\n<p>Au cas o\u00f9 vous l\u2019auriez manqu\u00e9, voici le menu que la section <a rel=\"external\" href=\"https://collab.agr.gc.ca/apps/harvest-moisson\">La Moisson</a> vous offre cette semaine :</p>\n<p><strong>Article vedette :</strong> <a rel=\"external\" href=\"https://collab.agr.gc.ca/apps/harvest-moisson\">\u00ab Au travail \u00bb : Gestion du rendement et du talent\u00a0- L\u2019important c\u2019est la personne</a> \u2013 Danitsa Lauder ne vous conna\u00eet peut-\u00eatre pas personnellement, mais elle veut vous aider \u00e0 r\u00e9ussir dans votre travail.</p>\n<p><strong>Sondage : </strong><a rel=\"external\" href=\"https://collab.agr.gc.ca/apps/harvest-moisson\"> Comment luttez-vous contre la d\u00e9prime hivernale?</a></p>\n<p><strong>Photo vedette :</strong> <a rel=\"external\" href=\"https://collab.agr.gc.ca/apps/harvest-moisson/gallery/Lists/Posts/Post.aspx?ID=255\"> Matin d\u2019hiver</a>, par Sabrina Schiavi, Direction g\u00e9n\u00e9rale des syst\u00e8mes d\u2019information, Ottawa (Ontario).</p>\n<p><strong>Le saviez-vous?</strong> Au cours des cinq derni\u00e8res ann\u00e9es, <a rel=\"external\" href=\"https://collab.agr.gc.ca/apps/harvest-moisson/Pages/DidYouKnow.aspx\">l\u2019empreinte carbone, la consommation d\u2019eau et l\u2019utilisation des terres</a> associ\u00e9es \u00e0 la production laiti\u00e8re canadienne ont diminu\u00e9 de 7 %, de 6 % et de 11 %, respectivement.</p>\n<p>Vous pouvez participer en affichant des commentaires ou en utilisant la fonction \u00ab J\u2019aime \u00bb ou \u00ab Partager \u00bb pour exprimer votre appr\u00e9ciation d\u2019un article. Vous pouvez aussi aller voir ce que vos coll\u00e8gues aiment et ont \u00e0 dire.</p>\n<p>Si vous avez des id\u00e9es d\u2019articles, des photos de paysages ou \u00e0 caract\u00e8re artistique li\u00e9es \u00e0 l\u2019agriculture ou encore des faits int\u00e9ressants, veuillez nous en faire part en cliquant sur \u00ab Collaborer \u00bb dans la barre de menu en haut de la page.</p>\n<p><img src=\"https://intranet.agr.gc.ca/resources/prod/news/images/HarvestDanitsaLauder.png\" class=\"center-block\" alt=\"Danitsa Lauder\"></p>\n\t\t"
    },
    "breadcrumb": {
        "en": "This Week in The Harvest - \"On the Job\": Performance and Talent Management - It's About the People",
        "fr": "Au menu de La Moisson cette semaine - \u00ab Au travail \u00bb : Gestion du rendement et du talent..."
    },
    "news": {
        "date_posted": {
            "en": "2019-02-21",
            "fr": "2019-02-21"
        },
        "to": {
            "en": "All staff",
            "fr": "Tous les employ\u00e9s"
        },
        "by": {
            "en": "Corporate Communications, Public Affairs Branch",
            "fr": "Communications minist\u00e9rielles, Direction g\u00e9n\u00e9rale des affaires publiques"
        }
    }
}