{
    "dcr_id": "1550585922626",
    "lang": "en",
    "title": {
        "en": "Values and Ethics Resources at the Library  ",
        "fr": "Ressources sur les valeurs et l'\u00e9thique \u00e0 la Biblioth\u00e8que "
    },
    "modified": "2019-02-21 00:00:00.0",
    "issued": "2019-02-21 00:00:00.0",
    "type_name": "intra-intra/news-nouv",
    "node_id": "1279030006975",
    "layout_name": null,
    "dc_date_created": "2019-02-19",
    "breadcrumb_label": "",
    "meta": {
        "issued": {
            "en": "2019-02-21",
            "fr": "2019-02-21"
        },
        "modified": {
            "en": "2019-02-21",
            "fr": "2019-02-21"
        },
        "format": {
            "en": "gcformat",
            "fr": "gcformat"
        },
        "title": {
            "en": "Values and Ethics Resources at the Library  ",
            "fr": "Ressources sur les valeurs et l'\u00e9thique \u00e0 la Biblioth\u00e8que "
        },
        "subject": {
            "en": "communications",
            "fr": "communications"
        },
        "description": {
            "en": "As February is Values and Ethics Awareness Month, the Canadian Agriculture Library has developed a list of resources on the subject of values and ethics.",
            "fr": "Comme f\u00e9vrier est le Mois de la sensibilisation aux valeurs et \u00e0 l'\u00e9thique, la Biblioth\u00e8que canadienne de l'agriculture a dress\u00e9 une liste de ressources sur les valeurs et l'\u00e9thique."
        },
        "language": {
            "en": "eng",
            "fr": "fra"
        },
        "audience": {
            "en": "gcaudience",
            "fr": "gcaudience"
        },
        "creator": {
            "en": "Agriculture and Agri-Food Canada",
            "fr": "Agriculture et Agroalimentaire Canada"
        },
        "spatial": {
            "en": "gcregions",
            "fr": "gcregions"
        },
        "service": {
            "en": "AAFC_AgriSource",
            "fr": "AAC_AgriSource"
        },
        "accessRights": {
            "en": "3",
            "fr": "3"
        }
    },
    "body": {
        "en": "<br>\n<br>\n<p>As February is Values and Ethics Awareness Month, the Canadian Agriculture Library (<abbr title=\"Canadian Agriculture Library\">CAL</abbr>) has developed a list of <a href=\"https://collab.agr.gc.ca/co/kis-sis/_layouts/15/DocIdRedir.aspx?ID=AGR-6595429\">resources on the subject of values and ethics</a>.</p>\n<p>The list contains a selection of books and e-books that will help you reflect on the benefits that come from maintaining a healthy and ethical workplace. You can access the e-books directly from your workstation. If the book is not available in electronic format, click on the \u201cRequest this item\u201d link. The book will be sent shortly after you submit your request.</p>\n<p>Don\u2019t forget that <abbr title=\"Canadian Agriculture Library\">CAL</abbr> staff can prepare a list of resources on any topic that interests you. For more information, please contact <abbr title=\"Canadian Agriculture Library\">CAL</abbr> at <a href=\"mailto:aafc.cal-bca.aac@canada.ca\">aafc.cal-bca.aac@canada.ca</a> or visit \nthe <a href=\"https://collab.agr.gc.ca/co/kis-sis/SitePages/CAL%20Client%20Support%20Site.aspx\"><abbr title=\"Canadian Agriculture Library\">CAL</abbr> Client Support Site</a>.</p>\n<p><img src=\"https://intranet.agr.gc.ca/resources/prod/news/images/CALbanner-EN.png\" class=\"center-block\" alt=\"Canadian Agriculture Library\"></p>\n\n\t\t",
        "fr": "<br>\n<br>\n<p>Comme f\u00e9vrier est le Mois de la sensibilisation aux valeurs et \u00e0 l\u2019\u00e9thique, la Biblioth\u00e8que canadienne de l\u2019agriculture (<abbr title=\"Biblioth\u00e8que canadienne de l\u2019agriculture\">BCA</abbr>) a dress\u00e9 une liste de <a href=\"https://collab.agr.gc.ca/co/kis-sis/_layouts/15/DocIdRedir.aspx?ID=AGR-7546736\">ressources sur les valeurs et l\u2019\u00e9thique</a>.</p>\n<p>Cette liste contient une s\u00e9lection de livres imprim\u00e9s et \u00e9lectroniques qui faciliteront votre r\u00e9flexion sur les avantages d\u2019un milieu de travail sain et fond\u00e9 sur l\u2019\u00e9thique. Vous pouvez consulter les livres \u00e9lectroniques \u00e0 partir de votre poste de travail. Si le livre n\u2019est pas disponible en format \u00e9lectronique, cliquez sur le lien \u00ab Demander ce document \u00bb. Le livre vous sera envoy\u00e9 peu de temps apr\u00e8s l\u2019envoi de votre demande.</p>\n<p>N\u2019oubliez pas que le personnel de la <abbr title=\"Biblioth\u00e8que canadienne de l\u2019agriculture\">BCA</abbr> peut cr\u00e9er une liste de ressources sur les sujets qui vous int\u00e9ressent. Pour de plus amples renseignements, veuillez communiquer avec la <abbr title=\"Biblioth\u00e8que canadienne de l\u2019agriculture\">BCA</abbr> \u00e0 <a href=\"mailto:aafc.cal-bca.aac@canada.ca\">aafc.cal-bca.aac@canada.ca</a> ou visiter le <a href=\"https://collab.agr.gc.ca/co/kis-sis/SitePages/CAL%20Client%20Support%20Site.aspx\">site de soutien \u00e0 la client\u00e8le de la <abbr title=\"Biblioth\u00e8que canadienne de l\u2019agriculture\">BCA</abbr></a>.</p>\n<p><img src=\"https://intranet.agr.gc.ca/resources/prod/news/images/CALbanniere-FR.png\" class=\"center-block\" alt=\"Biblioth\u00e8que canadienne de l'agriculture \"></p>\n\t\t"
    },
    "breadcrumb": {
        "en": "Values and Ethics Resources at the Library",
        "fr": "Ressources sur les valeurs et l'\u00e9thique \u00e0 la Biblioth\u00e8que"
    },
    "news": {
        "date_posted": {
            "en": "2019-02-21",
            "fr": "2019-02-21"
        },
        "to": {
            "en": "All staff",
            "fr": "Tous les employ\u00e9s"
        },
        "by": {
            "en": "Canadian Agriculture Library",
            "fr": "Biblioth\u00e8que canadienne de l'agriculture"
        }
    }
}