{
    "dcr_id": "1550001838490",
    "lang": "en",
    "title": {
        "en": "2018 Public Service Employee Survey Results",
        "fr": "R\u00e9sultats du Sondage aupr\u00e8s des fonctionnaires f\u00e9d\u00e9raux de 2018"
    },
    "modified": "2019-02-14 00:00:00.0",
    "issued": "2019-02-12 00:00:00.0",
    "type_name": "intra-intra/news-nouv",
    "node_id": "1279030006975",
    "layout_name": null,
    "dc_date_created": "2019-02-12",
    "breadcrumb_label": "",
    "meta": {
        "issued": {
            "en": "2019-02-12",
            "fr": "2019-02-12"
        },
        "modified": {
            "en": "2019-02-14",
            "fr": "2019-02-14"
        },
        "format": {
            "en": "gcformat",
            "fr": "gcformat"
        },
        "title": {
            "en": "2018 Public Service Employee Survey Results",
            "fr": "R\u00e9sultats du Sondage aupr\u00e8s des fonctionnaires f\u00e9d\u00e9raux de 2018"
        },
        "subject": {
            "en": "communications",
            "fr": "communications"
        },
        "description": {
            "en": "The departmental results from the 2018 Public Service Employee Survey are now available.",
            "fr": "Les r\u00e9sultats du Minist\u00e8re dans le cadre du Sondage aupr\u00e8s de fonctionnaires f\u00e9d\u00e9raux de 2018 sont maintenant disponibles."
        },
        "language": {
            "en": "eng",
            "fr": "fra"
        },
        "audience": {
            "en": "gcaudience",
            "fr": "gcaudience"
        },
        "creator": {
            "en": "Agriculture and Agri-Food Canada",
            "fr": "Agriculture et Agroalimentaire Canada"
        },
        "spatial": {
            "en": "gcregions",
            "fr": "gcregions"
        },
        "service": {
            "en": "AAFC_AgriSource",
            "fr": "AAC_AgriSource"
        },
        "accessRights": {
            "en": "3",
            "fr": "3"
        }
    },
    "body": {
        "en": "<br>\n<br>\n<p>The <a rel=\"external\" href=\"http://www.tbs-sct.gc.ca/pses-saff/2018/results-resultats/bq-pq/09/index-eng.aspx\">departmental results</a> from the 2018 Public Service Employee Survey (<abbr title=\"Public Service Employee Survey\">PSES</abbr>) are now available. The survey took place between August 20, 2018 and October 5, 2018.</p>\n<p>With a 53% departmental participation rate, the survey results show that employees feel AAFC is doing a good job raising mental health issues in the workplace (77% compared to 73% in 2017) and 83% of employees believe AAFC implements activities and practices that support a diverse workplace.</p>\n<p>While we are continuing to take measures to improve our workplace, results also show that we need to improve in areas like harassment in the workplace, performance management, and career development. So there\u2019s still work to be done.</p>\n<p>In March we will get branch level results, which will further identify areas that need attention and help inform short, medium and longer-term actions that will move us closer to the workplace we want.</p>\n<p>In the meantime, we invite you to review the departmental and <a rel=\"external\" href=\"http://www.tbs-sct.gc.ca/pses-saff/2018/results-resultats/bq-pq/00/org-eng.aspx\">public service overall results</a>.</p>\n<p>Together, let\u2019s continue to take concrete actions to make AAFC a workplace of choice \u2500 one that supports a culture of information-sharing, empowerment and well-being, and where employees feel like they are making a difference.</p>\n<p>\u00a0</p>\n<p><strong>Chris Forbes<br></strong>Deputy Minister</p>\n<p><strong>Annette Gibbons<br></strong>Associate Deputy Minister</p>\n\n\t\t",
        "fr": "<br>\n<br>\n<p>Les <a rel=\"external\" href=\"http://www.tbs-sct.gc.ca/pses-saff/2018/results-resultats/bq-pq/09/index-fra.aspx\">r\u00e9sultats du Minist\u00e8re</a> dans le cadre du Sondage aupr\u00e8s de fonctionnaires f\u00e9d\u00e9raux (<abbr title=\"Sondage aupr\u00e8s de fonctionnaires f\u00e9d\u00e9raux\">SAFF</abbr>) de 2018 sont maintenant disponibles. Le sondage a \u00e9t\u00e9 men\u00e9 du 20 ao\u00fbt au 5 octobre 2018.</p>\n<p>Avec un taux de participation minist\u00e9riel de 53%, les r\u00e9sultats du sondage d\u00e9montrent que les employ\u00e9s trouvent qu\u2019AAC fait un bon travail de sensibilisation \u00e0 la sant\u00e9 mentale en milieu de travail (77 % comparativement \u00e0 73 % en 2017), et 83 % d\u2019entre eux croient qu\u2019AAC met en place des activit\u00e9s et des pratiques qui favorisent un milieu de travail diversifi\u00e9.</p>\n<p>Alors que nous continuons \u00e0 prendre des mesures pour am\u00e9liorer notre milieu de travail, les r\u00e9sultats indiquent que nous devons \u00e9galement nous am\u00e9liorer en ce qui concerne le harc\u00e8lement au travail, la gestion du rendement et le perfectionnement professionnel. Il reste donc du travail \u00e0 faire.</p>\n<p>En mars, nous obtiendrons les r\u00e9sultats des directions g\u00e9n\u00e9rales, qui permettront de mieux cerner les secteurs n\u00e9cessitant notre attention et de guider la prise de mesures \u00e0 court, \u00e0 moyen et \u00e0 long terme qui nous rapprocheront du milieu de travail que nous souhaitons.</p>\n<p>Entre-temps, nous vous invitons \u00e0 examiner les r\u00e9sultats globaux du Minist\u00e8re et de <a rel=\"external\" href=\"http://www.tbs-sct.gc.ca/pses-saff/2018/results-resultats/bq-pq/00/org-fra.aspx\">la fonction publique</a>.</p>\n<p>Ensemble, continuons de prendre des mesures concr\u00e8tes pour faire d\u2019AAC un milieu de travail de choix, c\u2019est-\u00e0-dire un milieu propice \u00e0 l\u2019\u00e9change de renseignements, \u00e0 l\u2019habilitation et au bien-\u00eatre, o\u00f9 les employ\u00e9s sentent qu\u2019ils peuvent changer le cours des choses.</p>\n<p>\u00a0</p>\n<p><strong>Chris Forbes<br></strong>Sous-ministre</p>\n<p><strong>Annette Gibbons<br></strong>Sous-ministre d\u00e9l\u00e9gu\u00e9e</p>\n\t\t"
    },
    "breadcrumb": {
        "en": "2018 Public Service Employee Survey Results",
        "fr": "R\u00e9sultats du Sondage aupr\u00e8s des fonctionnaires f\u00e9d\u00e9raux de 2018"
    },
    "news": {
        "date_posted": {
            "en": "2019-02-12",
            "fr": "2019-02-12"
        },
        "to": {
            "en": "All staff",
            "fr": "Tous les employ\u00e9s"
        },
        "by": {
            "en": "Chris Forbes, Deputy Minister, and Annette Gibbons, Associate Deputy Minister",
            "fr": "Chris Forbes, sous-ministre, et Annette Gibbons, sous-ministre d\u00e9l\u00e9gu\u00e9e"
        }
    }
}