{
    "dcr_id": "1551803275452",
    "lang": "en",
    "title": {
        "en": "Sustainability of Canadian Agriculture Workshop and Webinar - March 13-14",
        "fr": "Atelier-webinaire sur la durabilit\u00e9 de l'agriculture canadienne - 13 et 14 mars"
    },
    "modified": "2019-03-07 00:00:00.0",
    "issued": "2019-03-07 00:00:00.0",
    "type_name": "intra-intra/news-nouv",
    "node_id": "1279030006975",
    "layout_name": null,
    "dc_date_created": "2019-03-05",
    "breadcrumb_label": "",
    "meta": {
        "issued": {
            "en": "2019-03-07",
            "fr": "2019-03-07"
        },
        "modified": {
            "en": "2019-03-07",
            "fr": "2019-03-07"
        },
        "format": {
            "en": "gcformat",
            "fr": "gcformat"
        },
        "title": {
            "en": "Sustainability of Canadian Agriculture Workshop and Webinar - March 13-14",
            "fr": "Atelier-webinaire sur la durabilit\u00e9 de l'agriculture canadienne - 13 et 14 mars"
        },
        "subject": {
            "en": "communications",
            "fr": "communications"
        },
        "description": {
            "en": "The 6<sup>th</sup> annual Sustainability of Canadian Agriculture Workshop and Webinar will be held in Calgary on March 13-14.",
            "fr": "Le 6<sup>e</sup> atelier-webinaire annuel sur la durabilit\u00e9 de l'agriculture canadienne se tiendra \u00e0 Calgary les 13 et 14 mars."
        },
        "language": {
            "en": "eng",
            "fr": "fra"
        },
        "audience": {
            "en": "gcaudience",
            "fr": "gcaudience"
        },
        "creator": {
            "en": "Agriculture and Agri-Food Canada",
            "fr": "Agriculture et Agroalimentaire Canada"
        },
        "spatial": {
            "en": "gcregions",
            "fr": "gcregions"
        },
        "service": {
            "en": "AAFC_AgriSource",
            "fr": "AAC_AgriSource"
        },
        "accessRights": {
            "en": "3",
            "fr": "3"
        }
    },
    "body": {
        "en": "<br>\n<br>\n<p>The 6<sup>th</sup> annual Sustainability of Canadian Agriculture Workshop and Webinar will be held in Calgary on March 13-14. This year's theme is: Soil Carbon: Is it Key to Agricultural Sustainability? This year\u2019s workshop will provide technical updates on:</p>\n<ul>\n<li>\nsoil carbon values, data &amp; modeling;</li>\n<li>agricultural sustainability metrics initiatives of the crops and livestock sectors; and</li>\n<li>network with researchers developing whole-farm analysis tools.</li>\n</ul>\n<p>\n<b>Registration is required.</b> Email <a href=\"mailto:aafc.holos.aac@canada.ca\">aafc.holos.aac@canada.ca</a> by <strong>March 11</strong> to register.</p>\n<p>\nWebinar guests may join or leave the event over the course of the two days as required.\u00a0</p>\n\n\t\t",
        "fr": "<br>\n<br>\n<p>Le 6<sup>e</sup> atelier-webinaire annuel sur la durabilit\u00e9 de l\u2019agriculture canadienne se tiendra \u00e0 Calgary les 13 et 14 mars. Le th\u00e8me de cette ann\u00e9e est Soil Carbon: Is it Key to Agricultural Sustainability? (Le carbone dans le sol : Est-il essentiel \u00e0 la durabilit\u00e9 de l\u2019agriculture?) L\u2019atelier de cette ann\u00e9e vise \u00e0 pr\u00e9senter des mises \u00e0 jour techniques sur :</p>\n<ul>\n<li>les valeurs, les donn\u00e9es et la mod\u00e9lisation du carbone du sol;\n</li>\n<li>les initiatives de mesure de la durabilit\u00e9 des productions v\u00e9g\u00e9tales et animales;</li>\n<li>le r\u00e9seautage avec les chercheurs qui mettent au point des outils d\u2019analyse pour l\u2019ensemble de l\u2019exploitation agricole.</li>\n</ul>\n<p><strong>L\u2019inscription est obligatoire.</strong> Pour vous inscrire, veuillez envoyer un courriel\u00a0\u00e0\u00a0<a href=\"mailto:aafc.holos.aac@canada.ca\">aafc.holos.aac@canada.ca</a> d\u2019ici le <strong>11 mars</strong>.</p>\n<p>Les invit\u00e9s au webinaire peuvent se connecter \u00e0 l\u2019atelier et le quitter pendant les deux journ\u00e9es, au besoin.</p>\n\t\t"
    },
    "breadcrumb": {
        "en": "Sustainability of Canadian Agriculture Workshop and Webinar - March 13-14",
        "fr": "Atelier-webinaire sur la durabilit\u00e9 de l'agriculture canadienne - 13 et 14 mars"
    },
    "news": {
        "date_posted": {
            "en": "2019-03-07",
            "fr": "2019-03-07"
        },
        "to": {
            "en": "All staff",
            "fr": "Tous les employ\u00e9s"
        },
        "by": {
            "en": "Public Affairs Branch",
            "fr": "Direction g\u00e9n\u00e9rale des affaires publiques"
        }
    }
}