{
    "dcr_id": "1551706493438",
    "lang": "en",
    "title": {
        "en": "Digital Content Strategist",
        "fr": "Strat\u00e8ge en contenu num\u00e9rique"
    },
    "modified": "2019-03-05 00:00:00.0",
    "issued": "2019-03-05 00:00:00.0",
    "type_name": "intra-intra/empl-empl",
    "node_id": "1279029955397",
    "layout_name": null,
    "dc_date_created": "2019-03-04",
    "breadcrumb_label": "",
    "meta": {
        "issued": {
            "en": "2019-03-05",
            "fr": "2019-03-05"
        },
        "modified": {
            "en": "2019-03-05",
            "fr": "2019-03-05"
        },
        "format": {
            "en": "gcformat",
            "fr": "gcformat"
        },
        "title": {
            "en": "Digital Content Strategist",
            "fr": "Strat\u00e8ge en contenu num\u00e9rique"
        },
        "subject": {
            "en": "staffing",
            "fr": "dotation en personnel"
        },
        "language": {
            "en": "eng",
            "fr": "fra"
        },
        "audience": {
            "en": "gcaudience",
            "fr": "gcaudience"
        },
        "type": {
            "en": "notice",
            "fr": "avis"
        },
        "creator": {
            "en": "Agriculture and Agri-Food Canada",
            "fr": "Agriculture et Agroalimentaire Canada"
        },
        "spatial": {
            "en": "gcregions",
            "fr": "gcregions"
        },
        "service": {
            "en": "AAFC_AgriSource",
            "fr": "AAC_AgriSource"
        },
        "accessRights": {
            "en": "3",
            "fr": "3"
        }
    },
    "body": {
        "en": "\n<p><strong>\u00a0</strong></p>\n<p><strong>Assignment/Acting opportunity IS-04, Digital Content Strategist</strong></p>\n<p>The Digital Communications Team in the Public Affairs Branch has an IS-04 opening and is offering a one-year at level assignment or acting opportunity to employees in the NCR, with a possible deployment opportunity in the future. As a member of the Digital Communications Planning team, the Digital Content Strategist will provide expert advice to support strategic, usable and useful digital content posted on AAFC platforms, including AAFC\u2019s websites.</p>\n<p>Key activities for this IS-04 position include:</p>\n<ul>\n<li>Providing content analysis to ensure that content is meeting user and departmental needs while meeting standards and priorities.</li>\n<li>Providing expertise and advice on: Plain language; GC standards and policies related to digital, including websites; and Accessibility.</li>\n<li>Tracking outstanding issues, conducting content analysis and developing recommendations to improve effectiveness of digital content and processes in place.</li>\n<li>Supporting the digital content lifecycle process.</li>\n<li>Provides advice on the web information architecture.</li>\n<li>Maintaining website content inventories and seeks to leverage content from other digital channels to improve effectiveness of AAFC\u2019s websites.</li>\n</ul>\n<p>The Digital Content Strategist we are looking for has strong plain language writing skills and a very good knowledge of GC standards and policies related to digital communications, including accessibility and web standards. He or She will also support the Information Architect and will be responsible to maintain web content inventories.</p>\n<p>Linguistic profile: B/B/B</p>\n<p>Employees are invited to indicate their interest by submitting their resumes with a brief presentation letter to Julie Emond, Team Leader, Digital Communications Planning, at Julie.emond3@canada.ca, by March 25, 2019.</p>\n<p>\u00a0</p>\n",
        "fr": "\n<p><strong>\u00a0</strong></p>\n<p><strong>Possibilit\u00e9 d\u2019affectation/nomination int\u00e9rimaire au niveau IS-04, strat\u00e8ge en contenu num\u00e9rique</strong></p>\n<p>L\u2019\u00e9quipe des Communications num\u00e9riques de la Direction g\u00e9n\u00e9rale des affaires publiques offre une affectation ou nomination int\u00e9rimaire d\u2019un an au niveau de titularisation IS-04 aux employ\u00e9s dans la r\u00e9gion de la capitale nationale avec possibilit\u00e9 de mutation. En tant que membre de l\u2019\u00e9quipe de la Planification des communications num\u00e9riques, le strat\u00e8ge en contenu num\u00e9rique fournira des conseils d\u2019expert \u00e0 l\u2019appui du contenu strat\u00e9gique, utilisable et utile affich\u00e9 sur les plateformes d\u2019AAC, y compris les sites Web du Minist\u00e8re.</p>\n<p>Voici des activit\u00e9s cl\u00e9s de ce poste IS-04 :</p>\n<ul>\n<li>Analyser du contenu afin de s\u2019assurer qu\u2019il r\u00e9pond aux besoins des utilisateurs et du Minist\u00e8re et respecte les normes et les priorit\u00e9s \u00e9tablies.</li>\n<li>Fournir une expertise et des conseils sur les sujets suivants : le langage clair et simple; les normes et les politiques du gouvernement du Canada li\u00e9es au contenu num\u00e9rique, y compris les sites Web; l\u2019accessibilit\u00e9.</li>\n<li>Faire le suivi de questions non r\u00e9gl\u00e9es, analyser du contenu et formuler des recommandations en vue d\u2019am\u00e9liorer l\u2019efficacit\u00e9 du contenu et des processus num\u00e9riques existants.</li>\n<li>Appuyer le processus du cycle de vie du contenu num\u00e9rique.</li>\n<li>Fournir des conseils sur l\u2019architecture d\u2019information Web.</li>\n<li>Tenir \u00e0 jour des r\u00e9pertoires de contenu Web et chercher \u00e0 utiliser le contenu d\u2019autres sources num\u00e9riques afin d\u2019am\u00e9liorer le contenu des sites Web d\u2019AAC.</li>\n</ul>\n<p>Le strat\u00e8ge en contenu num\u00e9rique que nous recherchons est particuli\u00e8rement dou\u00e9 pour la r\u00e9daction en langage clair et simple et a une tr\u00e8s bonne connaissance des normes et des politiques du gouvernement du Canada li\u00e9es aux communications num\u00e9riques, y compris les normes sur l\u2019accessibilit\u00e9 et le Web. De plus, le candidat retenu offrira un soutien \u00e0 l\u2019architecte de l\u2019information et sera responsable de la tenue \u00e0 jour de r\u00e9pertoires de contenu Web.</p>\n<p>Profil linguistique : BBB</p>\n<p>Les employ\u00e9s sont invit\u00e9s \u00e0 signifier leur int\u00e9r\u00eat en envoyant leur <em>curriculum vitae</em> et une br\u00e8ve lettre de pr\u00e9sentation \u00e0 Julie Emond, chef d\u2019\u00e9quipe, Planification des communications num\u00e9riques, \u00e0 Julie.emond3@canada.ca, d\u2019ici le 25 mars 2019.</p>\n<p>\u00a0</p>\n\n"
    },
    "breadcrumb": {
        "en": "Digital Content Strategist",
        "fr": "Strat\u00e8ge en contenu num\u00e9rique"
    },
    "empl": {
        "type": {
            "en": "Assignment, Acting",
            "fr": "Affectation, Int\u00e9rimaire"
        },
        "classification": {
            "en": "IS-4 and equivalent",
            "fr": "IS-4 et \u00e9quivalent"
        },
        "branch": {
            "en": "Public Affairs Branch",
            "fr": "Direction g\u00e9n\u00e9rale des affaires publiques"
        },
        "locations": {
            "en": "NCR",
            "fr": "R\u00e9gion de la capitale nationale"
        },
        "date_closing": {
            "en": "2019-03-25",
            "fr": "2019-03-25"
        },
        "open_to": {
            "en": "All AAFC employees",
            "fr": "Tous les employ\u00e9s d'AAC"
        },
        "name": {
            "en": "Julie Emond",
            "fr": "Julie Emond"
        },
        "email": {
            "en": "julie.emond3@canada.ca",
            "fr": "julie.emond3@canada.ca"
        }
    }
}