{
    "dcr_id": "1551795545176",
    "lang": "en",
    "title": {
        "en": "Information on Specimen Signature Records",
        "fr": "Information sur les fiches de sp\u00e9cimen de signature"
    },
    "modified": "2019-03-07 00:00:00.0",
    "issued": "2019-03-07 00:00:00.0",
    "type_name": "intra-intra/news-nouv",
    "node_id": "1279030006975",
    "layout_name": null,
    "dc_date_created": "2019-03-05",
    "breadcrumb_label": "",
    "meta": {
        "issued": {
            "en": "2019-03-07",
            "fr": "2019-03-07"
        },
        "modified": {
            "en": "2019-03-07",
            "fr": "2019-03-07"
        },
        "format": {
            "en": "gcformat",
            "fr": "gcformat"
        },
        "title": {
            "en": "Information on Specimen Signature Records",
            "fr": "Information sur les fiches de sp\u00e9cimen de signature"
        },
        "subject": {
            "en": "communications",
            "fr": "communications"
        },
        "description": {
            "en": "A Specimen Signature Record for Delegated Authorities is the departmental instrument by which a manager designates an individual to exercise signing authorities.",
            "fr": "La fiche de sp\u00e9cimen de signature pour les pouvoirs d\u00e9l\u00e9gu\u00e9s est l'instrument minist\u00e9riel utilis\u00e9 par les gestionnaires pour d\u00e9signer une personne qui exercera un pouvoir de signature."
        },
        "language": {
            "en": "eng",
            "fr": "fra"
        },
        "audience": {
            "en": "gcaudience",
            "fr": "gcaudience"
        },
        "creator": {
            "en": "Agriculture and Agri-Food Canada",
            "fr": "Agriculture et Agroalimentaire Canada"
        },
        "spatial": {
            "en": "gcregions",
            "fr": "gcregions"
        },
        "service": {
            "en": "AAFC_AgriSource",
            "fr": "AAC_AgriSource"
        },
        "accessRights": {
            "en": "3",
            "fr": "3"
        }
    },
    "body": {
        "en": "<br>\n<br>\n<p>A Specimen Signature Record (<abbr title=\"Specimen Signature Record\">SSR</abbr>) for Delegated Authorities is the departmental instrument by which a manager designates an individual to exercise signing authorities. The <abbr title=\"Specimen Signature Record\">SSR</abbr> unit is responsible for issuing and maintaining <abbr title=\"Specimen Signature Record\">SSR</abbr>s.</p>\n<p>The <a href=\"http://intranet.agr.gc.ca/agrisource/eng/branches-and-offices/corporate-management-branch/services/specimen-signature-record-for-delegated-authorities?id=1542224318391\"><abbr title=\"Specimen Signature Record\">SSR</abbr> AgriSource page</a>\u00a0is helpful to managers, new managers, executive assistants and financial advisors. This new page contains information on:</p>\n<ul>\n<li>the different types of <abbr title=\"Specimen Signature Record\">SSR</abbr>s</li>\n<li>how to obtain a <abbr title=\"Specimen Signature Record\">SSR</abbr></li>\n<li>how to activate a blanket <abbr title=\"Specimen Signature Record\">SSR</abbr> (assigned to acting positions)</li>\n<li>the required training</li>\n<li>how to access approved <abbr title=\"Specimen Signature Record\">SSR</abbr>s for verification purposes</li>\n<li>the <abbr title=\"Specimen Signature Record\">SSR</abbr> Unit service standards</li>\n</ul>\n<p>The Delegation of Financial Signing Authorities tool does not allow backdating when processing <abbr title=\"Specimen Signature Record\">SSR</abbr> requests. Therefore, you are encouraged to send your request before the start date of the required signing authority. For more information on the process, check out the new\u00a0<a href=\"http://intranet.agr.gc.ca/agrisource/eng/branches-and-offices/corporate-management-branch/services/specimen-signature-record-for-delegated-authorities?id=1542224318391\"><abbr title=\"Specimen Signature Record\">SSR</abbr> AgriSource page</a>.</p>\n<p>If you have any questions, please contact the <abbr title=\"Specimen Signature Record\">SSR</abbr> Unit (<a href=\"mailto:aafc.ssr-fss.aac@canada.ca\">aafc.ssr-fss.aac@canada.ca</a>).</p>\n\n\t\t",
        "fr": "<br>\n<br>\n<p>La fiche de sp\u00e9cimen de signature (<abbr title=\"fiche de sp\u00e9cimen de signature \">FSS</abbr>)\u00a0pour les pouvoirs d\u00e9l\u00e9gu\u00e9s est l\u2019instrument minist\u00e9riel utilis\u00e9 par les gestionnaires pour d\u00e9signer une personne qui exercera un pouvoir de signature. L\u2019Unit\u00e9 des <abbr title=\"fiche de sp\u00e9cimen de signature \">FSS</abbr> est charg\u00e9e d\u2019\u00e9mettre et de tenir \u00e0 jour les <abbr title=\"fiche de sp\u00e9cimen de signature \">FSS</abbr>.</p>\n<p>La <a href=\"http://intranet.agr.gc.ca/agrisource/fra/directions-generales-et-bureaux/direction-generale-de-la-gestion-integree/services/fiches-de-specimen-de-signature-pour-les-pouvoirs-delegues?id=1542224318391\">page des <abbr title=\"fiche de sp\u00e9cimen de signature \">FSS</abbr>\u00a0dans AgriSource</a>\u00a0est utile pour les gestionnaires \u00e9tablis, les nouveaux gestionnaires, les adjoints ex\u00e9cutifs et les conseillers financiers. Cette nouvelle page renferme des renseignements sur :</p>\n<ul>\n<li>les diff\u00e9rents types de <abbr title=\"fiche de sp\u00e9cimen de signature \">FSS</abbr></li>\n<li>la fa\u00e7on d\u2019obtenir une <abbr title=\"fiche de sp\u00e9cimen de signature \">FSS</abbr></li>\n<li>la fa\u00e7on d\u2019activer une <abbr title=\"fiche de sp\u00e9cimen de signature \">FSS</abbr> g\u00e9n\u00e9rale (attribu\u00e9e \u00e0 un poste int\u00e9rimaire)</li>\n<li>la formation indispensable</li>\n<li>l\u2019acc\u00e8s aux <abbr title=\"fiche de sp\u00e9cimen de signature \">FSS</abbr> approuv\u00e9es pour fin de v\u00e9rification</li>\n<li>les normes de\u00a0service de l\u2019Unit\u00e9 des <abbr title=\"fiche de sp\u00e9cimen de signature \">FSS</abbr></li>\n</ul>\n<p>L\u2019outil de d\u00e9l\u00e9gation des pouvoirs de signature en mati\u00e8re financi\u00e8re ne permet pas l\u2019antidatation lors du traitement des demandes de <abbr title=\"fiche de sp\u00e9cimen de signature \">FSS</abbr>. Par cons\u00e9quent, nous vous encourageons \u00e0 envoyer votre demande avant la date de d\u00e9but du pouvoir de signature requis. Pour plus d\u2019information sur le processus, veuillez consulter la nouvelle <a href=\"http://intranet.agr.gc.ca/agrisource/fra/directions-generales-et-bureaux/direction-generale-de-la-gestion-integree/services/fiches-de-specimen-de-signature-pour-les-pouvoirs-delegues?id=1542224318391\">page des <abbr title=\"fiche de sp\u00e9cimen de signature \">FSS</abbr>\u00a0dans AgriSource</a>.</p>\n<p>Si vous avez des questions, veuillez communiquer avec l\u2019Unit\u00e9 des <abbr title=\"fiche de sp\u00e9cimen de signature \">FSS</abbr>\u00a0(<a href=\"mailto:aafc.ssr-fss.aac@canada.ca\">aafc.ssr-fss.aac@canada.ca</a>).</p>\n\t\t"
    },
    "breadcrumb": {
        "en": "Information on Specimen Signature Records",
        "fr": "Information sur les fiches de sp\u00e9cimen de signature"
    },
    "news": {
        "date_posted": {
            "en": "2019-03-07",
            "fr": "2019-03-07"
        },
        "to": {
            "en": "All staff",
            "fr": "Tous les employ\u00e9s"
        },
        "by": {
            "en": "Finance and Resource Management Services, Corporate Management Branch",
            "fr": "Services des finances et de la gestion des ressources, Direction g\u00e9n\u00e9rale de la gestion int\u00e9gr\u00e9e"
        }
    }
}