{
    "dcr_id": "1551729737612",
    "lang": "en",
    "title": {
        "en": "Reminder - Indigenous Speaker Series - A Conversation with Rebecca Chartrand on Land Acknowledgements - March 21",
        "fr": "Rappel - S\u00e9rie de conf\u00e9rences autochtones - Conversation avec Rebecca Chartrand sur la reconnaissance des terres - 21 mars "
    },
    "modified": "2019-03-13 00:00:00.0",
    "issued": "2019-03-07 00:00:00.0",
    "type_name": "intra-intra/news-nouv",
    "node_id": "1279030006975",
    "layout_name": null,
    "dc_date_created": "2019-03-04",
    "breadcrumb_label": "Reminder - Indigenous Speaker Series - A Conversation with Rebecca Chartrand on Land...",
    "meta": {
        "issued": {
            "en": "2019-03-07",
            "fr": "2019-03-07"
        },
        "modified": {
            "en": "2019-03-13",
            "fr": "2019-03-13"
        },
        "format": {
            "en": "gcformat",
            "fr": "gcformat"
        },
        "title": {
            "en": "Reminder - Indigenous Speaker Series - A Conversation with Rebecca Chartrand on Land Acknowledgements - March 21",
            "fr": "Rappel - S\u00e9rie de conf\u00e9rences autochtones - Conversation avec Rebecca Chartrand sur la reconnaissance des terres - 21 mars "
        },
        "subject": {
            "en": "communications",
            "fr": "communications"
        },
        "description": {
            "en": "The Indigenous Support and Awareness Office, in collaboration with the Indigenous Agriculture Working Group, is hosting a series of distinguished guest speakers on various topics, such as the relationship of Indigenous Peoples to the land, including agricultural land.",
            "fr": "Le Bureau de soutien et de sensibilisation aux Autochtones, en collaboration avec le Groupe de travail sur l'agriculture autochtone, pr\u00e9sente une s\u00e9rie de conf\u00e9rences sur divers sujets, comme la relation entre les peuples et la terre, incluant l'agriculture"
        },
        "language": {
            "en": "eng",
            "fr": "fra"
        },
        "audience": {
            "en": "gcaudience",
            "fr": "gcaudience"
        },
        "creator": {
            "en": "Agriculture and Agri-Food Canada",
            "fr": "Agriculture et Agroalimentaire Canada"
        },
        "spatial": {
            "en": "gcregions",
            "fr": "gcregions"
        },
        "service": {
            "en": "AAFC_AgriSource",
            "fr": "AAC_AgriSource"
        },
        "accessRights": {
            "en": "3",
            "fr": "3"
        }
    },
    "body": {
        "en": "<br>\n<br>\n<p>The Indigenous Support and Awareness Office, in collaboration with the Indigenous Agriculture Working Group, is hosting a series of distinguished guest speakers on various topics, such as the relationship of Indigenous Peoples to the land, including agricultural land. The purpose of these talks is to encourage dialogue within AAFC on Indigenous issues, as well as to raise awareness of the history, culture, and current role in Canadian society of First Nations, M\u00e9tis, and Inuit.</p>\n<p>Come listen to Rebecca Chartrand, Executive Director of Indigenous Strategy at Red River College, in Winnipeg, who will explain the importance of territory acknowledgement, and help answer key questions such as:</p>\n<ul>\n<li>What is a land acknowledgement?</li>\n<li>How do I acknowledge the land and Peoples?</li>\n<li>How are territories defined?</li>\n<li>What do the Treaties represent?</li>\n<li>How should an acknowledgement be done?</li>\n<li>What does it signify?</li>\n</ul>\n<h2><strong>Event information</strong></h2>\n<p><strong>Date: </strong>Thursday, March 21<br><strong>Time: </strong>12:00 to 1:00 p.m. (CT)<br><strong>Language:</strong> English with a French summary<br><strong>Location: </strong>Winnipeg,<strong> </strong>303 Main Street, 3<sup>rd</sup> floor | Ottawa, NHCAP,<strong> </strong>T3-1-370 (by videoconference)<br><strong>Videoconference: </strong>611188991</p>\n<p>The event is taking place in Winnipeg, but is open to all employees. For more information or access to the building, please contact Jake Freeman (<a href=\"mailto:jake.freeman@canada.ca\">jake.freeman@canada.ca</a>). </p>\n<p>See you there!</p>\n<h2><img src=\"https://intranet.agr.gc.ca/resources/prod/news/images/RebeccaChartrand.png\" class=\"pull-left mrgn-rght-md\" alt=\"Rebecca Chartrand\">Speaker biography</h2>\n<p>Rebecca Chartrand is a proud member of the Anishinaabe, Inninew and M\u00e9tis Nations. She maintains strong community involvement through grassroots and volunteer efforts sitting on various boards and community organizations. In Seven Oaks, she worked to establish a strong internal infrastructure, bringing Seven Oaks School Division to the forefront of Aboriginal education. She is a founder of\u00a0the Council for Aboriginal Education in Manitoba and also founded the Aboriginal Circle of Educators Annual Aboriginal Education Awards.\n</p>\n\n\t\t",
        "fr": "<br>\n<br>\n<p>Le Bureau de soutien et de sensibilisation aux Autochtones, en collaboration avec le Groupe de travail sur l\u2019agriculture autochtone, pr\u00e9sente une s\u00e9rie de conf\u00e9rences sur divers sujets, comme la relation entre les peuples et la terre, incluant l\u2019agriculture. Ces conf\u00e9rences visent \u00e0 encourager le dialogue \u00e0 AAC, ainsi qu\u2019\u00e0 accro\u00eetre la sensibilisation \u00e0 l\u2019histoire, \u00e0 la culture et au r\u00f4le actuel des Premi\u00e8res Nations, des M\u00e9tis et des Inuits au sein de la soci\u00e9t\u00e9 canadienne.</p>\n<p>Venez \u00e9couter Rebecca Chartrand, directrice g\u00e9n\u00e9rale, Strat\u00e9gie autochtone au Coll\u00e8ge Red River, \u00e0 Winnipeg, qui expliquera l\u2019importance de la reconnaissance du territoire, et r\u00e9pondra \u00e0 des questions importantes, telles que :</p>\n<ul>\n<li>Qu\u2019est-ce que la reconnaissance des terres ancestrales?</li>\n<li>Comment reconna\u00eetre les terres et les peuples?</li>\n<li>Comment sont d\u00e9finis les territoires?</li>\n<li>Que repr\u00e9sentent les trait\u00e9s?</li>\n<li>Comment effectuer une reconnaissance?</li>\n<li>Quelle est leur signification?</li>\n</ul>\n<h2><strong><strong>Renseignements sur l\u2019\u00e9v\u00e9nement</strong></strong></h2>\n<p><strong>Date : </strong>Jeudi 21 mars<br><strong>Heure : </strong>12 h \u00e0 13 h (HC)<br><strong>Langue :</strong> Anglais avec\u00a0un r\u00e9sum\u00e9 en fran\u00e7ais<br><strong>Lieu : </strong>303, rue Main, 3<sup>e</sup> \u00e9tage, Winnipeg | Ottawa, CACPA, T3-1-370 (par vid\u00e9oconf\u00e9rence)<br><strong>Vid\u00e9oconf\u00e9rence</strong> <strong>: </strong>611188991</p>\n<p>L\u2019\u00e9v\u00e9nement a lieu \u00e0 Winnipeg, mais est ouvert \u00e0 tous les employ\u00e9s. Pour obtenir de plus amples renseignements, notamment en ce qui concerne l\u2019acc\u00e8s \u00e0 l\u2019\u00e9difice, veuillez communiquer avec Jake Freeman (<a href=\"mailto:jake.freeman@canada.ca\">jake.freeman@canada.ca</a>). </p>\n<p>Au plaisir de vous y voir!</p>\n<h2><img src=\"https://intranet.agr.gc.ca/resources/prod/news/images/RebeccaChartrand.png\" class=\"pull-left mrgn-rght-md\" alt=\"Rebecca Chartrand \">Biographie de la conf\u00e9renci\u00e8re</h2>\n<p>Rebecca Chartrand est fi\u00e8re d\u2019appartenir aux nations anishinaabe, inninew et m\u00e9tisses. Elle demeure fortement engag\u00e9e dans la collectivit\u00e9 gr\u00e2ce \u00e0 ses initiatives populaires et b\u00e9n\u00e9voles en si\u00e9geant \u00e0 divers comit\u00e9s d\u2019organismes communautaires. \u00c0 Seven Oaks, elle a \u0153uvr\u00e9 pour \u00e9tablir une solide infrastructure afin de mener la division scolaire Seven Oaks \u00e0 l\u2019avant-sc\u00e8ne de l\u2019\u00e9ducation autochtone. Elle compte parmi les fondateurs du Council for Aboriginal Education in Manitoba et a \u00e9galement fond\u00e9 les prix annuels de l\u2019\u00e9ducation autochtone du Aboriginal Circle of Educators.</p>\n\t\t"
    },
    "breadcrumb": {
        "en": "Reminder - Indigenous Speaker Series - A Conversation with Rebecca Chartrand on Land...",
        "fr": "Rappel - S\u00e9rie de conf\u00e9rences autochtones - Conversation avec Rebecca Chartrand sur la..."
    },
    "news": {
        "date_posted": {
            "en": "2019-03-07",
            "fr": "2019-03-07"
        },
        "to": {
            "en": "All staff",
            "fr": "Tous les employ\u00e9s"
        },
        "by": {
            "en": "Indigenous Support and Awareness Office",
            "fr": "Bureau de soutien et de sensibilisation aux Autochtones"
        }
    }
}