{
    "dcr_id": "1552997670109",
    "lang": "en",
    "title": {
        "en": "Reminder - Share Your Views on the Draft Public Service Accessibility Strategy",
        "fr": "Rappel - Partagez votre point de vue sur l'\u00e9bauche de la Strat\u00e9gie pour l'accessibilit\u00e9 dans la fonction publique"
    },
    "modified": "2019-03-27 00:00:00.0",
    "issued": "2019-03-21 00:00:00.0",
    "type_name": "intra-intra/news-nouv",
    "node_id": "1279030006975",
    "layout_name": null,
    "dc_date_created": "2019-03-19",
    "breadcrumb_label": "",
    "meta": {
        "issued": {
            "en": "2019-03-21",
            "fr": "2019-03-21"
        },
        "modified": {
            "en": "2019-03-27",
            "fr": "2019-03-27"
        },
        "format": {
            "en": "gcformat",
            "fr": "gcformat"
        },
        "title": {
            "en": "Reminder - Share Your Views on the Draft Public Service Accessibility Strategy",
            "fr": "Rappel - Partagez votre point de vue sur l'\u00e9bauche de la Strat\u00e9gie pour l'accessibilit\u00e9 dans la fonction publique"
        },
        "subject": {
            "en": "communications",
            "fr": "communications"
        },
        "description": {
            "en": "Don't miss this opportunity to help create the conditions for the Government of Canada to be the most accessible and inclusive public service in the world.",
            "fr": "Ne manquez pas cette occasion d'aider \u00e0 cr\u00e9er les conditions qui permettront au gouvernement du Canada de b\u00e9n\u00e9ficier de la fonction publique la plus accessible et la plus inclusive au monde."
        },
        "language": {
            "en": "eng",
            "fr": "fra"
        },
        "audience": {
            "en": "gcaudience",
            "fr": "gcaudience"
        },
        "creator": {
            "en": "Agriculture and Agri-Food Canada",
            "fr": "Agriculture et Agroalimentaire Canada"
        },
        "spatial": {
            "en": "gcregions",
            "fr": "gcregions"
        },
        "service": {
            "en": "AAFC_AgriSource",
            "fr": "AAC_AgriSource"
        },
        "accessRights": {
            "en": "3",
            "fr": "3"
        }
    },
    "body": {
        "en": "<br>\n<br>\n<p>Don\u2019t miss this opportunity to help create the conditions for the Government of Canada to be the most accessible and inclusive public service in the world. Follow the conversation at #LetsTalkAccessibility or feel free to provide feedback by e-mail at <a href=\"mailto:accessibility.accessibilite@tbs-sct.gc.ca\">accessibility.accessibilite@tbs-sct.gc.ca</a> or through our <a rel=\"external\" href=\"http://www.gcpedia.gc.ca/wiki/The_Office_of_Public_Service_Accessibility_/_Bureau_de_l%E2%80%99accessibilit%C3%A9_au_sein_de_la_fonction_publique?setlang=en&amp;uselang=en\">Office of Public Service Accessibility GCpedia page</a>.</p>\n<p>Employees can now provide their comments on the <a rel=\"external\" href=\"http://www.gcpedia.gc.ca/gcwiki/images/0/00/Public_Service_of_Canada_Accessibility_Strategy.docx\">draft strategy</a> through this <a rel=\"external\" href=\"https://questionnaire.simplesurvey.com/f/l/psas2-safp2?idlang=EN\">web-based survey</a> or review the questions in <a rel=\"external\" href=\"http://www.gcpedia.gc.ca/gcwiki/images/b/be/Phase_2_Consultation_Survey_-_clean_-_EN_%28002%29.docx\">Word format</a>, and respond by email at <a href=\"mailto:accessibility.accessibilite@tbs-sct.gc.ca\">accessibility.accessibilite@tbs-sct.gc.ca</a>. The survey will be open until close of business <strong>March 29</strong>.</p>\n<p>Since its creation last summer, the Office of Public Service Accessibility at Treasury Board Secretariat has been consulting with over 5,000 individuals and groups across Canada to develop a Public Service Accessibility Strategy.</p>\n<p>The proposed <em>Accessible Canada Act</em> has the potential to dramatically improve quality of life for Government of Canada employees with disabilities and to change the way we conduct our business.</p>\n<p><img src=\"https://intranet.agr.gc.ca/resources/prod/news/images/LetsTalkAccessibility-EN.png\" class=\"center-block\"></p>\n\n\t\t",
        "fr": "<br>\n<br>\n<p>Ne manquez pas cette occasion d\u2019aider \u00e0 cr\u00e9er les conditions qui permettront au gouvernement du Canada de b\u00e9n\u00e9ficier de la fonction publique la plus accessible et la plus inclusive au monde. Suivez la conversation \u00e0 #ParlonsAccessibilit\u00e9 ou faites parvenir vos commentaires par courriel \u00e0 <a href=\"mailto:accessibility.accessibilite@tbs-sct.gc.ca\">accessibility.accessibilite@tbs-sct.gc.ca</a>, ou par l\u2019interm\u00e9diaire de la <a rel=\"external\" href=\"http://www.gcpedia.gc.ca/wiki/The_Office_of_Public_Service_Accessibility_/_Bureau_de_l%E2%80%99accessibilit%C3%A9_au_sein_de_la_fonction_publique?setlang=fr&amp;uselang=fr\">page GCp\u00e9dia du Bureau de l\u2019accessibilit\u00e9 de la fonction publique</a>.</p>\n<p>Les employ\u00e9s peuvent maintenant transmettre leurs commentaires sur l\u2019<a rel=\"external\" href=\"http://www.gcpedia.gc.ca/gcwiki/images/a/ab/Strat%C3%A9gie_sur_l%27accessibilit%C3%A9.docx\">\u00e9bauche de la Strat\u00e9gie</a> au moyen d\u2019un <a rel=\"external\" href=\"https://questionnaire.simplesurvey.com/f/l/psas2-safp2?idlang=FR\">sondage en ligne</a> ou de consulter les questions en <a rel=\"external\" href=\"http://www.gcpedia.gc.ca/gcwiki/images/3/3b/Phase_2_Consultation_Survey_-_clean_-_FR_%28002%29.docx\">format Word</a> et nous r\u00e9pondre par courriel \u00e0 <a href=\"mailto:accessibility.accessibilite@tbs-sct.gc.ca\">accessibility.accessibilite@tbs-sct.gc.ca</a>. Le sondage sera ouvert jusqu\u2019\u00e0 la fermeture des bureaux le <strong>29 mars</strong>.</p>\n<p>Depuis sa cr\u00e9ation l\u2019\u00e9t\u00e9 dernier, le Bureau de l\u2019accessibilit\u00e9 au sein de la fonction publique du Secr\u00e9tariat du Conseil du Tr\u00e9sor a consult\u00e9 plus de 5 000 personnes et groupes partout au Canada pour qu\u2019ils participent \u00e0 l\u2019\u00e9laboration de la Strat\u00e9gie pour l\u2019accessibilit\u00e9 dans la fonction publique.</p>\n<p>La <em>Loi canadienne sur l\u2019accessibilit\u00e9</em> pourrait grandement am\u00e9liorer la qualit\u00e9 de vie des employ\u00e9s handicap\u00e9s du gouvernement du Canada et changer la fa\u00e7on dont nous menons nos activit\u00e9s.</p>\n<p><img src=\"https://intranet.agr.gc.ca/resources/prod/news/images/LetsTalkAccessibility-FR.png\" class=\"center-block\"></p>\n\t\t"
    },
    "breadcrumb": {
        "en": "Reminder - Share Your Views on the Draft Public Service Accessibility Strategy",
        "fr": "Rappel - Partagez votre point de vue sur l'\u00e9bauche de la Strat\u00e9gie pour l'accessibilit\u00e9 dans la..."
    },
    "news": {
        "date_posted": {
            "en": "2019-03-21",
            "fr": "2019-03-21"
        },
        "to": {
            "en": "All staff",
            "fr": "Tous les employ\u00e9s"
        },
        "by": {
            "en": "Treasury Board of Canada Secretariat",
            "fr": "Secr\u00e9tariat du Conseil du Tr\u00e9sor du Canada"
        }
    }
}