{
    "dcr_id": "1552064056806",
    "lang": "en",
    "title": {
        "en": "Reminder - 2019 Elections - Political Activities of Federal Public Servants",
        "fr": "Rappel - \u00c9lections en 2019 - Activit\u00e9s politiques des fonctionnaires f\u00e9d\u00e9raux"
    },
    "modified": "2019-06-05 00:00:00.0",
    "issued": "2019-03-14 00:00:00.0",
    "type_name": "intra-intra/news-nouv",
    "node_id": "1279030006975",
    "layout_name": null,
    "dc_date_created": "2019-03-08",
    "breadcrumb_label": "",
    "meta": {
        "issued": {
            "en": "2019-03-14",
            "fr": "2019-03-14"
        },
        "modified": {
            "en": "2019-06-05",
            "fr": "2019-06-05"
        },
        "format": {
            "en": "gcformat",
            "fr": "gcformat"
        },
        "title": {
            "en": "Reminder - 2019 Elections - Political Activities of Federal Public Servants",
            "fr": "Rappel - \u00c9lections en 2019 - Activit\u00e9s politiques des fonctionnaires f\u00e9d\u00e9raux"
        },
        "subject": {
            "en": "communications",
            "fr": "communications"
        },
        "description": {
            "en": "Various elections will be held across Canada in 2019.",
            "fr": "Plusieurs \u00e9lections seront tenues au Canada en 2019."
        },
        "language": {
            "en": "eng",
            "fr": "fra"
        },
        "audience": {
            "en": "gcaudience",
            "fr": "gcaudience"
        },
        "creator": {
            "en": "Agriculture and Agri-Food Canada",
            "fr": "Agriculture et Agroalimentaire Canada"
        },
        "spatial": {
            "en": "gcregions",
            "fr": "gcregions"
        },
        "service": {
            "en": "AAFC_AgriSource",
            "fr": "AAC_AgriSource"
        },
        "accessRights": {
            "en": "3",
            "fr": "3"
        }
    },
    "body": {
        "en": "<br>\n<br>\n<p>Various\u00a0<a rel=\"external\" href=\"https://fin.us9.list-manage.com/track/click?u=47940d12496e80271d6c2c7c2&amp;id=a4a2205acb&amp;e=9e6087af1c\">elections</a>\u00a0will be held across Canada in 2019.\u00a0If you are thinking about participating in a political activity during the federal election (and/or a provincial, territorial or municipal election), it is important for you to know your legal rights and responsibilities.\u00a0As a federal public service employee, you have the right to engage in\u00a0<a rel=\"external\" href=\"https://fin.us9.list-manage.com/track/click?u=47940d12496e80271d6c2c7c2&amp;id=bcd8ab0dd2&amp;e=9e6087af1c\">political activities</a>\u00a0as long as it does not impair, or is not perceived as impairing, your ability to perform your duties in a politically impartial manner.</p>\n<h2>\n<strong>Are you considering participating in political activities?</strong></h2>\n<p>Before supporting or opposing\u00a0a candidate or a political party, get informed and\u00a0try out\u00a0this <a rel=\"external\" href=\"https://www.canada.ca/en/public-service-commission/services/political-activities/other-political-activities/suite-of-tools-related-to-other-political-activities.html\">Suite of Tools</a>.\u00a0\u00a0</p>\n<h2>\n<strong>Interested in being a candidate in a federal, provincial, territorial or municipal election?</strong></h2>\n<p>Before you become a candidate, you must first\u00a0<a rel=\"external\" href=\"https://fin.us9.list-manage.com/track/click?u=47940d12496e80271d6c2c7c2&amp;id=4be78d137d&amp;e=9e6087af1c\">request and obtain permission</a>\u00a0from the Public Service Commission (<abbr title=\"Public Service Commission\">PSC</abbr>) and, possibly, obtain a\u00a0leave without pay.</p>\n<ul>\n<li><a rel=\"external\" href=\"https://www.canada.ca/en/public-service-commission/services/political-activities/other-political-activities.html#other-pa\">Video:\u00a0Political activities: Make an informed decision!</a></li>\n</ul>\n<h2>\n<strong>Still have questions?</strong></h2>\n<p>You may wish to speak to your manager or to the AAFC\u2019s Designated Political Activities Representative through <a href=\"mailto:aafc.politicalactivities-activitespolitiques.aac@canada.ca\">aafc.politicalactivities-activitespolitiques.aac@canada.ca</a> by phone at 1-866-894-5464 (toll-free)\u00a0or visit the\u00a0<a rel=\"external\" href=\"https://fin.us9.list-manage.com/track/click?u=47940d12496e80271d6c2c7c2&amp;id=8b07bf1a5f&amp;e=9e6087af1c\"><abbr title=\"Public Service Commission\">PSC\u2019</abbr>s Political Activities website</a>.<br><br>Your co-operation is essential in maintaining the political impartiality of the federal public service and maintaining public confidence in its integrity and professionalism.</p>\n\n\t\t",
        "fr": "<br>\n<br>\n<p>Plusieurs\u00a0<a rel=\"external\" href=\"https://fin.us9.list-manage.com/track/click?u=47940d12496e80271d6c2c7c2&amp;id=f9922acf6b&amp;e=9e6087af1c\">\u00e9lections</a>\u00a0seront tenues au Canada en 2019.\u00a0Si vous songez \u00e0 participer \u00e0 une activit\u00e9 politique pendant l\u2019\u00e9lection f\u00e9d\u00e9rale (et/ou une \u00e9lection provinciale, territoriale ou municipale), il est important de bien conna\u00eetre vos responsabilit\u00e9s et droits l\u00e9gaux.\u00a0\u00c0 titre de\u00a0fonctionnaire f\u00e9d\u00e9ral, vous avez le droit de vous livrer \u00e0 des\u00a0<a rel=\"external\" href=\"https://fin.us9.list-manage.com/track/click?u=47940d12496e80271d6c2c7c2&amp;id=62da68c69b&amp;e=9e6087af1c\">activit\u00e9s politiques</a>\u00a0\u00e0 condition que ces activit\u00e9s ne portent pas ou ne semblent pas porter atteinte \u00e0 votre capacit\u00e9 d\u2019exercer vos fonctions de fa\u00e7on politiquement impartiale.\u00a0</p>\n<h2><strong>Songez-vous \u00e0 participer \u00e0 des activit\u00e9s politiques?</strong></h2>\n<p>Avant d\u2019appuyer\u00a0un candidat ou un parti politique ou de vous y opposer,\u00a0informez-vous de vos droits\u00a0en consultant\u00a0<a rel=\"external\" href=\"https://fin.us9.list-manage.com/track/click?u=47940d12496e80271d6c2c7c2&amp;id=fb922b5c0b&amp;e=9e6087af1c\">ces outils</a>.</p>\n<h2><strong>Souhaitez-vous vous porter candidat\u00a0\u00e0 une \u00e9lection\u00a0f\u00e9d\u00e9rale, provinciale, territoriale ou municipale?</strong></h2>\n<p>Avant de vous porter candidat, vous devez\u00a0<a rel=\"external\" href=\"https://fin.us9.list-manage.com/track/click?u=47940d12496e80271d6c2c7c2&amp;id=77c25174d4&amp;e=9e6087af1c\">demander et obtenir au pr\u00e9alable la permission</a>\u00a0de la Commission de la fonction publique (<abbr title=\"Commission de la fonction publique\">CFP</abbr>) et possiblement devoir prendre un\u00a0cong\u00e9 sans solde.</p>\n<ul>\n<li><a rel=\"external\" href=\"https://www.canada.ca/fr/commission-fonction-publique/services/activites-politiques/autres-activites-politiques.html#autres-ap\">Vid\u00e9o \u2013 Activit\u00e9s politiques\u00a0: Prenez une\u00a0d\u00e9cision \u00e9clair\u00e9e!</a></li>\n</ul>\n<h2>\n<strong>Avez-vous des questions?</strong></h2>\n<p>Vous pouvez en discuter avec votre gestionnaire ou avec la repr\u00e9sentante d\u00e9sign\u00e9e en mati\u00e8re d\u2019activit\u00e9s politiques du minist\u00e8re par courriel \u00e0 <a href=\"mailto:aafc.politicalactivities-activitespolitiques.aac@canada.ca\">aafc.politicalactivities-activitespolitiques.aac@canada.ca</a>,\u00a0par t\u00e9l\u00e9phone au 1-866-894-5464 ou consulter le\u00a0<a rel=\"external\" href=\"https://fin.us9.list-manage.com/track/click?u=47940d12496e80271d6c2c7c2&amp;id=8313fc2e58&amp;e=9e6087af1c\">site Web de la <abbr title=\"Commission de la fonction publique\">CFP</abbr> sur les activit\u00e9s politiques</a>.</p>\n<p>Votre collaboration est essentielle pour pr\u00e9server l\u2019impartialit\u00e9 politique de la fonction publique f\u00e9d\u00e9rale et maintenir la confiance du public \u00e0 l\u2019\u00e9gard de l\u2019int\u00e9grit\u00e9 et du professionnalisme de cette derni\u00e8re.\u00a0</p>\n\t\t"
    },
    "breadcrumb": {
        "en": "Reminder - 2019 Elections - Political Activities of Federal Public Servants",
        "fr": "Rappel - \u00c9lections en 2019 - Activit\u00e9s politiques des fonctionnaires f\u00e9d\u00e9raux"
    },
    "news": {
        "date_posted": {
            "en": "2019-03-14",
            "fr": "2019-03-14"
        },
        "to": {
            "en": "All staff",
            "fr": "Tous les employ\u00e9s"
        },
        "by": {
            "en": "Patrick Borbey, President, Public Service Commission",
            "fr": "Patrick Borbey, pr\u00e9sident, Commission de la fonction publique"
        }
    }
}