{
    "dcr_id": "1552321993403",
    "lang": "en",
    "title": {
        "en": "International Day for the Elimination of Racial Discrimination - March 21",
        "fr": "Journ\u00e9e internationale pour l'\u00e9limination de la discrimination raciale - 21 mars"
    },
    "modified": "2019-03-22 00:00:00.0",
    "issued": "2019-03-21 00:00:00.0",
    "type_name": "intra-intra/news-nouv",
    "node_id": "1279030006975",
    "layout_name": null,
    "dc_date_created": "2019-03-11",
    "breadcrumb_label": "",
    "meta": {
        "issued": {
            "en": "2019-03-21",
            "fr": "2019-03-21"
        },
        "modified": {
            "en": "2019-03-22",
            "fr": "2019-03-21"
        },
        "format": {
            "en": "gcformat",
            "fr": "gcformat"
        },
        "title": {
            "en": "International Day for the Elimination of Racial Discrimination - March 21",
            "fr": "Journ\u00e9e internationale pour l'\u00e9limination de la discrimination raciale - 21 mars"
        },
        "subject": {
            "en": "communications",
            "fr": "communications"
        },
        "description": {
            "en": "Each year on March 21, people around the world commemorate the anniversary of police firing on anti-apartheid protesters in the South African township of Sharpeville in 1960, killing 69 people.",
            "fr": "Chaque ann\u00e9e, le 21 mars, le monde entier souligne l'anniversaire des \u00e9v\u00e9nements de Sharpeville, un township d'Afrique du Sud o\u00f9 la police a ouvert le feu sur des manifestants antiapartheid en 1960, tuant 69 d'entre eux."
        },
        "language": {
            "en": "eng",
            "fr": "fra"
        },
        "audience": {
            "en": "gcaudience",
            "fr": "gcaudience"
        },
        "creator": {
            "en": "Agriculture and Agri-Food Canada",
            "fr": "Agriculture et Agroalimentaire Canada"
        },
        "spatial": {
            "en": "gcregions",
            "fr": "gcregions"
        },
        "service": {
            "en": "AAFC_AgriSource",
            "fr": "AAC_AgriSource"
        },
        "accessRights": {
            "en": "3",
            "fr": "3"
        }
    },
    "body": {
        "en": "<br>\n<br>\n<p>Each year on March 21, people around the world commemorate the anniversary of police firing on anti-apartheid protesters in the South African township of Sharpeville in 1960, killing 69 people. The United Nations (<abbr title=\"United Nations\">UN</abbr>) proclaimed the <a rel=\"external\" href=\"http://www.un.org/en/events/racialdiscriminationday/\">International Day for the Elimination of Racial Discrimination</a> in 1966. It became a day to reflect on the progress made and the continuous effort required to eliminate all forms of racial discrimination around the world.</p>\n<p>In 1989, Canada, one of the first countries to support the <abbr title=\"United Nations\">UN</abbr> declaration, launched its annual March 21 Campaign to heighten awareness about the harmful effects of racism and foster respect for equality and diversity.</p>\n<p>At AAFC, we celebrate diversity and inclusiveness, and we reaffirm our commitment to create a respectful workplace and a culture without discrimination based on race, national or ethnic origin, colour, religion, sex, age, sexual orientation, gender identity or expression, marital status, family status, genetic characteristics, or disability.</p>\n<p>To learn\u00a0more about AAFC\u2019s Diversity Networks, including the Visible Minorities Network, and find how out you can get involved and participate in upcoming events, visit\u00a0the <a rel=\"external\" href=\"https://collab.agr.gc.ca/co/eedi-emedi/SitePages/Home.aspx\">Diversity and Inclusion site on Knowledge Workspace</a>.</p>\n<p><img src=\"https://intranet.agr.gc.ca/resources/prod/news/images/VisbleMinoritiesNetwork-EN2019.png\" class=\"center-block\"></p>\n\n\t\t",
        "fr": "<br>\n<br>\n<p>Chaque ann\u00e9e, le 21 mars, le monde entier souligne l\u2019anniversaire des \u00e9v\u00e9nements de Sharpeville, un township d\u2019Afrique du Sud o\u00f9 la police a ouvert le feu sur des manifestants antiapartheid en 1960, tuant 69 d\u2019entre eux. L\u2019Organisation des Nations Unies (<abbr title=\"Organisation des Nations Unies \">ONU</abbr>) a proclam\u00e9 la <a rel=\"external\" href=\"http://www.un.org/fr/events/racialdiscriminationday/\">Journ\u00e9e internationale pour l\u2019\u00e9limination de la discrimination raciale</a> en 1966. Cette journ\u00e9e-l\u00e0, on examine les progr\u00e8s accomplis et on r\u00e9fl\u00e9chit aux efforts constants \u00e0 d\u00e9ployer pour \u00e9liminer toutes les formes de discrimination raciale \u00e0 l\u2019\u00e9chelle mondiale.</p>\n<p>En 1989, le Canada, un des premiers pays \u00e0 soutenir la d\u00e9claration de l\u2019<abbr title=\"Organisation des Nations Unies \">ONU</abbr>, a lanc\u00e9 sa premi\u00e8re campagne du 21 mars pour accro\u00eetre le niveau de sensibilisation aux effets pr\u00e9judiciables du racisme et pour favoriser le respect de l\u2019\u00e9galit\u00e9 et de la diversit\u00e9.</p>\n<p>\u00c0 AAC, nous c\u00e9l\u00e9brons la diversit\u00e9 et l\u2019inclusivit\u00e9, et nous r\u00e9it\u00e9rons notre engagement \u00e0 cr\u00e9er un milieu de travail respectueux et une culture d\u00e9nu\u00e9e de discrimination fond\u00e9e sur la race, l\u2019origine nationale ou ethnique, la couleur de la peau, la religion, le sexe, l\u2019\u00e2ge, l\u2019orientation sexuelle, l\u2019identit\u00e9 sexuelle, l\u2019expression de genre, l\u2019\u00e9tat matrimonial, la situation de famille, les caract\u00e9ristiques g\u00e9n\u00e9tiques ou les handicaps.</p>\n<p>Renseignez-vous sur les r\u00e9seaux de la diversit\u00e9 d\u2019AAC, y compris le R\u00e9seau des minorit\u00e9s visibles, et d\u00e9couvrez comment vous pouvez jouer un r\u00f4le et participer aux prochaines activit\u00e9s en visitant le <a rel=\"external\" href=\"https://collab.agr.gc.ca/co/eedi-emedi/SitePages/Home.aspx\">site sur la diversit\u00e9 et l'inclusivit\u00e9 dans l'Espace de travail du savoir</a>.</p>\n<p><img src=\"https://intranet.agr.gc.ca/resources/prod/news/images/VisbleMinoritiesNetwork-FR2019.png\" class=\"center-block\"></p>\n\t\t"
    },
    "breadcrumb": {
        "en": "International Day for the Elimination of Racial Discrimination - March 21",
        "fr": "Journ\u00e9e internationale pour l'\u00e9limination de la discrimination raciale - Le 21 mars"
    },
    "news": {
        "date_posted": {
            "en": "2019-03-21",
            "fr": "2019-03-21"
        },
        "to": {
            "en": "All staff",
            "fr": "Tous les employ\u00e9s"
        },
        "by": {
            "en": "Visible Minorities Network",
            "fr": "R\u00e9seau des minorit\u00e9s visibles"
        }
    }
}