{
    "dcr_id": "1552497438164",
    "lang": "en",
    "title": {
        "en": "Scheduled Maintenance of ISB Services - March 24-27",
        "fr": "Entretien pr\u00e9vu des services de la DGSI - 24 et 27 mars"
    },
    "modified": "2019-03-20 00:00:00.0",
    "issued": "2019-03-20 00:00:00.0",
    "type_name": "intra-intra/news-nouv",
    "node_id": "1279030006975",
    "layout_name": null,
    "dc_date_created": "2019-03-14",
    "breadcrumb_label": "",
    "meta": {
        "issued": {
            "en": "2019-03-20",
            "fr": "2019-03-20"
        },
        "modified": {
            "en": "2019-03-20",
            "fr": "2019-03-20"
        },
        "format": {
            "en": "gcformat",
            "fr": "gcformat"
        },
        "title": {
            "en": "Scheduled Maintenance of ISB Services - March 24-27",
            "fr": "Entretien pr\u00e9vu des services de la DGSI - 24 et 27 mars"
        },
        "subject": {
            "en": "communications",
            "fr": "communications"
        },
        "description": {
            "en": "Please be advised that preventative maintenance of ISB services will be performed between Sunday, March 24 and Wednesday, March 27, 2019.",
            "fr": "Veuillez noter qu'un entretien pr\u00e9ventif des services de la DGSI aura lieu le dimanche 24 mars et le mercredi 27 mars 2019."
        },
        "language": {
            "en": "eng",
            "fr": "fra"
        },
        "audience": {
            "en": "gcaudience",
            "fr": "gcaudience"
        },
        "creator": {
            "en": "Agriculture and Agri-Food Canada",
            "fr": "Agriculture et Agroalimentaire Canada"
        },
        "spatial": {
            "en": "gcregions",
            "fr": "gcregions"
        },
        "service": {
            "en": "AAFC_AgriSource",
            "fr": "AAC_AgriSource"
        },
        "accessRights": {
            "en": "3",
            "fr": "3"
        }
    },
    "body": {
        "en": "<br>\n<br>\n<p>Please be advised that preventative maintenance of ISB services will be performed between Sunday, March 24 and Wednesday, March 27, 2019.\u00a0</p>\n<p>These measures are performed regularly to improve performance and to ensure that the department does not experience any outages that would affect employees and the delivery of our services.</p>\n<p>Consequently, the services below will not be available during the following times.</p>\n<p><strong>Sunday, March 24 \u2013 3:00 a.m. until 8:00 a.m. (ET)</strong></p>\n<ul>\n<li>Cognos Business Intelligence Gateway</li>\n</ul>\n<p><strong>Wednesday, March 27 \u2013 8:00 p.m. until 11:00 p.m. (ET)</strong></p>\n<ul>\n<li>AAFC Online</li>\n<li>\nAgriSource</li>\n</ul>\n<p>Should you have any questions or concerns, please do not hesitate to contact IT Centre TI.</p>\n<p>\u00a0</p>\n<p><strong>IT Centre TI</strong><br>\nTelephone: 1-855-545-4411<br>\n<a rel=\"external\" href=\"http://assystweb:8080/assystnet/\">My IT Centre TI</a></p>\n<p><img src=\"https://intranet.agr.gc.ca/resources/prod/news/images/ITCentreTI2.png\" class=\"center-block\"></p>\n\n\t\t",
        "fr": "<br>\n<br>\n<p>Veuillez noter qu\u2019un entretien pr\u00e9ventif des services de la DGSI aura lieu le dimanche 24 mars et le mercredi 27 mars 2019.</p>\n<p>Ce type d\u2019entretien est effectu\u00e9 r\u00e9guli\u00e8rement afin d\u2019am\u00e9liorer le rendement et de pr\u00e9venir toute panne pouvant avoir des r\u00e9percussions sur les employ\u00e9s et la prestation des services du Minist\u00e8re.</p>\n<p>En cons\u00e9quence, les services suivants ne seront pas accessibles au cours des p\u00e9riodes suivantes :</p>\n<p><strong>Dimanche 24 mars, de 3 h \u00e0 8 h (HE)</strong></p>\n<ul>\n<li>Portail d\u2019information de gestion Cognos</li>\n</ul>\n<p><strong>Mercredi 27 mars, de 20 h \u00e0 23 h (HE)</strong></p>\n<ul>\n<li>AAC en direct</li>\n<li>\nAgriSource</li>\n</ul>\n<p>Si vous avez des questions ou des pr\u00e9occupations, n\u2019h\u00e9sitez pas \u00e0 communiquer avec IT Centre TI.</p>\n<p>\u00a0</p>\n<p><strong>IT Centre TI</strong><br>\nT\u00e9l\u00e9phone : 1-855-545-4411<br>\n<a rel=\"external\" href=\"http://assystweb:8080/assystnet/#homepage\">Mon IT Centre TI</a></p>\n<p><img src=\"https://intranet.agr.gc.ca/resources/prod/news/images/ITCentreTI2.png\" class=\"center-block\"></p>\n\t\t"
    },
    "breadcrumb": {
        "en": "Scheduled Maintenance of ISB Services - March 24-27",
        "fr": "Entretien pr\u00e9vu des services de la DGSI - 24 et 27 mars"
    },
    "news": {
        "date_posted": {
            "en": "2019-03-20",
            "fr": "2019-03-20"
        },
        "to": {
            "en": "All staff",
            "fr": "Tous les employ\u00e9s"
        },
        "by": {
            "en": "IT Centre TI",
            "fr": "IT Centre TI"
        }
    }
}