{
    "dcr_id": "1552679321672",
    "lang": "en",
    "title": {
        "en": " Policy Analyst ",
        "fr": "Analyste des politiques"
    },
    "modified": "2019-03-21 00:00:00.0",
    "issued": "2019-03-21 00:00:00.0",
    "type_name": "intra-intra/empl-empl",
    "node_id": "1279029955397",
    "layout_name": null,
    "dc_date_created": "2019-03-18",
    "breadcrumb_label": "",
    "meta": {
        "issued": {
            "en": "2019-03-21",
            "fr": "2019-03-21"
        },
        "modified": {
            "en": "2019-03-21",
            "fr": "2019-03-21"
        },
        "format": {
            "en": "gcformat",
            "fr": "gcformat"
        },
        "title": {
            "en": " Policy Analyst ",
            "fr": "Analyste des politiques"
        },
        "subject": {
            "en": "staffing",
            "fr": "dotation en personnel"
        },
        "language": {
            "en": "eng",
            "fr": "fra"
        },
        "audience": {
            "en": "gcaudience",
            "fr": "gcaudience"
        },
        "type": {
            "en": "notice",
            "fr": "avis"
        },
        "creator": {
            "en": "Agriculture and Agri-Food Canada",
            "fr": "Agriculture et Agroalimentaire Canada"
        },
        "spatial": {
            "en": "gcregions",
            "fr": "gcregions"
        },
        "service": {
            "en": "AAFC_AgriSource",
            "fr": "AAC_AgriSource"
        },
        "accessRights": {
            "en": "3",
            "fr": "3"
        }
    },
    "body": {
        "en": "\n<p><strong>\u00a0\u00a0</strong></p>\n<p>The Farm Products Council of Canada is looking for an organized and self-motivated individual for an assignment and or deployment, at level, for a period of one (1)\u00a0year, with the possibility of extension or deployment. This position offers the opportunity to develop expertise in two different fields: regulatory services and data analysis.<br>\n<br>\nThe successful candidate will have strong analytical skills and must be detail-oriented. He/she will be able to establish and maintain a network and have the ability to work with federal, provincial and industry stakeholders. Specific tasks include the preparation of documents required fort the regulatory process, frequent communication with federal, provincial and industry stakeholders and data management and analysis.</p>\n<p>\u00a0</p>\n<p><strong>Duties:</strong><em> </em></p>\n<p>\u00a0</p>\n<p><b>1. Regulatory</b></p>\n<p>Research and assessment of regulatory instruments under the Agricultural Products Marketing Act (APMA) to ensure consistency, coherence and development of recommendations for amendments;</p>\n<p>Liaison with provincial and federal agricultural authorities, Justice Canada and Treasury Board Secretariat throughout the regulatory process and preparation of all necessary documentation and reports;</p>\n<p>Analysis and interpretation of complex legislative and regulatory information from different jurisdictions (provincial and federal); development of recommendations for regulatory amendments which allow for the correction of any identified problems.</p>\n<p>Development and preparation of discussion papers, briefing notes, presentations, regulatory amendments, triage and RIAS statements and editing and production of schedules and reports.</p>\n<p>\u00a0</p>\n<p><b>2. Data analysis\n</b></p>\n<p>Organization and administration of the collection, analysis, quality control, validation and presentation of relevant data and information.</p>\n<p>Detailed and complex research, quality control, validation, presentation and evaluation of information and use of databases as well as analysis and validation of underlying assumptions to support conclusions</p>\n<p>Identification, monitoring, integration and reporting of information and data on relevant trends, issues and developments and assessment of the significance and implication to agricultural sectors.</p>\n<p>\u00a0</p>\n<p><strong>About Farm Products Council of Canada</strong></p>\n<p>The Farm Products Council of Canada (FPCC)\u00a0is an oversight body which provide oversight of the national supply management agencies for poultry and eggs, as well as to supervise national promotion and research agencies for farm products reporting to the Minister of Agriculture. In addition, the FPCC has also been charged with administering the Agricultural Products Marketing Act (APMA) on behalf of Agri-Food and Agriculture Canada (AAFC). The APMA allows the federal government to delegate its authorities over interprovincial and export trade to provincial commodity boards on a wide range of farm products.</p>\n<p>FPCC is located on the Experimental Farm and as a small federal organization, offers a friendly work environment where employees competencies can make a real difference.</p>\n<p>\u00a0</p>\n<p><strong>Statement of Merit Criteria &amp; Conditions of Employment</strong></p>\n<p>\u00a0</p>\n<p><strong>Essential Qualifications</strong></p>\n<p>\u00a0</p>\n<p><b>Education</b></p>\n<p>Graduation with a degree from a recognized post-secondary institution in economics, commerce, business or an acceptable combination of education, training and/or experience relevant to the position.</p>\n<p>\u00a0</p>\n<p><b>Experience</b></p>\n<p>Significant experience* in working with regulatory and/or data management and analysis matters.</p>\n<p>Experience in identifying, researching, analyzing and writing briefs and reports related to regulatory or other relevant fields.</p>\n<p>Experience in establishing and maintaining effective relationships with federal and provincial government and other stakeholders.</p>\n<p>\u00a0</p>\n<p>*Significant experience means experience that is a core part of the candidate\u2019s employment for a period of time that would provide the depth and breadth of experience normally obtained over the course of at least two (2) years.</p>\n<p>\u00a0</p>\n<p><b>Knowledge</b></p>\n<p>Knowledge of the Government of Canada Regulatory process and documentation requirements.</p>\n<p>Knowledge of data management and analysis</p>\n<p>\u00a0</p>\n<p><b>Competencies</b></p>\n<p>Analytical Thinking\u00a0<br><br>\nRelationship Building<br>\n<br>Strategic Thinking</p>\n<p>Team work</p>\n<p>Writing Skills</p>\n<p>\u00a0</p>\n<p><strong>Official Language Proficiency</strong>:</p>\n<p>Various \u2013 English Essential, Bilingual Imperative BBB/BBB\u00a0</p>\n<p>\u00a0</p>\n<h3><strong>Organizational Needs</strong></h3>\n<p>In support of achieving a diversified workforce, consideration may be given to candidates self-identifying as belonging to one of the following Employment Equity groups: Aboriginal peoples, Persons with a Disability; Visible Minorities, Women.</p>\n<p>\u00a0</p>\n<p><strong>Conditions of Employment</strong><strong> </strong></p>\n<p>Security status: Secret</p>\n<p>Ability and willingness to work overtime</p>\n<p>\u00a0</p>\n<p><strong>Applications:</strong></p>\n<p>If you are interested in this position, please provide:</p>\n<ul>\n<li>A short letter (2 pages maximum) expressing the reason for your interest, and outlining the skills and experience that you would bring to the position;</li>\n<li>Your resume;</li>\n<li>Your tenure (e.g., term or indeterminate);</li>\n<li>Your substantive group and level;</li>\n</ul>\n<p>\u00a0</p>\n<p>Interested AAFC employees are encouraged to forward their resume and cover letter to Bill Edwardson at <a href=\"mailto:William.edwardson@canada.ca\">William.edwardson@canada.ca</a></p>\n<p>If you have any questions or would like more information, please contact Bill Edwardson at <a href=\"mailto:William.edwardson@canada.ca\">William.edwardson@canada.ca</a> or 613-759-1589.</p>\n<p>\u00a0</p>\n<p><strong>Notes:</strong></p>\n<p>\u00a0</p>\n<ul>\n<li>The Public Service of Canada is committed to developing inclusive, barrier-free selection and appointment processes and work environments. If contacted in relation to this process, please advise the organization's representative of your need for accommodation measures which must be taken to enable you to be assessed in a fair and equitable manner.</li>\n<li>Deployments cannot change the tenure of an employee (i.e: term to indeterminate) or constitute a promotion.</li>\n<li>Communication for this process will be sent via email.</li>\n<li>A pool of qualified candidates may be established and may be used to staff similar positions on an acting, assignment or deployment basis.</li>\n</ul>\n<p>\u00a0</p>\n",
        "fr": "\n<p>\u00a0</p>\n<p>Le Conseil des produits agricoles du Canada (CPAC) est \u00e0 la recherche d\u2019une personne motiv\u00e9e et organis\u00e9e pour une affectation ou une mutation au m\u00eame niveau d\u2019une dur\u00e9e d\u2019un (1)\u00a0an, avec possibilit\u00e9 de prolongation ou de mutation. Ce poste offre la possibilit\u00e9 d\u2019acqu\u00e9rir une expertise dans deux domaines diff\u00e9rents : les services r\u00e9glementaires et l\u2019analyse de donn\u00e9es.<br>\n<br>\nLe titulaire doit poss\u00e9der de solides comp\u00e9tences en analyse et faire preuve de minutie. Il/elle doit \u00eatre en mesure d\u2019\u00e9tablir et de maintenir un r\u00e9seau, ainsi que de travailler avec les intervenants des gouvernements f\u00e9d\u00e9ral et provinciaux et de l\u2019industrie. Les t\u00e2ches particuli\u00e8res comprennent la pr\u00e9paration des documents exig\u00e9s pour le processus de r\u00e9glementation, les communications fr\u00e9quentes avec les intervenants des gouvernements f\u00e9d\u00e9ral et provinciaux et de l\u2019industrie, ainsi que la gestion et l\u2019analyse des donn\u00e9es.</p>\n<p>\u00a0</p>\n<p><strong>Fonctions</strong></p>\n<p>\u00a0</p>\n<p><b>1. R\u00e9glementation</b></p>\n<p>Recherche et \u00e9valuation d\u2019instruments r\u00e9glementaires en vertu de la <em>Loi sur la commercialisation des produits agricoles</em> (LCPA) pour assurer l\u2019uniformit\u00e9, la coh\u00e9rence et l\u2019\u00e9laboration de recommandations de modifications;</p>\n<p>Liaison avec les autorit\u00e9s agricoles provinciales et f\u00e9d\u00e9rales, Justice Canada et le Secr\u00e9tariat du Conseil du Tr\u00e9sor tout au long du processus de r\u00e9glementation et pr\u00e9paration de tous les documents et rapports n\u00e9cessaires;</p>\n<p>Analyse et interpr\u00e9tation de textes l\u00e9gislatifs et r\u00e9glementaires complexes provenant de diff\u00e9rentes administrations (provinciales et f\u00e9d\u00e9rales); \u00e9laboration de recommandations de modifications r\u00e9glementaires qui permettent de corriger tout probl\u00e8me relev\u00e9;</p>\n<p>\u00c9laboration et pr\u00e9paration de documents de travail, de notes d\u2019information, de pr\u00e9sentations, de modifications r\u00e9glementaires, d\u2019\u00e9nonc\u00e9s de triage et de r\u00e9sum\u00e9s de l\u2019\u00e9tude d\u2019impact de la r\u00e9glementation (REIR), et r\u00e9vision et production d\u2019annexes et de rapports.</p>\n<p>\u00a0</p>\n<p><b>2. Analyse des donn\u00e9es</b></p>\n<p>Organisation et administration de la collecte, de l\u2019analyse, du contr\u00f4le de la qualit\u00e9, de la validation et de la pr\u00e9sentation des donn\u00e9es et informations pertinentes;</p>\n<p>Recherche d\u00e9taill\u00e9e et complexe, contr\u00f4le de la qualit\u00e9, validation, pr\u00e9sentation et \u00e9valuation des informations et utilisation des bases de donn\u00e9es ainsi que l\u2019analyse et la validation des hypoth\u00e8ses sous-jacentes pour corroborer les conclusions;</p>\n<p>Identification, suivi, int\u00e9gration et communication d\u2019informations et de donn\u00e9es sur les tendances, enjeux et d\u00e9veloppements pertinents et \u00e9valuation de leur importance et de leur incidence sur les secteurs agricoles.</p>\n<p>\u00a0</p>\n<p><strong>\u00c0 propos du Conseil des produits agricoles du Canada</strong></p>\n<p>Le Conseil des produits agricoles du Canada (CPAC) est un organe charg\u00e9 de surveiller les offices canadiens de gestion de l\u2019offre des volailles et des \u0153ufs, ainsi que de superviser les organismes nationaux de promotion et de recherche des produits agricoles qui rel\u00e8vent du ministre de l\u2019Agriculture et de l\u2019Agroalimentaire. En outre, le CPAC a aussi \u00e9t\u00e9 responsable de l\u2019administration de la LCPA au nom du minist\u00e8re de l\u2019Agriculture et de l\u2019Agroalimentaire du Canada (AAC). La LCPA permet au gouvernement f\u00e9d\u00e9ral de d\u00e9l\u00e9guer ses pouvoirs \u00e0 des offices provinciaux de commercialisation en ce qui concerne le commerce interprovincial et l\u2019exportation d\u2019une vaste gamme de produits agricoles.</p>\n<p>Situ\u00e9 sur la Ferme exp\u00e9rimentale centrale, le CPAC, en tant que petite organisation f\u00e9d\u00e9rale, offre un milieu de travail convivial o\u00f9 les comp\u00e9tences des employ\u00e9s peuvent faire une r\u00e9elle diff\u00e9rence.</p>\n<p>\u00a0</p>\n<p><strong>\u00c9nonc\u00e9 des crit\u00e8res de m\u00e9rite et conditions d\u2019emploi</strong></p>\n<p>\u00a0</p>\n<p><strong>Qualifications</strong> <strong>essentielles</strong></p>\n<p>\u00a0</p>\n<p><b>\u00c9tudes</b></p>\n<p>Dipl\u00f4me d\u2019un \u00e9tablissement d\u2019enseignement postsecondaire reconnu en \u00e9conomie, en commerce ou en administration des affaires, ou combinaison acceptable d\u2019\u00e9tudes, de formation ou d\u2019exp\u00e9rience li\u00e9e aux fonctions du poste</p>\n<p>\u00a0</p>\n<p><b>Exp\u00e9riences</b></p>\n<p>Exp\u00e9rience de travail appr\u00e9ciable* relatif aux questions de r\u00e9glementation ou de gestion et d\u2019analyse des donn\u00e9es</p>\n<p>Exp\u00e9rience de la recherche, de l\u2019analyse et de la r\u00e9daction de documents d\u2019information et de rapports li\u00e9s \u00e0 la r\u00e9glementation ou \u00e0 d\u2019autres domaines pertinents</p>\n<p>Exp\u00e9rience de l\u2019\u00e9tablissement et du maintien de relations efficaces avec les gouvernements f\u00e9d\u00e9ral et provinciaux ainsi que d\u2019autres intervenants</p>\n<p>\u00a0</p>\n<p>* On entend par \u00ab exp\u00e9rience appr\u00e9ciable \u00bb l\u2019exp\u00e9rience qui fait partie int\u00e9grante du travail du candidat pendant une dur\u00e9e lui permettant d\u2019acqu\u00e9rir la richesse et l\u2019\u00e9tendue de l\u2019exp\u00e9rience habituellement acquise pendant deux (2) ans.</p>\n<p>\u00a0</p>\n<p><b>Connaissances</b></p>\n<p>Connaissance du processus de r\u00e9glementation du gouvernement du Canada et des documents exig\u00e9s</p>\n<p>Connaissance de la gestion et de l\u2019analyse de donn\u00e9es</p>\n<p>\u00a0</p>\n<p><b>Comp\u00e9tences</b></p>\n<p>R\u00e9flexion analytique</p>\n<p>\u00c9tablissement de relations</p>\n<p>R\u00e9flexion strat\u00e9gique</p>\n<p>Esprit d\u2019\u00e9quipe</p>\n<p>Comp\u00e9tences en r\u00e9daction</p>\n<p><strong>\u00a0</strong></p>\n<p><strong>Exigences linguistiques</strong></p>\n<p>Divers exigences linguistique : Anglais essentiel, bilingue imp\u00e9ratif BBB/BBB\u00a0\u00a0</p>\n<p>\u00a0</p>\n<h3><strong>Besoins organisationnels</strong></h3>\n<p>Pour les besoins de la diversification de l\u2019effectif, une attention particuli\u00e8re pourrait \u00eatre accord\u00e9e aux candidats qui auront indiqu\u00e9 leur appartenance \u00e0 l\u2019un des groupes suivants, vis\u00e9s par l\u2019\u00e9quit\u00e9 en mati\u00e8re d\u2019emploi : Autochtones, personnes handicap\u00e9es, membres d\u2019une minorit\u00e9 visible, femmes.</p>\n<p>\u00a0</p>\n<p><strong>Conditions d\u2019emploi</strong></p>\n<p>Niveau de s\u00e9curit\u00e9 : Secret</p>\n<p>Consentir \u00e0 faire des heures suppl\u00e9mentaires et \u00eatre en mesure de le faire</p>\n<p>\u00a0</p>\n<p><strong>Candidature</strong></p>\n<p>Si le poste vous int\u00e9resse, veuillez fournir ce qui suit :</p>\n<ul>\n<li>une courte lettre (d\u2019au plus deux (2)\u00a0pages) dans laquelle vous expliquez pourquoi ce poste vous int\u00e9resse et pr\u00e9sentez les comp\u00e9tences et l\u2019exp\u00e9rience que vous mettriez \u00e0 profit</li>\n<li>votre curriculum vit\u00e6</li>\n<li>le type de poste occup\u00e9 (p. ex. dur\u00e9e d\u00e9termin\u00e9e ou ind\u00e9termin\u00e9e)</li>\n<li>votre groupe et niveau de titularisation</li>\n</ul>\n<p>\u00a0</p>\n<p>Les employ\u00e9s d\u2019AAC int\u00e9ress\u00e9s sont invit\u00e9s \u00e0 faire parvenir leur curriculum vit\u00e6 accompagn\u00e9 d\u2019une lettre de pr\u00e9sentation \u00e0 Bill Edwardson \u00e0 l\u2019adresse suivante : <a href=\"mailto:William.edwardson@canada.ca\">William.edwardson@canada.ca</a>.</p>\n<p>Si vous avez des questions ou d\u00e9sirez plus d\u2019informations, veuillez communiquer avec Bill Edwardson par courriel, \u00e0 william.edwardson@canada.ca, ou par t\u00e9l\u00e9phone, au 613\u2011759\u20111589.</p>\n<p>\u00a0</p>\n<p><strong>Remarques</strong></p>\n<p>\u00a0</p>\n<ul>\n<li>La fonction publique du Canada s\u2019engage \u00e0 instaurer des processus de s\u00e9lection et de nomination ainsi qu\u2019un milieu de travail inclusifs et exempts d\u2019obstacles. Si l\u2019on communique avec vous au sujet de ce processus, et que vous avez des besoins particuliers, veuillez en informer le repr\u00e9sentant de l\u2019organisation afin que les mesures d\u2019adaptation n\u00e9cessaires soient prises pour vous assurer une \u00e9valuation juste et \u00e9quitable.</li>\n<li>Les mutations ne doivent pas entra\u00eener de modification \u00e0 la dur\u00e9e d\u2019emploi d\u2019un employ\u00e9 (p. ex. de dur\u00e9e d\u00e9termin\u00e9e \u00e0 dur\u00e9e ind\u00e9termin\u00e9e) ni constituer une promotion.</li>\n<li>Les communications relatives \u00e0 ce processus se feront par courriel.</li>\n<li>Un bassin de candidats qualifi\u00e9s pourrait \u00eatre \u00e9tabli et utilis\u00e9 pour doter des postes semblables int\u00e9rimaires, temporaires ou</li>\n</ul>\n<p>\u00a0</p>\n\n"
    },
    "breadcrumb": {
        "en": "Policy Analyst",
        "fr": "Analyste des politiques"
    },
    "empl": {
        "type": {
            "en": "Assignment, Deployment",
            "fr": "Affectation, Mutation"
        },
        "classification": {
            "en": "EC-5 and equivalent",
            "fr": "EC-5 et \u00e9quivalent"
        },
        "branch": {
            "en": "Programs Branch",
            "fr": "Direction g\u00e9n\u00e9rale des programmes"
        },
        "locations": {
            "en": "Central Experimental Farm, Ottawa",
            "fr": "Ferme exp\u00e9rimentale central, Ottawa"
        },
        "date_closing": {
            "en": "2019-04-05",
            "fr": "2019-04-05"
        },
        "open_to": {
            "en": "Employees of AAFC, CDC and FPCC located in the NCR at the EC-5 or equivalent level",
            "fr": "Les employ\u00e9(e)s d\u2019AAC, la CCL et du CPAC dans la RCN qui occupent un poste au niveau EC-05 ou \u00e9quivalent"
        },
        "name": {
            "en": "Bill Edwardson",
            "fr": "Bill Edwardson"
        },
        "email": {
            "en": "william.edwardson@canada.ca",
            "fr": "william.edwardson@canada.ca"
        }
    }
}