{
    "dcr_id": "1554755020340",
    "lang": "en",
    "title": {
        "en": "Client Liaison to SSC",
        "fr": "Agent de liaison avec SPC"
    },
    "modified": "2019-04-09 00:00:00.0",
    "issued": "2019-04-09 00:00:00.0",
    "type_name": "intra-intra/empl-empl",
    "node_id": "1279029955397",
    "layout_name": null,
    "dc_date_created": "2019-04-09",
    "breadcrumb_label": "",
    "meta": {
        "issued": {
            "en": "2019-04-09",
            "fr": "2019-04-09"
        },
        "modified": {
            "en": "2019-04-09",
            "fr": "2019-04-09"
        },
        "format": {
            "en": "gcformat",
            "fr": "gcformat"
        },
        "title": {
            "en": "Client Liaison to SSC",
            "fr": "Agent de liaison avec SPC"
        },
        "subject": {
            "en": "staffing",
            "fr": "dotation en personnel"
        },
        "language": {
            "en": "eng",
            "fr": "fra"
        },
        "audience": {
            "en": "gcaudience",
            "fr": "gcaudience"
        },
        "type": {
            "en": "notice",
            "fr": "avis"
        },
        "creator": {
            "en": "Agriculture and Agri-Food Canada",
            "fr": "Agriculture et Agroalimentaire Canada"
        },
        "spatial": {
            "en": "gcregions",
            "fr": "gcregions"
        },
        "service": {
            "en": "AAFC_AgriSource",
            "fr": "AAC_AgriSource"
        },
        "accessRights": {
            "en": "3",
            "fr": "3"
        }
    },
    "body": {
        "en": "\n<div><strong>\u00a0</strong></div>\n<div>\n<div>\nThe Client Relationship Management team in ISB is hiring! If you are someone who enjoys collaborating with people across different teams, is detail-oriented and a good communicator, this job could be for you. As the AAFC liaison to Shared Services Canada, you will have the opportunity to work in partnership with clients and stakeholders in both AAFC and SSC. In this role, you will learn all about AAFC\u2019 s portfolio of IM/IT initiatives, and gain broad knowledge of the technologies and systems used across our department. You will also have the opportunity to interact regularly with ISB\u2019s senior management team.</div>\n</div>\n<div>\u00a0</div>\n<div><strong><br>Ideal Candidate</strong></div>\n<div>You enjoy working with people and have good relationships with your colleagues, both on your team and outside your work unit. You are organized and resourceful in solving problems. You possess a strong attention to detail and your writing skills are polished.</div>\n<div><strong><br>Language Requirements </strong></div>\n<div>BBB / BBB</div>\n<div><strong><br>Security Requirements </strong></div>\n<div>Secret</div>\n<div><strong><br>What You Bring to the Job</strong></div>\n<div>Experience collaborating with clients and stakeholders</div>\n<div>Experience in data collection, analysis and reporting</div>\n<div>Experience in writing client-facing material , such as project documents, service level agreements, user guides, or other similar documentation.</div>\n<div><strong><br>Bonus Experience </strong></div>\n<div>Experience in preparing briefing material for the executive level</div>\n<div>Experience in developing and managing a SharePoint site</div>\n<div><strong><br>Applications</strong></div>\n<div>If you are interested in this opportunity, please send your resume to Tanya Katsoulis, A/Manager, Client Relationship Management Services (<strong><a href=\"mailto:tanya.katsoulis@canada.ca\">tanya.katsoulis@canada.ca</a></strong> ).</div>\n<div>\u00a0</div>\n",
        "fr": "\n<div>\n<div><strong>\u00a0</strong></div>\nL\u2019\u00e9quipe de gestion des relations avec la client\u00e8le de la DGSI embauche! Si vous aimez collaborer avec des gens de diff\u00e9rentes \u00e9quipes, vous avez le souci du d\u00e9tail et vous \u00eates un bon communicateur, ce poste pourrait \u00eatre pour vous. \u00c0 titre d\u2019agent de liaison avec Services partag\u00e9s Canada, vous aurez l\u2019occasion de travailler en partenariat avec les clients et les intervenants d\u2019AAC et de SPC. Dans ce r\u00f4le, vous apprendrez tout sur le portefeuille d\u2019initiatives relatives \u00e0 la GI-TI d\u2019AAC et acquerrez une vaste connaissance des technologies et des syst\u00e8mes utilis\u00e9s dans l\u2019ensemble de notre minist\u00e8re. Vous aurez \u00e9galement l\u2019occasion de traiter r\u00e9guli\u00e8rement avec l\u2019\u00e9quipe de direction de la DGSI.</div>\n<div><strong><br>Candidat id\u00e9\u00e9al</strong></div>\n<div>Vous aimez travailler avec les gens et entretenez de bonnes relations avec vos coll\u00e8gues, tant au sein de votre \u00e9quipe qu\u2019\u00e0 l\u2019ext\u00e9rieur de votre unit\u00e9 de travail. Vous \u00eates organis\u00e9 et faites preuve de d\u00e9brouillardise lorsqu\u2019il s\u2019agit de r\u00e9soudre des probl\u00e8mes. Vous d\u00e9montrez un grand souci du d\u00e9tail et vous poss\u00e9dez d\u2019excellentes comp\u00e9tences en r\u00e9daction.</div>\n<div><strong><br>Exigences linguistiques </strong></div>\n<div>BBB / BBB</div>\n<div><strong><br>Exigences en mati\u00e8\u00e8re de s\u00e9\u00e9curit\u00e9\u00e9 </strong></div>\n<div>Secret\u3000</div>\n<div><strong><br>Ce que vous apportez au poste</strong></div>\n<div>Exp\u00e9rience de la collaboration avec des clients et des intervenants.</div>\n<div>Exp\u00e9rience de la collecte et de l\u2019analyse de donn\u00e9es et de la production de rapports.</div>\n<div>Exp\u00e9rience de la r\u00e9daction de documents destin\u00e9\u00e9s aux clients, tels que des documents de projet, des ententes sur les niveaux de service, des guides de l\u2019utilisateur ou d\u2019autres documents semblables.</div>\n<div><strong><br>Exp\u00e9rience suppl\u00e9mentaire</strong></div>\n<div>Exp\u00e9rience de la pr\u00e9paration de documents d\u2019information \u00e0 l\u2019intention des cadres sup\u00e9rieurs.</div>\n<div>Exp\u00e9rience du d\u00e9veloppement et de la gestion d \u2019un site SharePoint.</div>\n<div><strong><br>Candidatures</strong></div>\n<div>Si cette possibilit\u00e9 vous int\u00e9resse, veuillez envoyer votre curriculum vit\u00e6 \u00e0 Tanya Katsoulis, gestionnaire int., Services de gestion des relations avec la client\u00e8le (<strong><a href=\"mailto:tanya.katsoulis@canada.ca\">tanya.katsoulis@canada.ca</a></strong>).</div>\n<div>\u00a0</div>\n\n"
    },
    "breadcrumb": {
        "en": "Client Liaison to SSC",
        "fr": "Agent de liaison avec SPC"
    },
    "empl": {
        "type": {
            "en": "Assignment, Deployment",
            "fr": "Affectation, Mutation"
        },
        "classification": {
            "en": "CS-3 and equivalent",
            "fr": "CS-3 et \u00e9quivalent"
        },
        "branch": {
            "en": "Information Systems Branch",
            "fr": "Direction g\u00e9n\u00e9rale des syst\u00e8mes d'information"
        },
        "locations": {
            "en": "NCR",
            "fr": "RCN"
        },
        "date_closing": {
            "en": "2019-04-17",
            "fr": "2019-04-17"
        },
        "open_to": {
            "en": "Employees of AAFC located in the NCR at the CS-03 level",
            "fr": "Employ\u00e9s d\u2019AAC au niveau CS-03 situ\u00e9s dans la RCN"
        },
        "name": {
            "en": "Tanya Katsoulis",
            "fr": "Tanya Katsoulis"
        },
        "email": {
            "en": "tanya.katsoulis@canada.ca",
            "fr": "tanya.katsoulis@canada.ca"
        }
    }
}