{
    "dcr_id": "1554823597339",
    "lang": "en",
    "title": {
        "en": "AAFC's 2019-20 Main Estimates",
        "fr": "Budget principal des d\u00e9penses 2019-2020 d'AAC"
    },
    "modified": "2019-04-11 00:00:00.0",
    "issued": "2019-04-11 00:00:00.0",
    "type_name": "intra-intra/news-nouv",
    "node_id": "1279030006975",
    "layout_name": null,
    "dc_date_created": "2019-04-09",
    "breadcrumb_label": "",
    "meta": {
        "issued": {
            "en": "2019-04-11",
            "fr": "2019-04-11"
        },
        "modified": {
            "en": "2019-04-11",
            "fr": "2019-04-11"
        },
        "format": {
            "en": "gcformat",
            "fr": "gcformat"
        },
        "title": {
            "en": "AAFC's 2019-20 Main Estimates",
            "fr": "Budget principal des d\u00e9penses 2019-2020 d'AAC"
        },
        "subject": {
            "en": "communications",
            "fr": "communications"
        },
        "description": {
            "en": "The 2019-20 Main Estimates were recently tabled in Parliament. They present detailed information on each federal government department's and agency's estimated spending and authorities for this fiscal year.",
            "fr": "Le Budget principal des d\u00e9penses 2019-2020 a r\u00e9cemment \u00e9t\u00e9 d\u00e9pos\u00e9 devant le Parlement. Ce document renferme des renseignements d\u00e9taill\u00e9s sur les plans de d\u00e9penses et les autorisations de chaque minist\u00e8re et organisme du gouvernement f\u00e9d\u00e9ral pour cet exercice financier."
        },
        "language": {
            "en": "eng",
            "fr": "fra"
        },
        "audience": {
            "en": "gcaudience",
            "fr": "gcaudience"
        },
        "creator": {
            "en": "Agriculture and Agri-Food Canada",
            "fr": "Agriculture et Agroalimentaire Canada"
        },
        "spatial": {
            "en": "gcregions",
            "fr": "gcregions"
        },
        "service": {
            "en": "AAFC_AgriSource",
            "fr": "AAC_AgriSource"
        },
        "accessRights": {
            "en": "3",
            "fr": "3"
        }
    },
    "body": {
        "en": "<br>\n<br>\n<p>The 2019-20 Main Estimates were recently tabled in Parliament. They present detailed information on each federal government department\u2019s and agency\u2019s estimated spending and authorities for this fiscal year.</p>\n<p>AAFC\u2019s 2019-20 Main Estimates total $2.5 billion ($1.050 billion in voted appropriations and $1.45 billion in statutory), with the majority of it supporting programs under the five-year (2018-2023) Canadian Agricultural Partnership.</p>\n<p>Overall, AAFC\u2019s total authorities for 2019-20 have decreased by $16.1 million from the previous year\u2019s Main Estimates. Notable changes include:</p>\n<ul>\n<li>A forecast decrease for the AgriInvest program primarily due to the fact that the 2018-19 Main Estimates included costs for AgriInvest related to the last program year covered under Growing Forward 2, due to how the program costs are accounted for;</li>\n<li>The sunsetting of the Federal Infrastructure Initiative and the Agricultural Youth Green Jobs Initiative;</li>\n<li>New funding announced in Budget 2019 for the Food Policy for Canada; and</li>\n<li>New funding to the Advancing Agricultural Discovery Science and Innovation Initiative.</li>\n</ul>\n<p>You are encouraged to read <a href=\"https://www.canada.ca/en/treasury-board-secretariat/services/planned-government-spending/government-expenditure-plan-main-estimates/2019-20-estimates.html\">AAFC\u2019s 2019-20 Main Estimates</a> and bookmark it for future reference.</p>\n<p>If you have any questions regarding the Main Estimates, please contact Angela Murphy, Director General, Finance and Resource Management Services at <a href=\"mailto:angela.murphy@canada.ca\">angela.murphy@canada.ca</a>.</p>\n\n\t\t",
        "fr": "<br>\n<br>\n<p>Le Budget principal des d\u00e9penses 2019-2020 a r\u00e9cemment \u00e9t\u00e9 d\u00e9pos\u00e9 devant le Parlement. Ce document renferme des renseignements d\u00e9taill\u00e9s sur les plans de d\u00e9penses et les autorisations de chaque minist\u00e8re et organisme du gouvernement f\u00e9d\u00e9ral pour cet exercice financier.</p>\n<p>Le Budget principal des d\u00e9penses 2019-2020 d\u2019AAC totalise 2,5 milliards de dollars (1,050 milliard de dollars en cr\u00e9dits vot\u00e9s et 1,45 milliard de dollars en d\u00e9penses l\u00e9gislatives). Ce financement appuie en grande partie les programmes s\u2019inscrivant dans le cadre quinquennal (2018-2023) du Partenariat canadien pour l\u2019agriculture.</p>\n<p>Dans l\u2019ensemble, les autorisations d\u2019AAC pour 2019-2020 ont diminu\u00e9 de 16,1 millions de dollars par rapport au Budget principal des d\u00e9penses de l\u2019exercice pr\u00e9c\u00e9dent. Voici les changements importants :</p>\n<ul>\n<li>Baisse pr\u00e9vue pour le programme Agri-investissement, principalement attribuable au fait que le Budget principal des d\u00e9penses 2018-2019 incluait les co\u00fbts d'AgriInvest pour la derni\u00e8re ann\u00e9e du programme couverte sous Cultivons l'avenir 2, en raison de la fa\u00e7on dont les co\u00fbts du programme sont comptabilis\u00e9s;</li>\n<li>Expiration de l\u2019Initiative f\u00e9d\u00e9rale li\u00e9e aux infrastructures et de l\u2019Initiative de stage en agroenvironnement;</li>\n<li>Nouveau financement annonc\u00e9 dans le budget de 2019 pour appuyer la politique alimentaire pour le Canada;</li>\n<li>Nouveau financement visant \u00e0 faire avancer les d\u00e9couvertes scientifiques et l\u2019innovation en agriculture.</li>\n</ul>\n<p>Nous vous invitons \u00e0 lire le <a href=\"https://www.canada.ca/fr/secretariat-conseil-tresor/services/depenses-prevues/plan-depenses-budget-principal/2019-20-budget-depenses.html\">Budget principal des d\u00e9penses 2019-2019 d\u2019AAC</a> et \u00e0 l\u2019ajouter \u00e0 vos favoris pour consultation ult\u00e9rieure.</p>\n<p>Pour toute question concernant le Budget principal des d\u00e9penses, veuillez vous adresser \u00e0 Angela Murphy, directrice g\u00e9n\u00e9rale des Services des finances et de la gestion des ressources, \u00e0 <a href=\"mailto:angela.murphy@canada.ca\">angela.murphy@canada.ca</a>.</p>\n\t\t"
    },
    "breadcrumb": {
        "en": "AAFC's 2019-20 Main Estimates",
        "fr": "Budget principal des d\u00e9penses 2019-2020 d'AAC"
    },
    "news": {
        "date_posted": {
            "en": "2019-04-11",
            "fr": "2019-04-11"
        },
        "to": {
            "en": "All staff",
            "fr": "Tous les employ\u00e9s"
        },
        "by": {
            "en": "Finance and Resource Management Services, Corporate Management Branch",
            "fr": "Services des finances et de la gestion des ressources, Direction g\u00e9n\u00e9rale de la gestion int\u00e9gr\u00e9e"
        }
    }
}