{
    "dcr_id": "1556654070862",
    "lang": "en",
    "title": {
        "en": "Reminder - NCR - May is Bike to Work Month",
        "fr": "Rappel - RCN - Le mois \u00ab V\u00e9lo boulot \u00bb se d\u00e9roule en mai"
    },
    "modified": "2019-05-15 00:00:00.0",
    "issued": "2019-05-02 00:00:00.0",
    "type_name": "intra-intra/news-nouv",
    "node_id": "1279030006975",
    "layout_name": null,
    "dc_date_created": "2019-04-30",
    "breadcrumb_label": "",
    "meta": {
        "issued": {
            "en": "2019-05-02",
            "fr": "2019-05-02"
        },
        "modified": {
            "en": "2019-05-15",
            "fr": "2019-05-09"
        },
        "format": {
            "en": "gcformat",
            "fr": "gcformat"
        },
        "title": {
            "en": "Reminder - NCR - May is Bike to Work Month",
            "fr": "Rappel - RCN - Le mois \u00ab V\u00e9lo boulot \u00bb se d\u00e9roule en mai"
        },
        "subject": {
            "en": "communications",
            "fr": "communications"
        },
        "description": {
            "en": "The City of Ottawa is challenging residents to break their routine in the month of May and try cycling to work.",
            "fr": "La Ville d'Ottawa invite les r\u00e9sidents \u00e0 rompre avec la routine au mois de mai et \u00e0 utiliser le v\u00e9lo pour se rendre au travail."
        },
        "language": {
            "en": "eng",
            "fr": "fra"
        },
        "audience": {
            "en": "gcaudience",
            "fr": "gcaudience"
        },
        "creator": {
            "en": "Agriculture and Agri-Food Canada",
            "fr": "Agriculture et Agroalimentaire Canada"
        },
        "spatial": {
            "en": "gcregions",
            "fr": "gcregions"
        },
        "service": {
            "en": "AAFC_AgriSource",
            "fr": "AAC_AgriSource"
        },
        "accessRights": {
            "en": "3",
            "fr": "3"
        }
    },
    "body": {
        "en": "<br>\n<br>\n<p>The City of Ottawa is challenging residents to break their routine in the month of May and try cycling to work.</p>\n<p>May is Bike to Work Month in Ottawa, an annual campaign by the City to promote cycling as a sustainable mode of transportation and an alternative for motorists. Residents are encouraged to explore new routes using the City\u2019s extensive cycling network, resources, and online tools.</p>\n<p>Bike to Work Month motivates new and seasoned riders to discover the ease, convenience, efficiency, and joy of cycle commuting, whether it is for the month of May, for the entire cycling season, or throughout the year. For more information on the campaign, resources on cycling routes, and a list of prizes available, visit the <a rel=\"external\" href=\"https://biketoworkottawa.ca/\">Bike to Work Ottawa website</a>.</p>\n<p>By registering, participants will get to log their commutes and get information on both the money they are saving and greenhouse gases they are reducing.</p>\n<p>We welcome you to join in on the fun by <a rel=\"external\" href=\"http://biketoworkottawa.ca/register/\">registering</a> and joining AAFC\u2019s team the \u201c<strong>AgriCyclers</strong>\u201d!<br>\n<br>\nFor more information, please contact Matt Lefebvre (<a href=\"mailto:Matthew.Lefebvre@canada.ca\">Matthew.Lefebvre@canada.ca</a>) or Andrew MacKinder (<a href=\"mailto:Andrew.Mackinder@canada.ca\">Andrew.Mackinder@canada.ca</a>).<br>\n<br>\n<img src=\"https://intranet.agr.gc.ca/resources/prod/news/images/BiketoWork-EN.png\" class=\"center-block\"></p>\n\n\t\t",
        "fr": "<br>\n<br>\n<p>La Ville d'Ottawa invite les r\u00e9sidents \u00e0 rompre avec la routine au mois de mai et \u00e0 utiliser le v\u00e9lo pour se rendre au travail.</p>\n<p>Mai est le mois du V\u00e9lo au boulot \u00e0 Ottawa, une campagne annuelle organis\u00e9e par la Ville afin de promouvoir le v\u00e9lo comme moyen de transport durable et comme solution de rechange \u00e0 la voiture. On encourage les r\u00e9sidents \u00e0 explorer de nouveaux parcours en utilisant le vaste r\u00e9seau cyclable de la Ville ainsi que la documentation et les nombreux outils en ligne.</p>\n<p>Le mois du V\u00e9lo au boulot incite les cyclistes n\u00e9ophytes et les plus exp\u00e9riment\u00e9s \u00e0 d\u00e9couvrir combien il est facile, pratique, efficace et plaisant de se rendre au travail \u00e0 v\u00e9lo, peu importe que ce soit durant le mois de mai, toute la saison cyclable ou tout au long de l'ann\u00e9e. Pour de plus amples renseignements sur la campagne, la documentation sur les pistes cyclables, et une liste des prix disponibles, veuillez consulter le site web suivant : <a rel=\"external\" href=\"https://biketoworkottawa.ca/?lang=fr\">V\u00e9lo au boulot Ottawa</a>.</p>\n<p>Une fois inscrits, les participants peuvent compiler leurs trajets \u00e0 v\u00e9lo et obtenir de l\u2019information sur les \u00e9conomies qu\u2019ils r\u00e9alisent et leur contribution \u00e0 la r\u00e9duction des \u00e9missions de gaz \u00e0 effet de serre.</p>\n<p>Soyez de la partie en vous <a rel=\"external\" href=\"http://biketoworkottawa.ca/sinscrire/?lang=fr\">inscrivant</a> \u00e0 l\u2019\u00e9quipe \u00ab <strong>AgriCycleurs </strong>\u00bb d\u2019AAC!<br>\n<br>\nPour de plus amples renseignements, veuillez communiquer avec Matt Lefebvre (<a href=\"mailto:Matthew.Lefebvre@canada.ca\">Matthew.Lefebvre@canada.ca</a>) ou Andrew MacKinder (<a href=\"mailto:Andrew.Mackinder@canada.ca\">Andrew.Mackinder@canada.ca</a>).</p>\n<p><img src=\"https://intranet.agr.gc.ca/resources/prod/news/images/BiketoWork-FR.png\" class=\"center-block\"></p>\n\t\t"
    },
    "breadcrumb": {
        "en": "NCR - Reminder - NCR - May is Bike to Work Month",
        "fr": "RCN - Rappel - RCN - Le mois \u00ab V\u00e9lo boulot \u00bb se d\u00e9roule en mai"
    },
    "news": {
        "date_posted": {
            "en": "2019-05-02",
            "fr": "2019-05-02"
        },
        "to": {
            "en": "NCR only",
            "fr": "RCN seulement"
        },
        "by": {
            "en": "Strategic Policy Branch",
            "fr": "Direction g\u00e9n\u00e9rale des politiques strat\u00e9giques"
        }
    }
}