{
    "dcr_id": "1557317257192",
    "lang": "en",
    "title": {
        "en": "Mental Health and Wellness Resources at the Library ",
        "fr": "Ressources sur la sant\u00e9 mentale et le mieux-\u00eatre \u00e0 la Biblioth\u00e8que "
    },
    "modified": "2019-05-09 00:00:00.0",
    "issued": "2019-05-09 00:00:00.0",
    "type_name": "intra-intra/news-nouv",
    "node_id": "1279030006975",
    "layout_name": null,
    "dc_date_created": "2019-05-08",
    "breadcrumb_label": "",
    "meta": {
        "issued": {
            "en": "2019-05-09",
            "fr": "2019-05-09"
        },
        "modified": {
            "en": "2019-05-09",
            "fr": "2019-05-09"
        },
        "format": {
            "en": "gcformat",
            "fr": "gcformat"
        },
        "title": {
            "en": "Mental Health and Wellness Resources at the Library ",
            "fr": "Ressources sur la sant\u00e9 mentale et le mieux-\u00eatre \u00e0 la Biblioth\u00e8que "
        },
        "subject": {
            "en": "communications",
            "fr": "communications"
        },
        "description": {
            "en": "In support of Mental Health Week, the Canadian Agriculture Library would like to make you aware of the CAL Mental Health/Workplace Wellness Resource Guide.",
            "fr": "\u00c0 l'appui de la Semaine de la sant\u00e9 mentale, la Biblioth\u00e8que canadienne de l'agriculture tient \u00e0 vous aviser de la cr\u00e9ation du Guide sur les ressources en sant\u00e9 mentale et mieux-\u00eatre en milieu de travail."
        },
        "language": {
            "en": "eng",
            "fr": "fra"
        },
        "audience": {
            "en": "gcaudience",
            "fr": "gcaudience"
        },
        "creator": {
            "en": "Agriculture and Agri-Food Canada",
            "fr": "Agriculture et Agroalimentaire Canada"
        },
        "spatial": {
            "en": "gcregions",
            "fr": "gcregions"
        },
        "service": {
            "en": "AAFC_AgriSource",
            "fr": "AAC_AgriSource"
        },
        "accessRights": {
            "en": "3",
            "fr": "3"
        }
    },
    "body": {
        "en": "<br>\n<br>\n<p>In support of Mental Health Week, the Canadian Agriculture Library (<abbr title=\"Canadian Agriculture Library\">CAL</abbr>) would like to make you aware of the <abbr title=\"Canadian Agriculture Library\">CAL</abbr> <a rel=\"external\" href=\"https://fsl-bsf.scitech.gc.ca/eng/intranet/guide/?id=100044\">Mental Health/Workplace Wellness Resource Guide</a>. The guide was developed by <abbr title=\"Canadian Agriculture Library\">CAL</abbr> Information Specialists and contains a variety relevant articles, books, e-books, DVDs, reports, and websites. For example:</p>\n<ul>\n<li><a href=\"https://intranet.agr.gc.ca/agrisource/AgriDoc.do?id=103780595&amp;lang=eng\" target=\"_blank\">Mental Health Handbook</a></li>\n<li><a rel=\"external\" target=\"_blank\" href=\"http://lq5hr9re8v.search.serialssolutions.com/?ctx_ver=Z39.88-2004&amp;ctx_enc=info%3Aofi%2Fenc%3AUTF-8&amp;rfr_id=info%3Asid%2Fsummon.serialssolutions.com&amp;rft_val_fmt=info%3Aofi%2Ffmt%3Akev%3Amtx%3Abook&amp;rft.genre=book&amp;rft.title=Resilience+at+work&amp;rft.au=Maddi%2C+Salvatore+R&amp;rft.au=Khoshaba%2C+Deborah+M&amp;rft.date=2005-01-01&amp;rft.pub=AMACOM&amp;rft.isbn=9780814472606&amp;rft.externalDocID=bkb00002500&amp;paramdict=en-US\">Resilience at Work : How to Succeed No Matter What Life Throws at You</a></li>\n<li><a rel=\"external\" target=\"_blank\" href=\"https://www.canada.ca/en/treasury-board-secretariat/topics/healthy-workplace/mental-health-workplace.html\">Centre of Expertise on Mental Health in the Workplace</a></li>\n</ul>\n<p>For more information contact <abbr title=\"Canadian Agriculture Library\">CAL</abbr>\u00a0(<a href=\"mailto:aafc.cal-bca.aac@canada.ca\">aafc.cal-bca.aac@canada.ca</a>).</p>\n<p><img src=\"https://intranet.agr.gc.ca/resources/prod/news/images/CALbanner-EN.png\" class=\"center-block\"></p>\n\n\t\t",
        "fr": "<br>\n<br>\n<p>\u00c0 l\u2019appui de la Semaine de la sant\u00e9 mentale, la Biblioth\u00e8que canadienne de l\u2019agriculture (<abbr title=\"Biblioth\u00e8que canadienne de l\u2019agriculture\">BCA</abbr>) tient \u00e0 vous aviser de la cr\u00e9ation du <a rel=\"external\" href=\"https://fsl-bsf.scitech.gc.ca/fra/intranet/guide/?id=100044\">Guide sur les ressources en sant\u00e9 mentale et mieux-\u00eatre en milieu de travail</a>. Ce guide a \u00e9t\u00e9 \u00e9labor\u00e9 par des sp\u00e9cialistes de l\u2019information de la <abbr title=\"Biblioth\u00e8que canadienne de l\u2019agriculture\">BCA</abbr> et contient divers articles, livres, livres \u00e9lectroniques, DVD, rapports et sites Web pertinents. Par exemple :</p>\n<ul>\n<li><a href=\"https://intranet.agr.gc.ca/agrisource/AgriDoc.do?id=103781799&amp;lang=fra\" target=\"_blank\">Guide sur la sant\u00e9 mentale</a></li>\n<li><a rel=\"external\" target=\"_blank\" href=\"http://lq5hr9re8v.search.serialssolutions.com/?ctx_ver=Z39.88-2004&amp;ctx_enc=info%3Aofi%2Fenc%3AUTF-8&amp;rfr_id=info%3Asid%2Fsummon.serialssolutions.com&amp;rft_val_fmt=info%3Aofi%2Ffmt%3Akev%3Amtx%3Abook&amp;rft.genre=book&amp;rft.title=Resilience+at+work&amp;rft.au=Maddi%2C+Salvatore+R&amp;rft.au=Khoshaba%2C+Deborah+M&amp;rft.date=2005-01-01&amp;rft.pub=AMACOM&amp;rft.isbn=9780814472606&amp;rft.externalDocID=bkb00002500&amp;paramdict=fr-CA\">Resilience at Work : How to Succeed No Matter What Life Throws at You (en anglais seulement)</a></li>\n<li><a rel=\"external\" target=\"_blank\" href=\"https://www.canada.ca/fr/secretariat-conseil-tresor/sujets/travail-sain/sante-mentale-travail.html\">Centre d'expertise pour la sant\u00e9 mentale en milieu de travail</a></li>\n</ul>\n<p>Pour de plus amples renseignements, veuillez communiquer avec la <abbr title=\"Biblioth\u00e8que canadienne de l\u2019agriculture\">BCA</abbr> (<a href=\"mailto:aafc.cal-bca.aac@canada.ca\">aafc.cal-bca.aac@canada.ca</a>).</p>\n<p><img src=\"https://intranet.agr.gc.ca/resources/prod/news/images/CALbanniere-FR.png\" class=\"center-block\"></p>\n\t\t"
    },
    "breadcrumb": {
        "en": "Mental Health and Wellness Resources at the Library",
        "fr": "Ressources sur la sant\u00e9 mentale et le mieux-\u00eatre \u00e0 la Biblioth\u00e8que"
    },
    "news": {
        "date_posted": {
            "en": "2019-05-09",
            "fr": "2019-05-09"
        },
        "to": {
            "en": "All staff",
            "fr": "Tous les employ\u00e9s"
        },
        "by": {
            "en": "Canadian Agriculture Library",
            "fr": "Biblioth\u00e8que canadienne de l'agriculture"
        }
    }
}