{
    "dcr_id": "1557847847007",
    "lang": "en",
    "title": {
        "en": "Reminder - Presentation by David Suzuki: Technology, Globalization and Climate Change - May 27",
        "fr": "Rappel - Une pr\u00e9sentation de David Suzuki : Technologie, mondialisation et changements climatiques - 27 mai"
    },
    "modified": "2019-05-23 00:00:00.0",
    "issued": "2019-05-16 00:00:00.0",
    "type_name": "intra-intra/news-nouv",
    "node_id": "1279030006975",
    "layout_name": null,
    "dc_date_created": "2019-05-14",
    "breadcrumb_label": "",
    "meta": {
        "issued": {
            "en": "2019-05-16",
            "fr": "2019-05-16"
        },
        "modified": {
            "en": "2019-05-23",
            "fr": "2019-05-23"
        },
        "format": {
            "en": "gcformat",
            "fr": "gcformat"
        },
        "title": {
            "en": "Reminder - Presentation by David Suzuki: Technology, Globalization and Climate Change - May 27",
            "fr": "Rappel - Une pr\u00e9sentation de David Suzuki : Technologie, mondialisation et changements climatiques - 27 mai"
        },
        "subject": {
            "en": "communications",
            "fr": "communications"
        },
        "description": {
            "en": "We invite you to join us for a special discussion with Dr. David Suzuki, scientist, broadcaster, author, and one of Canada's foremost experts on natural history and the impacts of climate change, technology and globalization.",
            "fr": "Joignez-vous \u00e0 nous pour une discussion sp\u00e9ciale avec David Suzuki, scientifique, communicateur, auteur et l'un des plus \u00e9minents sp\u00e9cialistes canadiens de l'histoire naturelle et des r\u00e9percussions du changement climatique, des technologies et de la mondialisation."
        },
        "language": {
            "en": "eng",
            "fr": "fra"
        },
        "audience": {
            "en": "gcaudience",
            "fr": "gcaudience"
        },
        "creator": {
            "en": "Agriculture and Agri-Food Canada",
            "fr": "Agriculture et Agroalimentaire Canada"
        },
        "spatial": {
            "en": "gcregions",
            "fr": "gcregions"
        },
        "service": {
            "en": "AAFC_AgriSource",
            "fr": "AAC_AgriSource"
        },
        "accessRights": {
            "en": "3",
            "fr": "3"
        }
    },
    "body": {
        "en": "<br>\n<br>\n<p><img src=\"https://intranet.agr.gc.ca/resources/prod/news/images/David_Suzuki_and_bike.png\" class=\"pull-left mrgn-rght-md\">We invite you to join us for a special discussion with Dr. David Suzuki, scientist, broadcaster, author, and one of Canada\u2019s foremost experts on natural history and the impacts of climate change, technology and globalization.</p>\n<p>Dr. Suzuki became familiar to audiences around the world as host of CBC TV\u2019s <i>The Nature of Things</i> beginning in 1979. He co-founded the David Suzuki Foundation in 1990 and is a world leader in sustainable ecology. He has received numerous awards for his work, including a UNESCO prize for science and a United Nations Environment Program medal. He is also a Companion of the Order of Canada.</p>\n<p>Dr. Suzuki will lead a discussion that highlights the impacts of the last century\u2019s explosive change in numbers, science, technology, consumption and economics. These events have altered our interactions with society and the environment and given us the power to change the biological, physical and chemical properties of the planet.</p>\n<p>We hope you can join us to discuss these changes and how we can conserve our environment and find solutions that will create a sustainable Canada.</p>\n<h2>Event information</h2>\n<p><strong>Date: </strong>Monday, May 27, 2019<br>\n<strong>Time:</strong> 1:30 to\u00a03:00pm (ET)<br>\n<strong>Location: </strong>T3-1-351 (NHCAP)</p>\n<p><strong>Videoconference: </strong>6811257510</p>\n<p>\u00a0</p>\n\n\t\t",
        "fr": "<br>\n<br>\n<p><img src=\"https://intranet.agr.gc.ca/resources/prod/news/images/David_Suzuki_and_bike.png\" class=\"pull-left mrgn-rght-md\">Joignez-vous \u00e0 nous pour une discussion sp\u00e9ciale avec David Suzuki, scientifique, communicateur, auteur et l\u2019un des plus \u00e9minents sp\u00e9cialistes canadiens de l\u2019histoire naturelle et des r\u00e9percussions du changement climatique, des technologies et de la mondialisation.</p>\n<p>M. Suzuki est connu dans le monde entier comme animateur de l\u2019\u00e9mission <em>The Nature of Things</em>, diffus\u00e9e \u00e0 la t\u00e9l\u00e9vision de la CBC depuis 1979. Cofondateur de la Fondation David Suzuki en 1990, il est un leader mondial en \u00e9cologie durable. Il a re\u00e7u de nombreux prix pour son travail, dont le Prix UNESCO pour la science, ainsi qu\u2019une m\u00e9daille du Programme des Nations Unies pour l\u2019environnement. Il est \u00e9galement Compagnon de l\u2019Ordre du Canada.</p>\n<p>M. Suzuki dirigera une discussion qui mettra en lumi\u00e8re les r\u00e9percussions de la transformation fulgurante du si\u00e8cle dernier en mati\u00e8re de population, de science, de technologie, de consommation et d\u2019\u00e9conomie. Ces \u00e9v\u00e9nements ont modifi\u00e9 nos interactions avec la soci\u00e9t\u00e9 et l\u2019environnement et nous ont donn\u00e9 le pouvoir de modifier les propri\u00e9t\u00e9s biologiques, physiques et chimiques de la plan\u00e8te.</p>\n<p>Nous esp\u00e9rons que vous pourrez vous joindre \u00e0 nous pour discuter de ces changements et de la fa\u00e7on dont nous pouvons prot\u00e9ger notre environnement et trouver des solutions qui permettront de cr\u00e9er un Canada durable.</p>\n<h2>Renseignements sur l\u2019\u00e9v\u00e9nement</h2>\n<p><strong>Date : </strong>Le lundi 27 mai 2019<br><strong>Heure</strong> : 13 h 30 - 15 h HE<br>\n<strong>Lieu </strong><strong>:</strong> T3-1-351 (CACPA)</p>\n<p><strong>Vid\u00e9oconf\u00e9rence : </strong>6811257510</p>\n\t\t"
    },
    "breadcrumb": {
        "en": "Reminder - Presentation by David Suzuki: Technology, Globalization and Climate Change - May 27",
        "fr": "Rappel - Une pr\u00e9sentation de David Suzuki : Technologie, mondialisation et changements ..."
    },
    "news": {
        "date_posted": {
            "en": "2019-05-16",
            "fr": "2019-05-16"
        },
        "to": {
            "en": "All staff",
            "fr": "Tous les employ\u00e9s"
        },
        "by": {
            "en": "Medium Term Planning \u2013 Strategic Policy Branch",
            "fr": "Planification \u00e0 moyen terme - Direction g\u00e9n\u00e9rale de la politique strat\u00e9gique"
        }
    }
}