{
    "dcr_id": "1557849982494",
    "lang": "en",
    "title": {
        "en": "Occupational Health and Safety Program Updates",
        "fr": "Mises \u00e0 jour des programmes de sant\u00e9 et de s\u00e9curit\u00e9 au travail"
    },
    "modified": "2019-05-16 00:00:00.0",
    "issued": "2019-05-16 00:00:00.0",
    "type_name": "intra-intra/news-nouv",
    "node_id": "1279030006975",
    "layout_name": null,
    "dc_date_created": "2019-05-14",
    "breadcrumb_label": "",
    "meta": {
        "issued": {
            "en": "2019-05-16",
            "fr": "2019-05-16"
        },
        "modified": {
            "en": "2019-05-16",
            "fr": "2019-05-16"
        },
        "format": {
            "en": "gcformat",
            "fr": "gcformat"
        },
        "title": {
            "en": "Occupational Health and Safety Program Updates",
            "fr": "Mises \u00e0 jour des programmes de sant\u00e9 et de s\u00e9curit\u00e9 au travail"
        },
        "subject": {
            "en": "communications",
            "fr": "communications"
        },
        "description": {
            "en": "The National Occupational Health and Safety Policy Committee is pleased to announce that Agriculture and Agri-Food Canada has updated certain components of its Hazard Prevention Program.",
            "fr": "Le Comit\u00e9 national d'orientation en mati\u00e8re de sant\u00e9 et de s\u00e9curit\u00e9 au travail a le plaisir d'annoncer qu'Agriculture et Agroalimentaire Canada a mis \u00e0 jour certains volets de son Programme de pr\u00e9vention des risques."
        },
        "language": {
            "en": "eng",
            "fr": "fra"
        },
        "audience": {
            "en": "gcaudience",
            "fr": "gcaudience"
        },
        "creator": {
            "en": "Agriculture and Agri-Food Canada",
            "fr": "Agriculture et Agroalimentaire Canada"
        },
        "spatial": {
            "en": "gcregions",
            "fr": "gcregions"
        },
        "service": {
            "en": "AAFC_AgriSource",
            "fr": "AAC_AgriSource"
        },
        "accessRights": {
            "en": "3",
            "fr": "3"
        }
    },
    "body": {
        "en": "<br>\n<br>\n<p>The National Occupational Health and Safety Policy Committee is pleased to announce that Agriculture and Agri-Food Canada has updated certain components of its Hazard Prevention Program:</p>\n<ul>\n<li>The <a href=\"https://collab.agr.gc.ca/gv/ohsct-ensst/_layouts/15/DocIdRedir.aspx?ID=AGR-7653484\">Standard on Smoking and the Use of Electronic Cigarettes</a> has expanded its scope to include prohibition on impairment and the use of cannabis in the work place.</li>\n<li><a href=\"https://collab.agr.gc.ca/gv/ohsct-ensst/_layouts/15/DocIdRedir.aspx?ID=AGR-7534244\">Impairment in the Workplace</a> is a new guide developed to help employees understand the implications of impairment and the responsibilities related to it.</li>\n<li>The <a href=\"https://collab.agr.gc.ca/gv/ohsct-ensst/_layouts/15/DocIdRedir.aspx?ID=AGR-7652845\">Personal Protective Equipment Program</a> has been updated and provides a general overview of the requirements to address situations where employees may need to use personal protective equipment.</li>\n<li>The <a href=\"https://collab.agr.gc.ca/gv/ohsct-ensst/_layouts/15/DocIdRedir.aspx?ID=AGR-7652879\">High Heat and Humidity Guidelines</a> were developed to address the hazards of working in hot, humid conditions.</li>\n</ul>\n<p>We will continue to promote occupational health and safety as an essential part of our corporate culture, and integrate it into our management and business decision-making processes. For more information, consult the <a href=\"http://intranet.agr.gc.ca/agrisource/eng/human-resources/occupational-health-and-safety?id=1321562720661\">Occupational Health and Safety</a> AgriSource page.</p>\n<p>Should you have any questions, please contact your <a target=\"_blank\" href=\"https://collab.agr.gc.ca/gv/ohsct-ensst/_layouts/15/DocIdRedir.aspx?ID=AGR-6971972\">Regional OHS Coordinator</a>.</p>\n<p>Remember the OHS motto: Stop. Think. Act.</p>\n<p><img src=\"https://intranet.agr.gc.ca/resources/prod/news/images/OHSLogoEN.png\" class=\"center-block\"></p>\n\n\t\t",
        "fr": "<br>\n<br>\n<p>Le Comit\u00e9 national d\u2019orientation en mati\u00e8re de sant\u00e9 et de s\u00e9curit\u00e9 au travail a le plaisir d\u2019annoncer qu\u2019Agriculture et Agroalimentaire Canada a mis \u00e0 jour certains volets de son Programme de pr\u00e9vention des risques :</p>\n<ul>\n<li>La port\u00e9e de la <a href=\"https://collab.agr.gc.ca/gv/ohsct-ensst/_layouts/15/DocIdRedir.aspx?ID=AGR-7653483\">Norme sur l\u2019usage du tabac et des cigarettes \u00e9lectroniques</a> en milieu de travail a \u00e9t\u00e9 \u00e9tendue de fa\u00e7on \u00e0 inclure l\u2019interdiction de se pr\u00e9senter au travail avec les facult\u00e9s affaiblies et de consommer du cannabis en milieu de travail.</li>\n<li><a href=\"https://collab.agr.gc.ca/gv/ohsct-ensst/_layouts/15/DocIdRedir.aspx?ID=AGR-7776563\">Facult\u00e9s affaiblies et cannabis dans le lieu de travail</a> est un nouveau guide qui aide \u00e0 comprendre les cons\u00e9quences d\u2019avoir les facult\u00e9s affaiblies, ainsi que les responsabilit\u00e9s connexes.</li>\n<li><a href=\"https://collab.agr.gc.ca/gv/ohsct-ensst/_layouts/15/DocIdRedir.aspx?ID=AGR-7732615\">Le Programme d\u2019\u00e9quipement de protection individuelle</a> a \u00e9t\u00e9 mis \u00e0 jour et il donne un aper\u00e7u g\u00e9n\u00e9ral des exigences relatives aux situations o\u00f9 des employ\u00e9s peuvent avoir \u00e0 utiliser de l\u2019\u00e9quipement de protection individuelle.</li>\n<li>Les <a href=\"https://collab.agr.gc.ca/gv/ohsct-ensst/_layouts/15/DocIdRedir.aspx?ID=AGR-7709712\">Lignes directrices sur le travail s\u00e9curitaire dans des conditions de chaleur et d\u2019humidit\u00e9 \u00e9lev\u00e9es</a> ont \u00e9t\u00e9 \u00e9labor\u00e9es pour g\u00e9rer les risques li\u00e9s au travail dans des conditions de chaleur et d\u2019humidit\u00e9 excessives.</li>\n</ul>\n<p>Nous continuerons de promouvoir la sant\u00e9 et la s\u00e9curit\u00e9 au travail \u00e0 titre de composante essentielle de notre culture organisationnelle et d\u2019int\u00e9grer la SST dans nos processus op\u00e9rationnels et d\u00e9cisionnels. Pour obtenir d\u2019autres pr\u00e9cisions, consultez la page <a href=\"http://intranet.agr.gc.ca/agrisource/fra/ressources-humaines/sante-et-securite-au-travail?id=1321562720661\">Sant\u00e9 et s\u00e9curit\u00e9 au travail</a> dans AgriSource.</p>\n<p>Pour toute question, veuillez communiquer avec votre <a target=\"_blank\" href=\"https://collab.agr.gc.ca/gv/ohsct-ensst/_layouts/15/DocIdRedir.aspx?ID=AGR-7611805\">coordonnateur r\u00e9gional de la SST</a>.</p>\n<p>N\u2019oubliez pas la devise de la SST : Arr\u00eatez. Pensez. Agissez.</p>\n<p><img src=\"https://intranet.agr.gc.ca/resources/prod/news/images/OHSLogoFR.png\" class=\"center-block\"></p>\n\t\t"
    },
    "breadcrumb": {
        "en": "Occupational Health and Safety Program Updates",
        "fr": "Mises \u00e0 jour des programmes de sant\u00e9 et de s\u00e9curit\u00e9 au travail"
    },
    "news": {
        "date_posted": {
            "en": "2019-05-16",
            "fr": "2019-05-16"
        },
        "to": {
            "en": "All staff",
            "fr": "Tous les employ\u00e9s"
        },
        "by": {
            "en": "AAFC's National Occupational Health and Safety Policy Committee",
            "fr": "Comit\u00e9 national d\u2019orientation d\u2019AAC en mati\u00e8re de sant\u00e9 et de s\u00e9curit\u00e9 au travail"
        }
    }
}