{
    "dcr_id": "1557849639566",
    "lang": "en",
    "title": {
        "en": "Sustainable Agriculture, Food Science, Microbiology and More: May Additions to the Canadian Agriculture Library",
        "fr": "Agriculture durable, science alimentaire, microbiologie et plus encore : les nouveaut\u00e9s de mai \u00e0 la Biblioth\u00e8que canadienne de l'agriculture"
    },
    "modified": "2019-05-16 00:00:00.0",
    "issued": "2019-05-16 00:00:00.0",
    "type_name": "intra-intra/news-nouv",
    "node_id": "1279030006975",
    "layout_name": null,
    "dc_date_created": "2019-05-14",
    "breadcrumb_label": "",
    "meta": {
        "issued": {
            "en": "2019-05-16",
            "fr": "2019-05-16"
        },
        "modified": {
            "en": "2019-05-16",
            "fr": "2019-05-16"
        },
        "format": {
            "en": "gcformat",
            "fr": "gcformat"
        },
        "title": {
            "en": "Sustainable Agriculture, Food Science, Microbiology and More: May Additions to the Canadian Agriculture Library",
            "fr": "Agriculture durable, science alimentaire, microbiologie et plus encore : les nouveaut\u00e9s de mai \u00e0 la Biblioth\u00e8que canadienne de l'agriculture"
        },
        "subject": {
            "en": "communications",
            "fr": "communications"
        },
        "description": {
            "en": "The Canadian Agriculture Library has a range of resources to help you develop your knowledge in different subject areas. Check out the list of new titles added in May 2019.",
            "fr": "La Biblioth\u00e8que canadienne de l'agriculture dispose d'une gamme de ressources pour vous aider \u00e0 am\u00e9liorer vos connaissances dans divers domaines d'expertise. Jetez un coup d'oeil \u00e0 la liste des nouveaut\u00e9s de mai 2019."
        },
        "language": {
            "en": "eng",
            "fr": "fra"
        },
        "audience": {
            "en": "gcaudience",
            "fr": "gcaudience"
        },
        "creator": {
            "en": "Agriculture and Agri-Food Canada",
            "fr": "Agriculture et Agroalimentaire Canada"
        },
        "spatial": {
            "en": "gcregions",
            "fr": "gcregions"
        },
        "service": {
            "en": "AAFC_AgriSource",
            "fr": "AAC_AgriSource"
        },
        "accessRights": {
            "en": "3",
            "fr": "3"
        }
    },
    "body": {
        "en": "<br>\n<br>\n<p>The Canadian Agriculture Library has a range of resources to help you develop your knowledge in different subject areas. Check out the <a href=\"https://collab.agr.gc.ca/co/kis-sis/_layouts/15/DocIdRedir.aspx?ID=AGR-7779632\">list of new titles added in May 2019.</a> Topics covered include:</p>\n<ul>\n<li>Food security and sustainability</li>\n<li>Comprehensive analytical chemistry</li>\n<li>Fair trade</li>\n<li>Microbiology</li>\n</ul>\n<p>Access the electronic content from your desktop by clicking on links found in the list, or submit a request to borrow physical items.</p>\n<p>For more information, contact CAL at <a href=\"mailto:aafc.cal-bca.aac@canada.ca\">aafc.cal-bca.aac@canada.ca</a>.</p>\n<p><img src=\"https://intranet.agr.gc.ca/resources/prod/news/images/CALbanner-EN.png\" class=\"center-block\" alt=\"\"></p>\n\n\t\t",
        "fr": "<br>\n<br>\n<p>La Biblioth\u00e8que canadienne de l\u2019agriculture dispose d\u2019une gamme de ressources pour vous aider \u00e0 am\u00e9liorer vos connaissances dans divers domaines d\u2019expertise. Jetez un coup d\u2019\u0153il \u00e0 la <a href=\"https://collab.agr.gc.ca/co/kis-sis/_layouts/15/DocIdRedir.aspx?ID=AGR-7779634\">liste des nouveaut\u00e9s de mai 2019</a>. Les sujets trait\u00e9s sont :</p>\n<ul>\n<li>S\u00e9curit\u00e9 alimentaire et durabilit\u00e9</li>\n<li>Chimie analytique compl\u00e8te</li>\n<li>Commerce \u00e9quitable</li>\n<li>Microbiologie</li>\n</ul>\n<p>Vous pouvez acc\u00e9der au contenu \u00e9lectronique \u00e0 partir de votre poste de travail en cliquant sur les liens qui se trouvent dans la liste, ou faire une demande d\u2019emprunt des ouvrages imprim\u00e9s.</p>\n<p>Pour de plus amples renseignements, communiquez avec la BCA par courriel, \u00e0 l'adresse suivante : <a href=\"mailto:aafc.cal-bca.aac@canada.ca\">aafc.cal-bca.aac@canada.ca</a>.</p>\n<p><img src=\"https://intranet.agr.gc.ca/resources/prod/news/images/CALbanniere-FR.png\" class=\"center-block\"></p>\n\t\t"
    },
    "breadcrumb": {
        "en": "Sustainable Agriculture, Food Science, Microbiology and More: May Additions to the Canadian Agriculture Library",
        "fr": "Agriculture durable, science alimentaire, microbiologie et plus encore : les nouveaut\u00e9s de mai \u00e0..."
    },
    "news": {
        "date_posted": {
            "en": "2019-05-16",
            "fr": "2019-05-16"
        },
        "to": {
            "en": "All staff",
            "fr": "Tous les employ\u00e9s"
        },
        "by": {
            "en": "The Canadian Agriculture Library",
            "fr": "La Biblioth\u00e8que canadienne de l\u2019agriculture"
        }
    }
}