{
    "dcr_id": "1557843369397",
    "lang": "en",
    "title": {
        "en": "Finance Specialist",
        "fr": "Sp\u00e9cialiste en finance"
    },
    "modified": "2019-05-14 00:00:00.0",
    "issued": "2019-05-14 00:00:00.0",
    "type_name": "intra-intra/empl-empl",
    "node_id": "1279029955397",
    "layout_name": null,
    "dc_date_created": "2019-05-14",
    "breadcrumb_label": "",
    "meta": {
        "issued": {
            "en": "2019-05-14",
            "fr": "2019-05-14"
        },
        "modified": {
            "en": "2019-05-14",
            "fr": "2019-05-14"
        },
        "format": {
            "en": "gcformat",
            "fr": "gcformat"
        },
        "title": {
            "en": "Finance Specialist",
            "fr": "Sp\u00e9cialiste en finance"
        },
        "subject": {
            "en": "staffing",
            "fr": "dotation en personnel"
        },
        "language": {
            "en": "eng",
            "fr": "fra"
        },
        "audience": {
            "en": "gcaudience",
            "fr": "gcaudience"
        },
        "type": {
            "en": "notice",
            "fr": "avis"
        },
        "creator": {
            "en": "Agriculture and Agri-Food Canada",
            "fr": "Agriculture et Agroalimentaire Canada"
        },
        "spatial": {
            "en": "gcregions",
            "fr": "gcregions"
        },
        "service": {
            "en": "AAFC_AgriSource",
            "fr": "AAC_AgriSource"
        },
        "accessRights": {
            "en": "3",
            "fr": "3"
        }
    },
    "body": {
        "en": "\n<p><strong><br>Duties:</strong><em>\u00a0 </em></p>\n<ul>\n<li>Provides advice and direction to managers and staff on Treasury Board and Departmental policies and procedures on matters relating to accounting.</li>\n<li>Releases commercial, interdepartmental, travel and employee claims prepared by accounting staff in the departmental financial system.</li>\n<li>Verifies and adjusts commitment data in the departmental financial system.</li>\n<li>Receives, safeguards and controls the disbursement of petty cash for branch headquarters.</li>\n<li>Approves and monitors journal vouchers to ensure all credits and debits have been actioned.</li>\n<li>Processes commercial invoices, interdepartmental settlements and hospitality claims.</li>\n<li>Explains policies, directives and guidelines and provides options.</li>\n<li>Utilizes computerized financial information systems and other software applications.</li>\n<li>Provides and coordinates financial administrative processing services (accounts payable) to clients and responsibility centre managers.</li>\n</ul>\n<h3><strong><br>Statement of Merit Criteria &amp; Conditions of Employment</strong></h3>\n<p><strong><br>Essential Qualifications</strong></p>\n<p><br>Education:\u00a0</p>\n<p>Successful completion of secondary school education.</p>\n<p><br>Experience:</p>\n<p>Experience in providing financial support services such as processing financial transactions.</p>\n<p>Experience in using word processing and spreadsheet applications, such as Microsoft Word and Excel, and email software packages.</p>\n<p>Experience in using the SAP financial system.</p>\n<p><br>Client focus</p>\n<p>Teamwork</p>\n<p>Initiative</p>\n<p>Interactive Communication</p>\n<p><br>Language Requirement:</p>\n<p>Various \u2013 English Essential, Bilingual Imperative \u2013 BBB/BBB</p>\n<p>\u00a0</p>\n<p><strong>Asset Qualifications</strong></p>\n<p>Post-secondary diploma in accounting, finance or business administration from a recognized post-secondary institution.</p>\n<p>Experience in using the Hogg Robinson Group (HRG) Shared Travel Services (STS) system.</p>\n<p>Experience in providing financial support services such as processing financial transactions within the federal government in accordance with Treasury Board policies, directives or guidelines.</p>\n<p>Experience in providing advice and guidance on federal government policies and procedures related to accounts payable and/or travel.</p>\n<p>\u00a0</p>\n<p><strong>Organizational Needs</strong></p>\n<p>In support of achieving a diversified workforce, consideration may be given to candidates self-identifying as belonging to one of the following Employment Equity groups: Aboriginal peoples, Persons with a Disability; Visible Minorities, Women.</p>\n<p>\u00a0</p>\n<p><strong>Conditions of Employment</strong><strong> </strong></p>\n<p>Security Requirement: Reliability</p>\n<p>\u00a0</p>\n<p><strong>Operational Requirements</strong></p>\n<p>Ability and willingness to work overtime as required.</p>\n<h3><strong><br>Applications</strong></h3>\n<p>Interested AAFC employees in the NCR are encouraged to forward their r\u00e9sum\u00e9 and cover letter to Tania Gardner \u2013 <a href=\"mailto:tania.gardner2@canada.ca\">tania.gardner2@canada.ca</a>.</p>\n<p>R\u00e9sum\u00e9s must clearly identify:</p>\n<ul>\n<li>Your tenure (e.g. term or indeterminate)</li>\n<li>Your substantive group and level</li>\n</ul>\n<h3><strong><br>Notes</strong></h3>\n<ul>\n<li>Deployments cannot change the tenure of an employee (i.e.: term to indeterminate) or constitute a promotion.\u00a0</li>\n<li>Communication for this process will be sent via email.</li>\n<li>A pool of qualified candidates may be established and may be used to staff similar positions on an acting, assignment or deployment basis.</li>\n</ul>\n<p>\u00a0</p>\n",
        "fr": "\n<p><strong><br>Fonctions :</strong></p>\n<ul>\n<li>Fournir des conseils et des directives aux gestionnaires et aux employ\u00e9s concernant les politiques et les proc\u00e9dures du Conseil du Tr\u00e9sor et du Minist\u00e8re dans les dossiers touchant la comptabilit\u00e9.</li>\n<li>R\u00e9gler les r\u00e9clamations commerciales, les r\u00e9clamations interminist\u00e9rielles, les demandes de remboursement de frais de d\u00e9placement et les demandes d\u2019indemnit\u00e9s des employ\u00e9s pr\u00e9par\u00e9es par le personnel comptable dans le syst\u00e8me financier du Minist\u00e8re.</li>\n<li>V\u00e9rifier et ajuster les donn\u00e9es sur les engagements dans le syst\u00e8me financier du Minist\u00e8re.</li>\n<li>Recevoir, prot\u00e9ger et contr\u00f4ler les d\u00e9bours de petite caisse pour l\u2019administration centrale des directions g\u00e9n\u00e9rales.</li>\n<li>Approuver et surveiller les pi\u00e8ces justificatives de journal pour s\u2019assurer que tous les cr\u00e9dits et d\u00e9bits ont \u00e9t\u00e9 trait\u00e9s.</li>\n<li>Traiter les factures commerciales, les r\u00e8glements interminist\u00e9riels et les demandes de remboursement des frais d\u2019accueil.</li>\n<li>Expliquer les politiques, les directives et les lignes directrices et proposer des options.</li>\n<li>Utiliser des syst\u00e8mes automatis\u00e9s d\u2019information financi\u00e8re et d\u2019autres applications logicielles.</li>\n<li>Fournir et coordonner des services de traitement administratif et financier (comptes cr\u00e9diteurs) aux clients et aux gestionnaires des centres de responsabilit\u00e9.</li>\n</ul>\n<h3><strong><br>\u00c9noncer des crit\u00e8res de m\u00e9rite et conditions d\u2019emploi </strong></h3>\n<p><strong><br>Qualifications essentielles</strong></p>\n<p><br>\u00c9ducation :</p>\n<p>\u00c9tudes secondaires termin\u00e9es avec succ\u00e8s.</p>\n<p><br>Exp\u00e9rience :</p>\n<p>Exp\u00e9rience dans la prestation de services de soutien financier tel que le traitement de transactions financi\u00e8res.\u00a0</p>\n<p>Exp\u00e9rience de l\u2019utilisation de logiciels de traitement de texte, de tableur tel que Microsoft Word et Excel, et de courrier \u00e9lectronique.</p>\n<p>Exp\u00e9rience de l\u2019utilisation du syst\u00e8me financier SAP. \u00a0</p>\n<p><br>Accent mis sur le client</p>\n<p>Travail d'\u00e9quipe</p>\n<p>Initiative</p>\n<p>Communication interactive</p>\n<p><br>Exigences linguistiques :</p>\n<p>Vari\u00e9es \u2013 anglais essentiel, bilingue imp\u00e9ratif - BBB/BBB</p>\n<p>\u00a0</p>\n<p><strong>Qualifications constituant un atout </strong></p>\n<p>Dipl\u00f4me d\u2019\u00e9tudes postsecondaires en comptabilit\u00e9, en finances ou en administration des affaires d\u2019un \u00e9tablissement postsecondaire reconnu.</p>\n<p>Exp\u00e9rience de l\u2019utilisation du syst\u00e8me Hogg Robinson Group (HRG) des Services de voyage partag\u00e9s (SVP).</p>\n<p>Exp\u00e9rience dans la prestation de services de soutien financier tel que le traitement de transactions financi\u00e8res au sein du gouvernement f\u00e9d\u00e9ral en conformit\u00e9 avec les politiques, directives ou lignes directives du Conseil du Tr\u00e9sor.</p>\n<p>Exp\u00e9rience de la formulation de conseils et de directives sur les politiques et les proc\u00e9dures du gouvernement f\u00e9d\u00e9ral qui ont trait aux comptes cr\u00e9diteurs et/ou aux voyages.</p>\n<p>\u00a0</p>\n<p><strong>Besoins de l'organisation </strong></p>\n<p>Pour diversifier l\u2019effectif, on pourra examiner la candidature des personnes qui s\u2019identifient comme appartenant \u00e0 des groupes vis\u00e9s par l\u2019\u00e9quit\u00e9 en mati\u00e8re d\u2019emploi, soit les autochtones, les personnes handicap\u00e9es, les membres des minorit\u00e9s visibles et les femmes.</p>\n<p>\u00a0</p>\n<p><strong>Conditions d'emploi </strong></p>\n<p>Exigences de s\u00e9curit\u00e9 : Cote de fiabilit\u00e9</p>\n<p>\u00a0</p>\n<p><strong>Exigences op\u00e9rationnelles </strong></p>\n<p>\u00catre apte et dispos\u00e9 \u00e0 faire des heures suppl\u00e9mentaires au besoin.</p>\n<h3><strong><br>Candidatures</strong></h3>\n<p>Les employ\u00e9s d\u2019AAC de la RCN int\u00e9ress\u00e9s sont invit\u00e9s \u00e0 envoyer leur curriculum vitae et une lettre d\u2019accompagnement \u00e0 Tania Gardner \u2013 <a href=\"mailto:tania.gardner2@canada.ca\">tania.gardner2@canada.ca</a>.</p>\n<p>Les curriculum vitae doivent nettement pr\u00e9ciser :</p>\n<ul>\n<li>la dur\u00e9e de votre emploi (p. ex., p\u00e9riode d\u00e9termin\u00e9e ou ind\u00e9termin\u00e9e);</li>\n<li>le groupe et niveau de votre poste d\u2019attache.</li>\n</ul>\n<h3><strong><br>Remarques</strong></h3>\n<ul>\n<li>Une mutation ne peut changer la dur\u00e9e d\u2019emploi d\u2019un employ\u00e9 ou d\u2019une employ\u00e9e (de dur\u00e9e d\u00e9termin\u00e9e \u00e0 dur\u00e9e ind\u00e9termin\u00e9e, etc.) ni constituer une promotion.\u00a0</li>\n<li>Les communications relatives au processus de s\u00e9lection se feront par courriel.</li>\n<li>Un bassin de candidat(e)s qualifi\u00e9(e)s pourra \u00eatre cr\u00e9\u00e9 et pourra servir \u00e0 doter des postes semblables, par nomination int\u00e9rimaire, affectation ou mutation</li>\n</ul>\n<p>\u00a0</p>\n\n"
    },
    "breadcrumb": {
        "en": "Finance Specialist",
        "fr": "Sp\u00e9cialiste en finance"
    },
    "empl": {
        "type": {
            "en": "Assignment, Deployment, Acting",
            "fr": "Affectation, Mutation, Int\u00e9rimaire"
        },
        "classification": {
            "en": "CR-5 and equivalent",
            "fr": "CR-5 et \u00e9quivalent"
        },
        "branch": {
            "en": "Corporate Management Branch",
            "fr": "Gestion int\u00e9gr\u00e9e"
        },
        "locations": {
            "en": "Ottawa, Ontario",
            "fr": "Ottawa, Ontario"
        },
        "date_closing": {
            "en": "2019-05-24",
            "fr": "2019-05-24"
        },
        "open_to": {
            "en": "All AAFC Employees in the National Capital Region (NCR)",
            "fr": "Tous les employ\u00e9s d\u2019AAC dans la r\u00e9gion de la capitale nationale (RCN)"
        },
        "name": {
            "en": "Tania Gardner",
            "fr": "Tania Gardner"
        },
        "email": {
            "en": "tania.gardner2@canada.ca",
            "fr": "tania.gardner2@canada.ca"
        }
    }
}