{
    "dcr_id": "1557428568283",
    "lang": "en",
    "title": {
        "en": "Reminder - Register Now: 6<sup>th</sup> Annual GCWCC Golf Tournament",
        "fr": "Rappel - Inscrivez-vous d\u00e8s maintenant au 6<sup>e</sup> tournoi annuel de golf de la CCMTGC"
    },
    "modified": "2019-06-12 00:00:00.0",
    "issued": "2019-05-16 00:00:00.0",
    "type_name": "intra-intra/news-nouv",
    "node_id": "1279030006975",
    "layout_name": null,
    "dc_date_created": "2019-05-10",
    "breadcrumb_label": "reminder - Register Now: 6<sup>th</sup> Annual GCWCC Golf Tournament",
    "meta": {
        "issued": {
            "en": "2019-05-16",
            "fr": "2019-05-16"
        },
        "modified": {
            "en": "2019-06-12",
            "fr": "2019-05-30"
        },
        "format": {
            "en": "gcformat",
            "fr": "gcformat"
        },
        "title": {
            "en": "Reminder - Register Now: 6<sup>th</sup> Annual GCWCC Golf Tournament",
            "fr": "Rappel - Inscrivez-vous d\u00e8s maintenant au 6<sup>e</sup> tournoi annuel de golf de la CCMTGC"
        },
        "subject": {
            "en": "communications",
            "fr": "communications"
        },
        "description": {
            "en": "Information Systems Branch invites you to participate in the 6<sup>th</sup> Annual Government of Canada Workplace Charitable Campaign Golf Tournament.",
            "fr": "La Direction g\u00e9n\u00e9rale des syst\u00e8mes d'information vous invite au 6<sup>e</sup> tournoi annuel de la Campagne de charit\u00e9 en milieu de travail du gouvernement du Canada."
        },
        "language": {
            "en": "eng",
            "fr": "fra"
        },
        "audience": {
            "en": "gcaudience",
            "fr": "gcaudience"
        },
        "creator": {
            "en": "Agriculture and Agri-Food Canada",
            "fr": "Agriculture et Agroalimentaire Canada"
        },
        "spatial": {
            "en": "gcregions",
            "fr": "gcregions"
        },
        "service": {
            "en": "AAFC_AgriSource",
            "fr": "AAC_AgriSource"
        },
        "accessRights": {
            "en": "3",
            "fr": "3"
        }
    },
    "body": {
        "en": "<br>\n<br>\n<p>Information Systems Branch invites you to participate in the 6<sup>th</sup> Annual Government of Canada Workplace Charitable Campaign (<abbr title=\"Government of Canada Workplace Charitable Campaign\">GCWCC</abbr>) Golf Tournament.</p>\n<p><strong>Location:</strong> Golf Ch\u00e2teau Cartier, 1170 Aylmer Road, Gatineau, Quebec<br><strong>Date:</strong> Thursday, June 20<br><strong>Time:</strong> 12:30 p.m. shotgun start (dinner and awards ceremony to follow at 5:30 p.m.)<br><strong>Cost:</strong></p>\n<ul>\n<li><strong>$90 </strong>(includes cart, competitive skills and dinner)</li>\n<li><strong>$70 </strong>(includes cart and competitive skills)</li>\n<li><strong>$35</strong> (dinner only)</li>\n</ul>\n<p>\n<strong>Registration deadline: </strong>June 17</p>\n<p>Please register with Nicole Seguin at 613-773-1398, or <a href=\"mailto:nicole.seguin@canada.ca\">nicole.seguin@canada.ca</a>. </p>\n<p>Proceeds from this event will go to <abbr title=\"Government of Canada Workplace Charitable Campaign\">GCWCC</abbr>.</p>\n<p><img src=\"https://intranet.agr.gc.ca/resources/prod/news/images/GCWCC2019-EN.png\" class=\"center-block\" alt=\"GCWCC: Cultivating our spirit of sharing\"></p>\n\n\t\t",
        "fr": "<br>\n<br>\n<p>La Direction g\u00e9n\u00e9rale des syst\u00e8mes d'information vous invite au 6<sup>e</sup> tournoi annuel de la Campagne de charit\u00e9 en milieu de travail du gouvernement du Canada (<abbr title=\"Campagne de charit\u00e9 en milieu de travail du gouvernement du Canada\">CCMTGC</abbr>).</p>\n<p><strong>Endroit :</strong> Golf Ch\u00e2teau Cartier, 1170, chemin d'Aylmer, Gatineau (Qu\u00e9bec)<br><strong>Date : </strong>Jeudi 20 juin<br><strong>Heure : </strong>D\u00e9part<strong> </strong>simultan\u00e9 \u00e0 12 h 30 (souper et remise des prix \u00e0 17 h 30)<br><strong>Frais d\u2019inscription :</strong></p>\n<ul>\n<li><strong>90 $ </strong>(avec voiturette, concours d\u2019habilet\u00e9s et souper)</li>\n<li><strong>70 $ </strong>(avec voiturette et concours d\u2019habilet\u00e9s)</li>\n<li><strong>35 $ </strong>(souper seulement)</li>\n</ul>\n<p>Vous avez jusqu\u2019au <strong>17 juin</strong> pour vous inscrire</p>\n<p>Veuillez communiquer avec Nicole S\u00e9guin au 613-773-1398, ou \u00e0 <a href=\"mailto:nicole.seguin@canada.ca\">nicole.seguin@canada.ca</a>\u00a0pour vous inscrire.</p>\n<p>Les profits seront vers\u00e9s \u00e0 la <abbr title=\"Campagne de charit\u00e9 en milieu de travail du gouvernement du Canada\">CCMTGC</abbr>.</p>\n<p><img src=\"https://intranet.agr.gc.ca/resources/prod/news/images/GCWCC2019-FR.png\" class=\"center-block\" alt=\"CCMTGC : Cultivons l'esprit de g\u00e9n\u00e9rosit\u00e9\"></p>\n\t\t"
    },
    "breadcrumb": {
        "en": "NCR - reminder - Register Now: 6th Annual GCWCC Golf Tournament",
        "fr": "RCN - Rappel - Inscrivez-vous d\u00e8s maintenant au 6e tournoi annuel de golf de la CCMTGC"
    },
    "news": {
        "date_posted": {
            "en": "2019-05-15",
            "fr": "2019-05-15"
        },
        "to": {
            "en": "NCR only",
            "fr": "RCN seulement"
        },
        "by": {
            "en": "Information Systems Branch",
            "fr": "Direction g\u00e9n\u00e9rale des syst\u00e8mes d'information"
        }
    }
}