{
    "dcr_id": "1557945664432",
    "lang": "en",
    "title": {
        "en": "Scheduled Maintenance of ISB Services (Phoenix) - May 18-19",
        "fr": "Entretien pr\u00e9vu des services de la DGSI (Ph\u00e9nix) \u2013 Du 18 au 19 mai"
    },
    "modified": "2019-05-16 00:00:00.0",
    "issued": "2019-05-16 00:00:00.0",
    "type_name": "intra-intra/news-nouv",
    "node_id": "1279030006975",
    "layout_name": null,
    "dc_date_created": "2019-05-15",
    "breadcrumb_label": "Scheduled Maintenance of ISB Services (Phoenix) \u2013 May 18-19",
    "meta": {
        "issued": {
            "en": "2019-05-16",
            "fr": "2019-05-16"
        },
        "modified": {
            "en": "2019-05-16",
            "fr": "2019-05-16"
        },
        "format": {
            "en": "gcformat",
            "fr": "gcformat"
        },
        "title": {
            "en": "Scheduled Maintenance of ISB Services (Phoenix) - May 18-19",
            "fr": "Entretien pr\u00e9vu des services de la DGSI (Ph\u00e9nix) \u2013 Du 18 au 19 mai"
        },
        "subject": {
            "en": "communications",
            "fr": "communications"
        },
        "description": {
            "en": "Please be advised that preventative maintenance of ISB services will be performed from Saturday, May 18 to Sunday May 19, 2019.",
            "fr": "Veuillez noter qu'un entretien pr\u00e9ventif des services de la DGSI aura lieu du samedi 18 mai au dimanche 19 mai 2019."
        },
        "language": {
            "en": "eng",
            "fr": "fra"
        },
        "audience": {
            "en": "gcaudience",
            "fr": "gcaudience"
        },
        "creator": {
            "en": "Agriculture and Agri-Food Canada",
            "fr": "Agriculture et Agroalimentaire Canada"
        },
        "spatial": {
            "en": "gcregions",
            "fr": "gcregions"
        },
        "service": {
            "en": "AAFC_AgriSource",
            "fr": "AAC_AgriSource"
        },
        "accessRights": {
            "en": "3",
            "fr": "3"
        }
    },
    "body": {
        "en": "<br>\n<br>\n<p>Please be advised that preventative maintenance of ISB services will be performed from Saturday, May 18 to Sunday May 19, 2019.</p>\n<p>These measures are performed regularly to improve performance and to ensure that the department does not experience any outages that would affect employees and the delivery of our services.</p>\n<p>Consequently, the following service will not be available:</p>\n<p><strong>Saturday, May 18 \u2013 7:00 p.m. until Sunday, May 19, 2019 \u2013 7:00 a.m. ET</strong></p>\n<p>\u2022\u00a0Phoenix</p>\n<p>Should you have any questions or concerns, please do not hesitate to contact IT Centre TI.</p>\n<p><strong>IT Centre TI</strong><br>\nTelephone: 1-855-545-4411<br>\n<a href=\"http://assystweb:8080/assystnet/#homepage\">My IT Centre TI</a></p>\n<p><img src=\"https://intranet.agr.gc.ca/resources/prod/news/images/ITCentreTI2.png\" class=\"center-block\"></p>\n\n\t\t",
        "fr": "<br>\n<br>\n<p>Veuillez noter qu\u2019un entretien pr\u00e9ventif des services de la DGSI aura lieu du samedi 18 mai au dimanche 19 mai 2019.</p>\n<p>Ces mesures sont prises r\u00e9guli\u00e8rement en vue d\u2019am\u00e9liorer le rendement et de veiller \u00e0 ce que le Minist\u00e8re ne subisse aucune panne qui pourrait nuire aux employ\u00e9s et \u00e0 la prestation de nos services.</p>\n<p>Par cons\u00e9quent, le service ci-dessous ne sera pas accessible :</p>\n<p><strong>Du samedi 18 mai, \u00e0 19 h, au dimanche 19 mai 2019, \u00e0 7 h (HE)</strong></p>\n<p>\u2022\u00a0Ph\u00e9nix</p>\n<p>Si vous avez des questions ou des pr\u00e9occupations \u00e0 ce sujet, n\u2019h\u00e9sitez pas \u00e0 communiquer avec le IT Centre TI.</p>\n<p><strong>IT Centre TI</strong><br>\nT\u00e9l\u00e9phone : 1-855-545-4411<br>\n<a href=\"http://assystweb:8080/assystnet/#homepage\">Mon IT Centre TI</a></p>\n<p><img src=\"https://intranet.agr.gc.ca/resources/prod/news/images/ITCentreTI2.png\" class=\"center-block\"></p>\n\t\t"
    },
    "breadcrumb": {
        "en": "Scheduled Maintenance of ISB Services (Phoenix) \u2013 May 18-19",
        "fr": "Entretien pr\u00e9vu des services de la DGSI (Ph\u00e9nix) \u2013 Du 18 au 19 mai"
    },
    "news": {
        "date_posted": {
            "en": "2019-05-15",
            "fr": "2019-05-15"
        },
        "to": {
            "en": "All staff",
            "fr": "Tous les employ\u00e9s"
        },
        "by": {
            "en": "IT Centre TI",
            "fr": "IT Centre TI"
        }
    }
}