{
    "dcr_id": "1557234218722",
    "lang": "en",
    "title": {
        "en": "This Week in The Harvest - Stepping Up With a Walking Club",
        "fr": "Au menu de La Moisson cette semaine - Embo\u00eeter le pas avec un club de marche"
    },
    "modified": "2019-05-09 00:00:00.0",
    "issued": "2019-05-09 00:00:00.0",
    "type_name": "intra-intra/news-nouv",
    "node_id": "1279030006975",
    "layout_name": null,
    "dc_date_created": "2019-05-07",
    "breadcrumb_label": "",
    "meta": {
        "issued": {
            "en": "2019-05-09",
            "fr": "2019-05-09"
        },
        "modified": {
            "en": "2019-05-09",
            "fr": "2019-05-09"
        },
        "format": {
            "en": "gcformat",
            "fr": "gcformat"
        },
        "title": {
            "en": "This Week in The Harvest - Stepping Up With a Walking Club",
            "fr": "Au menu de La Moisson cette semaine - Embo\u00eeter le pas avec un club de marche"
        },
        "subject": {
            "en": "communications",
            "fr": "communications"
        },
        "description": {
            "en": "In case you missed it, here's what's new in <I>The Harvest</I> this week:",
            "fr": "Au cas o\u00f9 vous l'auriez manqu\u00e9, voici le menu que la section <I>La Moisson</I> vous offre cette semaine."
        },
        "language": {
            "en": "eng",
            "fr": "fra"
        },
        "audience": {
            "en": "gcaudience",
            "fr": "gcaudience"
        },
        "creator": {
            "en": "Agriculture and Agri-Food Canada",
            "fr": "Agriculture et Agroalimentaire Canada"
        },
        "spatial": {
            "en": "gcregions",
            "fr": "gcregions"
        },
        "service": {
            "en": "AAFC_AgriSource",
            "fr": "AAC_AgriSource"
        },
        "accessRights": {
            "en": "3",
            "fr": "3"
        }
    },
    "body": {
        "en": "<br>\n<br>\n<p>In case you missed it, here\u2019s what\u2019s new in <em><a rel=\"external\" href=\"https://collab.agr.gc.ca/apps/harvest-moisson\">The Harvest</a></em> this week:</p>\n<p><strong>Feature story:</strong> <a rel=\"external\" href=\"https://collab.agr.gc.ca/apps/harvest-moisson\">Stepping Up With a Walking Club</a> \u2013 Rain, shine, or frigid temperatures, nothing stops the Public Affairs Branch walking club in Ottawa. The group goes for a walk every Wednesday at noon from the NHCAP building, but members are encouraged to grab a pedometer from a communal bowl in the office and add their steps to the total at any time.</p>\n<p><strong>Quiz: </strong><a rel=\"external\" href=\"https://collab.agr.gc.ca/apps/harvest-moisson\">Approximately how many litres of milk can one cow produce in a year?</a></p>\n<p><strong>Feature photo: </strong><a rel=\"external\" href=\"https://collab.agr.gc.ca/apps/harvest-moisson/gallery/Lists/Posts/Post.aspx?ID=283\">Bluebird</a>, by Kosala Rajapaksha, Science and Technology Branch, Saskatoon, Saskatchewan.</p>\n<p><strong>Did you know?</strong> <a rel=\"external\" href=\"https://collab.agr.gc.ca/apps/harvest-moisson/Pages/DidYouKnow.aspx\">The average age of a Canadian farmer is about 56.</a></p>\n<p>You can get involved by posting a comment or \u201cliking\u201d an article. You can also check out what your colleagues are liking and saying.</p>\n<p>Should you have story ideas, scenic or artistic agriculture-related photos, or interesting facts, please share them with us by clicking on \u201cContribute\u201d in the top menu bar.</p>\n<p><img src=\"https://intranet.agr.gc.ca/resources/prod/news/images/HarvestWalkingClub.png\" class=\"center-block\" alt=\"Walking club members.\"></p>\n\n\t\t",
        "fr": "<br>\n<br>\n<p>Au cas o\u00f9 vous l\u2019auriez manqu\u00e9, voici le menu que la section <em><a rel=\"external\" href=\"https://collab.agr.gc.ca/apps/harvest-moisson\">La Moisson</a></em> vous offre cette semaine :</p>\n<p><strong>Article vedette :</strong> <a rel=\"external\" href=\"https://collab.agr.gc.ca/apps/harvest-moisson\">Embo\u00eeter le pas avec un club de marche</a> \u2013 Qu\u2019il pleuve, qu\u2019il fasse beau ou qu\u2019il fasse froid, rien n\u2019arr\u00eate le club de marche de la Direction g\u00e9n\u00e9rale des affaires publiques, \u00e0 Ottawa. Le groupe marche tous les mercredis, \u00e0 midi, depuis l\u2019immeuble du CACPA; mais les membres peuvent se prendre un podom\u00e8tre en tout temps, dans un plat collectif au bureau, pour ensuite ajouter leurs comptes de pas au total.</p>\n<p><strong>Jeu-questionnaire : </strong><a rel=\"external\" href=\"https://collab.agr.gc.ca/apps/harvest-moisson\">Environ combien de litres de lait une vache peut-elle produire dans une ann\u00e9e?</a></p>\n<p><strong>Photo vedette :</strong> <a rel=\"external\" href=\"https://collab.agr.gc.ca/apps/harvest-moisson/gallery/Lists/Posts/Post.aspx?ID=283\">Merlebleu</a>, par Kosala Rajapaksha, Direction g\u00e9n\u00e9rale des sciences et de la technologie, Saskatoon (Saskatchewan).</p>\n<p><strong>Le saviez-vous?</strong> <a rel=\"external\" href=\"https://collab.agr.gc.ca/apps/harvest-moisson/Pages/DidYouKnow.aspx\">La moyenne d\u2019\u00e2ge des agriculteurs canadiens est d\u2019environ 56 ans.</a></p>\n<p>Vous pouvez participer en affichant des commentaires ou en utilisant la fonction \u00ab J\u2019aime \u00bb ou \u00ab Partager \u00bb pour exprimer votre appr\u00e9ciation d\u2019un article. Vous pouvez aussi aller voir ce que vos coll\u00e8gues aiment et ont \u00e0 dire.</p>\n<p>Si vous avez des id\u00e9es d\u2019articles, des photos de paysages ou \u00e0 caract\u00e8re artistique li\u00e9es \u00e0 l\u2019agriculture ou encore des faits int\u00e9ressants, veuillez nous en faire part en cliquant sur \u00ab Collaborer \u00bb dans la barre de menu en haut de la page.</p>\n<p><img src=\"https://intranet.agr.gc.ca/resources/prod/news/images/HarvestWalkingClub.png\" class=\"center-block\" alt=\"Les membres du club de marche.\"></p>\n\t\t"
    },
    "breadcrumb": {
        "en": "This Week in The Harvest - Stepping Up With a Walking Club",
        "fr": "Au menu de La Moisson cette semaine - Embo\u00eeter le pas avec un club de marche"
    },
    "news": {
        "date_posted": {
            "en": "2019-05-09",
            "fr": "2019-05-09"
        },
        "to": {
            "en": "All staff",
            "fr": "Tous les employ\u00e9s"
        },
        "by": {
            "en": "Corporate Communications, Public Affairs Branch",
            "fr": "Communications minist\u00e9rielles, Direction g\u00e9n\u00e9rale des affaires publiques"
        }
    }
}