{
    "dcr_id": "1557159272510",
    "lang": "en",
    "title": {
        "en": "Industry Development Officer",
        "fr": "Agent ou agente de d\u00e9veloppement de l\u2019industrie"
    },
    "modified": "2019-05-07 00:00:00.0",
    "issued": "2019-05-07 00:00:00.0",
    "type_name": "intra-intra/empl-empl",
    "node_id": "1279029955397",
    "layout_name": null,
    "dc_date_created": "2019-05-06",
    "breadcrumb_label": "",
    "meta": {
        "issued": {
            "en": "2019-05-07",
            "fr": "2019-05-07"
        },
        "modified": {
            "en": "2019-05-07",
            "fr": "2019-05-07"
        },
        "format": {
            "en": "gcformat",
            "fr": "gcformat"
        },
        "title": {
            "en": "Industry Development Officer",
            "fr": "Agent ou agente de d\u00e9veloppement de l\u2019industrie"
        },
        "subject": {
            "en": "staffing",
            "fr": "dotation en personnel"
        },
        "language": {
            "en": "eng",
            "fr": "fra"
        },
        "audience": {
            "en": "gcaudience",
            "fr": "gcaudience"
        },
        "type": {
            "en": "notice",
            "fr": "avis"
        },
        "creator": {
            "en": "Agriculture and Agri-Food Canada",
            "fr": "Agriculture et Agroalimentaire Canada"
        },
        "spatial": {
            "en": "gcregions",
            "fr": "gcregions"
        },
        "service": {
            "en": "AAFC_AgriSource",
            "fr": "AAC_AgriSource"
        },
        "accessRights": {
            "en": "3",
            "fr": "3"
        }
    },
    "body": {
        "en": "\n<p><strong>\u00a0</strong></p>\n<p><strong>Work Environment:</strong></p>\n<p>Be part of Agriculture and Agri-Food Canada\u2019s mission to provide leadership in the growth and development of a competitive, innovative and sustainable Canadian agriculture and agri-food sector.</p>\n<p><strong><br>Duties:</strong></p>\n<p>The position is responsible for sector development and analysis within the agriculture and agri-food industry in Manitoba and supports the Regional Office\u2019s role in corporate representation.</p>\n<p>Example activities would include:</p>\n<p>1) Providing support for meetings, events and projects;</p>\n<p>2) Updating and preparing sectoral profiles;</p>\n<p>3) Supporting Senior Industry Development Officers in developing and executing outreach plans;</p>\n<p>4) Developing analytical reports to inform policy decisions and senior management;</p>\n<p>5) Providing input on due diligence for project assessments; and</p>\n<p>6) Updating and gathering market intelligence on the Manitoba agriculture and agri-food processing sectors.</p>\n<p><strong><br>Statement of Merit Criteria &amp; Conditions of Employment</strong></p>\n<p><strong><br>Essential Qualifications</strong></p>\n<p><strong><br>Education</strong></p>\n<p><em>Graduation with a degree from a recognized post-secondary institution.</em></p>\n<p><strong><br>Experiences</strong></p>\n<p>Experience identifying, researching and analyzing economic, policy or business development issues;</p>\n<p>Experience preparing briefing notes, reports or documents used by management;</p>\n<p>Experience developing and maintaining internal or external stakeholder relationships. (Stakeholders may include, but are not limited to: private companies, organizations, other federal departments/agencies, or other departmental branches.); and</p>\n<p>Experience using SharePoint or Knowledge Workspace.</p>\n<p><strong><br>Competencies</strong></p>\n<p>Writing skills;</p>\n<p>Planning and organizing;</p>\n<p>Adaptability;</p>\n<p>Interactive communication;</p>\n<p>Initiative; and</p>\n<p>Analytical thinking.</p>\n<p><strong><br>Language Requirement</strong></p>\n<p>English Essential</p>\n<p><strong><br>Organizational Needs</strong></p>\n<p>In support of achieving a diversified workforce, consideration may be given to candidates self-identifying as belonging to one of the following Employment Equity groups: Aboriginal peoples, Persons with a Disability; Visible Minorities, Women.</p>\n<p><strong><br>Conditions of Employment</strong><strong> </strong></p>\n<p>Security Requirement - Reliability</p>\n<p>Other conditions of employment:</p>\n<p>Ability and willingness to work overtime.</p>\n<p>Ability and willingness to travel.</p>\n<p><strong><br>Applications:</strong></p>\n<p>Interested AAFC employees located in Winnipeg, MB, are encouraged to forward their resume and cover letter to\u00a0Grant Woods, Regional Deputy Director,\u00a0at <a href=\"mailto:grant.woods@canada.ca\">grant.woods@canada.ca</a></p>\n<p>Resumes must clearly identify:</p>\n<ul>\n<li>\n<p>Your tenure (e.g. term or indeterminate); and</p>\n</li>\n<li>\n<p>Your substantive group and level.</p>\n</li>\n</ul>\n<p>A covering letter in 1,500 words (maximum)\"Candidates must submit a cover letter which clearly demonstrates how they meet each of the educational and experience factors listed in the essential and asset qualifications. Candidates must use the education and experience factors as a header and write one or two paragraphs for each demonstrating how they meet that criterion. Resumes may be used as a secondary source to validate the experience described in the cover letter. Failure to provide this information in the requested format will result in your applications being rejected.\"</p>\n<p><strong><br>Notes:</strong></p>\n<p>\u2022Your cover letter may be used to assess your communication and writing skills;</p>\n<p>\u2022Candidates may be assessed through an interview;</p>\n<p>\u2022Reference checks may be sought;</p>\n<p>\u2022Deployments cannot change the tenure of an employee (i.e: term to indeterminate) or constitute a promotion;</p>\n<p>\u2022Communication for this process will be sent via email; and</p>\n<p>\u2022A pool of qualified candidates may be established and may be used to staff similar positions on an acting, assignment or deployment basis.</p>\n<p>\u00a0</p>\n",
        "fr": "\n<p><strong>\u00a0</strong></p>\n<p><strong>Environnement de travail</strong></p>\n<p>Participer \u00e0 la mission du minist\u00e8re de l\u2019Agriculture et de l\u2019Agroalimentaire du Canada (AAC) qui est d\u2019orienter la croissance et le d\u00e9veloppement d\u2019un secteur canadien de l\u2019agriculture et de l\u2019agroalimentaire comp\u00e9titif, innovateur et durable.</p>\n<p><strong><br>Fonctions</strong></p>\n<p>Le titulaire du poste est responsable du d\u00e9veloppement et de l\u2019analyse du secteur de l\u2019agriculture et de l\u2019agroalimentaire au Manitoba et appuie le r\u00f4le du bureau r\u00e9gional dans la repr\u00e9sentation des entreprises.</p>\n<p>\u00c0 titre d\u2019exemple, voici une liste de t\u00e2ches :</p>\n<p>1) Offrir du soutien pour les r\u00e9unions, les activit\u00e9s et les projets.</p>\n<p>2) Pr\u00e9parer et mettre \u00e0 jour des profils sectoriels.</p>\n<p>3) Fournir du soutien aux agents de d\u00e9veloppement industriel principaux dans l\u2019\u00e9laboration et la mise en \u0153uvre de plans de mobilisation.</p>\n<p>4) Produire des rapports d\u2019analyse pour \u00e9clairer les d\u00e9cisions relatives aux politiques et informer la haute direction.</p>\n<p>5) Contribuer au processus de diligence raisonnable pour l\u2019\u00e9valuation des projets.</p>\n<p>6) Recueillir et mettre \u00e0 jour des renseignements sur les march\u00e9s des secteurs de la transformation des produits agricoles et agroalimentaires du Manitoba.</p>\n<p><strong><br>\u00c9nonc\u00e9 des crit\u00e8res de m\u00e9rite et des conditions d\u2019emploi</strong></p>\n<p><strong><br>Qualifications essentielles</strong></p>\n<p><strong><br>\u00c9tudes </strong></p>\n<p>Un grade d\u2019un \u00e9tablissement d\u2019enseignement postsecondaire reconnu.</p>\n<p><strong><br>Exp\u00e9rience</strong></p>\n<p>Exp\u00e9rience de l\u2019identification, de la recherche et de l\u2019analyse des enjeux li\u00e9es \u00e0 l\u2019\u00e9conomie, aux politiques ou au d\u00e9veloppement des entreprises.</p>\n<p>Exp\u00e9rience de la r\u00e9daction de notes d\u2019information, de rapports ou d\u2019autres documents \u00e0 l\u2019intention de la gestion.</p>\n<p>Exp\u00e9rience de l\u2019\u00e9tablissement et du maintien de relations avec des intervenants internes ou externes. (Les intervenants peuvent comprendre, sans toutefois s\u2019y limiter : des entreprises priv\u00e9es, des organisations, d\u2019autres minist\u00e8res et organismes f\u00e9d\u00e9raux ou d\u2019autres directions g\u00e9n\u00e9rales du minist\u00e8re).</p>\n<p>Exp\u00e9rience de l\u2019utilisation de SharePoint ou de l\u2019Espace de travail du savoir.</p>\n<p><strong><br>Comp\u00e9tences</strong></p>\n<p>Comp\u00e9tences en r\u00e9daction</p>\n<p>Planification et organisation</p>\n<p>Facult\u00e9 d\u2019adaptation</p>\n<p>Communication interactive</p>\n<p>Esprit d\u2019initiative</p>\n<p>Raisonnement analytique</p>\n<p><strong><br>Exigences linguistiques </strong></p>\n<p>Anglais essentiel</p>\n<p><strong><br>Besoins organisationnels </strong></p>\n<p>Pour les besoins de la diversification de l\u2019effectif, une attention particuli\u00e8re pourrait \u00eatre accord\u00e9e aux candidats qui auront indiqu\u00e9 leur appartenance \u00e0 l\u2019un des groupes suivants, vis\u00e9s par l\u2019\u00e9quit\u00e9 en mati\u00e8re d\u2019emploi : Autochtones, personnes handicap\u00e9es, membres d\u2019une minorit\u00e9 visible, femmes.</p>\n<p><strong><br>Conditions d\u2019emploi</strong></p>\n<p>Exigences relatives \u00e0 la s\u00e9curit\u00e9 - Fiabilit\u00e9</p>\n<p>Autres conditions d\u2019emploi</p>\n<p>Consentir \u00e0 faire des heures suppl\u00e9mentaires et \u00eatre en mesure de le faire.</p>\n<p>Consentir \u00e0 voyager et \u00eatre en mesure de le faire.</p>\n<p><strong><br>Demandes</strong></p>\n<p>Les employ\u00e9s d\u2019AAC int\u00e9ress\u00e9s qui travaillent \u00e0 Winnipeg, au Manitoba, sont invit\u00e9s \u00e0 faire parvenir leur curriculum vit\u00e6 et leur lettre de pr\u00e9sentation \u00e0\u00a0Grant Woods, Directeur r\u00e9gional adjoint,\u00a0\u00e0 <a href=\"mailto:grant.woods@canada.ca\">grant.woods@canada.ca</a>.</p>\n<p>Dans leur curriculum vit\u00e6, les candidats doivent clairement indiquer :</p>\n<ul>\n<li>\n<p>la dur\u00e9e de leur emploi (p. ex., d\u00e9termin\u00e9e ou ind\u00e9termin\u00e9e);</p>\n</li>\n<li>leur groupe et niveau de titularisation.</li>\n</ul>\n<p>Lettre de pr\u00e9sentation d\u2019au plus 1\u2009500 mots \u2012 Les candidats doivent fournir une lettre de pr\u00e9sentation montrant clairement qu\u2019ils satisfont \u00e0 chacun des crit\u00e8res relatifs aux \u00e9tudes et \u00e0 l\u2019exp\u00e9rience \u00e9num\u00e9r\u00e9s dans les qualifications essentielles et les qualifications constituant un atout. Pour ce faire, ils doivent utiliser chaque crit\u00e8re li\u00e9 aux \u00e9tudes et \u00e0 l\u2019exp\u00e9rience comme titre de rubrique et expliquer en un ou deux paragraphes en quoi ils satisfont \u00e0 ce crit\u00e8re. Les curriculum vit\u00e6 pourront \u00eatre utilis\u00e9s comme source d\u2019information secondaire pour valider l\u2019exp\u00e9rience d\u00e9crite dans la lettre de pr\u00e9sentation. Les candidats qui ne fourniront pas ces renseignements sous la forme demand\u00e9e verront leur candidature rejet\u00e9e.</p>\n<p><strong><br>Remarque</strong> :</p>\n<ul>\n<li>\n<p>La lettre de pr\u00e9sentation pourrait \u00eatre utilis\u00e9e pour \u00e9valuer les comp\u00e9tences en communication et en r\u00e9daction des candidats.</p>\n</li>\n</ul>\n<ul>\n<li>\n<p>Les candidats pourront \u00eatre \u00e9valu\u00e9s au moyen d\u2019une entrevue.</p>\n</li>\n</ul>\n<ul>\n<li>\n<p>Les r\u00e9f\u00e9rences des candidats pourraient faire l\u2019objet d\u2019une v\u00e9rification.</p>\n</li>\n</ul>\n<ul>\n<li>\n<p>Les mutations ne doivent pas entra\u00eener de modification \u00e0 la dur\u00e9e d\u2019emploi d\u2019un employ\u00e9 (d\u00e9termin\u00e9e ou ind\u00e9termin\u00e9e) ni constituer une promotion.</p>\n</li>\n</ul>\n<ul>\n<li>\n<p>Les communications relatives \u00e0 ce processus se feront par courriel.</p>\n</li>\n</ul>\n<ul>\n<li>\n<p>Un bassin de candidats qualifi\u00e9s pourrait \u00eatre \u00e9tabli et utilis\u00e9 pour doter des postes semblables int\u00e9rimaires, temporaires ou permanents.</p>\n</li>\n</ul>\n<p>\u00a0</p>\n\n"
    },
    "breadcrumb": {
        "en": "Industry Development Officer",
        "fr": "Agent ou agente de d\u00e9veloppement de l\u2019industrie"
    },
    "empl": {
        "type": {
            "en": "Assignment, Deployment, Acting",
            "fr": "Affectation, Mutation, Int\u00e9rimaire"
        },
        "classification": {
            "en": "CO-1 and equivalent",
            "fr": "CO-1 et \u00e9quivalent"
        },
        "branch": {
            "en": "Market and Industry Services Branch",
            "fr": "Direction g\u00e9n\u00e9rale des services \u00e0 l'industrie et aux march\u00e9s"
        },
        "locations": {
            "en": "Winnipeg, MB (303 Main St)",
            "fr": "Winnipeg (Manitoba) (303, rue Main)"
        },
        "date_closing": {
            "en": "2019-05-15",
            "fr": "2019-05-15"
        },
        "open_to": {
            "en": "AAFC employees located in Winnipeg, MB",
            "fr": "Tous les employ\u00e9s d\u2019AAC \u00e0 Winnipeg (Manitoba)"
        },
        "name": {
            "en": "Grant Woods",
            "fr": "Grant Woods"
        },
        "email": {
            "en": "grant.woods@canada.ca",
            "fr": "grant.woods@canada.ca"
        }
    }
}