{
    "dcr_id": "1558537831597",
    "lang": "en",
    "title": {
        "en": "This Week in The Harvest - \"On the Job\": More Than Just Trade Policy",
        "fr": "Au menu de La Moisson cette semaine - Au travail : Bien au-del\u00e0 des politiques commerciales"
    },
    "modified": "2019-05-23 00:00:00.0",
    "issued": "2019-05-23 00:00:00.0",
    "type_name": "intra-intra/news-nouv",
    "node_id": "1279030006975",
    "layout_name": null,
    "dc_date_created": "2019-05-22",
    "breadcrumb_label": "This Week in The Harvest \u2013 \u201cOn the Job\u201d: More Than Just Trade Policy",
    "meta": {
        "issued": {
            "en": "2019-05-23",
            "fr": "2019-05-23"
        },
        "modified": {
            "en": "2019-05-23",
            "fr": "2019-05-23"
        },
        "format": {
            "en": "gcformat",
            "fr": "gcformat"
        },
        "title": {
            "en": "This Week in The Harvest - \"On the Job\": More Than Just Trade Policy",
            "fr": "Au menu de La Moisson cette semaine - Au travail : Bien au-del\u00e0 des politiques commerciales"
        },
        "subject": {
            "en": "communications",
            "fr": "communications"
        },
        "description": {
            "en": "In case you missed it, here's what's new in The Harvest this week.",
            "fr": "Au cas o\u00f9 vous l'auriez manqu\u00e9, voici le menu que la section La Moisson vous offre cette semaine."
        },
        "language": {
            "en": "eng",
            "fr": "fra"
        },
        "audience": {
            "en": "gcaudience",
            "fr": "gcaudience"
        },
        "creator": {
            "en": "Agriculture and Agri-Food Canada",
            "fr": "Agriculture et Agroalimentaire Canada"
        },
        "spatial": {
            "en": "gcregions",
            "fr": "gcregions"
        },
        "service": {
            "en": "AAFC_AgriSource",
            "fr": "AAC_AgriSource"
        },
        "accessRights": {
            "en": "3",
            "fr": "3"
        }
    },
    "body": {
        "en": "<br>\n<br>\n<p>In case you missed it, here\u2019s what\u2019s new in <em><a href=\"https://collab.agr.gc.ca/apps/harvest-moisson\">The Harvest</a></em> this week:</p>\n<p><strong>Feature story:</strong> <a href=\"https://collab.agr.gc.ca/apps/harvest-moisson/\">\u201cOn the Job\u201d: More Than Just Trade Policy</a> \u2013 You might think being a trade policy analyst would involve a lot of number crunching and analyzing, but Joseph Kim says it involves much more than that.</p>\n<p><strong>Poll: </strong><a href=\"https://collab.agr.gc.ca/apps/harvest-moisson/\">How often do you visit this site?</a></p>\n<p><strong>Feature photo: </strong><a href=\"https://collab.agr.gc.ca/apps/harvest-moisson/gallery/Lists/Posts/Post.aspx?ID=291\">Duck at Stony Swamp</a>, by Melinda Buijs, Public Affairs Branch, Ottawa, Ontario.</p>\n<p><strong>Did you know?</strong> <a href=\"https://collab.agr.gc.ca/apps/harvest-moisson/Pages/DidYouKnow.aspx\">Canada ships approximately half its sunflower seeds abroad.</a></p>\n<p>You can get involved by posting a comment or \u201cliking\u201d an article. You can also check out what your colleagues are liking and saying.</p>\n<p>Should you have story ideas, scenic or artistic agriculture-related photos, or interesting facts, please share them with us by clicking on \u201cContribute\u201d in the top menu bar.</p>\n<p><img src=\"https://intranet.agr.gc.ca/resources/prod/news/images/HarvestJosephKim.png\" class=\"center-block\"></p>\n\n\t\t",
        "fr": "<br>\n<br>\n<p>Au cas o\u00f9 vous l\u2019auriez manqu\u00e9, voici le menu que la section <em><a href=\"https://collab.agr.gc.ca/apps/harvest-moisson\">La Moisson</a></em> vous offre cette semaine :</p>\n<p><strong>Article vedette :</strong> <a href=\"https://collab.agr.gc.ca/apps/harvest-moisson/\"> Au travail : Bien au-del\u00e0 des politiques commerciales</a> \u2013 On pourrait penser qu\u2019un analyste des politiques commerciales doit faire beaucoup de calculs et d\u2019analyses, mais Joseph Kim affirme que ce travail repr\u00e9sente beaucoup plus que cela.</p>\n<p><strong>Sondage : </strong><a href=\"https://collab.agr.gc.ca/apps/harvest-moisson/\">\u00c0 quelle fr\u00e9quence visitez-vous le site?</a></p>\n<p><strong>Photo vedette :</strong> <a href=\"https://collab.agr.gc.ca/apps/harvest-moisson/gallery/Lists/Posts/Post.aspx?ID=291\">Canard \u00e0 Stony Swamp</a>, par Melinda Buijs, Direction g\u00e9n\u00e9rale des affaires publiques, Ottawa (Ontario)</p>\n<p><strong>Le saviez-vous?</strong> <a href=\"https://collab.agr.gc.ca/apps/harvest-moisson/Pages/DidYouKnow.aspx\">Le Canada exp\u00e9die environ la moiti\u00e9 de sa production de graines de tournesol \u00e0 l'\u00e9tranger.</a></p>\n<p>Vous pouvez participer en affichant des commentaires ou en utilisant la fonction \u00ab J\u2019aime \u00bb ou \u00ab Partager \u00bb pour exprimer votre appr\u00e9ciation d\u2019un article. Vous pouvez aussi aller voir ce que vos coll\u00e8gues aiment et ont \u00e0 dire.</p>\n<p>Si vous avez des id\u00e9es d\u2019articles, des photos de paysages ou \u00e0 caract\u00e8re artistique li\u00e9es \u00e0 l\u2019agriculture ou encore des faits int\u00e9ressants, veuillez nous en faire part en cliquant sur \u00ab Collaborer \u00bb dans la barre de menu en haut de la page.</p>\n<p><img src=\"https://intranet.agr.gc.ca/resources/prod/news/images/HarvestJosephKim.png\" class=\"center-block\"></p>\n\t\t"
    },
    "breadcrumb": {
        "en": "This Week in The Harvest \u2013 \u201cOn the Job\u201d: More Than Just Trade Policy",
        "fr": "Au menu de La Moisson cette semaine - Au travail : Bien au-del\u00e0 des politiques commerciales"
    },
    "news": {
        "date_posted": {
            "en": "2019-05-23",
            "fr": "2019-05-23"
        },
        "to": {
            "en": "All staff",
            "fr": "Tous les employ\u00e9s"
        },
        "by": {
            "en": "Corporate Communications, Public Affairs Branch",
            "fr": "Communications minist\u00e9rielles, Direction g\u00e9n\u00e9rale des affaires publiques"
        }
    }
}