{
    "dcr_id": "1558444404012",
    "lang": "en",
    "title": {
        "en": "Reminder - NCR - Living Library Sessions Registration - June 12",
        "fr": "Rappel - RCN - Inscription aux s\u00e9ances de la biblioth\u00e8que vivante - 12 juin"
    },
    "modified": "2019-06-05 00:00:00.0",
    "issued": "2019-05-23 00:00:00.0",
    "type_name": "intra-intra/news-nouv",
    "node_id": "1279030006975",
    "layout_name": null,
    "dc_date_created": "2019-05-21",
    "breadcrumb_label": "",
    "meta": {
        "issued": {
            "en": "2019-05-23",
            "fr": "2019-05-23"
        },
        "modified": {
            "en": "2019-06-05",
            "fr": "2019-06-05"
        },
        "format": {
            "en": "gcformat",
            "fr": "gcformat"
        },
        "title": {
            "en": "Reminder - NCR - Living Library Sessions Registration - June 12",
            "fr": "Rappel - RCN - Inscription aux s\u00e9ances de la biblioth\u00e8que vivante - 12 juin"
        },
        "subject": {
            "en": "communications",
            "fr": "communications"
        },
        "description": {
            "en": "The Living Library event is a great opportunity to hear life experience stories from your colleagues, explore the diversity within the Department, and celebrate differences.",
            "fr": "La biblioth\u00e8que vivante est une excellente occasion d'entendre les histoires personnelles de vos coll\u00e8gues, de d\u00e9couvrir la diversit\u00e9 au sein du Minist\u00e8re et de c\u00e9l\u00e9brer les diff\u00e9rences."
        },
        "language": {
            "en": "eng",
            "fr": "fra"
        },
        "audience": {
            "en": "gcaudience",
            "fr": "gcaudience"
        },
        "creator": {
            "en": "Agriculture and Agri-Food Canada",
            "fr": "Agriculture et Agroalimentaire Canada"
        },
        "spatial": {
            "en": "gcregions",
            "fr": "gcregions"
        },
        "service": {
            "en": "AAFC_AgriSource",
            "fr": "AAC_AgriSource"
        },
        "accessRights": {
            "en": "3",
            "fr": "3"
        }
    },
    "body": {
        "en": "<br>\n<br>\n<p>The Living Library event is a great opportunity to hear life experience stories from your colleagues, explore the diversity within the Department, and celebrate differences.</p>\n<h2><strong>How it works</strong></h2>\n<p>The Living Library will take place in the <strong>NHCAP Tower 6 cafeteria on June 12 from 1:30 to 3:00 p.m. </strong>You can register for sessions which you and a small group of colleagues will spend 20 minutes listening and engaging in conversation with a living book.</p>\n<h2><strong>Available Living Books</strong></h2>\n<p>You can choose up to three books from the following collection:</p>\n<ul>\n<li>Living clean and sober: A story of loss, hope and recovery from drug addiction - Jessica Dugas (Bilingual)</li>\n<li>The bald truth: A female\u2019s perspective on living with total body hair loss - Jessica Martin (Bilingual)</li>\n<li>Growing gains: Embracing introversion and uniqueness - Dale Woloshin (English/Bilingual)</li>\n<li>Mental illness: A glimpse into the world anxiety and panic disorders - Julie Desroches (Bilingual)</li>\n<li>Inside and out: the experience as a transgender employee in the public sector - Chrystofer Maillet (English/Bilingual)</li>\n<li>Anti-doping in racing: Keeping Canada\u2019s racehorses clean - Dr. Carolyn Cooper (Bilingual)</li>\n<li>Breaking down barriers: Thriving as a youth living with a disability - Eric Lonz (English)</li>\n</ul>\n<h2><strong>Registration</strong></h2>\n<p>Select \"Enroll\" at the top of the <a href=\"https://collab.agr.gc.ca/co/eedi-emedi/_layouts/15/listform.aspx?PageType=4&amp;ListId=%7B75B6FB46%2DC542%2D420D%2D9CDA%2DE40568F4BDAD%7D&amp;ID=24&amp;ContentTypeID=0x01020028CF0843C06A41A39C183B3C72AF843700783A8A43363245D7B5FF4BDD9F50FB5100D33B4E2F05FDC844860333200FE2A99B\">registration page</a> to participate as a reader before June 11. Registration is on a first-come, first-served basis. You will be contacted by phone or email to confirm your book choices.</p>\n<p><strong>Learn more</strong></p>\n<ul>\n<li><a href=\"https://collab.agr.gc.ca/apps/harvest-moisson/articles/Lists/Posts/Post.aspx?List=a2e9f887%2D8725%2D4bca%2Da88d%2Dc8916af226ff&amp;ID=96&amp;Web=1e3c5caf%2D456b%2D4ee0%2D9b08%2Dea427c49c399\">2018 Living Library</a></li>\n<li>AAFC\u2019s Diversity Networks and upcoming events: <a href=\"https://collab.agr.gc.ca/co/eedi-emedi/SitePages/Home.aspx\">Diversity and Inclusiveness Knowledge Workspace</a></li>\n</ul>\n<p>For questions or for more information, contact the Diversity and Inclusion Network Secretariat at <a href=\"mailto:AAFC.Diversity-Diversite.AAC@canada.ca\">AAFC.Diversity-Diversite.AAC@canada.ca</a>.</p>\n<p><img src=\"https://intranet.agr.gc.ca/resources/prod/news/images/GrowDiversityInclusion-EN2.png\" class=\"center-block\"></p>\n\n\t\t",
        "fr": "<br>\n<br>\n<p>La biblioth\u00e8que vivante est une excellente occasion d\u2019entendre les histoires personnelles de vos coll\u00e8gues, de d\u00e9couvrir la diversit\u00e9 au sein du Minist\u00e8re et de c\u00e9l\u00e9brer les diff\u00e9rences.</p>\n<h2><strong>Comment \u00e7a fonctionne?</strong></h2>\n<p>La biblioth\u00e8que vivante se tiendra dans la <strong>caf\u00e9t\u00e9ria de la tour 6 du CACPA le 12 juin, de 13 h 30 \u00e0 15 h</strong>. Vous pouvez vous inscrire \u00e0 des s\u00e9ances o\u00f9 vous et un petit groupe de coll\u00e8gues passerez 20 minutes en compagnie d\u2019un livre vivant pour entendre son histoire et converser avec lui.</p>\n<h2><strong>Livres vivants disponibles</strong></h2>\n<p>Vous pouvez choisir jusqu\u2019\u00e0 trois livres de la collection suivante :</p>\n<ul>\n<li>Vivre sans consommation de drogue ou d\u2019alcool : histoire de perte, d\u2019espoir et de r\u00e9tablissement de la toxicomanie - Jessica Dugas (bilingue)</li>\n<li>La v\u00e9rit\u00e9 sur la calvitie : le point de vue d\u2019une femme sur la perte totale de cheveux - Jessica Martin (bilingue)</li>\n<li>Gains croissants : accepter l\u2019introversion et l\u2019unicit\u00e9 - Dale Woloshin (anglais/bilingue)</li>\n<li>La sant\u00e9 mentale : Un coup d\u2019\u0153il sur les troubles d\u2019anxi\u00e9t\u00e9 et de panique - Julie Desroches (bilingue)</li>\n<li>En dedans, comme en dehors : l\u2019exp\u00e9rience d\u2019un employ\u00e9 transgenre \u00e0 la fonction publique - Chrystofer Maillet (anglais/bilingue)</li>\n<li>Antidopage : lutte contre le dopage des chevaux de course au Canada - Dre. Carolyn Cooper (bilingue)</li>\n<li>Supprimer les obstacles : s\u2019\u00e9panouir en tant que jeune personne handicap\u00e9e - Eric Lonz (anglais)</li>\n</ul>\n<h2><strong>Inscription</strong></h2>\n<p>S\u00e9lectionnez \u00ab S'inscrire \u00bb en haut de <a href=\"https://collab.agr.gc.ca/co/eedi-emedi/_layouts/15/listform.aspx?PageType=4&amp;ListId=%7B75B6FB46%2DC542%2D420D%2D9CDA%2DE40568F4BDAD%7D&amp;ID=24&amp;ContentTypeID=0x01020028CF0843C06A41A39C183B3C72AF843700783A8A43363245D7B5FF4BDD9F50FB5100D33B4E2F05FDC844860333200FE2A99B\">la page d\u2019inscription</a> pour participer en tant que lecteur avant le 11 juin. L\u2019inscription se fera selon le principe du premier arriv\u00e9, premier servi. On communiquera avec vous par t\u00e9l\u00e9phone ou par courriel pour confirmer vos choix de livres.</p>\n<h2><strong>Pour en savoir plus</strong></h2>\n<ul>\n<li><a href=\"https://collab.agr.gc.ca/apps/harvest-moisson/articles/Lists/Posts/Post.aspx?List=a2e9f887%2D8725%2D4bca%2Da88d%2Dc8916af226ff&amp;ID=96&amp;Web=1e3c5caf%2D456b%2D4ee0%2D9b08%2Dea427c49c399\">Biblioth\u00e8que vivante de 2018</a></li>\n<li>Pour en apprendre davantage sur les r\u00e9seaux de la diversit\u00e9 d\u2019AAC et les activit\u00e9s \u00e0 venir, visitez la page de l\u2019<a href=\"https://collab.agr.gc.ca/co/eedi-emedi/SitePages/Home.aspx\">Espace de travail du savoir sur la diversit\u00e9 et l\u2019inclusion</a>.</li>\n</ul>\n<p>Si vous avez des questions ou souhaitez obtenir de plus amples renseignements, communiquez avec le Secr\u00e9tariat des r\u00e9seaux de la diversit\u00e9 et de l\u2019inclusivit\u00e9 par courriel \u00e0 <a href=\"mailto:AAFC.Diversity-Diversite.AAC@canada.ca\">AAFC.Diversity-Diversite.AAC@canada.ca</a>.</p>\n<p><img src=\"https://intranet.agr.gc.ca/resources/prod/news/images/GrowDiversityInclusion-FR2.png\" class=\"center-block\"></p>\n\t\t"
    },
    "breadcrumb": {
        "en": "NCR - Reminder - NCR - Living Library Sessions Registration - June 12",
        "fr": "RCN - Rappel - RCN - Inscription aux s\u00e9ances de la biblioth\u00e8que vivante - 12 juin"
    },
    "news": {
        "date_posted": {
            "en": "2019-05-23",
            "fr": "2019-05-23"
        },
        "to": {
            "en": "NCR only",
            "fr": "RCN seulement"
        },
        "by": {
            "en": "Human Resources, Corporate Management Branch",
            "fr": "Ressources humaines, Direction g\u00e9n\u00e9rale de la gestion int\u00e9gr\u00e9e"
        }
    }
}