{
    "dcr_id": "1558017755133",
    "lang": "en",
    "title": {
        "en": "Reminder - RAD Speaker Series: Intergenerational Farm Transfers - June 3",
        "fr": "Rappel - S\u00e9rie de conf\u00e9rences de la DRA : Transferts interg\u00e9n\u00e9rationnels d'exploitations agricoles - 3 juin"
    },
    "modified": "2019-05-30 00:00:00.0",
    "issued": "2019-05-23 00:00:00.0",
    "type_name": "intra-intra/news-nouv",
    "node_id": "1279030006975",
    "layout_name": null,
    "dc_date_created": "2019-05-16",
    "breadcrumb_label": "Reminder - RAD Speaker Series: Intergenerational Farm Transfers \u2013 June 3",
    "meta": {
        "issued": {
            "en": "2019-05-23",
            "fr": "2019-05-23"
        },
        "modified": {
            "en": "2019-05-30",
            "fr": "2019-05-29"
        },
        "format": {
            "en": "gcformat",
            "fr": "gcformat"
        },
        "title": {
            "en": "Reminder - RAD Speaker Series: Intergenerational Farm Transfers - June 3",
            "fr": "Rappel - S\u00e9rie de conf\u00e9rences de la DRA : Transferts interg\u00e9n\u00e9rationnels d'exploitations agricoles - 3 juin"
        },
        "subject": {
            "en": "communications",
            "fr": "communications"
        },
        "description": {
            "en": "Are Canadian producers taking active steps in farm transition and succession planning? What are the barriers to success in succession planning? How can these plans help an operation thrive in the long term?",
            "fr": "Les producteurs canadiens prennent-ils activement des mesures \u00e0 l'\u00e9gard de la transition des exploitations agricoles et de la planification de la rel\u00e8ve? Comment ces mesures peuvent-elles aider une exploitation \u00e0 prosp\u00e9rer \u00e0 long terme?"
        },
        "language": {
            "en": "eng",
            "fr": "fra"
        },
        "audience": {
            "en": "gcaudience",
            "fr": "gcaudience"
        },
        "creator": {
            "en": "Agriculture and Agri-Food Canada",
            "fr": "Agriculture et Agroalimentaire Canada"
        },
        "spatial": {
            "en": "gcregions",
            "fr": "gcregions"
        },
        "service": {
            "en": "AAFC_AgriSource",
            "fr": "AAC_AgriSource"
        },
        "accessRights": {
            "en": "3",
            "fr": "3"
        }
    },
    "body": {
        "en": "<br>\n<br>\n<p>Are Canadian producers taking active steps in farm transition and succession planning? What are the barriers to success in succession planning? How can these plans help an operation thrive in the long term?</p>\n<p>Heather Watson of Farm Management Canada will answer these questions, and discuss what programming is currently available and how can it be improved to help ensure a viable future for farming in Canada.</p>\n<h2><strong>Event information</strong></h2>\n<p><strong>Date:</strong> Monday, June 3, 2019<br><strong>Time:</strong> 11:00 a.m. to 12:00\u00a0p.m. (ET)<br>\n<strong>Location:</strong> NHCAP (T3-1-370)<br><strong><br>Videoconference: </strong>76137731343;<strong> Guest PIN: </strong>9018<br><strong>Teleconference</strong>: 613-729-5408 or 1-855-470-7641; <b>Conference ID:</b> 76137731343# <b>PIN:</b> 9018#</p>\n<h2><strong><img src=\"https://intranet.agr.gc.ca/resources/prod/news/images/RADWatson.png\" class=\"pull-left mrgn-rght-md\" alt=\"\">Speaker biography</strong></h2>\n<p>Heather Watson is the Executive Director of Farm Management Canada (FMC), a national non-profit organization dedicated to increasing the awareness and adoption of beneficial farm business management practices on Canada\u2019s farms. She presently serves as the Canadian representative to the International Farm Management Association Council, and represents farm business management within a number of agricultural advisory groups across Canada.</p>\n<p>For more information, contact Angela Chen at <a href=\"mailto:Angela.Chen4@canada.ca\">Angela.Chen4@canada.ca</a> or Douglas Ruby at\u00a0<a href=\"mailto:Douglas.Ruby@canada.ca\">Douglas.Ruby@canada.ca</a>.</p>\n<p>\u00a0</p>\n\n\t\t",
        "fr": "<br>\n<br>\n<p>Les producteurs canadiens prennent-ils activement des mesures \u00e0 l\u2019\u00e9gard de la transition des exploitations agricoles et de la planification de la rel\u00e8ve? Comment ces mesures peuvent-elles aider une exploitation \u00e0 prosp\u00e9rer \u00e0 long terme?</p>\n<p>Heather Watson, de Gestion agricole du Canada, r\u00e9pondra \u00e0 ces questions, parlera des programmes actuellement offerts et expliquera comment ceux-ci peuvent \u00eatre am\u00e9lior\u00e9s pour assurer l\u2019avenir de l\u2019agriculture au Canada.</p>\n<h2><strong>Renseignements sur l\u2019activit\u00e9</strong></h2>\n<p><strong>Date :</strong> Le lundi 3 juin 2019<br><strong>Heure :</strong> De 11 h \u00e0 12 h (HE)<br>\n<strong>Lieu :</strong> CACPA, T3-1-370<br>\n<strong>Vid\u00e9oconf\u00e9rence : </strong>76137731343<strong>; NIP d\u2019invit\u00e9 : </strong>9018</p>\n<p><strong>T\u00e9l\u00e9conf\u00e9rence </strong>: 613-729-5408 ou 1-855-470-7641,\u00a0<b>Conference ID :</b>\u00a076137731343#, <b>NIP :</b>\u00a09018#</p>\n<h2><strong><img src=\"https://intranet.agr.gc.ca/resources/prod/news/images/RADWatson.png\" class=\"pull-left mrgn-rght-md\">Biographie de la conf\u00e9renci\u00e8re</strong></h2>\n<p>Heather Watson est la directrice g\u00e9n\u00e9rale de Gestion agricole du Canada, une organisation nationale sans but lucratif qui a pour objectif de mieux faire conna\u00eetre les pratiques de gestion b\u00e9n\u00e9fiques des entreprises agricoles et de les faire adopter. Elle agit \u00e0 titre de repr\u00e9sentante du Canada au sein de l\u2019International Farm Management Association en plus de repr\u00e9senter la gestion des entreprises agricoles dans un certain nombre de groupes consultatifs au Canada.</p>\n<p>Pour de plus amples renseignements, veuillez communiquer avec Angela Chen \u00e0 <a href=\"mailto:Angela.Chen4@canada.ca\">Angela.Chen4@canada.ca</a> ou avec Douglas Ruby \u00e0 <a href=\"mailto:Douglas.Ruby@canada.ca\">Douglas.Ruby@canada.ca</a>.</p>\n\t\t"
    },
    "breadcrumb": {
        "en": "Reminder - RAD Speaker Series: Intergenerational Farm Transfers \u2013 June 3",
        "fr": "Rappel - S\u00e9rie de conf\u00e9rences de la DRA : Transferts interg\u00e9n\u00e9rationnels d\u2019exploitations ..."
    },
    "news": {
        "date_posted": {
            "en": "2019-05-23",
            "fr": "2019-05-23"
        },
        "to": {
            "en": "All staff",
            "fr": "Tous les employ\u00e9s"
        },
        "by": {
            "en": "Research and Analysis Directorate, Strategic Policy Branch",
            "fr": "Direction de la recherche et de l\u2019analyse, Direction g\u00e9n\u00e9rale des politiques strat\u00e9giques"
        }
    }
}