{
    "dcr_id": "1559597372880",
    "lang": "en",
    "title": {
        "en": "Reminder - Autistic Pride Day Event: Learning and Celebrating Neurodiversity - June 18",
        "fr": "Rappel - Activit\u00e9 dans le cadre de la Journ\u00e9e de la fiert\u00e9 autiste : Apprentissage et c\u00e9l\u00e9bration de la neurodiversit\u00e9 - 18 juin"
    },
    "modified": "2019-06-12 00:00:00.0",
    "issued": "2019-06-06 00:00:00.0",
    "type_name": "intra-intra/news-nouv",
    "node_id": "1279030006975",
    "layout_name": null,
    "dc_date_created": "2019-06-05",
    "breadcrumb_label": "",
    "meta": {
        "issued": {
            "en": "2019-06-06",
            "fr": "2019-06-06"
        },
        "modified": {
            "en": "2019-06-12",
            "fr": "2019-06-12"
        },
        "format": {
            "en": "gcformat",
            "fr": "gcformat"
        },
        "title": {
            "en": "Reminder - Autistic Pride Day Event: Learning and Celebrating Neurodiversity - June 18",
            "fr": "Rappel - Activit\u00e9 dans le cadre de la Journ\u00e9e de la fiert\u00e9 autiste : Apprentissage et c\u00e9l\u00e9bration de la neurodiversit\u00e9 - 18 juin"
        },
        "subject": {
            "en": "communications",
            "fr": "communications"
        },
        "description": {
            "en": "Autistic Pride Day is celebrated internationally, as a day for persons with autism to take pride in who they are and in their contributions.",
            "fr": "La Journ\u00e9e de la fiert\u00e9 autiste, un \u00e9v\u00e9nement c\u00e9l\u00e9br\u00e9 \u00e0 l\u2019\u00e9chelle internationale, est une occasion pour les personnes atteintes d\u2019autisme de se montrer fi\u00e8res de ce qu'elles sont et de ce qu'elles accomplissent."
        },
        "language": {
            "en": "eng",
            "fr": "fra"
        },
        "audience": {
            "en": "gcaudience",
            "fr": "gcaudience"
        },
        "creator": {
            "en": "Agriculture and Agri-Food Canada",
            "fr": "Agriculture et Agroalimentaire Canada"
        },
        "spatial": {
            "en": "gcregions",
            "fr": "gcregions"
        },
        "service": {
            "en": "AAFC_AgriSource",
            "fr": "AAC_AgriSource"
        },
        "accessRights": {
            "en": "3",
            "fr": "3"
        }
    },
    "body": {
        "en": "<br>\n<br>\n<p>Autistic Pride Day is celebrated internationally, as a day for persons with autism to take pride in who they are and in their contributions. It is also a time to promote awareness, understanding, acceptance and autonomy. Visit the <a href=\"https://collab.agr.gc.ca/co/pdn-rph/SitePages/Autistic%20Pride%20-%20La%20fiert%C3%A9%20autiste.aspx?WikiPageMode=Edit&amp;InitialTabId=Ribbon.EditingTools.CPEditTab&amp;VisibilityContext=WSSWikiPage&amp;\">PwDN Autistic Pride page</a> to learn more.</p>\n<p>This Autistic Pride Day, let\u2019s celebrate neurodiversity. Join us for an eye-opening presentation by our guest speaker Dwayne Wessel, M.Ed., Essential Autism Educational Services, who will introduce us to autism and strategies for including and supporting people with autism in a work setting.</p>\n<h2><strong>Seminar Presentation - Autism 101: A brief introduction </strong></h2>\n<p><strong>Date and Time</strong>: June 18, 2019 | 1:00-2:00 p.m. (ET); Q&amp;A: 2:00-2:30 p.m. (ET)<br>\n<strong>Language</strong>: English<br>\n<strong>Location</strong>: Harrow S113 (Executive Boardroom).</p>\n<p>Available across Canada via Videoconference/Teleconference</p>\n<p><strong>Reserved viewing rooms in Ottawa:</strong> T5-3-251 | T7-2-211<br>V<strong>ideoconference Contact</strong>: 611270550<br><strong>Teleconference:</strong> 613-729-5408 or 1-855-470-7641 <b>Conference ID:</b> 611270550#</p>\n<p>Note:<strong> </strong>Communication Access Realtime Translation (CART) is available for this event. For any questions or if you require speech-to-text transcription or other forms of accommodation, please contact the Persons with Disabilities Network (PwDN) at aafc.pwdn-rph.aac@canada.ca</p>\n<p><strong>Learn more</strong></p>\n<ul>\n<li><a target=\"_blank\" href=\"https://collab.agr.gc.ca/co/pdn-rph/SitePages/Home.aspx\">Persons with Disabilities Network</a></li>\n<li><a target=\"_blank\" href=\"https://www.canada.ca/en/employment-social-development/programs/accessible-people-disabilities/act-summary.html\">Proposed Accessible Canada Act</a></li>\n<li><a target=\"_blank\" href=\"https://collab.agr.gc.ca/co/eedi-emedi/SitePages/Home.aspx\">Diversity and Inclusion at AAFC</a></li>\n</ul>\n<p><img src=\"https://intranet.agr.gc.ca/resources/prod/news/images/APDImage.png\" class=\"center-block\"></p>\n\n\t\t",
        "fr": "<br>\n<br>\n<p>La Journ\u00e9e de la fiert\u00e9 autiste, un \u00e9v\u00e9nement c\u00e9l\u00e9br\u00e9 \u00e0 l\u2019\u00e9chelle internationale, est une occasion pour les personnes atteintes d\u2019autisme de se montrer fi\u00e8res de ce qu\u2019elles sont et de ce qu\u2019elles accomplissent. C\u2019est \u00e9galement une occasion de promouvoir la sensibilisation, la compr\u00e9hension, l\u2019acceptation et l\u2019autonomie. Consultez la page <a href=\"https://collab.agr.gc.ca/co/pdn-rph/SitePages/Autistic%20Pride%20-%20La%20fiert%C3%A9%20autiste.aspx?WikiPageMode=Edit&amp;InitialTabId=Ribbon.EditingTools.CPEditTab&amp;VisibilityContext=WSSWikiPage&amp;\">La fiert\u00e9 autiste du RPH</a> pour en savoir plus.</p>\n<p>En cette Journ\u00e9e de la fiert\u00e9 autiste, nous vous invitons \u00e0 c\u00e9l\u00e9brer la neurodiversit\u00e9. Venez assister \u00e0 un expos\u00e9 r\u00e9v\u00e9lateur de notre conf\u00e9rencier invit\u00e9 Dwayne Wessel (M. Ed.), sp\u00e9cialiste \u00e0 l\u2019emploi d\u2019Essential Autism Educational Services. M. Wessel nous parlera de l\u2019autisme et des strat\u00e9gies d\u2019inclusion et de soutien des personnes atteintes d\u2019autisme dans un milieu de travail.</p>\n<h2><strong>S\u00e9minaire - Autisme 101 : Une br\u00e8ve introduction</strong></h2>\n<p><strong>Date et heure </strong>: 18 juin 2019 | 13 h \u00e0 14 h (HE); foire aux questions : 14 h \u00e0 14 h 30 (HE)<br>\n<strong>Langue </strong>: Anglais<br>\n<strong>Lieu </strong>: Harrow, S113 (salle de r\u00e9union de la haute direction)</p>\n<p>Disponible partout au Canada par vid\u00e9oconf\u00e9rence/t\u00e9l\u00e9conf\u00e9rence</p>\n<p><strong>Salles de visionnement r\u00e9serv\u00e9es \u00e0 Ottawa </strong>: T5-3-251 | T7-2-211<br><strong>Code de vid\u00e9oconf\u00e9rence </strong>: 611270550<br><strong>T\u00e9l\u00e9conf\u00e9rence </strong>: 613-729-5408 ou 1-855-470-7641; code de conf\u00e9rence : 611270550#</p>\n<p>Remarque :<strong> </strong>Le service de transcription en temps r\u00e9el des communications (CART) est offert pour cet \u00e9v\u00e9nement. Si vous avez des questions ou avez besoin d\u2019une transcription parole-texte ou de toute autre mesure d\u2019adaptation, veuillez communiquer avec le R\u00e9seau des personnes handicap\u00e9es (RPH) par courriel \u00e0 aafc.pwdn-rph.aac@canada.ca.</p>\n<p><strong>Pour en savoir plus</strong></p>\n<ul>\n<li><a target=\"_blank\" href=\"https://collab.agr.gc.ca/co/pdn-rph/SitePages/Home.aspx\">R\u00e9seau des personnes handicap\u00e9es</a></li>\n<li><a target=\"_blank\" href=\"https://www.canada.ca/fr/emploi-developpement-social/programmes/accessible-personnes-handicapees/loi-resume.html\">Loi canadienne sur l'accessibilit\u00e9 propos\u00e9e</a></li>\n<li><a target=\"_blank\" href=\"https://collab.agr.gc.ca/co/eedi-emedi/SitePages/Home.aspx\">Diversit\u00e9 et inclusivit\u00e9 \u00e0 AAC</a></li>\n</ul>\n<p><img src=\"https://intranet.agr.gc.ca/resources/prod/news/images/APDImage.png\" class=\"center-block\"></p>\n<ul>\n</ul>\n<p>\u00a0</p>\n\t\t"
    },
    "breadcrumb": {
        "en": "Reminder - Autistic Pride Day Event: Learning and Celebrating Neurodiversity - June 18",
        "fr": "Rappel - Activit\u00e9 dans le cadre de la Journ\u00e9e de la fiert\u00e9 autiste : Apprentissage et ..."
    },
    "news": {
        "date_posted": {
            "en": "2019-06-06",
            "fr": "2019-06-06"
        },
        "to": {
            "en": "All staff",
            "fr": "Tous les employ\u00e9s"
        },
        "by": {
            "en": "Kimberly Saunders, Champion, Persons with Disabilities Network",
            "fr": "Kimberly Saunders, championne, R\u00e9seau des personnes handicap\u00e9es"
        }
    }
}