{
    "dcr_id": "1559827865253",
    "lang": "en",
    "title": {
        "en": "This Week in The Harvest - David Suzuki on Technology, Globalization and Climate Change",
        "fr": "Au menu de La Moisson cette semaine - David Suzuki parle de technologie, de mondialisation et de changements climatiques"
    },
    "modified": "2019-06-06 00:00:00.0",
    "issued": "2019-06-06 00:00:00.0",
    "type_name": "intra-intra/news-nouv",
    "node_id": "1279030006975",
    "layout_name": null,
    "dc_date_created": "2019-06-06",
    "breadcrumb_label": "",
    "meta": {
        "issued": {
            "en": "2019-06-06",
            "fr": "2019-06-06"
        },
        "modified": {
            "en": "2019-06-06",
            "fr": "2019-06-06"
        },
        "format": {
            "en": "gcformat",
            "fr": "gcformat"
        },
        "title": {
            "en": "This Week in The Harvest - David Suzuki on Technology, Globalization and Climate Change",
            "fr": "Au menu de La Moisson cette semaine - David Suzuki parle de technologie, de mondialisation et de changements climatiques"
        },
        "subject": {
            "en": "communications",
            "fr": "communications"
        },
        "description": {
            "en": "In case you missed it, here\u2019s what\u2019s new in The Harvest this week.",
            "fr": "Au cas o\u00f9 vous l'auriez manqu\u00e9, voici le menu que la section La Moisson vous offre cette semaine."
        },
        "language": {
            "en": "eng",
            "fr": "fra"
        },
        "audience": {
            "en": "gcaudience",
            "fr": "gcaudience"
        },
        "creator": {
            "en": "Agriculture and Agri-Food Canada",
            "fr": "Agriculture et Agroalimentaire Canada"
        },
        "spatial": {
            "en": "gcregions",
            "fr": "gcregions"
        },
        "service": {
            "en": "AAFC_AgriSource",
            "fr": "AAC_AgriSource"
        },
        "accessRights": {
            "en": "3",
            "fr": "3"
        }
    },
    "body": {
        "en": "<br>\n<br>\n<p>In case you missed it, here\u2019s what\u2019s new in <a href=\"https://collab.agr.gc.ca/apps/harvest-moisson\"><em>The Harvest</em></a> this week:</p>\n<p><strong>Feature story:</strong> <a href=\"https://collab.agr.gc.ca/apps/harvest-moisson/\">David Suzuki on Technology, Globalization and Climate Change</a> \u2013 The renowned Canadian scientist, broadcaster and environmental activist, Dr. David Suzuki, was invited by Strategic Policy Branch to speak to AAFC employees on May 27.</p>\n<p><strong>Poll: </strong><a href=\"https://collab.agr.gc.ca/apps/harvest-moisson/\">Canada\u2019s Department of Agriculture has been making significant contributions to science and innovation since \u2026?</a></p>\n<p><strong>Feature photo: </strong><a href=\"https://collab.agr.gc.ca/apps/harvest-moisson/gallery/Lists/Posts/Post.aspx?ID=299\">Spring: From Hay to Grass,</a> by Jessica Martin, Public Affairs Branch, Ottawa, Ontario</p>\n<p><strong>Did you know?</strong> According to Canada\u2019s new Food Guide, <a href=\"https://collab.agr.gc.ca/apps/harvest-moisson/Pages/didyouknow.aspx\">eating more plant-based foods and fewer animal-based foods</a> can decrease the negative impact of food on the environment. In general, plant-based foods use fewer resources such as land and water.</p>\n<p>You can get involved by posting a comment or \u201cliking\u201d an article. You can also check out what your colleagues are liking and saying.</p>\n<p>Should you have story ideas, scenic or artistic agriculture-related photos, or interesting facts, please share them with us by clicking on \u201cContribute\u201d in the top menu bar.</p>\n<p><img src=\"https://intranet.agr.gc.ca/resources/prod/news/images/HarvestSuzuki.png\" class=\"center-block\"></p>\n\n\t\t",
        "fr": "<br>\n<br>\n<p>Au cas o\u00f9 vous l\u2019auriez manqu\u00e9, voici le menu que la section <a href=\"https://collab.agr.gc.ca/apps/harvest-moisson\"><em>La Moisson</em></a> vous offre cette semaine :</p>\n<p><strong>Article vedette :</strong> <a href=\"https://collab.agr.gc.ca/apps/harvest-moisson/\">David Suzuki parle de technologie, de mondialisation et de changements climatiques</a> - La Direction g\u00e9n\u00e9rale des politiques strat\u00e9giques a invit\u00e9 le r\u00e9put\u00e9 David Suzuki (Ph. D.), scientifique, communicateur et activiste \u00e9cologique du Canada, \u00e0 s\u2019adresser aux employ\u00e9s d\u2019AAC le 27 mai.</p>\n<p><strong>Sondage : </strong><a href=\"https://collab.agr.gc.ca/apps/harvest-moisson/\">Le minist\u00e8re de l\u2019Agriculture du Canada contribue \u00e9norm\u00e9ment \u00e0 la science et \u00e0 l\u2019innovation depuis \u2026?</a></p>\n<p><strong>Photo vedette :</strong> <a href=\"https://collab.agr.gc.ca/apps/harvest-moisson/gallery/Lists/Posts/Post.aspx?ID=299\">Printemps : Du foin \u00e0 l\u2019herbe</a>, par Jessica Martin, Direction g\u00e9n\u00e9rale des affaires publiques, Ottawa (Ontario)</p>\n<p><strong>Le saviez-vous?</strong> Selon le nouveau Guide alimentaire canadien, <a href=\"https://collab.agr.gc.ca/apps/harvest-moisson/Pages/didyouknow.aspx\">consommer davantage d\u2019aliments d\u2019origine v\u00e9g\u00e9tale et moins d\u2019aliments d\u2019origine animale</a> pourrait r\u00e9duire les effets n\u00e9fastes des aliments sur l\u2019environnement. De fa\u00e7on g\u00e9n\u00e9rale, les aliments d\u2019origine v\u00e9g\u00e9tale utilisent moins de ressources naturelles, comme la terre et l\u2019eau.</p>\n<p>Vous pouvez participer en affichant des commentaires ou en utilisant la fonction \u00ab J\u2019aime \u00bb ou \u00ab Partager \u00bb pour exprimer votre appr\u00e9ciation d\u2019un article. Vous pouvez aussi aller voir ce que vos coll\u00e8gues aiment et ont \u00e0 dire.</p>\n<p>Si vous avez des id\u00e9es d\u2019articles, des photos de paysages ou \u00e0 caract\u00e8re artistique li\u00e9es \u00e0 l\u2019agriculture ou encore des faits int\u00e9ressants, veuillez nous en faire part en cliquant sur \u00ab Collaborer \u00bb dans la barre de menu en haut de la page.</p>\n<p><img src=\"https://intranet.agr.gc.ca/resources/prod/news/images/HarvestSuzuki.png\" class=\"center-block\"></p>\n\t\t"
    },
    "breadcrumb": {
        "en": "This Week in The Harvest - David Suzuki on Technology, Globalization and Climate Change",
        "fr": "Au menu de La Moisson cette semaine David Suzuki parle de technologie, de mondialisation et de changements climatiques"
    },
    "news": {
        "date_posted": {
            "en": "2019-06-06",
            "fr": "2019-06-06"
        },
        "to": {
            "en": "All staff",
            "fr": "Tous les employ\u00e9s"
        },
        "by": {
            "en": "Corporate Communications, Public Affairs Branch",
            "fr": "Communications minist\u00e9rielles, Direction g\u00e9n\u00e9rale des affaires publiques"
        }
    }
}