{
    "dcr_id": "1559588230680",
    "lang": "en",
    "title": {
        "en": "Happy Pride Month!",
        "fr": "C\u00e9l\u00e9brons le Mois de la fiert\u00e9!"
    },
    "modified": "2019-06-06 00:00:00.0",
    "issued": "2019-06-06 00:00:00.0",
    "type_name": "intra-intra/news-nouv",
    "node_id": "1279030006975",
    "layout_name": null,
    "dc_date_created": "2019-06-03",
    "breadcrumb_label": "",
    "meta": {
        "issued": {
            "en": "2019-06-06",
            "fr": "2019-06-06"
        },
        "modified": {
            "en": "2019-06-06",
            "fr": "2019-06-06"
        },
        "format": {
            "en": "gcformat",
            "fr": "gcformat"
        },
        "title": {
            "en": "Happy Pride Month!",
            "fr": "C\u00e9l\u00e9brons le Mois de la fiert\u00e9!"
        },
        "subject": {
            "en": "communications",
            "fr": "communications"
        },
        "description": {
            "en": "June is globally recognized as LGBTQ2+ Pride month. At Agriculture and Agri-Food Canada, we continue to take pride in our diverse workforce and promoting a culture that celebrates diversity and inclusiveness.",
            "fr": "Juin est reconnu mondialement comme le Mois de la fiert\u00e9 LGBTQ2+. \u00c0 Agriculture et Agroalimentaire Canada, nous sommes fiers de notre effectif diversifi\u00e9 et nous favorisons une culture qui encourage la diversit\u00e9 et l'inclusivit\u00e9."
        },
        "language": {
            "en": "eng",
            "fr": "fra"
        },
        "audience": {
            "en": "gcaudience",
            "fr": "gcaudience"
        },
        "creator": {
            "en": "Agriculture and Agri-Food Canada",
            "fr": "Agriculture et Agroalimentaire Canada"
        },
        "spatial": {
            "en": "gcregions",
            "fr": "gcregions"
        },
        "service": {
            "en": "AAFC_AgriSource",
            "fr": "AAC_AgriSource"
        },
        "accessRights": {
            "en": "3",
            "fr": "3"
        }
    },
    "body": {
        "en": "<br>\n<br>\n<p>June is globally recognized as LGBTQ2+ Pride month. At Agriculture and Agri-Food Canada, we continue to take pride in our diverse workforce and promoting a culture that celebrates diversity and inclusiveness. We are committed to breaking down barriers for LGBTQ2+ individuals by building awareness through ongoing Positive Space Initiatives. Our goal is to foster a work environment where everyone feels safe to reach their full potential and bring their true selves to work.</p>\n<p>In celebration of Pride month, the Gender and Sexual Diversity Inclusiveness Network (GSDIN) will be posting \u201cbite-size\u201d learning articles about gender and sexual diversity and the LGBTQ2+ community. Visit the <a href=\"https://collab.agr.gc.ca/co/lgbt-glbt/SitePages/Home.aspx\">GSDIN Knowledge Workspace</a> site weekly throughout June to learn more about the strides being made toward gender and sexual diversity and inclusiveness in Canada.</p>\n<p>Celebrate Pride by being vocal in your support of LGBTQ2+ communities and attending local events. If you are interested in learning more about LGBTQ2+ communities and how you can be more inclusive toward persons of all gender and sexual diversities, consider registering for training available through <a href=\"https://collab.agr.gc.ca/co/lgbt-glbt/SitePages/Positive%20Space%20Initiative%20-%20Initative%20Espace%20positif.aspx\">AAFC\u2019s Positive Space Initiative</a>.</p>\n<p>Contact the GSDIN at <a href=\"mailto:AAFC.GSDIN-RIDGS.AAC@AGR.GC.CA\">AAFC.GSDIN-RIDGS.AAC@AGR.GC.CA</a> to host a workshop for your workplace.</p>\n<p>\u00a0</p>\n<p><b>Jane Taylor,</b> Champion, Gender and Sexual Diversity Inclusiveness Network <br><b>Lydia Lipic</b> and <b>Genevi\u00e8ve Fortin</b>, Co-chairs</p>\n<p><img src=\"https://intranet.agr.gc.ca/resources/prod/news/images/GSDINLogo.png\" class=\"center-block\"></p>\n\n\t\t",
        "fr": "<br>\n<br>\n<p>Juin est reconnu mondialement comme le Mois de la fiert\u00e9 LGBTQ2+. \u00c0 Agriculture et Agroalimentaire Canada, nous sommes fiers de notre effectif diversifi\u00e9 et nous favorisons une culture qui encourage la diversit\u00e9 et l\u2019inclusivit\u00e9. Nous sommes d\u00e9termin\u00e9s \u00e0 \u00e9liminer les obstacles pour les membres de la communaut\u00e9 LGBTQ2+ en sensibilisant le personnel par l\u2019entremise de l\u2019initiative Espace positif. Notre objectif est de promouvoir un milieu de travail o\u00f9 chacun se sent libre de r\u00e9aliser son plein potentiel et d\u2019afficher sa v\u00e9ritable identit\u00e9 au travail.</p>\n<p>Pour c\u00e9l\u00e9brer le Mois de la fiert\u00e9, le R\u00e9seau de l\u2019inclusivit\u00e9 et de la diversit\u00e9 des genres et de la sexualit\u00e9 (RIDGS) publiera de courts articles d\u2019apprentissage portant sur la diversit\u00e9 des genres et de la sexualit\u00e9 et sur la communaut\u00e9 LGBTQ2+. Consultez le site du <a href=\"https://collab.agr.gc.ca/co/lgbt-glbt/SitePages/Home.aspx\">RIDGS dans l\u2019Espace de travail du savoir</a> chaque semaine en juin pour en apprendre davantage sur les progr\u00e8s accomplis en ce qui a trait \u00e0 l\u2019inclusivit\u00e9 et \u00e0 la diversit\u00e9 des genres et de la sexualit\u00e9 au Canada.</p>\n<p>C\u00e9l\u00e9brez le Mois de la fiert\u00e9 en manifestant ouvertement votre appui \u00e0 la communaut\u00e9 LGBTQ2+ et en participant aux activit\u00e9s locales. Si vous souhaitez en apprendre davantage sur la communaut\u00e9 LGBTQ2+ et la fa\u00e7on de promouvoir l\u2019inclusion des personnes vis\u00e9es par la diversit\u00e9 des genres et de la sexualit\u00e9, nous vous invitons \u00e0 vous inscrire \u00e0 la formation offerte dans le cadre de l\u2019<a href=\"https://collab.agr.gc.ca/co/lgbt-glbt/SitePages/Positive%20Space%20Initiative%20-%20Initative%20Espace%20positif.aspx\">initiative Espace positif d\u2019AAC</a>.</p>\n<p>Communiquez avec le RIDGS (<a href=\"mailto:AAFC.GSDIN-RIDGS.AAC@AGR.GC.CA\">AAFC.GSDIN-RIDGS.AAC@AGR.GC.CA</a>) afin d\u2019organiser un atelier pour votre milieu de travail.</p>\n<p>\u00a0</p>\n<p><strong>Jane Taylor</strong>, championne du R\u00e9seau de l\u2019inclusivit\u00e9 et de la diversit\u00e9 des genres et de la sexualit\u00e9 <br><strong>Lydia Lipic</strong> et <strong>Genevi\u00e8ve Fortin,</strong> copr\u00e9sidentes</p>\n<p><img src=\"https://intranet.agr.gc.ca/resources/prod/news/images/GSDINLogo.png\" class=\"center-block\"></p>\n<p>\u00a0</p>\n\t\t"
    },
    "breadcrumb": {
        "en": "Happy Pride Month!",
        "fr": "C\u00e9l\u00e9brons le Mois de la fiert\u00e9!"
    },
    "news": {
        "date_posted": {
            "en": "2019-06-06",
            "fr": "2019-06-06"
        },
        "to": {
            "en": "All staff",
            "fr": "Tous les employ\u00e9s"
        },
        "by": {
            "en": "Gender and Sexual Diversity Inclusiveness Network",
            "fr": "R\u00e9seau de l\u2019inclusivit\u00e9 et de la diversit\u00e9 des genres et de la sexualit\u00e9"
        }
    }
}