{
    "dcr_id": "1559059559415",
    "lang": "en",
    "title": {
        "en": "June is National Indigenous History Month",
        "fr": "Juin est le Mois national de l'histoire autochtone"
    },
    "modified": "2019-06-07 00:00:00.0",
    "issued": "2019-05-30 00:00:00.0",
    "type_name": "intra-intra/news-nouv",
    "node_id": "1279030006975",
    "layout_name": null,
    "dc_date_created": "2019-05-28",
    "breadcrumb_label": "",
    "meta": {
        "issued": {
            "en": "2019-05-30",
            "fr": "2019-05-30"
        },
        "modified": {
            "en": "2019-06-07",
            "fr": "2019-06-07"
        },
        "format": {
            "en": "gcformat",
            "fr": "gcformat"
        },
        "title": {
            "en": "June is National Indigenous History Month",
            "fr": "Juin est le Mois national de l'histoire autochtone"
        },
        "subject": {
            "en": "communications",
            "fr": "communications"
        },
        "description": {
            "en": "National Indigenous History Month is an opportunity to honour the heritage, contributions and cultures of First Nation, Inuit and M\u00e9tis communities across Canada.",
            "fr": "Le Mois national de l'histoire autochtone est une occasion de souligner le patrimoine, la contribution et la culture des collectivit\u00e9s des Premi\u00e8res Nations, des Inuits et des M\u00e9tis au Canada."
        },
        "language": {
            "en": "eng",
            "fr": "fra"
        },
        "audience": {
            "en": "gcaudience",
            "fr": "gcaudience"
        },
        "creator": {
            "en": "Agriculture and Agri-Food Canada",
            "fr": "Agriculture et Agroalimentaire Canada"
        },
        "spatial": {
            "en": "gcregions",
            "fr": "gcregions"
        },
        "service": {
            "en": "AAFC_AgriSource",
            "fr": "AAC_AgriSource"
        },
        "accessRights": {
            "en": "3",
            "fr": "3"
        }
    },
    "body": {
        "en": "<br>\n<br>\n<p>National Indigenous History Month is an opportunity to honour the heritage, contributions and cultures of First Nation, Inuit and M\u00e9tis communities across Canada.</p>\n<p>June was declared National Indigenous History Month in 2009, following the passing of a unanimous motion in the House of Commons. This month recognizes the historic contributions of Indigenous Peoples to the development of Canada and the strength of present-day Indigenous communities and their promise for the future.</p>\n<p>Many activities will be happening on or around June 21, which is National Indigenous Peoples Day. Check your local <a href=\"http://nafc.ca/en/friendship-centres/\">Friendship Centre</a> and the list of <a href=\"https://www.rcaanc-cirnac.gc.ca/eng/1100100013322/1535629803649\">National Indigenous Peoples Day Events</a> to take part in events in your region.</p>\n<h2><strong>Indigenous information resources </strong></h2>\n<p>June is also Indigenous Book Club Month, otherwise known here at AAFC as <a href=\"https://collab.agr.gc.ca/co/acn-crea/SitePages/Indigenous%20Reads.aspx\">#IndigenousReads</a>. The Canadian Agriculture Library has created a <a href=\"https://collab.agr.gc.ca/co/kis-sis/SitePages/Indigenous-related%20Information.aspx\">list of information resources</a> highlighting Indigenous cultures, histories and literature currently available at the library:</p>\n<ul>\n<li>Indigenous Reads Collection</li>\n<li>Books and articles</li>\n<li>eBooks and eJournals</li>\n</ul>\n<h2><strong>Learn more</strong></h2>\n<ul>\n<li><a href=\"https://collab.agr.gc.ca/co/acn-crea/SitePages/Home.aspx\">AAFC\u2019s Indigenous Network Circle</a></li>\n<li><a href=\"http://www.aadnc-aandc.gc.ca/eng/1466616436543/1466616481533\">National Indigenous History Month</a></li>\n<li><a href=\"http://thecanadianencyclopedia.ca/en/article/celebrating-national-aboriginal-history-month-in-canada/?sessionid=\">Celebrating National Indigenous History Month in Canada</a></li>\n<li><a href=\"https://fsl-bsf.scitech.gc.ca/eng/intranet/home/\">Canadian Agriculture Library</a></li>\n</ul>\n<p>\u00a0</p>\n<p><b>Erle Einarsson, Jake Freeman and Emily McAuley </b><br>\nIndigenous Network Circle Co-Chairs</p>\n<p><b>Brian Gray</b><br>\nIndigenous Network Circle Champion</p>\n<p><img src=\"https://intranet.agr.gc.ca/resources/prod/news/images/IndigenousNetworkCircleBanner-EN.png\" class=\"center-block\"></p>\n\n\t\t",
        "fr": "<br>\n<br>\n<p>Le Mois national de l\u2019histoire autochtone est une occasion de souligner le patrimoine, la contribution et la culture des collectivit\u00e9s des Premi\u00e8res Nations, des Inuits et des M\u00e9tis au Canada.</p>\n<p>En 2009, le mois de juin a \u00e9t\u00e9 d\u00e9clar\u00e9 Mois national de l\u2019histoire autochtone \u00e0 la suite d\u2019une motion adopt\u00e9e \u00e0 l\u2019unanimit\u00e9 \u00e0 la Chambre des communes. Il s\u2019agit d\u2019une occasion de reconna\u00eetre la contribution historique des Autochtones \u00e0 l\u2019\u00e9dification du Canada ainsi que la vigueur des collectivit\u00e9s autochtones d\u2019aujourd\u2019hui et leur avenir prometteur.</p>\n<p>Il y aura de nombreuses activit\u00e9s le 21 juin, Journ\u00e9e nationale des peuples autochtones, ou aux environs de cette date. Adressez-vous \u00e0 votre <a href=\"https://nafc.ca/fr/friendship-centres/\">centre d\u2019amiti\u00e9</a> local et consultez la liste des <a href=\"https://www.rcaanc-cirnac.gc.ca/fra/1100100013322/1535629803649\">\u00e9v\u00e9nements pour la Journ\u00e9e nationale des peuples autochtones</a> pour participer aux activit\u00e9s dans votre r\u00e9gion.</p>\n<h2><strong>Ressources d\u2019information sur les Autochtones</strong></h2>\n<p>Juin est \u00e9galement le Mois du club de lecture autochtone, c\u2019est-\u00e0-dire celui des <a href=\"https://collab.agr.gc.ca/co/acn-crea/SitePages/Indigenous%20Reads.aspx\">#LecturesAutochtones</a> \u00e0 AAC. La Biblioth\u00e8que canadienne de l\u2019agriculture a cr\u00e9\u00e9 une <a href=\"https://collab.agr.gc.ca/co/kis-sis/SitePages/Indigenous-related%20Information.aspx\">liste de ressources d\u2019information</a> sur la culture, l\u2019histoire et la litt\u00e9rature autochtones :</p>\n<ul>\n<li>Collection de lectures autochtones</li>\n<li>Livres et articles</li>\n<li>Livres et revues \u00e9lectroniques</li>\n</ul>\n<h2><strong>Pour en savoir plus</strong></h2>\n<ul>\n<li><a href=\"https://collab.agr.gc.ca/co/acn-crea/SitePages/Home.aspx\">Cercle de r\u00e9seautage des employ\u00e9s autochtones d\u2019AAC</a></li>\n<li><a href=\"https://www.rcaanc-cirnac.gc.ca/fra/1466616436543/1534874922512\">Mois national de l'histoire autochtone</a></li>\n<li><a href=\"https://www.thecanadianencyclopedia.ca/fr/article/celebrating-national-aboriginal-history-month-in-canada\">C\u00e9l\u00e9bration du Mois national de l'histoire autochtone au Canada</a></li>\n<li><a href=\"https://fsl-bsf.scitech.gc.ca/fra/intranet/accueil/\">Biblioth\u00e8que canadienne de l\u2019agriculture</a></li>\n</ul>\n<p>\u00a0</p>\n<p><b>Erle Einarsson, Jake Freeman et Emily McAuley </b><br>\nCopr\u00e9sidents du Cercle de r\u00e9seautage des employ\u00e9s autochtones</p>\n<p><b>Brian Gray</b><br>\nChampion du Cercle de r\u00e9seautage des employ\u00e9s autochtones</p>\n<p><img src=\"https://intranet.agr.gc.ca/resources/prod/news/INC%20Banner%20FR.png\" class=\"center-block\" alt=\"\"></p>\n\t\t"
    },
    "breadcrumb": {
        "en": "June is National Indigenous History Month",
        "fr": "Juin est le Mois national de l'histoire autochtone"
    },
    "news": {
        "date_posted": {
            "en": "2019-05-30",
            "fr": "2019-05-30"
        },
        "to": {
            "en": "All staff",
            "fr": "Tous les employ\u00e9s"
        },
        "by": {
            "en": "Indigenous Network Circle",
            "fr": "Cercle de r\u00e9seautage des employ\u00e9s autochtones"
        }
    }
}