{
    "dcr_id": "1559059158657",
    "lang": "en",
    "title": {
        "en": "Reminder - Virtual Living Library Event - June 14",
        "fr": "Rappel - S\u00e9ance virtuelle de la biblioth\u00e8que vivante le 14 juin"
    },
    "modified": "2019-06-12 00:00:00.0",
    "issued": "2019-05-30 00:00:00.0",
    "type_name": "intra-intra/news-nouv",
    "node_id": "1279030006975",
    "layout_name": null,
    "dc_date_created": "2019-05-28",
    "breadcrumb_label": "",
    "meta": {
        "issued": {
            "en": "2019-05-30",
            "fr": "2019-05-30"
        },
        "modified": {
            "en": "2019-06-12",
            "fr": "2019-06-12"
        },
        "format": {
            "en": "gcformat",
            "fr": "gcformat"
        },
        "title": {
            "en": "Reminder - Virtual Living Library Event - June 14",
            "fr": "Rappel - S\u00e9ance virtuelle de la biblioth\u00e8que vivante le 14 juin"
        },
        "subject": {
            "en": "communications",
            "fr": "communications"
        },
        "description": {
            "en": "Everyone has a story to tell! In addition to the NCR Living Library, which will take place on June 12, we have organized a Virtual Living Library on June 14.",
            "fr": "Nous avons tous une histoire \u00e0 raconter! En plus de la biblioth\u00e8que vivante de la RCN, qui se tiendra le 12 juin, nous avons \u00e9galement organis\u00e9 une s\u00e9ance virtuelle de la biblioth\u00e8que vivante pour le 14 juin."
        },
        "language": {
            "en": "eng",
            "fr": "fra"
        },
        "audience": {
            "en": "gcaudience",
            "fr": "gcaudience"
        },
        "creator": {
            "en": "Agriculture and Agri-Food Canada",
            "fr": "Agriculture et Agroalimentaire Canada"
        },
        "spatial": {
            "en": "gcregions",
            "fr": "gcregions"
        },
        "service": {
            "en": "AAFC_AgriSource",
            "fr": "AAC_AgriSource"
        },
        "accessRights": {
            "en": "3",
            "fr": "3"
        }
    },
    "body": {
        "en": "<br>\n<br>\n<p>Everyone has a story to tell! In addition to the <a href=\"http://intranet.agr.gc.ca/agrisource/eng/newswork/ncr-living-library-sessions-registration-june-12?id=1558444404012\">NCR Living Library</a>, which will take place on June 12, we\u00a0have organized\u00a0a Virtual Living Library on June 14. This event is a great opportunity to hear life experience stories from your colleagues from different regions, explore the diversity within the Department, and celebrate differences.</p>\n<h2><strong>How it works</strong></h2>\n<p>The Virtual Living Library will take place via videoconference on <strong>June 14, from 1:00 to 2:00 p.m. (ET)</strong>. Three living books will each spend 15 minutes telling their story and engaging in conversation.</p>\n<p><b>By VC:</b> Conference ID 611277358 (no PIN required)</p>\n<p><b>By telephone:</b> 613-960-7511 or 1-877-413-4782, Conference ID 3255632#</p>\n<p>Reserved VC rooms:</p>\n<ul>\n<li>Kentville: Annapolis Room</li>\n<li>Sherbrooke: Main building A1 and Sevigny building room #5 </li>\n<li>Ottawa: T5-3-251 (NHCAP)</li>\n<li>Harrow: Executive Boardroom</li>\n<li>Winnipeg: 303 Main, 2nd floor</li>\n<li>Calgary: Calgary Office Boardroom, Harry Hays Building</li>\n</ul>\n<p>No registration required.</p>\n<p>If you require speech to text transcription (CART - Communication Access Realtime Translation), please contact Yi Liang at <a href=\"mailto:yi.liang@canada.ca\">yi.liang@canada.ca</a>.</p>\n<h2><strong>Available Living Books</strong></h2>\n<ul>\n<li>Public Service: My choice, my passion, my journey, my commitment \u2013 Dr. Joyce Boye (English)</li>\n<li>How I became a 200 year old Indian \u2013 Erle Einarsson (English)</li>\n<li>Living clean and sober: A story of loss, hope and recovery from drug addiction - Jessica Dugas (Bilingual)</li>\n</ul>\n<p><strong>Learn more</strong></p>\n<ul>\n<li><a href=\"https://collab.agr.gc.ca/apps/harvest-moisson/articles/Lists/Posts/Post.aspx?List=a2e9f887%2D8725%2D4bca%2Da88d%2Dc8916af226ff&amp;ID=96&amp;Web=1e3c5caf%2D456b%2D4ee0%2D9b08%2Dea427c49c399\">2018 Living Library</a></li>\n<li>AAFC\u2019s Diversity and Inclusion Networks and upcoming events: <a href=\"https://collab.agr.gc.ca/co/eedi-emedi/SitePages/Home.aspx\">Diversity and Inclusiveness Knowledge Workspace</a></li>\n</ul>\n<p>If you have questions or for more information, contact the Diversity and Inclusion Network Secretariat at <a href=\"mailto:AAFC.Diversity-Diversite.AAC@canada.ca\">AAFC.Diversity-Diversite.AAC@canada.ca</a>.</p>\n<p>\n<img src=\"https://intranet.agr.gc.ca/resources/prod/news/images/GrowDiversityInclusion-EN2.png\" class=\"center-block\"></p>\n\n\t\t",
        "fr": "<br>\n<br>\n<p>Nous avons tous une histoire \u00e0 raconter! En plus de <a href=\"http://intranet.agr.gc.ca/agrisource/fra/nouvelleslouvrage/rcn-inscription-aux-seances-de-la-bibliotheque-vivante-12-juin?id=1558444404012\">la biblioth\u00e8que vivante de la RCN</a>, qui se tiendra le 12 juin, nous avons \u00e9galement organis\u00e9 une s\u00e9ance virtuelle de la biblioth\u00e8que vivante pour le 14 juin. Cet \u00e9v\u00e9nement est une excellente occasion d\u2019entendre les histoires\u00a0personnelles de vos coll\u00e8gues de diverses r\u00e9gions, de d\u00e9couvrir la diversit\u00e9 au sein du Minist\u00e8re et de c\u00e9l\u00e9brer les diff\u00e9rences.</p>\n<h2><strong>Comment \u00e7a fonctionne?</strong></h2>\n<p>La s\u00e9ance virtuelle de la biblioth\u00e8que vivante sera offerte par vid\u00e9oconf\u00e9rence le <strong>14 juin de 13 h \u00e0 14 h (HE)</strong>. Trois livres vivants passeront chacun 15 minutes \u00e0 raconter leur histoire et \u00e0 converser.</p>\n<p><b>Par VC : </b>code de la conf\u00e9rence 611277358 (aucun NIP requis)</p>\n<p><b>Au t\u00e9l\u00e9phone :</b> 613-960-7511 ou 1-877-413-4782, code de la conf\u00e9rence 3255632#</p>\n<p>Salles de VC r\u00e9serv\u00e9es :</p>\n<ul>\n<li>Kentville : salle Annapolis</li>\n<li>Sherbrooke : immeuble principal A1 et immeuble Sevigny, salle 5</li>\n<li>Ottawa : T5-3-251 (CACPA)</li>\n<li>Harrow : Salle de r\u00e9union de la haute direction</li>\n<li>Winnipeg : 303 Rue main, \u00c9tage 2</li>\n<li>Calgary : salle de conf\u00e9rence du bureau de Calgary, immeuble Harry Hays</li>\n</ul>\n<p>Aucune inscription requise.</p>\n<p>Si vous avez besoin de transcription de la parole (CART - Traduction en temps r\u00e9el des communications), veuillez communiquer avec Yi Liang \u00e0 <a href=\"mailto:yi.liang@canada.ca\">yi.liang@canada.ca</a>.</p>\n<h2><strong>Livres vivants disponibles</strong><strong> </strong></h2>\n<ul>\n<li>Fonction publique : mon choix, ma passion, mon cheminement, mon engagement \u2013 Joyce Boye (Ph.D)\u00a0(anglais)</li>\n<li>Comment je suis devenu un Indien de 200 ans\u00a0 \u2013 Erle Einarsson (anglais)</li>\n<li>Vivre sans consommation de drogue ou d\u2019alcool : histoire de perte, d\u2019espoir et de r\u00e9tablissement de la toxicomanie - Jessica Dugas (bilingue)</li>\n</ul>\n<h2><strong>Pour en savoir plus</strong></h2>\n<ul>\n<li><a href=\"https://collab.agr.gc.ca/apps/harvest-moisson/articles/Lists/Posts/Post.aspx?List=a2e9f887%2D8725%2D4bca%2Da88d%2Dc8916af226ff&amp;ID=96&amp;Web=1e3c5caf%2D456b%2D4ee0%2D9b08%2Dea427c49c399\">Biblioth\u00e8que vivante de 2018</a></li>\n<li>Pour en apprendre davantage sur les r\u00e9seaux de la diversit\u00e9 et de l\u2019inclusion d\u2019AAC et les activit\u00e9s \u00e0 venir, visitez la page de l\u2019<a href=\"https://collab.agr.gc.ca/co/eedi-emedi/SitePages/Home.aspx\">Espace de travail du savoir sur la diversit\u00e9 et l\u2019inclusion</a>.</li>\n</ul>\n<p>Si vous avez des questions ou souhaitez obtenir de plus amples renseignements, communiquez avec le Secr\u00e9tariat des r\u00e9seaux de la diversit\u00e9 et de l\u2019inclusivit\u00e9 par courriel \u00e0 <a href=\"mailto:AAFC.Diversity-Diversite.AAC@canada.ca\">AAFC.Diversity-Diversite.AAC@canada.ca</a>.</p>\n<p>\n<img src=\"https://intranet.agr.gc.ca/resources/prod/news/images/GrowDiversityInclusion-FR2.png\" class=\"center-block\"></p>\n\t\t"
    },
    "breadcrumb": {
        "en": "Reminder - Virtual Living Library Event - June 14",
        "fr": "Rappel - S\u00e9ance virtuelle de la biblioth\u00e8que vivante le 14 juin"
    },
    "news": {
        "date_posted": {
            "en": "2019-05-30",
            "fr": "2019-05-30"
        },
        "to": {
            "en": "All staff",
            "fr": "Tous les employ\u00e9s"
        },
        "by": {
            "en": "Human Resources, Corporate Management Branch",
            "fr": "Ressources humaines, Direction g\u00e9n\u00e9rale de la gestion int\u00e9gr\u00e9e"
        }
    }
}