{
    "dcr_id": "1559671470433",
    "lang": "en",
    "title": {
        "en": "Policy Analyst",
        "fr": "Analyste de politiques"
    },
    "modified": "2019-06-05 00:00:00.0",
    "issued": "2019-06-05 00:00:00.0",
    "type_name": "intra-intra/empl-empl",
    "node_id": "1279029955397",
    "layout_name": null,
    "dc_date_created": "2019-06-05",
    "breadcrumb_label": "",
    "meta": {
        "issued": {
            "en": "2019-06-05",
            "fr": "2019-06-05"
        },
        "modified": {
            "en": "2019-06-05",
            "fr": "2019-06-05"
        },
        "format": {
            "en": "gcformat",
            "fr": "gcformat"
        },
        "title": {
            "en": "Policy Analyst",
            "fr": "Analyste de politiques"
        },
        "subject": {
            "en": "staffing",
            "fr": "dotation en personnel"
        },
        "language": {
            "en": "eng",
            "fr": "fra"
        },
        "audience": {
            "en": "gcaudience",
            "fr": "gcaudience"
        },
        "type": {
            "en": "notice",
            "fr": "avis"
        },
        "creator": {
            "en": "Agriculture and Agri-Food Canada",
            "fr": "Agriculture et Agroalimentaire Canada"
        },
        "spatial": {
            "en": "gcregions",
            "fr": "gcregions"
        },
        "service": {
            "en": "AAFC_AgriSource",
            "fr": "AAC_AgriSource"
        },
        "accessRights": {
            "en": "3",
            "fr": "3"
        }
    },
    "body": {
        "en": "<p><strong>Description</strong></p>\n<p>\u00a0</p>\n<p>Employees of Agriculture and Agri-Food Canada (AAFC) at the EC-05 AND EC-06 (or equivalents) are invited to express their interest in an assignment at level or deployment opportunity to work on supply management policy analysis within the Supply Management Policy unit, Animal Sector Policy Division, Policy Analysis and Development Directorate (PDAD) in Strategic Policy Branch.</p>\n<p>The Supply Management Policy unit is responsible for the overarching policy framework that guides the administration of the supply management system in Canada. Policy analysis work in supply management will involve working with stakeholders, including the Farm Products Council of Canada, the Canadian Dairy Commission, and commodity boards, as well as conducting analysis of the five sectors operating under a supply management regime.</p>\n<p>We are looking for individuals with strong analytical, strategic, research and writing skills to work as a Policy Analyst or Senior Policy Analyst. Responsibilities will include preparing briefings for senior management and the Minister, leading policy analysis on current and emerging issues impacting the supply managed sector and providing leadership in the advancement of specific policy issues as required.</p>\n<p>\u00a0</p>\n<p><strong>Statement of Merit Criteria &amp; Conditions of Employment</strong></p>\n<p>\u00a0</p>\n<p><strong>Essential Qualifications</strong></p>\n<p>\u00a0</p>\n<p>Education</p>\n<p>Graduation with a <a href=\"https://www.canada.ca/en/treasury-board-secretariat/services/staffing/qualification-standards/core.html#deg\">degree</a>* from a <a href=\"https://www.canada.ca/en/treasury-board-secretariat/services/staffing/qualification-standards/core.html#rpsi\">recognized post-secondary institution</a> with <a href=\"https://www.canada.ca/en/treasury-board-secretariat/services/staffing/qualification-standards/core.html#spec\">acceptable specialization</a> in economics, sociology or statistics.</p>\n<p>*Unless it is otherwise specified (e.g., Master\u2019s degree), the term <strong>\u201cdegree\u201d </strong>refers to a baccalaureate as established by educational authorities.</p>\n<p>Candidates must always have a degree. The courses for the specialization must be acceptable and may have been taken at a recognized post-secondary institution, but not necessarily within a degree program in the required specialization. The specialization may also be obtained through an acceptable combination of education, training and/or experience.</p>\n<p>Experience:</p>\n<p>\u00a0</p>\n<p>Experience in policy research, policy analysis, or policy development;<br>\nExperience in writing decks and/or briefing notes;<br>\nExperience in providing policy-related briefings, advice and recommendations to senior management (Director-level and above); and<br>\nExperience in responding to a wide range of inquiries from officials from various levels of government and/or the private sector.</p>\n<p>\u00a0</p>\n<p>Knowledge:</p>\n<p>\u00a0</p>\n<p>Knowledge of policy environment/issues and trends</p>\n<p>\u00a0</p>\n<p>Competencies:</p>\n<ul>\n<li>Analytical Thinking</li>\n<li>Interactive Communication</li>\n<li>Writing Skills</li>\n<li>Teamwork</li>\n<li>Initiative</li>\n<li>Adaptability</li>\n<li>Judgment</li>\n</ul>\n<p>Language Requirement(s): Various Linguistic Profiles</p>\n<p>\u00a0</p>\n<p><strong>Asset Qualifications </strong></p>\n<p>\u00a0</p>\n<p>Experience in public and stakeholder consultations;<br>\nExperience in dealing and engaging with other government departments;<br>\nExperience writing and/or editing Cabinet Committee briefing notes or Cabinet Committee submissions.</p>\n<p>\u00a0</p>\n<h3><strong>Organizational Needs</strong></h3>\n<p>In support of achieving a diversified workforce, consideration may be given to candidates self-identifying as belonging to one of the following Employment Equity groups: Aboriginal peoples, Persons with a Disability; Visible Minorities, Women.</p>\n<p><strong>Operational Requirements</strong></p>\n<p>Ability and willingness to work overtime on short notice.</p>\n<p>\u00a0</p>\n<p><strong>Conditions of Employment</strong><strong> </strong></p>\n<p>\u00a0</p>\n<p>Security Requirement: Secret clearance</p>\n<p>Candidates must be located in the National Capital Region.\u00a0</p>\n<p>\u00a0</p>\n<p><strong>Applications:</strong></p>\n<p>\u00a0</p>\n<p>Interested AAFC employees at the EC-05 and EC-06 group and level or equivalent are encouraged to forward their resume and cover letter (cover letter should not be longer than 2 pages) to Julie Levert at Julie.levert@canada.ca by June 19, 2019 with the following information:</p>\n<p>\u00a0</p>\n<ul>\n<li>\n<p>Your tenure (e.g. term or indeterminate)</p>\n</li>\n<li>\n<p>Your substantive group and level</p>\n</li>\n<li>\n<p>How you meet the essential and asset qualifications</p>\n<p>\u00a0</p>\n<p>\u00a0</p>\n</li>\n</ul>\n",
        "fr": "<p><strong>Description</strong></p>\n<p>Les employ\u00e9s d\u2019Agriculture et Agroalimentaire Canada (AAC) occupant un poste EC-05 ET EC-06 (ou \u00e9quivalent) sont invit\u00e9s \u00e0 faire conna\u00eetre leur int\u00e9r\u00eat pour une possibilit\u00e9 d\u2019affectation au m\u00eame niveau ou de mutation afin de travailler \u00e0 l\u2019analyse des politiques de gestion de l\u2019offre au sein de l\u2019unit\u00e9 de la politique de la gestion de l\u2019offre de la Division des politiques sur les productions animales, qui rel\u00e8ve de la Direction de l\u2019\u00e9laboration et de l\u2019analyse des politiques de la Direction g\u00e9n\u00e9rale des politiques strat\u00e9giques.</p>\n<p>L\u2019unit\u00e9 de la Politique de gestion de l\u2019offre est responsable de l\u2019ensemble du cadre strat\u00e9gique qui oriente l\u2019administration du syst\u00e8me de gestion de l\u2019offre au Canada. Le travail d\u2019analyse des politiques de gestion de l\u2019offre se fera avec la collaboration des intervenants, y compris le Conseil des produits agricoles du Canada, la Commission canadienne du lait et les offices de commercialisation, et pr\u00e9voit l\u2019analyse des cinq secteurs sous le r\u00e9gime de gestion de l\u2019offre.</p>\n<p>Nous sommes \u00e0 la recherche de personnes ayant d\u2019excellentes comp\u00e9tences d\u2019analyse, de recherche et de r\u00e9daction, ainsi que des comp\u00e9tences strat\u00e9giques pour travailler comme analyste des politiques ou analyste principal des politiques. Les responsabilit\u00e9s consisteront \u00e0 pr\u00e9parer des notes d\u2019information \u00e0 l\u2019intention de la haute direction et du ministre, \u00e0 diriger l\u2019analyse des politiques sur des dossiers actuels et \u00e9mergents qui ont une incidence sur le secteur sous gestion de l\u2019offre et \u00e0 faire preuve de leadership pour l\u2019avancement de questions pr\u00e9cises relatives aux politiques, s\u2019il y a lieu.</p>\n<p><strong>\u00c9nonc\u00e9 des crit\u00e8res de m\u00e9rite et conditions d\u2019emploi \u2013 EC\u201106 </strong><br>\n<br>\n<strong>Qualifications essentielles<br>\n<br>\n\u00c9tudes</strong></p>\n<p>Un <a href=\"https://www.canada.ca/fr/secretariat-conseil-tresor/services/dotation/normes-qualification/centrale.html#Dipl\">grade</a>* d\u2019un <a href=\"https://www.canada.ca/fr/secretariat-conseil-tresor/services/dotation/normes-qualification/centrale.html#eepr\">\u00e9tablissement d\u2019enseignement postsecondaire reconnu</a> avec <a href=\"https://www.canada.ca/fr/secretariat-conseil-tresor/services/dotation/normes-qualification/centrale.html#spec\">sp\u00e9cialisation</a> <a href=\"https://www.canada.ca/fr/secretariat-conseil-tresor/services/dotation/normes-qualification/centrale.html#acc\">acceptable</a> en \u00e9conomie, en sociologie ou en statistique.</p>\n<p>*\u00c0 moins qu\u2019il ne soit autrement sp\u00e9cifi\u00e9 (p. ex., grade de ma\u00eetrise), le terme \u00ab grade \u00bb fait r\u00e9f\u00e9rence \u00e0 un baccalaur\u00e9at, tel qu\u2019\u00e9tabli par les autorit\u00e9s scolaires comp\u00e9tentes.</p>\n<p>Les candidats et les candidates doivent obligatoirement poss\u00e9der un dipl\u00f4me. Les cours li\u00e9s \u00e0 la sp\u00e9cialisation doivent \u00eatre acceptables et peuvent avoir \u00e9t\u00e9 suivis dans un \u00e9tablissement d\u2019enseignement postsecondaire reconnu, mais pas n\u00e9cessairement dans le cadre d\u2019un programme d\u2019\u00e9tudes postsecondaires dans la sp\u00e9cialit\u00e9 demand\u00e9e. Une combinaison acceptable d\u2019\u00e9tudes, de formation et/ou d\u2019exp\u00e9rience peut tenir lieu de sp\u00e9cialisation.<br>\n<br>\n<strong>Exp\u00e9rience</strong><br>\n<br>\nExp\u00e9rience de la recherche, de l\u2019analyse\u00a0ou de l\u2019\u00e9laboration des politiques;<br>\nExp\u00e9rience de la r\u00e9daction de pr\u00e9sentations et/ou de notes d\u2019information;<br>\nExp\u00e9rience de la pr\u00e9sentation de renseignements, de conseils et d'avis sur les politiques \u00e0 la haute direction (niveau du directeur et \u00e9chelons sup\u00e9rieurs);<br>\nExp\u00e9rience de la formulation de r\u00e9ponses \u00e0 un large \u00e9ventail de demandes de renseignements de repr\u00e9sentants de divers\u00a0niveaux du gouvernement et du secteur priv\u00e9.</p>\n<p><strong>Connaissance</strong><br>\n<br>\nConnaissance du contexte, des enjeux et des tendances en mati\u00e8re de politiques<br>\n<br>\n<strong>Comp\u00e9tences</strong><br>\n<br>\n\u2022 Raisonnement analytique<br>\n\u2022 Communication interactive<br>\n\u2022 Comp\u00e9tences en r\u00e9daction<br>\n\u2022 Esprit d\u2019\u00e9quipe<br>\n\u2022 Esprit d\u2019initiative<br>\n\u2022 Facult\u00e9 d\u2019adaptation<br>\n\u2022 Jugement</p>\n<p>Exigences linguistiques : Profiles linguistique vari\u00e9s</p>\n<p><strong>Qualifications constituant un atout</strong><br>\n<br>\nExp\u00e9rience dans les exercices de consultations aupr\u00e8s des intervenants et du public;<br>\nExp\u00e9rience de la collaboration avec d\u2019autres minist\u00e8res et de la mobilisation de ces minist\u00e8res;<br>\nExp\u00e9rience de la r\u00e9daction et/ou de la r\u00e9vision de notes d\u2019information ou de pr\u00e9sentations destin\u00e9es aux comit\u00e9s du Cabinet.</p>\n<p><strong>Besoins op\u00e9rationnels</strong></p>\n<p>\u00catre dispos\u00e9 et apte \u00e0 faire des heures suppl\u00e9mentaires \u00e0 court pr\u00e9avis.</p>\n<p><strong>Conditions d\u2019emploi</strong><br>\n<br>\nS\u00e9curit\u00e9 : Cote de s\u00e9curit\u00e9 de niveau \u00ab Secret \u00bb.<br>\nLes candidats doivent r\u00e9sider dans la r\u00e9gion de la capitale nationale.</p>\n<p><strong>Besoins organisationnels</strong></p>\n<p>Pour les besoins de la diversification de l\u2019effectif, une attention particuli\u00e8re pourrait \u00eatre accord\u00e9e aux candidats qui auront indiqu\u00e9 leur appartenance \u00e0 l\u2019un des groupes suivants vis\u00e9s par l\u2019\u00e9quit\u00e9 en mati\u00e8re d\u2019emploi : Autochtones, personnes handicap\u00e9es, minorit\u00e9s visibles, femmes.</p>\n<p><strong>Demandes</strong></p>\n<p>Les employ\u00e9s d\u2019AAC\u00a0au groupe et niveau EC-05 et EC-06\u00a0sont invit\u00e9s \u00e0 faire parvenir leur curriculum vit\u00e6 accompagn\u00e9 d\u2019une lettre de pr\u00e9sentation (la lettre de pr\u00e9sentation ne doit pas \u00eatre plus de 2 pages) avant le 19 juin 2019 \u00e0 Julie Levert par courriel \u00e0 julie.levert@canada.ca avec les renseignements suivants :<br>\n<br>\n\u2022 La dur\u00e9e de leur emploi (p. ex. d\u00e9termin\u00e9 ou ind\u00e9termin\u00e9)<br>\n\u2022 Le groupe et le niveau de leur poste d\u2019attache<br>\n\u2022 En quoi ils poss\u00e8dent les qualifications essentielles et les qualifications constituant un atout.</p>\n<p>\u00a0</p>\n\n"
    },
    "breadcrumb": {
        "en": "Policy Analyst",
        "fr": "Analyste de politiques"
    },
    "empl": {
        "type": {
            "en": "Assignment, Deployment",
            "fr": "Affectation, Mutation"
        },
        "classification": {
            "en": "EC-6, EC-5 and equivalent",
            "fr": "EC-6, EC-5 et \u00e9quivalent"
        },
        "branch": {
            "en": "Strategic Policy Branch",
            "fr": "Direction g\u00e9n\u00e9rale des politiques strat\u00e9giques"
        },
        "locations": {
            "en": "National Capital Region",
            "fr": "R\u00e9gion de la capitale nationale"
        },
        "date_closing": {
            "en": "2019-06-19",
            "fr": "2019-06-19"
        },
        "open_to": {
            "en": "AAFC employees at the EC-05 and EC-06 group and level (or equivalent)",
            "fr": "Employ\u00e9s d'AAC de groupe et niveau EC-05 et EC-06 (ou \u00e9quivalent)"
        },
        "name": {
            "en": "Julie Levert",
            "fr": "Julie Levert"
        },
        "email": {
            "en": "julie.levert@canada.ca",
            "fr": "julie.levert@canada.ca"
        }
    }
}