{
    "dcr_id": "1560268042448",
    "lang": "en",
    "title": {
        "en": "Reminder - Celebration of the RADARSAT Constellation Mission: History in the Making for Canadian Agriculture - June 20",
        "fr": "Rappel - C\u00e9l\u00e9bration de la Mission de la Constellation RADARSAT: Un moment historique pour l\u2019agriculture canadienne - 20 juin "
    },
    "modified": "2019-06-19 00:00:00.0",
    "issued": "2019-06-13 00:00:00.0",
    "type_name": "intra-intra/news-nouv",
    "node_id": "1279030006975",
    "layout_name": null,
    "dc_date_created": "2019-06-11",
    "breadcrumb_label": "Reminder - Celebration of the RADARSAT Constellation Mission - History in the Making for ...",
    "meta": {
        "issued": {
            "en": "2019-06-13",
            "fr": "2019-06-13"
        },
        "modified": {
            "en": "2019-06-19",
            "fr": "2019-06-19"
        },
        "format": {
            "en": "gcformat",
            "fr": "gcformat"
        },
        "title": {
            "en": "Reminder - Celebration of the RADARSAT Constellation Mission: History in the Making for Canadian Agriculture - June 20",
            "fr": "Rappel - C\u00e9l\u00e9bration de la Mission de la Constellation RADARSAT: Un moment historique pour l\u2019agriculture canadienne - 20 juin "
        },
        "subject": {
            "en": "communications",
            "fr": "communications"
        },
        "description": {
            "en": "Come and celebrate the recent (June 12th) launch of Canada\u2019s new generation of Earth observation satellites into space, the RADARSAT Constellation Mission (RCM).",
            "fr": "Venez c\u00e9l\u00e9brer le lancement r\u00e9cent (12 juin) de la nouvelle g\u00e9n\u00e9ration canadienne de satellites d\u2019observation de la Terre dans l'espace, la Mission de la Constellation RADARSAT (MCR)."
        },
        "language": {
            "en": "eng",
            "fr": "fra"
        },
        "audience": {
            "en": "gcaudience",
            "fr": "gcaudience"
        },
        "creator": {
            "en": "Agriculture and Agri-Food Canada",
            "fr": "Agriculture et Agroalimentaire Canada"
        },
        "spatial": {
            "en": "gcregions",
            "fr": "gcregions"
        },
        "service": {
            "en": "AAFC_AgriSource",
            "fr": "AAC_AgriSource"
        },
        "accessRights": {
            "en": "3",
            "fr": "3"
        }
    },
    "body": {
        "en": "<br>\n<br>\n<p>Come and celebrate the recent (June 12) launch of Canada\u2019s new generation of Earth observation satellites into space, the RADARSAT Constellation Mission (RCM). The RCM will provide valuable data and imagery of Canada, enabling solutions to challenges in areas such as agricultural management, ecosystems monitoring, maritime surveillance, and disaster management.</p>\n<p>AAFC is among more than a dozen federal government departments already using data from the current RADARSAT-2 satellite to deliver important services to Canadians. The RCM will ensure the ongoing accessibility of Earth observation data and will provide more frequent ground coverage to better detect changes such as crop growth and soil moisture conditions.</p>\n<p>Please join Dr. Brian Gray, Dr. Heather McNairn, and Dr. Andrew Davidson to learn more about how AAFC scientists contributed to the RCM and how they are using satellite data to support agricultural planning and practice.</p>\n<p>Cake will be served.</p>\n<h2>Event information</h2>\n<p><strong>Date and Time: </strong>1:30 to 3:00 p.m. Thursday, June 20<br><strong>Location:</strong> NHCAP (Tower 6 Food Court) </p>\n<p>\nFor remote viewing: </p>\n<p><b>Videoconference:</b> 6611300835<br><b>Telephone:</b>\u00a0613-960-7511 or 1-877-413-4782\u00a0 <b>Conference ID:</b> 3917292</p>\n\n\t\t",
        "fr": "<br>\n<br>\n<p>Venez c\u00e9l\u00e9brer le lancement r\u00e9cent (12 juin) de la nouvelle g\u00e9n\u00e9ration canadienne de satellites d\u2019observation de la Terre dans l\u2019espace, la Mission de la Constellation RADARSAT (MCR). La MCR fournira des donn\u00e9es pr\u00e9cieuses et des images du Canada, en permettant de trouver des solutions aux probl\u00e8mes dans certains domaines, comme la gestion agricole, la surveillance des \u00e9cosyst\u00e8mes, la surveillance maritime et la gestion des catastrophes.</p>\n<p>AAC fait partie de plus d\u2019une douzaine de minist\u00e8res et d\u2019organismes f\u00e9d\u00e9raux utilisant d\u00e9j\u00e0 les donn\u00e9es provenant du satellite RADARSAT-2 afin d\u2019offrir des services importants aux Canadiens. La MCR s\u2019assurera de l\u2019accessibilit\u00e9 constante des donn\u00e9es d\u2019observation de la Terre et fournira une couverture du sol plus fr\u00e9quente afin de mieux d\u00e9tecter les changements, comme la croissance des cultures et les conditions d\u2019humidit\u00e9 du sol.</p>\n<p>Venez rencontrer Brian Gray, Heather McNairn et Andrew Davidson pour en apprendre davantage sur la fa\u00e7on dont les scientifiques d\u2019AAC ont contribu\u00e9 \u00e0 la MCR et comment ils utilisent les donn\u00e9es des satellites pour appuyer la planification et les pratiques agricoles.</p>\n<p>Du g\u00e2teau sera servi.</p>\n<h2 style='color: #333333; text-transform: none; line-height: 1.1; text-indent: 0px; letter-spacing: normal; font-family: \"Helvetica Neue\", Helvetica, Arial, sans-serif; font-size: 26px; font-style: normal; font-weight: bold; margin-top: 38px; margin-bottom: 11.5px; word-spacing: 0px; white-space: normal; box-sizing: border-box; orphans: 2; widows: 2; background-color: #ffffff; font-variant-ligatures: normal; font-variant-caps: normal; text-decoration-style: initial; text-decoration-color: initial;'><strong style=\"font-weight: bold; box-sizing: border-box;\">Renseignements sur l\u2019\u00e9v\u00e9nement</strong></h2>\n<p><strong>Date et heure : </strong>de 13 h 30 \u00e0 15 h, le jeudi 20 juin<br><strong>Lieu :</strong> CACPA, caf\u00e9t\u00e9ria de la Tour 6</p>\n<p>\nPour un visionnement \u00e0 distance: </p>\n<p><b>Vid\u00e9oconf\u00e9rence\u00a0:</b> 6611300835<br><b>T\u00e9l\u00e9phone :</b>\u00a0613-960-7511 ou 1-877-413-4782 \u00a0<b>Code de conf\u00e9rence :</b> 3917292</p>\n\t\t"
    },
    "breadcrumb": {
        "en": "Reminder - Celebration of the RADARSAT Constellation Mission - History in the Making for ...",
        "fr": "Rappel - C\u00e9l\u00e9bration de la Mission de la Constellation RADARSAT \u2013 Un moment historique pour ..."
    },
    "news": {
        "date_posted": {
            "en": "2019-06-12",
            "fr": "2019-06-12"
        },
        "to": {
            "en": "All staff",
            "fr": "Tous les employ\u00e9s"
        },
        "by": {
            "en": "Science and Technology Branch",
            "fr": "Direction g\u00e9n\u00e9rales des sciences et de la technologie"
        }
    }
}