{
    "dcr_id": "1560786220192",
    "lang": "en",
    "title": {
        "en": "Reminder - Mental Health Training - July Sessions",
        "fr": "Rappel - Formation sur la sant\u00e9 mentale - S\u00e9ances en juillet"
    },
    "modified": "2019-06-27 00:00:00.0",
    "issued": "2019-06-19 00:00:00.0",
    "type_name": "intra-intra/news-nouv",
    "node_id": "1279030006975",
    "layout_name": null,
    "dc_date_created": "2019-06-18",
    "breadcrumb_label": "",
    "meta": {
        "issued": {
            "en": "2019-06-19",
            "fr": "2019-06-19"
        },
        "modified": {
            "en": "2019-06-27",
            "fr": "2019-06-27"
        },
        "format": {
            "en": "gcformat",
            "fr": "gcformat"
        },
        "title": {
            "en": "Reminder - Mental Health Training - July Sessions",
            "fr": "Rappel - Formation sur la sant\u00e9 mentale - S\u00e9ances en juillet"
        },
        "subject": {
            "en": "communications",
            "fr": "communications"
        },
        "description": {
            "en": "The Working Mind is the awareness-based mental health training program of choice for AAFC, developed by the Mental Health Commission of Canada.",
            "fr": "L'esprit au travail est le programme de promotion de la sant\u00e9 mentale que privil\u00e9gie AAC."
        },
        "language": {
            "en": "eng",
            "fr": "fra"
        },
        "audience": {
            "en": "gcaudience",
            "fr": "gcaudience"
        },
        "creator": {
            "en": "Agriculture and Agri-Food Canada",
            "fr": "Agriculture et Agroalimentaire Canada"
        },
        "spatial": {
            "en": "gcregions",
            "fr": "gcregions"
        },
        "service": {
            "en": "AAFC_AgriSource",
            "fr": "AAC_AgriSource"
        },
        "accessRights": {
            "en": "3",
            "fr": "3"
        }
    },
    "body": {
        "en": "<br>\n<br>\n<p>AAFC is committed to the mental health and well-being of its employees and recognizes that mental illness can touch all of us, directly or indirectly.</p>\n<p><a href=\"http://theworkingmind.ca/working-mind\">The Working Mind</a> is the awareness-based mental health training program of choice for AAFC, developed by the Mental Health Commission of Canada. It is designed to help employees and managers:</p>\n<ul>\n<li>address, promote and build awareness of mental health;</li>\n<li>dispel myths around mental health and mental illness; and</li>\n<li>reduce the stigma of mental illness in the workplace.</li>\n</ul>\n<p><strong>Upcoming sessions for employees</strong></p>\n<table border=\"1\" width=\"700\">\n<tbody>\n<tr>\n<td style=\"width: 99.15pt;\">\n<p><strong>\u00a0Date</strong></p>\n</td>\n<td style=\"width: 171pt;\">\n<p><strong>\u00a0Time</strong></p>\n</td>\n<td style=\"width: 170.95pt;\">\n<p><strong>\u00a0Location</strong></p>\n</td>\n<td style=\"width: 83.9pt;\">\n<p><strong>\u00a0Language</strong></p>\n</td>\n</tr>\n<tr>\n<td style=\"width: 99.15pt;\">\n<p>\u00a0July 4</p>\n</td>\n<td style=\"width: 171pt;\">\n<p>\u00a01:00 p.m. to 4:30 p.m. (CT)</p>\n</td>\n<td style=\"width: 170.95pt;\">\n<p>\u00a0Brandon, MB</p>\n</td>\n<td style=\"width: 83.9pt;\">\n<p>\u00a0English</p>\n</td>\n</tr>\n<tr>\n<td style=\"width: 99.15pt;\">\n<p>\u00a0July 4</p>\n</td>\n<td style=\"width: 171pt;\">\n<p>\u00a08:30 a.m. to 12:00 p.m. (ET)</p>\n</td>\n<td style=\"width: 170.95pt;\">\n<p>\u00a0NHCAP </p>\n</td>\n<td style=\"width: 83.9pt;\">\n<p>\u00a0English</p>\n</td>\n</tr>\n<tr>\n<td style=\"width: 99.15pt;\">\n<p>\u00a0July 9</p>\n</td>\n<td style=\"width: 171pt;\">\n<p>\u00a01:00 p.m. to 4:30 p.m. (ET)</p>\n</td>\n<td style=\"width: 170.95pt;\">\n<p>\u00a0NHCAP</p>\n</td>\n<td style=\"width: 83.9pt;\">\n<p>\u00a0English</p>\n</td>\n</tr>\n<tr>\n<td style=\"width: 99.15pt;\">\n<p>\u00a0July 15</p>\n</td>\n<td style=\"width: 171pt;\">\n<p>\u00a08:30 a.m. to 12:00 p.m. (ET)</p>\n</td>\n<td style=\"width: 170.95pt;\">\n<p>\u00a0NHCAP</p>\n</td>\n<td style=\"width: 83.9pt;\">\n<p>\u00a0English</p>\n</td>\n</tr>\n</tbody>\n</table>\n<p>\u00a0</p>\n<p>To register for July employee sessions, find out about upcoming employee or manager sessions, or request a session for your team, please contact Workplace Wellness Programs at <a href=\"mailto:aafc.mentalhealth-santementale.aac@canada.ca\">aafc.mentalhealth-santementale.aac@canada.ca</a>.</p>\n<p><img src=\"https://intranet.agr.gc.ca/resources/prod/news/images/HealthyWorkplace.png\" class=\"center-block\"></p>\n\n\t\t",
        "fr": "<br>\n<br>\n<p>AAC a \u00e0 c\u0153ur la sant\u00e9 mentale et le bien-\u00eatre de ses employ\u00e9s et reconna\u00eet que la maladie mentale peut toucher tout le monde, directement ou indirectement.</p>\n<p>L\u2019<a href=\"https://www.espritautravail.ca/lesprit-au-travail\">esprit au travail</a> est le programme de promotion de la sant\u00e9 mentale que privil\u00e9gie AAC. Ce programme \u00e9labor\u00e9 par la Commission de la sant\u00e9 mentale du Canada vise \u00e0 aider les employ\u00e9s et les gestionnaires \u00e0 :</p>\n<ul>\n<li>discuter et faire la promotion de la sant\u00e9 mentale;</li>\n<li>briser les mythes li\u00e9s \u00e0 la sant\u00e9 mentale et \u00e0 la maladie mentale;</li>\n<li>r\u00e9duire la stigmatisation de la maladie mentale au travail.</li>\n</ul>\n<p><strong>Prochaines s\u00e9ances pour les employ\u00e9s</strong></p>\n<table border=\"1\" width=\"700\">\n<tbody>\n<tr>\n<td style=\"width: 99.15pt;\">\n<p><strong>\u00a0Date</strong></p>\n</td>\n<td style=\"width: 171pt;\">\n<p><strong>\u00a0Heure</strong></p>\n</td>\n<td style=\"width: 170.95pt;\">\n<p><strong>\u00a0Lieu</strong></p>\n</td>\n<td style=\"width: 83.9pt;\">\n<p><strong>\u00a0Langue</strong></p>\n</td>\n</tr>\n<tr>\n<td style=\"width: 99.15pt;\">\n<p>\u00a04 juillet</p>\n</td>\n<td style=\"width: 171pt;\">\n<p>\u00a013 h 00 \u00e0 16 h 30 (HC)</p>\n</td>\n<td style=\"width: 170.95pt;\">\n<p>\u00a0Brandon (MB)</p>\n</td>\n<td style=\"width: 83.9pt;\">\n<p>\u00a0Anglais</p>\n</td>\n</tr>\n<tr>\n<td style=\"width: 99.15pt;\">\n<p>\u00a04 juillet</p>\n</td>\n<td style=\"width: 171pt;\">\n<p>\u00a08 h 30 \u00e0 12 h 00 (HE)</p>\n</td>\n<td style=\"width: 170.95pt;\">\n<p>\u00a0CACPA</p>\n</td>\n<td style=\"width: 83.9pt;\">\n<p>\u00a0Anglais</p>\n</td>\n</tr>\n<tr>\n<td style=\"width: 99.15pt;\">\n<p>\u00a09 juillet</p>\n</td>\n<td style=\"width: 171pt;\">\n<p>\u00a013 h 00 \u00e0 16 h 30 (HE)</p>\n</td>\n<td style=\"width: 170.95pt;\">\n<p>\u00a0CACPA</p>\n</td>\n<td style=\"width: 83.9pt;\">\n<p>\u00a0Anglais</p>\n</td>\n</tr>\n<tr>\n<td style=\"width: 99.15pt;\">\n<p>\u00a015 juilet</p>\n</td>\n<td style=\"width: 171pt;\">\n<p>\u00a08 h 30 \u00e0 12 h 00 (HE)</p>\n</td>\n<td style=\"width: 170.95pt;\">\n<p>\u00a0CACPA</p>\n</td>\n<td style=\"width: 83.9pt;\">\n<p>\u00a0Anglais</p>\n</td>\n</tr>\n</tbody>\n</table>\n<p>\u00a0</p>\n<p>Afin de vous inscrire aux s\u00e9ances offertes aux employ\u00e9s en juillet, d\u2019obtenir plus d\u2019information sur les prochaines s\u00e9ances offertes aux employ\u00e9s ou aux gestionnaires, ou de demander la tenue d\u2019une s\u00e9ance pour votre \u00e9quipe, veuillez communiquer avec les Programmes du mieux-\u00eatre en milieu de travail \u00e0 <a href=\"mailto:aafc.mentalhealth-santementale.aac@canada.ca\">aafc.mentalhealth-santementale.aac@canada.ca</a>.</p>\n<p><img src=\"https://intranet.agr.gc.ca/resources/prod/news/images/HealthyWorkplace.png\" class=\"center-block\"></p>\n\t\t"
    },
    "breadcrumb": {
        "en": "Reminder - Mental Health Training - July Sessions",
        "fr": "Rappel - Formation sur la sant\u00e9 mentale - S\u00e9ances en juillet"
    },
    "news": {
        "date_posted": {
            "en": "2019-06-20",
            "fr": "2019-06-20"
        },
        "to": {
            "en": "All staff",
            "fr": "Tous les employ\u00e9s"
        },
        "by": {
            "en": "Human Resources, Corporate Management Branch",
            "fr": "Ressources humaines, Direction g\u00e9n\u00e9rale de la gestion int\u00e9gr\u00e9e"
        }
    }
}