{
    "dcr_id": "1560782067248",
    "lang": "en",
    "title": {
        "en": "Deputy Director, Multilateral Relations",
        "fr": "Directeur adjoint/directrice adjointe, Relations multilat\u00e9rales"
    },
    "modified": "2019-06-19 00:00:00.0",
    "issued": "2019-06-18 00:00:00.0",
    "type_name": "intra-intra/empl-empl",
    "node_id": "1279029955397",
    "layout_name": null,
    "dc_date_created": "2019-06-18",
    "breadcrumb_label": "",
    "meta": {
        "issued": {
            "en": "2019-06-18",
            "fr": "2019-06-18"
        },
        "modified": {
            "en": "2019-06-19",
            "fr": "2019-06-19"
        },
        "format": {
            "en": "gcformat",
            "fr": "gcformat"
        },
        "title": {
            "en": "Deputy Director, Multilateral Relations",
            "fr": "Directeur adjoint/directrice adjointe, Relations multilat\u00e9rales"
        },
        "subject": {
            "en": "staffing",
            "fr": "dotation en personnel"
        },
        "language": {
            "en": "eng",
            "fr": "fra"
        },
        "audience": {
            "en": "gcaudience",
            "fr": "gcaudience"
        },
        "type": {
            "en": "notice",
            "fr": "avis"
        },
        "creator": {
            "en": "Agriculture and Agri-Food Canada",
            "fr": "Agriculture et Agroalimentaire Canada"
        },
        "spatial": {
            "en": "gcregions",
            "fr": "gcregions"
        },
        "service": {
            "en": "AAFC_AgriSource",
            "fr": "AAC_AgriSource"
        },
        "accessRights": {
            "en": "3",
            "fr": "3"
        }
    },
    "body": {
        "en": "\n<div>\n<div><strong>\u00a0</strong></div>\n<strong>Interested in representing Canada\u2019s agriculture interests on the world stage?</strong></div>\n<div><br>The Trade and Negotiations Directorate in the Market and Industry Services Branch is looking for a Deputy Director for the Multilateral Relations Team. Reporting to the Executive Director, Strategic Trade Policy, you would play an important role in leading the Government of Canada\u2019s engagement at the Food and Agriculture Organization, based in Rome, and the Inter-American Institute for Cooperation in Agriculture, based in Costa Rica. Your team would also lead on the government\u2019s agriculture-related engagement with other multilateral institutions like the G20, the G7, and Asia-Pacific Economic Cooperation forum.</div>\n<div><br>We are looking to staff this EC-07 position for an 17 month period, from August 1, 2019 until the end of December 2020.</div>\n<div><br>You would be managing a small team of policy analysts in developing strategic positions in support of Canada\u2019s priorities, internationally, on agriculture. The job involves coordinating within AAFC, across the Government of Canada, with agricultural and civil society stakeholders in Canada, and with governments in other countries, to develop international policy positions and interventions and to advance on areas of common interest. You would be attending multilateral meetings several times a year, preparing senior officials and the Minister for Ministerial level meetings, and providing on-the-ground support for those meetings.</div>\n<div><br>You would have the opportunity to work closely with Canada\u2019s Chief Agriculture Negotiator and other members of the Trade and Negotiations Directorate, as well as staff based in Canadian embassies around the world.</div>\n<div><br>The ideal candidate:</div>\n<ul>\n<li>\n<div>Understands well and can convey the Government of Canada\u2019s international and agricultural priorities;</div>\n</li>\n<li>\n<div>Is organized, with strong project management skills \u2013 an ability to foresee challenges, and organize highly complex work to meet deadlines for briefing material and other products;</div>\n</li>\n<li>\n<div>Is able to be flexible and adaptable in a highly complex and shifting environment leading up to and at international meetings;</div>\n</li>\n<li>\n<div>Is an effective manager who can motivate and support a small team of analysts to develop new skills while delivering on important files;</div>\n</li>\n<li>\n<div>Is energized by engaging with partners and stakeholders, on a daily basis, to develop strategic partnerships in support of common goals;</div>\n</li>\n<li>\n<div>Has effective interactive communications skills, can brief senior officials effectively, and is able to effectively convey Canada\u2019s positions in multilateral fora; and</div>\n</li>\n<li>\n<div>Exhibits sound judgment, and values and ethics, which represent Canada\u2019s public service and it\u2019s world-class reputation.</div>\n</li>\n</ul>\n<div>Please note that this position requires frequent overtime leading up to and at international meetings, including on the weekends, and significant and extended international travel (roughly 7-10 days every 2 months, but possibly more or less frequently). Only candidates who are able to meet this condition of employment will be considered.</div>\n<div>\u00a0</div>\n<div><strong>Essential Qualifications</strong></div>\n<div>Language: Bilingual imperative BBB/BBB</div>\n<div>Experience managing projects that have involved coordination of input across the department, portfolio or government</div>\n<div>Experience developing briefing material for and briefing senior management (ADM level and above) on priority files</div>\n<div>Experience establishing effective partnerships with stakeholders in order to deliver on priorities</div>\n<div>\u00a0</div>\n<div><strong>Competencies to be Assessed</strong></div>\n<div>Project management</div>\n<div>Adaptability</div>\n<div>Impact and Influence</div>\n<div>Interactive Communications</div>\n<div>Judgment</div>\n<div>\u00a0</div>\n<div><strong>Conditions of Employment</strong></div>\n<div>Security: Secret</div>\n<div>Ability and willingness to frequently travel internationally</div>\n<div>\u00a0</div>\n<div><strong>Operational Requirements</strong></div>\n<div>Frequent overtime</div>\n<div>\u00a0</div>\n<div><strong>Applications</strong></div>\n<div>Market and Industry Services Branch employees interested in this position should send their resumes, with a brief cover email expressing, their interest and how they meet the experience criteria to Katherine MacDonald by June 28, 2019. Your cover letter must indicate your classification and level.</div>\n<div>Candidates at the EC-07, EC-06 and equivalent levels are welcome to apply.</div>\n<div>\u00a0</div>\n",
        "fr": "\n<div>\n<div><strong>\u00a0</strong></div>\n<strong>Vous souhaitez repr\u00e9senter les int\u00e9r\u00eats agricoles du Canada sur la sc\u00e8ne mondiale?</strong></div>\n<div><br>La Direction des accords commerciaux et des n\u00e9gociations de la Direction g\u00e9n\u00e9rale des services \u00e0 l\u2019industrie et aux march\u00e9s est \u00e0 la recherche d\u2019un directeur adjoint ou d\u2019une directrice adjointe pour l\u2019\u00e9quipe des relations multilat\u00e9rales. Relevant de la directrice ex\u00e9cutive, Division de la politique commerciale strat\u00e9gique, vous jouerez un r\u00f4le important en dirigeant la participation du gouvernement du Canada aupr\u00e8s de l\u2019Organisation des Nations Unies pour l\u2019alimentation et l\u2019agriculture, bas\u00e9e \u00e0 Rome, et de l\u2019Institut interam\u00e9ricain de coop\u00e9ration pour l\u2019agriculture, \u00e9tabli au Costa Rica. Votre \u00e9quipe dirigera \u00e9galement la participation du gouvernement en mati\u00e8re d\u2019agriculture aupr\u00e8s d\u2019autres institutions multilat\u00e9rales comme le G20, le G7 et le forum sur la coop\u00e9ration \u00e9conomique en Asie et dans le Pacifique.</div>\n<div><br>Nous cherchons \u00e0 doter ce poste EC\u201107 pour une p\u00e9riode de 17 mois, du 1er ao\u00fbt 2019 \u00e0 la fin du mois de d\u00e9cembre 2020.</div>\n<div><br>Vous dirigerez une petite \u00e9quipe d\u2019analystes des politiques charg\u00e9e d\u2019\u00e9laborer des positions strat\u00e9giques \u00e0 l\u2019appui des priorit\u00e9s du Canada, \u00e0 l\u2019\u00e9chelle internationale, en mati\u00e8re d\u2019agriculture. L\u2019emploi consiste notamment \u00e0 coordonner des activit\u00e9s au sein d\u2019AAC, \u00e0 l\u2019\u00e9chelle du gouvernement du Canada, avec des intervenants du secteur agricole et de la soci\u00e9t\u00e9 civile au Canada et avec les gouvernements d\u2019autres pays, afin d\u2019\u00e9laborer des positions et des interventions internationales en mati\u00e8re de politiques et de faire progresser les dossiers d\u2019int\u00e9r\u00eat commun. Vous assisterez \u00e0 des r\u00e9unions multilat\u00e9rales plusieurs fois par ann\u00e9e, pr\u00e9parerez les hauts fonctionnaires et le ministre aux r\u00e9unions minist\u00e9rielles et offrirez un soutien de premier plan lors de ces r\u00e9unions.</div>\n<div><br>Vous aurez l\u2019occasion de travailler en \u00e9troite collaboration avec le n\u00e9gociateur en chef pour l\u2019agriculture du Canada et d\u2019autres membres de la Direction des accords commerciaux et des n\u00e9gociations, ainsi qu\u2019avec le personnel des ambassades canadiennes partout dans le monde.</div>\n<div><br>La personne id\u00e9ale :</div>\n<ul>\n<li>\n<div>comprend bien les priorit\u00e9s internationales et agricoles du gouvernement du Canada et peut les transmettre;</div>\n</li>\n<li>\n<div>est organis\u00e9e et poss\u00e8de de solides comp\u00e9tences en gestion de projets \u2013 capacit\u00e9 de pr\u00e9voir les difficult\u00e9s et d\u2019organiser un travail tr\u00e8s complexe afin de respecter les \u00e9ch\u00e9ances pour les documents d\u2019information et d\u2019autres produits;</div>\n</li>\n<li>\n<div>est capable de faire preuve de souplesse et de s\u2019adapter dans un environnement tr\u00e8s complexe et en \u00e9volution constante, avant et pendant les r\u00e9unions internationales;</div>\n</li>\n<li>\n<div>est un ou une gestionnaire efficace qui peut motiver et soutenir une petite \u00e9quipe d\u2019analystes pour acqu\u00e9rir de nouvelles comp\u00e9tences tout en traitant des dossiers importants;</div>\n</li>\n<li>\n<div>est enthousiaste \u00e0 l\u2019id\u00e9e de mobiliser chaque jour des partenaires et des intervenants afin d\u2019\u00e9tablir des partenariats strat\u00e9giques \u00e0 l\u2019appui d\u2019objectifs communs;</div>\n</li>\n<li>\n<div>poss\u00e8de des comp\u00e9tences efficaces en communications interactives, peut informer efficacement les hauts fonctionnaires et est en mesure de communiquer les positions du Canada avec efficacit\u00e9 dans les tribunes multilat\u00e9rales;</div>\n</li>\n<li>\n<div>fait preuve d\u2019un jugement \u00e9clair\u00e9 et affiche les valeurs et les comportements \u00e9thiques qui repr\u00e9sentent la fonction publique du Canada et sa r\u00e9putation de calibre mondial.</div>\n</li>\n</ul>\n<div>Veuillez noter que dans le cadre de ce poste, le ou la titulaire doit effectuer des heures suppl\u00e9mentaires fr\u00e9quentes avant et pendant les r\u00e9unions internationales, y compris les fins de semaine, et des d\u00e9placements internationaux importants et prolong\u00e9s (environ 7 \u00e0 10 jours tous les deux mois, mais peut-\u00eatre plus ou moins fr\u00e9quemment). Seuls les candidats qui satisfont \u00e0 cette condition d\u2019emploi seront pris en consid\u00e9ration.</div>\n<div>\u00a0</div>\n<div><strong>Qualifications essentielles</strong></div>\n<div>Exigences linguistiques : poste bilingue, niveau BBB/BBB imp\u00e9ratif \u00e0 la nomination.</div>\n<div>Exp\u00e9rience de la gestion de projets ayant n\u00e9cessit\u00e9 la coordination d\u2019une contribution \u00e0 l\u2019\u00e9chelle du minist\u00e8re, du portefeuille ou du gouvernement.</div>\n<div>Exp\u00e9rience de l\u2019\u00e9laboration de documents d\u2019information \u00e0 l\u2019intention de la haute direction (niveau du sous\u2011ministre adjoint et niveau sup\u00e9rieur) et de la pr\u00e9sentation de s\u00e9ances d\u2019information sur les dossiers prioritaires.</div>\n<div>Exp\u00e9rience de l\u2019\u00e9tablissement de partenariats efficaces avec des intervenants afin de respecter les priorit\u00e9s.</div>\n<div>\u00a0</div>\n<div><strong>Comp\u00e9tences \u00e0 \u00e9valuer</strong></div>\n<div>Gestion de projets</div>\n<div>Capacit\u00e9 d\u2019adaptation</div>\n<div>Influence et pouvoir de persuasion</div>\n<div>Communications interactives</div>\n<div>Jugement</div>\n<div><strong>\u00a0</strong></div>\n<div><strong>Conditions d\u2019emploi</strong></div>\n<div>Cote de s\u00e9curit\u00e9 : secret.</div>\n<div>Consentir \u00e0 voyager partout dans le monde et \u00eatre en mesure de le faire.</div>\n<div>\u00a0</div>\n<div><strong>Exigences op\u00e9rationnelles</strong></div>\n<div>Faire des heures suppl\u00e9mentaires r\u00e9guli\u00e8rement.</div>\n<div>\u00a0</div>\n<div><strong>Candidatures</strong></div>\n<div>Les employ\u00e9s de la Direction g\u00e9n\u00e9rale des services \u00e0 l'industrie et aux march\u00e9s, qui sont int\u00e9ress\u00e9s par ce poste doivent envoyer leur curriculum vitae accompagn\u00e9 d'un bref courriel indiquant leur int\u00e9r\u00eat et comment ils r\u00e9pondent aux crit\u00e8res d'exp\u00e9rience, \u00e0 Katherine MacDonald au plus tard le 28 juin 2019. Votre lettre d'accompagnement doit indiquer votre classification et votre niveau. Les candidats aux niveaux EC-07, EC-06 et \u00e9quivalents sont encourag\u00e9s \u00e0 postuler.</div>\n<div>\u00a0</div>\n\n"
    },
    "breadcrumb": {
        "en": "Deputy Director, Multilateral Relations",
        "fr": "Directeur adjoint/directrice adjointe, Relations multilat\u00e9rales"
    },
    "empl": {
        "type": {
            "en": "Assignment, Acting",
            "fr": "Affectation, Int\u00e9rimaire"
        },
        "classification": {
            "en": "EC-7",
            "fr": "EC-7"
        },
        "branch": {
            "en": "Market and Industry Services Branch",
            "fr": "Direction g\u00e9n\u00e9rale des services \u00e0 l'industrie et aux march\u00e9s"
        },
        "locations": {
            "en": "Ottawa, Ontario",
            "fr": "Ottawa, Ontario"
        },
        "date_closing": {
            "en": "2019-06-28",
            "fr": "2019-06-28"
        },
        "open_to": {
            "en": "Market and Industry Services Branch employees",
            "fr": "Employ\u00e9s de la Direction g\u00e9n\u00e9rale des services \u00e0 l\u2019industrie et aux march\u00e9s"
        },
        "name": {
            "en": "Katherine MacDonald",
            "fr": "Katherine MacDonald"
        },
        "email": {
            "en": "katherine.macdonald2@canada.ca",
            "fr": "katherine.macdonald2@canada.ca"
        }
    }
}