{
    "dcr_id": "1560187318610",
    "lang": "en",
    "title": {
        "en": "Deputy Ministers\u2019 Message - National Public Service Week ",
        "fr": "Message des sous-ministres - Semaine nationale de la fonction publique"
    },
    "modified": "2019-06-12 00:00:00.0",
    "issued": "2019-06-10 00:00:00.0",
    "type_name": "intra-intra/news-nouv",
    "node_id": "1279030006975",
    "layout_name": null,
    "dc_date_created": "2019-06-10",
    "breadcrumb_label": "",
    "meta": {
        "issued": {
            "en": "2019-06-10",
            "fr": "2019-06-10"
        },
        "modified": {
            "en": "2019-06-12",
            "fr": "2019-06-10"
        },
        "format": {
            "en": "gcformat",
            "fr": "gcformat"
        },
        "title": {
            "en": "Deputy Ministers\u2019 Message - National Public Service Week ",
            "fr": "Message des sous-ministres - Semaine nationale de la fonction publique"
        },
        "subject": {
            "en": "communications",
            "fr": "communications"
        },
        "description": {
            "en": "National Public Service Week is a perfect opportunity for us to reflect on what we do and why we do it. Once again, the week\u2019s theme is \"Proudly Serving Canadians,\" which is especially fitting for AAFC.",
            "fr": "La Semaine nationale de la fonction publique est l\u2019occasion id\u00e9ale de r\u00e9fl\u00e9chir \u00e0 notre travail et \u00e0 la fa\u00e7on dont nous l'accomplissons. Encore une fois, le th\u00e8me de la semaine est \u00ab Fiers de servir les Canadiens et les Canadiennes \u00bb, ce qui est particuli\u00e8rement vrai pour AAC."
        },
        "language": {
            "en": "eng",
            "fr": "fra"
        },
        "audience": {
            "en": "gcaudience",
            "fr": "gcaudience"
        },
        "creator": {
            "en": "Agriculture and Agri-Food Canada",
            "fr": "Agriculture et Agroalimentaire Canada"
        },
        "spatial": {
            "en": "gcregions",
            "fr": "gcregions"
        },
        "service": {
            "en": "AAFC_AgriSource",
            "fr": "AAC_AgriSource"
        },
        "accessRights": {
            "en": "3",
            "fr": "3"
        }
    },
    "body": {
        "en": "<br>\n<br>\n<p>National Public Service Week is a perfect opportunity for us to reflect on what we do and why we do it. Once again, the week\u2019s theme is \u201cProudly Serving Canadians,\u201d which is especially fitting for AAFC.</p>\n<p>Every day, we witness dedicated and engaged employees accomplishing great things for the Department, for the sector and for Canadians. Whether it\u2019s supporting opportunities in domestic and international markets, advancing science and innovation, or fostering an inclusive and respectful workplace, we personally want to thank each and every one of you for your exceptional work and your many contributions.</p>\n<p>As mentioned in the Clerk\u2019s message, this week is meant to highlight the contributions of public servants across Canada. Your work, commitment, diversity, and innovation are what make AAFC a healthy and productive workplace.</p>\n<p>We encourage you to take the time to participate in the many <a href=\"https://collab.agr.gc.ca/co/npsw-snfp/SitePages/Home.aspx\">activities</a> planned in your area throughout the week, including today\u2019s <a href=\"http://intranet.agr.gc.ca/agrisource/eng/human-resources/awards-and-recognition/2019-departmental-awards-recipients?id=1559587661620\">Departmental Awards Ceremony</a>. Join us in celebrating the outstanding achievements of our colleagues, appreciating their contributions and recognizing their hard work.</p>\n<p>We also encourage you to use our newly launched hashtag #GCAggie in your tweets to showcase your \u201cproud\u201d moments at AAFC.</p>\n<p>Enjoy this week\u2019s celebrations and thank you for your hard work and dedication.</p>\n<p><br>\n<strong>Chris Forbes</strong><br>\nDeputy Minister</p>\n<p><strong>Annette Gibbons<br></strong>Associate Deputy Minister</p>\n\n\t\t",
        "fr": "<br>\n<br>\n<p>La Semaine nationale de la fonction publique est l\u2019occasion id\u00e9ale de r\u00e9fl\u00e9chir \u00e0 notre travail et \u00e0 la fa\u00e7on dont nous l\u2019accomplissons. Encore une fois, le th\u00e8me de la semaine est \u00ab Fiers de servir les Canadiens et les Canadiennes \u00bb, ce qui est particuli\u00e8rement vrai pour AAC.</p>\n<p>Chaque jour, nous voyons des employ\u00e9s d\u00e9vou\u00e9s qui accomplissent de grandes choses pour le Minist\u00e8re, pour le secteur et pour les Canadiens et les Canadiennes. Que vous aidiez \u00e0 trouver des d\u00e9bouch\u00e9s sur les march\u00e9s int\u00e9rieurs et ext\u00e9rieurs, \u00e0 faire progresser la science et l\u2019innovation ou \u00e0 b\u00e2tir un milieu de travail inclusif et respectueux, nous tenons \u00e0 vous remercier personnellement pour votre travail exceptionnel et votre contribution.</p>\n<p>Comme le mentionne le greffier dans son message, la Semaine nationale de la fonction publique vise \u00e0 souligner la contribution des fonctionnaires partout au Canada. Votre travail, votre engagement, votre diversit\u00e9 et votre esprit innovateur font d\u2019AAC un milieu de travail sain et productif.</p>\n<p>Nous vous encourageons \u00e0 prendre le temps de participer aux nombreuses <a href=\"https://collab.agr.gc.ca/co/npsw-snfp/SitePages/Home.aspx\">activit\u00e9s</a> pr\u00e9vues dans votre secteur tout au long de la semaine, y compris la <a href=\"http://intranet.agr.gc.ca/agrisource/fra/ressources-humaines/prix-et-reconnaissance/laureats-des-prix-du-ministere-de-2019?id=1559587661620\">c\u00e9r\u00e9monie de remise des prix du Minist\u00e8re</a> qui a lieu aujourd\u2019hui. Venez c\u00e9l\u00e9brer avec nous les r\u00e9alisations exceptionnelles de nos coll\u00e8gues, souligner leur contribution et reconna\u00eetre leur excellent travail.</p>\n<p>De plus, nous vous encourageons \u00e0 utiliser le nouveau mot-clic #AgromaneGC dans vos gazouillis pour montrer vos moments de fiert\u00e9 \u00e0 AAC.</p>\n<p>Nous vous invitons \u00e0 profiter des c\u00e9l\u00e9brations de la semaine et nous vous remercions pour votre excellent travail et votre d\u00e9vouement.</p>\n<p>\u00a0</p>\n<p><br>\n<strong>Chris Forbes</strong><br>\nSous-ministre</p>\n<p><strong>Annette Gibbons<br></strong>Sous-ministre d\u00e9l\u00e9gu\u00e9e</p>\n<p>\u00a0</p>\n\t\t"
    },
    "breadcrumb": {
        "en": "Deputy Ministers\u2019 Message - National Public Service Week",
        "fr": "Message des sous-ministres - Semaine nationale de la fonction publique"
    },
    "news": {
        "date_posted": {
            "en": "2019-06-10",
            "fr": "2019-06-10"
        },
        "to": {
            "en": "All staff",
            "fr": "Tous les employ\u00e9s"
        },
        "by": {
            "en": "Chris Forbes, Deputy Minister, and Annette Gibbons, Associate Deputy Minister",
            "fr": "Chris Forbes, Sous-ministre, et Annette Gibbons, Sous-ministre d\u00e9l\u00e9gu\u00e9e"
        }
    }
}