{
    "dcr_id": "1560872049039",
    "lang": "en",
    "title": {
        "en": "Young Professionals: Come Learn About Your Union!",
        "fr": "Jeunes professionnels : Venez vous renseigner sur le r\u00f4le de votre syndicat!"
    },
    "modified": "2019-06-20 00:00:00.0",
    "issued": "2019-06-19 00:00:00.0",
    "type_name": "intra-intra/news-nouv",
    "node_id": "1279030006975",
    "layout_name": null,
    "dc_date_created": "2019-06-18",
    "breadcrumb_label": "",
    "meta": {
        "issued": {
            "en": "2019-06-19",
            "fr": "2019-06-19"
        },
        "modified": {
            "en": "2019-06-20",
            "fr": "2019-06-20"
        },
        "format": {
            "en": "gcformat",
            "fr": "gcformat"
        },
        "title": {
            "en": "Young Professionals: Come Learn About Your Union!",
            "fr": "Jeunes professionnels : Venez vous renseigner sur le r\u00f4le de votre syndicat!"
        },
        "subject": {
            "en": "communications",
            "fr": "communications"
        },
        "description": {
            "en": "As young professionals, we may not always know what a union can do for us. This event is a space to engage with union representatives and get to know who to turn to when you have questions.",
            "fr": "En tant que jeunes professionnels, nous ne savons pas toujours ce que le syndicat peut faire pour nous. Cette rencontre offre une occasion de parler aux repr\u00e9sentants syndicaux et de savoir \u00e0 qui adresser nos questions."
        },
        "language": {
            "en": "eng",
            "fr": "fra"
        },
        "audience": {
            "en": "gcaudience",
            "fr": "gcaudience"
        },
        "creator": {
            "en": "Agriculture and Agri-Food Canada",
            "fr": "Agriculture et Agroalimentaire Canada"
        },
        "spatial": {
            "en": "gcregions",
            "fr": "gcregions"
        },
        "service": {
            "en": "AAFC_AgriSource",
            "fr": "AAC_AgriSource"
        },
        "accessRights": {
            "en": "3",
            "fr": "3"
        }
    },
    "body": {
        "en": "<br>\n<br>\n<p>You are invited to a special event hosted by the Young Professionals Network (YPN).</p>\n<p>As young professionals, we may not always know what a union can do for us. This event is a space to engage with union representatives and get to know who to turn to when you have questions.</p>\n<p>Representatives from the Public Service Alliance of Canada (PSAC), the Association of Canadian Financial Officers (ACFO), the Canadian Association of Professional Employees (CAPE) and the Professional Institute of the Public Service of Canada (PIPSC), as well as a representative from AAFC\u2019s Human Resources, will be on hand to speak on topics of interest such as identifying your union representative. Participants will have an opportunity to ask questions.</p>\n<h2><strong>Event information</strong></h2>\n<p><strong>Date:</strong> June 25, 2019 | 1:00 p.m. to 2:30 p.m. (ET)<br>\n<strong>Location:</strong> NHCAP (T6-1-136)</p>\n<p><strong>Videoconference:</strong> 7-613-773-2934; Guest PIN: 0008<br><strong>Teleconference:</strong> 613-729-5408 (local NCR participants) OR 1-855-470-7641 (non-NCR participants; toll-free); virtual meeting room number 76137732934, followed by 0008 when prompted.</p>\n<p>If you are interested in attending this event, or have any questions, please contact the YPN by email at <a href=\"mailto:aafc.ypn-rjp.aac@canada.ca\">aafc.ypn-rjp.aac@canada.ca</a>.</p>\n<p><strong>Please note:</strong> To attend in person, you must register for this event by emailing the YPN by end of day on June 24 to reserve a spot.</p>\n<p><img src=\"https://intranet.agr.gc.ca/resources/prod/news/images/YPN-EN-1.png\" class=\"center-block\" alt=\"\"></p>\n\n\t\t",
        "fr": "<br>\n<br>\n<div>Le R\u00e9seau des jeunes professionnels (RJP) vous invite \u00e0 une rencontre sp\u00e9ciale.</div>\n<div>En tant que jeunes professionnels, nous ne savons pas toujours ce que le syndicat peut faire pour nous. Cette rencontre offre une occasion de parler aux repr\u00e9sentants syndicaux et de savoir \u00e0 qui adresser nos questions.</div>\n<div>Des repr\u00e9sentants de l\u2019Alliance de la Fonction publique du Canada (AFPC), de l\u2019Association canadienne des agents financiers (ACAF), de l\u2019Association canadienne des employ\u00e9s professionnels (ACEP) et de l\u2019Institut professionnel de la fonction publique du Canada (IPFPC), ainsi qu\u2019un repr\u00e9sentant des Ressources humaines d\u2019AAC, seront sur place pour parler de questions d\u2019int\u00e9r\u00eat, notamment comment d\u00e9terminer qui est votre repr\u00e9sentant syndical et dans quelles situations consulter votre syndicat. Les participants auront l\u2019occasion de poser des questions.</div>\n<div><strong>\n<h2 class=\"result-shield-container tlid-copy-target\" tabindex=\"0\"><span lang=\"fr\" class=\"tlid-translation translation\" tabindex=\"-1\"><span>Renseignements sur l'\u00e9v\u00e9nement</span></span></h2>\n</strong></div>\n<div><strong>Date:</strong> 25 juin 2019 | de 13 h \u00e0 14 h 30 (ET)<br>\n<strong>Location:</strong> NHCAP (T6-1-136)</div>\n<div><strong>Conf\u00e9rence vid\u00e9o</strong><strong>:</strong> 7-613-773-2934; NIP invit\u00e9: 0008<br><strong>Teleconference:</strong> 613-729-5408 (participants locaux de la RCN) OU 1-855-470-7641 (participants non-NCR; gratuit); num\u00e9ro de salle de r\u00e9union virtuelle 76137732934, suivi de 0008 \u00e0 l'invite.</div>\n<div>Si vous \u00eates int\u00e9ress\u00e9 \u00e0 assister \u00e0 cet \u00e9v\u00e9nement ou si vous avez des questions, veuillez contacter le YPN par courriel \u00e0 <a href=\"mailto:aafc.ypn-rjp.aac@canada.ca\">aafc.ypn-rjp.aac@canada.ca</a>.</div>\n<div><strong>Remarque: </strong>pour assister en personne, vous devez vous inscrire \u00e0 cet \u00e9v\u00e9nement en envoyant un courrier \u00e9lectronique \u00e0 YPN\u00a0par la fin du 24 juin pour r\u00e9server votre participation.</div>\n<div><img src=\"https://intranet.agr.gc.ca/resources/prod/news/images/YPN-FR-1.png\" class=\"center-block\"></div>\n\t\t"
    },
    "breadcrumb": {
        "en": "Young Professionals: Come Learn About Your Union!",
        "fr": "Jeunes professionnels : Venez vous renseigner sur le r\u00f4le de votre syndicat!"
    },
    "news": {
        "date_posted": {
            "en": "2019-06-20",
            "fr": "2019-06-20"
        },
        "to": {
            "en": "All staff",
            "fr": "Tous les employ\u00e9s"
        },
        "by": {
            "en": "Young Professionals Network",
            "fr": "R\u00e9seau des jeunes professionnels"
        }
    }
}