{
    "dcr_id": "1560795884577",
    "lang": "en",
    "title": {
        "en": "Botanical Classics, 3D Food Printing and More: June Additions to the Canadian Agriculture Library",
        "fr": "Classiques de la botanique, impression alimentaire 3D et plus encore : Nouveaut\u00e9s de juin \u00e0 la Biblioth\u00e8que canadienne de l\u2019agriculture "
    },
    "modified": "2019-06-19 00:00:00.0",
    "issued": "2019-06-19 00:00:00.0",
    "type_name": "intra-intra/news-nouv",
    "node_id": "1279030006975",
    "layout_name": null,
    "dc_date_created": "2019-06-18",
    "breadcrumb_label": "",
    "meta": {
        "issued": {
            "en": "2019-06-19",
            "fr": "2019-06-19"
        },
        "modified": {
            "en": "2019-06-19",
            "fr": "2019-06-19"
        },
        "format": {
            "en": "gcformat",
            "fr": "gcformat"
        },
        "title": {
            "en": "Botanical Classics, 3D Food Printing and More: June Additions to the Canadian Agriculture Library",
            "fr": "Classiques de la botanique, impression alimentaire 3D et plus encore : Nouveaut\u00e9s de juin \u00e0 la Biblioth\u00e8que canadienne de l\u2019agriculture "
        },
        "subject": {
            "en": "communications",
            "fr": "communications"
        },
        "description": {
            "en": "Summer is almost here! If you want to read about botany as you relax by your growing garden or simply find your next summer read, check out the complete list of new titles added to the Canadian Agriculture Library collection in June 2019.",
            "fr": "Ce sera bient\u00f4t l'\u00e9t\u00e9! Si vous souhaitez faire de la lecture sur la botanique pendant que vous relaxez pr\u00e8s de votre jardin ou trouver votre prochain bouquin de l'\u00e9t\u00e9, consultez la liste des nouveaut\u00e9s de juin 2019 dans la collection de la Biblioth\u00e8que canadienne de l'agriculture."
        },
        "language": {
            "en": "eng",
            "fr": "fra"
        },
        "audience": {
            "en": "gcaudience",
            "fr": "gcaudience"
        },
        "creator": {
            "en": "Agriculture and Agri-Food Canada",
            "fr": "Agriculture et Agroalimentaire Canada"
        },
        "spatial": {
            "en": "gcregions",
            "fr": "gcregions"
        },
        "service": {
            "en": "AAFC_AgriSource",
            "fr": "AAC_AgriSource"
        },
        "accessRights": {
            "en": "3",
            "fr": "3"
        }
    },
    "body": {
        "en": "<br>\n<br>\n<p>Summer is almost here! If you want to read about botany as you relax by your growing garden or simply find your next summer read, check out the complete <a href=\"https://collab.agr.gc.ca/co/kis-sis/_layouts/15/DocIdRedir.aspx?ID=AGR-7853493\">list of new titles</a>\u00a0(PDF) added to the Canadian Agriculture Library collection in June 2019. Topics covered include:</p>\n<ul>\n<li>\nCambridge University Press Botanical Classics\n</li>\n<li>Soil erosion</li>\n<li>Beverages and functional foods</li>\n<li>Pathogens</li>\n</ul>\n<p>Access the electronic content from your desktop by clicking on links found in the list, or submit a request to borrow physical items.</p>\n<p>For more information, contact CAL at: <a href=\"mailto:aafc.cal-bca.aac@canada.ca\">aafc.cal-bca.aac@canada.ca</a>.</p>\n<p><img src=\"https://intranet.agr.gc.ca/resources/prod/news/images/CALbanner-EN.png\" class=\"center-block\"></p>\n<p>\u00a0</p>\n\n\t\t",
        "fr": "<br>\n<br>\n<p>Ce sera bient\u00f4t l\u2019\u00e9t\u00e9! Si vous souhaitez faire de la lecture sur la botanique pendant que vous relaxez pr\u00e8s de votre jardin ou trouver votre prochain bouquin de l\u2019\u00e9t\u00e9, consultez la <a href=\"https://collab.agr.gc.ca/co/kis-sis/_layouts/15/DocIdRedir.aspx?ID=AGR-7853494\">liste des nouveaut\u00e9s</a>\u00a0(PDF) de juin 2019 dans la collection de la Biblioth\u00e8que canadienne de l'agriculture. Voici des sujets abord\u00e9s :\n</p>\n<ul>\n<li>Classiques de Cambridge University Press sur la botanique;\n</li>\n<li>\u00c9rosion du sol;</li>\n<li>Boissons et aliments fonctionnels;</li>\n<li>Agents pathog\u00e8nes.</li>\n</ul>\n<p>Vous pouvez acc\u00e9der au contenu \u00e9lectronique \u00e0 partir de votre poste de travail en cliquant sur les liens qui se trouvent dans la liste, ou faire une demande d\u2019emprunt des ouvrages imprim\u00e9s.</p>\n<p>Pour de plus amples renseignements, communiquez avec la BCA par courriel, \u00e0 l'adresse suivante : <a href=\"mailto:aafc.cal-bca.aac@canada.ca\">aafc.cal-bca.aac@canada.ca</a>.</p>\n<p><img src=\"https://intranet.agr.gc.ca/resources/prod/news/images/CALbanniere-FR.png\" class=\"center-block\"></p>\n\t\t"
    },
    "breadcrumb": {
        "en": "Botanical Classics, 3D Food Printing and More: June Additions to the Canadian Agriculture Library",
        "fr": "Classiques de la botanique, impression alimentaire 3D et plus encore : Nouveaut\u00e9s de juin \u00e0 la Biblioth\u00e8que canadienne de l\u2019agriculture"
    },
    "news": {
        "date_posted": {
            "en": "2019-06-20",
            "fr": "2019-06-20"
        },
        "to": {
            "en": "All staff",
            "fr": "Tous les employ\u00e9s"
        },
        "by": {
            "en": "Canadian Agriculture Library",
            "fr": "Biblioth\u00e8que canadienne de l\u2019agriculture"
        }
    }
}