{
    "dcr_id": "1561385232832",
    "lang": "en",
    "title": {
        "en": "Reminder - Scheduled Maintenance of ISB Services - July 5-8",
        "fr": "Rappel - Entretien pr\u00e9vu des services de la DGSI - du 5 au 8 juillet"
    },
    "modified": "2019-07-04 00:00:00.0",
    "issued": "2019-06-27 00:00:00.0",
    "type_name": "intra-intra/news-nouv",
    "node_id": "1279030006975",
    "layout_name": null,
    "dc_date_created": "2019-06-24",
    "breadcrumb_label": "",
    "meta": {
        "issued": {
            "en": "2019-06-27",
            "fr": "2019-06-27"
        },
        "modified": {
            "en": "2019-07-04",
            "fr": "2019-07-04"
        },
        "format": {
            "en": "gcformat",
            "fr": "gcformat"
        },
        "title": {
            "en": "Reminder - Scheduled Maintenance of ISB Services - July 5-8",
            "fr": "Rappel - Entretien pr\u00e9vu des services de la DGSI - du 5 au 8 juillet"
        },
        "subject": {
            "en": "communications",
            "fr": "communications"
        },
        "description": {
            "en": "Please be advised that preventative maintenance of ISB services will be performed between Friday, July 5 and Monday, July 8.",
            "fr": "Veuillez noter qu'un entretien pr\u00e9ventif des services de la DGSI sera effectu\u00e9 entre le vendredi 5 juillet et le lundi 8 juillet."
        },
        "language": {
            "en": "eng",
            "fr": "fra"
        },
        "audience": {
            "en": "gcaudience",
            "fr": "gcaudience"
        },
        "creator": {
            "en": "Agriculture and Agri-Food Canada",
            "fr": "Agriculture et Agroalimentaire Canada"
        },
        "spatial": {
            "en": "gcregions",
            "fr": "gcregions"
        },
        "service": {
            "en": "AAFC_AgriSource",
            "fr": "AAC_AgriSource"
        },
        "accessRights": {
            "en": "3",
            "fr": "3"
        }
    },
    "body": {
        "en": "<br>\n<br>\n<p>Please be advised that preventative maintenance of ISB services will be performed between Friday, July 5 and Monday, July 8.</p>\n<p>These measures are performed regularly to improve performance and to ensure that the department does not experience any outages that would affect employees and the delivery of our services.</p>\n<p>Consequently, the following services may not be available during the following periods:</p>\n<p><strong>Friday, July 5 \u2013 8:00 p.m. until Monday, July 8, 2019 \u2013 6:00 a.m. (ET)</strong></p>\n<ul>\n<li>Personal network drive for clients whose last name starts with \u201cS\u201d</li>\n</ul>\n<p><strong>Note</strong>: We recommend that you log off at the end of the day on Friday.\u00a0</p>\n<p>Should you have any questions, please do not hesitate to contact IT Centre TI.</p>\n<p><strong>\u00a0</strong></p>\n<p><strong>IT Centre TI</strong><br>\nTelephone: 1-855-545-4411<br>\n<a href=\"http://assystweb:8080/assystnet/#homepage\">My IT Centre TI</a></p>\n<p><img src=\"https://intranet.agr.gc.ca/resources/prod/news/images/ITCentreTI2.png\" class=\"center-block\"></p>\n\n\t\t",
        "fr": "<br>\n<br>\n<p>Veuillez noter qu\u2019un entretien pr\u00e9ventif des services de la DGSI sera effectu\u00e9 entre le vendredi 5 juillet et le lundi 8 juillet.</p>\n<p>Ces mesures sont prises r\u00e9guli\u00e8rement afin d\u2019am\u00e9liorer le rendement et d\u2019\u00e9viter que le Minist\u00e8re subisse des pannes qui pourraient nuire aux employ\u00e9s et \u00e0 la prestation de nos services.</p>\n<p>Par cons\u00e9quent, les services indiqu\u00e9s ci-dessous pourraient ne pas \u00eatre accessibles pendant les p\u00e9riodes suivantes :</p>\n<p><strong>Du vendredi 5 juillet \u00e0 20 h jusqu\u2019au lundi 8 juillet 2019 \u00e0 6 h (HE)</strong></p>\n<ul>\n<li>Lecteur r\u00e9seau personnel pour les clients dont le nom de famille commence par \u00ab S \u00bb.</li>\n</ul>\n<p><strong>Nota</strong> : Nous vous recommandons de mettre fin \u00e0 votre session \u00e0 la fin de la journ\u00e9e vendredi.\u00a0</p>\n<p>N\u2019h\u00e9sitez pas \u00e0 communiquer avec le IT Centre TI si vous avez des questions.</p>\n<p>\u00a0</p>\n<p><strong>IT Centre TI</strong><br>\nT\u00e9l\u00e9phone : 1-855-545-4411<br>\n<a href=\"http://assystweb:8080/assystnet/#homepage\">My IT Centre TI</a></p>\n<p><img src=\"https://intranet.agr.gc.ca/resources/prod/news/images/ITCentreTI2.png\" class=\"center-block\"></p>\n\t\t"
    },
    "breadcrumb": {
        "en": "Reminder - Scheduled Maintenance of ISB Services - July 5-8",
        "fr": "Rappel - Entretien pr\u00e9vu des services de la DGSI - du 5 au 8 juillet"
    },
    "news": {
        "date_posted": {
            "en": "2019-06-25",
            "fr": "2019-06-25"
        },
        "to": {
            "en": "All staff",
            "fr": "Tous les employ\u00e9s"
        },
        "by": {
            "en": "IT Centre TI",
            "fr": "IT Centre TI"
        }
    }
}