{
    "dcr_id": "1561479624490",
    "lang": "en",
    "title": {
        "en": "This Week in The Harvest - A Launch Years in the Making",
        "fr": "Au menu de La Moisson cette semaine - Apr\u00e8s des ann\u00e9es de travail, mission accomplie!"
    },
    "modified": "2019-06-27 00:00:00.0",
    "issued": "2019-06-27 00:00:00.0",
    "type_name": "intra-intra/news-nouv",
    "node_id": "1279030006975",
    "layout_name": null,
    "dc_date_created": "2019-06-25",
    "breadcrumb_label": "",
    "meta": {
        "issued": {
            "en": "2019-06-27",
            "fr": "2019-06-27"
        },
        "modified": {
            "en": "2019-06-27",
            "fr": "2019-06-27"
        },
        "format": {
            "en": "gcformat",
            "fr": "gcformat"
        },
        "title": {
            "en": "This Week in The Harvest - A Launch Years in the Making",
            "fr": "Au menu de La Moisson cette semaine - Apr\u00e8s des ann\u00e9es de travail, mission accomplie!"
        },
        "subject": {
            "en": "communications",
            "fr": "communications"
        },
        "description": {
            "en": "In case you missed it, here's what's new in The Harvest this week.",
            "fr": "Au cas o\u00f9 vous l'auriez manqu\u00e9, voici le menu que la section La Moisson vous offre cette semaine."
        },
        "language": {
            "en": "eng",
            "fr": "fra"
        },
        "audience": {
            "en": "gcaudience",
            "fr": "gcaudience"
        },
        "creator": {
            "en": "Agriculture and Agri-Food Canada",
            "fr": "Agriculture et Agroalimentaire Canada"
        },
        "spatial": {
            "en": "gcregions",
            "fr": "gcregions"
        },
        "service": {
            "en": "AAFC_AgriSource",
            "fr": "AAC_AgriSource"
        },
        "accessRights": {
            "en": "3",
            "fr": "3"
        }
    },
    "body": {
        "en": "<br>\n<br>\n<p>In case you missed it, here\u2019s what\u2019s new in <a href=\"https://collab.agr.gc.ca/apps/harvest-moisson\"><em>The Harvest</em></a> this week:</p>\n<p><strong>Feature story:</strong> <a href=\"https://collab.agr.gc.ca/apps/harvest-moisson/\">A Launch Years in the Making</a> - On June 20, AAFC celebrated the launch of Canada\u2019s latest satellite project, the RADARSAT Constellation Mission (RCM), with an event held at NHCAP and broadcast by videoconference across the country.</p>\n<p><strong>Quiz: </strong><a href=\"https://collab.agr.gc.ca/apps/harvest-moisson/\">The Canadian Space Agency launched the RADARSAT Constellation Mission (RCM) satellites on June 12, 2019. How much does one of these satellites weigh?</a></p>\n<p><strong>Feature photo: </strong><a href=\"https://collab.agr.gc.ca/apps/harvest-moisson/gallery/Lists/Posts/Post.aspx?ID=309\"> Rabbit in the Flowers,</a> by Kosala Rajapaksha, Science and Technology Branch, Saskatoon, Saskatchewan</p>\n<p><strong>Did you know?</strong> <a href=\"https://collab.agr.gc.ca/apps/harvest-moisson/Pages/didyouknow.aspx\">AAFC is actively promoting diversity and inclusiveness in the workplace</a> by creating a work environment that is safe and inclusive for all people through its Positive Space initiative.</p>\n<p>You can get involved by posting a comment or \u201cliking\u201d an article. You can also check out what your colleagues are liking and saying.</p>\n<p>Should you have story ideas, scenic or artistic agriculture-related photos, or interesting facts, please share them with us by clicking on \u201cContribute\u201d in the top menu bar.</p>\n<p><img src=\"https://intranet.agr.gc.ca/resources/prod/news/images/Harvest-RADARSAT2.png\" class=\"center-block\" alt=\"\"></p>\n\n\t\t",
        "fr": "<br>\n<br>\n<p>Au cas o\u00f9 vous l\u2019auriez manqu\u00e9, voici le menu que la section <a href=\"https://collab.agr.gc.ca/apps/harvest-moisson\"><em>La Moisson</em></a> vous offre cette semaine :</p>\n<p><strong>Article vedette :</strong> <a href=\"https://collab.agr.gc.ca/apps/harvest-moisson/\"> Apr\u00e8s des ann\u00e9es de travail, mission accomplie!</a> - Le 20 juin, AAC a c\u00e9l\u00e9br\u00e9 le lancement du dernier projet de satellite du Canada, la Mission de la Constellation RADARSAT (MCR), avec un \u00e9v\u00e9nement tenu au CACPA et diffus\u00e9 par vid\u00e9oconf\u00e9rence partout au pays.</p>\n<p><strong>Jeu-questionnaire : </strong><a href=\"https://collab.agr.gc.ca/apps/harvest-moisson/\">L\u2019Agence spatiale canadienne a lanc\u00e9 les satellites de la Mission de la Constellation RADARSAT (MCR) le 12 juin 2019. Combien p\u00e8se un de ces satellites?</a></p>\n<p><strong>Photo vedette :</strong> <a href=\"https://collab.agr.gc.ca/apps/harvest-moisson/gallery/Lists/Posts/Post.aspx?ID=309\">Lapin dans les fleurs</a>, par Kosala Rajapaksha, Direction g\u00e9n\u00e9rale des sciences et de la technologie, Saskatoon (Saskatchewan)</p>\n<p><strong>Le saviez-vous?</strong> <a href=\"https://collab.agr.gc.ca/apps/harvest-moisson/Pages/didyouknow.aspx\">AAC fait activement la promotion de la diversit\u00e9 et de l\u2019inclusivit\u00e9 au travail</a> en cr\u00e9ant un environnement de travail s\u00fbr et inclusif pour toutes les personnes gr\u00e2ce \u00e0 l\u2019initiative de l\u2019Espace positif.</p>\n<p>Vous pouvez participer en affichant des commentaires ou en utilisant la fonction \u00ab J\u2019aime \u00bb ou \u00ab Partager \u00bb pour exprimer votre appr\u00e9ciation d\u2019un article. Vous pouvez aussi aller voir ce que vos coll\u00e8gues aiment et ont \u00e0 dire.</p>\n<p>Si vous avez des id\u00e9es d\u2019articles, des photos de paysages ou \u00e0 caract\u00e8re artistique li\u00e9es \u00e0 l\u2019agriculture ou encore des faits int\u00e9ressants, veuillez nous en faire part en cliquant sur \u00ab Collaborer \u00bb dans la barre de menu en haut de la page.</p>\n<p><img src=\"https://intranet.agr.gc.ca/resources/prod/news/images/Harvest-RADARSAT2.png\" class=\"center-block\"></p>\n\t\t"
    },
    "breadcrumb": {
        "en": "This Week in The Harvest - A Launch Years in the Making",
        "fr": "Au menu de La Moisson cette semaine - Apr\u00e8s des ann\u00e9es de travail, mission accomplie!"
    },
    "news": {
        "date_posted": {
            "en": "2019-06-27",
            "fr": "2019-06-27"
        },
        "to": {
            "en": "All staff",
            "fr": "Tous les employ\u00e9s"
        },
        "by": {
            "en": "Corporate Communications, Public Affairs Branch",
            "fr": "Communications minist\u00e9rielles, Direction g\u00e9n\u00e9rale des affaires publiques"
        }
    }
}