{
    "dcr_id": "1562958056585",
    "lang": "en",
    "title": {
        "en": "Senior Advisor to the Director General of the Business Risk Management Directorate",
        "fr": "Conseiller principal au Directeur g\u00e9n\u00e9ral de la Direction des programmes de gestion des risques de l'entrepris"
    },
    "modified": "2019-07-15 00:00:00.0",
    "issued": "2019-07-15 00:00:00.0",
    "type_name": "intra-intra/empl-empl",
    "node_id": "1279029955397",
    "layout_name": null,
    "dc_date_created": "2019-07-15",
    "breadcrumb_label": "",
    "meta": {
        "issued": {
            "en": "2019-07-15",
            "fr": "2019-07-15"
        },
        "modified": {
            "en": "2019-07-15",
            "fr": "2019-07-15"
        },
        "format": {
            "en": "gcformat",
            "fr": "gcformat"
        },
        "title": {
            "en": "Senior Advisor to the Director General of the Business Risk Management Directorate",
            "fr": "Conseiller principal au Directeur g\u00e9n\u00e9ral de la Direction des programmes de gestion des risques de l'entrepris"
        },
        "subject": {
            "en": "staffing",
            "fr": "dotation en personnel"
        },
        "language": {
            "en": "eng",
            "fr": "fra"
        },
        "audience": {
            "en": "gcaudience",
            "fr": "gcaudience"
        },
        "type": {
            "en": "notice",
            "fr": "avis"
        },
        "creator": {
            "en": "Agriculture and Agri-Food Canada",
            "fr": "Agriculture et Agroalimentaire Canada"
        },
        "spatial": {
            "en": "gcregions",
            "fr": "gcregions"
        },
        "service": {
            "en": "AAFC_AgriSource",
            "fr": "AAC_AgriSource"
        },
        "accessRights": {
            "en": "3",
            "fr": "3"
        }
    },
    "body": {
        "en": "\n<p>\u00a0</p>\n<p>Employees of Agriculture and Agri-Food Canada in the NCR are invited to express their interest in an assignment or acting opportunity in the Director General\u2019s (DG) Office in the Business Risk Management (BRM) Directorate of the Programs Branch as the Senior Advisor to the Director General (DG). The opportunity is for a one year assignment or acting opportunity with the possibility of an extension. This is a great chance for you to work closely with the DG to:</p>\n<ul>\n<li>Better understand departmental processes;</li>\n<li>Gain a broader view of key issues and senior decision-making processes;</li>\n<li>Develop your core competencies.</li>\n</ul>\n<p>You will work closely with the DG to:</p>\n<ul>\n<li>provide policy analysis, advice and recommendations to senior management on a broad range of complex issues;</li>\n<li>prepare and coordinate briefing material (such as reports, briefing notes, presentations, program or policy documents) for senior officials;</li>\n<li>establish and manage collaborative relationships with senior-level officials and public sector stakeholders; and</li>\n<li>supervise staff.</li>\n</ul>\n<p><strong><br>Education</strong></p>\n<p>If you are at a lower level seeking an acting opportunity, you are required to meet the minimum education of graduation with a <a href=\"https://www.canada.ca/en/treasury-board-secretariat/services/staffing/qualification-standards/core.html#deg\">degree</a> from a <a href=\"https://www.canada.ca/en/treasury-board-secretariat/services/staffing/qualification-standards/core.html#rpsi\">recognized post-secondary institution</a> with <a href=\"https://www.canada.ca/en/treasury-board-secretariat/services/staffing/qualification-standards/core.html#acce\">acceptable</a> <a href=\"https://www.canada.ca/en/treasury-board-secretariat/services/staffing/qualification-standards/core.html#spec\">specialization</a> in economics, sociology or statistics.</p>\n<p>If you are at an equivalent level seeking an assignment opportunity, you are required to meet the minimum education requirement of graduation with a <a href=\"https://www.canada.ca/en/treasury-board-secretariat/services/staffing/qualification-standards/core.html#deg\">degree</a> from a <a href=\"https://www.canada.ca/en/treasury-board-secretariat/services/staffing/qualification-standards/core.html#rpsi\">recognized post-secondary institution</a>.</p>\n<p><strong><br>Experience required</strong>:</p>\n<ul>\n<li>Experience in providing policy or program analysis, advice and recommendations to senior officials (Director and above) on a broad range of complex issues pertaining to the agriculture and agri-food sector.</li>\n<li>Experience in establishing and managing collaborative relationships with senior-level offices or with stakeholders.</li>\n<li>Experience in representing a branch on departmental networks and/or committees.</li>\n<li>Experience in preparing and coordinating comprehensive briefing material (such as reports, briefing notes, presentations, program or policy documents) for senior officials (Director and above).</li>\n</ul>\n<p><strong><br>Competencies:</strong><br>\n<br>\nAbility to communicate effectively orally.<br>\nAbility to communicate effectively in writing.<br>\nPlanning and organizing<br>\nStrategic Thinking<br>\nInitiative<br>\nJudgement</p>\n<p><strong><br>Asset Experiences</strong>:</p>\n<ul>\n<li>Experience in design or delivery of programs or services.</li>\n<li>Experience working with agricultural stakeholders (provincial/territorial industry or associations) on issues pertaining to the agricultural sector.</li>\n<li>Experience working with the Government of Canada's legislative processes and regulatory frameworks in developing and implementing policies or programs.</li>\n<li>Experience managing human and financial resources.</li>\n</ul>\n<p><strong><br>Language Requirement: </strong>Various language requirements</p>\n<p><strong><br>Condition of Employment: </strong>Secret Security Clearance</p>\n<p><strong><br>Applications:</strong></p>\n<p>If you are an indeterminate EC06 or equivalent and are interested in this assignment, please provide:</p>\n<ul>\n<li>a short letter (2 pages maximum) expressing why you are interested in the position and the skills, experience and knowledge you would bring to the position of <strong>Senior Advisor to the Director General of the Business Risk Management Directorate</strong><strong>; </strong>and</li>\n<li>your resume.</li>\n</ul>\n<p><br>\nIf you are not at an EC06 level or equivalent and interested in an acting opportunity, please provide:</p>\n<ul style=\"list-style-type: square;\">\n<li>a cover letter explaining clearly how you meet the education and experiences related to this opportunity<strong>; </strong>and</li>\n</ul>\n<ul style=\"list-style-type: square;\">\n<li>your resume.</li>\n</ul>\n<p>Send all documents to Julie Desroches at julie.desroches@canada.ca by Monday July 22th, 2019.</p>\n<p>Resumes must clearly identify your substantive group and level.</p>\n<p>If you have any questions or would like more information, please contact Chris Levac at chris.levac@canada.ca or 613-773-2042.</p>\n<p><strong><br>Notes: </strong></p>\n<ul>\n<li>Employees at an indeterminate EC06 level or equivalent will be considered first for an assignment opportunity. Should there be no qualified at level candidates, employees not at an EC06 level or equivalent will be considered for an acting opportunity.</li>\n<li>The opportunity is for a 1 year acting or assignment with the possibility of an extension.</li>\n<li>Communication for this process will be sent via email.</li>\n<li>Candidates must have their manager\u2019s approval prior to applying for this opportunity.</li>\n<li>A pool of qualified candidates may be established and may be used to staff similar positions.</li>\n<li>Candidates may be assessed through an interview.</li>\n<li>A written exam may be administered.</li>\n<li>Reference checks may be sought.</li>\n</ul>\n<p>\u00a0</p>\n",
        "fr": "\n<p>\u00a0</p>\n<p>Les employ\u00e9s d\u2019Agriculture et agroalimentaire Canada dans la RCN sont invit\u00e9s d\u2019exprimer leur int\u00e9r\u00eat pour un opportunit\u00e9 d\u2019affectation ou d\u2019int\u00e9rimaire dans le bureau du Directeur g\u00e9n\u00e9ral (DG) de la Direction des programmes de gestion des risques de l'entreprise de la Direction g\u00e9n\u00e9rale des programmes en tant que conseiller principal au DG. Ceci est une opportunit\u00e9 d\u2019affectation ou d\u2019int\u00e9rimaire pour une p\u00e9riode d\u2019un an avec une possibilit\u00e9 de prolongation. C\u2019est une occasion parfaite pour vous de travailler de pr\u00e8s avec le DG pour :</p>\n<ul>\n<li>mieux comprendre les processus minist\u00e9riels ;</li>\n<li>acqu\u00e9rir une perspective plus large des enjeux cl\u00e9s et du processus d\u00e9cisionnel de la haute gestion ;</li>\n<li>d\u00e9velopper vos comp\u00e9tences cl\u00e9s.</li>\n</ul>\n<p>Vous travaillerez de pr\u00e8s avec le DG pour :</p>\n<ul>\n<li>offrir de conseils et de recommandations, et de la r\u00e9alisation d\u2019analyses, \u00e0 l\u2019intention de cadres sup\u00e9rieurs au sujet d\u2019un vaste ensemble de questions complexes ;</li>\n<li>pr\u00e9parer et coordonner du mat\u00e9riel d\u2019information (p. ex., rapports, notes d\u2019information, pr\u00e9sentations, documents de programme ou de politique) \u00e0 l\u2019intention de cadres sup\u00e9rieurs ;</li>\n<li>\u00e9tablir et g\u00e9rer des relations de collaboration avec les cadres sup\u00e9rieurs ainsi que des intervenants dans le secteur publique ; et</li>\n<li>Superviser des employ\u00e9es.</li>\n</ul>\n<p><strong><br>\u00c9ducation</strong></p>\n<p>Si vous \u00eates un employ\u00e9 qui n\u2019est pas \u00e0 niveau \u00e0 la recherche d\u2019une nomination int\u00e9rimaire, vous devez rencontrer le niveau d\u2019\u00e9ducation minimum suivant: un <a href=\"https://www.canada.ca/fr/secretariat-conseil-tresor/services/dotation/normes-qualification/centrale.html#Dipl\">grade</a> d\u2019un <a href=\"https://www.canada.ca/fr/secretariat-conseil-tresor/services/dotation/normes-qualification/centrale.html#eepr\">\u00e9tablissement d\u2019enseignement postsecondaire reconnu</a> avec <a href=\"https://www.canada.ca/fr/secretariat-conseil-tresor/services/dotation/normes-qualification/centrale.html#spec\">sp\u00e9cialisation</a> <a href=\"https://www.canada.ca/fr/secretariat-conseil-tresor/services/dotation/normes-qualification/centrale.html#acc\">acceptable</a> en \u00e9conomie, en sociologie ou en statistique.</p>\n<p>Si vous \u00eates un employ\u00e9 \u00e0 niveau \u00e0 la recherche d\u2019une affectation, vous devez rencontrer le niveau d\u2019\u00e9ducation minimum suivant : un <a href=\"https://www.canada.ca/fr/secretariat-conseil-tresor/services/dotation/normes-qualification/centrale.html#Dipl\">grade</a> d\u2019un <a href=\"https://www.canada.ca/fr/secretariat-conseil-tresor/services/dotation/normes-qualification/centrale.html#eepr\">\u00e9tablissement d\u2019enseignement postsecondaire reconnu</a>.</p>\n<p><strong><br>Exp\u00e9rience</strong></p>\n<ul>\n<li>Exp\u00e9rience de la formulation de conseils et de recommandations, et de la r\u00e9alisation d\u2019analyses, \u00e0 l\u2019intention de cadres sup\u00e9rieurs (directeurs et postes de niveau sup\u00e9rieur) au sujet d\u2019un vaste ensemble de questions complexes li\u00e9es au secteur agricole et agroalimentaire.</li>\n<li>Exp\u00e9rience de l\u2019\u00e9tablissement et de la gestion de relations de collaboration avec des bureaux de haute direction ou des intervenants.</li>\n<li>Exp\u00e9rience de la repr\u00e9sentation d\u2019une direction g\u00e9n\u00e9rale au sein de r\u00e9seaux minist\u00e9riels ou de comit\u00e9s.</li>\n</ul>\n<p><strong><br>Comp\u00e9tences:</strong><br>\n<br>\nCapacit\u00e9 de communiquer efficacement \u00e0 l\u2019oral ;</p>\n<p>Capacit\u00e9 de communiquer efficacement par \u00e9crit;</p>\n<p>Planification et organisation</p>\n<p>Pens\u00e9e strat\u00e9gique</p>\n<p>Initiative</p>\n<p>Jugement</p>\n<p><strong><br>Exp\u00e9rience constituant un atout</strong></p>\n<ul>\n<li>Exp\u00e9rience de la conception et de la mise en \u0153uvre de programmes ou de services.</li>\n<li>Exp\u00e9rience de travail avec des intervenants au secteur agricole (provinciaux/territoriaux de l\u2019industrie ou d\u2019associations) li\u00e9e \u00e0 des questions touchant au secteur agricole.</li>\n<li>Exp\u00e9rience de travail li\u00e9e aux processus l\u00e9gislatifs et aux cadres r\u00e9glementaires du gouvernement du Canada (\u00e9laboration et mise en \u0153uvre de politiques et de programmes).</li>\n<li>Exp\u00e9rience en gestion des ressources humaines et des finances.</li>\n</ul>\n<p><strong><br>Profil linguistique exig\u00e9 :</strong> Profils vari\u00e9s</p>\n<p><strong><br>Condition d\u2019emploi: </strong><strong>Cote de s\u00e9curit\u00e9 </strong>Secr\u00e8te</p>\n<p><strong><br>Applications:</strong></p>\n<p>Si vous \u00eates un employ\u00e9 ind\u00e9termin\u00e9 au niveau EC06 ou \u00e9quivalent et que cette possibilit\u00e9 d\u2019affectation vous int\u00e9resse, veuillez fournir :</p>\n<ul>\n<li>\n<p>une courte lettre (2 pages maximum) expliquant pourquoi ce poste vous int\u00e9resse et les habilet\u00e9s, les exp\u00e9riences et les connaissances que vous apporterez au poste de Conseiller principal au Directeur g\u00e9n\u00e9ral de la Direction des programmes de gestion des risques de l'entreprise ; et</p>\n</li>\n<li>\n<p>votre curriculum vitae.</p>\n</li>\n</ul>\n<p>Si vous n\u2019\u00eates pas au niveau EC06 ou \u00e9quivalent et que cette possibilit\u00e9 d\u2019int\u00e9rimaire vous int\u00e9resse, veuillez fournir :</p>\n<ul>\n<li>une lettre expliquant clairement comment vous rencontrez l\u2019\u00e9ducation et les exp\u00e9riences li\u00e9es \u00e0 cette opportunit\u00e9 ; et</li>\n<li>votre curriculum vitae.</li>\n</ul>\n<p><br>\nVeuillez envoyer tous les documents \u00e0 Julie Desroches \u00e0 julie.desroches@canada.ca d\u2019ici lundi le 22 juillet, 2019.</p>\n<p>Veuillez indiquer clairement votre groupe et niveau de titularisation dans votre curriculum vitae.</p>\n<p>Si vous avez des questions ou si vous souhaitez obtenir de plus amples renseignements, n\u2019h\u00e9sitez pas \u00e0 communiquer avec Chris Levac par courriel \u00e0 l\u2019adresse <a href=\"mailto:chris.levac@canada.ca\">chris.levac@canada.ca</a>\u00a0 ou par t\u00e9l\u00e9phone au 613-773-2042.</p>\n<p><strong><br>Notes: </strong></p>\n<ul>\n<li>Les employ\u00e9s ind\u00e9termin\u00e9s au niveau EC06 ou \u00e9quivalent seront les premiers \u00e0 \u00eatre consid\u00e9r\u00e9 pour une opportunit\u00e9 d\u2019affection. S\u2019il n\u2019y a pas de candidats qualifi\u00e9s \u00e0 niveau, les employ\u00e9es qui ne sont pas au niveau EC06 ou \u00e9quivalent seront consid\u00e9r\u00e9s pour une opportunit\u00e9 int\u00e9rimaire.</li>\n<li>Il s\u2019agit d\u2019une affection ou d\u2019une nomination int\u00e9rimaire d\u2019un an avec possibilit\u00e9 de prolongation.</li>\n<li>Toute communication relative \u00e0 ce processus sera faite par courriel.</li>\n<li>Les candidates doivent obtenir l\u2019approbation de leur gestionnaire avant de postuler pour cette opportunit\u00e9.</li>\n<li>Un bassin de candidats qualifi\u00e9s pourrait \u00eatre \u00e9tablie et utilis\u00e9 pour doter des postes semblables.</li>\n<li>Les candidats peuvent \u00eatre \u00e9valu\u00e9s lors d\u2019une entrevue.</li>\n<li>Un examen \u00e9crit pourrait \u00eatre administr\u00e9.</li>\n<li>Une v\u00e9rification des r\u00e9f\u00e9rences pourrait \u00eatre faite.</li>\n</ul>\n<p>\u00a0</p>\n\n"
    },
    "breadcrumb": {
        "en": "Senior Advisor to the Director General of the Business Risk Management Directorate",
        "fr": "Conseiller principal au Directeur g\u00e9n\u00e9ral de la Direction des programmes de gestion des risques de l'entrepris"
    },
    "empl": {
        "type": {
            "en": "Assignment, Acting",
            "fr": "Affectation, Int\u00e9rimaire"
        },
        "classification": {
            "en": "EC-6 and equivalent",
            "fr": "EC-6 et \u00e9quivalent"
        },
        "branch": {
            "en": "Programs Branch",
            "fr": "Direction g\u00e9n\u00e9rale des programmes"
        },
        "locations": {
            "en": "Ottawa, Ontario",
            "fr": "Ottawa, Ontario"
        },
        "date_closing": {
            "en": "2019-07-22",
            "fr": "2019-07-22"
        },
        "open_to": {
            "en": "All AAFC employees in the NCR.",
            "fr": "Tous les employ\u00e9s d\u2019AAC situ\u00e9s dans la RCN"
        },
        "name": {
            "en": "Julie Desroches",
            "fr": "Julie Desroches"
        },
        "email": {
            "en": "julie.desroches@canada.ca",
            "fr": "julie.desroches@canada.ca"
        }
    }
}