{
    "dcr_id": "1562772146569",
    "lang": "en",
    "title": {
        "en": "TRECS Coordinator",
        "fr": "Coordonnateur/coordonnatrice du SSRCHD"
    },
    "modified": "2019-07-11 00:00:00.0",
    "issued": "2019-07-11 00:00:00.0",
    "type_name": "intra-intra/empl-empl",
    "node_id": "1279029955397",
    "layout_name": null,
    "dc_date_created": "2019-07-11",
    "breadcrumb_label": "",
    "meta": {
        "issued": {
            "en": "2019-07-11",
            "fr": "2019-07-11"
        },
        "modified": {
            "en": "2019-07-11",
            "fr": "2019-07-11"
        },
        "format": {
            "en": "gcformat",
            "fr": "gcformat"
        },
        "title": {
            "en": "TRECS Coordinator",
            "fr": "Coordonnateur/coordonnatrice du SSRCHD"
        },
        "subject": {
            "en": "staffing",
            "fr": "dotation en personnel"
        },
        "language": {
            "en": "eng",
            "fr": "fra"
        },
        "audience": {
            "en": "gcaudience",
            "fr": "gcaudience"
        },
        "type": {
            "en": "notice",
            "fr": "avis"
        },
        "creator": {
            "en": "Agriculture and Agri-Food Canada",
            "fr": "Agriculture et Agroalimentaire Canada"
        },
        "spatial": {
            "en": "gcregions",
            "fr": "gcregions"
        },
        "service": {
            "en": "AAFC_AgriSource",
            "fr": "AAC_AgriSource"
        },
        "accessRights": {
            "en": "3",
            "fr": "3"
        }
    },
    "body": {
        "en": "<p><strong>Description</strong></p>\n<p>\u00a0</p>\n<p>Are you looking to grow your breadth and depth of knowledge and experience? If yes, consider expanding your horizons and increasing your career opportunities by applying to this opportunity. We are looking for you!</p>\n<p>\u00a0</p>\n<p>The Director General\u2019s Office, Policy, Planning and Integration Directorate of the Strategic Policy Branch is looking for a motivated individual for an assignment or acting opportunity. The successful candidate will be exposed to a vast array of duties that are associated to the role of a TRECS Coordinator.</p>\n<p>\u00a0</p>\n<p><strong>Essential Qualifications </strong></p>\n<p>\u00a0</p>\n<p><strong>Education</strong></p>\n<p>A secondary school diploma OR an acceptable combination of education, training and/or experience.</p>\n<p>\u00a0</p>\n<p><strong>Experience</strong></p>\n<p>\u00a0</p>\n<p><strong>In order to be considered, your application must clearly explain how you meet the following essential qualifications:</strong></p>\n<p>\u00a0</p>\n<ul>\n<li>\n<p>Experience proofreading, formatting and editing various documents including briefing notes for the purpose of quality control;</p>\n</li>\n</ul>\n<p>\u00a0</p>\n<ul>\n<li>\n<p>Significant* experience in the provision of administrative support services including processing, tracking and coordinating correspondence and briefing materials that flow in and out of a senior management office**;</p>\n</li>\n</ul>\n<p>\u00a0</p>\n<ul>\n<li>\n<p>Experience in liaising and consulting with staff in senior management offices**</p>\n<p>\u00a0</p>\n</li>\n<li>\n<p>Experience in the use of CCM Enterprise, Agridocs, Knowledge Workspace and Microsoft Office.</p>\n<p>\u00a0</p>\n</li>\n</ul>\n<p>*Significant experience refers to the depth and breadth of experience that is normally associated with the full-time performance of these duties for period of approximately (1) year.</p>\n<p>** Senior management office and senior executive is defined at the level of Director or higher.</p>\n<p>\u00a0</p>\n<p><strong>Asset qualifications:</strong></p>\n<ul>\n<li>\n<p><b><strong>Experience working as a TRECS coordinator</strong></b></p>\n</li>\n<li>\n<p><b><strong>Access to the Government of Canada Secret Infrastructure (GCSI) network.</strong></b></p>\n<p>\u00a0</p>\n<p>\u00a0</p>\n</li>\n</ul>\n<p><strong>Abilities</strong></p>\n<ul>\n<li>\n<p>Ability to maintain a constant level of superior service in a demanding and high-pressure environment, respecting deadlines and setting priorities.</p>\n</li>\n</ul>\n<p>\u00a0</p>\n<p><strong>Competencies</strong></p>\n<p>Interactive communication</p>\n<p>Writing skills</p>\n<p>Planning and organizing</p>\n<p>Dependability</p>\n<p>Initiative</p>\n<p>Adaptability</p>\n<p>\u00a0</p>\n<p><strong>Language Requirement</strong></p>\n<p>English Essential</p>\n<p>\u00a0</p>\n<p><strong>Organizational Needs</strong></p>\n<p>In support of achieving a diversified workforce, consideration may be given to candidates self-identifying as belonging to one of the following Employment Equity groups: Aboriginal peoples, Persons with a Disability; Visible Minorities, Women.</p>\n<p>\u00a0</p>\n<p><strong>Operational requirements:</strong></p>\n<p><strong>Ability and willingness to work overtime with little notice.</strong></p>\n<p>\u00a0</p>\n<p>\u00a0</p>\n<p><strong>Conditions of Employment</strong></p>\n<p><strong>Work Hours: 9:00 a.m. to 5:00 p.m.</strong></p>\n<p>\u00a0</p>\n<p><strong>Reliability and Security:</strong> Secret status</p>\n<p>\u00a0</p>\n<p><strong>Applications</strong></p>\n<p>Interested AAFC employees are encouraged to forward their resume and cover letter to Julie Levert at julie.levert@canada.ca by July 24, 2019. Candidates must clearly demonstrate in their cover letter how they meet the essential qualifications and include their two most recent supervisors.</p>\n<p>\u00a0</p>\n<p>Cover letters must clearly identify:</p>\n<ul>\n<li>\n<p>Your tenure (e.g., term or indeterminate)</p>\n</li>\n<li>\n<p>Your substantive group and level</p>\n</li>\n</ul>\n<p>\u00a0</p>\n",
        "fr": "<p><strong>Description</strong></p>\n<p>\u00a0</p>\n<p>Vous cherchez \u00e0 \u00e9largir et \u00e0 approfondir vos connaissances et votre exp\u00e9rience? Si c\u2019est le cas, songez \u00e0 \u00e9largir vos horizons et \u00e0 accro\u00eetre vos possibilit\u00e9s de carri\u00e8re en posant votre candidature pour ce poste. Nous sommes \u00e0 la recherche!</p>\n<p>\u00a0</p>\n<p>Le Bureau du directeur g\u00e9n\u00e9ral, Direction des politiques, de la planification et de l\u2019int\u00e9gration de la Direction g\u00e9n\u00e9rale des politiques strat\u00e9giques est \u00e0 la recherche d\u2019une personne motiv\u00e9e pour une affectation ou un int\u00e9rim. La personne choisie devra accomplir une vaste gamme de t\u00e2ches aff\u00e9rentes au r\u00f4le de coordonnateur du SSRCHD.</p>\n<p>\u00a0</p>\n<p><strong>Qualifications essentielles </strong></p>\n<p>\u00a0</p>\n<p><strong>\u00c9tudes</strong></p>\n<p>Un dipl\u00f4me d\u2019\u00e9tudes secondaires ou un agencement\u00a0acceptable d\u2019\u00e9tudes, de formation et(ou) d\u2019exp\u00e9rience.</p>\n<p>\u00a0</p>\n<p><strong>Exp\u00e9rience</strong></p>\n<p>\u00a0</p>\n<p><strong>Afin d\u2019\u00eatre consid\u00e9r\u00e9, votre demande doit expliquer clairement comment vous r\u00e9pondez aux crit\u00e8res suivants (qualifications essentielles) :</strong></p>\n<p>\u00a0</p>\n<ul>\n<li>\n<p>Exp\u00e9rience de la correction d\u2019\u00e9preuves, de la mise en forme et de la r\u00e9vision de divers documents, y compris des notes d\u2019information, \u00e0 des fins de contr\u00f4le de la qualit\u00e9;</p>\n<p>\u00a0</p>\n</li>\n<li>\n<p>Exp\u00e9rience appr\u00e9ciable* de la prestation de services de soutien administratif, y compris le traitement, le suivi et la coordination de la correspondance et des documents d\u2019information qui entrent et sortent d\u2019un bureau de la haute direction**;</p>\n</li>\n</ul>\n<p>\u00a0</p>\n<ul>\n<li>\n<p>Exp\u00e9rience de la liaison et de la consultation avec le personnel des bureaux de la haute direction**;</p>\n<p>\u00a0</p>\n</li>\n<li>\n<p>Exp\u00e9rience de l\u2019utilisation de CCM Enterprise, AgriDoc, l\u2019Espace de travail du savoir et Microsoft Office.</p>\n<p>\u00a0</p>\n</li>\n</ul>\n<p>* On entend par \u00ab exp\u00e9rience appr\u00e9ciable \u00bb une exp\u00e9rience qui, de par son \u00e9tendue et sa richesse, est normalement acquise dans l\u2019exercice \u00e0 temps plein de ces t\u00e2ches pendant environ un (1) an.</p>\n<p>** Le bureau de la haute direction et/ou le cadre sup\u00e9rieur est d\u00e9fini au niveau de directeur ou autre niveau sup\u00e9rieur.</p>\n<p>\u00a0</p>\n<p><strong>Qualifications constituant un atout</strong></p>\n<ul>\n<li>\n<p><strong>Exp\u00e9rience de la coordination du SSRCHD.</strong></p>\n</li>\n<li>\n<p><strong>Acc\u00e8s au r\u00e9seau de l\u2019infrastructure Secr\u00e8te du Gouvernement du Canada (ISGC)</strong></p>\n</li>\n</ul>\n<p><strong>\u00a0</strong></p>\n<p><strong>Capacit\u00e9s</strong></p>\n<ul>\n<li>\n<p>Capacit\u00e9 \u00e0 maintenir un niveau de service sup\u00e9rieur et constant dans un milieu tr\u00e8s exigeant o\u00f9 la pression est tr\u00e8s \u00e9lev\u00e9e, tout en respectant les \u00e9ch\u00e9anciers et en \u00e9tablissant ses priorit\u00e9s.</p>\n</li>\n</ul>\n<p>\u00a0</p>\n<p><strong>Comp\u00e9tences</strong></p>\n<p>Communication interactive</p>\n<p>Comp\u00e9tences en r\u00e9daction</p>\n<p>Planification et organisation</p>\n<p>Sens des responsabilit\u00e9s</p>\n<p>Esprit d\u2019initiative</p>\n<p>Facult\u00e9 d\u2019adaptation</p>\n<p>\u00a0</p>\n<p><strong>Exigences linguistiques</strong></p>\n<p>Anglais essentiel.</p>\n<p>\u00a0</p>\n<p><strong>Besoins organisationnels</strong></p>\n<p>Pour les besoins de la diversification de l\u2019effectif, une attention particuli\u00e8re pourrait \u00eatre accord\u00e9e aux candidats qui auront indiqu\u00e9 leur appartenance \u00e0 l\u2019un des groupes suivants, vis\u00e9s par l\u2019\u00e9quit\u00e9 en mati\u00e8re d\u2019emploi : Autochtones, personnes handicap\u00e9es, membres d\u2019une minorit\u00e9 visible, femmes.</p>\n<p>\u00a0</p>\n<p><strong>Exigences op\u00e9rationnelles</strong></p>\n<p><strong>\u00catre apte et dispos\u00e9 \u00e0 faire des heures suppl\u00e9mentaires avec un court pr\u00e9avis.\u00a0</strong></p>\n<p>\u00a0</p>\n<p><strong>Conditions d\u2019emploi</strong></p>\n<p><strong>Heures de travail : de 9 h \u00e0 17 h</strong></p>\n<p>\u00a0</p>\n<p><strong>Fiabilit\u00e9 et s\u00e9curit\u00e9</strong> : Cote de s\u00e9curit\u00e9 de niveau \u00ab secret \u00bb.</p>\n<p>\u00a0</p>\n<p><strong>Candidatures</strong></p>\n<p>Les employ\u00e9s d\u2019AAC int\u00e9ress\u00e9s par la pr\u00e9sente offre doivent faire parvenir leur curriculum vitae, accompagn\u00e9 d\u2019une lettre de pr\u00e9sentation, \u00e0 Julie Levert (julie.levert@canada.ca), d\u2019ici le 24 juillet 2019. Dans leur lettre de pr\u00e9sentation, les candidats doivent clairement d\u00e9montrer qu\u2019ils poss\u00e8dent les qualifications essentielles susmentionn\u00e9es et fournir le nom de leurs deux superviseurs les plus r\u00e9cents.</p>\n<p>\u00a0</p>\n<p>Dans votre lettre de pr\u00e9sentation, vous devez clairement indiquer :</p>\n<ul>\n<li>\n<p>la dur\u00e9e de votre emploi (p. ex. d\u00e9termin\u00e9e ou ind\u00e9termin\u00e9e);</p>\n</li>\n<li>\n<p>le groupe et le niveau de votre poste d\u2019attache.</p>\n</li>\n</ul>\n<p>\u00a0</p>\n\n"
    },
    "breadcrumb": {
        "en": "TRECS Coordinator",
        "fr": "Coordonnateur/coordonnatrice du SSRCHD"
    },
    "empl": {
        "type": {
            "en": "Assignment, Acting",
            "fr": "Affectation, Int\u00e9rimaire"
        },
        "classification": {
            "en": "AS-2 and equivalent",
            "fr": "AS-2 et \u00e9quivalent"
        },
        "branch": {
            "en": "Strategic Policy Branch",
            "fr": "Direction g\u00e9n\u00e9rale des politiques strat\u00e9giques"
        },
        "locations": {
            "en": "NCR",
            "fr": "RCN"
        },
        "date_closing": {
            "en": "2019-07-24",
            "fr": "2019-07-24"
        },
        "open_to": {
            "en": "AAFC employees at the AS-01 and AS-02 level in the NCR",
            "fr": "Employ\u00e9s d'AAC des groupes et niveaux AS-01 et AS-02 dans la RCN"
        },
        "name": {
            "en": "Julie Levert",
            "fr": "Julie Levert"
        },
        "email": {
            "en": "julie.levert@canada.ca",
            "fr": "julie.levert@canada.ca"
        }
    }
}