{
    "dcr_id": "1563211690062",
    "lang": "en",
    "title": {
        "en": "Deputy Ministers' Announcement - Workplace Well-Being Ombudsperson / Assistant Deputy Minister, Programs Branch",
        "fr": " Annonce des sous-ministres - Ombudsman du mieux-\u00eatre en milieu de travail / Sous-ministre adjointe, Direction g\u00e9n\u00e9rale des programmes "
    },
    "modified": "2019-07-18 00:00:00.0",
    "issued": "2019-07-18 00:00:00.0",
    "type_name": "intra-intra/news-nouv",
    "node_id": "1279030006975",
    "layout_name": null,
    "dc_date_created": "2019-07-15",
    "breadcrumb_label": "",
    "meta": {
        "issued": {
            "en": "2019-07-18",
            "fr": "2019-07-18"
        },
        "modified": {
            "en": "2019-07-18",
            "fr": "2019-07-18"
        },
        "format": {
            "en": "gcformat",
            "fr": "gcformat"
        },
        "title": {
            "en": "Deputy Ministers' Announcement - Workplace Well-Being Ombudsperson / Assistant Deputy Minister, Programs Branch",
            "fr": " Annonce des sous-ministres - Ombudsman du mieux-\u00eatre en milieu de travail / Sous-ministre adjointe, Direction g\u00e9n\u00e9rale des programmes "
        },
        "subject": {
            "en": "communications",
            "fr": "communications"
        },
        "description": {
            "en": "We are pleased to announce that Jane Taylor has accepted the newly established role of Workplace Well-Being Ombudsperson, effective August 12, 2019.",
            "fr": "Nous sommes heureux d'annoncer que Jane Taylor a accept\u00e9 le nouveau r\u00f4le d\u2019Ombudsman du mieux-\u00eatre en milieu de travail, \u00e0 compter du 12 ao\u00fbt 2019."
        },
        "language": {
            "en": "eng",
            "fr": "fra"
        },
        "audience": {
            "en": "gcaudience",
            "fr": "gcaudience"
        },
        "creator": {
            "en": "Agriculture and Agri-Food Canada",
            "fr": "Agriculture et Agroalimentaire Canada"
        },
        "spatial": {
            "en": "gcregions",
            "fr": "gcregions"
        },
        "service": {
            "en": "AAFC_AgriSource",
            "fr": "AAC_AgriSource"
        },
        "accessRights": {
            "en": "3",
            "fr": "3"
        }
    },
    "body": {
        "en": "<br>\n<br>\n<p>We are pleased to announce that Jane Taylor has accepted the newly established role of Workplace Well-Being Ombudsperson, effective August 12, 2019. This new role, reporting to the Deputy Minister, will provide employees with an independent, safe and confidential space to help deal with a broad range of workplace issues such as harassment, civility and wellness. This position has been created following the recommendation by the Clerk\u2019s DM Task Team on Harassment.</p>\n<p>Jane brings over 25 years of public service, including positions at Health Canada, Global Affairs Canada, and AAFC. She brings a depth of experience and perspectives in programs, policy and public affairs. Her proven track record of focusing on people, working collaboratively and leadership style will be an asset in her new role.</p>\n<p>We would like to take this opportunity to welcome Paul Samson as the new ADM, Programs Branch, effective August, 12, 2019.</p>\n<p>Paul joins AAFC from the Department of Finance where he was the Associate Assistant Deputy Minister, International Trade and Finance. Paul has over 20 years of public service, including several senior executive positions in programs and policy at the Canadian International Development Agency and Global Affairs Canada. He also worked at the Privy Council Office and Natural Resources Canada. Earlier in his career, he worked at several think tanks and universities in Geneva, Washington DC, Oslo and Boston.</p>\n<p>Please join us in congratulating Jane, welcoming Paul and wishing them all the best as they take on their new leadership roles.</p>\n<p><strong>\u00a0</strong></p>\n<p><strong>Chris Forbes</strong><br>\nDeputy Minister</p>\n<p><strong>Annette Gibbons</strong><br>\nAssociate Deputy Minister</p>\n\n\t\t",
        "fr": "<br>\n<br>\n<p>Nous sommes heureux d\u2019annoncer que Jane Taylor a accept\u00e9 le nouveau r\u00f4le d\u2019Ombudsman du mieux-\u00eatre en milieu de travail, \u00e0 compter du 12 ao\u00fbt 2019. Ce nouveau r\u00f4le, qui rel\u00e8ve du sous-ministre, offrira aux employ\u00e9s un espace ind\u00e9pendant, s\u00e9curitaire et confidentiel pour les aider \u00e0 traiter un large \u00e9ventail de questions li\u00e9es au milieu de travail comme le harc\u00e8lement, la civilit\u00e9 et le mieux-\u00eatre. Ce poste a \u00e9t\u00e9 cr\u00e9\u00e9 pour donner suite \u00e0 la recommandation de l\u2019\u00c9quipe de travail des SM sur le harc\u00e8lement du greffier.</p>\n<p>Jane Taylor compte plus de 25 ans d\u2019exp\u00e9rience dans la fonction publique, notamment \u00e0 Sant\u00e9 Canada, au minist\u00e8re des Affaires mondiales Canada et \u00e0 AAC. Elle apporte avec elle une vaste exp\u00e9rience et des perspectives \u00e9clair\u00e9es sur les programmes, les politiques et les affaires publiques. Ses ant\u00e9c\u00e9dents \u00e9prouv\u00e9s au chapitre des relations humaines, du travail en collaboration et du style de leadership seront un atout dans son nouveau r\u00f4le.</p>\n<p>Nous aimerions en profiter pour souhaiter la bienvenue \u00e0 Paul Samson, \u00e0 titre de nouveau SMA, Direction g\u00e9n\u00e9rale des programmes, \u00e0 compter du 12 ao\u00fbt 2019.</p>\n<p>Paul Samson se joint \u00e0 AAC apr\u00e8s avoir travaill\u00e9 au minist\u00e8re des Finances, o\u00f9 il \u00e9tait sous-ministre adjoint d\u00e9l\u00e9gu\u00e9, Direction des finances et des \u00e9changes internationaux. M. Samson compte plus de 20 ans d\u2019exp\u00e9rience dans la fonction publique, dont plusieurs postes de cadre sup\u00e9rieur li\u00e9s aux programmes et aux politiques \u00e0 l\u2019Agence canadienne de d\u00e9veloppement international et \u00e0 Affaires mondiales Canada. Il a \u00e9galement travaill\u00e9 au Bureau du Conseil priv\u00e9 et \u00e0 Ressources naturelles Canada. Plus t\u00f4t dans sa carri\u00e8re, il a particip\u00e9 \u00e0 plusieurs groupes de r\u00e9flexion et travaill\u00e9 \u00e0 plusieurs universit\u00e9s de Gen\u00e8ve, Washington, D.C., Oslo et Boston.</p>\n<p>Joignez-vous \u00e0 nous pour f\u00e9liciter Jane, souhaiter la bienvenue \u00e0 Paul et leur souhaiter \u00e0 tous les deux la meilleure des chances dans leurs nouvelles fonctions de direction.</p>\n<p><strong>\u00a0</strong></p>\n<p><strong>Chris Forbes</strong><br>\nSous-ministre</p>\n<p><strong>Annette Gibbons</strong><br>\nSous-ministre d\u00e9l\u00e9gu\u00e9e</p>\n\t\t"
    },
    "breadcrumb": {
        "en": "Deputy Ministers' Announcement - Workplace Well-Being Ombudsperson / Assistant Deputy Minister, Programs Branch",
        "fr": "Annonce des sous-ministres - Ombudsman du mieux-\u00eatre en milieu de travail / Sous-ministre..."
    },
    "news": {
        "date_posted": {
            "en": "2019-07-15",
            "fr": "2019-07-15"
        },
        "to": {
            "en": "All staff",
            "fr": "Tous les employ\u00e9s"
        },
        "by": {
            "en": "Chris Forbes, Deputy Minister, and Annette Gibbons, Associate Deputy Minister",
            "fr": "Chris Forbes, sous-ministre, et Annette Gibbons, sous-ministre d\u00e9l\u00e9gu\u00e9e"
        }
    }
}