{
    "dcr_id": "1564683325439",
    "lang": "en",
    "title": {
        "en": "Commercialization Officer",
        "fr": "Agent de commercialisation"
    },
    "modified": "2019-08-09 00:00:00.0",
    "issued": "2019-08-06 00:00:00.0",
    "type_name": "intra-intra/empl-empl",
    "node_id": "1279029955397",
    "layout_name": null,
    "dc_date_created": "2019-08-01",
    "breadcrumb_label": "",
    "meta": {
        "issued": {
            "en": "2019-08-06",
            "fr": "2019-08-06"
        },
        "modified": {
            "en": "2019-08-09",
            "fr": "2019-08-09"
        },
        "format": {
            "en": "gcformat",
            "fr": "gcformat"
        },
        "title": {
            "en": "Commercialization Officer",
            "fr": "Agent de commercialisation"
        },
        "subject": {
            "en": "staffing",
            "fr": "dotation en personnel"
        },
        "language": {
            "en": "eng",
            "fr": "fra"
        },
        "audience": {
            "en": "gcaudience",
            "fr": "gcaudience"
        },
        "type": {
            "en": "notice",
            "fr": "avis"
        },
        "creator": {
            "en": "Agriculture and Agri-Food Canada",
            "fr": "Agriculture et Agroalimentaire Canada"
        },
        "spatial": {
            "en": "gcregions",
            "fr": "gcregions"
        },
        "service": {
            "en": "AAFC_AgriSource",
            "fr": "AAC_AgriSource"
        },
        "accessRights": {
            "en": "3",
            "fr": "3"
        }
    },
    "body": {
        "en": "\n<p><strong>\u00a0</strong></p>\n<p>Open to AAFC employees working at the Research &amp; Development centres and to AAFC employees working within 40 km of these centres:</p>\n<p>For Charlottetown (Prince Edward Island): Indeterminate AAFC employees working at the Charlottetown Research and Development Centre.</p>\n<p>For Ottawa (Ontario): Indeterminate AAFC employees working at the Ottawa Research and Development Centre. </p>\n<p>For Lethbridge (Alberta): Indeterminate AAFC employees working at the Lethbridge Research and Development Centre.</p>\n<p>For Brandon (Manitoba): Indeterminate AAFC employees working at the Brandon Research and Development Centre.</p>\n<p>For Saskatoon (Saskatchewan): Indeterminate AAFC employees working at the Saskatoon Research and Development Centre</p>\n<p><strong>\u00a0</strong></p>\n<p><strong>Duties:</strong></p>\n<p>The OIPC will be offering twelve (12) month assignment opportunities where candidates will get the training pertaining to the management of intellectual property and commercialization and collaborative agreements. The chosen candidates will receive formal training, mentorship, and extensive on-the-job training related to the duties of a commercialization officer. They will be exposed to a wide range of intellectual property and commercialization activities. Under the supervision of commercialization officers, they will be involved in preparing drafts of more straightforward and low risk agreements, and participate with a senior commercialization officer in the preparation of agreements of a more complicated nature, such as memoranda of understanding, letters of intent, collaborative research, and license agreements. Under the supervision of the Business Development Manager, they will also participate in evaluating invention disclosures, using requests for proposals, identifying opportunities, assessing feasibility and potential partners for Research &amp; Development collaboration and commercialization of Agriculture and Agri-Food intellectual property.</p>\n<p>These assignment opportunities will offer candidates the chance to develop the skills and competencies that are required for the CO-01 and CO-02 levels. It is planned for a selection process to be launched in 2019 depending on the staffing needs of the OIPC allowing candidates to compete for indeterminate Commercialization Officer positions potentially located in Charlottetown (Prince Edward Island), Ottawa (Ontario), Lethbridge (Alberta), Brandon (Manitoba) and/or Saskatoon (Saskatchewan).</p>\n<p>\u00a0</p>\n<p><strong>About the Office of Intellectual Property and Commercialization (OIPC)</strong></p>\n<p>The Office of Intellectual Property and Commercialization (OIPC) supports the agri-food sector's economic, social and environmental contributions to Canada by converting research efforts into outcomes with real benefits.</p>\n<p>The work of the Science and Technology Branch at Agriculture and Agri-Food Canada (AAFC) generates results such as new technologies, products, designs, methods, processes, plant varieties, germplasm, genetic material, know-how and show-how. The rights in these research results are known as \"intellectual property\" or \"IP.\"</p>\n<p>The OIPC strives to transfer research results from the laboratory to applications in Canada and around the world.</p>\n<p>\u00a0</p>\n<p><strong>Statement of Merit Criteria &amp; Conditions of Employment</strong><em>(required)</em></p>\n<p>\u00a0</p>\n<p><strong>Essential Qualifications</strong></p>\n<p>\u00a0</p>\n<p><strong>In order to be considered, your application must clearly explain how you meet the essential education and experience as well as the asset education and experience.</strong></p>\n<p>Graduation with a degree from a recognized post-secondary institution with acceptable specialization agriculture, science, engineering, business or another discipline related to the position, OR an acceptable combination of education, training and/or experience.</p>\n<p>\u00a0</p>\n<p>Experience working with a scientific research team.</p>\n<p>Experience working with external partners conducting collaborative research.</p>\n<p>\u00a0</p>\n<p><strong>The following qualifications will be assessed at a later date:</strong></p>\n<p>Knowledge of scientific research practices in life sciences or agriculture</p>\n<p>Knowledge of Canada's agricultural sector, of Agriculture and Agri-Food Canada Science and Technology Branch (STB), STB organizational structure, strategic objectives and significant areas of focus.</p>\n<p>Knowledge of AAFC partnerships with industry, stakeholders, academia, government and non-government organizations.</p>\n<p>\u00a0</p>\n<p>Teamwork</p>\n<p>Analytical Thinking</p>\n<p>Planning and Organizing</p>\n<p>Adaptability</p>\n<p>\u00a0</p>\n<p>Ability to communicate effectively orally.</p>\n<p>Ability to communicate effectively in writing.</p>\n<p>\u00a0</p>\n<p>Various language profiles: English Essential and Bilingual Imperative BBB/BBB</p>\n<p>\u00a0</p>\n<p><strong>Asset Qualifications</strong></p>\n<p>Master\u2019s or PhD degree in agriculture, science, commerce, administration or law.</p>\n<p>Experience managing intellectual property assets pertaining to a portfolio of trade secrets, patents and plant breeder\u2019s rights.</p>\n<p>Knowledge of practices and principles related to the management of intellectual property assets.</p>\n<p>Knowledge of practices related to the establishment of collaborative projects.</p>\n<p>\u00a0</p>\n<h3><strong>Organizational Needs</strong></h3>\n<p>In support of achieving a diversified workforce, consideration may be given to candidates self-identifying as belonging to one of the following Employment Equity groups: Aboriginal peoples, Persons with a Disability; Visible Minorities, Women.</p>\n<p>\u00a0</p>\n<p><strong>Conditions of Employment</strong></p>\n<p>Security Requirement(s): Secret security clearance</p>\n<p>Other conditions of employment: Ability and willingness to travel occasionally.</p>\n<p>\u00a0</p>\n<p><strong>Applications:</strong></p>\n<p>Interested AAFC employees are encouraged to forward their resume and cover letter to Anik Boivin at <a href=\"mailto:anik.boivin@canada.ca\">anik.boivin@canada.ca</a> by <b>23 :59 Pacific Time </b><strong><b>on August 16, 2019.</b></strong></p>\n<p>Resumes must clearly identify:</p>\n<ul>\n<li>\n<p>Your tenure (e.g. indeterminate)</p>\n</li>\n<li>\n<p>Your substantive group and level</p>\n</li>\n<li>\n<p>Your substantive work location</p>\n</li>\n</ul>\n<p>\u00a0</p>\n<p>You are required to submit a cover letter that clearly describes <strong>how you meet the essential education and essential experience</strong> as well as the asset education and asset experience (if applicable). Please use each qualification as a header and then provide a concrete example (maximum two paragraphs) demonstrating how you meet each qualification. You must meet all essential qualifications in order to be considered for an assignment.</p>\n<p>\u00a0</p>\n<p><strong>Notes:</strong></p>\n<ul>\n<li>\n<p><strong><strong>Preference will be given to at-level employees for assignments before considering acting appointments</strong><strong>.\u00a0</strong></strong></p>\n</li>\n<li>\n<p><strong><strong>Important Note</strong>: <strong>An assignment cannot constitute a promotion</strong>. Successful candidates will continue to be paid at their substantive group and level for the duration of their CO-01 assignment and will return to their substantive positions at the end of the assignment.\u00a0</strong></p>\n</li>\n<li>\n<p><strong>Communication for this process will be sent via email.</strong></p>\n</li>\n</ul>\n<p>\u00a0</p>\n",
        "fr": "\n<p><strong>\u00a0</strong></p>\n<p>Ouvert aux\u00a0 employ\u00e9s d\u2019AAC travaillant dans les centres de recherche et de d\u00e9veloppement d\u2019AAC suivants et aux employ\u00e9s d\u2019AAC travaillant dans un rayon de 40 km de ces centres:</p>\n<p>Charlottetown (\u00cele-du-Prince-\u00c9douard) : Employ\u00e9s d\u2019AAC nomm\u00e9s pour une p\u00e9riode ind\u00e9termin\u00e9e travaillant au Centre de recherche et de d\u00e9veloppement de Charlottetown.</p>\n<p>Ottawa (Ontario) : Employ\u00e9s d\u2019AAC nomm\u00e9s pour une p\u00e9riode ind\u00e9termin\u00e9e travaillant au Centre de recherche et de d\u00e9veloppement d\u2019Ottawa. </p>\n<p>Lethbridge (Alberta) : Employ\u00e9s d\u2019AAC nomm\u00e9s pour une p\u00e9riode ind\u00e9termin\u00e9e travaillant au Centre de recherche et de d\u00e9veloppement de Lethbridge.</p>\n<p>Brandon (Manitoba) : Employ\u00e9s d\u2019AAC nomm\u00e9s pour une p\u00e9riode ind\u00e9termin\u00e9e travaillant au Centre de recherche et de d\u00e9veloppement de Brandon.</p>\n<p>Saskatoon (Saskatchewan) : Employ\u00e9s d\u2019AAC nomm\u00e9s pour une p\u00e9riode ind\u00e9termin\u00e9e travaillant au Centre de recherche et de d\u00e9veloppement de Saskatoon.</p>\n<p><strong><br>Fonctions :</strong></p>\n<p>Le BPIC offrira des possibilit\u00e9s d\u2019affectation de douze (12) mois dans le cadre desquelles les candidats obtiendront une formation sur la gestion de la propri\u00e9t\u00e9 intellectuelle et la commercialisation et sur les accords de collaboration. Les candidats retenus recevront une formation et un encadrement officiels ainsi qu\u2019une formation pouss\u00e9e en cours d\u2019emploi sur les fonctions d\u2019un agent de commercialisation. Les candidats seront expos\u00e9s \u00e0 une vaste gamme d\u2019activit\u00e9s relatives \u00e0 la propri\u00e9t\u00e9 intellectuelle et \u00e0 la commercialisation. Sous la supervision d\u2019agents de commercialisation, les candidats aideront \u00e0 r\u00e9diger des accords plus simples et \u00e0 faibles risques et participeront, avec un agent de commercialisation principal, \u00e0 la pr\u00e9paration d\u2019accords de nature plus complexe, comme des protocoles d\u2019entente, des lettres d\u2019intention, des accords de recherche concert\u00e9e et des accords de licences. Sous la supervision du gestionnaire du d\u00e9veloppement de l\u2019entreprise, ils participeront \u00e9galement \u00e0 l\u2019\u00e9valuation de divulgations d\u2019inventions, \u00e0 l\u2019aide de demandes de proposition, \u00e0 la d\u00e9termination de possibilit\u00e9s et \u00e0 l\u2019\u00e9valuation de la faisabilit\u00e9 et de partenariats potentiels pour une collaboration en R\u2011D et la commercialisation de la propri\u00e9t\u00e9 intellectuelle d\u2019Agriculture et Agroalimentaire Canada.</p>\n<p>Ces possibilit\u00e9s d\u2019affectation donneront aux candidats la chance d\u2019acqu\u00e9rir les comp\u00e9tences requises pour les postes de niveaux CO\u201101 et CO\u201102. Un processus de s\u00e9lection devrait \u00eatre lanc\u00e9 en 2019, selon les besoins en dotation du BPIC, et permettrait aux candidats de pr\u00e9senter leur candidature pour des postes d\u2019agents de la commercialisation pour une p\u00e9riode ind\u00e9termin\u00e9e dont le lieu de travail est \u00e0 :Charlottetown(\u00cele-du-Prince-\u00c9douard), Ottawa (Ontario), Lethbridge (Alberta), Brandon (Manitoba) et/ou Saskatoon (Saskatchewan).</p>\n<p>\u00a0</p>\n<p><strong>\u00c0 propos du Bureau de la propri\u00e9t\u00e9 intellectuelle et de la commercialisation (BPIC) :</strong></p>\n<p>Le Bureau de la propri\u00e9t\u00e9 intellectuelle et de la commercialisation (BPIC) appuie les contributions \u00e9conomiques, sociales et environnementales du secteur agroalimentaire au Canada en faisant en sorte que les recherches se traduisent par des r\u00e9sultats qui apportent de v\u00e9ritables avantages.</p>\n<p>La Direction g\u00e9n\u00e9rale des sciences et de la technologie (DGST) d\u2019Agriculture et Agroalimentaire Canada (AAC) g\u00e9n\u00e8re des nouveaut\u00e9s en mati\u00e8re de technologies, de produits, de conceptions, de m\u00e9thodes, de processus, de vari\u00e9t\u00e9s v\u00e9g\u00e9tales, de mat\u00e9riel g\u00e9n\u00e9tique et de savoir\u2011faire. Les droits de ces r\u00e9sultats de recherche sont connus comme \u00e9tant de la \u00ab propri\u00e9t\u00e9 intellectuelle \u00bb ou de la \u00ab PI \u00bb.</p>\n<p>Le BPIC vise \u00e0 faire en sorte que les r\u00e9sultats obtenus dans les laboratoires soient appliqu\u00e9s au Canada et partout dans le monde.</p>\n<p>\u00a0</p>\n<p><strong>\u00c9nonc\u00e9 des crit\u00e8res de m\u00e9rite et conditions d\u2019emploi :</strong></p>\n<p>\u00a0</p>\n<p><strong>Qualifications essentielles </strong></p>\n<p>\u00a0</p>\n<p><strong>Afin d\u2019\u00eatre consid\u00e9r\u00e9, votre mise en candidature devra clairement d\u00e9montrer comment vous rencontrer les crit\u00e8res essentiels d\u2019\u00e9ducation et d\u2019exp\u00e9rience ainsi que les atouts d\u2019\u00e9ducation et d\u2019exp\u00e9rience.</strong></p>\n<p>Grade d\u2019un \u00e9tablissement d\u2019enseignement postsecondaire reconnu avec sp\u00e9cialisation acceptable en agriculture, en science, en ing\u00e9nierie, en affaires ou dans un autre domaine pertinent au poste, OU un ensemble acceptable d\u2019\u00e9tudes, de formation et/ou d\u2019exp\u00e9rience.</p>\n<p>\u00a0</p>\n<p>Exp\u00e9rience de travail avec une \u00e9quipe de recherche scientifique.</p>\n<p>Exp\u00e9rience du travail avec des partenaires externes dans le cadre de recherches concert\u00e9es.</p>\n<p>\u00a0</p>\n<p><strong>Les qualifications essentielles suivantes pourraient \u00eatre \u00e9valu\u00e9es \u00e0 une date ult\u00e9rieure:</strong></p>\n<p>Connaissance des pratiques de recherche scientifique en agriculture ou en sciences de la vie.</p>\n<p>Connaissance du secteur canadien de l\u2019agriculture, de la Direction g\u00e9n\u00e9rale des sciences et de la technologie (DGST) d\u2019Agriculture et Agroalimentaire Canada, ainsi que des objectifs strat\u00e9giques, des domaines d\u2019int\u00e9r\u00eat prioritaires de la structure organisationnelle de la DGST.</p>\n<p>Connaissance des partenariats d\u2019AAC avec l\u2019industrie, les intervenants, le milieu universitaire, le gouvernement et les organisations non gouvernementales.</p>\n<p>\u00a0</p>\n<p>Travail d\u2019\u00e9quipe</p>\n<p>Raisonnement analytique</p>\n<p>Planification et organisation</p>\n<p>Capacit\u00e9 d\u2019adaptation</p>\n<p>Capacit\u00e9 de communiquer efficacement de vive voix.</p>\n<p>Capacit\u00e9 de communiquer efficacement par \u00e9crit.</p>\n<p>Divers profils linguistiques : anglais essentiel et bilingue imp\u00e9ratif au niveau BBB/BBB</p>\n<p>\u00a0</p>\n<p><strong>Qualifications constituant un atout </strong></p>\n<p>Ma\u00eetrise ou doctorat en agriculture, en science, en commerce, en administration ou en droit.</p>\n<p>Exp\u00e9rience de la gestion des actifs de propri\u00e9t\u00e9 intellectuelle d\u2019un portefeuille portant sur les secrets commerciaux, les brevets et la protection des obtentions v\u00e9g\u00e9tales.</p>\n<p>Connaissance des pratiques et des principes de gestion des actifs de propri\u00e9t\u00e9 intellectuelle.</p>\n<p>\u00a0</p>\n<p><strong>Besoins de l'organisation </strong></p>\n<p>Pour diversifier l\u2019effectif, on pourra examiner la candidature des personnes qui s\u2019identifient comme appartenant \u00e0 des groupes vis\u00e9s par l\u2019\u00e9quit\u00e9 en mati\u00e8re d\u2019emploi, soit les autochtones, les personnes handicap\u00e9es, les membres des minorit\u00e9s visibles et les femmes.</p>\n<p>\u00a0</p>\n<p><strong>Conditions d'emploi </strong></p>\n<p>Cote de s\u00e9curit\u00e9 : niveau \u00ab secret \u00bb</p>\n<p>Autres conditions d\u2019emploi : \u00catre apte et dispos\u00e9 \u00e0 se d\u00e9placer \u00e0 l\u2019occasion.</p>\n<p>\u00a0</p>\n<p><strong>Candidatures</strong></p>\n<p>Les employ\u00e9s d\u2019AAC int\u00e9ress\u00e9s sont invit\u00e9s \u00e0 envoyer leur curriculum vitae et une lettre d\u2019accompagnement \u00e0 Anik Boivin \u00e0 l\u2019adresse <a href=\"mailto:anik.boivin@canada.ca\">anik.boivin@canada.ca</a><em> </em>au plus tard \u00e0 <b>23 :59 (PST) le 16 ao\u00fbt 2019</b>.</p>\n<p>Les curriculum vitae doivent clairement pr\u00e9ciser :</p>\n<ul>\n<li>\n<p>votre type de poste (p. ex., \u00e0 dur\u00e9e ind\u00e9termin\u00e9e);</p>\n</li>\n<li>\n<p>le groupe et le niveau de leur poste d\u2019attache;</p>\n</li>\n<li>\n<p>le lieu de travail du poste d\u2019attache.</p>\n</li>\n</ul>\n<p>\n\u00a0Les candidats doivent r\u00e9diger une lettre de pr\u00e9sentation dans laquelle ils d\u00e9crivent clairement <strong>en </strong><strong>quoi ils satisfont aux qualifications essentielles en mati\u00e8re d\u2019\u00e9tudes et d\u2019exp\u00e9rience</strong> ainsi qu\u2019aux qualifications constituant un atout en mati\u00e8re d\u2019\u00e9tudes et d\u2019exp\u00e9rience (s\u2019il y a lieu). Les candidats sont pri\u00e9s de reprendre chacune des qualifications comme titre de rubrique et de fournir un exemple concret (maximum de deux paragraphes) d\u00e9montrant en quoi ils r\u00e9pondent \u00e0 chacune des exigences. Vous devez poss\u00e9der toutes les qualifications essentielles pour que votre candidature soit accept\u00e9e.</p>\n<p>\u00a0</p>\n<p><strong>Remarques</strong></p>\n<ul>\n<li>\n<p><strong><strong>On accordera la pr\u00e9f\u00e9rence aux affectations au m\u00eame niveau avant de recourir \u00e0 des nominations int\u00e9rimaires.\u00a0</strong></strong></p>\n</li>\n<li>\n<p><strong>Note importante</strong> : <strong>L\u2019affectation d\u2019un employ\u00e9 ne peut constituer une promotion</strong>. Les candidats retenus continueront \u00e0 \u00eatre r\u00e9mun\u00e9r\u00e9s selon le groupe et le niveau de leur poste d\u2019attache pour la dur\u00e9e de l\u2019affectation dans le poste CO-01 et r\u00e9int\u00e9greront leur poste d\u2019attache \u00e0 la fin de l\u2019affectation.\u00a0</p>\n</li>\n<li>\n<p>Les communications relatives au processus de s\u00e9lection se feront par courriel.</p>\n</li>\n</ul>\n<p>\u00a0</p>\n\n"
    },
    "breadcrumb": {
        "en": "Commercialization Officer",
        "fr": "Agent de commercialisation"
    },
    "empl": {
        "type": {
            "en": "Assignment, Acting",
            "fr": "Affectation, Int\u00e9rimaire"
        },
        "classification": {
            "en": "CO-1 and equivalent",
            "fr": "CO-1 et \u00e9quivalent"
        },
        "branch": {
            "en": "Science and Technology Branch",
            "fr": "Direction g\u00e9n\u00e9rale des sciences et de la technologie"
        },
        "locations": {
            "en": "Charlottetown, Ottawa, Lethbridge, Brandon or Saskatoon",
            "fr": "Charlottetown, Ottawa, Lethbridge, Brandon ou Saskatoon"
        },
        "date_closing": {
            "en": "2019-08-16",
            "fr": "2019-08-16"
        },
        "open_to": {
            "en": "Indeterminate AAFC employees working within 40 km of these centres",
            "fr": "Employ\u00e9s d'AAC nomm\u00e9s pour une p\u00e9riode ind\u00e9termin\u00e9e travaillant dans un rayon de 40 km de ces centres"
        },
        "name": {
            "en": "Anik Boivin",
            "fr": "Anik Boivin"
        },
        "email": {
            "en": "anik.boivin@canada.ca",
            "fr": "anik.boivin@canada.ca"
        }
    }
}