{
    "dcr_id": "1564165546301",
    "lang": "en",
    "title": {
        "en": "Executive Assistant to the ADM, Programs Branch",
        "fr": "Adjoint ex\u00e9cutif au Sous ministre adjoint de la Direction g\u00e9n\u00e9rale des programmes"
    },
    "modified": "2019-07-30 00:00:00.0",
    "issued": "2019-07-29 00:00:00.0",
    "type_name": "intra-intra/empl-empl",
    "node_id": "1279029955397",
    "layout_name": null,
    "dc_date_created": "2019-07-26",
    "breadcrumb_label": "",
    "meta": {
        "issued": {
            "en": "2019-07-29",
            "fr": "2019-07-29"
        },
        "modified": {
            "en": "2019-07-30",
            "fr": "2019-07-30"
        },
        "format": {
            "en": "gcformat",
            "fr": "gcformat"
        },
        "title": {
            "en": "Executive Assistant to the ADM, Programs Branch",
            "fr": "Adjoint ex\u00e9cutif au Sous ministre adjoint de la Direction g\u00e9n\u00e9rale des programmes"
        },
        "subject": {
            "en": "staffing",
            "fr": "dotation en personnel"
        },
        "language": {
            "en": "eng",
            "fr": "fra"
        },
        "audience": {
            "en": "gcaudience",
            "fr": "gcaudience"
        },
        "type": {
            "en": "notice",
            "fr": "avis"
        },
        "creator": {
            "en": "Agriculture and Agri-Food Canada",
            "fr": "Agriculture et Agroalimentaire Canada"
        },
        "spatial": {
            "en": "gcregions",
            "fr": "gcregions"
        },
        "service": {
            "en": "AAFC_AgriSource",
            "fr": "AAC_AgriSource"
        },
        "accessRights": {
            "en": "3",
            "fr": "3"
        }
    },
    "body": {
        "en": "\n<p>\u00a0</p>\n<p>Employees of Agriculture and Agri-Food Canada working in the NCR are invited to express their interest in an opportunity to work in Programs Branch ADM office as the Executive Assistant to the Assistant Deputy Minister.</p>\n<p><strong><br>The duties include but are not limited to:</strong></p>\n<ul>\n<li>Managing the Assistant Deputy Minister\u2019s (ADM), agenda including all logistics and documents for meetings and conference calls.</li>\n<li>Coordinating meetings and conferences including hospitality.</li>\n<li>Prioritizing commitments and deadlines and arranging for replacements to attend meetings/conferences declined by the ADM.</li>\n<li>Liaising with the offices of the Minister, other Senior Managers on an on-going basis and with officials from outside organizations to provide and obtain information on behalf of the ADM.</li>\n<li>Developing, recommending and implementing office procedures and systems to control the flow of documentation to meet evolving priorities.</li>\n<li>Supervising employees.</li>\n</ul>\n<p><strong><br><strong>Language requirements</strong></strong></p>\n<ul>\n<li>Bilingual imperative BBB/BBB</li>\n</ul>\n<p><strong><br>Education</strong></p>\n<p>A secondary school diploma or an acceptable combination of education, training and/or experience.</p>\n<p><a href=\"http://www.canada.ca/en/public-service-commission/jobs/services/gc-jobs/information-candidates/degree-equivalency.html\">Degree equivalency</a></p>\n<p><strong><br>Essential Experiences</strong></p>\n<ul>\n<li>Recent* and significant** experience in planning, managing and organizing the daily activities for a Senior Manager*** which includes managing a senior manager\u2019s calendar, organizing meetings and events including hospitality, preparing travel arrangements and claims and managing a high volume of correspondence.</li>\n<li>Significant** experience preparing, editing, &amp; proofreading documents for approval.</li>\n<li>Significant** experience liaising on an ongoing basis with senior officials (Director level or above) on administrative matters and dealing with internal and external clients/stakeholders.</li>\n<li>Experience using an electronic file management tracking system and Microsoft Office.</li>\n</ul>\n<p><br>\n<em>* Recent is defined as within the last 5 years</em><br>\n<em>** Significant is defined as experience normally associated with full-time performance of duties acquired over a period of approximately 1 year.</em><br>\n<em>*** Senior Manager is defined as the Director level or equivalent and above.</em></p>\n<p><strong><br>Abilities</strong></p>\n<p>Ability to communicate effectively orally.<br>\nAbility to communicate effectively in writing.</p>\n<p><strong><br>Competencies</strong></p>\n<p>Initiative<br>\nJudgement<br>\nPlanning and Organizing<br>\nRelationship Building<br>\nClient Focus<br>\nAttention to detail<br>\nDependability</p>\n<p><strong><br>Asset experiences</strong></p>\n<p>Experience in managing a budget and processing financial expenditures for a team.<br>\nExperience in providing advice to managers and directors related to human resource management, administrative service, budgeting and resource allocation control.<br>\nExperience in planning, organizing, managing and delivering projects.<br>\nExperience in handling and processing sensitive and confidential information for approvals.<br>\nExperience in processing access to information and privacy requests.<br>\nExperience using a correspondence tracking system such as TRECS or CCM Mercury.<br>\nExperience in developing office procedures.<br>\nExperience in negotiating deadlines for completing documents.<br>\nExperience supervising employee(s).</p>\n<p><strong><br>Applications</strong></p>\n<p>If you are an indeterminate AS-04 employee and are interested in this opportunity, please provide:</p>\n<ul>\n<li>a short letter (2 pages maximum) expressing why you are interested in the position and the skills, experience and knowledge you would bring to the position of <strong>Executive Assistant to the ADM ; </strong>and</li>\n<li>your resume.</li>\n</ul>\n<p>If you are not at an AS-04 equivalent level and are interested in an acting opportunity, please provide:</p>\n<ul>\n<li>a cover letter explaining clearly how you meet the education and experiences related to this opportunity<strong>; </strong>and</li>\n<li>your resume.</li>\n</ul>\n<p>Send all documents to Julie Desroches at <a href=\"mailto:julie.desroches@canada.ca\">julie.desroches@canada.ca</a> by Tuesday August 6, 2019.</p>\n<p><strong><br>Notes:</strong></p>\n<ul>\n<li>Communication for this process will be sent via email.</li>\n<li>A pool of qualified candidates may be established and may be used to staff similar positions.</li>\n<li>Candidates who are looking for an assignment or acting opportunity must have their manager\u2019s approval prior to applying.</li>\n<li>Candidates may be assessed through an interview.</li>\n<li>Your cover letter may be used to assess your communication and writing skills.</li>\n<li>A written exam may be administered.</li>\n<li>Reference checks may be sought.</li>\n</ul>\n<p>\u00a0</p>\n",
        "fr": "\n<div>\u00a0</div>\n<div>Les employ\u00e9s d\u2019Agriculture et agroalimentaire Canada dans la RCN sont invit\u00e9s d\u2019exprimer leur int\u00e9r\u00eat pour une opportunit\u00e9 de travailler dans le Bureau du sous-ministre adjoint de la Direction g\u00e9n\u00e9rale des programmes en tant qu\u2019adjoint ex\u00e9cutif.</div>\n<div><strong><br>La personne accomplira entre autres les fonctions suivantes :</strong></div>\n<ul>\n<li>G\u00e9rer l\u2019agenda du Sous-ministre adjointe (SMA), notamment tous les aspects logistiques et les documents li\u00e9s aux r\u00e9unions et aux t\u00e9l\u00e9conf\u00e9rences.</li>\n<li>Coordonner les r\u00e9unions et conf\u00e9rences, y compris les activit\u00e9s d\u2019accueil.</li>\n<li>Classer les engagements et les \u00e9ch\u00e9ances par ordre de priorit\u00e9, et pr\u00e9voir des rempla\u00e7ants pour les r\u00e9unions et conf\u00e9rences auxquelles le SMA ne peut assister.</li>\n<li>Assurer la liaison avec le cabinet du ministre et les bureaux d\u2019autres cadres sup\u00e9rieurs de fa\u00e7on continue ainsi qu\u2019avec des repr\u00e9sentants officiels d\u2019autres organisations pour fournir et obtenir de l\u2019information au nom du SMA.</li>\n<li>\u00c9laborer, recommander et mettre en \u0153uvre des proc\u00e9dures administratives et des syst\u00e8mes pour contr\u00f4ler la circulation des documents en fonction des priorit\u00e9s changeantes.</li>\n<li>Superviser des employ\u00e9s.</li>\n</ul>\n<div>\n<strong><br>Exigences linguistiques</strong></div>\n<ul>\n<li>Bilingue imp\u00e9ratif BBB/BBB</li>\n</ul>\n<div><strong>\n<div><strong><br>\u00c9ducation</strong></div>\n</strong></div>\n<div>Dipl\u00f4me d\u2019\u00e9tudes secondaires ou un agencement acceptable d\u2019\u00e9tudes, de formation et (ou) d\u2019exp\u00e9rience.</div>\n<div><a href=\"http://www.canada.ca/fr/commission-fonction-publique/emplois/services/emplois-gc/renseignements-candidats/equivalence-diplomes.html\">\u00c9quivalence des dipl\u00f4mes</a></div>\n<div><strong><br>Exp\u00e9riences essentielles</strong></div>\n<ul>\n<li>Exp\u00e9rience r\u00e9cente* et appr\u00e9ciable** de la planification, de la gestion et de l\u2019organisation des activit\u00e9s quotidiennes pour un cadre sup\u00e9rieur***, notamment g\u00e9rer son calendrier, organiser des r\u00e9unions et des \u00e9v\u00e9nements, y compris les activit\u00e9s d\u2019accueil, organiser les d\u00e9placements et pr\u00e9parer les demandes de remboursement des frais de d\u00e9placement et g\u00e9rer un volume \u00e9lev\u00e9 de correspondance.</li>\n<li>Exp\u00e9rience appr\u00e9ciable** de la pr\u00e9paration, de la r\u00e9vision et de la correction d\u2019\u00e9preuves de documents aux fins d\u2019approbation.</li>\n<li>Exp\u00e9rience appr\u00e9ciable** de la liaison continue avec les cadres sup\u00e9rieurs (directeurs ou niveau sup\u00e9rieur) sur des questions administratives et de la collaboration avec des clients et des intervenants internes et externes.</li>\n<li>Exp\u00e9rience de l\u2019utilisation d\u2019un syst\u00e8me \u00e9lectronique de gestion et de suivi des dossiers et des logiciels de Microsoft Office.</li>\n</ul>\n<div><br>\n<em>* On entend par \u00ab exp\u00e9rience r\u00e9cente \u00bb une exp\u00e9rience normalement acquise au cours des 5 derni\u00e8res ann\u00e9es.</em><br>\n<em>** On entend par \u00ab exp\u00e9rience appr\u00e9ciable \u00bb une exp\u00e9rience normalement rattach\u00e9e \u00e0 l\u2019ex\u00e9cution de fonctions \u00e0 temps plein pendant environ un an.</em><br>\n<em>*** \u00ab cadre sup\u00e9rieur \u00bb est d\u00e9fini comme le niveau Directeur ou \u00e9quivalent et plus haut. </em></div>\n<div><strong><br>Capacit\u00e9s</strong></div>\n<div>Capacit\u00e9 de communiquer efficacement \u00e0 l\u2019oral<br>\nCapacit\u00e9 de communiquer efficacement par \u00e9crit</div>\n<div><strong><br>Comp\u00e9tences</strong></div>\n<div>Esprit d\u2019initiative<br>\nJugement<br>\nPlanification et organisation<br>\n\u00c9tablissement de relations<br>\nSouci du service \u00e0 la client\u00e8le<br>\nSouci du d\u00e9tail<br>\nFiabilit\u00e9</div>\n<div><strong><br>Exp\u00e9riences constituant un atout</strong></div>\n<div>Exp\u00e9rience de la gestion budg\u00e9taire et du traitement des d\u00e9penses pour une \u00e9quipe.<br>\nExp\u00e9rience de la prestation de conseils \u00e0 des gestionnaires et \u00e0 des directeurs en ce qui concerne la gestion des ressources humaines, les services administratifs, la budg\u00e9tisation et le contr\u00f4le de l\u2019allocation des ressources.<br>\nExp\u00e9rience de la planification, de l\u2019organisation, de la gestion et de la r\u00e9alisation de projets.<br>\nExp\u00e9rience de la manipulation et du traitement de renseignements confidentiels et de nature d\u00e9licate aux fins d\u2019approbation.<br>\nExp\u00e9rience du traitement de demandes d\u2019acc\u00e8s \u00e0 l\u2019information et de protection des renseignements personnels.<br>\nExp\u00e9rience du traitement de demandes d\u2019acc\u00e8s \u00e0 l\u2019information et de protection des renseignements personnels.<br>\nExp\u00e9rience de l\u2019\u00e9laboration de proc\u00e9dures administratives.<br>\nExp\u00e9rience \u00e0 n\u00e9gocier des d\u00e9lais pour compl\u00e9ter des documents.<br>\nExp\u00e9rience de la supervision d\u2019employ\u00e9(s).</div>\n<div><strong><br>Applications:</strong></div>\n<div>Si vous \u00eates un employ\u00e9 ind\u00e9termin\u00e9 \u00e0 un niveau AS-04 ou \u00e9quivalent et que cette possibilit\u00e9 vous int\u00e9resse, veuillez fournir :</div>\n<ul>\n<li>une courte lettre (2 pages maximum) expliquant pourquoi ce poste vous int\u00e9resse et les habilet\u00e9s, les exp\u00e9riences et les connaissances que vous apporterez au poste <strong>d\u2019adjoint ex\u00e9cutif au Sous ministre adjoint de la Direction g\u00e9n\u00e9rale des programmes</strong>; et</li>\n<li>votre curriculum vitae.</li>\n</ul>\n<div>Si vous n\u2019\u00eates pas \u00e0 un niveau AS-04 ou \u00e9quivalent et que cette possibilit\u00e9 d\u2019int\u00e9rimaire vous int\u00e9resse, veuillez fournir :</div>\n<ul>\n<li>une lettre expliquant clairement comment vous rencontrez l\u2019\u00e9ducation et les exp\u00e9riences li\u00e9es \u00e0 cette opportunit\u00e9 ; et</li>\n<li>votre curriculum vitae.</li>\n</ul>\n<div>Veuillez envoyer tous les documents \u00e0 Julie Desroches \u00e0 <a href=\"mailto:julie.desroches@canada.ca\">julie.desroches@canada.ca</a> d\u2019ici lundi le 6 ao\u00fbt, 2019.</div>\n<div><strong><br>Notes: </strong></div>\n<ul>\n<li>Toute communication relative \u00e0 ce processus sera faite par courriel.</li>\n<li>Un bassin de candidats qualifi\u00e9s pourrait \u00eatre \u00e9tablie et utilis\u00e9 pour doter des postes semblables.</li>\n<li>Les candidates qui veulent \u00eatre consid\u00e9r\u00e9 pour une affectation ou un int\u00e9rimaire doivent obtenir l\u2019approbation de leur gestionnaire avant de postuler pour cette opportunit\u00e9.</li>\n<li>Les candidats peuvent \u00eatre \u00e9valu\u00e9s lors d\u2019une entrevue.</li>\n<li>Votre lettre de pr\u00e9sentation pourrait \u00eatre utilis\u00e9e pour \u00e9valuer votre capacit\u00e9 de communiquer efficacement par \u00e9crit.</li>\n<li>Un examen \u00e9crit pourrait \u00eatre administr\u00e9.</li>\n<li>Une v\u00e9rification des r\u00e9f\u00e9rences pourrait \u00eatre faite</li>\n</ul>\n<div>\u00a0</div>\n\n"
    },
    "breadcrumb": {
        "en": "Executive Assistant to the ADM, Programs Branch",
        "fr": "Adjoint ex\u00e9cutif au Sous ministre adjoint de la Direction g\u00e9n\u00e9rale des programmes"
    },
    "empl": {
        "type": {
            "en": "Assignment, Deployment, Acting",
            "fr": "Affectation, Mutation, Int\u00e9rimaire"
        },
        "classification": {
            "en": "AS-4 and equivalent",
            "fr": "AS-4 et \u00e9quivalent"
        },
        "branch": {
            "en": "Programs Branch",
            "fr": "Direction g\u00e9n\u00e9rale des programmes"
        },
        "locations": {
            "en": "Ottawa, Ontario",
            "fr": "Ottawa (Ontario)"
        },
        "date_closing": {
            "en": "2019-08-06",
            "fr": "2019-08-06"
        },
        "open_to": {
            "en": "All AAFC employees working in the NCR.",
            "fr": "Tous les employ\u00e9s d\u2019AAC situ\u00e9s dans la RCN"
        },
        "name": {
            "en": "Julie Desroches",
            "fr": "Julie Desroches"
        },
        "email": {
            "en": "julie.desroches@canada.ca",
            "fr": "julie.desroches@canada.ca"
        }
    }
}