{
    "dcr_id": "1566824223507",
    "lang": "en",
    "title": {
        "en": "Deputy Director - Innovation and Growth Policy",
        "fr": "Directeur adjoint/directrice adjointe \u2013 Politiques sur l\u2019innovation et la croissance"
    },
    "modified": "2019-09-06 00:00:00.0",
    "issued": "2019-08-27 00:00:00.0",
    "type_name": "intra-intra/empl-empl",
    "node_id": "1279029955397",
    "layout_name": null,
    "dc_date_created": "2019-08-26",
    "breadcrumb_label": "",
    "meta": {
        "issued": {
            "en": "2019-08-27",
            "fr": "2019-08-27"
        },
        "modified": {
            "en": "2019-09-06",
            "fr": "2019-09-06"
        },
        "format": {
            "en": "gcformat",
            "fr": "gcformat"
        },
        "title": {
            "en": "Deputy Director - Innovation and Growth Policy",
            "fr": "Directeur adjoint/directrice adjointe \u2013 Politiques sur l\u2019innovation et la croissance"
        },
        "subject": {
            "en": "staffing",
            "fr": "dotation en personnel"
        },
        "language": {
            "en": "eng",
            "fr": "fra"
        },
        "audience": {
            "en": "gcaudience",
            "fr": "gcaudience"
        },
        "type": {
            "en": "notice",
            "fr": "avis"
        },
        "creator": {
            "en": "Agriculture and Agri-Food Canada",
            "fr": "Agriculture et Agroalimentaire Canada"
        },
        "spatial": {
            "en": "gcregions",
            "fr": "gcregions"
        },
        "service": {
            "en": "AAFC_AgriSource",
            "fr": "AAC_AgriSource"
        },
        "accessRights": {
            "en": "3",
            "fr": "3"
        }
    },
    "body": {
        "en": "\n<p>\u00a0</p>\n<p>Employees of Agriculture and Agri-Food Canada (AAFC) at the EC-06 or EC-07 (or equivalents) across Canada are invited to express their interest in a one year acting or assignment at the EC-07 level with the possibility of extension or deployment, if a candidate at level is identified.</p>\n<p>This opportunity could be used to fill similar positions in the Division, Directorate or Branch.</p>\n<p>Innovation and Growth Policy Division provides strategic policy analysis and advice on the agricultural innovation system, cross-sectoral innovation issues, the bioeconomy, biotechnology and emerging technologies in agriculture and regulatory policy and transformation. The team collaborates with colleagues within the agricultural portfolio and with other government departments, industry, and academia to strengthen the competitiveness, sustainability and profitability of the Canadian agricultural and agri-food sector through innovation.</p>\n<p>Responsibilities will include leading a team responsible for policy development work which includes research and analysis to support decision-making.</p>\n<p><strong><br>Conditions of Employment:</strong><br>\n<br>Security: Secret clearance is required.</p>\n<p>Ability and willingness to work overtime on short notice.</p>\n<p><strong><br>Statement of Merit Criteria: </strong></p>\n<p><strong><br>Essential Qualifications</strong></p>\n<p><strong><br>Language:</strong> Various<strong> </strong></p>\n<p><strong><br>Education:</strong><br>\n<br>Graduation with a degree from a recognized post-secondary institution with acceptable specialization in economics, sociology or statistics.</p>\n<p>Candidates must always have a degree. The courses for the specialization must be acceptable and may have been taken at a recognized post-secondary institution, but not necessarily within a degree program in the required specialization. The specialization may also be obtained through an acceptable combination of education, training and/or experience.<br>\n<br>\n<strong><br>Experience:</strong><br>\n<br>Experience in providing strategic advice to senior* managers.</p>\n<p>Experience in leading the development of policy related to the agriculture and agri-food sector.</p>\n<p>Experience in managing.</p>\n<p>*Senior managers is defined as Director General Level and above</p>\n<p><strong><br>Knowledge:</strong><br>\n<br>Knowledge of policy and programming related to Agriculture .</p>\n<p><strong><br>Competencies:</strong><br>\n<br>Strategic Thinking<br>\n<br>Initiative<br>\n<br>Interactive Communication<br>\n<br>Writing Skills<br>\n<br>Adaptability<br>\n<br>Teamwork<br>\n<br>Judgement</p>\n<p><strong><br>Asset Qualifications:</strong><br>\n<br>Experience managing human resources and financial resources;</p>\n<p>Experience in providing strategic advice to senior* managers related to innovation and growth policy and programming.</p>\n<p>Experience in leading the development of innovation and growth policy related to the agriculture and agri-food sector.</p>\n<p>Experience working with central agencies, other federal departments, and/or stakeholders.</p>\n<p>Knowledge of innovation and growth policy and programming related to agriculture.</p>\n<p>*Senior Managers is defined as DG level and above.</p>\n<p><strong><br>Organizational Needs:</strong><br>\n<br>In support of achieving a diversified workforce, consideration may be given to candidates self-identifying as belonging to one of the following Employment Equity groups: Aboriginal peoples, Persons with a Disability; Visible Minorities, Women.</p>\n<p><strong><br>Applications:</strong><br>\n<br>Interested AAFC employees are encouraged to forward their resume and cover letter to\u00a0Julie Levert\u00a0with the following information:</p>\n<p>\u2022 Your tenure (e.g., term or indeterminate);<br>\n\u2022 Your substantive group and level; and<br>\n\u2022 How you meet the essential and asset qualifications.</p>\n<p>\u00a0</p>\n",
        "fr": "\n<p>\u00a0</p>\n<p>Les employ\u00e9s d\u2019Agriculture et Agroalimentaire Canada (AAC) occupant un poste au niveau EC-06 ou EC-07 (ou l\u2019\u00e9quivalent) au Canada sont invit\u00e9s \u00e0 manifester leur int\u00e9r\u00eat pour un int\u00e9rim d\u2019un an au niveau EC-07, avec possibilit\u00e9 de prolongation ou de mutation, si un candidat (e) \u00e0 niveau est identifi\u00e9.</p>\n<p>Le pr\u00e9sent possibilit\u00e9 d'emploi pourrait servir \u00e0 doter des postes semblables au sein de la Division, de la Direction ou de la Direction g\u00e9n\u00e9rale.</p>\n<p>La Division des politiques sur l\u2019innovation et la croissance fournit des analyses des politiques strat\u00e9giques et donne des conseils sur le syst\u00e8me d\u2019innovation agricole, les enjeux intersectoriels de l\u2019innovation, la bio\u00e9conomie, la biotechnologie, les technologies \u00e9mergentes en agriculture, les politiques r\u00e9glementaires et la transformation. L\u2019\u00e9quipe collabore avec des coll\u00e8gues du portefeuille agroalimentaire ainsi qu\u2019avec d\u2019autres minist\u00e8res, l\u2019industrie et le milieu universitaire afin de renforcer la comp\u00e9titivit\u00e9, la durabilit\u00e9 et la rentabilit\u00e9 du secteur agricole et agroalimentaire canadien par le biais de l\u2019innovation.</p>\n<p>Les responsabilit\u00e9s incluront la direction d\u2019une \u00e9quipe charg\u00e9e de l\u2019\u00e9laboration de politiques, ce qui comprend la r\u00e9alisation de recherches et d\u2019analyses \u00e0 l\u2019appui de la prise de d\u00e9cisions.</p>\n<p><strong><br>Conditions d\u2019emploi : </strong></p>\n<p>D\u00e9tenir une cote de s\u00e9curit\u00e9 de niveau \u00ab Secret \u00bb.</p>\n<p>\u00catre dispos\u00e9 et apte \u00e0 faire des heures suppl\u00e9mentaires \u00e0 court pr\u00e9avis.</p>\n<p><strong><br>\u00c9nonc\u00e9 des crit\u00e8res de m\u00e9rite : </strong><br>\n<br>\n<strong><br>Qualifications essentielles</strong></p>\n<p><strong><br>Exigences linguistiques :</strong> Diverses<strong> </strong></p>\n<p><strong><br>\u00c9tudes : </strong><br>\n<br>Grade d\u2019un \u00e9tablissement d\u2019enseignement postsecondaire reconnu avec sp\u00e9cialisation acceptable en \u00e9conomie, en sociologie ou en statistique.<br>\n<br>\nLes candidats doivent obligatoirement poss\u00e9der un dipl\u00f4me. Les cours li\u00e9s \u00e0 la sp\u00e9cialisation doivent \u00eatre acceptables et peuvent avoir \u00e9t\u00e9 suivis dans un \u00e9tablissement d\u2019enseignement postsecondaire reconnu, mais pas n\u00e9cessairement dans le cadre d\u2019un programme d\u2019\u00e9tudes postsecondaires dans la sp\u00e9cialit\u00e9 demand\u00e9e. La sp\u00e9cialisation peut aussi \u00eatre obtenue par une combinaison acceptable d\u2019\u00e9tudes, de formation et/ou d\u2019exp\u00e9rience.<br>\n<br>\n<strong><br>Exp\u00e9rience:</strong><br>\n<br>Exp\u00e9rience de l\u2019offre de conseils strat\u00e9giques \u00e0 des cadres sup\u00e9rieurs*.</p>\n<p>Exp\u00e9rience de la direction de l\u2019\u00e9laboration de politiques li\u00e9es au secteur agricole et agroalimentaire.</p>\n<p>Exp\u00e9rience de la gestion d\u2019\u00e9quipes de travail.</p>\n<p>*On entend par \u00ab cadres sup\u00e9rieurs \u00bb les personnes occupant un poste de directeur g\u00e9n\u00e9ral ou de niveau sup\u00e9rieur.</p>\n<p><strong><br>Connaissances :</strong><br>\n<br>Connaissance des politiques et des programmes li\u00e9s \u00e0 l\u2019agriculture.</p>\n<p><strong><br>Comp\u00e9tences:</strong><br>\n<br>R\u00e9flexion strat\u00e9gique<br>\n<br>Sens de l\u2019initiative<br>\n<br>Communication interactive<br>\n<br>Comp\u00e9tences en r\u00e9daction<br>\n<br>Facult\u00e9 d\u2019adaptation<br>\n<br>Esprit d\u2019\u00e9quipe<br>\n<br>Jugement</p>\n<p><strong><br>Qualifications constituant un atout :</strong><br>\n<br>Exp\u00e9rience de la gestion de ressources humaines et financi\u00e8res.</p>\n<p>Exp\u00e9rience de l\u2019offre de conseils strat\u00e9giques \u00e0 des cadres sup\u00e9rieurs* en ce qui concerne les politiques et les programmes sur l\u2019innovation et la croissance.</p>\n<p>Exp\u00e9rience de la direction de l\u2019\u00e9laboration de politiques sur l\u2019innovation et la croissance li\u00e9es au secteur agricole et agroalimentaire.</p>\n<p>Exp\u00e9rience de travail au sein d\u2019organismes centraux ou d\u2019autres minist\u00e8res f\u00e9d\u00e9raux ou chez des intervenants.</p>\n<p>Connaissance des politiques et des programmes sur l\u2019innovation et la croissance touchant l\u2019agriculture.</p>\n<p>*On entend par \u00ab cadres sup\u00e9rieurs \u00bb les personnes occupant un poste de directeur g\u00e9n\u00e9ral ou de niveau sup\u00e9rieur.</p>\n<p><strong><br>Besoins organisationnels : </strong><br>\n<br>Pour les besoins de la diversification de l\u2019effectif, la pr\u00e9f\u00e9rence pourrait \u00eatre accord\u00e9e aux candidats qui auront indiqu\u00e9 leur appartenance \u00e0 l\u2019un des groupes suivants, vis\u00e9s par l\u2019\u00e9quit\u00e9 en mati\u00e8re d\u2019emploi : Autochtones, personnes handicap\u00e9es, membres d\u2019une minorit\u00e9 visible, femmes.<br>\n<br>\n<strong><br>Candidatures :</strong><br>\n<br>On encourage les employ\u00e9s d\u2019AAC int\u00e9ress\u00e9s \u00e0 envoyer leur curriculum vitae et une lettre de pr\u00e9sentation \u00e0 Julie Levert; assurez-vous d\u2019inclure l\u2019information suivante :</p>\n<p>\u2022 Votre poste d\u2019attache (p. ex. dur\u00e9e d\u00e9termin\u00e9e ou ind\u00e9termin\u00e9e);<br>\n\u2022 Le groupe et le niveau de votre poste d\u2019attache;<br>\n\u2022 En quoi vous poss\u00e9dez les qualifications essentielles et les qualifications constituant un atout.</p>\n<p>\u00a0</p>\n\n"
    },
    "breadcrumb": {
        "en": "Deputy Director - Innovation and Growth Policy",
        "fr": "Directeur adjoint/directrice adjointe \u2013 Politiques sur l\u2019innovation et la croissance"
    },
    "empl": {
        "type": {
            "en": "Assignment, Acting",
            "fr": "Affectation, Int\u00e9rimaire"
        },
        "classification": {
            "en": "EC-7",
            "fr": "EC-7"
        },
        "branch": {
            "en": "Strategic Policy Branch",
            "fr": "Direction g\u00e9n\u00e9rale des politiques strat\u00e9giques"
        },
        "locations": {
            "en": "National Capital Region (NCR)",
            "fr": "R\u00e9gion de la capitale nationale (RCN)"
        },
        "date_closing": {
            "en": "2019-09-13",
            "fr": "2019-09-13"
        },
        "open_to": {
            "en": "AAFC Employees at the EC-06 or EC-07 Group and level (or equivalents) across Canada",
            "fr": "Employ\u00e9s d\u2019AAC de groupe et niveau EC-06 ou EC-07 (ou l\u2019\u00e9quivalent) au Canada"
        },
        "name": {
            "en": "Julie Levert",
            "fr": "Julie Levert"
        },
        "email": {
            "en": "julie.levert@canada.ca",
            "fr": "julie.levert@canada.ca"
        }
    }
}