{
    "dcr_id": "1567102881365",
    "lang": "en",
    "title": {
        "en": "Reminder - Student Orientation Session - September 19",
        "fr": "Rappel - S\u00e9ance d'orientation pour les \u00e9tudiants - Le 19 septembre"
    },
    "modified": "2019-09-11 00:00:00.0",
    "issued": "2019-09-05 00:00:00.0",
    "type_name": "intra-intra/news-nouv",
    "node_id": "1279030006975",
    "layout_name": null,
    "dc_date_created": "2019-09-03",
    "breadcrumb_label": "",
    "meta": {
        "issued": {
            "en": "2019-09-05",
            "fr": "2019-09-05"
        },
        "modified": {
            "en": "2019-09-11",
            "fr": "2019-09-11"
        },
        "format": {
            "en": "gcformat",
            "fr": "gcformat"
        },
        "title": {
            "en": "Reminder - Student Orientation Session - September 19",
            "fr": "Rappel - S\u00e9ance d'orientation pour les \u00e9tudiants - Le 19 septembre"
        },
        "subject": {
            "en": "communications",
            "fr": "communications"
        },
        "description": {
            "en": "The Student Panel of Representatives for Orientation, Unity, and Training (SPROUT) is planning an orientation session for AAFC students across the country.",
            "fr": "Le Programme de l'orientation, de l'unit\u00e9 et de la sensibilisation des stagiaires et \u00e9tudiants(es) (POUSSE) organise une s\u00e9ance d\u2019orientation pour les \u00e9tudiants(es) d\u2019AAC partout au pays."
        },
        "language": {
            "en": "eng",
            "fr": "fra"
        },
        "audience": {
            "en": "gcaudience",
            "fr": "gcaudience"
        },
        "creator": {
            "en": "Agriculture and Agri-Food Canada",
            "fr": "Agriculture et Agroalimentaire Canada"
        },
        "spatial": {
            "en": "gcregions",
            "fr": "gcregions"
        },
        "service": {
            "en": "AAFC_AgriSource",
            "fr": "AAC_AgriSource"
        },
        "accessRights": {
            "en": "3",
            "fr": "3"
        }
    },
    "body": {
        "en": "<br>\n<br>\n<p>The Student Panel of Representatives for Orientation, Unity, and Training (SPROUT) is planning an orientation session for AAFC students across the country. Students will have the opportunity to hear from the Deputy Minister, Chris Forbes, as well as former students to learn useful tips for a successful work term.</p>\n<h2><strong>Event information</strong></h2>\n<p><strong>Date: </strong>Thursday, September 19<br>\n<strong>Time: </strong>11:00 a.m. to 1:00 p.m. (ET)<br>\n<strong>Location: </strong>T3-1-351 at NHCAP (Ottawa), 167L-10-A at 167 Lombard (Winnipeg)<br>\n<strong>Videoconference:</strong> For those outside of the National Capital Region, we ask that hiring managers book a room with videoconference (VC) capability so that their students can participate. The <strong>VC number</strong> is: 76137730377 (<strong>guest PIN</strong>: 3376).</p>\n<p>We encourage students old and new to participate in this orientation session! Students who are unable to attend can reach out to SPROUT at <a href=\"mailto:aafc.sprout-pousse.aac@canada.ca\">aafc.sprout-pousse.aac@canada.ca</a>, and we will be happy to welcome you to AAFC.</p>\n<p>\u00a0</p>\n<p><img src=\"https://intranet.agr.gc.ca/resources/prod/news/images/SPROUT-EN.png\" class=\"center-block\"></p>\n\n\t\t",
        "fr": "<br>\n<br>\n<p>Le Programme de l\u2019orientation, de l\u2019unit\u00e9 et de la sensibilisation des stagiaires et \u00e9tudiant(e)s (POUSSE) organise une s\u00e9ance d\u2019orientation pour les \u00e9tudiant(e)s d\u2019AAC partout au pays. \u00c0 cette occasion, les \u00e9tudiant(e)s entendront le sous-ministre, Chris Forbes, et d\u2019anciens \u00e9tudiant(e)s et obtiendront des conseils utiles pour faire de leur stage une exp\u00e9rience fructueuse.</p>\n<p><strong>Date : </strong>Le 19 septembre<br>\n<strong>Heure : </strong>De 11 h \u00e0 13 h 00 (HE)<br>\n<strong>Lieu : </strong>T3-1-351 au CACPA (Ottawa), 167L-10-A \u00e0 167 Lombard (Winnipeg)<br>\n<strong>Vid\u00e9oconf\u00e9rence :</strong> \u00c0 l\u2019ext\u00e9rieur de la r\u00e9gion de la capitale nationale, nous demandons aux gestionnaires recruteurs de r\u00e9server une salle de vid\u00e9oconf\u00e9rence (VC) pour permettre \u00e0 leurs \u00e9tudiants de participer \u00e0 la s\u00e9ance. <strong>Num\u00e9ro de la VC</strong> : 76137730377 (<strong>NIP d\u2019invit\u00e9</strong> : 3376).</p>\n<p>Nous encourageons tous les \u00e9tudiant(e)s \u2013 ceux qui font un premier stage \u00e0 AAC et ceux qui y reviennent \u2013 \u00e0 participer \u00e0 la s\u00e9ance d\u2019orientation! Si vous \u00eates un \u00e9tudiant(e) et vous ne pourrez pas assister \u00e0 la s\u00e9ance d'orientation, veuillez contacter POUSSE \u00e0 <a href=\"mailto:aafc.sprout-pousse.aac@canada.ca\">aafc.sprout-pousse.aac@canada.ca</a> pour que nous puissions vous accueillir au minist\u00e8re.</p>\n<p><img src=\"https://intranet.agr.gc.ca/resources/prod/news/images/SPROUT-FR.png\" class=\"center-block\" alt=\"\"></p>\n\t\t"
    },
    "breadcrumb": {
        "en": "Reminder - Student Orientation Session - September 19",
        "fr": "Rappel - S\u00e9ance d'orientation pour les \u00e9tudiants - Le 19 septembre"
    },
    "news": {
        "date_posted": {
            "en": "2019-09-05",
            "fr": "2019-09-05"
        },
        "to": {
            "en": "All staff",
            "fr": "Tous les employ\u00e9s"
        },
        "by": {
            "en": "Student Panel of Representatives for Orientation, Unity, and Training (SPROUT)",
            "fr": "Le Programme de l\u2019orientation, de l\u2019unit\u00e9 et de la sensibilisation des stagiaires et \u00e9tudiants (POUSSE)"
        }
    }
}