{
    "dcr_id": "1567517546875",
    "lang": "en",
    "title": {
        "en": "September 10 is World Suicide Prevention Day",
        "fr": "Le 10 septembre est la Journ\u00e9e mondiale de la pr\u00e9vention du suicide"
    },
    "modified": "2019-09-05 00:00:00.0",
    "issued": "2019-09-05 00:00:00.0",
    "type_name": "intra-intra/news-nouv",
    "node_id": "1279030006975",
    "layout_name": null,
    "dc_date_created": "2019-09-04",
    "breadcrumb_label": "",
    "meta": {
        "issued": {
            "en": "2019-09-05",
            "fr": "2019-09-05"
        },
        "modified": {
            "en": "2019-09-05",
            "fr": "2019-09-05"
        },
        "format": {
            "en": "gcformat",
            "fr": "gcformat"
        },
        "title": {
            "en": "September 10 is World Suicide Prevention Day",
            "fr": "Le 10 septembre est la Journ\u00e9e mondiale de la pr\u00e9vention du suicide"
        },
        "subject": {
            "en": "communications",
            "fr": "communications"
        },
        "description": {
            "en": "Every year, suicide is among the top 20 leading causes of death globally for people of all ages.",
            "fr": "Chaque ann\u00e9e, le suicide figure parmi les vingt principales causes de d\u00e9c\u00e8s dans le monde pour les personnes de tous \u00e2ges."
        },
        "language": {
            "en": "eng",
            "fr": "fra"
        },
        "audience": {
            "en": "gcaudience",
            "fr": "gcaudience"
        },
        "creator": {
            "en": "Agriculture and Agri-Food Canada",
            "fr": "Agriculture et Agroalimentaire Canada"
        },
        "spatial": {
            "en": "gcregions",
            "fr": "gcregions"
        },
        "service": {
            "en": "AAFC_AgriSource",
            "fr": "AAC_AgriSource"
        },
        "accessRights": {
            "en": "3",
            "fr": "3"
        }
    },
    "body": {
        "en": "<br>\n<br>\n<p>Every year, suicide is among the top 20 leading causes of death globally for people of all ages. A person dies every 40 seconds by suicide and up to 25 times more make a suicide attempt. Many people have been bereaved by suicide or have been close to someone who has attempted suicide. For each suicide, approximately 135 people suffer intense grief or are otherwise affected.</p>\n<p>As a colleague, a parent, a child, a family member or a friend, you can make a difference by simply helping to raise awareness, showing compassion for those struggling, and educating yourself and others about the warning signs and causes of suicide.</p>\n<p>The Employee and Family Assistance Program (EFAP) offers confidential support and guidance for AAFC employees and their families on a wide range of issues. The services are accessible 24/7 by phone at 1-844-880-9143 or online at <a href=\"https://www.workhealthlife.com/?explicitSoftLogin=true\">workhealthlife.com</a>. Local crisis support is also available across Canada. To find a distress centre near you, visit <a href=\"http://www.crisisservicescanada.ca/en/\">Crisis Services Canada\u2019s website</a>.</p>\n<p><strong>If you or someone you know is in immediate distress please call 911. </strong></p>\n\n\t\t",
        "fr": "<br>\n<br>\n<p>Chaque ann\u00e9e, le suicide figure parmi les vingt principales causes de d\u00e9c\u00e8s dans le monde pour les personnes de tous \u00e2ges. Toutes les 40 secondes, une personne se suicide et le nombre de tentatives de suicide est 25 fois plus \u00e9lev\u00e9. Un nombre encore plus grand de personnes sont laiss\u00e9es dans le deuil ou ont un proche ayant fait une tentative de suicide. Pour chaque suicide, environ 135 personnes souffrent d\u2019un deuil intense ou sont autrement touch\u00e9es.</p>\n<p>En tant que coll\u00e8gue, parent, enfant, membre de la famille ou ami, vous pouvez changer les choses en aidant \u00e0 sensibiliser les gens, en faisant preuve de compassion envers ceux qui \u00e9prouvent des difficult\u00e9s et en vous renseignant, vous et les autres, sur les signes pr\u00e9curseurs et les causes du suicide.</p>\n<p>Le Programme d\u2019aide aux employ\u00e9s et \u00e0 la famille (PAEF) offre un soutien et des conseils confidentiels aux employ\u00e9s d\u2019AAC et \u00e0 leur famille sur un large \u00e9ventail de questions. Les services sont accessibles 24 heures sur 24, 7 jours par semaine, en composant le 1-844-880-9143 ou en visitant <a href=\"https://www.travailsantevie.com/\">travailsantevie.com</a>. Un soutien local en cas de crise est \u00e9galement disponible partout au Canada. Pour trouver un centre de d\u00e9tresse pr\u00e8s de vous, visitez le <a href=\"http://www.crisisservicescanada.ca/fr/\">site Web des Services de crises du Canada</a>.</p>\n<p><strong>Si vous ou quelqu\u2019un que vous connaissez \u00eates en d\u00e9tresse imm\u00e9diate, composez le 911. </strong></p>\n\t\t"
    },
    "breadcrumb": {
        "en": "September 10 is World Suicide Prevention Day",
        "fr": "Le 10 septembre est la Journ\u00e9e mondiale de la pr\u00e9vention du suicide"
    },
    "news": {
        "date_posted": {
            "en": "2019-09-05",
            "fr": "2019-09-05"
        },
        "to": {
            "en": "All staff",
            "fr": "Tous les employ\u00e9s"
        },
        "by": {
            "en": "Tom Rosser and Jane McDonald, AAFC Wellness Co-Champions",
            "fr": "Tom Rosser et Jane McDonald, cochampions du mieux-\u00eatre \u00e0 AAC"
        }
    }
}