{
    "dcr_id": "1567793070443",
    "lang": "en",
    "title": {
        "en": "Policy Analyst",
        "fr": "Analyste des politiques"
    },
    "modified": "2019-09-09 00:00:00.0",
    "issued": "2019-09-09 00:00:00.0",
    "type_name": "intra-intra/empl-empl",
    "node_id": "1279029955397",
    "layout_name": null,
    "dc_date_created": "2019-09-09",
    "breadcrumb_label": "",
    "meta": {
        "issued": {
            "en": "2019-09-09",
            "fr": "2019-09-09"
        },
        "modified": {
            "en": "2019-09-09",
            "fr": "2019-09-09"
        },
        "format": {
            "en": "gcformat",
            "fr": "gcformat"
        },
        "title": {
            "en": "Policy Analyst",
            "fr": "Analyste des politiques"
        },
        "subject": {
            "en": "staffing",
            "fr": "dotation en personnel"
        },
        "language": {
            "en": "eng",
            "fr": "fra"
        },
        "audience": {
            "en": "gcaudience",
            "fr": "gcaudience"
        },
        "type": {
            "en": "notice",
            "fr": "avis"
        },
        "creator": {
            "en": "Agriculture and Agri-Food Canada",
            "fr": "Agriculture et Agroalimentaire Canada"
        },
        "spatial": {
            "en": "gcregions",
            "fr": "gcregions"
        },
        "service": {
            "en": "AAFC_AgriSource",
            "fr": "AAC_AgriSource"
        },
        "accessRights": {
            "en": "3",
            "fr": "3"
        }
    },
    "body": {
        "en": "\n<p><br>Are you interested in contributing to strategic policy development on key files that support and advance the agriculture and food sector?</p>\n<p>Employees of Agriculture and Agri-Food Canada at the EC-02, EC-03 and EC-04 level in the ECDP are invited to express their interest in assignment opportunities within Policy &amp; Planning Integration, Strategic Integration and Competitiveness Policy Division (SICP) - Business Risk Management and Canadian Agricultural Partnership Policy team:<strong> </strong></p>\n<p><strong>Are you looking for?</strong></p>\n<ul>\n<li>\n<p><strong>Experience in analysis and research </strong>in support of CAP programming, medium-term planning (MTP), and Business Risk Management issues and options?</p>\n</li>\n</ul>\n<ul>\n<li><strong>Developing your skills to communicate</strong> <strong>and work</strong> with different teams, branches and provinces?</li>\n<li><strong>Developing and preparing</strong> discussion papers, briefing notes, presentations, QTEs, and MC\u2019s.</li>\n<li>\n<p><strong>Support</strong> to the FPT DM/ADM table, including drafting presentations and background materials.</p>\n</li>\n</ul>\n<p><strong>Conditions of Employment:</strong><br>\nSecurity: Reliability clearance</p>\n<p><br>\n<strong>STATEMENT OF MERIT CRITERIA: </strong><br>\n<br>\n<strong>Essential Qualifications<br>\n<br>\nLanguage:</strong> Various<strong> </strong>Language Profiles</p>\n<p><strong>Education:</strong><br>\nGraduation with a degree from a recognized post-secondary institution with acceptable specialization in economics, policy or statistics.</p>\n<p><strong>Experience:</strong><br>\nExperience in policy or economic research, analysis or policy development<br>\nExperience in writing decks or briefing notes</p>\n<p><strong>Knowledge:</strong><br>\nKnowledge of policy environment/issues and trends</p>\n<p><strong>Competencies:</strong><br>\n\u2022 Analytical Thinking<br>\n\u2022 Interactive Communication<br>\n\u2022 Writing Skills<br>\n\u2022 Teamwork<br>\n\u2022 Initiative<br>\n\u2022 Adaptability<br>\n\u2022 Judgment</p>\n<p><strong>Asset Qualifications:</strong><br>\nExperience in dealing and engaging with other government departments;<br>\nKnowledge of the agriculture sector</p>\n<p><strong>Organizational Needs:</strong><br>\nIn support of achieving a diversified workforce, consideration may be given to candidates self-identifying as belonging to one of the following Employment Equity groups: Aboriginal peoples, Persons with a Disability; Visible Minorities, Women.</p>\n<p><strong>Applications:</strong><br>\nInterested AAFC employees are encouraged to forward their resume and cover letter (maximum 300 words) to Julie Levert at julie.levert@canada.ca with the following information:</p>\n<p>\u2022 Your tenure (e.g., term or indeterminate);<br>\n\u2022 Your substantive group and level; and<br>\n\u2022 How you meet the essential and asset qualifications.</p>\n<p>\u00a0</p>\n",
        "fr": "\n<p><br>Vous souhaitez contribuer \u00e0 l\u2019\u00e9laboration de politiques strat\u00e9giques des principaux dossiers qui appuient et font progresser le secteur de l\u2019agriculture et de l\u2019alimentation?</p>\n<p>Les employ\u00e9s d\u2019Agriculture et agroalimentaire Canada des niveaux EC-02, EC-03 et EC-04 participant au PPEC sont invit\u00e9s \u00e0 manifester leur int\u00e9r\u00eat en ce qui concerne les possibilit\u00e9s d\u2019emploi au sein de la Direction des politiques, de la planification et de l\u2019int\u00e9gration (DPPI), de la Division de l\u2019int\u00e9gration strat\u00e9gique et de la politique de comp\u00e9titivit\u00e9 (ISPC) \u2013 \u00c9quipe des politiques de Gestion des risques de l\u2019entreprise et du Partenariat canadien pour l\u2019agriculture (PCA) :</p>\n<p><strong>\u00cates-vous \u00e0 la recherche de ce qui suit?</strong></p>\n<ul>\n<li>\n<p><strong>Exp\u00e9rience de l\u2019analyse et de la recherche </strong>pour appuyer les programmes du PCA, la planification \u00e0 moyen terme et les enjeux et options de la gestion des risques de l\u2019entreprise?</p>\n</li>\n</ul>\n<ul>\n<li><strong>Perfectionnement de vos comp\u00e9tences afin d\u2019\u00eatre en mesure de travailler </strong>avec diff\u00e9rentes \u00e9quipes, directions g\u00e9n\u00e9rales et provinces?</li>\n<li><strong>\u00c9laboration et pr\u00e9paration </strong>de documents de travail, de notes d\u2019information, d\u2019expos\u00e9s, de dossiers et de m\u00e9moires au Cabinet?</li>\n<li>\n<p><strong>Appui</strong> \u00e0 la table des SM/SMA FPT, notamment la r\u00e9daction d\u2019expos\u00e9s et de documents d\u2019information?</p>\n</li>\n</ul>\n<p><strong>Conditions d\u2019emploi :</strong><br>\nS\u00e9curit\u00e9 : cote de fiabilit\u00e9</p>\n<p>\u00a0</p>\n<p><strong>\u00c9NONC\u00c9 DES CRIT\u00c8RES DE M\u00c9RITE : </strong><br>\n<br>\n<strong>Qualifications essentielles<br>\n<br>\nLangues :</strong> Divers profils linguistiques</p>\n<p><strong>\u00c9tudes :</strong><br>\nDipl\u00f4me d\u2019un \u00e9tablissement d\u2019enseignement postsecondaire reconnu avec sp\u00e9cialisation acceptable en \u00e9conomie, politiques ou statistique.<br>\n<br>\n<strong>Exp\u00e9rience :</strong><br>\nExp\u00e9rience de la recherche \u00e9conomique\u00a0ou strat\u00e9gique, de l\u2019analyse ou de l\u2019\u00e9laboration de politiques<br>\nExp\u00e9rience de la r\u00e9daction de pr\u00e9sentations ou de notes d\u2019information</p>\n<p><strong>Connaissances :</strong><br>\nConnaissance des enjeux et des tendances en mati\u00e8re de politiques</p>\n<p><strong>Comp\u00e9tences :</strong><br>\n\u2022 R\u00e9flexion analytique<br>\n\u2022 Communication interactive<br>\n\u2022 Comp\u00e9tences en r\u00e9daction<br>\n\u2022 Esprit d\u2019\u00e9quipe<br>\n\u2022 Initiative<br>\n\u2022 Facult\u00e9 d\u2019adaptation<br>\n\u2022 Jugement</p>\n<p><strong>Qualifications constituant un atout :</strong><br>\nExp\u00e9rience de la collaboration avec d\u2019autres minist\u00e8res et de la mobilisation de ces derniers<br>\nConnaissance du secteur de l\u2019agriculture</p>\n<p><strong>Besoins de l\u2019organisation :</strong><br>\nPour diversifier l\u2019effectif, on pourra examiner la candidature des personnes qui s\u2019identifient comme appartenant \u00e0 des groupes vis\u00e9s par l\u2019\u00e9quit\u00e9 en mati\u00e8re d\u2019emploi, soit les Autochtones, les personnes handicap\u00e9es, les membres de minorit\u00e9s visibles et les femmes.</p>\n<p><strong>Pour postuler :</strong><br>\nLes employ\u00e9s d\u2019AAC int\u00e9ress\u00e9s sont invit\u00e9s \u00e0 faire parvenir leur curriculum vitae accompagn\u00e9 d\u2019une lettre de pr\u00e9sentation (maximum 300 mots) \u00e0 Julie Levert (julie.levert@canada.ca), en incluant les renseignements suivants :</p>\n<p>\u2022 la dur\u00e9e de leur emploi (p. ex. d\u00e9termin\u00e9e ou ind\u00e9termin\u00e9e);<br>\n\u2022 le groupe et le niveau de leur poste d\u2019attache;<br>\n\u2022 en quoi ils poss\u00e8dent les qualifications essentielles et r\u00e9pondent aux exigences.</p>\n<p>\u00a0</p>\n\n"
    },
    "breadcrumb": {
        "en": "Policy Analyst",
        "fr": "Analyste des politiques"
    },
    "empl": {
        "type": {
            "en": "Assignment",
            "fr": "Affectation"
        },
        "classification": {
            "en": "EC-2, EC-3, EC-4 and equivalent",
            "fr": "EC-2, EC-3, EC-4 et \u00e9quivalent"
        },
        "branch": {
            "en": "Strategic Policy Branch",
            "fr": "Direction g\u00e9n\u00e9rale des politiques strat\u00e9giques"
        },
        "locations": {
            "en": "National Capital Region (NCR)",
            "fr": "R\u00e9gion de la capitale nationale (RCN)"
        },
        "date_closing": {
            "en": "2019-09-20",
            "fr": "2019-09-20"
        },
        "open_to": {
            "en": "ECDP Participants at the EC-02, EC-03 and EC-04 group and level",
            "fr": "Participants du PPEC des groupes et niveaux EC-02, EC-03 et EC-04"
        },
        "name": {
            "en": "Julie Levert",
            "fr": "Julie Levert"
        },
        "email": {
            "en": "julie.levert@canada.ca",
            "fr": "julie.levert@canada.ca"
        }
    }
}