{
    "dcr_id": "1567622692356",
    "lang": "en",
    "title": {
        "en": "This Week in <em>The Harvest</em> - Recognizing Excellence at AAFC ",
        "fr": "Au menu de <em>La Moisson</em> cette semaine - Reconnaissance de l'excellence \u00e0 AAC"
    },
    "modified": "2019-09-05 00:00:00.0",
    "issued": "2019-09-05 00:00:00.0",
    "type_name": "intra-intra/news-nouv",
    "node_id": "1279030006975",
    "layout_name": null,
    "dc_date_created": "2019-09-04",
    "breadcrumb_label": "",
    "meta": {
        "issued": {
            "en": "2019-09-05",
            "fr": "2019-09-05"
        },
        "modified": {
            "en": "2019-09-05",
            "fr": "2019-09-05"
        },
        "format": {
            "en": "gcformat",
            "fr": "gcformat"
        },
        "title": {
            "en": "This Week in <em>The Harvest</em> - Recognizing Excellence at AAFC ",
            "fr": "Au menu de <em>La Moisson</em> cette semaine - Reconnaissance de l'excellence \u00e0 AAC"
        },
        "subject": {
            "en": "communications",
            "fr": "communications"
        },
        "description": {
            "en": "In case you missed it, here's what's new in <em>The Harvest</em> this week.",
            "fr": "Au cas o\u00f9 vous l'auriez manqu\u00e9, voici le menu que la section <em>La Moisson</em> vous offre cette semaine."
        },
        "language": {
            "en": "eng",
            "fr": "fra"
        },
        "audience": {
            "en": "gcaudience",
            "fr": "gcaudience"
        },
        "creator": {
            "en": "Agriculture and Agri-Food Canada",
            "fr": "Agriculture et Agroalimentaire Canada"
        },
        "spatial": {
            "en": "gcregions",
            "fr": "gcregions"
        },
        "service": {
            "en": "AAFC_AgriSource",
            "fr": "AAC_AgriSource"
        },
        "accessRights": {
            "en": "3",
            "fr": "3"
        }
    },
    "body": {
        "en": "<br>\n<br>\n<p>In case you missed it, here\u2019s what\u2019s new in <a href=\"https://collab.agr.gc.ca/apps/harvest-moisson\"><em>The Harvest</em></a> this week:</p>\n<p><strong>Feature story:</strong> <a href=\"https://collab.agr.gc.ca/apps/harvest-moisson\"> Recognizing Excellence at AAFC</a> - \u200bEvery year, AAFC hosts its very own Departmental Awards Ceremony to celebrate the work of exceptional employees. As individuals, and as teams, these employees have gone above and beyond in their roles as public servants and have made a positive impact on Canadians, the department, and the agriculture and agri-food sector.</p>\n<p><strong>Poll: </strong><a href=\"https://collab.agr.gc.ca/apps/harvest-moisson/\">What is your favourite fall dessert?</a></p>\n<p><strong>Feature photo: </strong><a href=\"https://collab.agr.gc.ca/apps/harvest-moisson/gallery/Lists/Posts/Post.aspx?ID=348\">Northern Lights,</a> by Kosala Rajapaksha, Science and Technology Branch, Saskatoon, Saskatchewan.</p>\n<p><strong>Did you know?</strong> <a href=\"https://collab.agr.gc.ca/apps/harvest-moisson/Pages/didyouknow.aspx\">Milk can be used to make an alcoholic spirit that tastes like vodka.</a> Milk permeate is a lactose-rich byproduct from the dairy industry, which is usually difficult and expensive to dispose of but can be fermented and distilled to produce alcohol.</p>\n<p>You can get involved by posting a comment or \u201cliking\u201d an article. You can also check out what your colleagues are liking and saying.</p>\n<p>Should you have story ideas, scenic or artistic agriculture-related photos, or interesting facts, please share them with us by clicking on \u201cContribute\u201d in the top menu bar.</p>\n<p><img src=\"https://intranet.agr.gc.ca/resources/prod/news/images/Harvest-DeptAwards2019.png\" class=\"center-block\"></p>\n\n\t\t",
        "fr": "<br>\n<br>\n<p>Au cas o\u00f9 vous l\u2019auriez manqu\u00e9, voici le menu que la section <a href=\"https://collab.agr.gc.ca/apps/harvest-moisson\"><em>La Moisson</em></a> vous offre cette semaine :</p>\n<p><strong>Article vedette :</strong> <a href=\"https://collab.agr.gc.ca/apps/harvest-moisson/\">Reconnaissance de l\u2019excellence \u00e0 AAC</a> \u2013 \u200bChaque ann\u00e9e, AAC tient sa propre c\u00e9r\u00e9monie de remise des prix du Minist\u00e8re pour reconna\u00eetre le travail d\u2019employ\u00e9s exceptionnels. Individuellement ou en \u00e9quipe, ces employ\u00e9s sont all\u00e9s au-del\u00e0 de leur r\u00f4le de fonctionnaire et leur travail a eu une incidence positive sur les Canadiens, le Minist\u00e8re et le secteur agricole et agroalimentaire.</p>\n<p><strong>Sondage : </strong><a href=\"https://collab.agr.gc.ca/apps/harvest-moisson/\">Quel est votre dessert pr\u00e9f\u00e9r\u00e9 en automne?</a></p>\n<p><strong>Photo vedette :</strong> <a href=\"https://collab.agr.gc.ca/apps/harvest-moisson/gallery/Lists/Posts/Post.aspx?ID=348\"> Lumi\u00e8res du Nord</a>, par Kosala Rajapaksha, Direction g\u00e9n\u00e9rale des sciences et de la technologie, Saskatoon (Saskatchewan).</p>\n<p><strong>Le saviez-vous?</strong> <a href=\"https://collab.agr.gc.ca/apps/harvest-moisson/Pages/didyouknow.aspx\">Le lait peut servir \u00e0 fabriquer un spiritueux dont le go\u00fbt s\u2019apparente \u00e0 celui de la vodka.</a> Le perm\u00e9at de lait, un sous-produit \u00e0 forte teneur en lactose de l\u2019industrie laiti\u00e8re, est habituellement difficile et co\u00fbteux \u00e0 \u00e9liminer, mais il peut \u00eatre ferment\u00e9 et distill\u00e9 pour produire de l\u2019alcool.</p>\n<p>Vous pouvez participer en affichant des commentaires ou en utilisant la fonction \u00ab J\u2019aime \u00bb ou \u00ab Partager \u00bb pour exprimer votre appr\u00e9ciation d\u2019un article. Vous pouvez aussi aller voir ce que vos coll\u00e8gues aiment et ont \u00e0 dire.</p>\n<p>Si vous avez des id\u00e9es d\u2019articles, des photos de paysages ou \u00e0 caract\u00e8re artistique li\u00e9es \u00e0 l\u2019agriculture ou encore des faits int\u00e9ressants, veuillez nous en faire part en cliquant sur \u00ab Collaborer \u00bb dans la barre de menu en haut de la page.</p>\n<p><img src=\"https://intranet.agr.gc.ca/resources/prod/news/images/Harvest-DeptAwards2019.png\" class=\"center-block\"></p>\n\t\t"
    },
    "breadcrumb": {
        "en": "This Week in The Harvest - Recognizing Excellence at AAFC",
        "fr": "Au menu de La Moisson cette semaine - Reconnaissance de l'excellence \u00e0 AAC"
    },
    "news": {
        "date_posted": {
            "en": "2019-09-05",
            "fr": "2019-09-05"
        },
        "to": {
            "en": "All staff",
            "fr": "Tous les employ\u00e9s"
        },
        "by": {
            "en": "Corporate Communications, Public Affairs Branch",
            "fr": "Communications minist\u00e9rielles, Direction g\u00e9n\u00e9rale des affaires publiques"
        }
    }
}