{
    "dcr_id": "1568206809251",
    "lang": "en",
    "title": {
        "en": "When Not to be Fashionably Late",
        "fr": "Quand la ponctualit\u00e9 est de mise"
    },
    "modified": "2019-09-12 00:00:00.0",
    "issued": "2019-09-12 00:00:00.0",
    "type_name": "intra-intra/news-nouv",
    "node_id": "1279030006975",
    "layout_name": null,
    "dc_date_created": "2019-09-11",
    "breadcrumb_label": "",
    "meta": {
        "issued": {
            "en": "2019-09-12",
            "fr": "2019-09-12"
        },
        "modified": {
            "en": "2019-09-12",
            "fr": "2019-09-12"
        },
        "format": {
            "en": "gcformat",
            "fr": "gcformat"
        },
        "title": {
            "en": "When Not to be Fashionably Late",
            "fr": "Quand la ponctualit\u00e9 est de mise"
        },
        "subject": {
            "en": "communications",
            "fr": "communications"
        },
        "description": {
            "en": "It may be trendy to arrive a few minutes late to a party, but missing a deadline for submitting pay transactions is nothing to celebrate.",
            "fr": "Arriver quelques minutes en retard \u00e0 une soir\u00e9e fait peut-\u00eatre branch\u00e9, mais manquer une \u00e9ch\u00e9ance pour soumettre un mouvement de paye ne l'est pas."
        },
        "language": {
            "en": "eng",
            "fr": "fra"
        },
        "audience": {
            "en": "gcaudience",
            "fr": "gcaudience"
        },
        "creator": {
            "en": "Agriculture and Agri-Food Canada",
            "fr": "Agriculture et Agroalimentaire Canada"
        },
        "spatial": {
            "en": "gcregions",
            "fr": "gcregions"
        },
        "service": {
            "en": "AAFC_AgriSource",
            "fr": "AAC_AgriSource"
        },
        "accessRights": {
            "en": "3",
            "fr": "3"
        }
    },
    "body": {
        "en": "<br>\n<br>\n<p>It may be trendy to arrive a few minutes late to a party, but missing a deadline for submitting pay transactions is nothing to celebrate. Pay is impacted when overtime, leave without pay, and timesheets are not approved and entered directly in Phoenix before the cut-off date for each pay cycle.</p>\n<p>Managers delegated with section 34 signing authority can ensure their employees are paid correctly and on time by submitting all approved transactions on Monday mornings following pay day in Phoenix. The biweekly deadline can be found on the <a href=\"http://intranet.agr.gc.ca/agrisource/eng/human-resources/pay-benefits-and-phoenix?id=1511367056518\">Pay, Benefits and Phoenix</a> webpage on AgriSource.</p>\n<p><strong>Tip:</strong> Set a reminder to review transactions every Friday. Make it a habit!</p>\n<p>Need a refresher? Review <a href=\"https://www.tpsgc-pwgsc.gc.ca/remuneration-compensation/services-paye-pay-services/systeme-paye-gestionnaires-pay-system-managers/ph-gest-man-cles-tips-eng.html\">self-service tasks in Phoenix for section 34 managers</a>.</p>\n<p><img src=\"https://intranet.agr.gc.ca/resources/prod/news/images/paytiming.png\" class=\"center-block\"></p>\n\n\t\t",
        "fr": "<br>\n<br>\n<p>Arriver quelques minutes en retard \u00e0 une soir\u00e9e fait peut-\u00eatre branch\u00e9, mais manquer une \u00e9ch\u00e9ance pour soumettre un mouvement de paye ne l\u2019est pas. Les heures suppl\u00e9mentaires, les cong\u00e9s sans solde et les feuilles de temps qui ne sont pas approuv\u00e9s et entr\u00e9s directement dans Ph\u00e9nix avant la date limite de chaque cycle de paye ont une incidence sur la paye.</p>\n<p>Les gestionnaires \u00e0 qui le pouvoir de signer a \u00e9t\u00e9 d\u00e9l\u00e9gu\u00e9 aux termes de l\u2019article 34 peuvent s\u2019assurer que leurs employ\u00e9s sont pay\u00e9s correctement et \u00e0 temps en soumettant tous les mouvements de paye approuv\u00e9s le lundi matin suivant le jour de paye dans Ph\u00e9nix. Vous trouverez l\u2019\u00e9ch\u00e9ance bimensuelle sur la page <a href=\"http://intranet.agr.gc.ca/agrisource/fra/ressources-humaines/remuneration-avantages-sociaux-et-phenix?id=1511367056518\">R\u00e9mun\u00e9ration, avantages sociaux et Ph\u00e9nix</a> dans AgriSource.</p>\n<p><strong>Conseil : </strong>Programmez un rappel pour l\u2019examen des mouvements de paye chaque vendredi. Faites-en une habitude!</p>\n<p>Besoin de vous rafra\u00eechir la m\u00e9moire? Consultez la page <a href=\"https://www.tpsgc-pwgsc.gc.ca/remuneration-compensation/services-paye-pay-services/systeme-paye-gestionnaires-pay-system-managers/ph-gest-man-cles-tips-fra.html\">Ph\u00e9nix pour les gestionnaires (article 34) : T\u00e2ches cl\u00e9s en libre-service des gestionnaires</a>.</p>\n<p><img src=\"https://intranet.agr.gc.ca/resources/prod/news/images/paytiming.png\" class=\"center-block\"></p>\n\t\t"
    },
    "breadcrumb": {
        "en": "When Not to be Fashionably Late",
        "fr": "Quand la ponctualit\u00e9 est de mise"
    },
    "news": {
        "date_posted": {
            "en": "2019-09-12",
            "fr": "2019-09-12"
        },
        "to": {
            "en": "All staff",
            "fr": "Tous les employ\u00e9s"
        },
        "by": {
            "en": "Corporate Management Branch",
            "fr": "Direction g\u00e9n\u00e9rale de la gestion int\u00e9gr\u00e9e"
        }
    }
}