{
    "dcr_id": "1568735053465",
    "lang": "en",
    "title": {
        "en": "This Week in <em>The Harvest</em> - Hard Work and Planning Pay Off at Ag In Motion 2019",
        "fr": "Au menu de <em>La Moisson</em> cette semaine - Le travail assidu et la planification portent fruit \u00e0 la foire agricole Ag In Motion 2019"
    },
    "modified": "2019-09-19 00:00:00.0",
    "issued": "2019-09-19 00:00:00.0",
    "type_name": "intra-intra/news-nouv",
    "node_id": "1279030006975",
    "layout_name": null,
    "dc_date_created": "2019-09-17",
    "breadcrumb_label": "This Week in The Harvest - Hard Work and Planning Pay Off at Ag In Motion 2019",
    "meta": {
        "issued": {
            "en": "2019-09-19",
            "fr": "2019-09-19"
        },
        "modified": {
            "en": "2019-09-19",
            "fr": "2019-09-19"
        },
        "format": {
            "en": "gcformat",
            "fr": "gcformat"
        },
        "title": {
            "en": "This Week in <em>The Harvest</em> - Hard Work and Planning Pay Off at Ag In Motion 2019",
            "fr": "Au menu de <em>La Moisson</em> cette semaine - Le travail assidu et la planification portent fruit \u00e0 la foire agricole Ag In Motion 2019"
        },
        "subject": {
            "en": "communications",
            "fr": "communications"
        },
        "description": {
            "en": "In case you missed it, here's what's new in <em>The Harvest</em> this week:",
            "fr": "Au cas o\u00f9 vous l'auriez manqu\u00e9, voici le menu que la section La Moisson vous offre cette semaine."
        },
        "language": {
            "en": "eng",
            "fr": "fra"
        },
        "audience": {
            "en": "gcaudience",
            "fr": "gcaudience"
        },
        "creator": {
            "en": "Agriculture and Agri-Food Canada",
            "fr": "Agriculture et Agroalimentaire Canada"
        },
        "spatial": {
            "en": "gcregions",
            "fr": "gcregions"
        },
        "service": {
            "en": "AAFC_AgriSource",
            "fr": "AAC_AgriSource"
        },
        "accessRights": {
            "en": "3",
            "fr": "3"
        }
    },
    "body": {
        "en": "<br>\n<br>\n<p>In case you missed it, here\u2019s what\u2019s new in <a href=\"https://collab.agr.gc.ca/apps/harvest-moisson\"><em>The Harvest</em></a> this week:</p>\n<p><strong>Feature story:</strong> <a href=\"https://collab.agr.gc.ca/apps/harvest-moisson/\">Hard Work and Planning Pay off at Ag In Motion 2019</a> - This summer, AAFC participated for the first time in Ag in Motion, which was held in July just northwest of Saskatoon, Saskatchewan. Ag in Motion is Western Canada\u2019s first and largest outdoor farm expo, featuring interactive exhibits and live field and crop plot demonstrations. The department had demonstration plots, and staff from Saskatoon and Swift Current were on site to talk about the work being done at AAFC.</p>\n<p><strong>Poll: </strong><a href=\"https://collab.agr.gc.ca/apps/harvest-moisson/\">In the last 40 years, how has water consumption changed in the Canadian chicken industry?</a></p>\n<p><strong>Feature photo: </strong><a href=\"https://collab.agr.gc.ca/apps/harvest-moisson/gallery/Lists/Posts/Post.aspx?ID=352\">Monarch Butterfly,</a> by Sheri Lytle, Corporate Management Branch, Ottawa, Ontario.</p>\n<p><strong>Did you know?</strong> <a href=\"https://collab.agr.gc.ca/apps/harvest-moisson/Pages/didyouknow.aspx\">Canada is the world's largest producer and exporter of wild blueberries</a>, with exports worth an estimated $239 million reaching over 30 countries.</p>\n<p>You can get involved by posting a comment or \u201cliking\u201d an article. You can also check out what your colleagues are liking and saying.</p>\n<p>Should you have story ideas, scenic or artistic agriculture-related photos, or interesting facts, please share them with us by clicking on \u201cContribute\u201d in the top menu bar.</p>\n<p><img src=\"https://intranet.agr.gc.ca/resources/prod/news/images/Harvest-AgInMotion.png\" class=\"center-block\"></p>\n\n\t\t",
        "fr": "<br>\n<br>\n<p>Au cas o\u00f9 vous l\u2019auriez manqu\u00e9, voici le menu que la section <a href=\"https://collab.agr.gc.ca/apps/harvest-moisson\"><em>La Moisson</em></a> vous offre cette semaine :</p>\n<p><strong>Article vedette :</strong> <a href=\"https://collab.agr.gc.ca/apps/harvest-moisson/\">Le travail assidu et la planification portent fruit \u00e0 la foire agricole Ag In Motion 2019</a> \u2013 \u200bCet \u00e9t\u00e9, AAC a particip\u00e9 pour la premi\u00e8re fois \u00e0 l\u2019\u00e9v\u00e9nement Ag in Motion, qui se tenait en juillet au nord-ouest de Saskatoon, en Saskatchewan. Ag in Motion est la premi\u00e8re et la plus importante foire agricole ext\u00e9rieure de l\u2019Ouest canadien, avec des expositions interactives, ainsi que des d\u00e9monstrations en direct dans les champs et les parcelles de cultures. Le minist\u00e8re avait des parcelles de d\u00e9monstration et le personnel de Saskatoon et de Swift Current \u00e9tait sur place pour parler du travail effectu\u00e9 \u00e0 AAC.</p>\n<p><strong>Sondage : </strong><a href=\"https://collab.agr.gc.ca/apps/harvest-moisson/\">Ces 40 derni\u00e8res ann\u00e9es, la consommation d\u2019eau de l\u2019industrie canadienne du poulet. . . ?</a></p>\n<p><strong>Photo vedette :</strong> <a href=\"https://collab.agr.gc.ca/apps/harvest-moisson/gallery/Lists/Posts/Post.aspx?ID=352\">Monarque</a>, par Sheri Lytle, Direction g\u00e9n\u00e9rale de la gestion int\u00e9gr\u00e9e, Ottawa (Ontario).</p>\n<p><strong>Le saviez-vous?</strong> <a href=\"https://collab.agr.gc.ca/apps/harvest-moisson/Pages/didyouknow.aspx\">Le Canada est le plus important producteur et le plus grand exportateur de bleuets sauvages au monde</a>, avec des exportations d'une valeur de 239 millions de dollars \u00e0 destination de plus de 30 pays.</p>\n<p>Vous pouvez participer en affichant des commentaires ou en utilisant la fonction \u00ab J\u2019aime \u00bb ou \u00ab Partager \u00bb pour exprimer votre appr\u00e9ciation d\u2019un article. Vous pouvez aussi aller voir ce que vos coll\u00e8gues aiment et ont \u00e0 dire.</p>\n<p>Si vous avez des id\u00e9es d\u2019articles, des photos de paysages ou \u00e0 caract\u00e8re artistique li\u00e9es \u00e0 l\u2019agriculture ou encore des faits int\u00e9ressants, veuillez nous en faire part en cliquant sur \u00ab Collaborer \u00bb dans la barre de menu en haut de la page.</p>\n<p><img src=\"https://intranet.agr.gc.ca/resources/prod/news/images/Harvest-AgInMotion.png\" class=\"center-block\"></p>\n\t\t"
    },
    "breadcrumb": {
        "en": "This Week in The Harvest - Hard Work and Planning Pay Off at Ag In Motion 2019",
        "fr": "Au menu de La Moisson cette semaine - Le travail assidu et la planification portent fruit \u00e0 la ..."
    },
    "news": {
        "date_posted": {
            "en": "2019-09-19",
            "fr": "2019-09-19"
        },
        "to": {
            "en": "All staff",
            "fr": "Tous les employ\u00e9s"
        },
        "by": {
            "en": "Corporate Communications, Public Affairs Branch",
            "fr": "Communications minist\u00e9rielles, Direction g\u00e9n\u00e9rale des affaires publiques"
        }
    }
}