{
    "dcr_id": "1568031965112",
    "lang": "en",
    "title": {
        "en": "Sector Specialist",
        "fr": "Sp\u00e9cialiste de secteur\t"
    },
    "modified": "2019-09-09 00:00:00.0",
    "issued": "2019-09-09 00:00:00.0",
    "type_name": "intra-intra/empl-empl",
    "node_id": "1279029955397",
    "layout_name": null,
    "dc_date_created": "2019-09-09",
    "breadcrumb_label": "",
    "meta": {
        "issued": {
            "en": "2019-09-09",
            "fr": "2019-09-09"
        },
        "modified": {
            "en": "2019-09-09",
            "fr": "2019-09-09"
        },
        "format": {
            "en": "gcformat",
            "fr": "gcformat"
        },
        "title": {
            "en": "Sector Specialist",
            "fr": "Sp\u00e9cialiste de secteur\t"
        },
        "subject": {
            "en": "staffing",
            "fr": "dotation en personnel"
        },
        "language": {
            "en": "eng",
            "fr": "fra"
        },
        "audience": {
            "en": "gcaudience",
            "fr": "gcaudience"
        },
        "type": {
            "en": "notice",
            "fr": "avis"
        },
        "creator": {
            "en": "Agriculture and Agri-Food Canada",
            "fr": "Agriculture et Agroalimentaire Canada"
        },
        "spatial": {
            "en": "gcregions",
            "fr": "gcregions"
        },
        "service": {
            "en": "AAFC_AgriSource",
            "fr": "AAC_AgriSource"
        },
        "accessRights": {
            "en": "3",
            "fr": "3"
        }
    },
    "body": {
        "en": "\n<p><strong>\u00a0</strong></p>\n<p>Market Industry Services Branch (MISB) Sector Development and Analysis Directorate (SDAD) is inviting Agriculture and Agri-Food Canada (AAFC) employees at the CO-02 level (or equivalent) to express their interest in an assignment opportunity to support the development and implementation of the Food Policy for Canada\u2019s Buy Canadian Promotion Campaign. This assignment is planned for two years, with the possibility of extension. While on assignment, the employee will continue to be paid their substantive pay.</p>\n<p>The Buy Canadian Promotion Campaign will coordinate a national approach to better connect Canadians with, and instill pride in, Canada\u2019s food system and its food, seafood and agricultural products. The expected results of the program are increased awareness of, and demand for, Canadian agricultural and food products; a refreshed Canada Brand that resonates in domestic and international markets, which supports the market diversification strategy and domestic and export growth targets; improved ability of Canadians to identify, access and make informed decisions about Canadian food products; and, increased transparency and connectivity between industry and Canadian\u2019s regarding the standards and practices used to produce foods.</p>\n<p><strong><br>Duties</strong></p>\n<p>Situated in SDAD\u2019s Food Industry Division (FID), this position will report to the Manager of the Food Industry Development Team and involve: research and analysis to further identify consumer and industry interests, needs, trends, etc. that would further define elements of the Campaign; leadership on industry engagement; develop and implement strategic partnership opportunities with industry (and possibly provinces and territories) that align with objectives of the Buy Canadian Promotional Campaign.</p>\n<p>Food Industry Division (FID) serves as the center of expertise for food manufacturing and distribution in terms of development and application of sector knowledge, linkages and leadership. FID provides timely and credible analysis and advice to government and industry to enhance policy, regulatory and economic development that supports a competitive, innovative and sustainable agri-food industry. FID fosters collaboration with other government departments, provinces and territories, industry associations and agri-food companies to address issues of importance to the sector and facilitate its long-term market success. FID engages with stakeholders from all areas of the food industry, including processed food, beverages, ingredients, seafood, pet foods and food distribution to identify and develop solutions for issues impacting the sector.</p>\n<p><strong><br>Statement of Merit Criteria &amp; Conditions of Employment</strong></p>\n<p><strong><br>Essential Qualifications</strong></p>\n<p><strong><br>Education </strong></p>\n<p>Graduation with a degree from a recognized post-secondary institution with acceptable specialization in marketing, communications, international trade, agriculture, agriculture economics, economics, commerce or business.</p>\n<p>The education requirement may also be obtained through an acceptable combination of education, training and/or experience.</p>\n<p><strong><br>Experience </strong></p>\n<p>Significant* experience in researching, analyzing and synthesizing data from diverse sources on consumer and industry interests, trends and opportunities to formulate recommendations and advice to support the Buy Canadian Promotion Campaign.</p>\n<p>Significant* experience developing and sustaining collaborative working relationships with internal and external stakeholders, including industry, academia and non-governmental organizations.</p>\n<p>Significant* experience in preparing briefing materials for Senior Management** on complex issues (e.g., reports, scenario/ briefing notes, presentations, meeting agendas, annotated agendas and meeting summaries) and transforming technical information for a non-specialist audience.</p>\n<p>Experience in the development of project plans, monitoring progress and reporting on results.</p>\n<p><em>*Significant experience refers to the depth and breadth of experience that is normally associated with the full-time performance of these duties for period of two years or more.</em></p>\n<p><em>**Senior Management is defined as Director level and above.</em></p>\n<p><strong><br>Knowledge</strong></p>\n<p>Knowledge of policies, programs and priorities of the Canadian Government relating to the agriculture, agri-food or seafood sectors.</p>\n<p>Knowledge of key trends and issues impacting the competitiveness of the Canadian agriculture, agri-food industry or seafood sectors.</p>\n<p><strong><br>Competencies</strong></p>\n<p>Writing Skills</p>\n<p>Interactive Communication</p>\n<p>Relationship Building</p>\n<p>Analytical Thinking</p>\n<p>Initiative</p>\n<p>Judgement</p>\n<p><strong><br>Language Requirement: </strong>English Essential</p>\n<p><strong><br>Asset Qualifications</strong></p>\n<p>Graduation with a Master\u2019s degree from a recognized post-secondary institution with specialization in a field related to the position.</p>\n<p>Experience in communicating with and providing advice to external stakeholders.</p>\n<p>Experience undertaking outreach activities with stakeholders.</p>\n<p>Experience in leading or coordinating the work of project teams</p>\n<p>Experience with federal contracting policies and procedures.</p>\n<p>Experience in preparing and managing strategic plans.</p>\n<p>Experience in managing technical, scientific or regulatory issues.</p>\n<p>Experience working in the food processing industry in Canada.</p>\n<h3><strong><br>Organizational Needs</strong></h3>\n<p>In support of achieving a diversified workforce, consideration may be given to candidates self-identifying as belonging to one of the following Employment Equity groups: Indigenous peoples; Persons with a Disability; Visible Minorities; Women.</p>\n<p><strong><br>Conditions of Employment</strong></p>\n<p>Willingness and ability to work overtime.</p>\n<p>Willingness and ability to travel.</p>\n<p><strong><br>Reliability security clearance.</strong></p>\n<p><strong><br>Applications:</strong></p>\n<p>Interested AAFC employees are encouraged to provide:</p>\n<ul>\n<li>\n<p>resume and a cover letter outlining their interest in the position and how they meet the criteria for the position; and</p>\n</li>\n<li>\n<p>names and contact information for 2 references, including current supervisor.</p>\n<p>Resumes must clearly identify substantive group and level.</p>\n<p>Documents should be sent to Sylvie Millette LeDuc at sylvie.milletteleduc@canada.ca by September 4, 2019.</p>\n<p>\u00a0</p>\n</li>\n</ul>\n<p><b>Notes:</b></p>\n<ul>\n<li>\n<p>Communication for this process will be sent via email.</p>\n</li>\n<li>\n<p>Reference checks may be sought.</p>\n</li>\n</ul>\n<p>\u00a0</p>\n",
        "fr": "\n<p><strong>\u00a0</strong></p>\n<p>La Direction du d\u00e9veloppement et de l\u2019analyse du secteur (DDAS) de la DGSIM est \u00e0 la recherche d\u2019un employ\u00e9 de l\u2019Agriculture et agroalimentaire Canada (AAC) de niveau et de groupe CO-02 ou l\u2019\u00e9quivalent pour soutenir l\u2019\u00e9laboration et la mise en place de la Politique alimentaire pour la Campagne de promotion de l\u2019achat de produits canadiens. L\u2019affectation est pr\u00e9vue pour deux ans, avec possibilit\u00e9 de prolongation. Pendant son affectation, l'employ\u00e9 continue de recevoir sa r\u00e9mun\u00e9ration de titularisation.</p>\n<p>La Campagne de promotion de l\u2019achat de produits canadiens permettra de coordonner une approche nationale visant \u00e0 \u00e9tablir une meilleure connexion entre la population canadienne et le syst\u00e8me alimentaire du Canada et \u00e0 susciter la fiert\u00e9 envers ce syst\u00e8me et ses produits alimentaires, ses fruits de mer et les produits de l\u2019agriculture. Les r\u00e9sultats escompt\u00e9s du programme sont les suivants : une connaissance et une demande accrues des produits agricoles et alimentaires canadiens; une image de marque renouvel\u00e9e pour le Canada qui interpelle les march\u00e9s canadiens et internationaux, qui soutient la strat\u00e9gie de la diversification des march\u00e9s ainsi que les objectifs de croissance \u00e0 l\u2019\u00e9chelle nationale et des exportations; une am\u00e9lioration de la capacit\u00e9 des Canadiens de d\u00e9terminer, de se procurer et de prendre des d\u00e9cisions \u00e9clair\u00e9es sur les produits alimentaires; une meilleure transparence et connectivit\u00e9 entre l\u2019industrie et les Canadiens, en ce qui concerne les normes et les pratiques utilis\u00e9es pour produire les aliments.</p>\n<p><strong><br>Fonctions</strong></p>\n<p>Le titulaire de ce poste situ\u00e9 dans la Division de l\u2019industrie alimentaire (DIA) de la DDA rel\u00e8vera du gestionnaire de l\u2019\u00e9quipe du D\u00e9veloppement de l\u2019industrie alimentaire et effectuera les t\u00e2ches suivantes : recherche et analyse pour mieux d\u00e9terminer les int\u00e9r\u00eats, les besoins, les tendances, etc. des consommateurs et de l\u2019industrie qui permettront de d\u00e9terminer en d\u00e9tail les \u00e9l\u00e9ments de la Campagne; leadership en mati\u00e8re de mobilisation de l\u2019industrie; cr\u00e9ation et d\u00e9veloppement d\u2019opportunit\u00e9s strat\u00e9giques en mati\u00e8re de partenariat avec l\u2019industrie (et potentiellement avec les provinces et les territoires) qui s\u2019harmonisent avec les objectifs de la Campagne de promotion de l\u2019achat de produits canadiens.</p>\n<p>La Division de l\u2019industrie alimentaire (DIA) agit comme un centre d\u2019expertise pour la fabrication et la distribution d\u2019aliments en termes de d\u00e9veloppement et d\u2019application des connaissances du secteur, de liens et de leadership. La DIA fournit une analyse et des conseils opportuns et cr\u00e9dibles au gouvernement et \u00e0 l\u2019industrie afin d\u2019am\u00e9liorer les politiques, la r\u00e9glementation et le d\u00e9veloppement \u00e9conomique appuyant une industrie agroalimentaire comp\u00e9titive, innovatrice et durable. La DIA favorise la collaboration avec d\u2019autres minist\u00e8res, les provinces et les territoires, les associations industrielles et les entreprises agroalimentaires pour aborder les questions importantes pour le secteur et faciliter son succ\u00e8s commercial \u00e0 long terme. La DIA collabore avec les intervenants de tous les secteurs de l\u2019industrie alimentaire, y compris les aliments transform\u00e9s, les boissons, les ingr\u00e9dients, les produits de la mer, les aliments pour animaux de compagnie et la distribution d\u2019aliments, afin de trouver des solutions aux probl\u00e8mes touchant le secteur.</p>\n<p><strong><br>\u00c9nonc\u00e9 des crit\u00e8res de m\u00e9rite et conditions d\u2019emploi </strong></p>\n<p><strong><br>Qualifications essentielles </strong></p>\n<p><strong><br>\u00c9tudes</strong></p>\n<p>Dipl\u00f4me d\u2019un \u00e9tablissement postsecondaire reconnu, avec une sp\u00e9cialisation acceptable en marketing, communications, commerce international, agriculture, \u00e9conomie agricole, \u00e9conomie, commerce ou affaires.</p>\n<p>L\u2019exigence en mati\u00e8re d\u2019\u00e9tudes peut aussi \u00eatre respect\u00e9e au moyen d\u2019une combinaison acceptable d\u2019\u00e9tudes, de formation et/ou d\u2019exp\u00e9rience.</p>\n<p><strong><br>Exp\u00e9riences</strong></p>\n<p>Exp\u00e9rience appr\u00e9ciable* de la recherche, de l\u2019analyse et de la synth\u00e8se de renseignements provenant de sources diverses sur les int\u00e9r\u00eats des consommateurs et de l\u2019industrie, les tendances et les opportunit\u00e9s en vue de formuler des recommandations et des conseils pour appuyer la Campagne de promotion de l\u2019achat de produits canadiens.</p>\n<p>Exp\u00e9rience appr\u00e9ciable* de l\u2019\u00e9tablissement et de l\u2019entretien de rapports de collaboration avec des partenaires interne ou externes, y compris l\u2019industrie, les universit\u00e9s ou des organismes non gouvernementaux.</p>\n<p>Exp\u00e9rience appr\u00e9ciable* de la r\u00e9daction de documents d\u2019information \u00e0 l\u2019intention de la haute direction** sur des dossiers complexes (p. ex., rapports, notes de sc\u00e9nario/d\u2019information, expos\u00e9s, ordres du jour de r\u00e9union, ordres du jour explicatifs et r\u00e9sum\u00e9s de r\u00e9union) et de l\u2019adaptation de textes techniques de mani\u00e8re \u00e0 les rendre plus accessibles \u00e0 des lecteurs non sp\u00e9cialistes.</p>\n<p>Exp\u00e9rience de l\u2019\u00e9laboration de plans de projet, de la surveillance des progr\u00e8s et de l\u2019\u00e9tablissement de rapports sur les r\u00e9sultats.</p>\n<p><em>*Par \u00ab\u2009exp\u00e9rience appr\u00e9ciable\u2009\u00bb, on entend une exp\u00e9rience dont la richesse et l\u2019\u00e9tendue sont normalement associ\u00e9es \u00e0 l\u2019exercice r\u00e9gulier des fonctions d\u00e9crites pendant deux (2) ans ou plus.</em></p>\n<p><em>** Par \u00ab\u2009haute direction\u2009\u00bb, on entend les directeurs et les niveaux sup\u00e9rieurs.</em></p>\n<p><strong><br>Connaissances</strong></p>\n<p>Connaissance des politiques, des programmes et des priorit\u00e9s du gouvernement du Canada li\u00e9s aux secteurs de l\u2019agriculture, de l\u2019agroalimentaire et des produits de la mer.</p>\n<p>Connaissance des enjeux et des tendances cl\u00e9s, auxquels font face l\u2019industrie l\u2019agriculture, l\u2019industrie agroalimentaire et les secteurs des produits de la mer du Canada.</p>\n<p><strong><br>Comp\u00e9tences</strong></p>\n<p>Aptitudes \u00e0 \u00e9crire</p>\n<p>Communication interactive</p>\n<p>Capacit\u00e9 d\u2019\u00e9tablir des relations</p>\n<p>Raisonnement analytique</p>\n<p>Initiative</p>\n<p>Jugement</p>\n<p><strong><br>Exigence linguistique </strong><strong>: </strong>Anglais essentiel</p>\n<p><strong><br>Qualifications constituant un atout</strong></p>\n<p>Ma\u00eetrise d\u2019un \u00e9tablissement d\u2019enseignement postsecondaire reconnu avec sp\u00e9cialisation dans un domaine li\u00e9 aux fonctions du poste</p>\n<p>Exp\u00e9rience de la communication avec des intervenants externes et de la formulation de conseils \u00e0 leur intention</p>\n<p>Exp\u00e9rience de la r\u00e9alisation d\u2019activit\u00e9s de sensibilisation aupr\u00e8s d\u2019intervenants</p>\n<p>Exp\u00e9rience de la direction et de la coordination de travaux d\u2019\u00e9quipes de projets</p>\n<p>Exp\u00e9rience des politiques et des proc\u00e9dures en mati\u00e8re de passation de march\u00e9s</p>\n<p>Exp\u00e9rience de la pr\u00e9paration et de la gestion de plans strat\u00e9giques</p>\n<p>Exp\u00e9rience de la gestion de questions techniques, scientifiques ou r\u00e9glementaires</p>\n<p>Exp\u00e9rience du travail dans l\u2019industrie de la transformation des aliments au Canada</p>\n<h3><strong><br>Besoins de l\u2019organisation</strong></h3>\n<p>Pour diversifier l\u2019effectif, on pourra examiner la candidature des personnes qui s\u2019identifient comme appartenant \u00e0 des groupes vis\u00e9s par l\u2019\u00e9quit\u00e9 en mati\u00e8re d\u2019emploi, soit les autochtones, les personnes handicap\u00e9es, les membres des minorit\u00e9s visibles et les femmes<strong>.</strong></p>\n<p><strong><br>Conditions d\u2019emploi</strong></p>\n<p>\u00catre apte et dispos\u00e9 \u00e0 faire des heures suppl\u00e9mentaires.</p>\n<p>\u00catre apte et dispos\u00e9 \u00e0 voyager.</p>\n<p>S\u00e9curit\u00e9 : cote de fiabilit\u00e9.</p>\n<p>\u00a0</p>\n<p><strong>Candidatures :</strong></p>\n<p>Les employ\u00e9s d\u2019AAC int\u00e9ress\u00e9s sont invit\u00e9s \u00e0 :</p>\n<ul>\n<li>soumettre leur curriculum vitae et une lettre de pr\u00e9sentation, dans laquelle ils indiquent pourquoi ce poste les int\u00e9resse et en quoi ils r\u00e9pondent aux crit\u00e8res du poste; et</li>\n<li>fournir le nom et les coordonn\u00e9es de deux r\u00e9f\u00e9rences, y compris celles du superviseur actuel.</li>\n</ul>\n<p>Vous devez indiquer clairement le groupe et le niveau de votre poste d\u2019attache dans votre curriculum vitae.</p>\n<p>Les documents doivent \u00eatre envoy\u00e9s \u00e0 Sylvie Millette LeDuc \u00e0 l\u2019adresse \u00e9lectronique suivante : sylvie.milletteleduc@canada.ca d\u2019ici le 4 septembre 2019.</p>\n<p><strong><br>Remarques :</strong></p>\n<ul>\n<li>Les communications relatives au processus de s\u00e9lection se feront par courriel.</li>\n</ul>\n<ul>\n<li>Une v\u00e9rification des r\u00e9f\u00e9rences pourrait \u00eatre faite.</li>\n</ul>\n\n"
    },
    "breadcrumb": {
        "en": "Sector Specialist",
        "fr": "Sp\u00e9cialiste de secteur"
    },
    "empl": {
        "type": {
            "en": "Assignment",
            "fr": "Affectation"
        },
        "classification": {
            "en": "CO-2 and equivalent",
            "fr": "CO-2 et \u00e9quivalent"
        },
        "branch": {
            "en": "Market and Industry Services Branch",
            "fr": "Direction g\u00e9n\u00e9rale des services \u00e0 l'industrie et aux march\u00e9s"
        },
        "locations": {
            "en": "NCR",
            "fr": "RCN"
        },
        "date_closing": {
            "en": "2019-09-16",
            "fr": "2019-09-16"
        },
        "open_to": {
            "en": "AAFC employees across Canada at the CO-02 level or equivalent",
            "fr": "Employ\u00e9s d\u2019AAC partout au Canada de niveau et de groupe CO-02 ou l\u2019\u00e9quivalent"
        },
        "name": {
            "en": "Sylvie Millette LeDuc",
            "fr": "Sylvie Millette LeDuc"
        },
        "email": {
            "en": "sylvie.milletteleduc@canada.ca",
            "fr": "sylvie.milletteleduc@canada.ca"
        }
    }
}