{
    "dcr_id": "1569861722236",
    "lang": "en",
    "title": {
        "en": "Senior Programs Officer",
        "fr": "Agent principal de programme"
    },
    "modified": "2019-10-07 00:00:00.0",
    "issued": "2019-10-04 00:00:00.0",
    "type_name": "intra-intra/empl-empl",
    "node_id": "1279029955397",
    "layout_name": null,
    "dc_date_created": "2019-10-01",
    "breadcrumb_label": "",
    "meta": {
        "issued": {
            "en": "2019-10-04",
            "fr": "2019-10-04"
        },
        "modified": {
            "en": "2019-10-07",
            "fr": "2019-10-07"
        },
        "format": {
            "en": "gcformat",
            "fr": "gcformat"
        },
        "title": {
            "en": "Senior Programs Officer",
            "fr": "Agent principal de programme"
        },
        "subject": {
            "en": "staffing",
            "fr": "dotation en personnel"
        },
        "language": {
            "en": "eng",
            "fr": "fra"
        },
        "audience": {
            "en": "gcaudience",
            "fr": "gcaudience"
        },
        "type": {
            "en": "notice",
            "fr": "avis"
        },
        "creator": {
            "en": "Agriculture and Agri-Food Canada",
            "fr": "Agriculture et Agroalimentaire Canada"
        },
        "spatial": {
            "en": "gcregions",
            "fr": "gcregions"
        },
        "service": {
            "en": "AAFC_AgriSource",
            "fr": "AAC_AgriSource"
        },
        "accessRights": {
            "en": "3",
            "fr": "3"
        }
    },
    "body": {
        "en": "\n<p>\u00a0</p>\n<p>The Programs, Services and Results Division is looking for an interested and motivated individual for an assignment, acting or deployment opportunity. The assignment or acting would be for a period of 1 year, with the possibility of an extension, or the deployment would be permanent. This opportunity would expose the selected individual to a vast array of duties that are associated to the role of Senior Programs Officer, including:</p>\n<ul>\n<li>Assessing applications/projects,</li>\n<li>Negotiating and managing Contribution Agreements,</li>\n<li>Monitoring projects,</li>\n<li>Ensuring deadlines are met,</li>\n<li>Client management (e.g., providing guidance, coaching),</li>\n<li>Research and analysis regarding policy issues and/or program design, and</li>\n<li>Making recommendations to senior management.</li>\n</ul>\n<p><br>\n<strong>ESSENTIAL QUALIFICATIONS</strong></p>\n<p>Graduation with a degree from a recognized post-secondary institution in an acceptable area of study such as marketing, international trade, agriculture, economics, commerce, business, public administration, social sciences OR an acceptable combination of education, training and experience.</p>\n<p>Significant experience* in developing, implementing or delivering government grants and/or contributions programs, legislative programs or initiatives.</p>\n<p>Significant experience* in negotiating, coordinating and managing contracts, funding agreements or projects in partnership with other federal government departments, provincial/territorial governments or private-sector organizations.</p>\n<p>Experience in the preparation and coordination of comprehensive material (such as reports, briefing notes, presentations, program and/or policy documents) for senior officials (Director or Director General level).</p>\n<p>Experience in the establishment and management of collaborative relationships with provincial/territorial representatives or public sector stakeholders.</p>\n<p><em>*Significant Experience is defined as the breadth and depth of experience normally associated with the performance of the duties for a minimum of three (3) years.</em></p>\n<p>Analytical Thinking<br>\nClient Focus<br>\nTeamwork<br>\nWriting Skills</p>\n<p><br>\n<strong>Various language requirements</strong><br>\nDepending on the positions to be staffed, it may require the use of English or both English and French.<br>\n<br>\nEnglish Essential<br>\nBilingual Imperative BBB/BBB<br>\nBilingual Imperative CBC/CBC</p>\n<p><strong><br>OPERATIONAL REQUIREMENT </strong></p>\n<p>Ability and willingness to occasionally work overtime.<br>\nAbility and willingness to travel.</p>\n<p><strong><br>CONDITION OF EMPLOYMENT</strong></p>\n<p>Reliability Status security clearance - OR Secret Status security clearance will be required (depending on the position being staffed).</p>\n<p><strong><br>Applications:</strong></p>\n<p>If you are interested in this opportunity, please provide:</p>\n<ul style=\"list-style-type: square;\">\n<li>a short letter (2 pages maximum) expressing why you are interested in the position and the skills and experience you would bring to the position; and</li>\n<li>your resume.</li>\n</ul>\n<p>Send all documents to Pascale Boulerice at pascale.boulerice@canada.ca by October 17, 2019.</p>\n<p>Resumes must clearly identify your substantive group and level.</p>\n<p>If you have any questions or would like more information, please contact Pascale Boulerice at pascale.boulerice@canada.ca or 613-773-2118.</p>\n<p><strong><br>Notes:</strong></p>\n<ul style=\"list-style-type: square;\">\n<li>This is a one year assignment at level or acting opportunity, with the possibility of extension, or a permanent deployment.</li>\n<li>Candidates must have their manager\u2019s approval prior to applying for this opportunity.</li>\n<li>Communication for this process will be sent via email.</li>\n<li>Your cover letter may be used to assess your writing skills.</li>\n<li>Candidates may be assessed through an interview.</li>\n<li>Reference checks may be sought.</li>\n</ul>\n<p>\u00a0</p>\n",
        "fr": "\n<p>\u00a0</p>\n<p>La Division des programmes, des services et des r\u00e9sultats est \u00e0 la recherche d\u2019une personne int\u00e9ress\u00e9e et motiv\u00e9e pour une affectation, un int\u00e9rim ou une mutation. Cette affectation ou nomination int\u00e9rimaire serait pour une dur\u00e9e d\u2019un an, avec possibilit\u00e9 de prolongation ou d\u2019une mutation permanent. Cette possibilit\u00e9 permettrait \u00e0 la personne choisie d\u2019acqu\u00e9rir l\u2019exp\u00e9rience d\u2019une vaste gamme de t\u00e2ches li\u00e9es au r\u00f4le d\u2019agent principal de programme, notamment les suivantes :</p>\n<ul>\n<li>\u00c9valuation de demandes/projets;</li>\n<li>N\u00e9gociation et gestion d\u2019accords de contribution;</li>\n<li>Surveillance de projets;</li>\n<li>Surveillance du respect des \u00e9ch\u00e9ances;</li>\n<li>Gestion des clients (p. ex., orientation, encadrement);</li>\n<li>Recherches et analyses portant sur des questions strat\u00e9giques et/ou la conception des programmes; et</li>\n<li>Formulation de recommandations \u00e0 la haute direction.</li>\n</ul>\n<p><strong><br>QUALIFICATIONS ESSENTIELLES</strong></p>\n<p>Dipl\u00f4me d\u2019un \u00e9tablissement d\u2019enseignement postsecondaire reconnu dans un domaine d\u2019\u00e9tude acceptable, comme le marketing, le commerce international, l\u2019agriculture, l\u2019\u00e9conomie, le commerce, l\u2019administration, l\u2019administration publique ou les sciences sociales, OU une combinaison acceptable d\u2019\u00e9tudes, de formation et d\u2019exp\u00e9rience.</p>\n<p>Exp\u00e9rience significative* de l\u2019\u00e9laboration ou de la mise en \u0153uvre de programmes de subventions ou de contributions, de programmes l\u00e9gislatifs ou d\u2019initiatives du gouvernement.</p>\n<p>Exp\u00e9rience significative* de la n\u00e9gociation, de la coordination et de la gestion de contrats, d\u2019accords de financement ou de projets en partenariat avec d\u2019autres minist\u00e8res f\u00e9d\u00e9raux, gouvernements provinciaux/territoriaux ou organisations du secteur priv\u00e9.</p>\n<p>Exp\u00e9rience de la pr\u00e9paration et de la coordination de mat\u00e9riel d\u2019information (p. ex., rapports, notes d\u2019information, pr\u00e9sentations, documents de programme ou de politique) \u00e0 l\u2019intention de cadres sup\u00e9rieurs (niveau de directeur ou directeur g\u00e9n\u00e9rale).</p>\n<p>Exp\u00e9rience de l\u2019\u00e9tablissement et de la gestion de relations de collaboration avec des intervenants des gouvernements provinciaux/territoriaux ou du secteur priv\u00e9.</p>\n<p><em>*Le terme \u00absignificative\u00bb est d\u00e9fini comme l\u2019\u00e9tendue et la profondeur de l\u2019exp\u00e9rience normalement associ\u00e9e avec l\u2019accomplissement des t\u00e2ches du poste pour une p\u00e9riode minimale de trois (3) ans.</em><em> </em></p>\n<p>R\u00e9flexion analytique<br>\nSouci du service \u00e0 la client\u00e8le<br>\nEsprit d\u2019\u00e9quipe<br>\nComp\u00e9tences en r\u00e9daction</p>\n<p><br>\n<strong>Diverses exigences linguistiques </strong></p>\n<p>Selon le poste \u00e0 combler, le candidat pourrait devoir utiliser l\u2019anglais ou l\u2019anglais et le fran\u00e7ais.<br>\n<br>\nAnglais essentiel<br>\nBilingue imp\u00e9ratif BBB/BBB<br>\nBilingue imp\u00e9ratif CBC/CBC</p>\n<p><strong><br>EXIGENCES OP\u00c9RATIONNELLES </strong></p>\n<p>Consentir et \u00eatre apte \u00e0 faire des heures suppl\u00e9mentaires \u00e0 l\u2019occasion.<br>\nConsentir et \u00eatre apte \u00e0 voyager.</p>\n<p><strong><br>CONDITIONS D\u2019EMPLOI</strong></p>\n<p>Cote de fiabilit\u00e9 ou de niveau \u00ab secret \u00bb selon le poste.</p>\n<p><strong><br>Demandes</strong></p>\n<p>Si cette opportunit\u00e9 vous int\u00e9ress\u00e9, veuillez fournir :</p>\n<ul style=\"list-style-type: square;\">\n<li>Une courte lettre (2 pages maximum) expliquant pourquoi ce poste vous int\u00e9resse et les comp\u00e9tences et l\u2019exp\u00e9rience que vous poss\u00e9dez afin de l\u2019occuper</li>\n<li>Votre curriculum vitae</li>\n</ul>\n<p>Envoyez vos documents \u00e0 Pascale Boulerice \u00e0 l\u2019adresse pascale.boulerice@canada.ca d\u2019ici le 17 octobre 2019.</p>\n<p>Veuillez indiquer clairement le groupe et le niveau de votre poste d\u2019attache dans votre curriculum vitae.</p>\n<p>Si vous avez des questions ou voulez plus d\u2019information, veuillez communiquer avec Pascale Boulerice par courriel \u00e0 l\u2019adresse pascale.boulerice@canada.ca ou par t\u00e9l\u00e9phone au 613-773-2118.</p>\n<p><strong><br>Remarques</strong></p>\n<ul style=\"list-style-type: square;\">\n<li>Il s\u2019agit d\u2019une affectation ou d\u2019une nomination int\u00e9rimaire d\u2019un an \u00e0 un poste de m\u00eame niveau, avec possibilit\u00e9 de prolongation ou d\u2019une mutation permanente.</li>\n<li>Les candidats doivent obtenir l\u2019approbation de leur gestionnaire avant de pr\u00e9senter leur candidature.</li>\n<li>Les communications relatives \u00e0 ce processus se feront par courriel.</li>\n<li>Votre lettre de pr\u00e9sentation pourrait \u00eatre utilis\u00e9e pour \u00e9valuer vos comp\u00e9tences en r\u00e9daction.</li>\n<li>Les candidats pourront \u00eatre \u00e9valu\u00e9s au moyen d\u2019une entrevue.</li>\n<li>Les r\u00e9f\u00e9rences des candidats pourraient faire l\u2019objet d\u2019une v\u00e9rification.</li>\n</ul>\n<p>\u00a0</p>\n\n"
    },
    "breadcrumb": {
        "en": "Senior Programs Officer",
        "fr": "Agent principal de programme"
    },
    "empl": {
        "type": {
            "en": "Assignment, Deployment, Acting",
            "fr": "Affectation, Mutation, Int\u00e9rimaire"
        },
        "classification": {
            "en": "CO-2 and equivalent",
            "fr": "CO-2 et \u00e9quivalent"
        },
        "branch": {
            "en": "Programs Branch",
            "fr": "Direction g\u00e9n\u00e9rale des programmes"
        },
        "locations": {
            "en": "Ottawa (Ontario)",
            "fr": "Ottawa, Ontario"
        },
        "date_closing": {
            "en": "2019-10-17",
            "fr": "2019-10-17"
        },
        "open_to": {
            "en": "All AAFC Employees located in the NCR",
            "fr": "Tous les employ\u00e9s d\u2019AAC de la RCN"
        },
        "name": {
            "en": "Pascale Boulerice",
            "fr": "Pascale Boulerice"
        },
        "email": {
            "en": "pascale.boulerice@canada.ca",
            "fr": "pascale.boulerice@canada.ca"
        }
    }
}