{
    "dcr_id": "1569965567799",
    "lang": "en",
    "title": {
        "en": "NCR - This Week in GCWCC News",
        "fr": "RCN - Nouvelles hebdomadaires sur la CCMTGC"
    },
    "modified": "2019-10-03 00:00:00.0",
    "issued": "2019-10-03 00:00:00.0",
    "type_name": "intra-intra/news-nouv",
    "node_id": "1279030006975",
    "layout_name": null,
    "dc_date_created": "2019-10-02",
    "breadcrumb_label": "",
    "meta": {
        "issued": {
            "en": "2019-10-03",
            "fr": "2019-10-03"
        },
        "modified": {
            "en": "2019-10-03",
            "fr": "2019-10-03"
        },
        "format": {
            "en": "gcformat",
            "fr": "gcformat"
        },
        "title": {
            "en": "NCR - This Week in GCWCC News",
            "fr": "RCN - Nouvelles hebdomadaires sur la CCMTGC"
        },
        "subject": {
            "en": "communications",
            "fr": "communications"
        },
        "description": {
            "en": "The Government of Canada Charitable Workplace Campaign (GCWCC) will run until November 15. Find out what\u2019s happening for GCWCC in the NCR below!",
            "fr": "La Campagne de charit\u00e9 en milieu de travail du gouvernement du Canada (CCMTGC) se poursuivra jusqu'au 15 novembre. D\u00e9couvrez ce qui est organis\u00e9 en marge de la CCMTGC dans la RCN ci-dessous!"
        },
        "language": {
            "en": "eng",
            "fr": "fra"
        },
        "audience": {
            "en": "gcaudience",
            "fr": "gcaudience"
        },
        "creator": {
            "en": "Agriculture and Agri-Food Canada",
            "fr": "Agriculture et Agroalimentaire Canada"
        },
        "spatial": {
            "en": "gcregions",
            "fr": "gcregions"
        },
        "service": {
            "en": "AAFC_AgriSource",
            "fr": "AAC_AgriSource"
        },
        "accessRights": {
            "en": "3",
            "fr": "3"
        }
    },
    "body": {
        "en": "<br>\n<br>\n<p>The Government of Canada Charitable Workplace Campaign (GCWCC) will run until November 15. Find out what\u2019s happening for GCWCC in the NCR below! All net proceeds from events will go toward GCWCC.</p>\n<h2><strong>Neatby Bake Sale</strong></h2>\n<p>This is a great time to stock up on some delicious baked goods in time for Thanksgiving, while making a real difference in the community!</p>\n<p><strong>Date and Time:</strong> Wednesday, October 9 | 10:00 am to 12:00 pm<br>\n<strong>Location:</strong> Central Experimental Farm, Neatby Building, Salon C.</p>\n<p>To celebrate a spirit of sharing, we are offering complimentary coffee and tea. To help keep our event eco-friendly, please bring your own mug and spoon.</p>\n<p><strong>Bakers:</strong> Contact<strong> </strong><a href=\"mailto:sahra-taylor.hutter@canada.ca\">sahra-taylor.hutter@canada.ca</a> to donate baked goods.</p>\n<h2><strong>Crafternoon Event</strong></h2>\n<p>Whether you are an expert at drawing stick figures or the next Picasso, come and spend a relaxing hour painting with your colleagues! The painting will be agricultural\u2011themed and guided by a host with a step\u2011by\u2011step method that painters of all levels can enjoy.</p>\n<p><strong>NHCAP</strong></p>\n<ul>\n<li><strong>Date and time:</strong> Wednesday, October 9 | 1:00\u00a0- 2:00 pm <strong>or</strong> 2:30\u00a0- 3:30 pm</li>\n<li><strong>Location:</strong> Tower 6 cafeteria</li>\n</ul>\n<p><strong>Central Experimental Farm </strong></p>\n<ul>\n<li><strong>Date and time:</strong> Wednesday, October 16 | 2:30\u00a0- 3:30 pm</li>\n<li><strong>Location:</strong> Central Experimental Farm, K.W. Neatby, Salon C</li>\n</ul>\n<p><strong>Language: </strong>Bilingual<br><strong>Cost:</strong> $15 per person - Paintbrushes, paint, and canvas included. Be sure to wear paint\u2011appropriate clothing and/or bring an apron!</p>\n<p><strong>Registration (by October 7):</strong></p>\n<ul>\n<li><strong>Online:</strong> <a href=\"https://collab.agr.gc.ca/co/gcwcc-support-ccmtgc/SitePages/NCR%20CAMPAIGN%20-%20Events-%20CAMPAGNE%20DANS%20LA%20RCN-%20Activit%C3%A9s.aspx\">GCWCC events page on Knowledge workspace</a></li>\n<li><strong>Email:</strong> Contact <a href=\"mailto:heba.zafar@canada.ca\">heba.zafar@canada.ca</a></li>\n</ul>\n<h2><strong>GCWCC AAFC-CFIA Loonie Toonie Challenge</strong></h2>\n<p>Bring your loonies and toonies to help AAFC\u2019s Young Professionals Network compete against CFIA\u2019s Synapse in the Loonie Toonie Challenge for GCWCC. Let\u2019s see if we can collect the most loonies and toonies leading up to race day!</p>\n<p>To donate to Team AAFC, please bring your change to your ADMO before October 14.</p>\n<p><strong>Loonie Toonie Race: </strong>Cheer on Deputy Minister Chris Forbes and Team AAFC as they take on CFIA President Siddika Mithani and Team CFIA in a race to see who can line up the most coins!</p>\n<p><strong>Date and time:</strong> October 15 | 1:00 to 1:45 pm<br>\n<strong>Language: </strong>Bilingual<br>\n<strong>Location:</strong> Tower 6 cafeteria (NHCAP)</p>\n<h2><strong>Trivia Event</strong></h2>\n<p>Assemble a team and compete in\u00a0five rounds of trivia, where you will answer questions about topics including:</p>\n<ul>\n<li>sports</li>\n<li>arts and entertainment</li>\n<li>name that tune</li>\n</ul>\n<p>The first place and runner-up teams will win prizes!</p>\n<p><strong>Date and time:</strong> Thursday, October 17 | 10:30 am to 12:00 pm<br><strong>Language: </strong>Bilingual<br><strong>Location:</strong> T6 cafeteria (NHCAP)<br><strong>Cost:</strong> $50 per team, 5 players maximum<br><strong>Registration:</strong> Contact Melanie Saucier (<a href=\"mailto:melanie.saucier@canada.ca\">melanie.saucier@canada.ca</a>) by October 4</p>\n<h2><strong>Giving Garden</strong></h2>\n<p>The Giving Garden mural is in the Tower 6 cafeteria. Employees can share their giving story by filling out a petal and placing it on the mural. Each petal will show how we give back to the community through volunteering or donations and let our colleagues know about the work of our chosen charities.</p>\n<p>Fill out your petal at GCWCC events! A list of events can be found on the <a href=\"https://collab.agr.gc.ca/co/gcwcc-support-ccmtgc/SitePages/NCR%20CAMPAIGN%20-%20Events-%20CAMPAGNE%20DANS%20LA%20RCN-%20Activit%C3%A9s.aspx\">GCWCC Events page on Knowledge Workspace</a>.</p>\n<h2><strong>Calendars</strong></h2>\n<p>The 2020 AAFC calendar features employee photos from <em>The Harvest</em>. Place your calendar pre-orders at GCWCC events or by contacting Lesleigh Smith at <a href=\"mailto:lesleigh.smith@canada.ca\">lesleigh.smith@canada.ca</a>. Calendars are $15, with net profits going to the GCWCC. Not only will you get to proudly display the product that you helped create, but you\u2019ll be helping your community at the same time.</p>\n<p>Limited quantities of the calendar are available, so be sure to get your order in early!</p>\n<h2><strong>Blitz Raffles</strong></h2>\n<p>We will be having\u00a0two canvassing blitz draws this year! During the blitz periods (September 16 to 27 and November 4 to 8), your Campaign Ambassador will be visiting you to let you know a little about this year\u2019s campaign and will drop off your raffle ballot. Simply return the ballot to your Campaign Ambassador to be entered into a draw after the blitz period. The first draw will take place on October 11.</p>\n<h2><strong>50/50 Draws</strong></h2>\n<p>The next draw is October 11. Be sure to purchase your 50/50 tickets from your seller for your chance to win up to $1000. For more information on rules and this year\u2019s winners, see the <a href=\"https://collab.agr.gc.ca/co/gcwcc-support-ccmtgc/SitePages/50-50.aspx\">GCWCC 50/50 page on Knowledge Workspace</a>.</p>\n<h2><strong>Friends and Leaders\u2019 Draw</strong></h2>\n<p>Employees who pledge between $500 and $999 through one\u2011time payment or payroll deductions will be entered in a draw for great prizes, including Senators tickets, which have been generously donated by an AAFC employee. Employees who pledge $1000 or more will receive two entries for the draw.</p>\n<p>For more information about the Campaign, visit the <a href=\"https://collab.agr.gc.ca/co/gcwcc-support-ccmtgc/SitePages/NCR%20CAMPAIGN-%20CAMPAGNE%20DANS%20LA%20RCN.aspx\">GCWCC Knowledge Workspace page</a>.</p>\n<p><img src=\"https://intranet.agr.gc.ca/resources/prod/news/images/GCWCC2019-EN.png\" class=\"center-block\"></p>\n\n\t\t",
        "fr": "<br>\n<br>\n<p>La Campagne de charit\u00e9 en milieu de travail du gouvernement du Canada (CCMTGC) se poursuivra jusqu\u2019au 15 novembre. D\u00e9couvrez ce qui est organis\u00e9 en marge de la CCMTGC dans la RCN ci-dessous! Tous les profits seront vers\u00e9s \u00e0 la CCMTGC.</p>\n<h2>\n Neatby vente de p\u00e2tisseries</h2>\n<p>\nC\u2019est le moment id\u00e9al pour acheter de d\u00e9licieuses p\u00e2tisseries \u00e0 temps pour les f\u00eates, tout en faisant une grande diff\u00e9rence dans la communaut\u00e9 !</p>\n<p><b>Date et heure\u00a0:</b> le mercredi 9 octobre | 10 h \u00e0 12 h<br><b>Lieu\u00a0:</b> Ferme exp\u00e9rimental, K. W. Neatby, au salon C. </p>\n<p>\nPour c\u00e9l\u00e9brer un esprit de partage, nous offrons du th\u00e9 et du caf\u00e9 gratuits. Pour rendre cet \u00e9v\u00e9nement z\u00e9ro d\u00e9chet, veuillez apporter votre tasse et votre cuill\u00e8re.</p>\n<p>Veuillez communiquer avec\u00a0Sahra Taylor-Hutter\u00a0(<a href=\"mailto:sahra-taylor.hutter@canada.ca\">sahra-taylor.hutter@canada.ca</a>) si vous voulez proposer vos services de p\u00e2tissier. </p>\n<h2><strong>Apr\u00e8s-midi d\u2019artisanat</strong></h2>\n<p>Que vous soyez un expert pour dessiner des bonhommes allumettes ou le prochain Picasso, venez profiter d\u2019une heure de d\u00e9tente \u00e0 faire de la peinture avec vos coll\u00e8gues! Cette activit\u00e9, qui s\u2019adresse aux peintres de tous les niveaux, aura pour th\u00e8me l\u2019agriculture et sera guid\u00e9e par un animateur selon une m\u00e9thode \u00e9tape par \u00e9tape.</p>\n<p><strong>CACPA</strong></p>\n<ul>\n<li><strong>Date et heure :</strong> Mercredi 9 octobre | De 13 h \u00e0 14 h <strong>ou</strong> de 14 h 30 \u00e0 15 h 30</li>\n<li><strong>Lieu :</strong> Caf\u00e9t\u00e9ria de la tour 6</li>\n</ul>\n<p><strong>Ferme exp\u00e9rimentale centrale</strong></p>\n<ul>\n<li><strong>Date et heure :</strong> Mercredi 16 octobre | 14 h 30 \u00e0 15 h 30</li>\n<li><strong>Lieu :</strong> Ferme exp\u00e9rimentale centrale, \u00e9difice K.W. Neatby, salon C</li>\n</ul>\n<p><strong>Langue : </strong>Bilingue<br><strong>Co\u00fbt :</strong> 15 $ par personne \u2013 Les pinceaux, la peinture et les toiles seront fournis. Portez des v\u00eatements appropri\u00e9es pour faire de la peinture ou apportez un tablier!</p>\n<p><strong>Inscription (d\u2019ici le 7 octobre) :</strong></p>\n<ul>\n<li><strong>En ligne :</strong> <a href=\"https://collab.agr.gc.ca/co/gcwcc-support-ccmtgc/SitePages/NCR%20CAMPAIGN%20-%20Events-%20CAMPAGNE%20DANS%20LA%20RCN-%20Activit%C3%A9s.aspx\">page de la CCMTGC dans l\u2019Espace de travail du savoir</a></li>\n<li><strong>Par courriel :</strong> <a href=\"mailto:heba.zafar@canada.ca\">heba.zafar@canada.ca</a></li>\n</ul>\n<h2><strong>Jeu de connaissances g\u00e9n\u00e9rales</strong></h2>\n<p>Rassemblez une \u00e9quipe et participez \u00e0 cinq rondes d\u2019un jeu-questionnaire, o\u00f9 vous r\u00e9pondrez \u00e0 des questions sur des sujets tels que :</p>\n<ul>\n<li>sports;</li>\n<li>arts et divertissement;</li>\n<li>nommer la chanson.</li>\n</ul>\n<p>L\u2019\u00e9quipe gagnante et les autres finalistes remporteront des prix!</p>\n<p><strong>Date et heure :</strong> Le jeudi 17 octobre | 10 h 30 \u00e0 midi<br><strong>Langue : </strong>Bilingue<br><strong>Lieu :</strong> Caf\u00e9t\u00e9ria de la T6 (CACPA)<br><strong>Co\u00fbt : </strong>50 $ par \u00e9quipe de cinq joueurs tout au plus<br><strong>Inscription :</strong> Communiquez avec Melanie Saucier (<a href=\"mailto:melanie.saucier@canada.ca\">melanie.saucier@canada.ca</a>) au plus tard le 4 octobre.</p>\n<h2><strong>D\u00e9fi \u00ab argent sonnant \u00bb d\u2019AAC et de l\u2019ACIA pour la CCMTGC</strong></h2>\n<p>Apportez vos pi\u00e8ces d\u2019un et de deux dollars pour aider le R\u00e9seau des jeunes professionnels d\u2019AAC \u00e0 rivaliser avec le r\u00e9seau Synapse de l\u2019ACIA dans le cadre du D\u00e9fi \u00ab argent sonnant \u00bb de la CCMTGC. Voyons si nous pouvons amasser le plus de pi\u00e8ces d\u2019un et de deux dollars d\u2019ici le jour de la course!</p>\n<p>Pour faire un don \u00e0 l\u2019\u00e9quipe d\u2019AAC, apportez vos pi\u00e8ces de monnaie \u00e0 votre BSMA entre le 3 et le 14 octobre.</p>\n<p><strong>Course \u00ab argent sonnant \u00bb : </strong>Venez encourager l\u2019\u00e9quipe d\u2019AAC lors de la course \u00e0 laquelle participera chaque minist\u00e8re pour aligner le plus de pi\u00e8ces de monnaie! L\u2019\u00e9quipe gagnante sera celle avec la plus longue ligne de pi\u00e8ces et les profits nets iront \u00e0 la CCMTGC.</p>\n<p><strong>Date et heure :</strong> 15 octobre | 11 h \u00e0 11 h 30<br>\n<strong>Langue : </strong>Bilingue<br>\n<strong>Lieu :</strong> Caf\u00e9t\u00e9ria de la T2 (CACPA)</p>\n<h2><strong>Jardin de la g\u00e9n\u00e9rosit\u00e9</strong></h2>\n<p>La murale Jardin de la g\u00e9n\u00e9rosit\u00e9 se trouve dans la caf\u00e9t\u00e9ria de la tour 6. Les employ\u00e9s peuvent raconter leur histoire de don en l\u2019inscrivant sur un p\u00e9tale, qu\u2019ils poseront par la suite sur la murale. Chaque p\u00e9tale dira comment nous redonnons \u00e0 notre communaut\u00e9 en faisant du b\u00e9n\u00e9volat ou des dons et fera conna\u00eetre \u00e0 nos coll\u00e8gues le travail des organismes de bienfaisance que nous avons choisis.</p>\n<p>Profitez d\u2019\u00e9v\u00e9nements de la CCMTGC pour remplir votre p\u00e9tale! La <a href=\"https://collab.agr.gc.ca/co/gcwcc-support-ccmtgc/SitePages/NCR%20CAMPAIGN%20-%20Events-%20CAMPAGNE%20DANS%20LA%20RCN-%20Activit%C3%A9s.aspx\">page des \u00e9v\u00e9nements de la CCMTGC dans l\u2019Espace de travail du savoir</a> contient la liste des \u00e9v\u00e9nements.</p>\n<h2><strong>Calendriers</strong></h2>\n<p>Le calendrier 2020 d\u2019AAC contient des photos d\u2019employ\u00e9s tir\u00e9s de <em>La Moisson</em>. Commandez vos calendriers \u00e0 l\u2019avance lors d\u2019\u00e9v\u00e9nements rattach\u00e9s \u00e0 la CCMTGC ou en communiquant avec Lesleigh Smith \u00e0 l\u2019adresse <a href=\"mailto:lesleigh.smith@canada.ca\">lesleigh.smith@canada.ca</a>. Les calendriers co\u00fbtent 15 $ et les recettes nettes sont vers\u00e9es \u00e0 la CCMTGC. En plus d\u2019afficher fi\u00e8rement le produit que vous avez aid\u00e9 \u00e0 cr\u00e9er, vous appuierez votre communaut\u00e9 par la m\u00eame occasion.</p>\n<p>Des quantit\u00e9s limit\u00e9es du calendrier sont mises en vente; assurez-vous de passer votre commande le plus t\u00f4t possible!</p>\n<h2><strong>Tirages \u00e9clair</strong></h2>\n<p>Nous ferons deux tirages \u00e9clair cette ann\u00e9e! Durant les p\u00e9riodes de tirage \u00e9clair (du 16 au 27 septembre et du 4 au 8 novembre), votre ambassadeur de campagne vous rendra visite pour vous parler de la campagne de cette ann\u00e9e et pour vous remettre votre bulletin de tirage. Vous n\u2019avez qu\u2019\u00e0 retourner le bulletin \u00e0 votre ambassadeur de campagne pour participer \u00e0 un tirage au sort apr\u00e8s le tirage \u00e9clair. Le premier tirage aura lieu le 11 octobre.</p>\n<h2><strong>Tirages 50/50</strong></h2>\n<p>Le prochain tirage aura lieu le 11 octobre. N\u2019oubliez pas d\u2019acheter vos billets aupr\u00e8s de votre vendeur pour courir la chance de gagner jusqu\u2019\u00e0 1 000 $. Pour de plus amples renseignements sur les r\u00e8gles et les gagnants de cette ann\u00e9e, consultez le site Web des <a href=\"https://collab.agr.gc.ca/co/gcwcc-support-ccmtgc/SitePages/50-50.aspx\">tirages 50/50 de la CCMTGC dans l\u2019Espace de travail du savoir</a>.</p>\n<h2><strong>Tirage Amis et chefs de file</strong></h2>\n<p>Les employ\u00e9s qui s\u2019engagent \u00e0 verser entre 500 $ et 999 $ sous forme de paiement unique ou de retenues salariales participeront \u00e0 un tirage au sort pour gagner des prix exceptionnels, y compris des billets pour les S\u00e9nateurs, qui ont \u00e9t\u00e9 gracieusement offerts par un employ\u00e9 d\u2019AAC. Les employ\u00e9s qui s\u2019engagent \u00e0 verser 1 000 $ ou plus recevront deux participations au tirage.</p>\n<p>Pour de plus amples renseignements au sujet de la campagne, consultez la <a href=\"https://collab.agr.gc.ca/co/gcwcc-support-ccmtgc/SitePages/NCR%20CAMPAIGN-%20CAMPAGNE%20DANS%20LA%20RCN.aspx\">page sur la CCMTGC dans l\u2019Espace de travail du savoir</a>.</p>\n<p><img src=\"https://intranet.agr.gc.ca/resources/prod/news/images/GCWCC2019-FR.png\" class=\"center-block\"></p>\n\t\t"
    },
    "breadcrumb": {
        "en": "NCR - This Week in GCWCC News",
        "fr": "RCN - Nouvelles hebdomadaires sur la CCMTGC"
    },
    "news": {
        "date_posted": {
            "en": "2019-10-03",
            "fr": "2019-10-03"
        },
        "to": {
            "en": "NCR only",
            "fr": "RCN seulement"
        },
        "by": {
            "en": "GCWCC Core Team",
            "fr": "\u00c9quipe de base de la CCMTGC"
        }
    }
}