{
    "dcr_id": "1569269266856",
    "lang": "en",
    "title": {
        "en": "Trade Policy Analyst",
        "fr": "Analyste des politiques commerciales"
    },
    "modified": "2019-09-24 00:00:00.0",
    "issued": "2019-09-24 00:00:00.0",
    "type_name": "intra-intra/empl-empl",
    "node_id": "1279029955397",
    "layout_name": null,
    "dc_date_created": "2019-09-24",
    "breadcrumb_label": "",
    "meta": {
        "issued": {
            "en": "2019-09-24",
            "fr": "2019-09-24"
        },
        "modified": {
            "en": "2019-09-24",
            "fr": "2019-09-24"
        },
        "format": {
            "en": "gcformat",
            "fr": "gcformat"
        },
        "title": {
            "en": "Trade Policy Analyst",
            "fr": "Analyste des politiques commerciales"
        },
        "subject": {
            "en": "staffing",
            "fr": "dotation en personnel"
        },
        "language": {
            "en": "eng",
            "fr": "fra"
        },
        "audience": {
            "en": "gcaudience",
            "fr": "gcaudience"
        },
        "type": {
            "en": "notice",
            "fr": "avis"
        },
        "creator": {
            "en": "Agriculture and Agri-Food Canada",
            "fr": "Agriculture et Agroalimentaire Canada"
        },
        "spatial": {
            "en": "gcregions",
            "fr": "gcregions"
        },
        "service": {
            "en": "AAFC_AgriSource",
            "fr": "AAC_AgriSource"
        },
        "accessRights": {
            "en": "3",
            "fr": "3"
        }
    },
    "body": {
        "en": "\n<p><strong>\u00a0</strong></p>\n<p>Employees of Agriculture and Agri-Food Canada at the EC-02, EC-03 and EC-04 level in the ECDP are invited to express their interest in assignment opportunities within the Trade Negotiations Division in the Market and Industry Services Branch. Support for trade policy research, analysis, information and data services in economics and socio-economics for Agriculture and Agri-Food Canada, all levels of government, stakeholders, non-governmental organizations and the general public.</p>\n<p><strong><br>Are you looking for?</strong></p>\n<p>Experience in analysis and research on Canada\u2019s agricultural trade interests and agreements?</p>\n<p>Experience developing and preparing briefing notes, presentations, QTEs, and Memoranda to Cabinet?</p>\n<p>If so, we encourage you to express interest in this exciting opportunity!</p>\n<p><strong><br>STATEMENT OF MERIT CRITERIA: </strong><br>\n<br>\n<strong><br>Essential Qualifications<br>\n<br>\n<br>Language:</strong> Various<strong> </strong>Language Profiles</p>\n<p><strong><br>Education:</strong><br>\nGraduation with a degree from a recognized post-secondary institution with acceptable specialization in economics, policy or statistics.</p>\n<p><strong><br>Experience:</strong><br>\nExperience in quantitative analysis and reporting and presenting research or analysis findings.</p>\n<p>Experience in policy or economic research, analysis or policy development.</p>\n<p>\nExperience in writing briefing notes or decks.</p>\n<p><strong><br>Knowledge:</strong><br>\nKnowledge of Canada\u2019s agriculture trade interests and agreements.</p>\n<p><strong><br>Competencies:</strong><br>\n\u2022 Analytical Thinking<br>\n\u2022 Interactive Communication<br>\n\u2022 Writing Skills<br>\n\u2022 Teamwork<br>\n\u2022 Initiative<br>\n\u2022 Adaptability<br>\n\u2022 Judgment</p>\n<p><strong><br>Conditions of Employment:</strong><br>\nSecurity: Secret clearance</p>\n<p><strong><br>Asset Qualifications:</strong><br>\nExperience in dealing and engaging with other government departments and stakeholders.</p>\n<p><strong><br>Applications:</strong><br>\nInterested AAFC employees are encouraged to forward their resume and cover letter (maximum 300 words) to Alessandro Longo at alessandro.longo@canada.ca with the following information:</p>\n<p>\u2022 Your tenure (e.g., term or indeterminate);<br>\n\u2022 Your substantive group and level; and<br>\n\u2022 How you meet the essential and asset qualifications.</p>\n<p>\u00a0</p>\n",
        "fr": "\n<p><strong>\u00a0</strong></p>\n<p>Les employ\u00e9s d\u2019Agriculture et Agroalimentaire Canada aux niveaux EC-02, EC-03 et EC-04 dans le PPEC sont invit\u00e9s \u00e0 manifester leur int\u00e9r\u00eat pour des possibilit\u00e9s d\u2019affectation au sein de la Division des n\u00e9gociations commerciales de la Direction g\u00e9n\u00e9rale des services \u00e0 l\u2019industrie et aux march\u00e9s. Soutien \u00e0 l\u2019\u00e9gard des services de recherche, d\u2019analyse, d\u2019information et de donn\u00e9es sur les politiques commerciales du point de vue \u00e9conomique et socio\u00e9conomique pour Agriculture et Agroalimentaire Canada (AAC), tous les ordres de gouvernement, les intervenants, les organisations non gouvernementales et le grand public.</p>\n<p><strong><br>\u00cates-vous \u00e0 la recherche d\u2019une occasion comme celle-ci?</strong></p>\n<p>Exp\u00e9rience de l\u2019analyse et de la recherche sur les int\u00e9r\u00eats et les accords commerciaux agricoles du Canada.</p>\n<p>Exp\u00e9rience dans l\u2019\u00e9laboration et la pr\u00e9paration de notes d\u2019information, d\u2019expos\u00e9s, de dossiers et de m\u00e9moires au Cabinet.</p>\n<p>Si tel est le cas, nous vous encourageons \u00e0 exprimer votre int\u00e9r\u00eat pour cette opportunit\u00e9 excitante!</p>\n<p><strong><br>\u00c9NONC\u00c9 DES CRIT\u00c8RES DE M\u00c9RITE </strong></p>\n<p><strong><br>Qualifications essentielles</strong></p>\n<p><strong><br>Exigences linguistiques</strong> <strong>:</strong> Divers profils linguistiques</p>\n<p><strong><br>\u00c9tudes</strong></p>\n<p>Dipl\u00f4me d\u00e9cern\u00e9 par un \u00e9tablissement d\u2019enseignement postsecondaire reconnu avec sp\u00e9cialisation acceptable en \u00e9conomie, en politique ou en statistique.</p>\n<p>\u00a0</p>\n<p><strong>Exp\u00e9rience</strong><br>\nExp\u00e9rience de l\u2019analyse quantitative, de la production de rapports et de la pr\u00e9sentation des r\u00e9sultats de recherche ou d\u2019analyse.</p>\n<p>Exp\u00e9rience de la recherche et de l\u2019analyse dans le domaine \u00e9conomique ou des politiques ou de l\u2019\u00e9laboration de politiques.</p>\n<p>\nExp\u00e9rience de la r\u00e9daction de notes d\u2019information ou de pr\u00e9sentations.</p>\n<p><strong><br>Connaissances</strong><br>\nConnaissance des int\u00e9r\u00eats et des accords commerciaux agricoles du Canada.</p>\n<p><strong><br>Comp\u00e9tences </strong></p>\n<p>\u2022 R\u00e9flexion analytique</p>\n<p>\u2022 Communication interactive</p>\n<p>\u2022 Comp\u00e9tences en r\u00e9daction</p>\n<p>\u2022 Travail d\u2019\u00e9quipe</p>\n<p>\u2022 Esprit d\u2019initiative</p>\n<p>\u2022 Facult\u00e9 d\u2019adaptation</p>\n<p>\u2022 Jugement</p>\n<p>\u00a0</p>\n<p><strong>Conditions d\u2019emploi</strong> <strong>:</strong></p>\n<p>S\u00e9curit\u00e9 : cote de niveau \u00ab secret \u00bb</p>\n<p><strong><br>Qualifications constituant un atout</strong><br>\nExp\u00e9rience des communications avec d\u2019autres minist\u00e8res et des intervenants, et de la mobilisation de ceux-ci.</p>\n<p><strong><br>Candidatures</strong><br>\nLes employ\u00e9s d\u2019AAC int\u00e9ress\u00e9s sont invit\u00e9s \u00e0 envoyer leur curriculum vit\u00e6 et leur lettre de pr\u00e9sentation (maximum de 300 mots) \u00e0 Alessandro Longo (alessandro.longo@canada.ca) avec les renseignements suivants :</p>\n<p>\u2022 la dur\u00e9e de leur emploi (c.-\u00e0-d. d\u00e9termin\u00e9e ou ind\u00e9termin\u00e9e);</p>\n<p>\u2022 le groupe et le niveau de leur poste d\u2019attache;</p>\n<p>\u2022 en quoi ils poss\u00e8dent les qualifications essentielles et les qualifications constituant un atout.</p>\n<p>\u00a0</p>\n\n"
    },
    "breadcrumb": {
        "en": "Trade Policy Analyst",
        "fr": "Analyste des politiques commerciales"
    },
    "empl": {
        "type": {
            "en": "Assignment",
            "fr": "Affectation"
        },
        "classification": {
            "en": "EC-2, EC-3, EC-4",
            "fr": "EC-2, EC-3, EC-4"
        },
        "branch": {
            "en": "Market and Industry Services Branch",
            "fr": "Direction g\u00e9n\u00e9rale des services \u00e0 l'industrie et aux march\u00e9s"
        },
        "locations": {
            "en": "1341 Baseline Road, Tower 5, Ottawa, ON",
            "fr": "1341 Chemin Baseline, TOUR 5, Ottawa, ON"
        },
        "date_closing": {
            "en": "2019-10-01",
            "fr": "2019-10-01"
        },
        "open_to": {
            "en": "Employees of Agriculture and Agri-Food Canada at the EC-02, EC-03 and EC-04 level in the ECDP",
            "fr": "Employ\u00e9s d'Agriculture et Agroalimentaire Canada aux niveaux EC-02, EC-03 et EC-04, dans le PPEC"
        },
        "name": {
            "en": "Alessandro Longo",
            "fr": "Alessandro Longo"
        },
        "email": {
            "en": "alessandro.longo@canada.ca",
            "fr": "alessandro.longo@canada.ca"
        }
    }
}