{
    "dcr_id": "1569240541078",
    "lang": "en",
    "title": {
        "en": "NCR - Fire Prevention Week: October 6 to 12",
        "fr": "RCN - Semaine de la pr\u00e9vention des incendies : du 6 au 12 octobre"
    },
    "modified": "2019-10-03 00:00:00.0",
    "issued": "2019-10-03 00:00:00.0",
    "type_name": "intra-intra/news-nouv",
    "node_id": "1279030006975",
    "layout_name": null,
    "dc_date_created": "2019-09-23",
    "breadcrumb_label": "",
    "meta": {
        "issued": {
            "en": "2019-10-03",
            "fr": "2019-10-03"
        },
        "modified": {
            "en": "2019-10-03",
            "fr": "2019-10-03"
        },
        "format": {
            "en": "gcformat",
            "fr": "gcformat"
        },
        "title": {
            "en": "NCR - Fire Prevention Week: October 6 to 12",
            "fr": "RCN - Semaine de la pr\u00e9vention des incendies : du 6 au 12 octobre"
        },
        "subject": {
            "en": "communications",
            "fr": "communications"
        },
        "description": {
            "en": "Fires can happen when and where you least expect. That's why Fire Prevention Week focuses on preparing a fire escape plan and backup plan to keep your home, family and workplace safe.",
            "fr": "Les incendies peuvent survenir au moment et \u00e0 l'endroit o\u00f9 vous vous y attendez le moins. C'est pourquoi la Semaine de la pr\u00e9vention des incendies met l'accent sur la pr\u00e9paration d'un plan d'\u00e9vacuation en cas d\u2019incendie et d'un plan de secours pour prot\u00e9ger votre maison, votre famille et votre lieu de travail."
        },
        "language": {
            "en": "eng",
            "fr": "fra"
        },
        "audience": {
            "en": "gcaudience",
            "fr": "gcaudience"
        },
        "creator": {
            "en": "Agriculture and Agri-Food Canada",
            "fr": "Agriculture et Agroalimentaire Canada"
        },
        "spatial": {
            "en": "gcregions",
            "fr": "gcregions"
        },
        "service": {
            "en": "AAFC_AgriSource",
            "fr": "AAC_AgriSource"
        },
        "accessRights": {
            "en": "3",
            "fr": "3"
        }
    },
    "body": {
        "en": "<br>\n<br>\n<p>Fires can happen when and where you least expect. That\u2019s why Fire Prevention Week focuses on preparing a fire escape plan and backup plan to keep your home, family and workplace safe. The theme for this year's event is \u201cNot every hero wears a cape. Plan and practice your escape.\u201d</p>\n<p>The AAFC National Occupational Health and Safety Policy Committee and the NHCAP Building Emergency and Evacuation Team (BEET) encourage all employees to participate in fire prevention measures to protect themselves and others and to prevent fire disasters.</p>\n<h2><strong>BEET Fire Prevention Week display</strong></h2>\n<p><strong>Date:</strong> October 6 to 12<br><strong>Location:</strong> NHCAP Tower 6 cafeteria</p>\n<p>You can find<strong> </strong>facts and information on topics such as:</p>\n<ul>\n<li>how to create a fire escape plan</li>\n<li>fire prevention</li>\n<li>smoke alarms</li>\n<li>types of fire extinguishers</li>\n<li>fire extinguisher training</li>\n<li>fire safety</li>\n</ul>\n<p>A member of the BEET will be on-site between <strong>11:30 a.m. and 1:00 p.m. from October 8 to 10 </strong>to answer any questions or concerns you may have<strong>. </strong>You can also practice fighting fires with the BullsEye\u2122 Laser-Driven Fire Extinguisher Training System on-site during this time.</p>\n<p>\nFire prevention and awareness is everyone\u2019s responsibility. Come and see how fire safety can impact your home and family!</p>\n<h2>\n<strong>Learn more</strong></h2>\n<p>At AAFC, fire prevention and preparedness measures are in place to ensure that we are ready in the event of a fire. For more information on training, safety programs, and policies, visit the <a href=\"http://intranet.agr.gc.ca/agrisource/eng/human-resources/occupational-health-and-safety?id=1321562720661\">Occupational Health and Safety page on AgriSource</a>.</p>\n<p>If you have questions about Fire Prevention Week at NHCAP or if you are interested in joining the NHCAP BEET, contact <a href=\"mailto:aafc.nhcapbero-cacpaoiue.aac@canada.ca\">aafc.nhcapbero-cacpaoiue.aac@canada.ca</a>.</p>\n\n\t\t",
        "fr": "<br>\n<br>\n<p>Les incendies peuvent survenir au moment et \u00e0 l\u2019endroit o\u00f9 vous vous y attendez le moins. C\u2019est pourquoi la Semaine de la pr\u00e9vention des incendies met l\u2019accent sur la pr\u00e9paration d\u2019un plan d\u2019\u00e9vacuation en cas d\u2019incendie et d\u2019un plan de secours pour prot\u00e9ger votre maison, votre famille et votre lieu de travail. Le th\u00e8me de la semaine cette ann\u00e9e sera \u00ab Certains h\u00e9ros ne portent pas de cape : dressez votre plan d\u2019\u00e9vacuation et mettez-le \u00e0 l\u2019essai. \u00bb</p>\n<p>Le Comit\u00e9 national d\u2019orientation en sant\u00e9 et en s\u00e9curit\u00e9 au travail d\u2019AAC et l\u2019\u00c9quipe d\u2019\u00e9vacuation d\u2019urgence de l\u2019immeuble (EEUI) du CACPA encouragent tous les employ\u00e9s \u00e0 participer aux mesures de pr\u00e9vention des incendies pour se prot\u00e9ger et prot\u00e9ger les autres et \u00e9viter les catastrophes caus\u00e9es par les incendies.</p>\n<h2><strong>Pr\u00e9sentoir de la Semaine de la pr\u00e9vention des incendies de l\u2019EEUI </strong>\n</h2>\n<p><strong>Date </strong>:<strong> </strong>Du 6 au 12 octobre<br><strong>Lieu </strong>:<strong> </strong>Caf\u00e9t\u00e9ria de la tour 6 du CACPA</p>\n<p>Vous pourrez trouver des faits et de l\u2019information sur des sujets comme ceux qui suivent :</p>\n<ul>\n<li>comment cr\u00e9er un plan d\u2019\u00e9vacuation en cas d\u2019incendie;</li>\n<li>la pr\u00e9vention des incendies;</li>\n<li>les d\u00e9tecteurs de fum\u00e9e;</li>\n<li>les types d\u2019extincteurs d\u2019incendie;</li>\n<li>la formation sur les extincteurs d\u2019incendie;</li>\n<li>la s\u00e9curit\u00e9\u2011incendie.</li>\n</ul>\n<p>Un membre de l\u2019EEUI sera sur place <strong>de 11 h 30 \u00e0 13 h,</strong> <strong>du 8 au 10 octobre</strong>, pour r\u00e9pondre \u00e0 toutes vos questions ou pr\u00e9occupations. Pendant cette p\u00e9riode, vous pouvez \u00e9galement vous entra\u00eener sur place \u00e0 lutter contre les incendies, avec le syst\u00e8me de formation par extincteur BullsEyeMC, qui fonctionne au moyen d\u2019un rayon laser.</p>\n<p>La pr\u00e9vention des incendies et la sensibilisation connexe sont la responsabilit\u00e9 de chacun. Venez voir comment la s\u00e9curit\u00e9\u2011incendie peut avoir une incidence sur votre maison et votre famille!</p>\n<h2><strong>Pour en savoir plus</strong></h2>\n<p>Des mesures de pr\u00e9vention et de pr\u00e9paration aux incendies sont en place \u00e0 AAC pour s\u2019assurer que nous sommes pr\u00eats en cas d\u2019incendie. Pour obtenir de plus amples renseignements sur la formation, les programmes de s\u00e9curit\u00e9 et les politiques, visitez la <a href=\"http://intranet.agr.gc.ca/agrisource/fra/ressources-humaines/sante-et-securite-au-travail?id=1321562720661\">page d\u2019AgriSource traitant de sant\u00e9 et de s\u00e9curit\u00e9 au travail</a>.</p>\n<p>Pour toutes questions sur la Semaine de la pr\u00e9vention des incendies au CACPA ou pour vous joindre \u00e0 l\u2019EEUI du CACPA, veuillez communiquer avec <a href=\"mailto:aafc.nhcapbero-cacpaoiue.aac@canada.ca\">aafc.nhcapbero-cacpaoiue.aac@canada.ca</a>.</p>\n\t\t"
    },
    "breadcrumb": {
        "en": "NCR - Fire Prevention Week: October 6 to 12",
        "fr": "RCN - Semaine de la pr\u00e9vention des incendies : du 6 au 12 octobre"
    },
    "news": {
        "date_posted": {
            "en": "2019-10-03",
            "fr": "2019-10-03"
        },
        "to": {
            "en": "NCR only",
            "fr": "RCN seulement"
        },
        "by": {
            "en": "Departmental Security Services and AAFC's National Occupational Health and Safety Policy Committee",
            "fr": "Services de s\u00e9curit\u00e9 minist\u00e9riels et Comit\u00e9 national d\u2019orientation en sant\u00e9 et en s\u00e9curit\u00e9 au travail d\u2019AAC"
        }
    }
}