{
    "dcr_id": "1570566155729",
    "lang": "en",
    "title": {
        "en": "This Week in <em>The Harvest</em> - Hidden Treasures in the Canadian Agriculture Library",
        "fr": "Au menu de <em>La Moisson</em> cette semaine - Tr\u00e9sors cach\u00e9s dans la Biblioth\u00e8que canadienne de l\u2019agriculture"
    },
    "modified": "2019-10-10 00:00:00.0",
    "issued": "2019-10-10 00:00:00.0",
    "type_name": "intra-intra/news-nouv",
    "node_id": "1279030006975",
    "layout_name": null,
    "dc_date_created": "2019-10-08",
    "breadcrumb_label": "This Week in The Harvest - Hidden Treasures in the Canadian Agriculture Library",
    "meta": {
        "issued": {
            "en": "2019-10-10",
            "fr": "2019-10-10"
        },
        "modified": {
            "en": "2019-10-10",
            "fr": "2019-10-10"
        },
        "format": {
            "en": "gcformat",
            "fr": "gcformat"
        },
        "title": {
            "en": "This Week in <em>The Harvest</em> - Hidden Treasures in the Canadian Agriculture Library",
            "fr": "Au menu de <em>La Moisson</em> cette semaine - Tr\u00e9sors cach\u00e9s dans la Biblioth\u00e8que canadienne de l\u2019agriculture"
        },
        "subject": {
            "en": "communications",
            "fr": "communications"
        },
        "description": {
            "en": "In case you missed it, here\u2019s what\u2019s new in <em>The Harvest</em> this week.",
            "fr": "Au cas o\u00f9 vous l'auriez manqu\u00e9, voici le menu que la section <em>La Moisson</em> vous offre cette semaine."
        },
        "language": {
            "en": "eng",
            "fr": "fra"
        },
        "audience": {
            "en": "gcaudience",
            "fr": "gcaudience"
        },
        "creator": {
            "en": "Agriculture and Agri-Food Canada",
            "fr": "Agriculture et Agroalimentaire Canada"
        },
        "spatial": {
            "en": "gcregions",
            "fr": "gcregions"
        },
        "service": {
            "en": "AAFC_AgriSource",
            "fr": "AAC_AgriSource"
        },
        "accessRights": {
            "en": "3",
            "fr": "3"
        }
    },
    "body": {
        "en": "<br>\n<br>\n<p>In case you missed it, here\u2019s what\u2019s new in <a href=\"https://collab.agr.gc.ca/apps/harvest-moisson\"><em>The Harvest</em></a> this week:</p>\n<p><strong>Feature story:</strong> <a href=\"https://collab.agr.gc.ca/apps/harvest-moisson/\">Hidden Treasures in the Canadian Agriculture Library</a> - Susan Young, Senior Information Specialist at AAFC, puts on a pair of white cloth gloves before she takes an old book out of its protective box and carefully opens it. The illustrations \u2013 hand-painted more than 200 years ago \u2013 are still bright, vibrant and (maybe most importantly) accurate, carefully reproducing the details that help scientists, even today, identify various species of insects and plants. The book, kept in a vault room in one of the buildings of the Ottawa Research and Development Centre, is part of the Canadian Agriculture Library\u2019s collection of rare books.</p>\n<p><strong>Poll: </strong><a href=\"https://collab.agr.gc.ca/apps/harvest-moisson/\">What is your favourite Canadian Agriculture Library (CAL) service?</a></p>\n<p><strong>Feature photo: </strong><a href=\"https://collab.agr.gc.ca/apps/harvest-moisson/gallery/Lists/Posts/Post.aspx?ID=360\">Garden Visitor</a>, by Sandra Weinheimer, Science and Technology Branch, Ottawa, Ontario.</p>\n<p><strong>Did you know?</strong> <a href=\"https://collab.agr.gc.ca/apps/harvest-moisson/Pages/didyouknow.aspx\">Although officially established in 1910, the Canadian Agriculture Library collection existed before Confederation.</a> The main collection was initially housed in the West Block of Parliament Hill: it later moved to the Confederation Building, then the K.W. Neatby Building on the Central Experimental Farm. In 1967 it was moved to the Sir John Carling Building. Now the main collection is housed at NHCAP.</p>\n<p>You can get involved by posting a comment or \u201cliking\u201d an article. You can also check out what your colleagues are liking and saying.</p>\n<p>Should you have story ideas, scenic or artistic agriculture-related photos, or interesting facts, please share them with us by clicking on \u201cContribute\u201d in the top menu bar.</p>\n<p><img src=\"https://intranet.agr.gc.ca/resources/prod/news/images/Harvest-Library.png\" class=\"center-block\"></p>\n\n\t\t",
        "fr": "<br>\n<br>\n<p>Au cas o\u00f9 vous l\u2019auriez manqu\u00e9, voici le menu que la section <a href=\"https://collab.agr.gc.ca/apps/harvest-moisson\"><em>La Moisson</em></a> vous offre cette semaine :</p>\n<p><strong>Article vedette :</strong> <a href=\"https://collab.agr.gc.ca/apps/harvest-moisson/\">Tr\u00e9sors cach\u00e9s dans la Biblioth\u00e8que canadienne de l\u2019agriculture</a> \u2013 \u200b Susan Young, sp\u00e9cialiste principale de l\u2019information \u00e0 AAC, enfile une paire de gants de tissus blancs avant de sortir un vieux livre de sa bo\u00eete protectrice et de l\u2019ouvrir soigneusement. Les couleurs des illustrations, peintes \u00e0 la main il y a plus de 200 ans, sont toujours vives et vibrantes et (peut-\u00eatre surtout) pr\u00e9cises. Elles comportent des d\u00e9tails qui aident les chercheurs, encore aujourd\u2019hui, \u00e0 identifier diverses esp\u00e8ces d\u2019insectes et de v\u00e9g\u00e9taux. Le livre, qui est conserv\u00e9 dans une chambre forte de l\u2019un des \u00e9difices du Centre de recherche et de d\u00e9veloppement d\u2019Ottawa, fait partie de la collection de livres rares de la Biblioth\u00e8que canadienne de l\u2019agriculture.</p>\n<p><strong>Sondage : </strong><a href=\"https://collab.agr.gc.ca/apps/harvest-moisson/\">Quel est votre service pr\u00e9f\u00e9r\u00e9 de la Biblioth\u00e8que canadienne de l\u2019agriculture (BCA)?</a></p>\n<p><strong>Photo vedette :</strong> <a href=\"https://collab.agr.gc.ca/apps/harvest-moisson/gallery/Lists/Posts/Post.aspx?ID=360\"> Un visiteur au jardin,</a> par <em>Sandra Weinheimer, Direction g\u00e9n\u00e9rale des sciences et de la technologie, Ottawa (Ontario)</em></p>\n<p><strong>Le saviez-vous?</strong> <a href=\"https://collab.agr.gc.ca/apps/harvest-moisson/Pages/didyouknow.aspx\">Bien que cr\u00e9\u00e9e officiellement en 1910, la collection de la Biblioth\u00e8que canadienne de l'agriculture existait avant la Conf\u00e9d\u00e9ration.</a> La collection principale se trouvait \u00e0 l\u2019origine dans l\u2019\u00e9difice de l\u2019Ouest de la Colline du Parlement; elle a ensuite \u00e9t\u00e9 d\u00e9m\u00e9nag\u00e9e \u00e0 l\u2019\u00e9difice de la Conf\u00e9d\u00e9ration, puis \u00e0 l\u2019\u00e9difice K.W. Neatby de la Ferme exp\u00e9rimentale centrale. En 1967, elle a \u00e9t\u00e9 install\u00e9e dans l\u2019\u00e9difice Sir-John-Carling. Cette collection est maintenant situ\u00e9e au CACPA.</p>\n<p>Vous pouvez participer en affichant des commentaires ou en utilisant la fonction \u00ab J\u2019aime \u00bb ou \u00ab Partager \u00bb pour exprimer votre appr\u00e9ciation d\u2019un article. Vous pouvez aussi aller voir ce que vos coll\u00e8gues aiment et ont \u00e0 dire.</p>\n<p>Si vous avez des id\u00e9es d\u2019articles, des photos de paysages ou \u00e0 caract\u00e8re artistique li\u00e9es \u00e0 l\u2019agriculture ou encore des faits int\u00e9ressants, veuillez nous en faire part en cliquant sur \u00ab Collaborer \u00bb dans la barre de menu en haut de la page.</p>\n<p><img src=\"https://intranet.agr.gc.ca/resources/prod/news/images/Harvest-Library.png\" class=\"center-block\"></p>\n\t\t"
    },
    "breadcrumb": {
        "en": "This Week in The Harvest - Hidden Treasures in the Canadian Agriculture Library",
        "fr": "Au menu de La Moisson cette semaine Tr\u00e9sors cach\u00e9s dans la Biblioth\u00e8que canadienne de l\u2019agriculture"
    },
    "news": {
        "date_posted": {
            "en": "2019-10-10",
            "fr": "2019-10-10"
        },
        "to": {
            "en": "All staff",
            "fr": "Tous les employ\u00e9s"
        },
        "by": {
            "en": "Corporate Communications, Public Affairs Branch",
            "fr": "Communications minist\u00e9rielles, Direction g\u00e9n\u00e9rale des affaires publiques"
        }
    }
}