{
    "dcr_id": "1570537823529",
    "lang": "en",
    "title": {
        "en": "NCR - Giving Thanks and Giving Back",
        "fr": "RCN \u2013 Remercier et redonner"
    },
    "modified": "2019-10-10 00:00:00.0",
    "issued": "2019-10-10 00:00:00.0",
    "type_name": "intra-intra/news-nouv",
    "node_id": "1279030006975",
    "layout_name": null,
    "dc_date_created": "2019-10-08",
    "breadcrumb_label": "",
    "meta": {
        "issued": {
            "en": "2019-10-10",
            "fr": "2019-10-10"
        },
        "modified": {
            "en": "2019-10-10",
            "fr": "2019-10-10"
        },
        "format": {
            "en": "gcformat",
            "fr": "gcformat"
        },
        "title": {
            "en": "NCR - Giving Thanks and Giving Back",
            "fr": "RCN \u2013 Remercier et redonner"
        },
        "subject": {
            "en": "communications",
            "fr": "communications"
        },
        "description": {
            "en": "Thanksgiving is almost upon us and we hope that you are able to enjoy time with family and friends.",
            "fr": "L'Action de gr\u00e2ce arrive \u00e0 grands pas et nous esp\u00e9rons que vous pourrez passer du temps avec votre famille et vos amis."
        },
        "language": {
            "en": "eng",
            "fr": "fra"
        },
        "audience": {
            "en": "gcaudience",
            "fr": "gcaudience"
        },
        "creator": {
            "en": "Agriculture and Agri-Food Canada",
            "fr": "Agriculture et Agroalimentaire Canada"
        },
        "spatial": {
            "en": "gcregions",
            "fr": "gcregions"
        },
        "service": {
            "en": "AAFC_AgriSource",
            "fr": "AAC_AgriSource"
        },
        "accessRights": {
            "en": "3",
            "fr": "3"
        }
    },
    "body": {
        "en": "<br>\n<br>\n<p>Thanksgiving is almost upon us and we hope that you are able to enjoy time with family and friends.</p>\n<p>As we approach the halfway point in the 2019 Government of Canada Workplace Charitable Campaign (GCWCC), a sincere thank you goes to those of you who have been able to make a pledge, donate time or participate in some way. If you haven\u2019t yet had a chance to donate, please consider that during the holidays, many organizations supported by the GCWCC rely on the funds raised through the Campaign.</p>\n<p>The GCWCC is about more than departmental targets or total funds raised. It is about public servants giving back to the communities where they work and from which they come. The Campaign is an opportunity for us to collectively support those in need. Your gifts of money and time directly impact those around us.</p>\n<p>The GCWCC is a one-stop way to support <a href=\"https://apps.cra-arc.gc.ca/ebci/hacc/srch/pub/dsplyBscSrch?request_locale=en\">any registered charity</a>, and you can rest assured that your generosity has a rippling, positive effect on individual lives and our communities. You can make an online donation through <a href=\"http://www.uwco.ca/gcwcc/agr\">ePledge</a> or contact your branch coordinator if you have not yet been canvassed. Visit the <a href=\"https://collab.agr.gc.ca/co/gcwcc-support-ccmtgc/SitePages/NCR%20CAMPAIGN-%20CAMPAGNE%20DANS%20LA%20RCN.aspx\">GCWCC site on Knowledge Workspace</a> for more information.</p>\n<p>Finally, we would like to thank all those employees who have dedicated their time and efforts to the Campaign. We are very grateful to work in a dedicated department, with employees working to make AAFC a great place to work and who give back to their communities.</p>\n<p>Happy Thanksgiving, happy fall, and a wonderful remainder of the Campaign.</p>\n<p><img src=\"https://intranet.agr.gc.ca/resources/prod/news/images/GCWCC2019-EN.png\" class=\"center-block\"></p>\n\n\t\t",
        "fr": "<br>\n<br>\n<p>L\u2019Action de gr\u00e2ce arrive \u00e0 grands pas et nous esp\u00e9rons que vous pourrez passer du temps avec votre famille et vos amis.</p>\n<p>Alors que nous arrivons \u00e0 mi-chemin de la Campagne de charit\u00e9 en milieu de travail du gouvernement du Canada (CCMTGC) de 2019, nous tenons \u00e0 remercier sinc\u00e8rement ceux d\u2019entre vous qui ont fait une promesse de don, qui ont donn\u00e9 de leur temps ou qui ont particip\u00e9 d\u2019une mani\u00e8re quelconque. Si vous n\u2019avez pas encore eu la chance de faire un don, n\u2019oubliez pas que pendant les f\u00eates, de nombreuses organisations soutenues par la CCMTGC comptent sur les fonds recueillis au cours de la campagne.</p>\n<p>La CCMTGC ne se r\u00e9sume pas \u00e0 l\u2019atteinte d\u2019objectifs minist\u00e9riels ou \u00e0 la collecte maximale de fonds. La campagne permet aux fonctionnaires de redonner \u00e0 la communaut\u00e9 o\u00f9 ils travaillent et d\u2019o\u00f9 ils proviennent. Elle est l\u2019occasion d\u2019aider ensemble les personnes dans le besoin. Les dons ou le temps que vous consacrez \u00e0 la campagne ont une incidence directe sur la vie des personnes qui nous entourent.</p>\n<p>La CCMTGC est un guichet unique pour appuyer tout <a href=\"https://apps.cra-arc.gc.ca/ebci/hacc/srch/pub/dsplyBscSrch?\">organisme de bienfaisance enregistr\u00e9</a> et vous pouvez \u00eatre assur\u00e9 que votre g\u00e9n\u00e9rosit\u00e9 a un effet positif sur la vie des gens et nos communaut\u00e9s. Vous pouvez faire un <a href=\"https://uwco.ca/crm/Start.jsp?language=fr\">don en ligne</a> ou communiquer avec le coordonnateur de votre direction g\u00e9n\u00e9rale si vous n\u2019avez pas encore \u00e9t\u00e9 sollicit\u00e9. Visitez le <a href=\"https://collab.agr.gc.ca/co/gcwcc-support-ccmtgc/SitePages/NCR%20CAMPAIGN-%20CAMPAGNE%20DANS%20LA%20RCN.aspx\">site de la CCMTGC sur l\u2019Espace de travail du savoir</a> pour de plus amples renseignements.</p>\n<p>Enfin, nous aimerions remercier tous les employ\u00e9s qui ont consacr\u00e9 leur temps et leurs efforts \u00e0 la campagne. Nous sommes tr\u00e8s reconnaissants de travailler au sein d\u2019un minist\u00e8re d\u00e9vou\u00e9 avec des employ\u00e9s qui s\u2019efforcent de faire d\u2019AAC un excellent milieu de travail et qui redonnent \u00e0 leur communaut\u00e9.</p>\n<p>Passez une joyeuse Action de gr\u00e2ce, un bel automne et un merveilleux reste de la campagne.</p>\n<p><img src=\"https://intranet.agr.gc.ca/resources/prod/news/images/GCWCC2019-FR.png\" class=\"center-block\"></p>\n\t\t"
    },
    "breadcrumb": {
        "en": "NCR - Giving Thanks and Giving Back",
        "fr": "RCN \u2013 Remercier et redonner"
    },
    "news": {
        "date_posted": {
            "en": "2019-10-10",
            "fr": "2019-10-10"
        },
        "to": {
            "en": "NCR only",
            "fr": "RCN seulement"
        },
        "by": {
            "en": "Jane Taylor and Paul Samson, AAFC GCWCC Co-Champions",
            "fr": "Jane Taylor et Paul Samson, cochampions de la CCMTGC d\u2019AAC"
        }
    }
}