{
    "dcr_id": "1570475958761",
    "lang": "en",
    "title": {
        "en": "October 13 to 19 is Invisible Disabilities Week ",
        "fr": "La Semaine des handicaps invisibles aura lieu du 13 au 19 octobre "
    },
    "modified": "2019-10-10 00:00:00.0",
    "issued": "2019-10-10 00:00:00.0",
    "type_name": "intra-intra/news-nouv",
    "node_id": "1279030006975",
    "layout_name": null,
    "dc_date_created": "2019-10-07",
    "breadcrumb_label": "",
    "meta": {
        "issued": {
            "en": "2019-10-10",
            "fr": "2019-10-10"
        },
        "modified": {
            "en": "2019-10-10",
            "fr": "2019-10-10"
        },
        "format": {
            "en": "gcformat",
            "fr": "gcformat"
        },
        "title": {
            "en": "October 13 to 19 is Invisible Disabilities Week ",
            "fr": "La Semaine des handicaps invisibles aura lieu du 13 au 19 octobre "
        },
        "subject": {
            "en": "communications",
            "fr": "communications"
        },
        "description": {
            "en": "During Invisible Disabilities Week, the AAFC Persons with Disabilities Network wants to help employees learn what it is like to live with an invisible disability.",
            "fr": "Pendant la Semaine des handicaps invisibles, le R\u00e9seau des personnes handicap\u00e9es d\u2019AAC souhaite aider les employ\u00e9s \u00e0 mieux comprendre ce que c'est que de vivre avec un handicap invisible."
        },
        "language": {
            "en": "eng",
            "fr": "fra"
        },
        "audience": {
            "en": "gcaudience",
            "fr": "gcaudience"
        },
        "creator": {
            "en": "Agriculture and Agri-Food Canada",
            "fr": "Agriculture et Agroalimentaire Canada"
        },
        "spatial": {
            "en": "gcregions",
            "fr": "gcregions"
        },
        "service": {
            "en": "AAFC_AgriSource",
            "fr": "AAC_AgriSource"
        },
        "accessRights": {
            "en": "3",
            "fr": "3"
        }
    },
    "body": {
        "en": "<br>\n<br>\n<p>During Invisible Disabilities Week, the AAFC Persons with Disabilities Network wants to help employees learn what it is like to live with an invisible disability.</p>\n<p>An invisible disability is an umbrella term that covers an incredible number of conditions, ailments, and injuries that encompass symptoms such as debilitating pain, fatigue, dizziness, cognitive dysfunction, learning differences, mental-health and physiological conditions, mobility limitations, as well as hearing and vision impairments, which may not be physically obvious.</p>\n<p>Have you ever seen a person with an accessible parking permit and think, \u201cHmmm, but they look well\u201d? One in four people live with some form of disability, and it is estimated that over 70 percent of disabilities are not readily apparent. By learning more and actively including those with invisible disabilities, we make everyone\u2019s workplace experience more comfortable and productive. Exclusion hurts, but it also undermines a team\u2019s ability to collaborate and perform. During Invisible Disabilities Week, create the opportunity for discussion by setting aside time with your team to experience life from someone else\u2019s perspective.</p>\n<p>Visit the AAFC <a href=\"https://collab.agr.gc.ca/co/pdn-rph/SitePages/Home.aspx\">Persons with Disabilities Network Knowledge Workspace </a> and learn how you can organize a Tea and TED or participate in the Canadian Centre for Diversity and Inclusion (CCDI) webinar entitled <a href=\"https://ccdi.ca/event-calendar/ccdi-webinar-accessibility-navigating-a-world-filled-with-barriers/\">Accessibility: Navigating a world filled with barriers </a> on October 17. <b>Note:</b> AAFC is a CCDI employee partner. Select \u201cemployee partner\u201d and register for free. Also check out other available CCDI presentations while you are there.</p>\n<p>\u201c<em>There is no greater disability in society, than the inability to see a person as more</em>.\u201d -\u00a0Robert M. Hensel, disability advocate.</p>\n<p>We look forward to your enthusiastic participation and feedback.</p>\n<h2><strong>Learn more</strong></h2>\n<ul>\n<li>Persons with Disabilities network email address: <a href=\"mailto:aafc.pwdn-rph.aac@canada.ca\">aafc.pwdn-rph.aac@canada.ca</a></li>\n<li><a href=\"https://invisibledisabilities.org/seminarsandevents/invisible-disabilities-week/\">Invisible Disabilities Week 2019</a></li>\n<li><a href=\"https://www.canada.ca/en/employment-social-development/programs/accessible-people-disabilities/act-summary.html\">Proposed Accessible Canada Act</a></li>\n<li><a href=\"https://collab.agr.gc.ca/co/eedi-emedi/SitePages/Home.aspx\">Diversity and Inclusiveness at AAFC</a></li>\n<li><a href=\"https://www.ccrw.org/\">Canadian Council on Rehabilitation and Work</a></li>\n</ul>\n<p><strong>\u00a0</strong></p>\n<p><strong>Kimberley Saunders</strong><br>\nPersons with Disabilities Network Champion</p>\n<p><strong>Pamela Warburton, Katherine Whybourne and Kim Callihoo</strong><br>\nPersons with Disabilities Network Co-chairs</p>\n<p>\n<img src=\"https://intranet.agr.gc.ca/resources/prod/news/images/Persons%20With%20Disabilities%20Network%20Banner-EN.png\" class=\"center-block\" alt=\"\"></p>\n\n\t\t",
        "fr": "<br>\n<br>\n<p>Pendant la <em>Semaine des handicaps invisibles</em>, le R\u00e9seau des personnes handicap\u00e9es d\u2019AAC souhaite aider les employ\u00e9s \u00e0 mieux comprendre ce que c\u2019est que de vivre avec un handicap invisible.</p>\n<p>Un <em>handicap invisible</em> est un terme g\u00e9n\u00e9rique qui couvre un nombre incroyable de troubles, de maladies et de blessures\u00a0 qui peuvent ne pas \u00eatre \u00e9videntes \u00e0 premi\u00e8re vue et qui englobent des sympt\u00f4mes comme la douleur d\u00e9bilitante, la fatigue, les \u00e9tourdissements, le dysfonctionnement cognitif, les difficult\u00e9s d\u2019apprentissage, les probl\u00e8mes de sant\u00e9 mentale et physiologiques, les contraintes de mobilit\u00e9 ainsi que les d\u00e9ficiences auditives et visuelles.</p>\n<p>Apr\u00e8s avoir aper\u00e7u une personne qui d\u00e9tient un permis de stationnement accessible, vous \u00eates\u2011vous d\u00e9j\u00e0 dit : \u00ab Hmmm\u2026, mais cette personne a l\u2019air tout \u00e0 fait bien! \u00bb? Une personne sur quatre vit avec une forme quelconque de handicap, et on estime que plus de 70 pour cent des handicaps ne sont pas \u00e9vidents au premier coup d\u2019\u0153il. En nous renseignant davantage et en pratiquant l\u2019inclusion active des personnes ayant un handicap invisible, nous rendons l\u2019exp\u00e9rience de travail de chacun plus confortable et plus productive. L\u2019exclusion fait mal, mais elle sape aussi la capacit\u00e9 d\u2019une \u00e9quipe \u00e0 collaborer et \u00e0 exceller. Pendant la Semaine des incapacit\u00e9s invisibles, cr\u00e9ez une occasion de discussion en pr\u00e9voyant du temps avec votre \u00e9quipe pour faire l\u2019exp\u00e9rience de la vie du point de vue d\u2019une autre personne.</p>\n<p>Visitez l\u2019<a href=\"https://collab.agr.gc.ca/co/pdn-rph/SitePages/Home.aspx\">Espace de travail du R\u00e9seau des personnes handicap\u00e9es</a> d\u2019AAC et apprenez comment organiser une s\u00e9ance\u00a0TED et participez au webinaire du Centre canadien pour la diversit\u00e9 et l\u2019inclusion (CCDI) intitul\u00e9 : <a href=\"https://ccdi.ca/event-calendar/ccdi-webinar-accessibility-navigating-a-world-filled-with-barriers/\">Accessibility \u2013 Navigating a world filled with barriers</a> (en anglais seulement) le 17 octobre. Remarque : AAC est un employeur partenaire du CCDI. S\u00e9lectionnez \u00ab employee partner \u00bb et inscrivez-vous gratuitement. Pendant que vous y \u00eates, jetez \u00e9galement un coup d\u2019\u0153il aux autres pr\u00e9sentations offertes par le CCDI.</p>\n<p><em>Il n\u2019y a pas de plus grand handicap dans la soci\u00e9t\u00e9 que l\u2019incapacit\u00e9 de voir une personne comme \u00e9tant beaucoup plus</em>. (traduction libre) \u2013 Robert M. Hensel, d\u00e9fenseur des personnes handicap\u00e9es.</p>\n<p>\nNous comptons sur votre participation enthousiaste et vos commentaires.</p>\n<h2><strong>Pour en savoir plus</strong></h2>\n<ul>\n<li>Adresse \u00e9lectronique du r\u00e9seau des personnes handicap\u00e9es : <a href=\"mailto:aafc.pwdn-rph.aac@canada.ca\">aafc.pwdn-rph.aac@canada.ca</a></li>\n<li><a href=\"https://invisibledisabilities.org/seminarsandevents/invisible-disabilities-week/\">Semaine des handicaps invisibles 2019</a> (site Web en anglais seulement)</li>\n<li><a href=\"https://www.canada.ca/fr/emploi-developpement-social/programmes/accessible-personnes-handicapees/loi-resume.html\">Projet de <em>Loi canadienne sur l\u2019accessibilit\u00e9</em></a></li>\n<li><a href=\"https://collab.agr.gc.ca/co/eedi-emedi/SitePages/Home.aspx\">Diversit\u00e9 et inclusivit\u00e9 \u00e0 AAC</a></li>\n<li><a href=\"https://www.ccrw.org/\">Conseil canadien de la r\u00e9adaptation et du travail</a> (site Web en anglais seulement)</li>\n</ul>\n<p><strong>\u00a0</strong></p>\n<p><strong>Kimberley Saunders</strong><br>\nChampionne du R\u00e9seau des<strong> </strong>personnes<strong> </strong>handicap\u00e9es</p>\n<p><strong>Pamela Warburton, Katherine Whybourne et Kim Callihoo</strong><br>\nCopr\u00e9sidentes du R\u00e9seau des personnes handicap\u00e9es</p>\n<p>\n<img src=\"https://intranet.agr.gc.ca/resources/prod/news/images/Persons%20With%20Disabilities%20Network%20Banner-FR.png\" class=\"center-block\" alt=\"\"></p>\n\t\t"
    },
    "breadcrumb": {
        "en": "October 13 to 19 is Invisible Disabilities Week",
        "fr": "La Semaine des handicaps invisibles aura lieu du 13 au 19 octobre"
    },
    "news": {
        "date_posted": {
            "en": "2019-10-10",
            "fr": "2019-10-10"
        },
        "to": {
            "en": "All staff",
            "fr": "Tous les employ\u00e9s"
        },
        "by": {
            "en": "Kimberly Saunders, Persons with Disabilities Network Champion",
            "fr": "Kimberly Saunders, championne du R\u00e9seau des personnes handicap\u00e9es"
        }
    }
}