{
    "dcr_id": "1570816871537",
    "lang": "en",
    "title": {
        "en": "Crop Improvement, Animal Science and More: October Additions to the Canadian Agriculture Library",
        "fr": "Am\u00e9lioration des cultures, sciences animales et autres : Ajouts d\u2019octobre \u00e0 la collection de la Biblioth\u00e8que canadienne de l\u2019agriculture"
    },
    "modified": "2019-10-17 00:00:00.0",
    "issued": "2019-10-17 00:00:00.0",
    "type_name": "intra-intra/news-nouv",
    "node_id": "1279030006975",
    "layout_name": null,
    "dc_date_created": "2019-10-15",
    "breadcrumb_label": "",
    "meta": {
        "issued": {
            "en": "2019-10-17",
            "fr": "2019-10-17"
        },
        "modified": {
            "en": "2019-10-17",
            "fr": "2019-10-17"
        },
        "format": {
            "en": "gcformat",
            "fr": "gcformat"
        },
        "title": {
            "en": "Crop Improvement, Animal Science and More: October Additions to the Canadian Agriculture Library",
            "fr": "Am\u00e9lioration des cultures, sciences animales et autres : Ajouts d\u2019octobre \u00e0 la collection de la Biblioth\u00e8que canadienne de l\u2019agriculture"
        },
        "subject": {
            "en": "communications",
            "fr": "communications"
        },
        "description": {
            "en": "Just as our scientists have been busy gathering barley and other crops, the Canadian Agriculture Library has been busy \"harvesting\" new resources for you in October.",
            "fr": "Alors que nos scientifiques se sont affair\u00e9s \u00e0 r\u00e9colter de l'orge et d'autres cultures, \u00e0 la Biblioth\u00e8que canadienne de l'agriculture nous nous sommes efforc\u00e9s \u00e0 \u00ab r\u00e9colter \u00bb de nouvelles ressources pour vous ce mois-ci."
        },
        "language": {
            "en": "eng",
            "fr": "fra"
        },
        "audience": {
            "en": "gcaudience",
            "fr": "gcaudience"
        },
        "creator": {
            "en": "Agriculture and Agri-Food Canada",
            "fr": "Agriculture et Agroalimentaire Canada"
        },
        "spatial": {
            "en": "gcregions",
            "fr": "gcregions"
        },
        "service": {
            "en": "AAFC_AgriSource",
            "fr": "AAC_AgriSource"
        },
        "accessRights": {
            "en": "3",
            "fr": "3"
        }
    },
    "body": {
        "en": "<br>\n<br>\n<p>Just as our scientists have been busy gathering barley and other crops, the<a href=\"https://fsl-bsf.scitech.gc.ca/eng/intranet/home/\"> Canadian Agriculture Library</a> (CAL) has been busy \u201charvesting\u201d new resources for you in October. Check out the October <a href=\"https://collab.agr.gc.ca/co/kis-sis/_layouts/15/DocIdRedir.aspx?ID=AGR-8050168\">list of new titles added to our collection this month.</a><strong> </strong>Topics covered include:</p>\n<ul>\n<li>Statistics in agricultural sciences</li>\n<li>Crop improvement using biotechnology</li>\n<li>CRISPR-Cas and enzymology</li>\n<li>Nutraceutical and functional foods</li>\n<li>Animal science and welfare</li>\n<li>Personal and professional development</li>\n</ul>\n<p>Access the electronic content from your desktop by clicking on links found in the list, or submit a request to borrow physical items.</p>\n<p>For more information, contact CAL at: <a href=\"mailto:aafc.cal-bca.aac@canada.ca\">aafc.cal-bca.aac@canada.ca</a>.</p>\n<p><img src=\"https://intranet.agr.gc.ca/resources/prod/news/images/CALbanner-EN.png\" class=\"center-block\"></p>\n\n\t\t",
        "fr": "<br>\n<br>\n<p>Alors que nos scientifiques se sont affair\u00e9s \u00e0 r\u00e9colter de l\u2019orge et d\u2019autres cultures, \u00e0 la <a href=\"https://fsl-bsf.scitech.gc.ca/fra/intranet/accueil/\">Biblioth\u00e8que canadienne de l\u2019agriculture</a> (BCA) nous nous sommes efforc\u00e9s \u00e0 \u00ab r\u00e9colter \u00bb de nouvelles ressources pour vous ce mois-ci. Consultez la <a href=\"https://collab.agr.gc.ca/co/kis-sis/_layouts/15/DocIdRedir.aspx?ID=AGR-8050170\">liste des nouveaux titres ajout\u00e9s \u00e0 notre collection en octobre</a>. Voici certains des sujets abord\u00e9s dans ces ouvrages :</p>\n<ul>\n<li>Statistiques en sciences agricoles</li>\n<li>Am\u00e9lioration des cultures par la biotechnologie</li>\n<li>CRISPR-Cas et enzymologie</li>\n<li>Aliments fonctionnels et nutraceutiques</li>\n<li>Science et bien-\u00eatre des animaux</li>\n<li>Perfectionnement personnel et professionnel</li>\n</ul>\n<p>Vous pouvez acc\u00e9der au contenu \u00e9lectronique \u00e0 partir de votre bureau en cliquant sur les liens qui se trouvent dans la liste, ou en soumettant une demande pour emprunter des ouvrages imprim\u00e9s.</p>\n<p>Pour de plus amples renseignements, communiquez avec la BCA par courriel \u00e0 l\u2019adresse suivante : <a href=\"mailto:aafc.cal-bca.aac@canada.ca\">aafc.cal-bca.aac@canada.ca</a>.</p>\n<p><img src=\"https://intranet.agr.gc.ca/resources/prod/news/images/CALbanniere-FR.png\" class=\"center-block\"></p>\n\t\t"
    },
    "breadcrumb": {
        "en": "Crop Improvement, Animal Science and More: October Additions to the Canadian Agriculture Library",
        "fr": "Am\u00e9lioration des cultures, sciences animales et autres : Ajouts d\u2019octobre \u00e0 la collection de la Biblioth\u00e8que canadienne de l\u2019agriculture"
    },
    "news": {
        "date_posted": {
            "en": "2019-10-17",
            "fr": "2019-10-17"
        },
        "to": {
            "en": "All staff",
            "fr": "Tous les employ\u00e9s"
        },
        "by": {
            "en": "Canadian Agriculture Library",
            "fr": "Biblioth\u00e8que canadienne de l\u2019agriculture"
        }
    }
}