{
    "dcr_id": "1570638038451",
    "lang": "en",
    "title": {
        "en": "Policy Analyst/Economist ",
        "fr": "Analyste de politiques/\u00e9conomiste"
    },
    "modified": "2019-10-16 00:00:00.0",
    "issued": "2019-10-10 00:00:00.0",
    "type_name": "intra-intra/empl-empl",
    "node_id": "1279029955397",
    "layout_name": null,
    "dc_date_created": "2019-10-09",
    "breadcrumb_label": "",
    "meta": {
        "issued": {
            "en": "2019-10-10",
            "fr": "2019-10-10"
        },
        "modified": {
            "en": "2019-10-16",
            "fr": "2019-10-16"
        },
        "format": {
            "en": "gcformat",
            "fr": "gcformat"
        },
        "title": {
            "en": "Policy Analyst/Economist ",
            "fr": "Analyste de politiques/\u00e9conomiste"
        },
        "subject": {
            "en": "staffing",
            "fr": "dotation en personnel"
        },
        "language": {
            "en": "eng",
            "fr": "fra"
        },
        "audience": {
            "en": "gcaudience",
            "fr": "gcaudience"
        },
        "type": {
            "en": "notice",
            "fr": "avis"
        },
        "creator": {
            "en": "Agriculture and Agri-Food Canada",
            "fr": "Agriculture et Agroalimentaire Canada"
        },
        "spatial": {
            "en": "gcregions",
            "fr": "gcregions"
        },
        "service": {
            "en": "AAFC_AgriSource",
            "fr": "AAC_AgriSource"
        },
        "accessRights": {
            "en": "3",
            "fr": "3"
        }
    },
    "body": {
        "en": "\n<h2><strong>As an ECDP participant, are you interested in:</strong></h2>\n<ul>\n<li>Gaining experience working with an international organization to advance agricultural policy;</li>\n<li>Undertaking research and analysis on agricultural sector policies globally; and</li>\n<li>Exploring and analyzing key international trends affecting the sector?</li>\n</ul>\n<p>Employees of Agriculture and Agri-Food Canada at the EC-02, EC-03 and EC-04 group and level in the ECDP are invited to express their interest in this one-year assignment within the Research and Analysis Directorate, Policy Analysis Division, Strategic Policy Branch.</p>\n<h2><strong>We can offer:</strong></h2>\n<ul>\n<li>\n<p>The opportunity to work with an international organization through supporting the Canadian Delegation in representing AAFC at the Organization for Economic Cooperation and Development (OECD).</p>\n</li>\n<li>\n<p>Experience in undertaking research and analysis on agricultural and trade policy in other countries and assessing implications for the sector in Canada.</p>\n</li>\n<li>\n<p>The opportunity to participate in collaborative research projects, focused on analyzing  current international agricultural issues that could impact Canada.</p>\n<p>\u00a0</p>\n</li>\n</ul>\n<p>This position is intended for an assignment at-level as part of the ECDP requirements.</p>\n<h2><strong>About IAME:</strong></h2>\n<p>The International Analysis and Multilateral Engagement (IAME) unit leads the coordination of AAFC\u2019s input into the work of the Organization for Economic Cooperation and Development (OECD), ensuring research and analysis works aligns with the policy priorities and the department and the Government of Canada. The Unit is also responsible for conducting monitoring and analysis on international trends and policy issues affecting the competiveness and sustainability of the agriculture and agi-food sector in Canada.</p>\n<h3><strong>Conditions of Employment:</strong></h3>\n<p><strong>Security: Reliability clearance</strong></p>\n<h2><br>\n<strong>STATEMENT OF MERIT CRITERIA: </strong><br>\n<br>\n<strong>Essential Qualifications</strong></h2>\n<p><strong>Language:</strong>\u00a0Various<strong> </strong>Language Profiles</p>\n<p><strong>Education:</strong><br>\nGraduation with a degree from a recognized post-secondary institution with acceptable specialization in economics, policy or statistics.</p>\n<p><strong>Experience:</strong><br>\nExperience in policy or economic research, analysis or policy development.</p>\n<p>Experience in writing talking points, briefing notes and/or reports.</p>\n<p><strong>Knowledge:</strong><br>\nKnowledge of international issues impacting Canada\u2019s agricultural sector.</p>\n<p><strong>Competencies:</strong><br>\n\u2022 Analytical Thinking<br>\n\u2022 Interactive Communication<br>\n\u2022 Writing Skills<br>\n\u2022 Teamwork<br>\n\u2022 Initiative<br>\n\u2022 Adaptability<br>\n\u2022 Judgment</p>\n<p><strong>Organizational Needs:</strong><br>\nIn support of achieving a diversified workforce, consideration may be given to candidates self-identifying as belonging to one of the following Employment Equity groups: Aboriginal peoples, Persons with a Disability; Visible Minorities, Women.</p>\n<p><strong>Applications:</strong><br>\nInterested AAFC employees are encouraged to forward their resume and cover letter (maximum 300 words) to Julie Levert at julie.levert@canada.ca with the following information by October 25, 2019:</p>\n<p>\u2022 Your tenure (e.g., term or indeterminate);<br>\n\u2022 Your substantive group and level; and<br>\n\u2022 How you meet the essential qualifications.</p>\n<p>\u00a0</p>\n",
        "fr": "\n<h2><strong>\u00c0 titre de participant au PPEC, aimeriez-vous :</strong></h2>\n<ul>\n<li>acqu\u00e9rir de l\u2019exp\u00e9rience en travaillant avec une organisation internationale pour faire avancer la politique agricole;</li>\n<li>entreprendre des recherches et des analyses sur les politiques du secteur agricole \u00e0 l\u2019\u00e9chelle mondiale;</li>\n<li>explorer et analyser les principales tendances internationales qui touchent le secteur?</li>\n</ul>\n<p>Les employ\u00e9s d\u2019Agriculture et Agroalimentaire Canada de groupe et de niveau EC-02, EC-03 et EC-04 participant au PPEC qui sont int\u00e9ress\u00e9s par une possibilit\u00e9 d\u2019affectation d\u2019un an \u00e0 la Division de l\u2019analyse \u00e9conomique et sectorielle (DAES) de la Direction de la recherche et de l\u2019analyse, Direction g\u00e9n\u00e9rale des politiques strat\u00e9giques, sont invit\u00e9s \u00e0 poser leur candidature.</p>\n<h2><strong>Nous pouvons vous offrir ce qui suit :</strong></h2>\n<ul>\n<li>\n<p>La possibilit\u00e9 de travailler avec une organisation internationale en aidant la d\u00e9l\u00e9gation canadienne \u00e0 repr\u00e9senter AAC aupr\u00e8s de l\u2019Organisation de coop\u00e9ration et de d\u00e9veloppement \u00e9conomiques (OCDE).</p>\n</li>\n<li>\n<p>L\u2019exp\u00e9rience de la recherche et de l\u2019analyse des politiques agricoles et commerciales d\u2019autres pays et de l\u2019\u00e9valuation de leurs r\u00e9percussions sur le secteur au Canada.</p>\n</li>\n<li>\n<p>L\u2019occasion de participer \u00e0 des projets de recherche concert\u00e9e ax\u00e9s sur l\u2019analyse des enjeux agricoles internationaux actuels susceptibles d\u2019avoir une incidence sur le Canada.\u00a0</p>\n</li>\n</ul>\n<p><br>Le poste est une affectation \u00e0 un poste de m\u00eame niveau dans le cadre du PPEC.</p>\n<h2><strong><br>\u00c0 propos d\u2019Analyse internationale et engagement multilat\u00e9ral (AIEM)</strong></h2>\n<p>L\u2019Unit\u00e9 de l\u2019analyse internationale et de l\u2019engagement multilat\u00e9ral (AIEM) dirige la coordination de la contribution d\u2019AAC aux travaux de l\u2019Organisation de coop\u00e9ration et de d\u00e9veloppement \u00e9conomiques (OCDE), en veillant \u00e0 ce que les travaux de recherche et d\u2019analyse soient conformes aux priorit\u00e9s strat\u00e9giques, au Minist\u00e8re et au gouvernement du Canada. L\u2019Unit\u00e9 est \u00e9galement responsable de la surveillance et de l\u2019analyse des tendances internationales et des questions strat\u00e9giques ayant une incidence sur la comp\u00e9titivit\u00e9 et la durabilit\u00e9 du secteur agricole et agroalimentaire au Canada.</p>\n<p><strong><br>Conditions d\u2019emploi</strong></p>\n<p><strong>S\u00e9curit\u00e9 : Cote de fiabilit\u00e9</strong></p>\n<p>\u00a0</p>\n<h2><strong>\u00c9NONC\u00c9 DE CRIT\u00c8RES DE M\u00c9RITE : </strong></h2>\n<h2><strong>Qualifications essentielles </strong></h2>\n<p><strong>Exigences linguistiques : </strong>Divers profils linguistiques<br>\n<br>\n<strong>\u00c9tudes</strong><br>\nUn grade d\u2019un \u00e9tablissement d\u2019enseignement postsecondaire reconnu avec sp\u00e9cialisation acceptable en \u00e9conomie, en politique ou en statistique</p>\n<p><strong>Exp\u00e9rience</strong><br>\nExp\u00e9rience de la recherche et de l\u2019analyse politiques ou \u00e9conomiques et de l\u2019\u00e9laboration de politiques.</p>\n<p>Exp\u00e9rience de la r\u00e9daction de sujets d\u2019entretien, de notes d\u2019information et/ou de rapports.</p>\n<p><strong>Connaissances</strong><br>\nConnaissance des enjeux internationaux ayant une incidence sur le secteur agricole canadien.</p>\n<p><strong>Comp\u00e9tences:</strong></p>\n<ul>\n<li>R\u00e9flexion analytique</li>\n<li>Communication interactive</li>\n<li>Comp\u00e9tences en r\u00e9daction</li>\n<li>Esprit d\u2019\u00e9quipe</li>\n<li>Esprit d\u2019initiative</li>\n<li>Facult\u00e9 d\u2019adaptation</li>\n<li>Jugement</li>\n</ul>\n<p><strong>Besoins organisationnels</strong><br>\nPour les besoins de la diversification de l\u2019effectif, la pr\u00e9f\u00e9rence pourrait \u00eatre accord\u00e9e aux candidats qui auront indiqu\u00e9 leur appartenance \u00e0 l\u2019un des groupes suivants, vis\u00e9s par l\u2019\u00e9quit\u00e9 en mati\u00e8re d\u2019emploi : Autochtones, personnes handicap\u00e9es, membres d\u2019une minorit\u00e9 visible, femmes.</p>\n<p><strong>Demandes</strong><br>\nOn encourage les employ\u00e9s d\u2019AAC int\u00e9ress\u00e9s \u00e0 transmettre leur curriculum vitae et une lettre de pr\u00e9sentation (300 mots au maximum) \u00e0 Julie Levert, par courriel, \u00e0 julie.levert@canada.ca, en prenant soin de fournir les renseignements suivants d\u2019ici le 25 octobre 2019 :</p>\n<ul>\n<li>\n<p>la dur\u00e9e de leur emploi (p. ex. d\u00e9termin\u00e9e ou ind\u00e9termin\u00e9e);</p>\n</li>\n<li>\n<p>le groupe et le niveau de leur poste d\u2019attache; et</p>\n</li>\n<li>\n<p>en quoi ils poss\u00e8dent les qualifications essentielles.</p>\n</li>\n</ul>\n<p>\u00a0</p>\n\n"
    },
    "breadcrumb": {
        "en": "Policy Analyst/Economist",
        "fr": "Analyste de politiques/\u00e9conomiste"
    },
    "empl": {
        "type": {
            "en": "Assignment",
            "fr": "Affectation"
        },
        "classification": {
            "en": "EC-2, EC-3, EC-4 and equivalent",
            "fr": "EC-2, EC-3, EC-4 et \u00e9quivalent"
        },
        "branch": {
            "en": "Strategic Policy Branch",
            "fr": "Direction g\u00e9n\u00e9rale des politiques strat\u00e9giques"
        },
        "locations": {
            "en": "National Capital Region",
            "fr": "R\u00e9gion de la capitale nationale"
        },
        "date_closing": {
            "en": "2019-10-25",
            "fr": "2019-10-25"
        },
        "open_to": {
            "en": "ECDP participants at the EC-02, EC-03 or EC 04 group and level",
            "fr": "Participants au PPEC de groupe et de niveau EC-02, EC-03 ou EC-04"
        },
        "name": {
            "en": "Julie Levert",
            "fr": "Julie Levert"
        },
        "email": {
            "en": "julie.levert@canada.ca",
            "fr": "julie.levert@canada.ca"
        }
    }
}