{
    "dcr_id": "1570027859024",
    "lang": "en",
    "title": {
        "en": "Call for Nominations for the 2019 Michelle C. Comeau HR Leadership Awards - Deadline is December 31, 2019",
        "fr": "Appel de mises en candidature pour les Prix de leadership en ressources humaines Michelle C. Comeau de 2019 - La date limite est le 31 d\u00e9cembre 2019"
    },
    "modified": "2019-10-10 00:00:00.0",
    "issued": "2019-10-10 00:00:00.0",
    "type_name": "intra-intra/news-nouv",
    "node_id": "1279030006975",
    "layout_name": null,
    "dc_date_created": "2019-10-04",
    "breadcrumb_label": "Call for Nominations for the 2019 Michelle C. Comeau HR Leadership Awards - Deadline is December...",
    "meta": {
        "issued": {
            "en": "2019-10-10",
            "fr": "2019-10-10"
        },
        "modified": {
            "en": "2019-10-10",
            "fr": "2019-10-10"
        },
        "format": {
            "en": "gcformat",
            "fr": "gcformat"
        },
        "title": {
            "en": "Call for Nominations for the 2019 Michelle C. Comeau HR Leadership Awards - Deadline is December 31, 2019",
            "fr": "Appel de mises en candidature pour les Prix de leadership en ressources humaines Michelle C. Comeau de 2019 - La date limite est le 31 d\u00e9cembre 2019"
        },
        "subject": {
            "en": "communications",
            "fr": "communications"
        },
        "description": {
            "en": "These awards, in memory of Michelle C. Comeau, formerly Associate Deputy Minister of AAFC, recognize leadership and excellence in human resources management in the federal public service.",
            "fr": "Ces prix, d\u00e9cern\u00e9s en m\u00e9moire de Michelle C. Comeau, ancienne sous-ministre d\u00e9l\u00e9gu\u00e9e \u00e0 AAC, servent \u00e0 reconna\u00eetre le leadership et l'excellence dans la gestion des ressources humaines au sein de la fonction publique f\u00e9d\u00e9rale."
        },
        "language": {
            "en": "eng",
            "fr": "fra"
        },
        "audience": {
            "en": "gcaudience",
            "fr": "gcaudience"
        },
        "creator": {
            "en": "Agriculture and Agri-Food Canada",
            "fr": "Agriculture et Agroalimentaire Canada"
        },
        "spatial": {
            "en": "gcregions",
            "fr": "gcregions"
        },
        "service": {
            "en": "AAFC_AgriSource",
            "fr": "AAC_AgriSource"
        },
        "accessRights": {
            "en": "3",
            "fr": "3"
        }
    },
    "body": {
        "en": "<br>\n<br>\n<p>Nominations are now being accepted for the 2019 Michelle C. Comeau Human Resources Leadership Awards.</p>\n<p>These awards, in memory of Michelle C. Comeau, formerly Associate Deputy Minister of AAFC, recognize leadership and excellence in human resources management in the federal public service. They celebrate success and recognize the significant achievements of individuals and teams in the Human Resources discipline. They also offer an opportunity to highlight excellence in Human Resources and showcase the work that has been undertaken at AAFC to support outstanding people management.</p>\n<p>Nominations can be made for the following awards:</p>\n<ul>\n<li>New Human Resources Talent</li>\n<li>Human Resources Professional</li>\n<li>Human Resources Leader</li>\n<li>Business Leader</li>\n<li>Head of Human Resources</li>\n<li>Human Resources Team</li>\n<li>Career Contribution in Human Resources</li>\n</ul>\n<p>The recipients will be announced in the spring of 2020 and will receive a trophy at an awards celebration in honour of their contributions to people management in the public service.</p>\n<p>The nomination guidelines and forms can be found on the <a href=\"https://gcconnex.gc.ca/file/group/4880212/all#51414859\">Human Resources Council GCconnex page</a> under \u201cMCC 2019\u201d.</p>\n<p>To nominate a <strong>group larger than 10 people</strong> for the Human Resources Team award, please complete <a href=\"https://gcconnex.gc.ca/file/view/53495552/michelle-c-comeau-hr-team-en-michelle-c-comeau-equipe-en-ressources-humaines-en?language=en\">the Annex section of the HR Team Nomination form</a> and email it to the Awards and Recognition team <strong>by Monday, November 25</strong> so we may seek approval from the Awards Selection Committee on your behalf.</p>\n<p>Once permission has been granted for your group nomination, and for all other nominations, please submit your complete nomination package by email to the Awards and Recognition team no later than <strong>Friday,</strong> <strong>December 20</strong>. This will allow for coordination and submission of departmental nominations in time for the deadline established by the HR Council.</p>\n<p>If you have any questions or require additional information, please contact the Awards and Recognition Team at <a href=\"mailto:aafc.awards-reconnaissance.aac@canada.ca\">aafc.awards-reconnaissance.aac@canada.ca</a>.</p>\n<p>We encourage you to take the time to nominate your deserving colleagues!</p>\n\n\t\t",
        "fr": "<br>\n<br>\n<p>Le processus de mises en candidature pour les Prix de leadership en ressources humaines Michelle C. Comeau de 2019 est en cours.</p>\n<p>Ces prix, d\u00e9cern\u00e9s en m\u00e9moire de Michelle C. Comeau, ancienne sous-ministre d\u00e9l\u00e9gu\u00e9e \u00e0 AAC, servent \u00e0 reconna\u00eetre le leadership et l'excellence dans la gestion des ressources humaines au sein de la fonction publique f\u00e9d\u00e9rale. Ils soulignent les r\u00e9ussites, et ils reconnaissent les r\u00e9alisations importantes des personnes et des \u00e9quipes \u0153uvrant dans le domaine des ressources humaines. Ces prix offrent aussi une occasion de souligner l'excellence dans le domaine des ressources humaines et de mettre en valeur le travail accompli \u00e0 AAC pour appuyer l'excellence en gestion des personnes.</p>\n<p>Les mises en candidature peuvent \u00eatre pr\u00e9sent\u00e9es pour les prix suivants :</p>\n<ul>\n<li>Nouveau talent en ressources humaines</li>\n<li>Professionnel en ressources humaines</li>\n<li>Leader en ressources humaines</li>\n<li>Chef d\u2019entreprise</li>\n<li>Chef des ressources humaines</li>\n<li>\u00c9quipe des ressources humaines</li>\n<li>Contribution aux ressources humaines\u00a0au cours\u00a0d\u2019une carri\u00e8re</li>\n</ul>\n<p>Les r\u00e9cipiendaires seront annonc\u00e9s au printemps de 2020, et\u00a0ils recevront un troph\u00e9e \u00e0 la c\u00e9r\u00e9monie de remise des prix en l\u2019honneur de leurs contributions \u00e0 la gestion des personnes dans la fonction publique.</p>\n<p>Vous trouverez les lignes directrices et les formulaires pour les mises en candidature \u00e0 la <a href=\"https://gcconnex.gc.ca/file/group/4880212/all#51414859\">page du Conseil des ressources humaines sur GCconnex</a>, dans le sous-dossier \u00ab MCC 2019 \u00bb.</p>\n<p>Pour pr\u00e9senter la mise en candidature  d\u2019un groupe de <strong>plus de dix personnes</strong> pour le prix de l\u2019\u00c9quipe des ressources humaines, veuillez remplir\u00a0l'<a href=\"https://gcconnex.gc.ca/file/view/53499599/michelle-c-comeau-hr-team-fr-michelle-c-comeau-equipe-en-ressources-humaines-fr?language=fr\">Annexe du formulaire de\u00a0mise en candidature\u00a0d'une \u00e9quipe en\u00a0RH</a> et la soumettre par courriel \u00e0 l\u2019\u00e9quipe des prix et de la reconnaissance au plus tard <strong>le lundi 25 novembre 2019</strong>, afin que nous puissions obtenir l\u2019approbation pr\u00e9alable du comit\u00e9 de s\u00e9lection des prix en votre nom.</p>\n<p>Une fois l\u2019autorisation accord\u00e9e pour la mise en candidature du groupe en question et de toutes autres demandes, veuillez soumettre votre trousse de mise en candidature d\u00fbment remplie par courriel \u00e0 l\u2019\u00e9quipe des prix et de la reconnaissance au plus tard <b>le vendredi 20 d\u00e9cembre</b> 2019 afin de permettre la coordination et la soumission des mises en candidature du Minist\u00e8re avant la date d\u2019\u00e9ch\u00e9ance \u00e9tablie par le Conseil des RH.</p>\n<p>Si vous avez des questions ou si vous avez besoin de plus amples informations, veuillez communiquer avec l\u2019\u00e9quipe des prix et de la reconnaissance\u00a0(<a href=\"mailto:aafc.awards-reconnaissance.aac@canada.ca\">aafc.awards-reconnaissance.aac@canada.ca</a>).</p>\n<p>Nous vous encourageons \u00e0 prendre le temps de proposer la candidature de vos coll\u00e8gues m\u00e9ritants !</p>\n\t\t"
    },
    "breadcrumb": {
        "en": "Call for Nominations for the 2019 Michelle C. Comeau HR Leadership Awards - Deadline is December...",
        "fr": "Appel de mises en candidature pour les Prix de leadership en ressources humaines Michelle C. ..."
    },
    "news": {
        "date_posted": {
            "en": "2019-10-10",
            "fr": "2019-10-10"
        },
        "to": {
            "en": "All staff",
            "fr": "Tous les employ\u00e9s"
        },
        "by": {
            "en": "Human Resources, Corporate Management Branch",
            "fr": "Ressources humaines, Direction g\u00e9n\u00e9rale de la gestion int\u00e9gr\u00e9e"
        }
    }
}