{
    "dcr_id": "1571152464002",
    "lang": "en",
    "title": {
        "en": "Time Off for Voting - Federal Election, Monday, October 21",
        "fr": "Temps allou\u00e9 pour voter - \u00c9lection f\u00e9d\u00e9rale, le lundi 21 octobre"
    },
    "modified": "2019-10-17 00:00:00.0",
    "issued": "2019-10-17 00:00:00.0",
    "type_name": "intra-intra/news-nouv",
    "node_id": "1279030006975",
    "layout_name": null,
    "dc_date_created": "2019-10-15",
    "breadcrumb_label": "",
    "meta": {
        "issued": {
            "en": "2019-10-17",
            "fr": "2019-10-17"
        },
        "modified": {
            "en": "2019-10-17",
            "fr": "2019-10-17"
        },
        "format": {
            "en": "gcformat",
            "fr": "gcformat"
        },
        "title": {
            "en": "Time Off for Voting - Federal Election, Monday, October 21",
            "fr": "Temps allou\u00e9 pour voter - \u00c9lection f\u00e9d\u00e9rale, le lundi 21 octobre"
        },
        "subject": {
            "en": "communications",
            "fr": "communications"
        },
        "description": {
            "en": "The 2019 Canadian federal election is scheduled to take place on Monday, October 21.",
            "fr": "Les \u00e9lections f\u00e9d\u00e9rales canadiennes de 2019 auront lieu le lundi 21 octobre."
        },
        "language": {
            "en": "eng",
            "fr": "fra"
        },
        "audience": {
            "en": "gcaudience",
            "fr": "gcaudience"
        },
        "creator": {
            "en": "Agriculture and Agri-Food Canada",
            "fr": "Agriculture et Agroalimentaire Canada"
        },
        "spatial": {
            "en": "gcregions",
            "fr": "gcregions"
        },
        "service": {
            "en": "AAFC_AgriSource",
            "fr": "AAC_AgriSource"
        },
        "accessRights": {
            "en": "3",
            "fr": "3"
        }
    },
    "body": {
        "en": "<br>\n<br>\n<p>The 2019 Canadian federal election is scheduled to take place on Monday, October 21.</p>\n<p>All AAFC employees (including term employees and casual workers) are entitled to have three consecutive hours outside of working hours to cast their vote.</p>\n<p>If your hours of work do not allow for three consecutive hours to vote, please discuss your situation with your manager as they can approve time off with pay for the time of day that best suits the employer.</p>\n<p>You can find <a rel=\"external\" href=\"https://www.elections.ca/content2.aspx?section=faq&amp;dir=votinghours&amp;document=index&amp;lang=e\">voting hours across Canada</a> on the Elections Canada website. For more information about time off for voting, consult the Treasury Board of Canada Secretariat's <a rel=\"external\" href=\"http://www.tbs-sct.gc.ca/pol/doc-eng.aspx?id=15774\">Directive on Leave and Special Working Arrangements</a>.</p>\n<p>Questions about time off work with pay should be referred to your manager. If you are a manager and have additional questions, please contact your <a href=\"https://collab.agr.gc.ca/co/hr_wrlr-rh_rmtrt/Documents/LR_Contacts_Agrisource.docx\">Labour Relations Advisor</a>.</p>\n<p><img src=\"https://intranet.agr.gc.ca/resources/prod/news/images/Election.png\" class=\"center-block\"></p>\n\n\t\t",
        "fr": "<br>\n<br>\n<p>Les <strong>\u00e9lections f\u00e9d\u00e9rales canadiennes de 2019</strong> auront lieu le lundi 21 octobre.</p>\n<p>Tous les employ\u00e9s d\u2019AAC (y compris les employ\u00e9s nomm\u00e9s pour une p\u00e9riode d\u00e9termin\u00e9e et les employ\u00e9s occasionnels) ont droit \u00e0 trois heures cons\u00e9cutives \u00e0 l\u2019ext\u00e9rieur des heures de travail pour voter lorsque les bureaux de scrutin sont ouverts.<br>\n<br>\nSi vos heures de travail ne permettent pas trois heures cons\u00e9cutives pour voter, veuillez discuter de votre situation avec votre gestionnaire. Celui-ci peut approuver une p\u00e9riode de temps r\u00e9mun\u00e9r\u00e9e qui conviendrait \u00e0 l\u2019employeur.</p>\n<p>Vous pouvez trouver les <a rel=\"external\" href=\"https://www.elections.ca/content2.aspx?section=faq&amp;dir=votinghours&amp;document=index&amp;lang=f\">heures de vote au Canada</a> sur le site Web d\u2019\u00c9lections Canada. Pour obtenir de plus amples renseignements sur le temps libre pay\u00e9 pour voter, veuillez consulter la <a rel=\"external\" href=\"https://www.tbs-sct.gc.ca/pol/doc-fra.aspx?id=15774\">Directive sur les cong\u00e9s et les modalit\u00e9s de travail sp\u00e9ciales</a> du Secr\u00e9tariat du Conseil du Tr\u00e9sor du Canada.</p>\n<p>Les questions concernant le temps libre pay\u00e9 pour voter doivent \u00eatre adress\u00e9es \u00e0 votre gestionnaire. Si vous \u00eates un gestionnaire et avez des questions suppl\u00e9mentaires, veuillez communiquer avec votre <a href=\"https://collab.agr.gc.ca/co/hr_wrlr-rh_rmtrt/Documents/LR_Contacts_Agrisource.docx\">conseiller en relations de travail</a>.</p>\n<p><img src=\"https://intranet.agr.gc.ca/resources/prod/news/images/Election.png\" class=\"center-block\"></p>\n\t\t"
    },
    "breadcrumb": {
        "en": "Time Off for Voting - Federal Election, Monday, October 21",
        "fr": "Temps allou\u00e9 pour voter - \u00c9lection f\u00e9d\u00e9rale, le lundi 21 octobre"
    },
    "news": {
        "date_posted": {
            "en": "2019-10-15",
            "fr": "2019-10-15"
        },
        "to": {
            "en": "All staff",
            "fr": "Tous les employ\u00e9s"
        },
        "by": {
            "en": "Human Resources, Corporate Management Branch",
            "fr": "Ressources humaines, Direction g\u00e9n\u00e9rale de la gestion int\u00e9gr\u00e9e"
        }
    }
}