{
    "dcr_id": "1571753217340",
    "lang": "en",
    "title": {
        "en": "Policy Analyst",
        "fr": "Analyste des politiques"
    },
    "modified": "2019-10-22 00:00:00.0",
    "issued": "2019-10-22 00:00:00.0",
    "type_name": "intra-intra/empl-empl",
    "node_id": "1279029955397",
    "layout_name": null,
    "dc_date_created": "2019-10-22",
    "breadcrumb_label": "",
    "meta": {
        "issued": {
            "en": "2019-10-22",
            "fr": "2019-10-22"
        },
        "modified": {
            "en": "2019-10-22",
            "fr": "2019-10-22"
        },
        "format": {
            "en": "gcformat",
            "fr": "gcformat"
        },
        "title": {
            "en": "Policy Analyst",
            "fr": "Analyste des politiques"
        },
        "subject": {
            "en": "staffing",
            "fr": "dotation en personnel"
        },
        "language": {
            "en": "eng",
            "fr": "fra"
        },
        "audience": {
            "en": "gcaudience",
            "fr": "gcaudience"
        },
        "type": {
            "en": "notice",
            "fr": "avis"
        },
        "creator": {
            "en": "Agriculture and Agri-Food Canada",
            "fr": "Agriculture et Agroalimentaire Canada"
        },
        "spatial": {
            "en": "gcregions",
            "fr": "gcregions"
        },
        "service": {
            "en": "AAFC_AgriSource",
            "fr": "AAC_AgriSource"
        },
        "accessRights": {
            "en": "3",
            "fr": "3"
        }
    },
    "body": {
        "en": "\n<h2>Policy Analyst \u2013 Food Policy Engagement and Coordination</h2>\n<p>Employees of Agriculture and Agri-Food Canada (AAFC) at the EC-04 and EC-05 group and level are invited to express their interest in an acting, assignment at level or deployment opportunity to work in the Food Policy Division, Policy Analysis and Development Directorate (PDAD) within the Strategic Policy Branch.</p>\n<p>Joining the Food Policy Division will provide a challenging and invaluable experience on an amazing team in a fast-paced and dynamic environment. Successful candidates will be able to further develop all EC competencies, gain experience on the process to implement a new policy, work interdepartmentally to bring about meaningful change, and address important issues that are vital to Canadians.</p>\n<p>Duties include building stronger ties across multiple orders of government and Indigenous partners, a diverse range of stakeholders from industry to civil society, and academia to improve interdependent social, health, environmental, and economic food-related outcomes across programs and initiatives.</p>\n<p>The successful candidate will:</p>\n<ul>\n<li>\n<p>network with other federal departments to advance Food Policy objectives;</p>\n</li>\n<li>\n<p>improve policy coherence;</p>\n</li>\n<li>\n<p>prepare advice for senior officials;</p>\n</li>\n<li>\n<p>develop and implement an engagement strategy; and</p>\n</li>\n<li>\n<p>prepare presentations to stakeholders on the Food Policy.</p>\n</li>\n</ul>\n<h2><strong>Statement of Merit Criteria &amp; Conditions of Employment</strong></h2>\n<p><strong><br>Essential Qualifications</strong></p>\n<p><strong><br>Education</strong><br>\nGraduation with a degree from a recognized post-secondary institution with acceptable specialization in economics, sociology or statistics.</p>\n<p><strong><br>Experience:</strong></p>\n<ul>\n<li>\n<p>Experience in policy research, policy analysis, or policy development.</p>\n</li>\n<li>\n<p>Experience in writing decks and/or briefing notes.</p>\n</li>\n<li>\n<p>Experience in providing policy-related briefings, advice and recommendations to senior manager (Director-level and above).</p>\n</li>\n</ul>\n<p><strong><br>Knowledge:</strong></p>\n<p>Knowledge of policy environment/issues and trends</p>\n<p><strong><br>Asset Qualifications:</strong><br>\nExperience in dealing and engaging with other government departments</p>\n<p><strong><br>Competencies:</strong><br>\nAnalytical Thinking<br>\nAdaptability<br>\nTeamwork<br>\nInitiative<br>\nJudgment<br>\nAbility to communicate effectively in writing<br>\nAbility to communicate effectively orally</p>\n<p><strong><br>Language Requirements(s):</strong> Various Linguistic Profiles</p>\n<p><strong><br>Organizational Needs:</strong><br>\nIn support of achieving a diversified workforce, consideration may be given to candidates self-identifying as belonging to one of the following Employment Equity groups: Aboriginal peoples, Persons with a Disability; Visible Minorities, Women.</p>\n<h2><strong>Conditions of Employment</strong></h2>\n<p><strong><br>Security requirement: Secret clearance </strong></p>\n<p><strong><br>Applications:</strong><br>\nInterested AAFC employees are encouraged to forward their resume and cover letter (maximum 300 words) to Julie Levert at julie.levert@canada.ca by November 8, 2019 with the following information:</p>\n<p>\u2022 Your tenure (e.g., term or indeterminate);<br>\n\u2022 Your substantive group and level; and<br>\n\u2022 How you meet the essential and asset qualifications.</p>\n<p>\u00a0</p>\n",
        "fr": "\n<h2>Analyste des politiques \u2013 Politique alimentaire, Consultation et coordination</h2>\n<p>Les employ\u00e9s d\u2019Agriculture et Agroalimentaire Canada (AAC) ayant la classification EC-04 et EC-05 sont invit\u00e9s \u00e0 signifier leur int\u00e9r\u00eat pour une nomination int\u00e9rimaire, une affectation au niveau de titularisation ou une mutation \u00e0 la Division de la politique alimentaire, Direction de l\u2019analyse et de l\u2019\u00e9laboration des politiques, Direction g\u00e9n\u00e9rale des politiques strat\u00e9giques.</p>\n<p>Le travail \u00e0 la Division de la politique alimentaire offre une exp\u00e9rience stimulante et inestimable, au sein d\u2019une \u00e9quipe extraordinaire et dans un environnement dynamique et au rythme rapide. Les candidats retenus seront en mesure de perfectionner davantage toutes les comp\u00e9tences du groupe EC, d\u2019acqu\u00e9rir de l\u2019exp\u00e9rience sur le processus de mise en \u0153uvre d\u2019une nouvelle politique, de collaborer avec d\u2019autres minist\u00e8res pour apporter des changements significatifs et de s\u2019attaquer \u00e0 des questions d\u2019une grande importance pour les Canadiens.</p>\n<p>Le poste vise \u00e0 renforcer les liens entre les multiples ordres de gouvernement et les partenaires autochtones, un \u00e9ventail diversifi\u00e9 d\u2019intervenants de l\u2019industrie et de la soci\u00e9t\u00e9 civile, et le milieu universitaire pour am\u00e9liorer les r\u00e9sultats sociaux, sanitaires, environnementaux et \u00e9conomiques interd\u00e9pendants ayant trait \u00e0 l\u2019alimentation dans l\u2019ensemble des programmes et initiatives.</p>\n<p>Le candidat retenu :</p>\n<ul>\n<li>\n<p>entretiendra des rapports avec d\u2019autres minist\u00e8res f\u00e9d\u00e9raux pour faire progresser les objectifs de la Politique alimentaire;</p>\n</li>\n<li>\n<p>am\u00e9liorera la coh\u00e9rence de la politique;</p>\n</li>\n<li>\n<p>formulera des conseils \u00e0 l\u2019intention de hauts fonctionnaires;</p>\n</li>\n<li>\n<p>\u00e9laborera et mettra en \u0153uvre une strat\u00e9gie de mobilisation;</p>\n</li>\n<li>\n<p>pr\u00e9parera des expos\u00e9s \u00e0 l\u2019intention des intervenants sur la Politique alimentaire.</p>\n</li>\n</ul>\n<h2><strong>\u00c9nonc\u00e9 des crit\u00e8res de m\u00e9rite et conditions d\u2019emploi </strong></h2>\n<p><strong><br>Qualifications essentielles</strong></p>\n<p><strong><br>\u00c9tudes</strong><br>\nUn grade d\u2019un \u00e9tablissement d\u2019enseignement postsecondaire reconnu avec sp\u00e9cialisation acceptable en \u00e9conomie, en sociologie ou en statistique.</p>\n<p><strong><br>Exp\u00e9rience:</strong></p>\n<ul>\n<li>\n<p>Exp\u00e9rience de la recherche sur les politiques, de l\u2019analyse ou de l\u2019\u00e9laboration de politiques.</p>\n</li>\n<li>\n<p>Exp\u00e9rience de l\u2019\u00e9laboration de pr\u00e9sentations et/ou de notes d\u2019information.</p>\n</li>\n<li>\n<p>Exp\u00e9rience de la pr\u00e9sentation de s\u00e9ances d\u2019information, de conseils et de recommandations \u00e0 des cadres sup\u00e9rieurs (niveau du directeur et niveaux sup\u00e9rieurs).</p>\n</li>\n</ul>\n<p><strong><br>Connaissances</strong><br>\nConnaissance de l\u2019environnement, des enjeux et des tendances en mati\u00e8re de politiques.</p>\n<p><strong><br>Qualifications constituant un atout</strong><br>\nExp\u00e9rience de la collaboration avec d\u2019autres minist\u00e8res.</p>\n<p><strong><br>Comp\u00e9tences :</strong><br>\nR\u00e9flexion analytique<br>\nFacult\u00e9 d\u2019adaptation<br>\nTravail d\u2019\u00e9quipe<br>\nEsprit d\u2019initiative<br>\nJugement<br>\nCapacit\u00e9 de communiquer efficacement par \u00e9crit<br>\nCapacit\u00e9 de communiquer efficacement de vive voix</p>\n<p><strong><br>Exigences linguistiques : </strong>Divers profils linguistiques</p>\n<p><strong><br>Besoins organisationnels:</strong><br>\nPour les besoins de la diversification de l\u2019effectif, la pr\u00e9f\u00e9rence pourrait \u00eatre accord\u00e9e aux candidats qui auront indiqu\u00e9 leur appartenance \u00e0 l\u2019un des groupes vis\u00e9s par l\u2019\u00e9quit\u00e9 en mati\u00e8re d\u2019emploi : Autochtones, personnes handicap\u00e9es, minorit\u00e9s visibles et femmes.</p>\n<h2><strong>Conditions d\u2019emploi</strong></h2>\n<p><strong><br>S\u00e9curit\u00e9 : cote \u00ab Secret \u00bb </strong></p>\n<p><strong><br>Demandes:</strong><br>\nLes employ\u00e9s d\u2019AAC qui souhaitent pr\u00e9senter leur candidature sont invit\u00e9s \u00e0 faire parvenir leur <em>curriculum vitae</em> accompagn\u00e9 d\u2019une lettre de pr\u00e9sentation (maximum de 300 mots) \u00e0 Julie Levert (julie.levert@canada.ca) d\u2019ici le 8 novembre 2019, y compris les renseignements suivants :</p>\n<p>\u2022 la dur\u00e9e de leur emploi (c.-\u00e0-d. d\u00e9termin\u00e9e ou ind\u00e9termin\u00e9e);<br>\n\u2022 le groupe et le niveau de leur poste d\u2019attache;<br>\n\u2022 en quoi ils poss\u00e8dent les qualifications essentielles et les qualifications constituant un atout.</p>\n<p>\u00a0</p>\n\n"
    },
    "breadcrumb": {
        "en": "Policy Analyst",
        "fr": "Analyste des politiques"
    },
    "empl": {
        "type": {
            "en": "Assignment, Deployment, Acting",
            "fr": "Affectation, Mutation, Int\u00e9rimaire"
        },
        "classification": {
            "en": "EC-4, EC-5",
            "fr": "EC-4, EC-5"
        },
        "branch": {
            "en": "Strategic Policy Branch",
            "fr": "Direction g\u00e9n\u00e9rale des politiques strat\u00e9giques"
        },
        "locations": {
            "en": "National Capital Region",
            "fr": "R\u00e9gion de la capitale nationale"
        },
        "date_closing": {
            "en": "2019-11-08",
            "fr": "2019-11-08"
        },
        "open_to": {
            "en": "AAFC Employees at the EC-04 and EC-05 group and level",
            "fr": "Employ\u00e9s d\u2019AAC du groupe et des niveaux EC-04 et EC-05"
        },
        "name": {
            "en": "Julie Levert",
            "fr": "Julie Levert"
        },
        "email": {
            "en": "julie.levert@canada.ca",
            "fr": "julie.levert@canada.ca"
        }
    }
}