{
    "dcr_id": "1571427821075",
    "lang": "en",
    "title": {
        "en": "Senior Industry Development Officer Assignment Opportunity",
        "fr": "Avis de possibilit\u00e9 d\u2019affectation de Agent/e Principal de d\u00e9veloppement de l'industrie"
    },
    "modified": "2019-11-01 00:00:00.0",
    "issued": "2019-10-21 00:00:00.0",
    "type_name": "intra-intra/empl-empl",
    "node_id": "1279029955397",
    "layout_name": null,
    "dc_date_created": "2019-10-21",
    "breadcrumb_label": "",
    "meta": {
        "issued": {
            "en": "2019-10-21",
            "fr": "2019-10-21"
        },
        "modified": {
            "en": "2019-11-01",
            "fr": "2019-11-01"
        },
        "format": {
            "en": "gcformat",
            "fr": "gcformat"
        },
        "title": {
            "en": "Senior Industry Development Officer Assignment Opportunity",
            "fr": "Avis de possibilit\u00e9 d\u2019affectation de Agent/e Principal de d\u00e9veloppement de l'industrie"
        },
        "subject": {
            "en": "staffing",
            "fr": "dotation en personnel"
        },
        "language": {
            "en": "eng",
            "fr": "fra"
        },
        "audience": {
            "en": "gcaudience",
            "fr": "gcaudience"
        },
        "type": {
            "en": "notice",
            "fr": "avis"
        },
        "creator": {
            "en": "Agriculture and Agri-Food Canada",
            "fr": "Agriculture et Agroalimentaire Canada"
        },
        "spatial": {
            "en": "gcregions",
            "fr": "gcregions"
        },
        "service": {
            "en": "AAFC_AgriSource",
            "fr": "AAC_AgriSource"
        },
        "accessRights": {
            "en": "3",
            "fr": "3"
        }
    },
    "body": {
        "en": "\n<div>\n<div><em>\u00a0<strong><br>Duties:</strong><em> </em></em></div>\n</div>\n<div>Are you interested in joining the Atlantic Regional Office team as a Senior Industry Development Officer? Your role will consist in working collaboratively with provincial and industry partners to better understand the issues facing the agriculture and agri-food sector in the Atlantic, to make the necessary links to departmental priorities, and to promote departmental programs and services to industry stakeholders. You will also be required to participate in meetings concerning the Atlantic\u2019s agri-food industry, write reports and share information with colleagues in the department.</div>\n<div><strong><br>Statement of Merit Criteria &amp; Conditions of Employment:</strong></div>\n<div><strong><br>Essential Qualifications</strong></div>\n<div><strong><br>Education: </strong></div>\n<ul>\n<li>Graduation with a degree from a recognized post-secondary institution.</li>\n</ul>\n<div><strong><br>Experience:</strong></div>\n<ul>\n<li>Experience conducting searches and retrieving information; analysing issues, market trends and opportunities for a specific project, sector or industry.</li>\n<li>Experience in writing reports, preparing and providing advice, briefings and recommendations to management.</li>\n<li>Experience working in multidisciplinary project teams.</li>\n<li>Experience in establishing and maintaining effective relationship with government partners and industry associations and stakeholders.</li>\n</ul>\n<div><strong><br>Knowledge:</strong></div>\n<ul>\n<li>Knowledge of the key issues, priorities, strategies and decision-making processes of the federal government and/or the Department that influence business development and the development of policies and programs.</li>\n<li>Knowledge of methods of analysis of a sector or an industry.</li>\n</ul>\n<div><strong><br>Competencies:</strong></div>\n<ul>\n<li>Analytical thinking</li>\n<li>Writing skills</li>\n<li>Interactive communication</li>\n<li>Teamwork</li>\n<li>Adaptability</li>\n<li>Initiative</li>\n</ul>\n<div><strong><br>Language Requirement:</strong> Bilingual imperative BBB /BBB</div>\n<div><strong><br>Asset Qualifications:</strong></div>\n<ul>\n<li>Master\u2019s degree from a recognized post-secondary institution with an acceptable specialization in a field related to the position.</li>\n<li>Experience in program and project assessments.</li>\n<li>Experience in writing documents for ministerial correspondence.</li>\n<li>Knowledge of the agriculture and agri-food sector.</li>\n<li>Knowledge of the roles and responsibilities of key stakeholders in the value chain of the agriculture and agri-food sector.</li>\n</ul>\n<h3><strong><br>Organizational Needs:</strong></h3>\n<div>In support of achieving a diversified workforce, consideration may be given to candidates self-identifying as belonging to one of the following Employment Equity groups: Aboriginal peoples, Persons with a Disability; Visible Minorities, Women.</div>\n<div><strong><br>Conditions of Employment:</strong></div>\n<div>Security Requirement: Reliability Status</div>\n<div><strong><br>Other conditions of employment: </strong></div>\n<ul>\n<li>Ability and willingness to work overtime and/or irregular hours; and</li>\n<li>Ability and willingness to travel.</li>\n</ul>\n<div><strong><br>Applications:</strong></div>\n<div>Interested AAFC employees are encouraged to forward their resume and cover letter to Janet Steele, janet.steele@canada.ca</div>\n<div>Your cover letter must clearly identify your tenure (e.g. term or indeterminate), your substantive group and level and how you meet the essential qualifications/requirements.</div>\n<div><strong><br>Notes:</strong></div>\n<ul>\n<li>We are looking to fill a CO-02 position in Halifax through an assignment for a period of one year with the possibility of extension.</li>\n<li>Candidates may be assessed through an interview and reference checks may be sought.</li>\n<li>The Public Service of Canada is committed to developing inclusive, barrier-free selection and appointment processes and work environments. If contacted in relation to this process, please advise the organization's representative of your need for accommodation measures which must be taken to enable you to be assessed in a fair and equitable manner.</li>\n<li>Candidates must have their manager\u2019s approval prior to applying for this opportunity.</li>\n<li>Communication for this process will be sent via email.</li>\n<li>A pool of qualified candidates may be established to fill similar positions at the CO-02 level (or equivalent).</li>\n</ul>\n<div>\u00a0</div>\n",
        "fr": "\n<div>\n<div><em>\u00a0<strong><br>Fonctions</strong></em></div>\n</div>\n<div><em>\u00cates-vous int\u00e9ress\u00e9s \u00e0 vous joindre \u00e0 l\u2019\u00e9quipe du bureau r\u00e9gionale de l\u2019Atlantique en tant qu\u2019Agent/ Agente de d\u00e9veloppement de l\u2019industrie? Votre r\u00f4le consistera \u00e0 travailler en collaboration avec les partenaires des provinces Atlantique et de l\u2019industrie afin de mieux comprendre les enjeux du secteur agricole et agroalimentaire de l\u2019Atlantique, faire les liens n\u00e9cessaires avec les priorit\u00e9s du minist\u00e8re et promouvoir les programmes et services du minist\u00e8re aupr\u00e8s de l\u2019industrie. Vous aurez \u00e9galement \u00e0 participer \u00e0 des rencontres de l\u2019industrie agroalimentaire de l\u2019Atlantique, r\u00e9diger des rapports et partager de l\u2019information avec les coll\u00e8gues du minist\u00e8re.</em></div>\n<div><strong><br>\u00c9noncer des crit\u00e8res de m\u00e9rite et conditions d\u2019emploi : </strong></div>\n<div><strong><br>Qualifications essentielles</strong></div>\n<div><strong><br>\u00c9ducation :</strong></div>\n<ul>\n<li>Un grade d\u2019un \u00e9tablissement d\u2019enseignement postsecondaire reconnu.</li>\n</ul>\n<div><strong><br>Exp\u00e9rience :</strong></div>\n<ul>\n<li>Exp\u00e9rience dans la r\u00e9alisation de recherche d\u2019information et de l\u2019analyse des enjeux, des tendances et des d\u00e9bouch\u00e9s d\u2019un march\u00e9 pour un projet, un secteur ou une industrie en particulier.</li>\n<li>Exp\u00e9rience en r\u00e9daction de rapports, pr\u00e9paration et prestation de conseils, de notes d\u2019information et de recommandations \u00e0 l\u2019intention de la haute direction.</li>\n<li>Exp\u00e9rience de travail au sein d\u2019\u00e9quipes de projets multidisciplinaires.</li>\n<li>Exp\u00e9rience dans l\u2019\u00e9tablissement et le maintien de relations efficaces avec des partenaires gouvernementaux ainsi que des associations et des intervenants de l\u2019industrie.</li>\n</ul>\n<div><strong><br>Connaissances :</strong></div>\n<ul>\n<li>Connaissance des principaux enjeux, des priorit\u00e9s, des strat\u00e9gies et des processus d\u00e9cisionnels du gouvernement f\u00e9d\u00e9ral et/ou du Minist\u00e8re qui influent sur le d\u00e9veloppement des entreprises et l\u2019\u00e9laboration de politiques et de programmes.</li>\n<li>Connaissance des m\u00e9thodes d\u2019analyse d\u2019un secteur ou d\u2019une industrie.</li>\n</ul>\n<div><strong><br>Comp\u00e9tences :</strong></div>\n<ul>\n<li>Raisonnement analytique</li>\n<li>Habilet\u00e9s de r\u00e9daction</li>\n<li>Communication interactive</li>\n<li>Capacit\u00e9 d\u2019adaptation</li>\n<li>Esprit d\u2019\u00e9quipe</li>\n<li>Esprit d\u2019initiative</li>\n</ul>\n<div><strong><br>Exigences linguistiques : </strong>Bilingue imp\u00e9ratif BBB/BBB</div>\n<div><strong><br>Qualifications constituant un atout :</strong></div>\n<ul>\n<li>Ma\u00eetrise d\u2019un \u00e9tablissement d\u2019enseignement postsecondaire reconnu avec sp\u00e9cialisation acceptable dans un domaine li\u00e9 aux fonctions du poste. Exp\u00e9rience dans l\u2019\u00e9valuation de programmes et de projets.</li>\n<li>Exp\u00e9rience dans la r\u00e9daction de documents servant \u00e0 la correspondance minist\u00e9rielle.</li>\n<li>Connaissance du secteur agricole et agroalimentaire.</li>\n<li>Connaissance des r\u00f4les et responsabilit\u00e9s des principaux partenaires de la cha\u00eene de valeur du secteur agricole et agroalimentaire.</li>\n</ul>\n<div><strong><br>Besoins de l'organisation :</strong></div>\n<div>Pour les besoins de la diversification de l\u2019effectif, une attention particuli\u00e8re pourrait \u00eatre accord\u00e9e aux candidats qui auront indiqu\u00e9 leur appartenance \u00e0 l\u2019un des groupes suivants, vis\u00e9s par l\u2019\u00e9quit\u00e9 en mati\u00e8re d\u2019emploi : Autochtones, personnes handicap\u00e9es, membres d\u2019une minorit\u00e9 visible, femmes.</div>\n<div><strong><br>Conditions d'emploi :</strong></div>\n<div>Exigences de s\u00e9curit\u00e9(s) : Cote de fiabilit\u00e9</div>\n<div><strong><br>Autres conditions d'emploi :</strong></div>\n<ul>\n<li>Consentir \u00e0 faire des heures suppl\u00e9mentaires ou \u00e0 travailler selon un horaire irr\u00e9gulier, et \u00eatre en mesure de le faire; et</li>\n<li>Consentir \u00e0 voyager, et \u00eatre en mesure de le faire.</li>\n</ul>\n<div><strong><br>Candidatures :</strong></div>\n<div>Les employ\u00e9s <em>d\u2019AAC</em> int\u00e9ress\u00e9s sont invit\u00e9s \u00e0 envoyer leur curriculum vitae et une lettre d\u2019accompagnement \u00e0 <em>Janet Steele \u00e0 janet.steele@canada.ca </em></div>\n<div>Dans votre lettre de pr\u00e9sentation, vous devez indiquer clairement votre dur\u00e9e d\u2019emploi (d\u00e9termin\u00e9e ou ind\u00e9termin\u00e9e), le groupe et le niveau de votre poste d\u2019attache et en quoi vous poss\u00e9dez les qualifications essentielles et r\u00e9pondez aux exigences.</div>\n<div><strong><br>Remarques :</strong></div>\n<ul>\n<li>Nous cherchons \u00e0 combler un poste de CO-02 \u00e0 Halifax pour une affection d\u2019une p\u00e9riode d\u2019un an avec la possibilit\u00e9 de prolongation.</li>\n<li>Les candidats pourront \u00eatre \u00e9valu\u00e9s au moyen d\u2019une entrevue et les r\u00e9f\u00e9rences des candidats pourraient faire l\u2019objet d\u2019une v\u00e9rification.</li>\n<li>La fonction publique du Canada s'est aussi engag\u00e9e \u00e0 instaurer des processus de s\u00e9lection et un milieu de travail inclusifs et exempts d'obstacles. Si l'on communique avec vous au sujet d'une possibilit\u00e9 d'emploi ou pour des examens, veuillez faire part au repr\u00e9sentant du minist\u00e8re, en temps opportun, de vos besoins pour lesquels des mesures d'adaptation doivent \u00eatre prises pour vous permettre une \u00e9valuation juste et \u00e9quitable.</li>\n<li>Les candidats doivent obtenir l\u2019approbation de leur gestionnaire avant de pr\u00e9senter leur candidature.</li>\n<li>Les communications relatives au processus de s\u00e9lection se feront par courriel.</li>\n<li>Un bassin de candidats qualifi\u00e9s peut \u00eatre \u00e9tabli pour des postes similaires au niveau CO-02 (ou \u00e9quivalent).</li>\n</ul>\n<div>\u00a0</div>\n\n"
    },
    "breadcrumb": {
        "en": "Senior Industry Development Officer Assignment Opportunity",
        "fr": "Avis de possibilit\u00e9 d\u2019affectation de Agent/e Principal de d\u00e9veloppement de l'industrie"
    },
    "empl": {
        "type": {
            "en": "Assignment",
            "fr": "Affectation"
        },
        "classification": {
            "en": "CO-2 and equivalent",
            "fr": "CO-2 et \u00e9quivalent"
        },
        "branch": {
            "en": "Market and Industry Services Branch",
            "fr": "Direction g\u00e9n\u00e9rale des services \u00e0 l'industrie et aux march\u00e9s"
        },
        "locations": {
            "en": "Halifax, Nova Scotia",
            "fr": "Halifax, Nouvelle-\u00c9cosse"
        },
        "date_closing": {
            "en": "2019-11-08",
            "fr": "2019-11-08"
        },
        "open_to": {
            "en": "All AAFC Employees at the C0-02, EC-05 and EC-06 group and level across Canada",
            "fr": "Tous les employ\u00e9s d\u2019AAC de groupe et niveau CO-02, EC-05 et EC-06 \u00e0 travers le Canada"
        },
        "name": {
            "en": "Janet Steele",
            "fr": "Janet Steele"
        },
        "email": {
            "en": "Janet.Steele@canada.ca",
            "fr": "Janet.Steele@canada.ca"
        }
    }
}