{
    "dcr_id": "1571159545842",
    "lang": "en",
    "title": {
        "en": "I'm Canada's Chief Agriculture Negotiator: Ask Me Anything - October 23",
        "fr": "\u00ab Je suis le n\u00e9gociateur en chef du Canada pour l'agriculture : Posez-moi une question \u00bb - 23 octobre"
    },
    "modified": "2019-10-17 00:00:00.0",
    "issued": "2019-10-17 00:00:00.0",
    "type_name": "intra-intra/news-nouv",
    "node_id": "1279030006975",
    "layout_name": null,
    "dc_date_created": "2019-10-16",
    "breadcrumb_label": "",
    "meta": {
        "issued": {
            "en": "2019-10-17",
            "fr": "2019-10-17"
        },
        "modified": {
            "en": "2019-10-17",
            "fr": "2019-10-17"
        },
        "format": {
            "en": "gcformat",
            "fr": "gcformat"
        },
        "title": {
            "en": "\"I'm Canada's Chief Agriculture Negotiator: Ask Me Anything\" - October 23",
            "fr": "\u00ab Je suis le n\u00e9gociateur en chef du Canada pour l'agriculture : Posez-moi une question \u00bb - 23 octobre"
        },
        "subject": {
            "en": "communications",
            "fr": "communications"
        },
        "description": {
            "en": "Most of us have eaten fruits, vegetables, or even snack foods that have been imported into Canada. However, only some of us are familiar with the rules and negotiations that happen to bring that food to our tables.",
            "fr": "Nous avons, pour la plupart, d\u00e9j\u00e0 consomm\u00e9 des fruits, des l\u00e9gumes ou m\u00eame des grignotines import\u00e9s au Canada. Toutefois, seulement quelques-uns d'entre nous connaissent bien les r\u00e8gles et les n\u00e9gociations n\u00e9cessaires pour mettre ces aliments \u00e0 la disposition des consommateurs."
        },
        "language": {
            "en": "eng",
            "fr": "fra"
        },
        "audience": {
            "en": "gcaudience",
            "fr": "gcaudience"
        },
        "creator": {
            "en": "Agriculture and Agri-Food Canada",
            "fr": "Agriculture et Agroalimentaire Canada"
        },
        "spatial": {
            "en": "gcregions",
            "fr": "gcregions"
        },
        "service": {
            "en": "AAFC_AgriSource",
            "fr": "AAC_AgriSource"
        },
        "accessRights": {
            "en": "3",
            "fr": "3"
        }
    },
    "body": {
        "en": "<br>\n<br>\n<p>Most of us have eaten fruits, vegetables, or even snack foods that have been imported into Canada. However, only some of us are familiar with the rules and negotiations that happen to bring that food to our tables.</p>\n<p>The Young Professionals Network and Student Panel of Representatives for Orientation, Unity, and Training\u00a0invite you to participate in a conversation with Aaron Fowler, Canada\u2019s Chief Agriculture Negotiator and Director General of AAFC\u2019s Trade Agreements and Negotiations Directorate. Join us as Mr. Fowler explains what goes on behind the scenes of trade negotiating, including:</p>\n<ul>\n<li>How discussions in the negotiating room help to shape free trade agreements</li>\n<li>The challenges and opportunities related to international trade of Canadian agricultural products</li>\n<li>How the Trade Agreements and Negotiations Directorate works to fulfill the Government of Canada\u2019s trade priorities</li>\n</ul>\n<p>This event is open to all AAFC employees, including students!</p>\n<h2><strong>Event information</strong></h2>\n<p><strong>Date and time:</strong> October 23 | 12:00 to 1:00 pm (ET)<br>\n<strong>Language: </strong>English<br>\n<strong>Location:</strong> NHCAP T5-3-251<br>\n<strong>Teleconference:</strong> 613-729-5408 or 1-855-470-7641; virtual meeting room number: 76137732934, PIN: 0008<br>\n<strong>Videoconference:</strong> 76137732934; PIN: 0008<br>\n<strong>Registration:</strong> Send an email to <a href=\"mailto:denis.begin2@canada.ca\">denis.begin2@canada.ca</a> by <strong>October 18</strong>. Please specify if you will be attending in person.</p>\n<p>Come prepared with your questions on agricultural trade and get engaged in the conversation!</p>\n<h2><strong>Speaker biography</strong></h2>\n<p>Prior to becoming Canada\u2019s Chief Agriculture Negotiator in August 2018, Mr. Fowler was the Executive Director of the Tariffs and Goods Market Access Division at Global Affairs Canada (GAC). Mr. Fowler has also worked as Deputy Chief Negotiator on the softwood lumber file with GAC and, from 2010 to 2014, was in Geneva as Canada\u2019s Lead Negotiator on the World Trade Organization agreement on trade facilitation.</p>\n\n\t\t",
        "fr": "<br>\n<br>\n<p>Nous avons, pour la plupart, d\u00e9j\u00e0 consomm\u00e9 des fruits, des l\u00e9gumes ou m\u00eame des grignotines import\u00e9s au Canada. Toutefois, seulement quelques-uns d\u2019entre nous connaissent bien les r\u00e8gles et les n\u00e9gociations n\u00e9cessaires pour mettre ces aliments \u00e0 la disposition des consommateurs.</p>\n<p>Le R\u00e9seau des jeunes professionnels et Programme de l\u2019orientation, de l\u2019unit\u00e9 et de la sensibilisation des stagiaires et \u00e9tudiants vous invite \u00e0 prendre part \u00e0 une conversation avec Aaron Fowler, n\u00e9gociateur en chef du Canada pour l\u2019agriculture et directeur g\u00e9n\u00e9ral de la Direction des accords commerciaux et des n\u00e9gociations d\u2019AAC. Venez \u00e9couter les propos de M. Fowler qui expliquera les coulisses des n\u00e9gociations commerciales, notamment :</p>\n<ul>\n<li>Comment les discussions des n\u00e9gociateurs aident \u00e0 fa\u00e7onner les accords de libre\u2011\u00e9change.</li>\n<li>Les d\u00e9fis et les d\u00e9bouch\u00e9s li\u00e9s au commerce international des produits agricoles canadiens.</li>\n<li>Les travaux de la Direction des accords commerciaux et des n\u00e9gociations afin de r\u00e9aliser les grandes priorit\u00e9s commerciales du gouvernement du Canada.</li>\n</ul>\n<p>Tous les employ\u00e9s d\u2019AAC, y compris les \u00e9tudiants, sont invit\u00e9s \u00e0 participer \u00e0 cette discussion!</p>\n<h2><strong>Renseignements sur l\u2019\u00e9v\u00e9nement</strong></h2>\n<p><strong>Date et heure :</strong> 23 octobre | 12 h \u00e0 13 h (HE)<br><strong>Langue :</strong> Anglais<br><strong>Lieu :</strong> CACPA, T5-3-251<br><strong>T\u00e9l\u00e9conf\u00e9rence :</strong> 613-729-5408 ou 1-855-470-7641, num\u00e9ro de la salle de r\u00e9union virtuelle : 76137732934, NIP : 0008<br><strong>Vid\u00e9oconf\u00e9rence :</strong> 76137732934, NIP : 0008<br><strong>Inscription :</strong> Envoyez un courriel \u00e0 <a href=\"mailto:denis.begin2@canada.ca\">denis.begin2@canada.ca</a> d\u2019ici le <strong>18 octobre</strong> et pr\u00e9cisez si vous participerez en personne.</p>\n<p>Pr\u00e9parez vos questions sur le commerce agricole \u00e0 l\u2019avance et venez prendre part \u00e0 la conversation!</p>\n<h2><strong>Notice biographique du conf\u00e9rencier</strong></h2>\n<p>Avant de devenir n\u00e9gociateur en chef du Canada pour l\u2019agriculture en ao\u00fbt 2018, Aaron Fowler a occup\u00e9 le poste de directeur ex\u00e9cutif de la Direction des droits de douane et de l\u2019acc\u00e8s aux march\u00e9s des marchandises \u00e0 Affaires mondiales Canada (AMC). M. Fowler a aussi exerc\u00e9 les fonctions de n\u00e9gociateur en chef adjoint dans le dossier du bois d\u2019\u0153uvre \u00e0 AMC. De 2010 \u00e0 2014, il a travaill\u00e9 \u00e0 Gen\u00e8ve comme n\u00e9gociateur principal du Canada dans le cadre de l\u2019Accord sur la facilitation des \u00e9changes de l\u2019Organisation mondiale du commerce.</p>\n\t\t"
    },
    "breadcrumb": {
        "en": "\"I'm Canada's Chief Agriculture Negotiator: Ask Me Anything\" - October 23",
        "fr": "\u00ab Je suis le n\u00e9gociateur en chef du Canada pour l'agriculture : Posez-moi une question \u00bb - 23..."
    },
    "news": {
        "date_posted": {
            "en": "2019-10-17",
            "fr": "2019-10-17"
        },
        "to": {
            "en": "All staff",
            "fr": "Tous les employ\u00e9s"
        },
        "by": {
            "en": "Young Professionals Network and Student Panel of Representatives for Orientation, Unity, and Training",
            "fr": "R\u00e9seau des jeunes professionnels et Programme de l\u2019orientation, de l\u2019unit\u00e9 et de la sensibilisation des stagiaires et \u00e9tudiants"
        }
    }
}