{
    "dcr_id": "1571837846642",
    "lang": "en",
    "title": {
        "en": "North American Platform Program - Professional Development Assignment: Mexico City",
        "fr": "Affectation de perfectionnement professionnel dans le cadre du Programme de la plateforme nord-am\u00e9ricaine : Mexico"
    },
    "modified": "2019-10-24 00:00:00.0",
    "issued": "2019-10-24 00:00:00.0",
    "type_name": "intra-intra/news-nouv",
    "node_id": "1279030006975",
    "layout_name": null,
    "dc_date_created": "2019-10-23",
    "breadcrumb_label": "",
    "meta": {
        "issued": {
            "en": "2019-10-24",
            "fr": "2019-10-24"
        },
        "modified": {
            "en": "2019-10-24",
            "fr": "2019-10-24"
        },
        "format": {
            "en": "gcformat",
            "fr": "gcformat"
        },
        "title": {
            "en": "North American Platform Program - Professional Development Assignment: Mexico City",
            "fr": "Affectation de perfectionnement professionnel dans le cadre du Programme de la plateforme nord-am\u00e9ricaine : Mexico"
        },
        "subject": {
            "en": "communications",
            "fr": "communications"
        },
        "description": {
            "en": "The Americas Division of the Market Access Secretariat is seeking applications from employees of Agriculture and Agri-Food Canada interested in the following potential professional development opportunity.",
            "fr": "La Division des Am\u00e9riques du Secr\u00e9tariat de l'acc\u00e8s aux march\u00e9s sollicite la candidature d'employ\u00e9s d'Agriculture et Agroalimentaire Canada int\u00e9ress\u00e9s par l'affectation de perfectionnement professionnel suivante."
        },
        "language": {
            "en": "eng",
            "fr": "fra"
        },
        "audience": {
            "en": "gcaudience",
            "fr": "gcaudience"
        },
        "creator": {
            "en": "Agriculture and Agri-Food Canada",
            "fr": "Agriculture et Agroalimentaire Canada"
        },
        "spatial": {
            "en": "gcregions",
            "fr": "gcregions"
        },
        "service": {
            "en": "AAFC_AgriSource",
            "fr": "AAC_AgriSource"
        },
        "accessRights": {
            "en": "3",
            "fr": "3"
        }
    },
    "body": {
        "en": "<br>\n<br>\n<p>The Americas Division of the Market Access Secretariat is seeking applications from employees of Agriculture and Agri-Food Canada interested in the following potential professional development opportunity:</p>\n<p><strong>Canadian Embassy in Mexico \u2013 Mexico City, Mexico </strong></p>\n<p>Dates: March 9 \u2013 April 4, 2020*</p>\n<p>*The successful candidate will also be required to work approximately one day a week from their home division from early January 2020 until their departure to Mexico in March 2020. </p>\n<p>Working within the agriculture section at the Canadian Embassy in Mexico, the professional development (PD) candidate will assist with the planning and implementation activities at Expo ANTAD &amp; Alimentaria, the largest tradeshow in Mexico dedicated to the retail sector and one of the premier food and beverage exhibitions in the country.</p>\n<p>The Canadian Embassy in Mexico will be working with a local contractor to design and build the Canada Pavilion at Expo ANTAD &amp; Alimentaria. The Embassy will also be organizing a matchmaking program and various networking activities.</p>\n<p>The successful PD candidate will be responsible for assisting in this work. Examples of specific tasks the successful PD candidate will be responsible for include the following:</p>\n<ul>\n<li>Coordinating with Expo ANTAD &amp; Alimentaria organizers Canada\u2019s presence at this event (including the registration of the Canadian delegation)</li>\n<li>Liaising with local service providers</li>\n<li>Finalizing pavilion design with winning bidder</li>\n<li>Supervising the work of the consultant hired to conduct B2Bs (including preparation)</li>\n<li>Supporting efforts to plan programs for companies (including site visits), and</li>\n<li>Developing a social media plan to promote Canada\u2019s presence at Expo ANTAD &amp; Alimentaria</li>\n</ul>\n<p><strong>Submission deadline: November 8, 2019</strong></p>\n<p>Employees may submit their name and r\u00e9sum\u00e9 to Sara Browne at <a href=\"mailto:sara.browne@canada.ca\">sara.browne@canada.ca</a> along with the following information:</p>\n<ul>\n<li>current position, level and status</li>\n<li>ability to speak, read and/or understand Spanish</li>\n<li>diplomatic passport or special passport (yes/no)</li>\n<li>confirmation of manager's approval</li>\n</ul>\n<p>The PD candidate will be selected on the basis of their overall experience and competencies relevant to this temporary duty opportunity. Selection will be based on provided resume and cover letter. However, an informal interview may be required.</p>\n<p><strong>Please note: </strong>There is no specific classification or level for this position and all applications will be considered. The selected candidate's salary will continue to be paid by their current division at their current level for the duration of the temporary duty assignment. Candidates must have secured the approval of their manager prior to submitting their application.</p>\n\n\t\t",
        "fr": "<br>\n<br>\n<p>La Division des Am\u00e9riques du Secr\u00e9tariat de l\u2019acc\u00e8s aux march\u00e9s sollicite la candidature d\u2019employ\u00e9s d\u2019Agriculture et Agroalimentaire Canada (AAC) int\u00e9ress\u00e9s par l\u2019affectation de perfectionnement professionnel suivante :<br>\n<br>\n<strong>Ambassade canadienne au Mexique \u2013 Mexico (Mexique)</strong></p>\n<p>Dates : Du 9 mars au 4 avril 2020*</p>\n<p>*Le candidat retenu sera \u00e9galement appel\u00e9 \u00e0 travailler environ une journ\u00e9e par semaine dans sa division d\u2019attache \u00e0 compter du d\u00e9but de janvier 2020 jusqu\u2019\u00e0 son d\u00e9part pour le Mexique en mars 2020.</p>\n<p>Au sein de la Section de l\u2019agriculture de l\u2019ambassade canadienne au Mexique, le candidat retenu pour l\u2019affectation de perfectionnement professionnel (PP) aidera \u00e0 la planification et \u00e0 la mise en oeuvre des activit\u00e9s \u00e0 l\u2019Expo ANTAD &amp; Alimentaria, le plus grand salon professionnel du secteur de la vente au d\u00e9tail au Mexique et une des plus importantes expositions mexicaines d\u2019aliments et de boissons.</p>\n<p>L\u2019ambassade canadienne au Mexique travaillera avec un entrepreneur local pour concevoir et construire le pavillon du Canada \u00e0 l\u2019Expo ANTAD &amp; Alimentaria. En outre, l\u2019ambassade organisera un programme de jumelage et diverses activit\u00e9s de r\u00e9seautage.</p>\n<p>Le candidat retenu pour l\u2019affectation de PP sera charg\u00e9 d\u2019aider \u00e0 l\u2019ex\u00e9cution de ces travaux. Il aura notamment les responsabilit\u00e9s suivantes :</p>\n<ul>\n<li>Coordonner la pr\u00e9sence du Canada \u00e0 l\u2019Expo ANTAD &amp; Alimentaria (y compris l\u2019inscription de la d\u00e9l\u00e9gation canadienne) avec les organisateurs de l\u2019\u00e9v\u00e9nement.</li>\n<li>Assurer la liaison avec les fournisseurs de services locaux.</li>\n<li>Mettre la touche finale \u00e0 la conception du pavillon avec le soumissionnaire retenu.</li>\n<li>Superviser le travail du consultant embauch\u00e9 pour organiser des rencontres interentreprises (y compris la pr\u00e9paration).</li>\n<li>Appuyer la planification de programmes pour les entreprises (y compris les visites d\u2019\u00e9tablissements).</li>\n<li>Pr\u00e9parer un plan pour les m\u00e9dias sociaux afin de promouvoir la pr\u00e9sence du Canada \u00e0 l\u2019Expo ANTAD &amp; Alimentaria.</li>\n</ul>\n<p><strong>La date limite pour poser sa candidature est le\u00a08 novembre 2019.</strong></p>\n<p>Les employ\u00e9s qui souhaitent poser leur candidature peuvent envoyer leur curriculum vitae \u00e0 Sara Browne (<a href=\"mailto:sara.browne@canada.ca\">sara.browne@canada.ca</a>) en prenant soin de fournir les renseignements suivants :</p>\n<ul>\n<li>poste actuel, niveau et situation du poste;</li>\n<li>capacit\u00e9 de parler, de lire ou de comprendre l\u2019espagnol;</li>\n<li>possession d\u2019un passeport diplomatique ou d\u2019un passeport sp\u00e9cial (oui/non);</li>\n<li>confirmation de l\u2019approbation du gestionnaire.</li>\n</ul>\n<p>Le candidat pour l\u2019affectation de PP sera choisi en fonction de son exp\u00e9rience globale et de ses comp\u00e9tences pertinentes pour cette affectation temporaire. La s\u00e9lection sera fond\u00e9e sur le curriculum vitae et la lettre de pr\u00e9sentation fournis. Toutefois, une entrevue informelle pourrait \u00eatre n\u00e9cessaire.</p>\n<p><strong>Nota : </strong>On n'exige aucune classification ni niveau particulier pour ce poste. Toutes les demandes de candidature seront accept\u00e9es. Le salaire du candidat retenu continuera d\u2019\u00eatre vers\u00e9 par sa division actuelle, au niveau actuel, pendant toute la dur\u00e9e de l'affectation temporaire. Les candidats devront avoir obtenu l'approbation de leur gestionnaire avant de pr\u00e9senter leur demande.</p>\n\t\t"
    },
    "breadcrumb": {
        "en": "North American Platform Program - Professional Development Assignment: Mexico City",
        "fr": "Affectation de perfectionnement professionnel dans le cadre du Programme de la plateforme nord-am\u00e9ricaine : Mexico"
    },
    "news": {
        "date_posted": {
            "en": "2019-10-24",
            "fr": "2019-10-24"
        },
        "to": {
            "en": "All staff",
            "fr": "Tous les employ\u00e9s"
        },
        "by": {
            "en": "Market Access Secretariat",
            "fr": "Secr\u00e9tariat \u00e0 l'acc\u00e8s aux march\u00e9s"
        }
    }
}