{
    "dcr_id": "1572986885498",
    "lang": "en",
    "title": {
        "en": "From Purge to Pride: LGBTQ2+ in the Federal Public Service - November 18",
        "fr": "De la purge \u00e0 la fiert\u00e9 : les personnes LGBTQ2+ dans la fonction publique f\u00e9d\u00e9rale - 18 novembre"
    },
    "modified": "2019-11-07 00:00:00.0",
    "issued": "2019-11-07 00:00:00.0",
    "type_name": "intra-intra/news-nouv",
    "node_id": "1279030006975",
    "layout_name": null,
    "dc_date_created": "2019-11-05",
    "breadcrumb_label": "",
    "meta": {
        "issued": {
            "en": "2019-11-07",
            "fr": "2019-11-07"
        },
        "modified": {
            "en": "2019-11-07",
            "fr": "2019-11-07"
        },
        "format": {
            "en": "gcformat",
            "fr": "gcformat"
        },
        "title": {
            "en": "From Purge to Pride: LGBTQ2+ in the Federal Public Service - November 18",
            "fr": "De la purge \u00e0 la fiert\u00e9 : les personnes LGBTQ2+ dans la fonction publique f\u00e9d\u00e9rale - 18 novembre"
        },
        "subject": {
            "en": "communications",
            "fr": "communications"
        },
        "description": {
            "en": "The Canada School of Public Service and Health Canada invite you to participate in an interactive and stimulating event on the history and future of Lesbian, Gay, Bisexual, Trans, Queer, Two-spirited, Plus (LGBTQ2+) inclusion in the federal public service.",
            "fr": "L'\u00c9cole de la fonction publique du Canada et Sant\u00e9 Canada vous invitent \u00e0 participer \u00e0 un \u00e9v\u00e9nement interactif et stimulant sur l'histoire et l'avenir des membres de la communaut\u00e9 lesbienne, gai, bisexuel, transgenre, queer, bispirituelle (LGBTQ2+), du point de vue de leur inclusion dans la fonction publique f\u00e9d\u00e9rale."
        },
        "language": {
            "en": "eng",
            "fr": "fra"
        },
        "audience": {
            "en": "gcaudience",
            "fr": "gcaudience"
        },
        "creator": {
            "en": "Agriculture and Agri-Food Canada",
            "fr": "Agriculture et Agroalimentaire Canada"
        },
        "spatial": {
            "en": "gcregions",
            "fr": "gcregions"
        },
        "service": {
            "en": "AAFC_AgriSource",
            "fr": "AAC_AgriSource"
        },
        "accessRights": {
            "en": "3",
            "fr": "3"
        }
    },
    "body": {
        "en": "<br>\n<br>\n<p>The Canada School of Public Service and Health Canada invite you to participate in an interactive and stimulating event on the history and future of Lesbian, Gay, Bisexual, Trans, Queer, Two-spirited, Plus (LGBTQ2+) inclusion in the federal public service.</p>\n<p>The session includes a viewing of the critically acclaimed Canadian documentary, <i>The Fruit Machine</i>, followed by a discussion with three compelling panelists:</p>\n<ul>\n<li>Sarah Fodey, Filmmaker</li>\n<li>Michelle Douglas, Executive Director, LGBT Purge Fund</li>\n<li>Peter Linkletter, Federal Public Service Executive Champion for the Positive Space Initiative</li>\n</ul>\n<p>The event provides an opportunity to gain insight and knowledge about the LGBT purge, a difficult chapter in Canada's history \u2014 when the Government of Canada viewed homosexuality as grounds for surveillance and interrogation, and federal employees and members of the Canadian Armed Forces were investigated.</p>\n<h2><strong>Event information</strong></h2>\n<p><strong>Date and time:</strong> November 18 | 1:00 to 3:30 pm (ET)<br>\n<strong>Language:</strong> Bilingual with interpretation in both official languages<br>\n<strong>Registration:</strong> In-person or webcast participation. Register with the <a href=\"https://www.csps-efpc.gc.ca/events/lgbtq2_fps/index-eng.aspx\">Canada School of Public Service</a>.</p>\n\n\t\t",
        "fr": "<br>\n<br>\n<p>L'\u00c9cole de la fonction publique du Canada et Sant\u00e9 Canada vous invitent \u00e0 participer \u00e0 un \u00e9v\u00e9nement interactif et stimulant sur l'histoire et l'avenir des membres de la communaut\u00e9 lesbienne, gai, bisexuel, transgenre, queer, bispirituelle (LGBTQ2+), du point de vue de leur inclusion dans la fonction publique f\u00e9d\u00e9rale.</p>\n<p>Le documentaire canadien <i>The Fruit Machine</i> [en anglais seulement] sera pr\u00e9sent\u00e9, et sera suivi d'une discussion en groupe avec 3 pan\u00e9listes inspirants :</p>\n<ul>\n<li>Sarah Fodey, r\u00e9alisatrice;</li>\n<li>Michelle Douglas, directrice ex\u00e9cutive, fonds Purge LGBT;</li>\n<li>Peter Linkletter, champion ex\u00e9cutif, initiative f\u00e9d\u00e9rale Espace positif.</li>\n</ul>\n<p>Cet \u00e9v\u00e9nement est l'occasion de mieux conna\u00eetre en quoi a consist\u00e9 la purge LGBT, ce chapitre difficile de l'histoire canadienne, lors duquel le gouvernement du Canada consid\u00e9rait l'homosexualit\u00e9 comme \u00e9tant un motif de surveillance et d'interrogations, et les employ\u00e9s f\u00e9d\u00e9raux et les membres des Forces arm\u00e9es canadiennes faisaient l'objet d'enqu\u00eates.</p>\n<h2><strong>Information sur l'\u00e9v\u00e9nement</strong></h2>\n<p><strong>Date et heure :</strong> Le 18 novembre | de 13 h \u00e0 15 h 30 (HE)<br>\n<strong>Langue :</strong> Bilingue avec interpr\u00e9tation en langues officielles<br>\n<strong>Inscription : </strong>Participation en personne ou par webdiffusion. Inscrivez-vous aupr\u00e8s de l\u2019<a href=\"https://www.csps-efpc.gc.ca/events/lgbtq2_fps/index-fra.aspx\">\u00c9cole de la fonction publique du Canada</a>.</p>\n\t\t"
    },
    "breadcrumb": {
        "en": "From Purge to Pride: LGBTQ2+ in the Federal Public Service - November 18",
        "fr": "De la purge \u00e0 la fiert\u00e9 : les personnes LGBTQ2+ dans la fonction publique f\u00e9d\u00e9rale - 18 novembre"
    },
    "news": {
        "date_posted": {
            "en": "2019-11-07",
            "fr": "2019-11-07"
        },
        "to": {
            "en": "All staff",
            "fr": "Tous les employ\u00e9s"
        },
        "by": {
            "en": "Canada School of Public Service",
            "fr": "\u00c9cole de la fonction publique du Canada"
        }
    }
}