{
    "dcr_id": "1572876460483",
    "lang": "en",
    "title": {
        "en": "Travel Requests and Expense Reports: Getting Reimbursed Without Fuss",
        "fr": "Demandes de voyage et notes de frais : Obtenez un remboursement sans tracas "
    },
    "modified": "2019-11-07 00:00:00.0",
    "issued": "2019-11-07 00:00:00.0",
    "type_name": "intra-intra/news-nouv",
    "node_id": "1279030006975",
    "layout_name": null,
    "dc_date_created": "2019-11-04",
    "breadcrumb_label": "",
    "meta": {
        "issued": {
            "en": "2019-11-07",
            "fr": "2019-11-07"
        },
        "modified": {
            "en": "2019-11-07",
            "fr": "2019-11-07"
        },
        "format": {
            "en": "gcformat",
            "fr": "gcformat"
        },
        "title": {
            "en": "Travel Requests and Expense Reports: Getting Reimbursed Without Fuss",
            "fr": "Demandes de voyage et notes de frais : Obtenez un remboursement sans tracas "
        },
        "subject": {
            "en": "communications",
            "fr": "communications"
        },
        "description": {
            "en": "Are you planning to travel for government business? Remember to include your vendor code on your travel requests and expense reports to ensure you\u2019re reimbursed quickly.",
            "fr": "Pr\u00e9voyez-vous faire un voyage en service command\u00e9? N'oubliez pas d'indiquer votre num\u00e9ro de fournisseur sur la demande de voyage et la note de frais afin d'assurer le traitement rapide de votre remboursement."
        },
        "language": {
            "en": "eng",
            "fr": "fra"
        },
        "audience": {
            "en": "gcaudience",
            "fr": "gcaudience"
        },
        "creator": {
            "en": "Agriculture and Agri-Food Canada",
            "fr": "Agriculture et Agroalimentaire Canada"
        },
        "spatial": {
            "en": "gcregions",
            "fr": "gcregions"
        },
        "service": {
            "en": "AAFC_AgriSource",
            "fr": "AAC_AgriSource"
        },
        "accessRights": {
            "en": "3",
            "fr": "3"
        }
    },
    "body": {
        "en": "<br>\n<br>\n<p>Are you planning to travel for government business? Remember to include your vendor code on your travel requests and expense reports to ensure you\u2019re reimbursed quickly.</p>\n<p>Your unique vendor code is issued when you enroll for direct deposit and is used to reimburse you for your travel expenses. When you include the code on your requests and reports, you will receive payments in your bank account within three to five business days after they have been released by Public Works and Government Services.</p>\n<p>Make sure your vendor code is on your traveller profile in the <a href=\"https://isuite6.hrgworldwide.com/gcportal/STS/tabid/291/language/en-CA/Default.aspx?returnurl=%2fgcportal%2fen-CA%2fhome.aspx\">Shared Travel Services (STS) Portal</a> before submitting any travel requests or expense reports. This will ease the process of extracting the information from the STS Portal and transferring it to the financial system (i.e., SAP).</p>\n<p><strong>Don\u2019t have a vendor code?</strong> Complete the <a href=\"https://forms-formulaires.agr.gc.ca/pdf/A6165-E.pdf\">recipient registration and direct deposit request form (AAFC6165)</a>\u00a0(PDF) and send it to <a href=\"mailto:aafc.vendorrequest-demandefournisseur.aac@canada.ca\">aafc.vendorrequest-demandefournisseur.aac@canada.ca</a>. The information provided on this form will be used to create your vendor code.</p>\n<p>For more information on government business travel, visit the <a href=\"http://intranet.agr.gc.ca/agrisource/eng/branches-and-offices/corporate-management-branch/services/travel?id=1314719697163\">Travel AgriSource page</a>.</p>\n<p>\u00a0</p>\n\n\t\t",
        "fr": "<br>\n<br>\n<p>Pr\u00e9voyez-vous faire un voyage en service command\u00e9? N\u2019oubliez pas d\u2019indiquer votre num\u00e9ro de fournisseur sur la demande de voyage et la note de frais afin d\u2019assurer le traitement rapide de votre remboursement.</p>\n<p>Votre num\u00e9ro de fournisseur unique est attribu\u00e9 lorsque vous vous inscrivez au d\u00e9p\u00f4t direct et il sert au remboursement des frais de voyage. Si votre num\u00e9ro figure sur la demande de voyage et la note de frais, votre remboursement sera d\u00e9pos\u00e9 dans votre compte bancaire dans les trois \u00e0 cinq jours ouvrables suivant l\u2019approbation par Services publics et Approvisionnement Canada.</p>\n<p>Assurez-vous que votre num\u00e9ro de fournisseur figure dans votre profil de voyageur dans le <a href=\"https://isuite6.hrgworldwide.com/gcportal/STS/tabid/291/language/en-CA/Default.aspx?returnurl=%2fgcportal%2fen-CA%2fhome.aspx\">Portail des Services de voyage partag\u00e9s (SVP)</a> avant de pr\u00e9senter une demande de voyage ou une note de frais. Cela facilitera le transfert de l\u2019information du Portail des SVP au syst\u00e8me financier (c.-\u00e0-d. SAP).</p>\n<p><strong>Vous n\u2019avez pas de num\u00e9ro de fournisseur?</strong> Remplissez le formulaire <a href=\"https://forms-formulaires.agr.gc.ca/pdf/A6165-F.pdf\">Adh\u00e9sion du b\u00e9n\u00e9ficiaire et demande de paiement \u00e9lectronique (AAC 6165)</a>\u00a0(PDF) et envoyez-le \u00e0 l\u2019adresse <a href=\"mailto:aafc.vendorrequest-demandefournisseur.aac@canada.ca\">aafc.vendorrequest-demandefournisseur.aac@canada.ca</a>. Les renseignements fournis dans le formulaire serviront \u00e0 cr\u00e9er votre num\u00e9ro de fournisseur.</p>\n<p>Pour obtenir de plus amples renseignements sur les voyages en service command\u00e9, consultez la <a href=\"http://intranet.agr.gc.ca/agrisource/fra/directions-generales-et-bureaux/direction-generale-de-la-gestion-integree/services/voyages?id=1314719697163\">page sur les voyages dans AgriSource</a>.</p>\n<p>\u00a0</p>\n\t\t"
    },
    "breadcrumb": {
        "en": "Travel Requests and Expense Reports: Getting Reimbursed Without Fuss",
        "fr": "Demandes de voyage et notes de frais : Obtenez un remboursement sans tracas"
    },
    "news": {
        "date_posted": {
            "en": "2019-11-07",
            "fr": "2019-11-07"
        },
        "to": {
            "en": "All staff",
            "fr": "Tous les employ\u00e9s"
        },
        "by": {
            "en": "Finance and Resource Management Services, Corporate Management Branch",
            "fr": "Services des finances et de la gestion des ressources, Direction g\u00e9n\u00e9rale de la gestion int\u00e9gr\u00e9e"
        }
    }
}