{
    "dcr_id": "1572878925644",
    "lang": "en",
    "title": {
        "en": "Scheduled Maintenance of ISB Services - November 7-9",
        "fr": "Entretien pr\u00e9vu des services de la DGSI - 7 et 9 novembre"
    },
    "modified": "2019-11-04 00:00:00.0",
    "issued": "2019-11-04 00:00:00.0",
    "type_name": "intra-intra/news-nouv",
    "node_id": "1279030006975",
    "layout_name": null,
    "dc_date_created": "2019-11-04",
    "breadcrumb_label": "",
    "meta": {
        "issued": {
            "en": "2019-11-04",
            "fr": "2019-11-04"
        },
        "modified": {
            "en": "2019-11-04",
            "fr": "2019-11-04"
        },
        "format": {
            "en": "gcformat",
            "fr": "gcformat"
        },
        "title": {
            "en": "Scheduled Maintenance of ISB Services - November 7-9",
            "fr": "Entretien pr\u00e9vu des services de la DGSI - 7 et 9 novembre"
        },
        "subject": {
            "en": "communications",
            "fr": "communications"
        },
        "description": {
            "en": "Please be advised that preventative maintenance of ISB services will be performed between Thursday, November 7 and Saturday, November 9, 2019.",
            "fr": "Veuillez noter qu'un entretien pr\u00e9ventif des services de la DGSI sera effectu\u00e9 entre le jeudi 7 novembre et le samedi 9 novembre 2019."
        },
        "language": {
            "en": "eng",
            "fr": "fra"
        },
        "audience": {
            "en": "gcaudience",
            "fr": "gcaudience"
        },
        "creator": {
            "en": "Agriculture and Agri-Food Canada",
            "fr": "Agriculture et Agroalimentaire Canada"
        },
        "spatial": {
            "en": "gcregions",
            "fr": "gcregions"
        },
        "service": {
            "en": "AAFC_AgriSource",
            "fr": "AAC_AgriSource"
        },
        "accessRights": {
            "en": "3",
            "fr": "3"
        }
    },
    "body": {
        "en": "<br>\n<br>\n<p>Please be advised that preventative maintenance of ISB services will be performed between Thursday, November 7 and Saturday, November 9, 2019.</p>\n<p>The following downtime is part of a management plan to upgrade our infrastructure systems. These measures are performed regularly to improve performance and to ensure that the department does not experience any outages that would affect employees and the delivery of our services.</p>\n<p>Consequently, the following services may not be available during the following time:</p>\n<p><strong>Thursday, </strong><strong>November 7 \u2013 1:00 a.m. until 6:00 a.m. (ET)</strong></p>\n<ul>\n<li>AgriApps</li>\n</ul>\n<p><strong>Saturday, </strong><strong>November 9 \u2013 1:00 a.m. until 6:00 a.m. (ET)</strong></p>\n<ul>\n<li>Skype for Business</li>\n</ul>\n<p>Should you have any questions or concerns, please do not hesitate to contact IT Centre TI.</p>\n<p>\u00a0</p>\n<p><strong>IT Centre TI<br></strong>Telephone: 1-855-545-4411<br><a href=\"http://myitcentreti-monitcentreti/\">My IT Centre TI</a></p>\n<p><img src=\"https://intranet.agr.gc.ca/resources/prod/news/images/ITCentreTI2.png\" class=\"center-block\">\u00a0</p>\n\n\t\t",
        "fr": "<br>\n<br>\n<p>Veuillez noter qu\u2019un entretien pr\u00e9ventif des services de la DGSI sera effectu\u00e9 entre le jeudi 7 novembre et le samedi 9 novembre 2019.</p>\n<p>Les interruptions suivantes sont pr\u00e9vues dans le cadre d\u2019un plan de gestion visant la mise \u00e0 niveau de nos syst\u00e8mes d\u2019infrastructure. Ces mesures sont prises r\u00e9guli\u00e8rement afin d\u2019am\u00e9liorer le rendement et d\u2019\u00e9viter que le Minist\u00e8re subisse des pannes qui pourraient nuire aux employ\u00e9s et \u00e0 la prestation de nos services.</p>\n<p>Par cons\u00e9quent, les services suivants pourraient ne pas \u00eatre disponibles pendant les p\u00e9riodes suivantes :</p>\n<p><strong>Le jeudi 7 novembre, de 1 h \u00e0 6</strong> <strong>h (HE)</strong></p>\n<ul>\n<li>AgriApps</li>\n</ul>\n<p><strong>Le samedi 9 novembre, de 1 h \u00e0 6 h (HE)</strong></p>\n<ul>\n<li>Skype Entreprise</li>\n</ul>\n<p>Si vous avez des questions ou des pr\u00e9occupations \u00e0 ce sujet, n\u2019h\u00e9sitez pas \u00e0 communiquer avec le IT Centre TI.</p>\n<p>\u00a0</p>\n<p><strong>IT Centre TI<br></strong>T\u00e9l\u00e9phone : 1 855-545-4411<br><a href=\"http://myitcentreti-monitcentreti/\">Mon IT Centre TI</a></p>\n<p><img src=\"https://intranet.agr.gc.ca/resources/prod/news/images/ITCentreTI2.png\" class=\"center-block\"></p>\n<p>\u00a0</p>\n\t\t"
    },
    "breadcrumb": {
        "en": "Scheduled Maintenance of ISB Services - November 7-9",
        "fr": "Entretien pr\u00e9vu des services de la DGSI - 7 et 9 novembre"
    },
    "news": {
        "date_posted": {
            "en": "2019-11-05",
            "fr": "2019-11-05"
        },
        "to": {
            "en": "All staff",
            "fr": "Tous les employ\u00e9s"
        },
        "by": {
            "en": "IT Centre TI",
            "fr": "IT Centre TI"
        }
    }
}