{
    "dcr_id": "1572365908848",
    "lang": "en",
    "title": {
        "en": "This Week in <em>The Harvest</em> - An AAFC Team Receives the Excellence and Leadership in Official Languages Award",
        "fr": "Au menu de <em>La Moisson</em> cette semaine - Une \u00e9quipe d'AAC re\u00e7oit le Prix d'excellence et de leadership en langues officielles"
    },
    "modified": "2019-10-31 00:00:00.0",
    "issued": "2019-10-31 00:00:00.0",
    "type_name": "intra-intra/news-nouv",
    "node_id": "1279030006975",
    "layout_name": null,
    "dc_date_created": "2019-10-29",
    "breadcrumb_label": "This Week in The Harvest - An AAFC Team Receives the Excellence and Leadership in Official...",
    "meta": {
        "issued": {
            "en": "2019-10-31",
            "fr": "2019-10-31"
        },
        "modified": {
            "en": "2019-10-31",
            "fr": "2019-10-31"
        },
        "format": {
            "en": "gcformat",
            "fr": "gcformat"
        },
        "title": {
            "en": "This Week in <em>The Harvest</em> - An AAFC Team Receives the Excellence and Leadership in Official Languages Award",
            "fr": "Au menu de <em>La Moisson</em> cette semaine - Une \u00e9quipe d'AAC re\u00e7oit le Prix d'excellence et de leadership en langues officielles"
        },
        "subject": {
            "en": "communications",
            "fr": "communications"
        },
        "description": {
            "en": "In case you missed it, here's what's new in <em>The Harvest</em> this week.",
            "fr": "Au cas o\u00f9 vous l'auriez manqu\u00e9, voici le menu que la section <em>La Moisson</em> vous offre cette semaine."
        },
        "language": {
            "en": "eng",
            "fr": "fra"
        },
        "audience": {
            "en": "gcaudience",
            "fr": "gcaudience"
        },
        "creator": {
            "en": "Agriculture and Agri-Food Canada",
            "fr": "Agriculture et Agroalimentaire Canada"
        },
        "spatial": {
            "en": "gcregions",
            "fr": "gcregions"
        },
        "service": {
            "en": "AAFC_AgriSource",
            "fr": "AAC_AgriSource"
        },
        "accessRights": {
            "en": "3",
            "fr": "3"
        }
    },
    "body": {
        "en": "<br>\n<br>\n<p>In case you missed it, here\u2019s what\u2019s new in <a href=\"https://collab.agr.gc.ca/apps/harvest-moisson\"><em>The Harvest</em></a> this week:</p>\n<p><strong>Feature story:</strong> <a href=\"https://collab.agr.gc.ca/apps/harvest-moisson/\">An AAFC Team Receives the Excellence and Leadership in Official Languages Award</a> - \u200bOn September 12, 2019, as part of Linguistic Duality Day, the Excellence and Leadership in Official Languages Award was awarded to public servants from 28 federal institutions who have proven to be true ambassadors for official languages. The Part VII Working Group of AAFC\u2019s Programs Branch was among the winners, recognized for its exceptional commitment to official language minority communities (OLMCs).</p>\n<p><strong>Poll: </strong><a href=\"https://collab.agr.gc.ca/apps/harvest-moisson/\">Are you a pumpkin carver?</a></p>\n<p><strong>Feature photo: </strong><a href=\"https://collab.agr.gc.ca/apps/harvest-moisson/gallery/Lists/Posts/Post.aspx?ID=375\">Jigsaw Puzzle</a>, by Saria Mohamad-Saleh, Information Systems Branch, Ottawa, Ontario.</p>\n<p><strong>Did you know?</strong> <a href=\"https://collab.agr.gc.ca/apps/harvest-moisson/Pages/DidYouKnow.aspx\">AAFC scientists invented canola in 1974 by breeding out undesirable traits from the rapeseed plant.</a> The name \"canola\" was originally a trademark, and was formed by combining \"Can\" from Canada and \"ola\" from other vegetable oils like Mazola.</p>\n<p>You can get involved by posting a comment or \u201cliking\u201d an article. You can also check out what your colleagues are liking and saying.</p>\n<p>Should you have story ideas, scenic or artistic agriculture-related photos, or interesting facts, please share them with us by clicking on \u201cContribute\u201d in the top menu bar.</p>\n<p><img src=\"https://intranet.agr.gc.ca/resources/prod/news/images/Harvest-OLPrize.png\" class=\"center-block\"></p>\n\n\t\t",
        "fr": "<br>\n<br>\n<p>Au cas o\u00f9 vous l\u2019auriez manqu\u00e9, voici le menu que la section <a href=\"https://collab.agr.gc.ca/apps/harvest-moisson\"><em>La Moisson</em></a> vous offre cette semaine :</p>\n<p><strong>Article vedette :</strong>\u00a0<a href=\"https://collab.agr.gc.ca/apps/harvest-moisson/\">Une \u00e9quipe d\u2019AAC re\u00e7oit le Prix d\u2019excellence et de leadership en langues officielles</a> \u2013 Le 12 septembre 2019, dans le cadre de la Journ\u00e9e de la dualit\u00e9 linguistique, le Prix d\u2019excellence et de leadership en langues officielles a \u00e9t\u00e9 d\u00e9cern\u00e9 \u00e0 des fonctionnaires de 28 institutions f\u00e9d\u00e9rales, qui se sont r\u00e9v\u00e9l\u00e9s \u00eatre de v\u00e9ritables ambassadeurs des langues officielles. Le Groupe de travail sur la <em>partie VII</em> de la Direction g\u00e9n\u00e9rale des programmes d\u2019AAC a \u00e9t\u00e9 l\u2019un des laur\u00e9ats reconnu pour son engagement exceptionnel envers les communaut\u00e9s de langue officielle en situation minoritaire (CLOSM).</p>\n<p><strong>Jeu-questionnaire : </strong><a href=\"https://collab.agr.gc.ca/apps/harvest-moisson/\">Est-ce que vous aimez sculpter des citrouilles?</a></p>\n<p><strong>Photo vedette :</strong> <a href=\"https://collab.agr.gc.ca/apps/harvest-moisson/gallery/Lists/Posts/Post.aspx?ID=375\"> Casse-t\u00eate,</a> par Saria Mohamad-Saleh, Direction g\u00e9n\u00e9rale des syst\u00e8mes d\u2019information, Ottawa (Ontario)</p>\n<p><strong>Le saviez-vous?</strong> <a href=\"https://collab.agr.gc.ca/apps/harvest-moisson/Pages/DidYouKnow.aspx\">Les chercheurs d\u2019AAC ont invent\u00e9 le canola en 1974 en retirant les caract\u00e8res ind\u00e9sirables du colza.</a> Le nom \u00ab canola \u00bb, qui \u00e9tait au d\u00e9part une marque de commerce, a \u00e9t\u00e9 form\u00e9 en combinant \u00ab Can \u00bb, pour Canada, et \u00ab ola \u00bb, pour d\u2019autres huiles v\u00e9g\u00e9tales, comme Mazola.</p>\n<p>Vous pouvez participer en affichant des commentaires ou en utilisant la fonction \u00ab J\u2019aime \u00bb ou \u00ab Partager \u00bb pour exprimer votre appr\u00e9ciation d\u2019un article. Vous pouvez aussi aller voir ce que vos coll\u00e8gues aiment et ont \u00e0 dire.</p>\n<p>Si vous avez des id\u00e9es d\u2019articles, des photos de paysages ou \u00e0 caract\u00e8re artistique li\u00e9es \u00e0 l\u2019agriculture ou encore des faits int\u00e9ressants, veuillez nous en faire part en cliquant sur \u00ab Collaborer \u00bb dans la barre de menu en haut de la page.</p>\n<p><img src=\"https://intranet.agr.gc.ca/resources/prod/news/images/Harvest-OLPrize.png\" class=\"center-block\"></p>\n\t\t"
    },
    "breadcrumb": {
        "en": "This Week in The Harvest - An AAFC Team Receives the Excellence and Leadership in Official...",
        "fr": "Au menu de La Moisson cette semaine - Une \u00e9quipe d'AAC re\u00e7oit le Prix d'excellence et de..."
    },
    "news": {
        "date_posted": {
            "en": "2019-10-31",
            "fr": "2019-10-31"
        },
        "to": {
            "en": "All staff",
            "fr": "Tous les employ\u00e9s"
        },
        "by": {
            "en": "Corporate Communications, Public Affairs Branch",
            "fr": "Communications minist\u00e9rielles, Direction g\u00e9n\u00e9rale des affaires publiques"
        }
    }
}