{
    "dcr_id": "1573134760105",
    "lang": "en",
    "title": {
        "en": "Security Awareness Training Update",
        "fr": "Mise \u00e0 jour sur la formation sur la sensibilisation \u00e0 la s\u00e9curit\u00e9"
    },
    "modified": "2019-11-07 00:00:00.0",
    "issued": "2019-11-07 00:00:00.0",
    "type_name": "intra-intra/news-nouv",
    "node_id": "1279030006975",
    "layout_name": null,
    "dc_date_created": "2019-11-07",
    "breadcrumb_label": "",
    "meta": {
        "issued": {
            "en": "2019-11-07",
            "fr": "2019-11-07"
        },
        "modified": {
            "en": "2019-11-07",
            "fr": "2019-11-07"
        },
        "format": {
            "en": "gcformat",
            "fr": "gcformat"
        },
        "title": {
            "en": "Security Awareness Training Update",
            "fr": "Mise \u00e0 jour sur la formation sur la sensibilisation \u00e0 la s\u00e9curit\u00e9"
        },
        "subject": {
            "en": "communications",
            "fr": "communications"
        },
        "description": {
            "en": "In August 2019, we added a security module, called Insider Threats, to the existing Security Awareness Web-Based Training - AGR-620.",
            "fr": "En ao\u00fbt 2019, nous avons ajout\u00e9 un module de s\u00e9curit\u00e9, intitul\u00e9 \u00ab Menaces internes \u00bb, \u00e0 la formation Web existante sur la sensibilisation \u00e0 la s\u00e9curit\u00e9 (AGR-620)."
        },
        "language": {
            "en": "eng",
            "fr": "fra"
        },
        "audience": {
            "en": "gcaudience",
            "fr": "gcaudience"
        },
        "creator": {
            "en": "Agriculture and Agri-Food Canada",
            "fr": "Agriculture et Agroalimentaire Canada"
        },
        "spatial": {
            "en": "gcregions",
            "fr": "gcregions"
        },
        "service": {
            "en": "AAFC_AgriSource",
            "fr": "AAC_AgriSource"
        },
        "accessRights": {
            "en": "3",
            "fr": "3"
        }
    },
    "body": {
        "en": "<br>\n<br>\n<p>In August 2019, we added a security module, called Insider Threats, to the existing Security Awareness Web-Based Training - AGR-620. The new module was designed to help you learn about and deal with potential security breaches in the work environment.</p>\n<p>As employees started taking the training, we received various feedback and suggestions on how we can improve the content. As a result, we have taken the module offline to incorporate the feedback.</p>\n<p>As soon as the module is revised, we will notify employees so that those who haven\u2019t taken the training yet can do so.</p>\n<p>By taking the training and learning about the policies, procedures, and processes that are in place to ensure confidentiality and integrity at AAFC, you will help protect yourself and others as well as contribute to decreasing the department\u2019s security risks.</p>\n<p>\u00a0</p>\n<p><strong>Christine Walker</strong><br>\nAssistant Deputy Minister, Corporate Management Branch</p>\n\n\t\t",
        "fr": "<br>\n<br>\n<p>En ao\u00fbt 2019, nous avons ajout\u00e9 un module de s\u00e9curit\u00e9, intitul\u00e9 \u00ab Menaces internes \u00bb, \u00e0 la formation Web existante sur la sensibilisation \u00e0 la s\u00e9curit\u00e9 (AGR-620). Le nouveau module a \u00e9t\u00e9 con\u00e7u pour vous aider \u00e0 en apprendre davantage sur les atteintes potentielles \u00e0 la s\u00e9curit\u00e9 au travail et \u00e0 y faire face.</p>\n<p>Lorsque les employ\u00e9s ont commenc\u00e9 \u00e0 suivre la formation, nous avons re\u00e7u divers commentaires et suggestions sur la fa\u00e7on d\u2019am\u00e9liorer le contenu. Par cons\u00e9quent, nous avons mis le module hors ligne pour y incorporer les commentaires.</p>\n<p>D\u00e8s que le module sera r\u00e9vis\u00e9, nous aviserons les employ\u00e9s afin que ceux qui n\u2019ont pas encore suivi la formation puissent le faire.</p>\n<p>En suivant la formation et en vous renseignant sur les politiques, les proc\u00e9dures et les processus qui ont \u00e9t\u00e9 mis en place pour assurer la confidentialit\u00e9 et l\u2019int\u00e9grit\u00e9 \u00e0 AAC, vous aiderez \u00e0 prot\u00e9ger les autres et vous-m\u00eame ainsi qu\u2019\u00e0 r\u00e9duire les risques pour la s\u00e9curit\u00e9 du Minist\u00e8re.</p>\n<p>\u00a0</p>\n<p><strong>Christine Walker </strong><br>\nSous-ministre adjointe, Direction g\u00e9n\u00e9rale de la gestion int\u00e9gr\u00e9e</p>\n\t\t"
    },
    "breadcrumb": {
        "en": "Security Awareness Training Update",
        "fr": "Mise \u00e0 jour sur la formation sur la sensibilisation \u00e0 la s\u00e9curit\u00e9"
    },
    "news": {
        "date_posted": {
            "en": "2019-11-07",
            "fr": "2019-11-07"
        },
        "to": {
            "en": "All staff",
            "fr": "Tous les employ\u00e9s"
        },
        "by": {
            "en": "Christine Walker, Assistant Deputy Minister, Corporate Management Branch",
            "fr": "Christine Walker, sous-ministre adjointe, Direction g\u00e9n\u00e9rale de la gestion int\u00e9gr\u00e9e"
        }
    }
}