{
    "dcr_id": "1574861480821",
    "lang": "en",
    "title": {
        "en": "Scheduled Maintenance of ISB Services - November 28 - December 2",
        "fr": "Entretien pr\u00e9vu des services de la DGSI - du 28 novembre au 2 d\u00e9cembre"
    },
    "modified": "2019-12-02 00:00:00.0",
    "issued": "2019-11-28 00:00:00.0",
    "type_name": "intra-intra/news-nouv",
    "node_id": "1279030006975",
    "layout_name": null,
    "dc_date_created": "2019-11-27",
    "breadcrumb_label": "",
    "meta": {
        "issued": {
            "en": "2019-11-28",
            "fr": "2019-11-28"
        },
        "modified": {
            "en": "2019-12-02",
            "fr": "2019-11-28"
        },
        "format": {
            "en": "gcformat",
            "fr": "gcformat"
        },
        "title": {
            "en": "Scheduled Maintenance of ISB Services - November 28 - December 2",
            "fr": "Entretien pr\u00e9vu des services de la DGSI - du 28 novembre au 2 d\u00e9cembre"
        },
        "subject": {
            "en": "communications",
            "fr": "communications"
        },
        "description": {
            "en": "Please be advised that preventative maintenance of ISB services will be performed between Thursday, November 28 and Monday, December 2, 2019.",
            "fr": "Veuillez noter qu'un entretien pr\u00e9ventif des services de la DGSI aura lieu du jeudi 28 novembre au lundi 2 d\u00e9cembre 2019."
        },
        "language": {
            "en": "eng",
            "fr": "fra"
        },
        "audience": {
            "en": "gcaudience",
            "fr": "gcaudience"
        },
        "creator": {
            "en": "Agriculture and Agri-Food Canada",
            "fr": "Agriculture et Agroalimentaire Canada"
        },
        "spatial": {
            "en": "gcregions",
            "fr": "gcregions"
        },
        "service": {
            "en": "AAFC_AgriSource",
            "fr": "AAC_AgriSource"
        },
        "accessRights": {
            "en": "3",
            "fr": "3"
        }
    },
    "body": {
        "en": "<br>\n<br>\n<p>Please be advised that preventative maintenance of ISB services will be performed between Thursday, November 28 and Monday, December 2, 2019.</p>\n<p>The following downtime is part of a management plan to upgrade our infrastructure systems. These measures are performed regularly to improve performance and to ensure that the department does not experience any outages that would affect employees and the delivery of our services.</p>\n<p>Consequently, the following services may not be available during the following periods:</p>\n<p><strong>Thursday, </strong><strong>November 28 \u2013 1:00 a.m. until 6:00 a.m. (ET)</strong></p>\n<ul>\n<li>AgriApps</li>\n<li>Homebase</li>\n</ul>\n<p><strong>Thursday, </strong><strong>November 28 \u2013 5:00 p.m. until Monday, December 2 - 5:00 a.m. (ET)\u00a0</strong></p>\n<ul>\n<li>Knowledge Workspace\n(See <a href=\"http://intranet.agr.gc.ca/agrisource/eng/newswork/knowledge-workspace-unavailable-november-28-december-2-due-to-upgrade?id=1574181153072\">tips on what to do to prepare for the downtime</a>)</li>\n<li>Blueprint 2020 Blog</li>\n<li>Blueprint 2020 Process Improvement (Lean)</li>\n<li>Blueprint 2020 Dragons\u2019 Den\n\u00a0\t</li>\n<li>CFIA President\u2019s Blog</li>\n<li>Market Access Support System (MISB-MASS)\n\u00a0\t</li>\n<li>Proposal Submission System (STB-PSS)</li>\n</ul>\n<p><strong>Friday, </strong><strong>November 29 \u2013 3:00 a.m. until 8:00 a.m. (ET)</strong></p>\n<ul>\n<li>Cognos Business Intelligence\u00a0Gateway</li>\n</ul>\n<p><strong>Sunday, </strong><strong>December 1 \u2013 1:00 a.m. until 6:00 a.m. (ET)</strong></p>\n<ul>\n<li>Lasergene</li>\n</ul>\n<p>Should you have any questions or concerns, please do not hesitate to contact IT Centre TI.</p>\n<p>\u00a0</p>\n<p><strong>IT Centre TI<br></strong>Telephone: 1-855-545-4411<br><a href=\"http://myitcentreti-monitcentreti/\">My IT Centre TI</a></p>\n<p><img src=\"https://intranet.agr.gc.ca/resources/prod/news/images/ITCentreTI2.png\" class=\"center-block\"></p>\n\n\t\t",
        "fr": "<br>\n<br>\n<p>Veuillez noter qu\u2019un entretien pr\u00e9ventif des services de la DGSI aura lieu du jeudi 28 novembre au lundi 2 d\u00e9cembre 2019.</p>\n<p>Les interruptions suivantes sont pr\u00e9vues dans le cadre d\u2019un plan de gestion visant la mise \u00e0 niveau de nos syst\u00e8mes d\u2019infrastructure. Ces mesures sont prises r\u00e9guli\u00e8rement afin d\u2019am\u00e9liorer le rendement et d\u2019\u00e9viter que le Minist\u00e8re subisse des pannes qui pourraient nuire aux employ\u00e9s et \u00e0 la prestation de nos services.</p>\n<p>Par cons\u00e9quent, les services ci-dessous pourraient ne pas \u00eatre accessibles pendant les p\u00e9riodes indiqu\u00e9es :</p>\n<p><strong>Le jeudi 28 novembre, de 1 h \u00e0 6</strong> <strong>h (HE)</strong></p>\n<ul>\n<li>Agri-applications</li>\n<li>Homebase</li>\n</ul>\n<p><strong>Du </strong><strong>jeudi 28 novembre \u00e0 </strong><strong>17 h, au lundi 2 d\u00e9cembre \u00e0 </strong><strong>5 h </strong><strong>(HE)\u00a0</strong></p>\n<ul>\n<li>Espace de travail du savoir\n(<a href=\"http://intranet.agr.gc.ca/agrisource/fra/nouvelleslouvrage/indisponibilite-de-lespace-de-travail-du-savoir-du-28-novembre-au-2-decembre-en-raison-dune-mise-a-niveau?id=1574181153072\">Voir les conseils sur la fa\u00e7on de se pr\u00e9parer \u00e0 l\u2019interruption</a>)\t</li>\n<li>Blogue sur Objectif 2020\n\u00a0\t</li>\n<li>Am\u00e9lioration des processus d\u2019Objectif 2020 (all\u00e9g\u00e9)</li>\n<li>Objectif 2020 : Dans l\u2019\u0153il du dragon</li>\n<li>Blogue de la pr\u00e9sidente de l\u2019ACIA</li>\n<li>Syst\u00e8me de soutien de l\u2019acc\u00e8s aux march\u00e9s (SSAM-DGSIM)</li>\n<li>Syst\u00e8me de pr\u00e9sentation de propositions (SPP-DGST)\n\t</li>\n</ul>\n<p><strong>Le vendredi 29 novembre, de 3 h \u00e0 8 h (HE)\u00a0</strong></p>\n<ul>\n<li>Portail d\u2019information de gestion Cognos</li>\n</ul>\n<p><strong>Le dimanche 1er d\u00e9cembre, de 1 h \u00e0 6 h (HE)\u00a0</strong></p>\n<ul>\n<li>Lasergene</li>\n</ul>\n<p>Si vous avez des questions ou des pr\u00e9occupations \u00e0 ce sujet, n\u2019h\u00e9sitez pas \u00e0 communiquer avec le IT Centre TI.</p>\n<p>\u00a0</p>\n<p><strong>IT Centre TI<br></strong>T\u00e9l\u00e9phone : 1-855-545-4411<br><a href=\"http://myitcentreti-monitcentreti/\">Mon IT Centre TI</a></p>\n<p><img src=\"https://intranet.agr.gc.ca/resources/prod/news/images/ITCentreTI2.png\" class=\"center-block\"></p>\n\t\t"
    },
    "breadcrumb": {
        "en": "Scheduled Maintenance of ISB Services - November 28 - December 2",
        "fr": "Entretien pr\u00e9vu des services de la DGSI - du 28 novembre au 2 d\u00e9cembre"
    },
    "news": {
        "date_posted": {
            "en": "2019-11-28",
            "fr": "2019-11-28"
        },
        "to": {
            "en": "All staff",
            "fr": "Tous les employ\u00e9s"
        },
        "by": {
            "en": "IT Centre TI",
            "fr": "IT Centre TI"
        }
    }
}