{
    "dcr_id": "1574804118401",
    "lang": "en",
    "title": {
        "en": "This Week in The Harvest - Living Lab-Atlantic: Collaborating From the Start for Sustainable Farming ",
        "fr": "Au menu de <em>La Moisson</em> cette semaine - Laboratoire vivant de l'Atlantique : collaborer d\u00e8s le d\u00e9part au service de l'agriculture durable "
    },
    "modified": "2019-11-28 00:00:00.0",
    "issued": "2019-11-28 00:00:00.0",
    "type_name": "intra-intra/news-nouv",
    "node_id": "1279030006975",
    "layout_name": null,
    "dc_date_created": "2019-11-27",
    "breadcrumb_label": "This Week in The Harvest  Living Lab-Atlantic: Collaborating From the Start for Sustainable Farming",
    "meta": {
        "issued": {
            "en": "2019-11-28",
            "fr": "2019-11-28"
        },
        "modified": {
            "en": "2019-11-28",
            "fr": "2019-11-28"
        },
        "format": {
            "en": "gcformat",
            "fr": "gcformat"
        },
        "title": {
            "en": "This Week in The Harvest - Living Lab-Atlantic: Collaborating From the Start for Sustainable Farming ",
            "fr": "Au menu de <em>La Moisson</em> cette semaine - Laboratoire vivant de l'Atlantique : collaborer d\u00e8s le d\u00e9part au service de l'agriculture durable "
        },
        "subject": {
            "en": "communications",
            "fr": "communications"
        },
        "description": {
            "en": "In case you missed it, here's what's new in <em>The Harvest</em> this week.",
            "fr": "Au cas o\u00f9 vous l'auriez manqu\u00e9, voici le menu que la section <em>La Moisson</em> vous offre cette semaine."
        },
        "language": {
            "en": "eng",
            "fr": "fra"
        },
        "audience": {
            "en": "gcaudience",
            "fr": "gcaudience"
        },
        "creator": {
            "en": "Agriculture and Agri-Food Canada",
            "fr": "Agriculture et Agroalimentaire Canada"
        },
        "spatial": {
            "en": "gcregions",
            "fr": "gcregions"
        },
        "service": {
            "en": "AAFC_AgriSource",
            "fr": "AAC_AgriSource"
        },
        "accessRights": {
            "en": "3",
            "fr": "3"
        }
    },
    "body": {
        "en": "<br>\n<br>\n<p>Please note: The Knowledge Workspace (KW) platform will soon be upgraded to a version that is more secure and brings new features. To perform the upgrade, The Harvest will be offline between 5 p.m. ET on Thursday, November 28 and 5 a.m. ET on Monday, December 2.</p>\n<p>In case you missed it, here\u2019s what\u2019s new in <a href=\"https://collab.agr.gc.ca/apps/harvest-moisson\"><em>The Harvest</em></a> this week:</p>\n<p><strong>Feature story:</strong> <a href=\"https://collab.agr.gc.ca/apps/harvest-moisson/\">Living Lab-Atlantic: Collaborating From the Start for Sustainable Farming</a> - \u200b Modeled on successful initiatives in Europe and the US, the Living Laboratory Initiative is a first-of-its-kind network of innovation projects dedicated to sustainable farming. And now, Agriculture and Agri-Food Canada has launched its first site: Living Lab-Atlantic, based on Prince Edward Island.</p>\n<p><strong>Poll: </strong><a href=\"https://collab.agr.gc.ca/apps/harvest-moisson/\"> How do you like your eggs?</a></p>\n<p><strong>Feature photo: </strong><a href=\"https://collab.agr.gc.ca/apps/harvest-moisson/gallery/Lists/Posts/Post.aspx?ID=386\">House of a Rising Sun</a>, by Christine Moses, Deputy Minister\u2019s Office, Ottawa, Ontario.</p>\n<p><strong>Did you know?</strong> <a href=\"https://collab.agr.gc.ca/apps/harvest-moisson/\">An ostrich egg weighs 1600g and is equivalent to two dozen chicken eggs.</a></p>\n<p>You can get involved by posting a comment or \u201cliking\u201d an article. You can also check out what your colleagues are liking and saying.</p>\n<p>Should you have story ideas, scenic or artistic agriculture-related photos, or interesting facts, please share them with us by clicking on \u201cContribute\u201d in the top menu bar.</p>\n<p><img src=\"https://intranet.agr.gc.ca/resources/prod/news/images/Harvest-LivingLab.png\" class=\"center-block\"></p>\n\n\t\t",
        "fr": "<br>\n<br>\n<p>SVP noter: \u200bla plateforme de l\u2019Espace de travail du savoir (ETS) sera bient\u00f4t mise \u00e0 une version plus s\u00e9curitaire pr\u00e9sentant de nouvelles caract\u00e9ristiques. Pour effectuer la mise \u00e0 niveau, <em>La Moisson</em> sera hors ligne du jeudi 28 novembre \u00e0 17 h (HE) au lundi 2 d\u00e9cembre \u00e0 5 h (HE).</p>\n<p>Au cas o\u00f9 vous l\u2019auriez manqu\u00e9, voici le menu que la section <a href=\"https://collab.agr.gc.ca/apps/harvest-moisson\"><em>La Moisson</em></a> vous offre cette semaine :</p>\n<p><strong>Article vedette :</strong> <a href=\"https://collab.agr.gc.ca/apps/harvest-moisson/\">Le travail d\u2019\u00e9quipe fait d\u00e9couvrir AAC au monde entier \u00e0 l\u2019occasion du salon SIAL Canada</a> \u2013 Inspir\u00e9e d\u2019initiatives fructueuses en Europe et aux \u00c9tats-Unis, l\u2019Initiative des laboratoires vivants est le tout premier r\u00e9seau de projets novateurs ax\u00e9s sur l\u2019agriculture durable. R\u00e9cemment, Agriculture et Agroalimentaire Canada a ouvert son premier site dans le cadre de l\u2019initiative : le Laboratoire vivant de l\u2019Atlantique, \u00e0 l\u2019\u00cele du Prince \u00c9douard.</p>\n<p><strong>Sondage : </strong><a href=\"https://collab.agr.gc.ca/apps/harvest-moisson/\">Comment aimez-vous consommer vos oeufs?</a></p>\n<p><strong>Photo vedette :</strong> <a href=\"https://collab.agr.gc.ca/apps/harvest-moisson/gallery/Lists/Posts/Post.aspx?ID=386\">Maison du soleil levant</a>, de Christine Moses, Bureau du sous-ministre, Ottawa (Ontario).</p>\n<p><strong>Le saviez-vous?</strong> <a href=\"https://collab.agr.gc.ca/apps/harvest-moisson/\">Un \u0153uf d'autruche p\u00e8se 1600 g et \u00e9quivaut \u00e0 deux douzaines d'\u0153ufs de poule.</a></p>\n<p>Vous pouvez participer en affichant des commentaires ou en utilisant la fonction \u00ab J\u2019aime \u00bb ou \u00ab Partager \u00bb pour exprimer votre appr\u00e9ciation d\u2019un article. Vous pouvez aussi aller voir ce que vos coll\u00e8gues aiment et ont \u00e0 dire.</p>\n<p>Si vous avez des id\u00e9es d\u2019articles, des photos de paysages ou \u00e0 caract\u00e8re artistique li\u00e9es \u00e0 l\u2019agriculture ou encore des faits int\u00e9ressants, veuillez nous en faire part en cliquant sur \u00ab Collaborer \u00bb dans la barre de menu en haut de la page.</p>\n<p><img src=\"https://intranet.agr.gc.ca/resources/prod/news/images/Harvest-LivingLab.png\" class=\"center-block\"></p>\n\t\t"
    },
    "breadcrumb": {
        "en": "This Week in The Harvest Living Lab-Atlantic: Collaborating From the Start for Sustainable Farming",
        "fr": "Au menu de La Moisson cette semaine - Laboratoire vivant de l'Atlantique : collaborer d\u00e8s le d\u00e9part"
    },
    "news": {
        "date_posted": {
            "en": "2019-11-28",
            "fr": "2019-11-28"
        },
        "to": {
            "en": "All staff",
            "fr": "Tous les employ\u00e9s"
        },
        "by": {
            "en": "Corporate Communications, Public Affairs Branch",
            "fr": "Communications minist\u00e9rielles, Direction g\u00e9n\u00e9rale des affaires publiques"
        }
    }
}