{
    "dcr_id": "1575991670583",
    "lang": "en",
    "title": {
        "en": "Prevent the Spread of Flu - If You're Sick, Stay Home!",
        "fr": "Pr\u00e9venir la propagation de la grippe - Si vous \u00eates malade, restez \u00e0 la maison"
    },
    "modified": "2019-12-13 00:00:00.0",
    "issued": "2019-12-12 00:00:00.0",
    "type_name": "intra-intra/news-nouv",
    "node_id": "1279030006975",
    "layout_name": null,
    "dc_date_created": "2019-12-10",
    "breadcrumb_label": "",
    "meta": {
        "issued": {
            "en": "2019-12-12",
            "fr": "2019-12-12"
        },
        "modified": {
            "en": "2019-12-13",
            "fr": "2019-12-13"
        },
        "format": {
            "en": "gcformat",
            "fr": "gcformat"
        },
        "title": {
            "en": "Prevent the Spread of Flu - If You're Sick, Stay Home!",
            "fr": "Pr\u00e9venir la propagation de la grippe - Si vous \u00eates malade, restez \u00e0 la maison"
        },
        "subject": {
            "en": "communications",
            "fr": "communications"
        },
        "description": {
            "en": "With the flu season upon us, help prevent the spread of it by staying home when you are sick!",
            "fr": "Comme la saison de la grippe est \u00e0 nos portes, aidez \u00e0 pr\u00e9venir sa propagation en restant \u00e0 la maison lorsque vous \u00eates malade."
        },
        "language": {
            "en": "eng",
            "fr": "fra"
        },
        "audience": {
            "en": "gcaudience",
            "fr": "gcaudience"
        },
        "creator": {
            "en": "Agriculture and Agri-Food Canada",
            "fr": "Agriculture et Agroalimentaire Canada"
        },
        "spatial": {
            "en": "gcregions",
            "fr": "gcregions"
        },
        "service": {
            "en": "AAFC_AgriSource",
            "fr": "AAC_AgriSource"
        },
        "accessRights": {
            "en": "3",
            "fr": "3"
        }
    },
    "body": {
        "en": "<br>\n<br>\n<p>With the flu season upon us, help prevent the spread of it by staying home when you are sick!</p>\n<p>People infected with the flu virus can spread it to others as soon as\u00a01 day before the first symptoms until approximately\u00a05 days after. Symptoms include fever, cough, and muscle aches and may take up to\u00a07 to 10 days for a full recovery.</p>\n<p>Here are some preventative measures we can all take to limit the spread of viruses in the workplace:</p>\n<ul>\n<li><strong>If you are sick, stay home. </strong></li>\n<li>Get the flu shot. Consult your provincial and municipal public health officials for information on coverage and availability.</li>\n<li>Wash hands frequently and after any contact with fluids from coughing or sneezing.</li>\n<li>Cover your mouth and nose with your arm (not your hand) when coughing or sneezing.</li>\n<li>Keep your hands away from your face.</li>\n</ul>\n<p><strong>Learn more</strong></p>\n<ul>\n<li>Government of Canada <a rel=\"external\" href=\"https://www.canada.ca/en/public-health/services/diseases/flu-influenza.html\">flu facts page</a></li>\n<li>Canadian Centre for Occupational Health and Safety <a rel=\"external\" href=\"https://www.ccohs.ca/oshanswers/diseases/washing_hands.html\">hand washing page</a></li>\n</ul>\n<p><img src=\"https://intranet.agr.gc.ca/resources/prod/news/images/StayHome.png\" class=\"center-block\"></p>\n<ul>\n</ul>\n\n\t\t",
        "fr": "<br>\n<br>\n<p>Comme la saison de la grippe est \u00e0 nos portes, aidez \u00e0 pr\u00e9venir sa propagation en restant \u00e0 la maison lorsque vous \u00eates malade.</p>\n<p>Les personnes infect\u00e9es par le virus de la grippe peuvent le transmettre 1 jour avant que les premiers sympt\u00f4mes apparaissent jusqu\u2019\u00e0 environ\u00a05 jours apr\u00e8s ces premiers sympt\u00f4mes. Les sympt\u00f4mes comprennent la fi\u00e8vre, la toux et les douleurs musculaires et un r\u00e9tablissement complet peut prendre 7 \u00e0 10 jours.</p>\n<p>Voici quelques mesures pr\u00e9ventives que nous pouvons prendre pour limiter la propagation des virus dans le milieu de travail :</p>\n<ul>\n<li><strong>Si vous \u00eates malade, restez \u00e0 la maison.</strong></li>\n<li>Faites-vous vacciner contre la grippe. Consultez vos agents de sant\u00e9 publique provinciaux et municipaux pour obtenir des renseignements sur la couverture et la disponibilit\u00e9.</li>\n<li>Lavez-vous les mains fr\u00e9quemment et apr\u00e8s tout contact avec des fluides provenant de la toux ou des \u00e9ternuements.</li>\n<li>Couvrez-vous la bouche et le nez avec le bras plut\u00f4t qu\u2019avec la main lorsque vous toussez ou que vous \u00e9ternuez.</li>\n<li>\u00c9loignez vos mains de votre visage.</li>\n</ul>\n<h2><strong>Pour en savoir plus</strong></h2>\n<ul>\n<li><a rel=\"external\" href=\"https://www.canada.ca/fr/sante-publique/services/maladies/grippe-influenza.html\">Fiche de renseignements sur la grippe du Gouvernement du Canada</a></li>\n<li><a rel=\"external\" href=\"https://www.cchst.ca/oshanswers/diseases/washing_hands.html\">Page sur le lavage des mains du Centre canadien d\u2019hygi\u00e8ne et de s\u00e9curit\u00e9 au travail</a></li>\n</ul>\n<p><img src=\"https://intranet.agr.gc.ca/resources/prod/news/images/StayHome.png\" class=\"center-block\"></p>\n\t\t"
    },
    "breadcrumb": {
        "en": "Prevent the Spread of Flu - If You're Sick, Stay Home!",
        "fr": "Pr\u00e9venir la propagation de la grippe - Si vous \u00eates malade, restez \u00e0 la maison"
    },
    "news": {
        "date_posted": {
            "en": "2019-12-12",
            "fr": "2019-12-12"
        },
        "to": {
            "en": "All staff",
            "fr": "Tous les employ\u00e9s"
        },
        "by": {
            "en": "National Occupational Health and Safety Program",
            "fr": "Programme national de sant\u00e9 et s\u00e9curit\u00e9 au travail"
        }
    }
}