{
    "dcr_id": "1575406045626",
    "lang": "en",
    "title": {
        "en": "Warning of Malicious Spam Emails",
        "fr": "Mise en garde touchant des pourriels malveillants"
    },
    "modified": "2019-12-05 00:00:00.0",
    "issued": "2019-12-05 00:00:00.0",
    "type_name": "intra-intra/news-nouv",
    "node_id": "1279030006975",
    "layout_name": null,
    "dc_date_created": "2019-12-04",
    "breadcrumb_label": "",
    "meta": {
        "issued": {
            "en": "2019-12-05",
            "fr": "2019-12-05"
        },
        "modified": {
            "en": "2019-12-05",
            "fr": "2019-12-05"
        },
        "format": {
            "en": "gcformat",
            "fr": "gcformat"
        },
        "title": {
            "en": "Warning of Malicious Spam Emails",
            "fr": "Mise en garde touchant des pourriels malveillants"
        },
        "subject": {
            "en": "communications",
            "fr": "communications"
        },
        "description": {
            "en": "There is a malicious spam email campaign currently underway that has made its way into the Government of Canada email systems.",
            "fr": "Une campagne de pourriels malveillants est en cours et a \u00e9t\u00e9 introduite dans les syst\u00e8mes de messagerie du gouvernement du Canada."
        },
        "language": {
            "en": "eng",
            "fr": "fra"
        },
        "audience": {
            "en": "gcaudience",
            "fr": "gcaudience"
        },
        "creator": {
            "en": "Agriculture and Agri-Food Canada",
            "fr": "Agriculture et Agroalimentaire Canada"
        },
        "spatial": {
            "en": "gcregions",
            "fr": "gcregions"
        },
        "service": {
            "en": "AAFC_AgriSource",
            "fr": "AAC_AgriSource"
        },
        "accessRights": {
            "en": "3",
            "fr": "3"
        }
    },
    "body": {
        "en": "<br>\n<br>\n<h2><strong>What you need to know</strong></h2>\n<p>There is a malicious spam email campaign currently underway that has made its way into the Government of Canada email systems. Although AAFC has not been impacted, it is a good reminder to be vigilant and exercise caution \u2013 remember to think before you click.</p>\n<p>These malicious emails have a Microsoft Word attachment and a subject line similar to one of the following:</p>\n<ul>\n<li>Management added you to Gov Project</li>\n<li>Bill Note by Harvest Inc.</li>\n<li>Bill Note by Harvest Services</li>\n<li>Invoice Email by Harvest Incorporation</li>\n<li>Payment Text by Harvest Services</li>\n<li>Payment Text from Harvest Inc.</li>\n<li>Account Note from Harvest Incorporation</li>\n<li>Invoice Note by Harvest Services</li>\n<li>Tax recalculation submitted\u00a0\u00a0</li>\n</ul>\n<h2><strong>What you can do</strong></h2>\n<p><strong>If you receive one of these emails, or you mistakenly open the email or attachment, </strong>please report the case to IT Centre TI as soon as possible at 1-855-545-4411 or through <a href=\"http://myitcentreti-monitcentreti/\">My IT Centre TI</a>.</p>\n<p><strong>We remind you not to click on any links or open any attachments included in suspicious emails. </strong>They could compromise your computer system and permit the installation of harmful software.</p>\n<p>For additional advice on detecting fraudulent emails, please review the <a href=\"http://intranet.agr.gc.ca/resources/prod/pdf/cmb_dggi/ctec_cec_malicious_guide_malveillants-eng.pdf\">Malicious Email Detection Guide</a> (PDF) prepared by Communications Security Establishment Canada. Find out how to <a href=\"http://www.cra-arc.gc.ca/scrty/frdprvntn/menu-eng.html\">protect yourself against fraud</a> with this information from the Canada Revenue Agency, and <a href=\"https://www.getcybersafe.gc.ca/cnt/rsks/nln-ctvts/ml-en.aspx\">learn the risks</a> of email scams with these tips from <a href=\"https://www.getcybersafe.gc.ca/index-en.aspx\">GetCyberSafe.gc.ca</a>, a national public awareness campaign.</p>\n<p><img src=\"https://intranet.agr.gc.ca/resources/prod/news/images/Cyber-Security1.png\" class=\"center-block\"></p>\n\n\t\t",
        "fr": "<br>\n<br>\n<h2><strong>Ce que vous devez savoir</strong></h2>\n<p>Une campagne de pourriels malveillants est en cours et a \u00e9t\u00e9 introduite dans les syst\u00e8mes de messagerie du gouvernement du Canada. M\u00eame si AAC n\u2019a pas \u00e9t\u00e9 touch\u00e9, il est important de rester vigilant et de r\u00e9fl\u00e9chir avant de cliquer.</p>\n<p>Ces courriels malveillants ont un fichier Microsoft Word en pi\u00e8ce jointe et ont comme objet un titre similaire \u00e0 ceux cit\u00e9s ci-dessous :</p>\n<ul>\n<li>Management added you to Gov Project (La direction vous a ajout\u00e9 au projet gouvernemental)</li>\n<li>Bill Note by Harvest Inc. (Note de facturation de Harvest inc. ou D\u00e9tails concernant votre facture par Harvest inc.)</li>\n<li>Bill Note by Harvest Services. (Note de facturation de Harvest Services ou D\u00e9tails concernant votre facture de Harvest Services)</li>\n<li>Invoice Email by Harvest Incorporation. (Facture par courriel de Harvest Incorporation ou Facturation par courriel de Harvest Incorporation)</li>\n<li>Payment Text by Harvest Services. (Texte de paiement par Harvest Services ou Paiement par texto par Harvest Services )</li>\n<li>Payment Text from Harvest Inc.( Message texte sur le paiement de Harvest inc. ou Paiement par texto de Harvest inc.)</li>\n<li>Account Note from Harvest Incorporation (Note sur l\u2019\u00e9tat de compte de Harvest Incorporation)</li>\n<li>Invoice Note by Harvest Services. (Note de facturation par Harvest Services)</li>\n<li>Tax recalculation submitted (Recalcul d\u2019imp\u00f4t soumis)\u00a0\u00a0</li>\n</ul>\n<h2><strong>Ce que vous pouvez faire</strong></h2>\n<p><strong>Si vous recevez l\u2019un de c</strong><strong>es courriels, ou si vous avez par m\u00e9garde </strong><strong>ouvert le courriel ou cliqu\u00e9 sur une pi\u00e8ce jointe,</strong> communiquez imm\u00e9diatement avec le IT Centre TI au 1\u2011855\u2011545\u20114411 ou \u00e0 <a href=\"http://myitcentreti-monitcentreti/\">Mon IT Centre TI</a>.</p>\n<p><strong>Ne cliquez sur aucun hyperlien et n\u2019ouvrez aucune pi\u00e8ce jointe dans des courriels douteux. </strong>Ils pourraient compromettre votre syst\u00e8me informatique et permettre l\u2019installation de logiciels malveillants.</p>\n<p>Pour obtenir d\u2019autres conseils sur la d\u00e9tection des courriels frauduleux, veuillez consulter le <a href=\"http://intranet.agr.gc.ca/resources/prod/pdf/cmb_dggi/ctec_cec_malicious_guide_malveillants-fra.pdf\">Guide de d\u00e9tection des courriels malveillants</a> (PDF) pr\u00e9par\u00e9 par le Centre de la s\u00e9curit\u00e9 des t\u00e9l\u00e9communications Canada. Visitez le site <a href=\"http://www.cra-arc.gc.ca/scrty/frdprvntn/menu-fra.html\">Prot\u00e9gez-vous contre la fraude</a> de l\u2019Agence du revenu du Canada et <a href=\"http://www.pensezcybersecurite.gc.ca/cnt/rsks/nln-ctvts/ml-fr.aspx\">familiarisez-vous avec les risques</a> associ\u00e9s aux escroqueries par courriel en consultant <a href=\"http://www.pensezcybersecurite.gc.ca/index-fr.aspx\">le site de Pensez cybers\u00e9curit\u00e9</a>, une campagne nationale de sensibilisation du public.</p>\n<p><img src=\"https://intranet.agr.gc.ca/resources/prod/news/images/Cyber-Security1.png\" class=\"center-block\"></p>\n\t\t"
    },
    "breadcrumb": {
        "en": "Warning of Malicious Spam Emails",
        "fr": "Mise en garde touchant des pourriels malveillants"
    },
    "news": {
        "date_posted": {
            "en": "2019-12-03",
            "fr": "2019-12-03"
        },
        "to": {
            "en": "All staff",
            "fr": "Tous les employ\u00e9s"
        },
        "by": {
            "en": "Information Systems Branch",
            "fr": "Direction g\u00e9n\u00e9rale des syst\u00e8mes d'information"
        }
    }
}