{
    "dcr_id": "1576515516678",
    "lang": "en",
    "title": {
        "en": "Database Analyst, Database and Data Administration",
        "fr": "Analyste de base de donn\u00e9es \u2013 Administration de donn\u00e9es et de bases de donn\u00e9es "
    },
    "modified": "2019-12-16 00:00:00.0",
    "issued": "2019-12-16 00:00:00.0",
    "type_name": "intra-intra/empl-empl",
    "node_id": "1279029955397",
    "layout_name": null,
    "dc_date_created": "2019-12-16",
    "breadcrumb_label": "",
    "meta": {
        "issued": {
            "en": "2019-12-16",
            "fr": "2019-12-16"
        },
        "modified": {
            "en": "2019-12-16",
            "fr": "2019-12-16"
        },
        "format": {
            "en": "gcformat",
            "fr": "gcformat"
        },
        "title": {
            "en": "Database Analyst, Database and Data Administration",
            "fr": "Analyste de base de donn\u00e9es \u2013 Administration de donn\u00e9es et de bases de donn\u00e9es "
        },
        "subject": {
            "en": "staffing",
            "fr": "dotation en personnel"
        },
        "language": {
            "en": "eng",
            "fr": "fra"
        },
        "audience": {
            "en": "gcaudience",
            "fr": "gcaudience"
        },
        "type": {
            "en": "notice",
            "fr": "avis"
        },
        "creator": {
            "en": "Agriculture and Agri-Food Canada",
            "fr": "Agriculture et Agroalimentaire Canada"
        },
        "spatial": {
            "en": "gcregions",
            "fr": "gcregions"
        },
        "service": {
            "en": "AAFC_AgriSource",
            "fr": "AAC_AgriSource"
        },
        "accessRights": {
            "en": "3",
            "fr": "3"
        }
    },
    "body": {
        "en": "\n<p><strong><br>Duties:</strong><em> </em></p>\n<p>As a database analyst, you would provide database administration functions including:</p>\n<ul>\n<li>\n<p>supporting database applications (custom and commercial off the shelf) using Oracle or other major relational database systems</p>\n</li>\n<li>\n<p>working with various software applications in order to provide technical support and assistance to clients</p>\n</li>\n<li>\n<p>maintaining service availability and monitor database performance</p>\n</li>\n<li>\n<p>participating in multi-disciplinary IT project teams focusing on database development and administration</p>\n</li>\n</ul>\n<p><strong><br>Statement of Merit Criteria &amp; Conditions of Employment</strong></p>\n<p><strong><br>Essential Qualifications</strong></p>\n<p><strong><br>Education</strong></p>\n<p>Successful completion of two (2) years of an acceptable post-secondary educational program in computer science, information technology, information management or another specialty relevant to the position to be staffed<br>\n<br>\n<strong><br>Experience(s)</strong></p>\n<ul>\n<li><strong>E-1</strong> Significant and recent experience working in an Information Management and Information Technology (IM/IT) environment analyzing requirements, delivering solutions and/or providing support. Significant experience is defined in that it is a major aspect of your daily work activities. Recent experience is defined as being within the last two (2) years.</li>\n<li><strong>E-2</strong> Experience in identifying and assessing IM/IT requirements, and providing IM/IT technical advice, assistance, and coaching to colleagues or clients.</li>\n<li><strong>E-3</strong> Experience in preparing technical documentation, such as procedures, user guides and IM/IT requirements.</li>\n</ul>\n<p><strong><br>Knowledge(s)</strong></p>\n<ul>\n<li>\n<p><strong>K-1</strong> Knowledge of Government of Canada standards, policies and guidelines related to IM/IT.</p>\n</li>\n<li>\n<p><strong>K-2</strong> Knowledge of current and emerging trends in IM/IT.</p>\n</li>\n<li>\n<p><strong>K-3</strong> Knowledge of Government of Canada principles, processes, tools and techniques.</p>\n</li>\n<li>\n<p><strong>K-4</strong> Knowledge of Information Technology Service Management (e.g. ITIL) concepts, best practices and techniques.</p>\n</li>\n</ul>\n<p><strong><br>Competencies</strong></p>\n<p>Analytical Thinking: Interpreting, linking and analyzing information to understand issues.</p>\n<p>Client Focus: Identifying and responding to current and future client needs; providing service excellence to internal and external clients; ensuring the use of information and services that are barrier-free and accessible for persons with disabilities.</p>\n<p>Communication: Listening to others and communicating in an effective manner that fosters open communication.</p>\n<p>Continuous Learning: Identifying and addressing individual strengths and weaknesses, developmental needs and changing circumstances to enhance personal and organizational</p>\n<p>performance.</p>\n<p>Results Orientation: Focusing personal efforts on achieving results consistent with the organization\u2019s objectives.</p>\n<p>Teamwork: Working collaboratively with others to achieve common goals and positive results.</p>\n<p><strong><br>Language Requirement(s):</strong></p>\n<p>English Essential</p>\n<p><strong><br>Asset Qualifications</strong></p>\n<ul>\n<li>\n<p><strong>AEd1</strong> \u2013 A diploma/degree from a 3 or 4 year program offered by a recognized college or university with specialization in Computer Sciences, Computer Engineering or any other field related to the position.</p>\n</li>\n<li>\n<p><strong>AEd2</strong> - Professional certification in areas such as:</p>\n<ul style=\"list-style-type: circle;\">\n<li>\n<p>HP-UX</p>\n</li>\n<li>\n<p>Linux</p>\n</li>\n<li>\n<p>Windows</p>\n</li>\n<li>\n<p>Oracle RDBMS</p>\n</li>\n<li>\n<p>Microsoft SQL server</p>\n</li>\n</ul>\n</li>\n<li>\n<p><strong>AEx1</strong> \u2013 Recent experience in analyzing, designing, programming and maintaining computer applications using programming languages, technologies and/or architectures such as:</p>\n<ul>\n<li>Oracle RDBMS 11g or higher</li>\n<li>Microsoft SQL server</li>\n<li>PL/SQL programming</li>\n<li>n-tier application architecture</li>\n<li>Incident management using tools such as Vantive, Assyst or Automatic Call Distributions (ACD)</li>\n<li>Erwin (Data modeling)</li>\n<li>Identifying and resolving operational, performance and connectivity problems for Corporate Applications</li>\n<li>Database administration with emphasis in the implementation, installation and maintenance of Oracle RDBMS database software and associated tools.</li>\n<li>Public or private cloud (Azure, AWS, etc\u2026)</li>\n<li>Kubernetes, Docker, and/or other similar technologies</li>\n<li>Other popular relational and non-relational data storage technologies such as Hadoop/Cloudera, MySQL, PostgreSQL, NoSQL, etc\u2026</li>\n</ul>\n</li>\n</ul>\n<ul>\n<li>\n<p><strong>AEx2</strong> - Recent experience in an operations infrastructure support role such as:</p>\n<ul style=\"list-style-type: circle;\">\n<li>\n<p>Operating system support of Oracle databases</p>\n</li>\n</ul>\n</li>\n<li>\n<p><strong>AK1</strong> - Knowledge of data modeling and/or database development and management concepts and techniques.</p>\n</li>\n<li>\n<p><strong>AK2</strong> - Knowledge of IT Operations service delivery and service support concepts including approaches for their implementation.</p>\n</li>\n<li>\n<p><strong>AK3</strong> - Knowledge of Microsoft Windows, Linux or UNIX operating systems.</p>\n</li>\n<li>\n<p><strong>AK4 </strong>- Knowledge of data integration practices for Extract/Transform/Load (ETL), Enterprise Information (EII) and Enterprise Application Integration (EAI).</p>\n</li>\n</ul>\n<h3><strong><br>Organizational Needs:</strong></h3>\n<p>In support of achieving a diversified workforce, consideration may be given to candidates self-identifying as belonging to one of the following Employment Equity groups: Aboriginal peoples, Persons with a Disability; Visible Minorities, Women.</p>\n<p><strong><br>Conditions of Employment:</strong></p>\n<p>Security Requirement: Secret</p>\n<p>Other conditions of employment:</p>\n<p>Ability and willingness to work overtime.</p>\n<p>Ability and willingness to varied hours.</p>\n<p><strong><br>Applications:</strong></p>\n<p>Interested AAFC employees are encouraged to forward their resume and cover letter to Ryan Holm, <a href=\"mailto:Ryan.Holm@canada.ca\">Ryan.Holm@canada.ca</a>.</p>\n<p>Resumes must clearly identify:</p>\n<ul>\n<li>\n<p>Your tenure (e.g. term or indeterminate)</p>\n</li>\n<li>\n<p>Your substantive group and level</p>\n</li>\n</ul>\n<p><strong><br>Notes:</strong></p>\n<ul>\n<li>\n<p><strong>Communication for this process will be sent via email.</strong></p>\n</li>\n</ul>\n<p>\u00a0</p>\n",
        "fr": "\n<p><strong><br>Fonctions</strong></p>\n<p>L\u2019analyste de base de donn\u00e9es assume des fonctions li\u00e9es \u00e0 l\u2019administration des bases de donn\u00e9es, notamment :</p>\n<ul>\n<li>\n<p>fournir du soutien technique aux utilisateurs d\u2019applications de base de donn\u00e9es (personnalis\u00e9es et commerciales) fonctionnant sous Oracle ou un autre syst\u00e8me important de base de donn\u00e9es relationnelle;</p>\n</li>\n<li>\n<p>travailler avec divers logiciels pour fournir du soutien technique \u00e0 la client\u00e8le;</p>\n</li>\n<li>\n<p>maintenir la disponibilit\u00e9 des services et surveiller la performance des bases de donn\u00e9es;</p>\n</li>\n<li>\n<p>faire partie d\u2019\u00e9quipes de projets de technologie de l\u2019information (TI), constitu\u00e9es de personnel multidisciplinaire et principalement charg\u00e9es de l\u2019\u00e9laboration et de l\u2019administration des bases de donn\u00e9es.</p>\n</li>\n</ul>\n<p><strong><br>\u00c9nonc\u00e9 des crit\u00e8res de m\u00e9rite et conditions d\u2019emploi</strong></p>\n<p><strong><br>Qualifications essentielles</strong></p>\n<p><strong><br>\u00c9tudes</strong></p>\n<p>Avoir termin\u00e9 avec succ\u00e8s deux (2) ann\u00e9es d\u2019un programme d\u2019\u00e9tudes postsecondaires acceptable en informatique, en technologie de l\u2019information, en gestion de l\u2019information ou dans une autre sp\u00e9cialit\u00e9 li\u00e9e aux fonctions du poste \u00e0 pourvoir.</p>\n<p><strong><br>Exp\u00e9rience</strong></p>\n<ul>\n<li>\n<p><strong>E1 </strong>\u2013 Exp\u00e9rience appr\u00e9ciable et r\u00e9cente de l\u2019analyse des besoins, de la prestation de solutions ou de soutien technique dans un environnement de gestion de l\u2019information et de technologie de l\u2019information (GI-TI). Une exp\u00e9rience appr\u00e9ciable est d\u00e9finie comme un aspect important de vos activit\u00e9s professionnelles quotidiennes. Par exp\u00e9rience r\u00e9cente, on entend une exp\u00e9rience acquise au cours des deux derni\u00e8res ann\u00e9es.</p>\n</li>\n<li>\n<p><strong>E2 </strong>\u2013 Exp\u00e9rience de la d\u00e9termination et de l\u2019\u00e9valuation des besoins en GI-TI, de la fourniture de soutien et de conseils techniques en lien avec la GI-TI et de l\u2019encadrement de coll\u00e8gues ou de clients.</p>\n</li>\n<li>\n<p><strong>E3</strong> \u2013 Exp\u00e9rience de la pr\u00e9paration de documents techniques, par exemple des proc\u00e9dures, des guides d\u2019utilisation ou des \u00e9nonc\u00e9s des besoins en GI-TI.</p>\n</li>\n</ul>\n<p><strong><br>Connaissances</strong></p>\n<ul>\n<li>\n<p><strong>CO1 </strong>\u2013 Connaissance des normes, des politiques et des lignes directrices du gouvernement du Canada en mati\u00e8re de GI-TI.</p>\n</li>\n<li>\n<p><strong>CO2 </strong>\u2013 Connaissances des tendances, actuelles et nouvelles, du domaine de la GI-TI.</p>\n</li>\n<li>\n<p><strong>CO3 </strong>\u2013 Connaissance des principes, des processus, des outils et des techniques du gouvernement du Canada.</p>\n</li>\n<li>\n<p><strong>CO4 </strong>\u2013 Connaissances des concepts, des pratiques exemplaires et des techniques de gestion des services de TI (p. ex., la BITI).</p>\n</li>\n</ul>\n<p><strong><br>Comp\u00e9tences</strong></p>\n<p>Raisonnement analytique : Interpr\u00e9ter l\u2019information, l\u2019analyser et \u00e9tablir des liens pour comprendre les enjeux.</p>\n<p>Souci du service \u00e0 la client\u00e8le : D\u00e9finir et combler les besoins actuels et futurs des clients, assurer l\u2019excellence des services offerts aux clients internes et externes, et garantir \u00e0 tous un acc\u00e8s sans obstacle \u00e0 l\u2019information et aux services.</p>\n<p>Capacit\u00e9 \u00e0 communiquer : \u00catre attentif aux autres et communiquer d\u2019une fa\u00e7on efficace qui favorise un dialogue ouvert.</p>\n<p>Apprentissage continu : Tenir compte de ses forces et de ses faiblesses, des besoins en mati\u00e8re de perfectionnement ainsi que du contexte \u00e9volutif et prendre les mesures n\u00e9cessaires pour am\u00e9liorer son rendement et celui de l\u2019organisation.</p>\n<p>Souci d\u2019obtenir des r\u00e9sultats : Centrer ses efforts sur l\u2019obtention de r\u00e9sultats qui cadrent avec les objectifs de l\u2019organisation.</p>\n<p>Travail d\u2019\u00e9quipe : Travailler en collaboration avec les autres pour atteindre des objectifs communs et obtenir des r\u00e9sultats positifs.</p>\n<p><strong><br>Exigences linguistiques</strong></p>\n<p>Anglais essentiel</p>\n<p><strong><br>Qualifications constituant un atout</strong></p>\n<ul>\n<li>\n<p><strong>ETA1</strong> \u2013 Dipl\u00f4me d\u2019un programme de trois (3) ou quatre (4) ann\u00e9es, d\u00e9cern\u00e9 par un coll\u00e8ge ou une universit\u00e9 reconnu, avec sp\u00e9cialisation en informatique, en g\u00e9nie informatique ou dans toute autre discipline li\u00e9e au poste \u00e0 pourvoir.</p>\n</li>\n<li>\n<p><strong>ETA2</strong> \u2013 Attestation professionnelle en lien avec :</p>\n<ul style=\"list-style-type: circle;\">\n<li>\n<p>HP-UX;</p>\n</li>\n<li>\n<p>Linux</p>\n</li>\n<li>\n<p>Windows;</p>\n</li>\n<li>\n<p>le syst\u00e8me de gestion de bases de donn\u00e9es relationnelles (SGBDR) Oracle;</p>\n</li>\n<li>\n<p>Microsoft SQL Server.</p>\n</li>\n</ul>\n</li>\n<li>\n<p><strong>EXA1</strong> \u2013 Exp\u00e9rience r\u00e9cente de l\u2019analyse, de la conception, de la programmation et de la mise \u00e0 jour d\u2019applications informatiques au moyen de langages, de technologies ou d\u2019architectures de programmation comme :</p>\n<ul>\n<li>\n<p>le SGBDR Oracle, version 11g ou plus r\u00e9cente;</p>\n</li>\n<li>\n<p>le syst\u00e8me de gestion Microsoft SQL Server;</p>\n</li>\n<li>\n<p>le langage de programmation PL/SQL;</p>\n</li>\n<li>\n<p>l\u2019architecture d\u2019application \u00e0 n-niveaux;</p>\n</li>\n<li>\n<p>les outils de gestion des incidents, comme Vantive, Assyst ou la distribution automatique des appels (DAA);</p>\n</li>\n<li>\n<p>le logiciel de mod\u00e9lisation de donn\u00e9es Erwin;</p>\n</li>\n<li>\n<p>le recensement et la r\u00e9solution de probl\u00e8mes li\u00e9s au fonctionnement et \u00e0 la connectivit\u00e9 des applications minist\u00e9rielles;</p>\n</li>\n<li>\n<p>l\u2019administration de bases de donn\u00e9es ax\u00e9e sur la mise en \u0153uvre, l\u2019installation et la mise \u00e0 jour des logiciels propres au SGBDR Oracle et des outils connexes;</p>\n</li>\n<li>\n<p>un environnement infonuagique public ou priv\u00e9 (Azure, AWS, etc.);</p>\n</li>\n<li>\n<p>Kubernetes de Docker ou d\u2019autres technologies semblables;</p>\n</li>\n<li>\n<p>d\u2019autres technologies relationnelles ou non relationnelles de stockage de donn\u00e9es, par exemple Hadoop (Cloudera), MySQL, PostgreSQL ou NoSQL.</p>\n</li>\n</ul>\n</li>\n</ul>\n<ul>\n<li>\n<p><strong>EXA2</strong> \u2013 Exp\u00e9rience r\u00e9cente du soutien de l\u2019infrastructure op\u00e9rationnelle, dont les activit\u00e9s suivantes :</p>\n<ul style=\"list-style-type: circle;\">\n<li>\n<p>soutien du syst\u00e8me d\u2019exploitation des bases de donn\u00e9es Oracle.</p>\n</li>\n</ul>\n</li>\n<li>\n<p><strong>COA1 </strong>\u2013 Connaissance des concepts et des techniques de mod\u00e9lisation des donn\u00e9es ou de mise sur pied et de gestion de bases de donn\u00e9es.</p>\n</li>\n<li>\n<p><strong>COA2 </strong>\u2013 Connaissance des concepts de la prestation de service et du soutien dans les op\u00e9rations de TI, y compris des approches li\u00e9es \u00e0 leur mise en \u0153uvre.</p>\n</li>\n<li>\n<p><strong>COA3 </strong>\u2013 Connaissance des syst\u00e8mes d\u2019exploitation Windows, Linux et UNIX.</p>\n</li>\n<li>\n<p><strong>COA4 </strong>\u2013 Connaissance des pratiques d\u2019int\u00e9gration de donn\u00e9es ayant trait aux outils d\u2019extraction, de transformation et de chargement (ETL), \u00e0 l\u2019information d\u2019entreprise et aux applications d\u2019entreprise.</p>\n</li>\n</ul>\n<h3><strong><br>Besoins organisationnels</strong></h3>\n<p>Pour les besoins de la diversification de l\u2019effectif, la pr\u00e9f\u00e9rence pourrait \u00eatre accord\u00e9e aux personnes qui auront indiqu\u00e9 leur appartenance \u00e0 l\u2019un des groupes suivants, vis\u00e9s par l\u2019\u00e9quit\u00e9 en mati\u00e8re d\u2019emploi : Autochtones, membres d\u2019une minorit\u00e9 visible, femmes et personnes handicap\u00e9es.</p>\n<p><strong><br>Conditions d\u2019emploi</strong></p>\n<p>Cote de s\u00e9curit\u00e9 : Secret</p>\n<p>Autres conditions d\u2019emploi :</p>\n<ul>\n<li>\n<p>\u00eatre apte et dispos\u00e9 \u00e0 effectuer des heures suppl\u00e9mentaires;</p>\n</li>\n<li>\n<p>\u00eatre apte et dispos\u00e9 \u00e0 travailler selon un horaire variable.</p>\n</li>\n</ul>\n<p><strong><br>Candidatures</strong></p>\n<p>Les employ\u00e9s d\u2019AAC qui souhaitent poser leur candidature sont invit\u00e9s \u00e0 envoyer leur curriculum vitae, ainsi qu\u2019une lettre de pr\u00e9sentation, \u00e0 Ryan Holm (<a href=\"mailto:ryan.holm@canada.ca\">ryan.holm@canada.ca</a>).</p>\n<p>Dans leur curriculum vitae, les candidats doivent clairement indiquer :</p>\n<ul>\n<li>\n<p>la dur\u00e9e de leur emploi (d\u00e9termin\u00e9e ou ind\u00e9termin\u00e9e);</p>\n</li>\n<li>\n<p>leur groupe et leur niveau de titularisation.</p>\n</li>\n</ul>\n<p><strong><br>Nota</strong></p>\n<ul>\n<li>Toutes les communications relatives au processus de s\u00e9lection se feront par courriel.</li>\n</ul>\n<p>\u00a0</p>\n\n"
    },
    "breadcrumb": {
        "en": "Database Analyst, Database and Data Administration",
        "fr": "Analyste de base de donn\u00e9es \u2013 Administration de donn\u00e9es et de bases de donn\u00e9es"
    },
    "empl": {
        "type": {
            "en": "Acting, Assignment, Deployment",
            "fr": "Affectation, Int\u00e9rimaire, Mutation"
        },
        "classification": {
            "en": "CS-2",
            "fr": "CS-2"
        },
        "branch": {
            "en": "Information Systems Branch",
            "fr": "Direction g\u00e9n\u00e9rale des syst\u00e8mes d'information"
        },
        "locations": {
            "en": "Ottawa, ON or Winnipeg, MB",
            "fr": "Ottawa (Ontario) ou Winnipeg (Manitoba)"
        },
        "date_closing": {
            "en": "2020-01-06",
            "fr": "2020-01-06"
        },
        "open_to": {
            "en": "AAFC Employees occupying a position in the National Capital Region or Winnipeg",
            "fr": "Les employ\u00e9s d\u2019AAC occupant un poste dans la r\u00e9gion de la capitale nationale ou Winnipeg, Manitoba"
        },
        "name": {
            "en": "Ryan Holm",
            "fr": "Ryan Holm"
        },
        "email": {
            "en": "ryan.holm@canada.ca",
            "fr": "ryan.holm@canada.ca"
        }
    }
}