{
    "dcr_id": "1576528797050",
    "lang": "en",
    "title": {
        "en": "Analyst - Market Access Secretariat",
        "fr": "Analyste - Secr\u00e9tariat de l\u2019acc\u00e8s aux march\u00e9s"
    },
    "modified": "2020-01-06 00:00:00.0",
    "issued": "2019-12-17 00:00:00.0",
    "type_name": "intra-intra/empl-empl",
    "node_id": "1279029955397",
    "layout_name": null,
    "dc_date_created": "2019-12-17",
    "breadcrumb_label": "",
    "meta": {
        "issued": {
            "en": "2019-12-17",
            "fr": "2019-12-17"
        },
        "modified": {
            "en": "2020-01-06",
            "fr": "2020-01-06"
        },
        "format": {
            "en": "gcformat",
            "fr": "gcformat"
        },
        "title": {
            "en": "Analyst - Market Access Secretariat",
            "fr": "Analyste - Secr\u00e9tariat de l\u2019acc\u00e8s aux march\u00e9s"
        },
        "subject": {
            "en": "staffing",
            "fr": "dotation en personnel"
        },
        "language": {
            "en": "eng",
            "fr": "fra"
        },
        "audience": {
            "en": "gcaudience",
            "fr": "gcaudience"
        },
        "type": {
            "en": "notice",
            "fr": "avis"
        },
        "creator": {
            "en": "Agriculture and Agri-Food Canada",
            "fr": "Agriculture et Agroalimentaire Canada"
        },
        "spatial": {
            "en": "gcregions",
            "fr": "gcregions"
        },
        "service": {
            "en": "AAFC_AgriSource",
            "fr": "AAC_AgriSource"
        },
        "accessRights": {
            "en": "3",
            "fr": "3"
        }
    },
    "body": {
        "en": "\n<div>\n<div>\u00a0</div>\n</div>\n<div><strong>Duties:</strong><em> </em></div>\n<div>\u00a0</div>\n<div>The Market Access Secretariat (MAS) brings together the full continuum of the sector's international interests from identifying economic opportunities, gathering of market intelligence, to gaining and maintaining market access and developing markets to increase export sales of Canadian agriculture, agri-food and agri-based products. MAS is responsible for Canada\u2019s agriculture and agri-food bilateral relations with trading partners; the development and implementation of country-level strategies and the provision of oversight of all activities with an international component to ensure a coordinated and coherent engagement approach. MAS serves as a focal point for a whole- of-government approach to manage bilateral trade irritants and the implementation of bilateral trade agreements and to effectively and efficiently resolve agricultural market access issues that arise by working closely with other federal government partners as well as by working collaboratively with industry and the provinces and territories.\u00a0</div>\n<div><br>The officer is responsible for conducting international trade policy analysis on agriculture and agri-food issues, and developing appropriate responses/approaches. This involves working closely with a number of key players including portfolio colleagues, other government departments, Canadian embassies abroad and industry.</div>\n<div>\u00a0</div>\n<div><strong><br>Statement of Merit Criteria &amp; Conditions of Employment</strong></div>\n<div>\u00a0</div>\n<div><strong>Essential Qualifications</strong></div>\n<div>\u00a0</div>\n<div><strong>Education </strong></div>\n<div><br>Graduation with a degree from a recognized post-secondary institution with acceptable specialization in Economics, Sociology or Statistics.<br>\n<br>\nNote: Candidates must always have a university degree. The courses for the \nspecialization do not necessarily have to be part of a degree program in the \nrequired specialization. The specialization may also be obtained through an acceptable combination of education, training and/or experience.<br>\n<br>\n<strong>\u00a0</strong></div>\n<div><strong>Experience</strong></div>\n<div><br>Experience in researching, analyzing and drafting briefing notes, reports, presentations or documents for senior management* on complex or sensitive issues.<br>\n<br>\nExperience in developing and maintaining collaborative relationships with \ninternal and external stakeholders.<br>\n<br>\n*Senior management includes Director level and above.</div>\n<div>\u00a0</div>\n<div><strong><br>Competencies</strong></div>\n<div><br>Adaptability<br>\nStrategic Thinking<br>\nTeamwork</div>\n<div>Written and Oral Communication</div>\n<div>\u00a0</div>\n<div><strong><br>Language Requirement(s)</strong></div>\n<div><br>English Essential</div>\n<div>Bilingual Imperative BBB/BBB</div>\n<div>\u00a0</div>\n<h3><strong>Organizational Needs</strong></h3>\n<div>In support of achieving a diversified workforce, consideration may be given to candidates self-identifying as belonging to one of the following Employment Equity groups: Aboriginal peoples, Persons with a Disability; Visible Minorities, Women.</div>\n<div><strong>\u00a0</strong></div>\n<div><strong><br>Conditions of Employment</strong></div>\n<div>\u00a0</div>\n<div><strong>Security Requirement(s)</strong></div>\n<div><br>Secret</div>\n<div>\u00a0</div>\n<div><strong><br>Other conditions of employment</strong></div>\n<div><br>Willingness and ability to work overtime.</div>\n<div>Willingness and ability to travel domestically and internationally.</div>\n<div>\u00a0</div>\n<div><strong><br>Applications:\u00a0</strong></div>\n<div><br>Interested AAFC employees are encouraged to forward their resume and cover letter highlighting why you are the best candidate for this position to Nancy Hum at nancy.hum@canada.ca<em>.</em></div>\n<div>\u00a0</div>\n<div>Resumes must clearly identify:</div>\n<ul>\n<li>Your tenure (e.g. term or indeterminate)</li>\n<li>Your substantive group and level\u00a0</li>\n</ul>\n<div>\u00a0</div>\n<div><strong>Notes:\u00a0</strong></div>\n<ul>\n<li>Deployments cannot change the tenure of an employee (i.e: term to indeterminate) or constitute a promotion.</li>\n<li>Communication for this process will be sent via email.</li>\n<li>A pool of qualified candidates may be established and may be used to staff similar positions on an acting, assignment or deployment basis.</li>\n</ul>\n<div>\u00a0</div>\n",
        "fr": "\n<div>\n<div>\u00a0</div>\n</div>\n<div><strong>Responsabilit\u00e9s :</strong><em> </em></div>\n<div><br>Le Secr\u00e9tariat de l\u2019acc\u00e8s aux march\u00e9s (SAM) couvre toute la gamme des int\u00e9r\u00eats internationaux du secteur, y compris la d\u00e9termination des possibilit\u00e9s \u00e9conomiques, la collecte de l\u2019information commerciale, l\u2019obtention et le maintien de l\u2019acc\u00e8s aux march\u00e9s, et le d\u00e9veloppement des march\u00e9s dans le but d\u2019augmenter les ventes destin\u00e9es \u00e0 l\u2019exportation des produits agroindustriels, agroalimentaires et agricoles canadiens. Le SAM est responsable des relations bilat\u00e9rales entre le Canada et ses partenaires commerciaux \u00e0 l\u2019\u00e9gard de l\u2019agriculture et de l\u2019agroalimentaire, y compris de l\u2019\u00e9laboration et de la mise en \u0153uvre de strat\u00e9gies nationales, et de l\u2019assurance d\u2019une supervision de toutes les activit\u00e9s ayant une composante internationale afin d\u2019assurer une approche de participation coordonn\u00e9e et coh\u00e9rente. Le SAM est un point central de l\u2019approche pangouvernementale visant \u00e0 g\u00e9rer les diff\u00e9rends commerciaux bilat\u00e9raux et la mise en place d\u2019accords commerciaux bilat\u00e9raux, ainsi qu\u2019\u00e0 r\u00e9soudre de fa\u00e7on efficace et efficiente les probl\u00e8mes qui surviennent relativement \u00e0 l\u2019acc\u00e8s aux march\u00e9s agricoles, en travaillant \u00e9troitement avec les autres partenaires du gouvernement f\u00e9d\u00e9ral et en collaboration avec l\u2019industrie ainsi que les provinces et les territoires.</div>\n<div><br>L\u2019agent ou l\u2019agente est responsable de l\u2019analyse des politiques de commerce international en ce qui a trait aux enjeux agricoles et agroalimentaires et d\u2019\u00e9laborer des r\u00e9ponses et des approches appropri\u00e9es. Cela exige de travailler \u00e9troitement avec plusieurs partenaires cl\u00e9s, y compris les coll\u00e8gues du portefeuille, d\u2019autres minist\u00e8res, les ambassades canadiennes \u00e0 l\u2019\u00e9tranger et l\u2019industrie.</div>\n<div>\u00a0</div>\n<div><strong><br>\u00c9nonc\u00e9 des crit\u00e8res de m\u00e9rite et conditions d\u2019emploi\u00a0</strong></div>\n<div>\u00a0</div>\n<div><strong><br>Qualifications essentielles</strong></div>\n<div>\u00a0</div>\n<div><strong><br>\u00c9tudes</strong></div>\n<div><br>Un grade\u00a0par un \u00e9tablissement d\u2019enseignement postsecondaire reconnu avec une sp\u00e9cialisation acceptable en \u00e9conomie, en sociologie ou en statistique.<br>\n<br>\nRemarque : Les candidats doivent obligatoirement avoir un dipl\u00f4me universitaire. Il n\u2019est pas n\u00e9cessaire que les cours de sp\u00e9cialisation aient \u00e9t\u00e9 suivis dans le cadre d\u2019un programme menant \u00e0 l\u2019obtention d\u2019un dipl\u00f4me dans la sp\u00e9cialisation exig\u00e9e. Une combinaison acceptable d\u2019\u00e9tudes, de formation et/ou d\u2019exp\u00e9rience peut tenir lieu de sp\u00e9cialisation.<br>\n<br>\n<strong><br>Exp\u00e9rience</strong></div>\n<div><br>Exp\u00e9rience de la recherche, de l\u2019analyse et de la r\u00e9daction de notes d\u2019information, de rapports, de pr\u00e9sentations ou de documents destin\u00e9s \u00e0 la haute direction* concernant des dossiers complexes ou de nature d\u00e9licate.</div>\n<div>\nExp\u00e9rience de l\u2019\u00e9tablissement et du maintien de rapports de collaboration avec des intervenants internes et externes.</div>\n<div>\n*On entend par \u00ab haute direction \u00bb les titulaires de postes de directeur et de postes de niveaux sup\u00e9rieurs.\u00a0</div>\n<div>\u00a0</div>\n<div><strong><br>Comp\u00e9tences</strong></div>\n<div><br>Adaptabilit\u00e9</div>\n<div>\nR\u00e9flexion strat\u00e9gique</div>\n<div>\nEsprit d\u2019\u00e9quipe</div>\n<div>Communication \u00e9crite et orale</div>\n<div>\u00a0</div>\n<div><strong><br>Exigences linguistiques</strong></div>\n<div><br>Anglais essentiel</div>\n<div>Bilingue imp\u00e9ratif BBB/BBB</div>\n<div>\u00a0</div>\n<h3><strong>Besoins organisationnels</strong></h3>\n<div>Afin de se doter d\u2019un effectif diversifi\u00e9, une consid\u00e9ration particuli\u00e8re pourrait \u00eatre accord\u00e9e aux personnes qui d\u00e9clarent \u00eatre membres de l\u2019un des groupes suivants vis\u00e9s par l\u2019\u00e9quit\u00e9 en mati\u00e8re d\u2019emploi : les Autochtones, les personnes handicap\u00e9es, les minorit\u00e9s visibles et les femmes.</div>\n<div>\u00a0</div>\n<div><strong><br>Conditions d\u2019emploi</strong></div>\n<div>\u00a0</div>\n<div><strong>Exigences de s\u00e9curit\u00e9</strong></div>\n<div><br>Secret</div>\n<div>\u00a0</div>\n<div><strong><br>Autres conditions d\u2019emploi</strong></div>\n<div><br>Volont\u00e9 et capacit\u00e9 de travailler des heures suppl\u00e9mentaires.</div>\n<div>Volont\u00e9 et capacit\u00e9 de voyager au pays et \u00e0 l\u2019\u00e9tranger.</div>\n<div>\u00a0</div>\n<div><strong><br>Candidatures :\u00a0</strong></div>\n<div><br>Si vous travaillez pour AAC et que ce poste vous int\u00e9resse, nous vous invitons \u00e0 pr\u00e9parer un curriculum vitae et une lettre de pr\u00e9sentation qui d\u00e9crivent ce qui fait de vous le meilleur candidat ou la meilleure candidate pour ce poste et \u00e0 les envoyer \u00e0 Nancy Hum \u00e0 l\u2019adresse nancy.hum@canada.ca.</div>\n<div>\u00a0</div>\n<div>Votre curriculum vitae doit indiquer clairement :</div>\n<ul>\n<li>\n<div>votre dur\u00e9e d\u2019emploi (p. ex. p\u00e9riode d\u00e9termin\u00e9e ou ind\u00e9termin\u00e9e);</div>\n</li>\n<li>\n<div>le groupe et le niveau de votre poste d\u2019attache.</div>\n</li>\n</ul>\n<div>\u00a0</div>\n<div><strong>Remarques :</strong></div>\n<ul>\n<li>\n<div>Les mutations ne doivent pas entra\u00eener de modification \u00e0 la dur\u00e9e d\u2019emploi d\u2019un employ\u00e9 (p\u00e9riode d\u00e9termin\u00e9e ou ind\u00e9termin\u00e9e) ni constituer une promotion.</div>\n</li>\n<li>\n<div>Les communications relatives \u00e0 ce processus se feront par courriel.</div>\n</li>\n<li>\n<div>Un bassin de candidats qualifi\u00e9s pourrait \u00eatre \u00e9tabli et servir \u00e0 doter des postes semblables \u00e0 titre int\u00e9rimaire, d\u2019affectation ou de mutation au sein de notre organisation.</div>\n</li>\n</ul>\n<div>\u00a0</div>\n\n"
    },
    "breadcrumb": {
        "en": "Analyst - Market Access Secretariat",
        "fr": "Analyste - Secr\u00e9tariat de l\u2019acc\u00e8s aux march\u00e9s"
    },
    "empl": {
        "type": {
            "en": "Assignment, Deployment",
            "fr": "Affectation, Mutation"
        },
        "classification": {
            "en": "EC-5",
            "fr": "EC-5"
        },
        "branch": {
            "en": "Market and Industry Services Branch",
            "fr": "Direction g\u00e9n\u00e9rale des services \u00e0 l'industrie et aux march\u00e9s"
        },
        "locations": {
            "en": "National Capital Region (NCR)",
            "fr": "R\u00e9gion de la capitale nationale (RCN)"
        },
        "date_closing": {
            "en": "2020-01-10",
            "fr": "2020-01-10"
        },
        "open_to": {
            "en": "All AAFC Employees located in the NCR",
            "fr": "Tous les employ\u00e9s d\u2019AAC situ\u00e9s dans la RCN"
        },
        "name": {
            "en": "Nancy Hum",
            "fr": "Nancy Hum"
        },
        "email": {
            "en": "nancy.hum@canada.ca",
            "fr": "nancy.hum@canada.ca"
        }
    }
}