{
    "dcr_id": "1576270102539",
    "lang": "en",
    "title": {
        "en": "NCR - Where Did My Bike Racks Go?",
        "fr": "RCN - O\u00f9 mon support \u00e0 v\u00e9los est-il donc pass\u00e9?"
    },
    "modified": "2019-12-16 00:00:00.0",
    "issued": "2019-12-16 00:00:00.0",
    "type_name": "intra-intra/news-nouv",
    "node_id": "1279030006975",
    "layout_name": null,
    "dc_date_created": "2019-12-16",
    "breadcrumb_label": "",
    "meta": {
        "issued": {
            "en": "2019-12-16",
            "fr": "2019-12-16"
        },
        "modified": {
            "en": "2019-12-16",
            "fr": "2019-12-16"
        },
        "format": {
            "en": "gcformat",
            "fr": "gcformat"
        },
        "title": {
            "en": "NCR - Where Did My Bike Racks Go?",
            "fr": "RCN - O\u00f9 mon support \u00e0 v\u00e9los est-il donc pass\u00e9?"
        },
        "subject": {
            "en": "communications",
            "fr": "communications"
        },
        "description": {
            "en": "You may have noticed that the bike racks behind Tower 4 have been removed temporarily to make room for a construction waste bin.",
            "fr": "Vous avez peut-\u00eatre remarqu\u00e9 que le support \u00e0 v\u00e9los derri\u00e8re la tour 4 a \u00e9t\u00e9 enlev\u00e9 temporairement afin de faire de la place pour un conteneur \u00e0 d\u00e9chets de construction."
        },
        "language": {
            "en": "eng",
            "fr": "fra"
        },
        "audience": {
            "en": "gcaudience",
            "fr": "gcaudience"
        },
        "creator": {
            "en": "Agriculture and Agri-Food Canada",
            "fr": "Agriculture et Agroalimentaire Canada"
        },
        "spatial": {
            "en": "gcregions",
            "fr": "gcregions"
        },
        "service": {
            "en": "AAFC_AgriSource",
            "fr": "AAC_AgriSource"
        },
        "accessRights": {
            "en": "3",
            "fr": "3"
        }
    },
    "body": {
        "en": "<br>\n<br>\n<p>You may have noticed that the bike racks behind Tower 4 have been removed temporarily to make room for a construction waste bin. If you cycle to work, please use the bike cages behind Tower 5 and in the parkade. The bike racks will return in March 2020 after renovations to the Skyspan washrooms are complete.</p>\n<p>For details, see the <a href=\"pcdocs://AAFCAAC/105101098/1\">memo from Maple Leaf Property Management</a>. Please contact the National Service Call Centre at 1-800-463-1850 if you have any questions or concerns.</p>\n<p><img src=\"https://intranet.agr.gc.ca/resources/prod/news/images/MapleLeafProperty.png\" class=\"center-block\"></p>\n\n\t\t",
        "fr": "<br>\n<br>\n<p>Vous avez peut-\u00eatre remarqu\u00e9 que le support \u00e0 v\u00e9los derri\u00e8re la tour 4 a \u00e9t\u00e9 enlev\u00e9 temporairement afin de faire de la place pour un conteneur \u00e0 d\u00e9chets de construction. Si vous venez au travail \u00e0 v\u00e9lo, veuillez utiliser les enclos \u00e0 v\u00e9los situ\u00e9s derri\u00e8re la tour 5 et dans le stationnement \u00e0 plusieurs niveaux. Le support \u00e0 v\u00e9los sera de retour en mars 2020, une fois que les travaux de r\u00e9novation des toilettes du complexe Skyspan seront termin\u00e9s.</p>\n<p>Pour de plus amples renseignements, consultez <a href=\"pcdocs://AAFCAAC/105101098/1\">la note de service de Maple Leaf Property Management</a>. Veuillez communiquer avec le Centre national d\u2019appels de service au 1-800-463-1850 si vous avez des questions ou des pr\u00e9occupations \u00e0 ce sujet.</p>\n<p><img src=\"https://intranet.agr.gc.ca/resources/prod/news/images/MapleLeafProperty.png\" class=\"center-block\"></p>\n\t\t"
    },
    "breadcrumb": {
        "en": "NCR - Where Did My Bike Racks Go?",
        "fr": "RCN - O\u00f9 mon support \u00e0 v\u00e9los est-il donc pass\u00e9?"
    },
    "news": {
        "date_posted": {
            "en": "2019-12-16",
            "fr": "2019-12-16"
        },
        "to": {
            "en": "NCR only",
            "fr": "RCN seulement"
        },
        "by": {
            "en": "Maple Leaf Property Management",
            "fr": "Maple Leaf Property Management"
        }
    }
}