{
    "dcr_id": "1576771790392",
    "lang": "en",
    "title": {
        "en": "Holiday Message From the Minister",
        "fr": "Message de la ministre pour le temps des F\u00eates"
    },
    "modified": "2019-12-19 00:00:00.0",
    "issued": "2019-12-19 00:00:00.0",
    "type_name": "intra-intra/news-nouv",
    "node_id": "1279030006975",
    "layout_name": null,
    "dc_date_created": "2019-12-19",
    "breadcrumb_label": "",
    "meta": {
        "issued": {
            "en": "2019-12-19",
            "fr": "2019-12-19"
        },
        "modified": {
            "en": "2019-12-19",
            "fr": "2019-12-20"
        },
        "format": {
            "en": "gcformat",
            "fr": "gcformat"
        },
        "title": {
            "en": "Holiday Message From the Minister",
            "fr": "Message de la ministre pour le temps des F\u00eates"
        },
        "subject": {
            "en": "communications",
            "fr": "communications"
        },
        "description": {
            "en": "Warm wishes to everyone at Agriculture and Agri-Food Canada and across the Portfolio this holiday season.",
            "fr": "En ce temps des F\u00eates, j'aimerais offrir mes meilleurs v\u0153ux de bonheur et de succ\u00e8s \u00e0 tous les employ\u00e9s et \u00e0 toutes les employ\u00e9es d'Agriculture et Agroalimentaire Canada et de nos partenaires du minist\u00e8re."
        },
        "language": {
            "en": "eng",
            "fr": "fra"
        },
        "audience": {
            "en": "gcaudience",
            "fr": "gcaudience"
        },
        "creator": {
            "en": "Agriculture and Agri-Food Canada",
            "fr": "Agriculture et Agroalimentaire Canada"
        },
        "spatial": {
            "en": "gcregions",
            "fr": "gcregions"
        },
        "service": {
            "en": "AAFC_AgriSource",
            "fr": "AAC_AgriSource"
        },
        "accessRights": {
            "en": "3",
            "fr": "3"
        }
    },
    "body": {
        "en": "<br>\n<br>\n<p>Warm wishes to everyone at Agriculture and Agri-Food Canada and across the Portfolio this holiday season. I\u2019m so pleased to be part of your team, and proud of our work together serving farmers and the sector across our great nation.</p>\n<p>I wish to thank all of you for your hard work throughout the year \u2013 this includes new discoveries in our research fields and labs, helping open new markets through trade negotiations, launching the ground-breaking Food Policy for Canada, and working hard to ensure our programs continue to meet the needs of our farmers \u2013 to name just a few.</p>\n<p>I look forward to working with all of you to help the sector capture all the opportunities that lie ahead, as global demand grows for the kinds of food and agricultural products that Canadian farmers and food processors can deliver.</p>\n<p>So, as we gather to enjoy the holidays, I thank you for all you do to help our hardworking farm families continue to contribute to our economy and our future.\u00a0</p>\n<p>From everyone on my team and from my family to yours, I wish you happy holidays.</p>\n<p>\u00a0</p>\n<p><b>The Honourable Marie-Claude Bibeau, P.C., M.P.</b><br>Minister of Agriculture and Agri-Food</p>\n\n\t\t",
        "fr": "<br>\n<br>\n<p>En ce temps des F\u00eates, j\u2019aimerais offrir mes meilleurs v\u0153ux de bonheur et de succ\u00e8s \u00e0 tous les employ\u00e9s et \u00e0 toutes les employ\u00e9es d\u2019Agriculture et Agroalimentaire Canada et de nos partenaires du minist\u00e8re. Je suis tr\u00e8s heureuse de faire partie de votre \u00e9quipe et je suis fi\u00e8re de ce que nous faisons ensemble pour les productrices et producteurs agricoles partout dans notre beau grand pays.</p>\n<p>Je vous remercie tous pour votre travail acharn\u00e9 tout au long de l\u2019ann\u00e9e, que vous ayez fait de nouvelles d\u00e9couvertes sur le terrain ou en laboratoire, n\u00e9goci\u00e9 de nouveaux d\u00e9bouch\u00e9s commerciaux, contribu\u00e9 \u00e0 lancer la toute premi\u00e8re Politique alimentaire pour le Canada, travaill\u00e9 \u00e0 mieux adapter nos programmes aux besoins des producteurs ou bien d\u2019autres choses encore.</p>\n<p>J\u2019ai h\u00e2te de poursuivre notre collaboration pour aider le secteur \u00e0 saisir toutes les opportunit\u00e9s qui se dessinent \u00e0 l\u2019horizon. Partout dans le monde, les consommateurs redemandent des aliments de qualit\u00e9 que les producteurs et les transformateurs alimentaires canadiens peuvent offrir.</p>\n<p>En prenant place autour d\u2019un bon repas des F\u00eates en famille, j\u2019aurai une pens\u00e9e chaleureuse et reconnaissante pour vous. Merci pour tout ce que vous faites pour aider nos familles agricoles, qui travaillent si fort pour contribuer \u00e0 notre \u00e9conomie et \u00e0 notre avenir.</p>\n<p>De la part de toute mon \u00e9quipe et au nom de ma famille, je vous souhaite des F\u00eates merveilleuses.</p>\n<p>\u00a0</p>\n<p><b>L\u2019honorable Marie-Claude Bibeau, P.C., d\u00e9put\u00e9e</b><br>\nMinistre de l\u2019Agriculture et de l\u2019Agroalimentaire</p>\n\t\t"
    },
    "breadcrumb": {
        "en": "Holiday Message From the Minister",
        "fr": "Message de la ministre pour le temps des F\u00eates"
    },
    "news": {
        "date_posted": {
            "en": "2019-12-19",
            "fr": "2019-12-19"
        },
        "to": {
            "en": "All staff",
            "fr": "Tous les employ\u00e9s"
        },
        "by": {
            "en": "The Honourable Marie-Claude Bibeau, P.C., M.P., Minister of Agriculture and Agri-Food",
            "fr": "L\u2019honorable Marie-Claude Bibeau, P.C., d\u00e9put\u00e9e, Ministre de l\u2019Agriculture et de l\u2019Agroalimentaire"
        }
    }
}