{
    "dcr_id": "1577121226224",
    "lang": "en",
    "title": {
        "en": "Administrative Assistant",
        "fr": "Adjoint(e) administratif(ve)"
    },
    "modified": "2019-12-30 00:00:00.0",
    "issued": "2019-12-30 00:00:00.0",
    "type_name": "intra-intra/empl-empl",
    "node_id": "1279029955397",
    "layout_name": null,
    "dc_date_created": "2019-12-30",
    "breadcrumb_label": "",
    "meta": {
        "issued": {
            "en": "2019-12-30",
            "fr": "2019-12-30"
        },
        "modified": {
            "en": "2019-12-30",
            "fr": "2019-12-30"
        },
        "format": {
            "en": "gcformat",
            "fr": "gcformat"
        },
        "title": {
            "en": "Administrative Assistant",
            "fr": "Adjoint(e) administratif(ve)"
        },
        "subject": {
            "en": "staffing",
            "fr": "dotation en personnel"
        },
        "language": {
            "en": "eng",
            "fr": "fra"
        },
        "audience": {
            "en": "gcaudience",
            "fr": "gcaudience"
        },
        "type": {
            "en": "notice",
            "fr": "avis"
        },
        "creator": {
            "en": "Agriculture and Agri-Food Canada",
            "fr": "Agriculture et Agroalimentaire Canada"
        },
        "spatial": {
            "en": "gcregions",
            "fr": "gcregions"
        },
        "service": {
            "en": "AAFC_AgriSource",
            "fr": "AAC_AgriSource"
        },
        "accessRights": {
            "en": "3",
            "fr": "3"
        }
    },
    "body": {
        "en": "\n<p>This is a short term assignment or acting opportunity to gain experience in an Administrative Assistant position, to support a team of policy analysts who travel frequently and provide numerous briefing documents to Senior Management.</p>\n<h3><strong>Statement of Merit Criteria:</strong></h3>\n<h3><strong>Essential Qualifications:</strong></h3>\n<p><strong>Education </strong></p>\n<p>Secondary school diploma or an acceptable combination of education, training and/or experience.</p>\n<p><strong>Experience</strong></p>\n<p>Experience in using MS Office Software: Word, Excel, and Outlook.</p>\n<p>Experience in preparing and monitoring the following financial support services: invoices and expenditures.</p>\n<p><strong>Competencies</strong></p>\n<p>Initiative</p>\n<p>Planning and Organizing</p>\n<p>Adaptability</p>\n<p>Teamwork</p>\n<p><strong>Language Requirement </strong></p>\n<p>English Essential</p>\n<p><strong>Asset Qualifications</strong></p>\n<p>Experience in booking and organizing travel arrangements and completing travel expense claims forms (using for example, the HRG travel system).</p>\n<p>Experience in processing and tracking sensitive correspondence and/or dockets using a Tracking and Recording Correspondence System (e.g., CCM Mercury, TRECS).</p>\n<p>Experience in preparing and monitoring quarterly budget forecasts.</p>\n<h3><strong>Organizational Needs:</strong></h3>\n<p>In support of achieving a diversified workforce, consideration may be given to candidates self-identifying as belonging to one of the following Employment Equity groups: Aboriginal peoples, Persons with a Disability; Visible Minorities, Women.</p>\n<h3><strong>Conditions of Employment</strong><strong>:</strong></h3>\n<p>Security Requirement<em>: Secret Clearance</em></p>\n<p>Ability and willingness to work a standard 7.5 hour work day starting no earlier than 8:00 a.m. and finishing no later than 6:00 p.m.</p>\n<p>Ability and willingness to work overtime on short notice.</p>\n<h3><strong>Applications:</strong></h3>\n<p>Interested AAFC employees in the NCR occupying a substantive position at the CR-03, CR-04, CR-05, AS-01 or AS-02 level are encouraged to forward their resume and cover letter to Marie-No\u00eblle Desrochers, at marie-noelle.desrochers@canada.ca.</p>\n<p>Your cover letter must briefly describe how you meet the essential qualifications. Your resume must clearly identify your substantive group and level.</p>\n<h3><strong>Notes:</strong></h3>\n<ul>\n<li>This is a short term assignment at level or acting opportunity of approximately 3 months, with the possibility of extension.</li>\n<li>Candidates must have their manager\u2019s approval prior to applying for this opportunity.</li>\n<li>Communication for this process will be sent via email.</li>\n<li>Candidates may be assessed through an interview.</li>\n<li>Reference checks may be sought.</li>\n</ul>\n",
        "fr": "\n<p>Il s\u2019agit d\u2019une possibilit\u00e9 d\u2019affectation ou d\u2019int\u00e9rimaire \u00e0 court terme, permettant d\u2019obtenir de l\u2019exp\u00e9rience dans un poste d\u2019Adjoint(e) administratif(ve), en appuyant une \u00e9quipe d\u2019analystes des politiques qui voyagent fr\u00e9quemment et soumettent de nombreux documents d\u2019information \u00e0 la haute gestion.</p>\n<h3><strong>\u00c9nonc\u00e9 des crit\u00e8res de m\u00e9rite :</strong></h3>\n<h3><strong>Qualifications essentielles :</strong></h3>\n<p><strong>\u00c9ducation</strong></p>\n<p>Dipl\u00f4me d\u2019\u00e9tudes secondaires ou une combinaison acceptable d\u2019\u00e9tudes, de formation et/ou d\u2019exp\u00e9rience.</p>\n<p><strong>Exp\u00e9rience</strong></p>\n<p>Exp\u00e9rience de l\u2019utilisation des logiciels MS Office : Word, Excel et Outlook.</p>\n<p>Exp\u00e9rience de la pr\u00e9paration et du suivi des services de soutien financier suivants : factures et d\u00e9penses.</p>\n<p><strong>Comp\u00e9tences</strong></p>\n<p>Initiative</p>\n<p>Planification et organisation</p>\n<p>Facult\u00e9 d\u2019adaptation</p>\n<p>Esprit d\u2019\u00e9quipe</p>\n<p><strong>Exigences linguistiques</strong></p>\n<p>Anglais essentiel</p>\n<p><strong>Qualifications constituant un atout</strong></p>\n<p>Exp\u00e9rience de l\u2019organisation de voyages et de l\u2019\u00e9tablissement de demandes de remboursement de frais de voyage (au moyen, par exemple, du syst\u00e8me de gestion des voyages HRG).</p>\n<p>Exp\u00e9rience du traitement et du suivi de pi\u00e8ces de correspondance ou de dossiers de nature d\u00e9licate au moyen d'un syst\u00e8me de suivi et de rapports pour la correspondance (p.ex., CCM Mercury, SSRCHD).</p>\n<p>Exp\u00e9rience de la pr\u00e9paration et du suivi des pr\u00e9visions budg\u00e9taires trimestrielles.</p>\n<h3><strong>Besoins de l'organisation :</strong></h3>\n<p>Pour diversifier l\u2019effectif, on pourra examiner la candidature des personnes qui s\u2019identifient comme appartenant \u00e0 des groupes vis\u00e9s par l\u2019\u00e9quit\u00e9 en mati\u00e8re d\u2019emploi, soit les autochtones, les personnes handicap\u00e9es, les membres des minorit\u00e9s visibles et les femmes.</p>\n<h3><strong>Conditions d'emploi :</strong></h3>\n<p>Exigences de s\u00e9curit\u00e9<em>: </em>cote de s\u00e9curit\u00e9 secr\u00e8te</p>\n<p>\u00catre apte et dispos\u00e9 \u00e0 faire des journ\u00e9es de travail normales de 7,5 heures commen\u00e7ant au plus t\u00f4t \u00e0 8 h et se terminant au plus tard \u00e0 18 h.</p>\n<p>\u00catre apte et dispos\u00e9 \u00e0 faire des heures suppl\u00e9mentaires \u00e0 court pr\u00e9avis.</p>\n<h3><strong>Candidatures : </strong></h3>\n<p>Les employ\u00e9(e)s int\u00e9ress\u00e9s d\u2019AAC dans la RCN qui occupent un poste d'attache de niveau CR-03, CR-04, CR-05, AS-01 ou AS-02 sont invit\u00e9s \u00e0 envoyer leur curriculum vitae et une lettre d\u2019accompagnement \u00e0 Marie-No\u00eblle Desrochers, \u00e0 l\u2019adresse marie-noelle.desrochers@canada.ca.</p>\n<p>La lettre doit d\u00e9crire bri\u00e8vement comment vous r\u00e9pondez aux qualifications essentielles.</p>\n<p>Votre curriculum vitae doit clairement identifier le groupe et le niveau de votre poste d\u2019attache.</p>\n<h3><strong>Remarques :</strong></h3>\n<ul>\n<li>Il s\u2019agit d\u2019une possibilit\u00e9 d\u2019emploi int\u00e9rimaire ou d\u2019affectation \u00e0 court terme, d\u2019environ trois mois, avec la possibilit\u00e9 d\u2019une prolongation.</li>\n<li>Les candidat(e)s doivent obtenir l\u2019approbation de leur gestionnaire avant de poser leur candidature pour cette possibilit\u00e9 d\u2019emploi.</li>\n<li>Les communications relatives au processus de s\u00e9lection se feront par courriel.</li>\n<li>Les candidats peuvent \u00eatre \u00e9valu\u00e9s lors d\u2019une entrevue.</li>\n<li>Une v\u00e9rification des r\u00e9f\u00e9rences est possible.</li>\n</ul>\n\n"
    },
    "breadcrumb": {
        "en": "Administrative Assistant",
        "fr": "Adjoint(e) administratif(ve)"
    },
    "empl": {
        "type": {
            "en": "Assignment, Acting",
            "fr": "Affectation, Int\u00e9rimaire"
        },
        "classification": {
            "en": "AS-2",
            "fr": "AS-2"
        },
        "branch": {
            "en": "Market and Industry Services Branch",
            "fr": "Direction g\u00e9n\u00e9rale des services \u00e0 l'industrie et aux march\u00e9s"
        },
        "locations": {
            "en": "National Capital Region (NCR)",
            "fr": "R\u00e9gion de la capitale nationale (RCN)"
        },
        "date_closing": {
            "en": "2020-01-08",
            "fr": "2020-01-08"
        },
        "open_to": {
            "en": "AAFC employees in the NCR occupying a substantive position at the CR-03, CR-04, CR-05, AS-01 or AS-02 level",
            "fr": "Employ\u00e9(e)s d\u2019AAC dans la RCN qui occupent un poste d'attache de niveau CR-03, CR-04, CR-05, AS-01 ou AS-02"
        },
        "name": {
            "en": "Marie-No\u00eblle Desrochers",
            "fr": "Marie-No\u00eblle Desrochers"
        },
        "email": {
            "en": "marie-noelle.desrochers@canada.ca",
            "fr": "marie-noelle.desrochers@canada.ca"
        }
    }
}