{
    "dcr_id": "1577808732778",
    "lang": "en",
    "title": {
        "en": "Reminder - Invitation: Government Games - February 13",
        "fr": "Rappel - Invitation: Jeux du gouvernement - 13 f\u00e9vrier  "
    },
    "modified": "2020-01-08 00:00:00.0",
    "issued": "2019-12-31 00:00:00.0",
    "type_name": "intra-intra/news-nouv",
    "node_id": "1279030006975",
    "layout_name": null,
    "dc_date_created": "2019-12-31",
    "breadcrumb_label": "",
    "meta": {
        "issued": {
            "en": "2019-12-31",
            "fr": "2019-12-31"
        },
        "modified": {
            "en": "2020-01-08",
            "fr": "2020-01-08"
        },
        "format": {
            "en": "gcformat",
            "fr": "gcformat"
        },
        "title": {
            "en": "Reminder - Invitation: Government Games - February 13",
            "fr": "Rappel - Invitation: Jeux du gouvernement - 13 f\u00e9vrier  "
        },
        "subject": {
            "en": "communications",
            "fr": "communications"
        },
        "description": {
            "en": "The Government Games is an interdepartmental competition that promotes networking and collaboration to solve common issues that the public service is facing.",
            "fr": "Les Jeux du gouvernement sont une comp\u00e9tition interminist\u00e9rielle visant \u00e0 promouvoir le r\u00e9seautage et la collaboration pour r\u00e9soudre des probl\u00e8mes communs auxquels fait face la fonction publique."
        },
        "language": {
            "en": "eng",
            "fr": "fra"
        },
        "audience": {
            "en": "gcaudience",
            "fr": "gcaudience"
        },
        "creator": {
            "en": "Agriculture and Agri-Food Canada",
            "fr": "Agriculture et Agroalimentaire Canada"
        },
        "spatial": {
            "en": "gcregions",
            "fr": "gcregions"
        },
        "service": {
            "en": "AAFC_AgriSource",
            "fr": "AAC_AgriSource"
        },
        "accessRights": {
            "en": "3",
            "fr": "3"
        }
    },
    "body": {
        "en": "<br>\n<br>\n<p>We invite you to join Team AAFC for the first-ever Government Games!</p>\n<p>The Government Games is an interdepartmental competition that promotes networking and collaboration to solve common issues that the public service is facing. Employees from Agriculture and Agri-Food Canada, Fisheries and Oceans Canada, Canada Border Services Agency, and the Public Service Commission will compete by presenting innovative solutions to a panel of Deputy Minister and Assistant Deputy Minister judges.</p>\n<p>This is a great opportunity to connect and collaborate with colleagues from different departments to find creative solutions to government-wide concerns.</p>\n<p>Working in teams, participants will face challenges that involve:</p>\n<ul>\n<li><strong>Agile</strong>: Engaging new professionals in the Public Service</li>\n<li><strong>Inclusive</strong>: Leveraging intersectional perspectives to support government decision making</li>\n<li><strong>Equipped</strong>: Sustainability and innovation within the Government of Canada\u00a0</li>\n</ul>\n<p><strong>Date and time:</strong> February 13, 2020 | 8:15 a.m. to 5:00 p.m.<br>\n\t<strong>Location:</strong> 111 Sussex Drive, Ottawa</p>\n<p>To register or for more information, email the Young Professionals Network at <a href=\"mailto:aafc.ypn-rjp.aac@canada.ca\">aafc.ypn-rjp.aac@canada.ca</a>\u00a0by <strong>January 16</strong>.</p>\n<p>Please note, arrangements will be made for participants in the regions.</p>\n\n\t\t",
        "fr": "<br>\n<br>\n<p>Nous vous invitons \u00e0 vous joindre \u00e0 l'\u00e9quipe d'AAC pour les tout premiers Jeux du gouvernement!</p>\n<p>Les Jeux du gouvernement sont une comp\u00e9tition interminist\u00e9rielle visant \u00e0 promouvoir le r\u00e9seautage et la collaboration pour r\u00e9soudre des probl\u00e8mes communs auxquels fait face la fonction publique. Des employ\u00e9s d'Agriculture et Agroalimentaire Canada, de P\u00eaches et Oc\u00e9ans Canada, de l'Agence des services frontaliers du Canada et de la Commission de la fonction publique comp\u00e9titionneront en pr\u00e9sentant des solutions novatrices \u00e0 un jury compos\u00e9 de sous\u2011ministres et de sous-ministres adjoints.</p>\n<p>Il s'agit d'une excellente occasion de communiquer et de collaborer avec des coll\u00e8gues de divers minist\u00e8res pour trouver des solutions cr\u00e9atives aux pr\u00e9occupations pangouvernementales.</p>\n<p>Les participants travailleront en \u00e9quipe pour relever des d\u00e9fis li\u00e9s aux th\u00e8mes suivants :</p>\n<ul>\n<li><strong>Souple :</strong> Mobiliser les nouveaux professionnels dans la fonction publique</li>\n<li><strong>Inclusif :</strong> Tirer parti des perspectives intersectionnelles pour soutenir le processus d\u00e9cisionnel gouvernemental</li>\n<li><strong>Outill\u00e9 :</strong> Durabilit\u00e9 et innovation au sein du gouvernement du Canada\u00a0</li>\n</ul>\n<p>\n\t<strong>Date et heure :</strong> 13 f\u00e9vrier 2020 | 8 h 15 \u00e0 17 h<br>\n\t<strong>Lieu :</strong> 111, promenade Sussex, Ottawa (Ontario)</p>\n<p>Pour vous inscrire ou obtenir plus d'information, communiquez avec le R\u00e9seau des Jeunes Professionnels par courriel \u00e0 <a href=\"mailto:aafc.ypn-rjp.aac@canada.ca\">aafc.ypn-rjp.aac@canada.ca</a> d\u2019ici le\u00a016<strong> janvier</strong>.</p>\n<p>\nVeuillez noter que des dispositions seront prises pour les participants dans les r\u00e9gions.</p>\n\t\t"
    },
    "breadcrumb": {
        "en": "Reminder - Invitation: Government Games - February 13",
        "fr": "Rappel - Invitation: Jeux du gouvernement - 13 f\u00e9vrier"
    },
    "news": {
        "date_posted": {
            "en": "2020-01-02",
            "fr": "2020-01-02"
        },
        "to": {
            "en": "All staff",
            "fr": "Tous les employ\u00e9s"
        },
        "by": {
            "en": "Young Professionals Network",
            "fr": "R\u00e9seau des jeunes professionnels"
        }
    }
}