{
    "dcr_id": "1577135016724",
    "lang": "en",
    "title": {
        "en": "New Pension Contribution Rates for 2020",
        "fr": "Nouveaux taux de cotisation au r\u00e9gime de retraite pour 2020"
    },
    "modified": "2019-12-24 00:00:00.0",
    "issued": "2019-12-24 00:00:00.0",
    "type_name": "intra-intra/news-nouv",
    "node_id": "1279030006975",
    "layout_name": null,
    "dc_date_created": "2019-12-24",
    "breadcrumb_label": "",
    "meta": {
        "issued": {
            "en": "2019-12-24",
            "fr": "2019-12-24"
        },
        "modified": {
            "en": "2019-12-24",
            "fr": "2019-12-24"
        },
        "format": {
            "en": "gcformat",
            "fr": "gcformat"
        },
        "title": {
            "en": "New Pension Contribution Rates for 2020",
            "fr": "Nouveaux taux de cotisation au r\u00e9gime de retraite pour 2020"
        },
        "subject": {
            "en": "communications",
            "fr": "communications"
        },
        "description": {
            "en": "Effective January 1, 2020, contribution rates for the public service, the Canadian Armed Forces-Regular Force and the Royal Canadian Mounted Police pension plans will change.",
            "fr": "Les taux de cotisation changeront \u00e0 compter du 1er janvier 2020 pour les r\u00e9gimes de retraite de la fonction publique, des Forces arm\u00e9es canadiennes et de la Gendarmerie royale du Canada."
        },
        "language": {
            "en": "eng",
            "fr": "fra"
        },
        "audience": {
            "en": "gcaudience",
            "fr": "gcaudience"
        },
        "creator": {
            "en": "Agriculture and Agri-Food Canada",
            "fr": "Agriculture et Agroalimentaire Canada"
        },
        "spatial": {
            "en": "gcregions",
            "fr": "gcregions"
        },
        "service": {
            "en": "AAFC_AgriSource",
            "fr": "AAC_AgriSource"
        },
        "accessRights": {
            "en": "3",
            "fr": "3"
        }
    },
    "body": {
        "en": "<br>\n<br>\n<p>Effective January 1, 2020, <a href=\"https://www.canada.ca/en/treasury-board-secretariat/services/pension-plan/active-members/pension-contribution-rates-major-public-sector-pension-plans.html\">contribution rates</a> for the public service, the Canadian Armed Forces\u2013Regular Force and the Royal Canadian Mounted Police pension plans will change. These changes ensure the sustainability of the public sector pension plans.</p>\n\n\t\t",
        "fr": "<br>\n<br>\n<p>Les <a href=\"https://www.canada.ca/fr/secretariat-conseil-tresor/services/regime-retraite/participants-actifs/taux-cotisation-vigueur-principaux-regimes-retraite-secteur-publique.html\">taux de cotisation</a> changeront \u00e0 compter du 1er janvier 2020 pour les r\u00e9gimes de retraite de la fonction publique, des Forces arm\u00e9es canadiennes et de la Gendarmerie royale du Canada. Ces changements assurent la viabilit\u00e9 des r\u00e9gimes de retraite du secteur publique.</p>\n\t\t"
    },
    "breadcrumb": {
        "en": "New Pension Contribution Rates for 2020",
        "fr": "Nouveaux taux de cotisation au r\u00e9gime de retraite pour 2020"
    },
    "news": {
        "date_posted": {
            "en": "2019-12-24",
            "fr": "2019-12-24"
        },
        "to": {
            "en": "All staff",
            "fr": "Tous les employ\u00e9s"
        },
        "by": {
            "en": "Corporate Managment Branch",
            "fr": "Direction g\u00e9n\u00e9rale de la gestion int\u00e9gr\u00e9e"
        }
    }
}