{
    "dcr_id": "1578344937748",
    "lang": "en",
    "title": {
        "en": "Job Application 101: An Interactive Workshop - January 13",
        "fr": "Atelier interactif sur le processus de demande d\u2019emploi - 13 janvier"
    },
    "modified": "2020-01-09 00:00:00.0",
    "issued": "2020-01-09 00:00:00.0",
    "type_name": "intra-intra/news-nouv",
    "node_id": "1279030006975",
    "layout_name": null,
    "dc_date_created": "2020-01-07",
    "breadcrumb_label": "",
    "meta": {
        "issued": {
            "en": "2020-01-09",
            "fr": "2020-01-09"
        },
        "modified": {
            "en": "2020-01-09",
            "fr": "2020-01-09"
        },
        "format": {
            "en": "gcformat",
            "fr": "gcformat"
        },
        "title": {
            "en": "Job Application 101: An Interactive Workshop - January 13",
            "fr": "Atelier interactif sur le processus de demande d\u2019emploi - 13 janvier"
        },
        "subject": {
            "en": "communications",
            "fr": "communications"
        },
        "description": {
            "en": "Applying for jobs with the Government of Canada can sometimes be overwhelming. However, all it takes is time and practice to learn how to write a strong application.",
            "fr": "Faire une demande d'emploi au gouvernement du Canada peut parfois sembler fastidieux. Cependant, tout ce dont vous avez besoin, c'est d'un peu de temps et de pratique pour apprendre \u00e0 r\u00e9diger une demande efficace."
        },
        "language": {
            "en": "eng",
            "fr": "fra"
        },
        "audience": {
            "en": "gcaudience",
            "fr": "gcaudience"
        },
        "creator": {
            "en": "Agriculture and Agri-Food Canada",
            "fr": "Agriculture et Agroalimentaire Canada"
        },
        "spatial": {
            "en": "gcregions",
            "fr": "gcregions"
        },
        "service": {
            "en": "AAFC_AgriSource",
            "fr": "AAC_AgriSource"
        },
        "accessRights": {
            "en": "3",
            "fr": "3"
        }
    },
    "body": {
        "en": "<br>\n<br>\n<p>Applying for jobs with the Government of Canada can sometimes be overwhelming. However, all it takes is time and practice to learn how to write a strong application.</p>\n<p>The Student Panel of Representatives for Orientation, Unity and Training and the Young Professionals Network invite you to participate in a job application workshop led by representatives from AAFC\u2019s Human Resources team. This interactive session will focus on:</p>\n<ul>\n<li>Understanding a job poster</li>\n<li>How to effectively apply to jobs</li>\n<li>How to properly answer screening questions</li>\n</ul>\n<p>This event is open to all AAFC employees, including students, through videoconference and teleconference. In-person space is limited, so we encourage you to register as soon as possible.</p>\n<h2><strong>Event information</strong></h2>\n<p><strong>Date and time:</strong> January 13 | 1:30 am to 3:30 pm (ET)<br><strong>Language:</strong> English<br><strong>Location:</strong> NHCAP (T6-1-136) and Winnipeg (Training Room # 7-707 167 Lombard)<br><strong>Teleconference:</strong> 613-729-5408 or 1-855-470-7641, <strong>Meeting Room:</strong> 76137732934, <strong>PIN:</strong> 0008<br><strong>Videoconference:</strong> 76137732934, <strong>PIN:</strong> 0008</p>\n<p><strong>Registration:</strong> Register your attendance by completing the <a href=\"https://ms-collab.agr.gc.ca/personal/palamarr/Lists/Survey/overview.aspx\">Job Application 101 Registration Form</a>.</p>\n<p>Participants are encouraged to bring their laptops or notepads to the session.</p>\n<p>If you have any questions, please contact <a href=\"mailto:regina.palamar@canada.ca\">regina.palamar@canada.ca</a> or <a href=\"mailto:denis.begin2@canada.ca\">denis.begin2@canada.ca</a>.</p>\n<p><img src=\"https://intranet.agr.gc.ca/resources/prod/news/images/YPN-SPROUT-EN.png\" class=\"center-block\"></p>\n\n\t\t",
        "fr": "<br>\n<br>\n<p>Faire une demande d\u2019emploi au gouvernement du Canada peut parfois sembler fastidieux. Cependant, tout ce dont vous avez besoin, c\u2019est d\u2019un peu de temps et de pratique pour apprendre \u00e0 r\u00e9diger une demande efficace.</p>\n<p>Le Programme de l\u2019orientation, de l\u2019unit\u00e9 et de la sensibilisation des stagiaires et \u00e9tudiants et le R\u00e9seau des jeunes professionnels vous invite \u00e0 prendre part \u00e0 un atelier sur le processus de demande d\u2019emploi qui sera dirig\u00e9 par des repr\u00e9sentants de l\u2019\u00e9quipe des RH d\u2019AAC. La s\u00e9ance interactive comprendra les \u00e9l\u00e9ments suivants :</p>\n<ul>\n<li>comprendre une offre d\u2019emploi;</li>\n<li>comment postuler des emplois;</li>\n<li>comment r\u00e9pondre correctement aux questions de pr\u00e9s\u00e9lection.</li>\n</ul>\n<p>Cette activit\u00e9 est offerte \u00e0 tous les employ\u00e9s d\u2019AAC, y compris les \u00e9tudiants, par vid\u00e9oconf\u00e9rence et par t\u00e9l\u00e9conf\u00e9rence. Le nombre de places \u00e9tant limit\u00e9, nous vous recommandons de vous inscrire le plus rapidement possible.</p>\n<h2><strong>Renseignements sur l\u2019activit\u00e9</strong></h2>\n<p><strong>Date et heure </strong>: Le 13 janvier, de\u00a013 h 30\u00a0\u00e0 15 h 30\u00a0(HE)<br><strong>Langue</strong> : Anglais<br><strong>Lieu </strong>: CACPA (T6-1-136) et Winnipeg (Salle de formation # 7-707 167 Lombard)<br><strong>T\u00e9l\u00e9conf\u00e9rence </strong>: 613-729-5408 ou 1-855-470-7641; <strong>salle de r\u00e9union </strong>: 76137732934, <strong>NIP :</strong> 0008<br><strong>Vid\u00e9oconf\u00e9rence </strong>: 76137732934, <strong>NIP</strong> <strong>:</strong> 0008</p>\n<p><strong>Inscription </strong>: Pour participer, inscrivez-vous en remplissant le <a href=\"https://ms-collab.agr.gc.ca/personal/palamarr/Lists/Survey/overview.aspx\">formulaire d\u2019inscription</a> \u00e0 l\u2019atelier sur le processus de demande d\u2019emploi<em>.</em></p>\n<p>On invite les participants \u00e0 se pr\u00e9senter \u00e0 la s\u00e9ance avec leur portable ou leur bloc-notes.</p>\n<p>Pour toutes questions, veuillez communiquer avec <a href=\"mailto:regina.palamar@canada.ca\">regina.palamar@canada.ca</a> ou <a href=\"mailto:denis.begin2@canada.ca\">denis.begin2@canada.ca</a>.</p>\n<p><img src=\"https://intranet.agr.gc.ca/resources/prod/news/images/YPN-SPROUT-FR.png\" class=\"center-block\"></p>\n\t\t"
    },
    "breadcrumb": {
        "en": "Job Application 101: An Interactive Workshop - January 13",
        "fr": "Atelier interactif sur le processus de demande d\u2019emploi - 13 janvier"
    },
    "news": {
        "date_posted": {
            "en": "2020-01-09",
            "fr": "2020-01-09"
        },
        "to": {
            "en": "All staff",
            "fr": "Tous les employ\u00e9s"
        },
        "by": {
            "en": "Student Panel of Representatives for Orientation, Unity and Training and the Young Professionals Network",
            "fr": "Programme de l\u2019orientation, de l\u2019unit\u00e9 et de la sensibilisation des stagiaires et \u00e9tudiants et le R\u00e9seau des jeunes professionnels"
        }
    }
}