{
    "dcr_id": "1579014806379",
    "lang": "en",
    "title": {
        "en": "Agricultural Research Policy, Horticulture and More: January Additions to the Canadian Agriculture Library",
        "fr": "Politique sur la recherche agricole, horticulture et autres sujets : Ajouts de janvier \u00e0 la collection de la Biblioth\u00e8que canadienne de l\u2019agriculture"
    },
    "modified": "2020-01-16 00:00:00.0",
    "issued": "2020-01-16 00:00:00.0",
    "type_name": "intra-intra/news-nouv",
    "node_id": "1279030006975",
    "layout_name": null,
    "dc_date_created": "2020-01-14",
    "breadcrumb_label": "",
    "meta": {
        "issued": {
            "en": "2020-01-16",
            "fr": "2020-01-16"
        },
        "modified": {
            "en": "2020-01-16",
            "fr": "2020-01-16"
        },
        "format": {
            "en": "gcformat",
            "fr": "gcformat"
        },
        "title": {
            "en": "Agricultural Research Policy, Horticulture and More: January Additions to the Canadian Agriculture Library",
            "fr": "Politique sur la recherche agricole, horticulture et autres sujets : Ajouts de janvier \u00e0 la collection de la Biblioth\u00e8que canadienne de l\u2019agriculture"
        },
        "subject": {
            "en": "communications",
            "fr": "communications"
        },
        "description": {
            "en": "Stay warm, and find something great to read in the list of the new January titles from the Canadian Agriculture Library (CAL) collection.",
            "fr": "Restez bien au chaud et trouvez quelque chose d'int\u00e9ressant \u00e0 lire dans la liste des nouveaux titres de janvier de la collection de la Biblioth\u00e8que canadienne de l'agriculture (BCA)."
        },
        "language": {
            "en": "eng",
            "fr": "fra"
        },
        "audience": {
            "en": "gcaudience",
            "fr": "gcaudience"
        },
        "creator": {
            "en": "Agriculture and Agri-Food Canada",
            "fr": "Agriculture et Agroalimentaire Canada"
        },
        "spatial": {
            "en": "gcregions",
            "fr": "gcregions"
        },
        "service": {
            "en": "AAFC_AgriSource",
            "fr": "AAC_AgriSource"
        },
        "accessRights": {
            "en": "3",
            "fr": "3"
        }
    },
    "body": {
        "en": "<br>\n<br>\n<p>It\u2019s January and winter is in full swing. Stay warm, and find something great to read in the list of the <a href=\"https://collab.agr.gc.ca/co/lis-sib/_layouts/15/DocIdRedir.aspx?ID=AGR-8262307\">new January titles</a> from the<a href=\"https://fsl-bsf.scitech.gc.ca/eng/intranet/home/\"> Canadian Agriculture Library</a> (CAL) collection. Topics covered include:</p>\n<ul>\n<li>Personal and Professional Development</li>\n<li>Overview of the Canadian agricultural innovation system</li>\n<li>Agricultural research policy</li>\n<li>Horticulture and soilless cultivation</li>\n<li>Insect evolution</li>\n<li>Animal nutrition and feed technology</li>\n</ul>\n<p>Access the electronic content from your desktop by clicking on links found in the list, or submit a request to borrow physical items.</p>\n<p>For more information, contact CAL at: <a href=\"mailto:aafc.cal-bca.aac@canada.ca\">aafc.cal-bca.aac@canada.ca</a>.</p>\n<p><img src=\"https://intranet.agr.gc.ca/resources/prod/news/images/CALbanner-EN.png\" class=\"center-block\"></p>\n<p>\u00a0</p>\n\n\t\t",
        "fr": "<br>\n<br>\n<p>C\u2019est janvier et l\u2019hiver bat son plein. Restez bien au chaud et trouvez quelque chose d\u2019int\u00e9ressant \u00e0 lire dans la liste des <a href=\"https://collab.agr.gc.ca/co/lis-sib/_layouts/15/DocIdRedir.aspx?ID=AGR-8262306\">nouveaux titres de janvier</a> de la collection de la <a href=\"https://fsl-bsf.scitech.gc.ca/fra/intranet/accueil/\">Biblioth\u00e8que canadienne de l'agriculture</a> (BCA). Les sujets trait\u00e9s comprennent les suivants :</p>\n<ul>\n<li>Perfectionnement personnel et professionnel</li>\n<li>Aper\u00e7u du syst\u00e8me d\u2019innovation agricole canadien</li>\n<li>Politique sur la recherche agricole</li>\n<li>Horticulture et culture sans sol</li>\n<li>\u00c9volution des insectes</li>\n<li>Nutrition et technologie d\u2019alimentation des animaux</li>\n</ul>\n<p>Vous pouvez avoir acc\u00e8s au contenu \u00e9lectronique \u00e0 partir de votre ordinateur de bureau en cliquant sur les liens qui se trouvent dans la liste, ou en soumettant une demande pour emprunter des ouvrages imprim\u00e9s.</p>\n<p>Pour de plus amples renseignements, communiquez avec la BCA par courriel \u00e0 <a href=\"mailto:aafc.cal-bca.aac@canada.ca\">aafc.cal-bca.aac@canada.ca</a>.</p>\n<p><img src=\"https://intranet.agr.gc.ca/resources/prod/news/images/CALbanniere-FR.png\" class=\"center-block\"></p>\n\t\t"
    },
    "breadcrumb": {
        "en": "Agricultural Research Policy, Horticulture and More: January Additions to the Canadian Agriculture Library",
        "fr": "Politique sur la recherche agricole, horticulture et autres sujets : Ajouts de janvier \u00e0 la collection de la Biblioth\u00e8que canadienne de l\u2019agriculture"
    },
    "news": {
        "date_posted": {
            "en": "2020-01-16",
            "fr": "2020-01-16"
        },
        "to": {
            "en": "All staff",
            "fr": "Tous les employ\u00e9s"
        },
        "by": {
            "en": "Canadian Agriculture Library",
            "fr": "Biblioth\u00e8que canadienne de l\u2019agriculture"
        }
    }
}