{
    "dcr_id": "1579710588356",
    "lang": "en",
    "title": {
        "en": "January Issue of <em>This Month in Pay</em> Now Available",
        "fr": "Le num\u00e9ro de janvier de <em>Bulletin mensuel sur la paye</em>"
    },
    "modified": "2020-01-23 00:00:00.0",
    "issued": "2020-01-22 00:00:00.0",
    "type_name": "intra-intra/news-nouv",
    "node_id": "1279030006975",
    "layout_name": null,
    "dc_date_created": "2020-01-22",
    "breadcrumb_label": "January Issue of This Month in Pay Now Available",
    "meta": {
        "issued": {
            "en": "2020-01-22",
            "fr": "2020-01-22"
        },
        "modified": {
            "en": "2020-01-23",
            "fr": "2020-01-22"
        },
        "format": {
            "en": "gcformat",
            "fr": "gcformat"
        },
        "title": {
            "en": "January Issue of <em>This Month in Pay</em> Now Available",
            "fr": "Le num\u00e9ro de janvier de <em>Bulletin mensuel sur la paye</em>"
        },
        "subject": {
            "en": "communications",
            "fr": "communications"
        },
        "description": {
            "en": "The January issue of <em>This Month in Pay</em> is now available\u2014bringing you the latest news on your pay, benefit entitlements, and Phoenix.",
            "fr": "Le num\u00e9ro de janvier de Bulletin mensuel sur la paye est maintenant disponible. Il vous donne les derni\u00e8res nouvelles sur la paye, les avantages sociaux et le syst\u00e8me Ph\u00e9nix."
        },
        "language": {
            "en": "eng",
            "fr": "fra"
        },
        "audience": {
            "en": "gcaudience",
            "fr": "gcaudience"
        },
        "creator": {
            "en": "Agriculture and Agri-Food Canada",
            "fr": "Agriculture et Agroalimentaire Canada"
        },
        "spatial": {
            "en": "gcregions",
            "fr": "gcregions"
        },
        "service": {
            "en": "AAFC_AgriSource",
            "fr": "AAC_AgriSource"
        },
        "accessRights": {
            "en": "3",
            "fr": "3"
        }
    },
    "body": {
        "en": "<br>\n<br>\n<p>The January issue of <i><a href=\"http://intranet.agr.gc.ca/agrisource/eng/human-resources/pay-benefits-and-phoenix/this-month-in-pay?id=1574773026999\">This Month in Pay</a></i><strong><i><em> </em></i></strong>is now available\u2014bringing you the latest news on your pay, benefit entitlements, and Phoenix.</p>\n<p>In this issue:</p>\n<ul>\n<li>Reducing the backlog of pay cases</li>\n<li>2019 tax season resources</li>\n<li>View your personalized employment details on MyGCPay</li>\n<li>Leave for casual workers and terms less than 3 months</li>\n<li>Question of the Month</li>\n</ul>\n<p>I encourage you to share your feedback. Please contact the Editor (<a href=\"mailto:randi@saunders@canada.ca\">randi.saunders@canada.ca</a>)\u00a0with your comments and ideas. For your convenience, this bulletin is available in a <a href=\"http://intranet.agr.gc.ca/resources/prod/pdf/hrb_dgrh/tmip_jan2020-eng.pdf\">printable PDF</a>.</p>\n<p>\u00a0</p>\n<p><strong>Christine Walker<br></strong>Assistant Deputy Minister<br>Corporate Management Branch</p>\n<p><img src=\"https://intranet.agr.gc.ca/resources/prod/news/images/PayBulletin-EN.png\" class=\"center-block\"></p>\n\n\t\t",
        "fr": "<br>\n<br>\n<p>Le num\u00e9ro de janvier de <i><a href=\"http://intranet.agr.gc.ca/agrisource/fra/ressources-humaines/remuneration-avantages-sociaux-et-phenix/bulletin-mensuel-sur-la-paye?id=1574773026999\">Bulletin mensuel sur la paye</a></i> est maintenant disponible. Il vous donne les derni\u00e8res nouvelles sur la paye, les avantages sociaux et le syst\u00e8me Ph\u00e9nix.</p>\n<p>Dans ce num\u00e9ro :</p>\n<ul>\n<li>La reduction de l\u2019arri\u00e9r\u00e9 de cas</li>\n<li>Ressources pour la p\u00e9riode de d\u00e9claration des revenus de 2019</li>\n<li>Voir les donn\u00e9es d\u2019emploi personnalis\u00e9es en utilisant l\u2019application MaPayeGC</li>\n<li>Les cong\u00e9s pour les employ\u00e9s occasionnels et les employ\u00e9s nomm\u00e9s pour une p\u00e9riode d\u00e9termin\u00e9e inf\u00e9rieure \u00e0 trois mois</li>\n<li>Question du mois</li>\n</ul>\n<p>Je vous invite \u00e0 faire part de vos commentaires et de vos id\u00e9es en communiquant avec la r\u00e9dactrice (<a href=\"mailto:randi.saunders@canada.ca\">randi.saunders@canada.ca</a>). Pour votre convenance, ce bulletin est disponible en <a href=\"http://intranet.agr.gc.ca/resources/prod/pdf/hrb_dgrh/tmip_jan2020-fra.pdf\">PDF imprimable</a>.</p>\n<p>\u00a0</p>\n<p><strong>Christine Walker<br></strong>Sous-ministre adjointe<br>Direction g\u00e9n\u00e9rale de la gestion int\u00e9gr\u00e9e</p>\n<p><img src=\"https://intranet.agr.gc.ca/resources/prod/news/images/PayBulletin-FR.png\" class=\"center-block\"></p>\n\t\t"
    },
    "breadcrumb": {
        "en": "January Issue of This Month in Pay Now Available",
        "fr": "Le num\u00e9ro de janvier de Bulletin mensuel sur la paye"
    },
    "news": {
        "date_posted": {
            "en": "2020-01-23",
            "fr": "2020-01-23"
        },
        "to": {
            "en": "All staff",
            "fr": "Tous les employ\u00e9s"
        },
        "by": {
            "en": "Corporate Management Branch",
            "fr": "Direction g\u00e9n\u00e9rale de la gestion int\u00e9gr\u00e9e"
        }
    }
}