{
    "dcr_id": "1579722959575",
    "lang": "en",
    "title": {
        "en": "Make Analytics Work For You: Data Conference 2020 - February 13-14",
        "fr": "Tirer profit de l'analytique : Conf\u00e9rence sur les donn\u00e9es 2020, les 13 et 14 f\u00e9vrier"
    },
    "modified": "2020-01-30 00:00:00.0",
    "issued": "2020-01-30 00:00:00.0",
    "type_name": "intra-intra/news-nouv",
    "node_id": "1279030006975",
    "layout_name": null,
    "dc_date_created": "2020-01-24",
    "breadcrumb_label": "",
    "meta": {
        "issued": {
            "en": "2020-01-30",
            "fr": "2020-01-30"
        },
        "modified": {
            "en": "2020-01-30",
            "fr": "2020-01-30"
        },
        "format": {
            "en": "gcformat",
            "fr": "gcformat"
        },
        "title": {
            "en": "Make Analytics Work For You: Data Conference 2020 - February 13-14",
            "fr": "Tirer profit de l'analytique : Conf\u00e9rence sur les donn\u00e9es 2020, les 13 et 14 f\u00e9vrier"
        },
        "subject": {
            "en": "communications",
            "fr": "communications"
        },
        "description": {
            "en": "Want to solve your data-driven business challenges or get the scoop on the latest analytics tools?",
            "fr": "Vous souhaitez r\u00e9soudre vos probl\u00e8mes relatifs aux donn\u00e9es ou obtenir des informations sur les derniers outils analytiques?"
        },
        "language": {
            "en": "eng",
            "fr": "fra"
        },
        "audience": {
            "en": "gcaudience",
            "fr": "gcaudience"
        },
        "creator": {
            "en": "Agriculture and Agri-Food Canada",
            "fr": "Agriculture et Agroalimentaire Canada"
        },
        "spatial": {
            "en": "gcregions",
            "fr": "gcregions"
        },
        "service": {
            "en": "AAFC_AgriSource",
            "fr": "AAC_AgriSource"
        },
        "accessRights": {
            "en": "3",
            "fr": "3"
        }
    },
    "body": {
        "en": "<br>\n<br>\n<p>Want to solve your data-driven business challenges or get the scoop on the latest analytics tools? Then get together with data leaders from across the Public Service to discuss the use of advanced analytics and artificial intelligence in government. Participate in the Government of Canada Data Conference 2020, organized by the Canada School of Public Service and National Defence.</p>\n<p>The conference\u2014including workshops, panels, and open discussions\u2014is open to data specialists and data novices. It will focus on:\u00a0</p>\n<ul>\n<li><strong>Data foundations</strong>: learn about the foundational elemetns needed to work with data and data related areas</li>\n<li><strong>Data application</strong>: get to know the way that data scientists and other end-users (i.e., subject matter experts) interact with data\n</li>\n<li>\n\t<strong>Data security</strong>: learn how to protect and transmit digital information</li>\n<li><strong>Government data as a service: </strong>how can we reorganize the work of government so that we can deliver better public service by making data a shared asset\u00a0</li>\n</ul>\n<p>Keynote speakers will include:</p>\n<ul>\n<li>Ian Shugart, Clerk of the Privy Council</li>\n<li>Hillary Hartley, Deputy Minister, Ontario Digital Government</li>\n<li>Jim Balsillie, Founder of Centre for International Governance Innovation</li>\n</ul>\n<h2><strong>Event information</strong></h2>\n<p><strong>Date and time:</strong>\u00a0February 13-14 | 8:30 a.m. to 5:00 p.m. (ET)<br>\n<strong>Language:</strong> Bilingual with interpretation in both official languages<br>\n<strong>Location:</strong> Shaw Centre, 55 Colonel By Drive, Ottawa, ON<br>\n<strong>Registration: </strong></p>\n<p>Please note that seating is limited and will be available on a first-come-first-served basis.</p>\n<p>Register for the in-person or webcast session on the conference web page.\u00a0</p>\n<p>For more information, visit the <a href=\"https://www.csps-efpc.gc.ca/events/data-conference-2020/index-eng.aspx\">conference web page</a> or <a href=\"mailto:contact%20bonnie.wang@canada.ca\">contact bonnie.wang@canada.ca</a>.</p>\n<p><img src=\"https://intranet.agr.gc.ca/resources/prod/news/images/DataConf2020-EN.png\" class=\"center-block\"></p>\n\n\t\t",
        "fr": "<br>\n<br>\n<p>Vous souhaitez r\u00e9soudre vos probl\u00e8mes relatifs aux donn\u00e9es ou obtenir des informations sur les derniers outils analytiques? Alors joignez-vous \u00e0 des responsables des donn\u00e9es provenant de toute la fonction publique pour discuter de l\u2019utilisation de l\u2019analytique avanc\u00e9e et de l\u2019intelligence artificielle au sein du gouvernement. Participez \u00e0 la Conf\u00e9rence sur les donn\u00e9es 2020 du gouvernement du Canada, organis\u00e9e par l\u2019\u00c9cole de la fonction publique du Canada et la D\u00e9fense nationale.</p>\n<p>Compos\u00e9e d\u2019ateliers, de panels et de discussions ouvertes, la conf\u00e9rence s\u2019adresse aux sp\u00e9cialistes des donn\u00e9es ainsi qu\u2019aux novices en la mati\u00e8re. Elle sera ax\u00e9e sur :\u00a0</p>\n<ul>\n<li><strong>Les fondements des donn\u00e9es</strong> : apprenez les \u00e9l\u00e9ments de base pour pouvoir travailler avec les donn\u00e9es et les domaines li\u00e9s aux donn\u00e9es</li>\n<li><strong>L\u2019application des donn\u00e9es</strong> : apprenez la mani\u00e8re dont les scientifiques et d\u2019autres utilisateurs finaux (p. ex., experts en la mati\u00e8re) interagissent avec les donn\u00e9es\n</li>\n<li>\n\t<strong>La s\u00e9curit\u00e9 des donn\u00e9es</strong> : apprenez comment prot\u00e9ger et transmettre l\u2019information num\u00e9rique</li>\n<li><strong>Les donn\u00e9es gouvernementales en tant que service</strong> : comment r\u00e9organiser le travail du gouvernement pour offrir de meilleurs services publics en faisant des donn\u00e9es des actifs partag\u00e9s\u00a0</li>\n</ul>\n<p>\nLes conf\u00e9renciers comprendront notamment :</p>\n<ul>\n<li>Ian Shugart, greffier du Conseil priv\u00e9</li>\n<li>Hillary Hartley, directrice du num\u00e9rique, sous\u2011ministre, gouvernement de l\u2019Ontario</li>\n<li>Jim Balsillie, fondateur du Centre pour l\u2019innovation dans la gouvernance internationale</li>\n</ul>\n<h2><strong>Renseignements sur l\u2019activit\u00e9</strong></h2>\n<p><strong>Date et heure :</strong> 13-14 f\u00e9vrier | de 8 h 30 \u00e0 17 h (HE)<br>\n<strong>Langues :</strong> Bilingue avec interpr\u00e9tation dans les deux langues officielles<br>\n<strong>Lieu :</strong> Shaw Centre, 55, prom. Colonel By, Ottawa (Ont.)<br>\n<strong>Inscription : </strong>Les places sont limit\u00e9es et seront attribu\u00e9es selon le principe du premier arriv\u00e9, premier servi.</p>\n<p>Inscrivez-vous \u00e0 la s\u00e9ance en personne ou \u00e0 la webdiffusion sur la page Web de la conf\u00e9rence.</p>\n<p>Pour en savoir plus, consultez la <a href=\"https://www.csps-efpc.gc.ca/events/data-conference-2020/index-fra.aspx\">page Web de la conf\u00e9rence</a> ou communiquez avec <a href=\"mailto:bonnie.wang@canada.ca\">bonnie.wang@canada.ca</a>.</p>\n<p><img src=\"https://intranet.agr.gc.ca/resources/prod/news/images/DataConf2020-FR.png\" class=\"center-block\"></p>\n\t\t"
    },
    "breadcrumb": {
        "en": "Make Analytics Work For You: Data Conference 2020 - February 13-14",
        "fr": "Tirer profit de l'analytique : Conf\u00e9rence sur les donn\u00e9es 2020, les 13 et 14 f\u00e9vrier"
    },
    "news": {
        "date_posted": {
            "en": "2020-01-30",
            "fr": "2020-01-30"
        },
        "to": {
            "en": "All staff",
            "fr": "Tous les employ\u00e9s"
        },
        "by": {
            "en": "Strategic Policy Branch",
            "fr": "Direction g\u00e9n\u00e9rale des politiques strat\u00e9giques"
        }
    }
}