{
    "dcr_id": "1580758316150",
    "lang": "en",
    "title": {
        "en": "Security Awareness Week - February 10 to 14",
        "fr": "Semaine de sensibilisation \u00e0 la s\u00e9curit\u00e9 : du 10 au 14 f\u00e9vrier"
    },
    "modified": "2020-02-06 00:00:00.0",
    "issued": "2020-02-06 00:00:00.0",
    "type_name": "intra-intra/news-nouv",
    "node_id": "1279030006975",
    "layout_name": null,
    "dc_date_created": "2020-02-03",
    "breadcrumb_label": "",
    "meta": {
        "issued": {
            "en": "2020-02-06",
            "fr": "2020-02-06"
        },
        "modified": {
            "en": "2020-02-06",
            "fr": "2020-02-06"
        },
        "format": {
            "en": "gcformat",
            "fr": "gcformat"
        },
        "title": {
            "en": "Security Awareness Week - February 10 to 14",
            "fr": "Semaine de sensibilisation \u00e0 la s\u00e9curit\u00e9 : du 10 au 14 f\u00e9vrier"
        },
        "subject": {
            "en": "communications",
            "fr": "communications"
        },
        "description": {
            "en": "Security Awareness Week (SAW) has become an increasingly significant government-wide initiative, reminding everyone of the importance of thinking about security in our daily activities.",
            "fr": "La Semaine de sensibilisation \u00e0 la s\u00e9curit\u00e9 (SSS) est une initiative pangouvernementale qui prend de plus en plus d'importance et qui nous rappelle l'importance de ne pas oublier la s\u00e9curit\u00e9 dans nos activit\u00e9s quotidiennes."
        },
        "language": {
            "en": "eng",
            "fr": "fra"
        },
        "audience": {
            "en": "gcaudience",
            "fr": "gcaudience"
        },
        "creator": {
            "en": "Agriculture and Agri-Food Canada",
            "fr": "Agriculture et Agroalimentaire Canada"
        },
        "spatial": {
            "en": "gcregions",
            "fr": "gcregions"
        },
        "service": {
            "en": "AAFC_AgriSource",
            "fr": "AAC_AgriSource"
        },
        "accessRights": {
            "en": "3",
            "fr": "3"
        }
    },
    "body": {
        "en": "<br>\n<br>\n<p>Security Awareness Week (SAW) has become an increasingly significant government-wide initiative, reminding everyone of the importance of thinking about security in our daily activities. SAW will be held across the federal government from February 10 to 14. This year\u2019s theme is <strong>Security: Every day, Everywhere!</strong></p>\n<p>During SAW, all employees are encouraged to become more familiar with the security practices established for their workplace. By doing this, employees can contribute to building a safe and secure work environment that serves to protect employees, information, and assets.</p>\n<h2><strong>How can I participate?</strong></h2>\n<ul>\n<li>Increase your awareness of potential security issues while having fun with a <a href=\"https://intranet.agr.gc.ca/agrisource/AgriDoc.do?id=105160324&amp;lang=eng\" target=\"_blank\">security crossword</a>\u00a0(Word) and <a href=\"https://intranet.agr.gc.ca/agrisource/AgriDoc.do?id=105160335&amp;lang=eng\" target=\"_blank\">security trivia</a>\u00a0(PPT). </li>\n<li>Brush up on security practices by completing the mandatory <a href=\"http://intranet.agr.gc.ca/agrisource/eng/human-resources/learning-and-development/training/employees/security-awareness-agr-620?id=1325695839878\">security awareness training</a> online if you haven\u2019t already done so.</li>\n<li>Read the <a href=\"http://intranet.agr.gc.ca/agrisource/eng/branches-and-offices/corporate-management-branch/services/office-of-emergency-management-business-continuity-planning?id=1570644168915\">Departmental Emergency Response Plan</a> to learn about AAFC\u2019s roles and responsibilities during an emergency.</li>\n</ul>\n<p><strong>Additional resources</strong></p>\n<ul>\n<li><a href=\"http://intranet.agr.gc.ca/agrisource/eng/human-resources/learning-and-development/training/employees/security-awareness-a230?id=1523285530838\">Canada School of Public Service's A230 security awareness training</a></li>\n<li><a href=\"http://intranet.agr.gc.ca/agrisource/eng/branches-and-offices/corporate-management-branch/services/departmental-security-services/security-awareness?id=1376586640212\">Security Awareness Learning Resources</a></li>\n<li><a href=\"http://intranet.agr.gc.ca/agrisource/eng/branches-and-offices/corporate-management-branch/services/departmental-security-services?id=1330360312384\">Departmental Security Services</a></li>\n<li><a href=\"https://collab.agr.gc.ca/co/dss-ssm/SitePages/Home.aspx\">Departmental Security Services Knowledge Workspace page</a></li>\n</ul>\n<p>\u00a0</p>\n\n\t\t",
        "fr": "<br>\n<br>\n<p>La Semaine de sensibilisation \u00e0 la s\u00e9curit\u00e9 (SSS) est une initiative pangouvernementale qui prend de plus en plus d\u2019importance et qui nous rappelle l\u2019importance de ne pas oublier la s\u00e9curit\u00e9 dans nos activit\u00e9s quotidiennes. La SSS sera soulign\u00e9e par l\u2019ensemble du gouvernement f\u00e9d\u00e9ral du 10 au 14 f\u00e9vrier. Le th\u00e8me cette ann\u00e9e est <strong>La s\u00e9curit\u00e9 : tous les jours, partout</strong>!</p>\n<p>Au cours de la SSS, tous les employ\u00e9s sont encourag\u00e9s \u00e0 se familiariser avec les pratiques de s\u00e9curit\u00e9 \u00e9tablies dans leur milieu de travail. Ce faisant, les employ\u00e9s contribueront \u00e0 la cr\u00e9ation d\u2019un milieu de travail sain et s\u00e9curitaire qui favorise la protection des employ\u00e9s, des renseignements et des biens.</p>\n<h2><strong>Comment participer?</strong></h2>\n<ul>\n<li>Am\u00e9liorez votre connaissance des probl\u00e8mes de s\u00e9curit\u00e9 potentiels tout en vous amusant avec des\u00a0<a href=\"https://intranet.agr.gc.ca/agrisource/AgriDoc.do?id=105160326&amp;lang=fra\" target=\"_blank\">mots crois\u00e9s sur la s\u00e9curit\u00e9</a> (Word) et <a href=\"https://intranet.agr.gc.ca/agrisource/AgriDoc.do?id=105160343&amp;lang=fra\" target=\"_blank\">un jeu-questionnaire sur la s\u00e9curit\u00e9</a>\u00a0(PPT).</li>\n<li>Rafra\u00eechissez vos connaissances sur les pratiques de s\u00e9curit\u00e9 en suivant <a href=\"http://intranet.agr.gc.ca/agrisource/fra/ressources-humaines/apprentissage-et-perfectionnement/formation/employes/sensibilisation-a-la-securite-agr-620?id=1325695839878\">la formation obligatoire de sensibilisation \u00e0 la s\u00e9curit\u00e9</a> en ligne si ce n\u2019est pas d\u00e9j\u00e0 fait.</li>\n<li>Consultez le <a href=\"http://intranet.agr.gc.ca/agrisource/fra/directions-generales-et-bureaux/direction-generale-de-la-gestion-integree/services/bureau-de-la-gestion-des-mesures-durgence-et-de-la-planification-des-activites?id=1570644168915\">Plan minist\u00e9riel d\u2019intervention en cas d\u2019urgence</a> pour en savoir plus sur les r\u00f4les et les responsabilit\u00e9s d\u2019AAC en cas d\u2019urgence.</li>\n</ul>\n<h2><strong>Ressources suppl\u00e9mentaires</strong></h2>\n<ul>\n<li><a href=\"http://intranet.agr.gc.ca/agrisource/fra/ressources-humaines/apprentissage-et-perfectionnement/formation/employes/sensibilisation-a-la-securite-a230?id=1523285530838\">Formation sur la sensibilisation \u00e0 la s\u00e9curit\u00e9 A230 de l\u2019\u00c9cole de la fonction publique du Canada</a></li>\n<li><a href=\"http://intranet.agr.gc.ca/agrisource/fra/directions-generales-et-bureaux/direction-generale-de-la-gestion-integree/services/services-de-securite-ministeriels/la-sensibilisation-a-la-securite?id=1376586640212\">Ressources d\u2019apprentissage sur la sensibilisation \u00e0 la s\u00e9curit\u00e9</a></li>\n<li><a href=\"http://intranet.agr.gc.ca/agrisource/fra/directions-generales-et-bureaux/direction-generale-de-la-gestion-integree/services/services-de-securite-ministeriels?id=1330360312384\">Services de s\u00e9curit\u00e9 minist\u00e9riels</a></li>\n<li><a href=\"https://collab.agr.gc.ca/co/dss-ssm/SitePages/Home.aspx\">Espace de travail du savoir des Services de s\u00e9curit\u00e9 minist\u00e9riels</a></li>\n</ul>\n\t\t"
    },
    "breadcrumb": {
        "en": "Security Awareness Week - February 10 to 14",
        "fr": "Semaine de sensibilisation \u00e0 la s\u00e9curit\u00e9 : du 10 au 14 f\u00e9vrier"
    },
    "news": {
        "date_posted": {
            "en": "2020-02-06",
            "fr": "2020-02-06"
        },
        "to": {
            "en": "Other regions (not NCR)",
            "fr": "R\u00e9gions autres que la RCN"
        },
        "by": {
            "en": "Departmental Security Services, Corporate Management Branch",
            "fr": "Services de s\u00e9curit\u00e9 minist\u00e9riels, Direction g\u00e9n\u00e9rale de la gestion int\u00e9gr\u00e9e"
        }
    }
}