{
    "dcr_id": "1580851770525",
    "lang": "en",
    "title": {
        "en": "Cut Through the Clutter: Resources for Writing in a More Accessible Way",
        "fr": "\u00c9liminer les \u00e9l\u00e9ments inutiles : Ressources pour r\u00e9diger de fa\u00e7on plus accessible "
    },
    "modified": "2020-02-06 00:00:00.0",
    "issued": "2020-02-06 00:00:00.0",
    "type_name": "intra-intra/news-nouv",
    "node_id": "1279030006975",
    "layout_name": null,
    "dc_date_created": "2020-02-05",
    "breadcrumb_label": "",
    "meta": {
        "issued": {
            "en": "2020-02-06",
            "fr": "2020-02-06"
        },
        "modified": {
            "en": "2020-02-06",
            "fr": "2020-02-06"
        },
        "format": {
            "en": "gcformat",
            "fr": "gcformat"
        },
        "title": {
            "en": "Cut Through the Clutter: Resources for Writing in a More Accessible Way",
            "fr": "\u00c9liminer les \u00e9l\u00e9ments inutiles : Ressources pour r\u00e9diger de fa\u00e7on plus accessible "
        },
        "subject": {
            "en": "communications",
            "fr": "communications"
        },
        "description": {
            "en": "Need help writing a briefing note, a report or an email?",
            "fr": "Vous avez besoin d'aide pour r\u00e9diger une note d'information, un rapport ou un courriel?"
        },
        "language": {
            "en": "eng",
            "fr": "fra"
        },
        "audience": {
            "en": "gcaudience",
            "fr": "gcaudience"
        },
        "creator": {
            "en": "Agriculture and Agri-Food Canada",
            "fr": "Agriculture et Agroalimentaire Canada"
        },
        "spatial": {
            "en": "gcregions",
            "fr": "gcregions"
        },
        "service": {
            "en": "AAFC_AgriSource",
            "fr": "AAC_AgriSource"
        },
        "accessRights": {
            "en": "3",
            "fr": "3"
        }
    },
    "body": {
        "en": "<br>\n<br>\n<p>Need help writing a briefing note, a report or an email? We\u2019ve all been there. You\u2019ve been asked to write a document that summarizes complex information, and you\u2019ve got a tight deadline. Or maybe you wrote something and were told it needs to be less wordy or bureaucratic.</p>\n<p>In many cases, using jargon that is specific to your work or understood by your colleagues is perfectly fine \u2013 but sometimes it\u2019s not. Writing in plain language allows you to\u00a0make your content more accessible to people\u00a0who are outside your inner circle, or who don\u2019t necessarily know the ins and outs of your business.</p>\n<p>To help you with this, the Public Affairs Branch has developed a <a href=\"http://intranet.agr.gc.ca/agrisource/eng/branches-and-offices/public-affairs-branch/translation-and-revision-services/why-we-need-to-write-in-plain-language?id=1580484497779\">portal on Agrisource</a> where you can access the following resources:</p>\n<ul>\n<li>Quick tips on plain language best practices</li>\n<li>A summary guide for writing briefing notes</li>\n<li>AAFC\u2019s Correspondence Style Guide</li>\n<li>And more!</li>\n</ul>\n<p>These resources will help you better connect with your readers and get your message across more clearly and efficiently.</p>\n<p>If you have any questions, or have ideas on other resources that could help \u2013 please contact Alec Nicholls, Director General, Communication Services, at <a href=\"mailto:alec.nicholls@canada.ca\">alec.nicholls@canada.ca</a>.</p>\n\n\t\t",
        "fr": "<br>\n<br>\n<p>Vous avez besoin d\u2019aide pour r\u00e9diger une note d\u2019information, un rapport ou un courriel? Nous sommes tous pass\u00e9s par l\u00e0. On vous a demand\u00e9 de r\u00e9diger un document r\u00e9sumant des renseignements complexes dans un d\u00e9lai serr\u00e9. Ou peut-\u00eatre que vous avez r\u00e9dig\u00e9 un texte quelconque et qu\u2019on vous a dit qu\u2019il devait \u00eatre moins verbeux ou moins bureaucratique.</p>\n<p>Il est justifi\u00e9 d\u2019utiliser un jargon propre \u00e0 votre travail ou \u00e0 la port\u00e9e de vos coll\u00e8gues dans bien des cas, mais pas tout le temps. La r\u00e9daction en langage clair vous permet de rendre le contenu de votre communication plus accessible aux  personnes qui sont \u00e0 l\u2019ext\u00e9rieur de votre cercle d\u2019initi\u00e9s ou qui ne connaissent pas n\u00e9cessairement les tenants et les aboutissants de votre travail.</p>\n<p>Pour vous aider, la Direction g\u00e9n\u00e9rale des affaires publiques a cr\u00e9\u00e9 un <a href=\"http://intranet.agr.gc.ca/agrisource/fra/directions-generales-et-bureaux/direction-generale-des-affaires-publiques/service-de-traduction-et-de-revision/pourquoi-faut-il-ecrire-en-langage-clair?id=1580484497779\">portail sur AgriSource</a> o\u00f9 vous pouvez avoir acc\u00e8s aux ressources suivantes :</p>\n<ul>\n<li>Conseils pratiques sur les pratiques exemplaires en mati\u00e8re de langage clair</li>\n<li>Guide sommaire pour la r\u00e9daction de notes d\u2019information</li>\n<li>Guide de style pour la correspondance d\u2019AAC</li>\n<li>Et plus encore!</li>\n</ul>\n<p>Ces ressources vous aideront \u00e0 mieux communiquer avec vos lecteurs et \u00e0 faire passer vos messages plus clairement et plus efficacement.</p>\n<p>Si vous avez des questions, ou des id\u00e9es sur d\u2019autres ressources qui pourraient \u00eatre utiles, veuillez communiquer avec Alec Nicholls, Directeur g\u00e9n\u00e9ral, Services des communications, \u00e0 <a href=\"mailto:alec.nicholls@canada.ca\">alec.nicholls@canada.ca</a>.</p>\n\t\t"
    },
    "breadcrumb": {
        "en": "Cut Through the Clutter: Resources for Writing in a More Accessible Way",
        "fr": "\u00c9liminer les \u00e9l\u00e9ments inutiles : Ressources pour r\u00e9diger de fa\u00e7on plus accessible"
    },
    "news": {
        "date_posted": {
            "en": "2020-02-06",
            "fr": "2020-02-06"
        },
        "to": {
            "en": "All staff",
            "fr": "Tous les employ\u00e9s"
        },
        "by": {
            "en": "Public Affairs Branch",
            "fr": "Direction g\u00e9n\u00e9rale des affaires publiques"
        }
    }
}