{
    "dcr_id": "1580398650418",
    "lang": "en",
    "title": {
        "en": "Senior Policy Analyst, Supply Management and Livestock Policy Division",
        "fr": "Analyste des politiques \u2013 Politiques sur la gestion de l\u2019offre et le b\u00e9tail"
    },
    "modified": "2020-01-30 00:00:00.0",
    "issued": "2020-01-30 00:00:00.0",
    "type_name": "intra-intra/empl-empl",
    "node_id": "1279029955397",
    "layout_name": null,
    "dc_date_created": "2020-01-30",
    "breadcrumb_label": "",
    "meta": {
        "issued": {
            "en": "2020-01-30",
            "fr": "2020-01-30"
        },
        "modified": {
            "en": "2020-01-30",
            "fr": "2020-01-30"
        },
        "format": {
            "en": "gcformat",
            "fr": "gcformat"
        },
        "title": {
            "en": "Senior Policy Analyst, Supply Management and Livestock Policy Division",
            "fr": "Analyste des politiques \u2013 Politiques sur la gestion de l\u2019offre et le b\u00e9tail"
        },
        "subject": {
            "en": "staffing",
            "fr": "dotation en personnel"
        },
        "language": {
            "en": "eng",
            "fr": "fra"
        },
        "audience": {
            "en": "gcaudience",
            "fr": "gcaudience"
        },
        "type": {
            "en": "notice",
            "fr": "avis"
        },
        "creator": {
            "en": "Agriculture and Agri-Food Canada",
            "fr": "Agriculture et Agroalimentaire Canada"
        },
        "spatial": {
            "en": "gcregions",
            "fr": "gcregions"
        },
        "service": {
            "en": "AAFC_AgriSource",
            "fr": "AAC_AgriSource"
        },
        "accessRights": {
            "en": "3",
            "fr": "3"
        }
    },
    "body": {
        "en": "\n<p>\u00a0</p>\n<p>Employees at the EC-06 or CO-02 level are invited to express their interest in a deployment or assignment at the EC-06 level within the Supply Management and Livestock Policy (SMLP) Division, Policy Development Analysis and Directorate (PDAD) in the Strategic Policy Branch.</p>\n<p>The SMLP team is responsible for the overarching policy framework that guides the supply management system and supports the livestock industry in Canada. Policy analysis work in supply management and livestock will involve working with members of the Portfolio stakeholders, and commodity boards, as well as conducting analysis of the five sectors operating under a supply management regime, and the export oriented animal industries. Current priorities of the team include leading policy analysis and development for compensation to supply managed sectors for the impacts of trade agreements and key issues such as African Swine Fever for the pork industry.</p>\n<p>We are looking for motivated individuals with strong analytical, strategic, research, and writing skills to work as a Policy Analyst. The Policy Analyst within SMLP will be responsible for policy development work which includes research and analysis to support decision-making.</p>\n<h2><strong><br>Statement of Merit Criteria: </strong></h2>\n<h3><strong><br>Essential Qualifications</strong></h3>\n<p><strong><br>Language:</strong> Various, Preference for Bilingual imperative BBB/BBB or CBC/CBC<strong> </strong></p>\n<p><strong><br>Education:</strong></p>\n<ul>\n<li>Graduation with a degree from a recognized post-secondary institution with acceptable specialization in economics, sociology or statistics.</li>\n<li>Candidates must have a degree. The courses for the specialization must be acceptable and may have been taken at a recognized post-secondary institution, but not necessarily within a degree program in the required specialization. The specialization may also be obtained through an acceptable combination of education, training and/or experience.</li>\n</ul>\n<p><strong><br>Experience:</strong></p>\n<ul>\n<li>Experience in one or more of the following areas: strategic planning, policy analysis, market analysis, sociological analysis, economic analysis.</li>\n<li>Experience preparing research and analysis.</li>\n<li>Experience reporting and presenting research or analysis findings.</li>\n<li>Experience participating on projects and/or working groups.</li>\n</ul>\n<p><strong><br>Knowledge:</strong><br>\nKnowledge of economic, or sociological or statistical principles, practices, techniques, tools and/or methods.</p>\n<p><strong><br>Competencies:</strong></p>\n<ul>\n<li>Analytical Thinking</li>\n<li>Interactive Communication</li>\n<li>Writing Skills</li>\n<li>Teamwork</li>\n<li>Initiative</li>\n<li>Adaptability</li>\n<li>Judgment</li>\n</ul>\n<h3><strong><br>Asset Qualifications :</strong></h3>\n<ul>\n<li>Masters or post-graduate degree from a recognized university in a field which is relevant for the position including, but not limited to environmental economics, science, agriculture economics, international or regional or sectoral development in rural or co-operative development, international trade or natural resources economics.</li>\n<li>Knowledge of the policy development process and policy development and analysis tools and methods.</li>\n</ul>\n<p><br>\n<strong>Conditions of Employment:</strong><br>\nSecurity: Secret clearance is required.</p>\n<p><strong><br>Operational Requirements:</strong></p>\n<ul>\n<li>Ability and willingness to work overtime on short notice.</li>\n<li>Ability and willingness to travel.</li>\n</ul>\n<p><strong><br>Organizational Needs:</strong><br>\nIn support of achieving a diversified workforce, consideration may be given to candidates self-identifying as belonging to one of the following Employment Equity groups: Aboriginal peoples, Persons with a Disability; Visible Minorities, Women.</p>\n<p>\u00a0</p>\n<p><strong>Applications: </strong><br>\nInterested AAFC employees are encouraged to forward their resume and a short (maximum 2-pages) cover letter to Julie Levert at julie.levert@canada.ca by February 14, 2020 with the following information:</p>\n<p>\u2022 Your tenure (e.g., term or indeterminate);</p>\n<p>\u2022 Your substantive group and level;</p>\n<p>\u2022 Your language levels; and</p>\n<p>\u2022 Why you are interested, what you would bring to the team and why you would be a good fit</p>\n<p>\u00a0</p>\n",
        "fr": "\n<p>\u00a0</p>\n<p>Les employ\u00e9s d\u2019Agriculture et Agroalimentaire Canada (AAC) occupant un poste de groupe et niveau EC-06 ou CO-02 sont invit\u00e9s \u00e0 faire part de leur int\u00e9r\u00eat pour une possibilit\u00e9 de mutation ou une affectation au niveau EC-06 \u00e0 la Division des politiques sur la gestion de l\u2019offre et le b\u00e9tail (DPGOB), Direction de l\u2019\u00e9laboration et de l\u2019analyse des politiques (DEAP), Direction g\u00e9n\u00e9rale des politiques strat\u00e9giques (DGPS).</p>\n<p>L\u2019\u00e9quipe de la DPGOB est responsable du vaste cadre strat\u00e9gique qui oriente le syst\u00e8me de gestion de l\u2019offre et soutient l\u2019industrie du b\u00e9tail au Canada. Le travail d\u2019analyse des politiques sur la gestion de l\u2019offre et le b\u00e9tail se fait avec la collaboration des membres du portefeuille, des intervenants et des offices de commercialisation. Il pr\u00e9voit l\u2019analyse des cinq industries sous gestion de l\u2019offre et des industries des productions animales \u00e0 vocation exportatrice. Les priorit\u00e9s actuelles de l\u2019\u00e9quipe sont la direction de l\u2019analyse et de l\u2019\u00e9laboration des politiques sur l\u2019indemnisation des industries sous gestion de l\u2019offre touch\u00e9es par certains accords commerciaux, ainsi que de dossiers cl\u00e9s comme la peste porcine africaine dans l\u2019industrie du porc.</p>\n<p>Nous sommes \u00e0 la recherche de gens motiv\u00e9s ayant d\u2019excellentes comp\u00e9tences en analyse, en recherche et en r\u00e9daction, ainsi que des comp\u00e9tences strat\u00e9giques, pour travailler comme analyste des politiques. L\u2019analyste des politiques de la DPGOB est charg\u00e9 de l\u2019\u00e9laboration de politiques, ce qui comprend la r\u00e9alisation de recherches et d\u2019analyses \u00e0 l\u2019appui de la prise de d\u00e9cisions.</p>\n<h2><strong><br>\u00c9nonc\u00e9 des crit\u00e8res de m\u00e9rite:</strong></h2>\n<h3><strong><br>Qualifications essentielles</strong></h3>\n<p><strong><br>Exigences linguistiques :</strong> Diverses, pr\u00e9f\u00e9rence : bilingue imp\u00e9ratif, BBB/BBB OU CBC/CBC<strong> </strong></p>\n<p><strong><br>\u00c9tudes:</strong></p>\n<ul>\n<li>Grade d\u2019un \u00e9tablissement d\u2019enseignement postsecondaire reconnu avec sp\u00e9cialisation acceptable en \u00e9conomie, en sociologie ou en statistique.</li>\n<li>Les candidats doivent obligatoirement poss\u00e9der un dipl\u00f4me. Les cours de sp\u00e9cialisation doivent \u00eatre acceptables et avoir \u00e9t\u00e9 suivis aupr\u00e8s d\u2019un \u00e9tablissement d\u2019enseignement postsecondaire reconnu, mais pas n\u00e9cessairement dans le cadre d\u2019un programme menant \u00e0 l\u2019obtention d\u2019un dipl\u00f4me dans le domaine de la sp\u00e9cialisation requise. Une combinaison acceptable d\u2019\u00e9tudes, de formation ou d\u2019exp\u00e9rience peut tenir lieu de sp\u00e9cialisation.</li>\n</ul>\n<p><strong><br>Exp\u00e9rience:</strong></p>\n<ul>\n<li>Exp\u00e9rience dans un ou plusieurs des domaines suivants : planification strat\u00e9gique, analyse des politiques, analyse des march\u00e9s, analyse sociologique, analyse \u00e9conomique.</li>\n<li>Exp\u00e9rience de la pr\u00e9paration de travaux de recherche et d\u2019analyses.</li>\n<li>Exp\u00e9rience de la production de rapports et de la pr\u00e9sentation des r\u00e9sultats de recherche ou d\u2019analyse.</li>\n<li>Exp\u00e9rience de la participation \u00e0 des projets ou aux travaux de groupes de travail.</li>\n</ul>\n<p><strong><br>Connaissances:</strong><br>\nConnaissance des principes, des pratiques, des techniques, des outils ou des m\u00e9thodes se rapportant \u00e0 l\u2019\u00e9conomie, \u00e0 la sociologie ou \u00e0 la statistique.</p>\n<p><strong><br>Comp\u00e9tences:</strong></p>\n<ul>\n<li>R\u00e9flexion strat\u00e9gique</li>\n<li>R\u00e9flexion analytique</li>\n<li>Communication interactive</li>\n<li>Comp\u00e9tences en r\u00e9daction</li>\n<li>Travail d\u2019\u00e9quipe</li>\n<li>Initiative</li>\n<li>Facult\u00e9 d\u2019adaptation</li>\n<li>Jugement</li>\n</ul>\n<p><strong><br>Qualifications constituant un atout:</strong></p>\n<ul>\n<li>Ma\u00eetrise ou dipl\u00f4me d\u2019\u00e9tudes sup\u00e9rieures d\u2019une universit\u00e9 reconnue dans un domaine li\u00e9 aux fonctions du poste, notamment en \u00e9conomie de l\u2019environnement, en sciences, en agro\u00e9conomie, en d\u00e9veloppement international, r\u00e9gional ou sectoriel en r\u00e9gion rurale, en d\u00e9veloppement coop\u00e9ratif, en commerce international ou en \u00e9conomie des ressources naturelles.</li>\n<li>Connaissance du processus d\u2019\u00e9laboration des politiques, ainsi que des outils et m\u00e9thodes d\u2019\u00e9laboration et d\u2019analyse des politiques.</li>\n</ul>\n<p><br>\n<strong>Conditions d\u2019emploi</strong>:<br>\nS\u00e9curit\u00e9 : Cote de s\u00e9curit\u00e9 de niveau \u00ab Secret \u00bb</p>\n<p><strong><br>Besoins op\u00e9rationnels:</strong></p>\n<ul>\n<li>\u00catre apte et dispos\u00e9 \u00e0 faire des heures suppl\u00e9mentaires \u00e0 court pr\u00e9avis.</li>\n<li>\u00catre apte et dispos\u00e9 \u00e0 voyager.</li>\n</ul>\n<p><strong><br>Besoins organisationnels:</strong><br>\nPour les besoins de la diversification de l\u2019effectif, une attention particuli\u00e8re pourrait \u00eatre accord\u00e9e aux candidats qui auront indiqu\u00e9 leur appartenance \u00e0 l\u2019un des groupes vis\u00e9s par l\u2019\u00e9quit\u00e9 en mati\u00e8re d\u2019emploi : Autochtones, personnes handicap\u00e9es, membres d\u2019une minorit\u00e9 visible, femmes.\u00a0</p>\n<p><strong><br>Candidatures</strong><br>\nLes employ\u00e9s int\u00e9ress\u00e9s sont invit\u00e9s \u00e0 faire parvenir \u00e0 Julie Levert (julie.levert@canada.ca) par le 14 f\u00e9vrier 2020 leur curriculum vitae accompagn\u00e9 d\u2019une br\u00e8ve lettre de pr\u00e9sentation (maximum de deux pages) pr\u00e9cisant ce qui suit :</p>\n<p>\u2022 leur p\u00e9riode d\u2019affectation (p. ex. d\u00e9termin\u00e9e ou ind\u00e9termin\u00e9e);</p>\n<p>\u2022 le groupe et le niveau de leur poste d\u2019attache;</p>\n<p>\u2022 leurs niveaux de langue;</p>\n<p>\u2022 la raison pour laquelle le poste les int\u00e9resse, ce qu\u2019ils peuvent apporter \u00e0 l\u2019\u00e9quipe et pourquoi ils sont la bonne personne pour le poste.</p>\n<p>\u00a0</p>\n\n"
    },
    "breadcrumb": {
        "en": "Senior Policy Analyst, Supply Management and Livestock Policy Division",
        "fr": "Analyste des politiques \u2013 Politiques sur la gestion de l\u2019offre et le b\u00e9tail"
    },
    "empl": {
        "type": {
            "en": "Assignment, Deployment",
            "fr": "Affectation, Mutation"
        },
        "classification": {
            "en": "EC-6 and equivalent",
            "fr": "EC-6 et \u00e9quivalent"
        },
        "branch": {
            "en": "Strategic Policy Branch",
            "fr": "Direction g\u00e9n\u00e9rale des politiques strat\u00e9giques"
        },
        "locations": {
            "en": "National Capital Region",
            "fr": "R\u00e9gion de la capitale nationale"
        },
        "date_closing": {
            "en": "2020-02-14",
            "fr": "2020-02-14"
        },
        "open_to": {
            "en": "AAFC employees at the EC-06 or CO-02 group and level",
            "fr": "Employ\u00e9s d\u2019AAC occupant un poste de groupe et niveau EC-06 ou CO-02"
        },
        "name": {
            "en": "Julie Levert",
            "fr": "Julie Levert"
        },
        "email": {
            "en": "julie.levert@canada.ca",
            "fr": "julie.levert@canada.ca"
        }
    }
}