{
    "dcr_id": "1580934726662",
    "lang": "en",
    "title": {
        "en": "This Week in The Harvest - Rachelle Smith: The First Woman in Top Job at Benton Ridge Farm",
        "fr": "Au menu de La Moisson cette semaine - Rachelle Smith : La premi\u00e8re femme occupant le plus haut poste \u00e0 la ferme de Benton Ridge"
    },
    "modified": "2020-02-06 00:00:00.0",
    "issued": "2020-02-06 00:00:00.0",
    "type_name": "intra-intra/news-nouv",
    "node_id": "1279030006975",
    "layout_name": null,
    "dc_date_created": "2020-02-05",
    "breadcrumb_label": "",
    "meta": {
        "issued": {
            "en": "2020-02-06",
            "fr": "2020-02-06"
        },
        "modified": {
            "en": "2020-02-06",
            "fr": "2020-02-06"
        },
        "format": {
            "en": "gcformat",
            "fr": "gcformat"
        },
        "title": {
            "en": "This Week in The Harvest - Rachelle Smith: The First Woman in Top Job at Benton Ridge Farm",
            "fr": "Au menu de La Moisson cette semaine - Rachelle Smith : La premi\u00e8re femme occupant le plus haut poste \u00e0 la ferme de Benton Ridge"
        },
        "subject": {
            "en": "communications",
            "fr": "communications"
        },
        "description": {
            "en": "In case you missed it, here's what's new in <em>The Harvest: AAFC's Online Magazine</em> this week.",
            "fr": "Au cas o\u00f9 vous l'auriez manqu\u00e9, voici le menu que la section <em>La Moisson : le magazine en ligne d'AAC</em> vous offre cette semaine."
        },
        "language": {
            "en": "eng",
            "fr": "fra"
        },
        "audience": {
            "en": "gcaudience",
            "fr": "gcaudience"
        },
        "creator": {
            "en": "Agriculture and Agri-Food Canada",
            "fr": "Agriculture et Agroalimentaire Canada"
        },
        "spatial": {
            "en": "gcregions",
            "fr": "gcregions"
        },
        "service": {
            "en": "AAFC_AgriSource",
            "fr": "AAC_AgriSource"
        },
        "accessRights": {
            "en": "3",
            "fr": "3"
        }
    },
    "body": {
        "en": "<br>\n<br>\n<p>In case you missed it, here\u2019s what\u2019s new in <a href=\"https://collab.agr.gc.ca/apps/harvest-moisson\"><em>The Harvest</em><em>: AAFC\u2019s Online Magazine</em></a> this week:</p>\n<p><strong>Feature story:</strong> <a href=\"https://collab.agr.gc.ca/apps/harvest-moisson\">Rachelle Smith: The First Woman in Top Job at Benton Ridge Farm</a> - The last few months have been a whirlwind for Rachelle Smith, who was just appointed in July as Farm Operations Supervisor at the Benton Ridge Potato Breeding Substation in New Brunswick (a substation of the Fredericton Research and Development Centre).</p>\n<p><strong>Poll: </strong><a href=\"https://collab.agr.gc.ca/apps/harvest-moisson/\"> What is your favourite hot beverage to keep you warm in the winter?</a></p>\n<p><strong>Feature photo: </strong><a href=\"https://collab.agr.gc.ca/apps/harvest-moisson/gallery/Lists/Posts/Post.aspx?ID=400\">Makkovik Sunset</a><em><i>, </i></em>by Tyler Smith, Science and Technology Branch, Ottawa, Ontario.</p>\n<p><strong>Did you know?</strong> <a href=\"https://collab.agr.gc.ca/apps/harvest-moisson/Pages/didyouknow.aspx\">The first person of African heritage to come to what is now Canada</a> arrived some 400 years ago. In 1604, Mathieu Da Costa arrived with the French explorers Pierre Du Gua De Monts and Samuel de Champlain. Da Costa, a multilingual interpreter who spoke English, French, Dutch, Portuguese, and Pidgin Basque, provided an invaluable link with the Mik\u2019maq people encountered by the Europeans.</p>\n<p>You can get involved by posting a comment or \u201cliking\u201d an article. You can also check out what your colleagues are liking and saying.</p>\n<p>Should you have story ideas, scenic or artistic agriculture-related photos, or interesting facts, please share them with us by clicking on \u201cContribute\u201d in the top menu bar.</p>\n<p><img src=\"https://intranet.agr.gc.ca/resources/prod/news/images/Harvest-Rachelle.png\" class=\"center-block\"></p>\n\n\t\t",
        "fr": "<br>\n<br>\n<p>Au cas o\u00f9 vous l\u2019auriez manqu\u00e9, voici le menu que la section <a href=\"https://collab.agr.gc.ca/apps/harvest-moisson\"><em>La Moisson</em><em> : le magazine en ligne d\u2019AAC</em></a> vous offre cette semaine :</p>\n<p><strong>Article vedette :</strong> <a href=\"https://collab.agr.gc.ca/apps/harvest-moisson\">Rachelle Smith : La premi\u00e8re femme occupant le plus haut poste \u00e0 la ferme de Benton Ridge</a> - Les derniers mois ont \u00e9t\u00e9 mouvement\u00e9s pour Rachelle Smith, depuis sa nomination en juillet dernier au poste de superviseure des activit\u00e9s agricoles \u00e0 la station satellite d\u2019am\u00e9lioration de la pomme de terre de Benton Ridge, au Nouveau-Brunswick (station satellite du Centre de recherche et de d\u00e9veloppement de Fredericton).</p>\n<p><strong>Sondage : </strong><a href=\"https://collab.agr.gc.ca/apps/harvest-moisson/Pages/default.aspx\">Quelle est votre boisson chaude pr\u00e9f\u00e9r\u00e9e en hiver?</a></p>\n<p><strong>Photo vedette :</strong> <a href=\"https://collab.agr.gc.ca/apps/harvest-moisson/gallery/Lists/Posts/Post.aspx?ID=400\">Coucher du soleil sur Makkovik</a>, par Tyler Smith, Direction g\u00e9n\u00e9rale des sciences et de la technologie, Ottawa (Ontario).</p>\n<p><strong>Le saviez-vous?</strong> <a href=\"https://collab.agr.gc.ca/apps/harvest-moisson/Pages/didyouknow.aspx\">La premi\u00e8re personne d\u2019origine africaine \u00e0 venir \u00e0 ce qui est aujourd\u2019hui le Canada</a> est arriv\u00e9e il y a quelque 400 ans. En 1604, Mathieu Da Costa est arriv\u00e9 avec les explorateurs fran\u00e7ais Pierre Du Gua De Monts et Samuel de Champlain. M. Da Costa, un interpr\u00e8te multilingue qui parlait le fran\u00e7ais, l\u2019anglais, le n\u00e9erlandais, le portugais et le pidgin basque, a servi de lien pr\u00e9cieux entre le peuple Mik\u2019maq et les Europ\u00e9ens.</p>\n<p>Vous pouvez participer en affichant des commentaires ou en utilisant la fonction \u00ab J\u2019aime \u00bb ou \u00ab Partager \u00bb pour exprimer votre appr\u00e9ciation d\u2019un article. Vous pouvez aussi aller voir ce que vos coll\u00e8gues aiment et ont \u00e0 dire.</p>\n<p>Si vous avez des id\u00e9es d\u2019articles, des photos de paysages ou \u00e0 caract\u00e8re artistique li\u00e9es \u00e0 l\u2019agriculture ou encore des faits int\u00e9ressants, veuillez nous en faire part en cliquant sur \u00ab Collaborer \u00bb dans la barre de menu en haut de la page.</p>\n<p><img src=\"https://intranet.agr.gc.ca/resources/prod/news/images/Harvest-Rachelle.png\" class=\"center-block\"></p>\n\t\t"
    },
    "breadcrumb": {
        "en": "This Week in The Harvest - Rachelle Smith: The First Woman in Top Job at Benton Ridge Farm",
        "fr": "Au menu de La Moisson cette semaine - Rachelle Smith : La premi\u00e8re femme occupant le plus haut..."
    },
    "news": {
        "date_posted": {
            "en": "2020-02-06",
            "fr": "2020-02-06"
        },
        "to": {
            "en": "All staff",
            "fr": "Tous les employ\u00e9s"
        },
        "by": {
            "en": "Corporate Communications, Public Affairs Branch",
            "fr": "Communications minist\u00e9rielles, Direction g\u00e9n\u00e9rale des affaires publiques"
        }
    }
}