{
    "dcr_id": "1581452987478",
    "lang": "en",
    "title": {
        "en": "Celebrate National Flag of Canada Day",
        "fr": "C\u00e9l\u00e9brons le Jour du drapeau national du Canada"
    },
    "modified": "2020-02-13 00:00:00.0",
    "issued": "2020-02-13 00:00:00.0",
    "type_name": "intra-intra/news-nouv",
    "node_id": "1279030006975",
    "layout_name": null,
    "dc_date_created": "2020-02-11",
    "breadcrumb_label": "",
    "meta": {
        "issued": {
            "en": "2020-02-13",
            "fr": "2020-02-13"
        },
        "modified": {
            "en": "2020-02-13",
            "fr": "2020-02-13"
        },
        "format": {
            "en": "gcformat",
            "fr": "gcformat"
        },
        "title": {
            "en": "Celebrate National Flag of Canada Day",
            "fr": "C\u00e9l\u00e9brons le Jour du drapeau national du Canada"
        },
        "subject": {
            "en": "communications",
            "fr": "communications"
        },
        "description": {
            "en": "Canada's flag celebrates its 55th year on February 15, National Flag of Canada Day.",
            "fr": "Le drapeau du Canada c\u00e9l\u00e8bre son 55e anniversaire le 15 f\u00e9vrier, jour du drapeau national du Canada."
        },
        "language": {
            "en": "eng",
            "fr": "fra"
        },
        "audience": {
            "en": "gcaudience",
            "fr": "gcaudience"
        },
        "creator": {
            "en": "Agriculture and Agri-Food Canada",
            "fr": "Agriculture et Agroalimentaire Canada"
        },
        "spatial": {
            "en": "gcregions",
            "fr": "gcregions"
        },
        "service": {
            "en": "AAFC_AgriSource",
            "fr": "AAC_AgriSource"
        },
        "accessRights": {
            "en": "3",
            "fr": "3"
        }
    },
    "body": {
        "en": "<br>\n<br>\n<p>Canada\u2019s flag celebrates its 55th year on February 15, National Flag of Canada Day. Our flag unites all Canadians and reflects the common values we hold \u2014 equality, diversity and inclusion.</p>\n<p>Show your Canadian pride and honour the Canadian flag by taking part in the \u201c<a href=\"https://www.canada.ca/en/canadian-heritage/campaigns/national-flag-canada-day/selfie-with-flag.html\">take a selfie with the flag</a>\u201d challenge:</p>\n<ul>\n<li>Take a selfie with the flag</li>\n<li>Post your photo on social media using the hashtag #CanadianFlag</li>\n<li>Encourage your family, friends and colleagues to do the same</li>\n</ul>\n<p>Learn more about the history of this national symbol by visiting <a href=\"https://www.canada.ca/en/canadian-heritage/campaigns/national-flag-canada-day.html\">National Flag of Canada Day</a>.</p>\n<p><img src=\"https://intranet.agr.gc.ca/resources/prod/news/images/Flag1965.png\" class=\"center-block\" alt=\"\"></p>\n<p class=\"text-center\"><i>On February 15, 1965, Canada's new flag was raised for the first time on Parliament Hill in Ottawa.</i> </p>\n\n\t\t",
        "fr": "<br>\n<br>\n<p>Le drapeau du Canada c\u00e9l\u00e8bre son 55e anniversaire le 15 f\u00e9vrier, jour du drapeau national du Canada. Notre drapeau unit tous les Canadiens et repr\u00e9sente les valeurs que nous ch\u00e9rissons : l\u2019\u00e9galit\u00e9, la diversit\u00e9 et l\u2019inclusion.</p>\n<p>Affichez votre fiert\u00e9 en tant que Canadiens et Canadiennes et honorez le drapeau canadien en prenant part au d\u00e9fi \u00ab <a href=\"https://www.canada.ca/fr/patrimoine-canadien/campagnes/jour-drapeau-national-canada/photo-avec-drapeau.html\">Prenez-vous en photo avec le drapeau</a> \u00bb :</p>\n<ul>\n<li>prenez un \u00e9goportrait avec le drapeau;</li>\n<li>partagez votre photo dans les m\u00e9dias sociaux en utilisant le mot-clic #DrapeauCanadien;</li>\n<li>invitez votre famille, vos amis et vos coll\u00e8gues \u00e0 faire de m\u00eame.</li>\n</ul>\n<p>Pour en savoir plus sur l\u2019histoire de ce symbole national, consultez la page suivante : <a href=\"https://www.canada.ca/fr/patrimoine-canadien/campagnes/jour-drapeau-national-canada.html\">Jour du drapeau national du Canada</a>.</p>\n<p><img src=\"https://intranet.agr.gc.ca/resources/prod/news/images/Flag1965.png\" class=\"center-block\" alt=\"\"></p>\n<p class=\"text-center\"><i>Le 15 f\u00e9vrier 1965, on hisse le nouveau drapeau canadien pour la premi\u00e8re fois sur la colline du Parlement \u00e0 Ottawa.</i></p>\n\t\t"
    },
    "breadcrumb": {
        "en": "Celebrate National Flag of Canada Day",
        "fr": "C\u00e9l\u00e9brons le Jour du drapeau national du Canada"
    },
    "news": {
        "date_posted": {
            "en": "2020-02-13",
            "fr": "2020-02-13"
        },
        "to": {
            "en": "All staff",
            "fr": "Tous les employ\u00e9s"
        },
        "by": {
            "en": "Corporate Communications, Public Affairs Branch",
            "fr": "Communications minist\u00e9rielles, Direction g\u00e9n\u00e9rale des affaires publiques"
        }
    }
}