{
    "dcr_id": "1582121612017",
    "lang": "en",
    "title": {
        "en": "February Issue of This Month in Pay Now Available",
        "fr": "Le num\u00e9ro de f\u00e9vrier de Bulletin mensuel sur la paye"
    },
    "modified": "2020-02-20 00:00:00.0",
    "issued": "2020-02-20 00:00:00.0",
    "type_name": "intra-intra/news-nouv",
    "node_id": "1279030006975",
    "layout_name": null,
    "dc_date_created": "2020-02-19",
    "breadcrumb_label": "",
    "meta": {
        "issued": {
            "en": "2020-02-20",
            "fr": "2020-02-20"
        },
        "modified": {
            "en": "2020-02-20",
            "fr": "2020-02-20"
        },
        "format": {
            "en": "gcformat",
            "fr": "gcformat"
        },
        "title": {
            "en": "February Issue of This Month in Pay Now Available",
            "fr": "Le num\u00e9ro de f\u00e9vrier de Bulletin mensuel sur la paye"
        },
        "subject": {
            "en": "communications",
            "fr": "communications"
        },
        "description": {
            "en": "The February issue of This Month in Pay is now available.",
            "fr": "Le num\u00e9ro de f\u00e9vrier de Bulletin mensuel sur la paye est maintenant disponible."
        },
        "language": {
            "en": "eng",
            "fr": "fra"
        },
        "audience": {
            "en": "gcaudience",
            "fr": "gcaudience"
        },
        "creator": {
            "en": "Agriculture and Agri-Food Canada",
            "fr": "Agriculture et Agroalimentaire Canada"
        },
        "spatial": {
            "en": "gcregions",
            "fr": "gcregions"
        },
        "service": {
            "en": "AAFC_AgriSource",
            "fr": "AAC_AgriSource"
        },
        "accessRights": {
            "en": "3",
            "fr": "3"
        }
    },
    "body": {
        "en": "<br>\n<br>\n<p>The February issue of <a href=\"http://intranet.agr.gc.ca/agrisource/eng/human-resources/pay-benefits-and-phoenix/this-month-in-pay?id=1574773026999\"><strong>This Month in Pay</strong></a><em><strong> </strong></em>is now available.</p>\n<p>In this issue:</p>\n<ul>\n<li>Pay pod performance \u2013 where we stand</li>\n<li>Different ways to measure your pay</li>\n<li>Plan now for summer students</li>\n<li>Why you need to know your terms and conditions of employment</li>\n<li>Question of the Month</li>\n</ul>\n<p>We want to know what you think of this bulletin. Please contact the Editor (<a href=\"mailto:randi.saunders@canada.ca\">randi.saunders@canada.ca</a>) with your comments and ideas. For your convenience, this bulletin is available in a <a href=\"http://intranet.agr.gc.ca/resources/prod/pdf/hrb_dgrh/tmip_feb2020-eng.pdf\">printable PDF</a>.</p>\n<p>\u00a0</p>\n<p><strong>Christine Walker</strong><br>\nAssistant Deputy Minister<br>\nCorporate Management Branch</p>\n<p>\u00a0</p>\n<p><img src=\"https://intranet.agr.gc.ca/resources/prod/news/images/PayBulletin-EN.png\" class=\"center-block\"></p>\n\n\t\t",
        "fr": "<br>\n<br>\n<p>Le num\u00e9ro de f\u00e9vrier de <a href=\"http://intranet.agr.gc.ca/agrisource/fra/ressources-humaines/remuneration-avantages-sociaux-et-phenix/bulletin-mensuel-sur-la-paye?id=1574773026999\"><strong>Bulletin mensuel sur la paye</strong></a> est maintenant disponible.</p>\n<p>Dans ce num\u00e9ro :</p>\n<ul>\n<li>Performance de l\u2019\u00e9quipe mixte de paye \u2013 o\u00f9 nous en sommes</li>\n<li>Diff\u00e9rentes fa\u00e7ons de mesurer votre taux de r\u00e9mun\u00e9ration</li>\n<li>Planifier maintenant pour les \u00e9tudiants d'\u00e9t\u00e9</li>\n<li>Pourquoi vous devez conna\u00eetre vos conditions d'emploi</li>\n<li>Question du mois</li>\n</ul>\n<p>Nous voulons savoir ce que vous pensez de ce bulletin. Veuillez contacter la r\u00e9dactrice (<a href=\"mailto:randi.saunders@canada.ca\">randi.saunders@canada.ca</a>) pour lui faire part de vos commentaires et de vos id\u00e9es. Pour votre convenance, ce bulletin est disponible en <a href=\"http://intranet.agr.gc.ca/resources/prod/pdf/hrb_dgrh/tmip_feb2020-fra.pdf\">PDF imprimable</a>.</p>\n<p>\u00a0</p>\n<p><strong>Christine Walker</strong><br>\nSous-ministre adjointe<br>\nDirection g\u00e9n\u00e9rale de la gestion int\u00e9gr\u00e9e</p>\n<p><img src=\"https://intranet.agr.gc.ca/resources/prod/news/images/PayBulletin-FR.png\" class=\"center-block\"></p>\n\t\t"
    },
    "breadcrumb": {
        "en": "February Issue of This Month in Pay Now Available",
        "fr": "Le num\u00e9ro de f\u00e9vrier de Bulletin mensuel sur la paye"
    },
    "news": {
        "date_posted": {
            "en": "2020-02-20",
            "fr": "2020-02-20"
        },
        "to": {
            "en": "All staff",
            "fr": "Tous les employ\u00e9s"
        },
        "by": {
            "en": "Corporate Management Branch",
            "fr": "Direction g\u00e9n\u00e9rale de la gestion int\u00e9gr\u00e9e"
        }
    }
}