{
    "dcr_id": "1582036055845",
    "lang": "en",
    "title": {
        "en": "Food Sustainability, Virus Research and More: February Additions to the Canadian Agriculture Library",
        "fr": "Durabilit\u00e9 de la production alimentaire, recherche sur les virus et plus : Ajouts de f\u00e9vrier \u00e0 la collection de la Biblioth\u00e8que canadienne de l\u2019agriculture"
    },
    "modified": "2020-02-20 00:00:00.0",
    "issued": "2020-02-20 00:00:00.0",
    "type_name": "intra-intra/news-nouv",
    "node_id": "1279030006975",
    "layout_name": null,
    "dc_date_created": "2020-02-18",
    "breadcrumb_label": "",
    "meta": {
        "issued": {
            "en": "2020-02-20",
            "fr": "2020-02-20"
        },
        "modified": {
            "en": "2020-02-20",
            "fr": "2020-02-20"
        },
        "format": {
            "en": "gcformat",
            "fr": "gcformat"
        },
        "title": {
            "en": "Food Sustainability, Virus Research and More: February Additions to the Canadian Agriculture Library",
            "fr": "Durabilit\u00e9 de la production alimentaire, recherche sur les virus et plus : Ajouts de f\u00e9vrier \u00e0 la collection de la Biblioth\u00e8que canadienne de l\u2019agriculture"
        },
        "subject": {
            "en": "communications",
            "fr": "communications"
        },
        "description": {
            "en": "Check out the new titles added to the Canadian Agriculture Library (CAL) collection this month.",
            "fr": "D\u00e9couvrez les nouveaux titres ajout\u00e9s \u00e0 la collection de la Biblioth\u00e8que canadienne de l'agriculture (BCA)."
        },
        "language": {
            "en": "eng",
            "fr": "fra"
        },
        "audience": {
            "en": "gcaudience",
            "fr": "gcaudience"
        },
        "creator": {
            "en": "Agriculture and Agri-Food Canada",
            "fr": "Agriculture et Agroalimentaire Canada"
        },
        "spatial": {
            "en": "gcregions",
            "fr": "gcregions"
        },
        "service": {
            "en": "AAFC_AgriSource",
            "fr": "AAC_AgriSource"
        },
        "accessRights": {
            "en": "3",
            "fr": "3"
        }
    },
    "body": {
        "en": "<br>\n<br>\n<p>Check out the <a href=\"https://collab.agr.gc.ca/co/kis-sis/_layouts/15/DocIdRedir.aspx?ID=AGR-8360659\">new titles</a> added to the<a href=\"https://fsl-bsf.scitech.gc.ca/eng/intranet/home/\"> Canadian Agriculture Library</a> (CAL) collection this month. Topics covered include:</p>\n<ul>\n<li>Personal and professional development</li>\n<li>Advances in food security and sustainability</li>\n<li>Soilborne microbial plant pathogens and disease management</li>\n<li>Advances in applied microbiology and virus research</li>\n<li>Veterinary medicine</li>\n</ul>\n<p>Access the electronic content from your desktop by clicking on links found in the list, or submit a request to borrow physical items.</p>\n<p>For more information, contact CAL at: <a href=\"mailto:aafc.cal-bca.aac@canada.ca\">aafc.cal-bca.aac@canada.ca</a>.</p>\n<p><img src=\"https://intranet.agr.gc.ca/resources/prod/news/images/CALbanner-EN.png\" class=\"center-block\" alt=\"\"></p>\n\n\t\t",
        "fr": "<br>\n<br>\n<p>D\u00e9couvrez les <a href=\"https://collab.agr.gc.ca/co/kis-sis/_layouts/15/DocIdRedir.aspx?ID=AGR-8360664\">nouveaux titres</a> ajout\u00e9s \u00e0 la collection de la <a href=\"https://fsl-bsf.scitech.gc.ca/fra/intranet/accueil/\">Biblioth\u00e8que canadienne de l'agriculture</a> (BCA). Voici certains des sujets abord\u00e9s :</p>\n<ul>\n<li>Perfectionnement personnel et professionnel</li>\n<li>Avanc\u00e9es en s\u00e9curit\u00e9 et durabilit\u00e9 alimentaires</li>\n<li>Lutte contre les phytopathog\u00e8nes microbiens du sol et les maladies qu\u2019ils transmettent</li>\n<li>Avanc\u00e9es en microbiologie appliqu\u00e9e et en recherche sur les virus</li>\n<li>M\u00e9decine v\u00e9t\u00e9rinaire</li>\n</ul>\n<p>Vous pouvez acc\u00e9der au contenu \u00e9lectronique \u00e0 partir de votre poste de travail en cliquant sur les liens qui se trouvent dans la liste ou en soumettant une demande pour emprunter des ouvrages imprim\u00e9s.</p>\n<p>Pour de plus amples renseignements, communiquez avec la BCA par courriel \u00e0 l\u2019adresse <a href=\"mailto:aafc.cal-bca.aac@canada.ca\">aafc.cal-bca.aac@canada.ca</a>.</p>\n<p><img src=\"https://intranet.agr.gc.ca/resources/prod/news/images/CALbanniere-FR.png\" class=\"center-block\"></p>\n\t\t"
    },
    "breadcrumb": {
        "en": "Food Sustainability, Virus Research and More: February Additions to the Canadian Agriculture Library",
        "fr": "Durabilit\u00e9 de la production alimentaire, recherche sur les virus et plus : Ajouts de f\u00e9vrier \u00e0 la collection de la Biblioth\u00e8que canadienne de l\u2019agriculture"
    },
    "news": {
        "date_posted": {
            "en": "2020-02-20",
            "fr": "2020-02-20"
        },
        "to": {
            "en": "All staff",
            "fr": "Tous les employ\u00e9s"
        },
        "by": {
            "en": "Canadian Agriculture Library",
            "fr": "Biblioth\u00e8que canadienne de l\u2019agriculture"
        }
    }
}