{
    "dcr_id": "1582033103901",
    "lang": "en",
    "title": {
        "en": "Driving Safely and Sustainably at AAFC",
        "fr": "Conduite s\u00e9curitaire et durable \u00e0 AAC"
    },
    "modified": "2020-02-20 00:00:00.0",
    "issued": "2020-02-20 00:00:00.0",
    "type_name": "intra-intra/news-nouv",
    "node_id": "1279030006975",
    "layout_name": null,
    "dc_date_created": "2020-02-18",
    "breadcrumb_label": "",
    "meta": {
        "issued": {
            "en": "2020-02-20",
            "fr": "2020-02-20"
        },
        "modified": {
            "en": "2020-02-20",
            "fr": "2020-02-20"
        },
        "format": {
            "en": "gcformat",
            "fr": "gcformat"
        },
        "title": {
            "en": "Driving Safely and Sustainably at AAFC",
            "fr": "Conduite s\u00e9curitaire et durable \u00e0 AAC"
        },
        "subject": {
            "en": "communications",
            "fr": "communications"
        },
        "description": {
            "en": "If you use departmental vehicles in the course of your duties, please remember that you should be operating them in accordance with all applicable federal, provincial, territorial and municipals laws.",
            "fr": "Si vous conduisez des v\u00e9hicules du Minist\u00e8re dans l\u2019exercice de vos fonctions, n\u2019oubliez pas que vous devez respecter toutes les lois f\u00e9d\u00e9rales, provinciales, territoriales et municipales applicables."
        },
        "language": {
            "en": "eng",
            "fr": "fra"
        },
        "audience": {
            "en": "gcaudience",
            "fr": "gcaudience"
        },
        "creator": {
            "en": "Agriculture and Agri-Food Canada",
            "fr": "Agriculture et Agroalimentaire Canada"
        },
        "spatial": {
            "en": "gcregions",
            "fr": "gcregions"
        },
        "service": {
            "en": "AAFC_AgriSource",
            "fr": "AAC_AgriSource"
        },
        "accessRights": {
            "en": "3",
            "fr": "3"
        }
    },
    "body": {
        "en": "<br>\n<br>\n<p>If you use departmental vehicles in the course of your duties, please remember that you should be operating them in accordance with all applicable federal, provincial, territorial and municipals laws.</p>\n<p>Data collected in 2019 from telematics devices installed in departmental vehicles shows that drivers need to pay particular attention to:</p>\n<ul>\n<li>obeying the speed limits \u2013 employees are expected to comply with speed limits and operate departmental vehicles safely. If employees are in violation of any traffics laws, they are personally responsible for any penalties or fines, and may be held liable for their actions.</li>\n<li>fuel-consumption and idling \u2013 drivers should avoid unnecessary idling to help reduce fuel consumption and the impact on the environment. Remember, <a href=\"http://intranet.agr.gc.ca/agrisource/eng/branches-and-offices/corporate-management-branch/services/integrated-services/national-fleet-management/idling-gets-you-nowhere?id=1573138170817\">idling gets you nowhere</a>.</li>\n<li>weather conditions \u2013 although the winter months are a good time to remind ourselves of the importance of safe driving habits, safety should be top of mind all year round.</li>\n</ul>\n<p>All drivers must successfully complete the green defensive driving course before operating departmental vehicles, rentals or their personal vehicles for government business. For more information, please visit the resources below.</p>\n<h2><strong>Resources</strong></h2>\n<ul>\n<li><a href=\"http://intranet.agr.gc.ca/agrisource/eng/newswork/deployment-of-telematics-devices-in-aafcs-vehicle-fleet?id=1549979075008\">Deployment of Telematics Devices in AAFC\u2019s Vehicle Fleet</a></li>\n<li><a href=\"https://collab.agr.gc.ca/br-dg/cmb-dggi/_layouts/15/DocIdRedir.aspx?ID=AGR-7555304\">Privacy Notice: Data Collection with Telematics Devices</a>\u00a0(PDF)</li>\n<li><a href=\"http://intranet.agr.gc.ca/agrisource/eng/our-department/departmental-policies-and-guidelines/departmental-policy-on-motor-vehicles?id=1574187438833\">Departmental Motor Vehicle Policy</a></li>\n<li><a href=\"http://intranet.agr.gc.ca/agrisource/eng/our-department/departmental-overview/greening-government-operations?id=1329914325255\">Greening Government</a></li>\n<li><a href=\"http://intranet.agr.gc.ca/agrisource/eng/human-resources/learning-and-development/training/employees/online-green-defensive-driving-course-agr-623?id=1332250809743\">Green Defensive Driving Course</a></li>\n</ul>\n<p>\u00a0</p>\n\n\t\t",
        "fr": "<br>\n<br>\n<p>Si vous conduisez des v\u00e9hicules du Minist\u00e8re dans l\u2019exercice de vos fonctions, n\u2019oubliez pas que vous devez respecter toutes les lois f\u00e9d\u00e9rales, provinciales, territoriales et municipales applicables.</p>\n<p>Selon les donn\u00e9es recueillies en 2019 \u00e0 partir des appareils t\u00e9l\u00e9matiques install\u00e9s dans les v\u00e9hicules du Minist\u00e8re, les conducteurs doivent porter une attention particuli\u00e8re \u00e0 ce qui suit :</p>\n<ul>\n<li>le respect des limites de vitesse \u2013 les employ\u00e9s sont tenus de respecter les limites de vitesse et de conduire les v\u00e9hicules du Minist\u00e8re de fa\u00e7on s\u00e9curitaire. Si les employ\u00e9s contreviennent au Code de la route, ils devront faire face \u00e0 toute sanction ou amende, et peuvent \u00eatre tenus responsables de leurs actes;</li>\n<li>la consommation de carburant et la marche au ralenti \u2013 les conducteurs doivent \u00e9viter de laisser tourner le moteur au ralenti inutilement afin de r\u00e9duire la consommation de carburant et l\u2019impact sur l\u2019environnement. Rappelez-vous, <a href=\"http://intranet.agr.gc.ca/agrisource/fra/directions-generales-et-bureaux/direction-generale-de-la-gestion-integree/services/services-integres/gestion-nationale-du-parc-automobile/un-moteur-qui-tourne-au-ralenti-ne-vous-menera-nulle-part?id=1573138170817\">un moteur qui tourne au ralenti ne vous m\u00e8nera nulle part</a>.</li>\n<li>les conditions m\u00e9t\u00e9orologiques \u2013 l\u2019hiver est une saison propice pour nous rappeler l\u2019importance d\u2019adopter des habitudes de conduite s\u00fbres, mais la s\u00e9curit\u00e9 doit \u00eatre une priorit\u00e9 tout au long de l\u2019ann\u00e9e.</li>\n</ul>\n<p>Tous les conducteurs doivent suivre avec succ\u00e8s le cours d\u2019\u00e9coconduite d\u00e9fensive avant de prendre le volant d\u2019un v\u00e9hicule du Minist\u00e8re, d\u2019un v\u00e9hicule de location ou de leur v\u00e9hicule personnel pour les besoins du gouvernement. Pour de plus amples renseignements, veuillez consulter les ressources ci\u2011dessous.</p>\n<h2><strong>Ressources</strong></h2>\n<ul>\n<li>\n<a href=\"http://intranet.agr.gc.ca/agrisource/fra/nouvelleslouvrage/deploiement-de-dispositifs-telematiques-dans-le-parc-automobile-daac?id=1549979075008\">D\u00e9ploiement de dispositifs t\u00e9l\u00e9matiques dans le parc automobile d\u2019AAC</a></li>\n<li><a href=\"https://collab.agr.gc.ca/br-dg/cmb-dggi/_layouts/15/DocIdRedir.aspx?ID=AGR-7555303\">\u00c9nonc\u00e9 de confidentialit\u00e9 : collecte de donn\u00e9es au moyen d\u2019appareils t\u00e9l\u00e9matiques</a>\u00a0(PDF)</li>\n<li><a href=\"http://intranet.agr.gc.ca/agrisource/fra/notre-ministere/politiques-et-lignes-directrices-ministerielles/politique-ministerielle-portant-sur-les-vehicules-a-moteur?id=1574187438833\">Politique minist\u00e9rielle portant sur les v\u00e9hicules \u00e0 moteur</a></li>\n<li><a href=\"http://intranet.agr.gc.ca/agrisource/fra/notre-ministere/vue-densemble-du-ministere/ecologisation-des-operations-gouvernementales?id=1329914325255\">\u00c9cologisation du gouvernement</a></li>\n<li><a href=\"http://intranet.agr.gc.ca/agrisource/fra/ressources-humaines/apprentissage-et-perfectionnement/formation/employes/cours-decoconduite-preventive-en-ligne-agr-623?id=1332250809743\">Cours d\u2019\u00e9coconduite pr\u00e9ventive</a></li>\n</ul>\n<p>\u00a0</p>\n\t\t"
    },
    "breadcrumb": {
        "en": "Driving Safely and Sustainably at AAFC",
        "fr": "Conduite s\u00e9curitaire et durable \u00e0 AAC"
    },
    "news": {
        "date_posted": {
            "en": "2020-02-20",
            "fr": "2020-02-20"
        },
        "to": {
            "en": "All staff",
            "fr": "Tous les employ\u00e9s"
        },
        "by": {
            "en": "Christine Walker, Assistant Deputy Minister, Corporate Management Branch",
            "fr": "Christine Walker, Sous-ministre adjointe, Direction g\u00e9n\u00e9rale de la gestion int\u00e9gr\u00e9e"
        }
    }
}