{
    "dcr_id": "1582564037110",
    "lang": "en",
    "title": {
        "en": "Administrative Assistant and Project Support Officer",
        "fr": "Adjoint(e) Administratif(ive) et Agent(e) de soutien aux projets"
    },
    "modified": "2020-02-24 00:00:00.0",
    "issued": "2020-02-24 00:00:00.0",
    "type_name": "intra-intra/empl-empl",
    "node_id": "1279029955397",
    "layout_name": null,
    "dc_date_created": "2020-02-24",
    "breadcrumb_label": "",
    "meta": {
        "issued": {
            "en": "2020-02-24",
            "fr": "2020-02-24"
        },
        "modified": {
            "en": "2020-02-24",
            "fr": "2020-02-24"
        },
        "format": {
            "en": "gcformat",
            "fr": "gcformat"
        },
        "title": {
            "en": "Administrative Assistant and Project Support Officer",
            "fr": "Adjoint(e) Administratif(ive) et Agent(e) de soutien aux projets"
        },
        "subject": {
            "en": "staffing",
            "fr": "dotation en personnel"
        },
        "language": {
            "en": "eng",
            "fr": "fra"
        },
        "audience": {
            "en": "gcaudience",
            "fr": "gcaudience"
        },
        "type": {
            "en": "notice",
            "fr": "avis"
        },
        "creator": {
            "en": "Agriculture and Agri-Food Canada",
            "fr": "Agriculture et Agroalimentaire Canada"
        },
        "spatial": {
            "en": "gcregions",
            "fr": "gcregions"
        },
        "service": {
            "en": "AAFC_AgriSource",
            "fr": "AAC_AgriSource"
        },
        "accessRights": {
            "en": "3",
            "fr": "3"
        }
    },
    "body": {
        "en": "\n<p>\u00a0</p>\n<p>The Science and Corporate Solutions Division has a 10 month AS-02 acting/assignment opportunity.</p>\n<p><strong><br>Key Duties:</strong></p>\n<ul>\n<li>Provide executive services, including managing the director\u2019s schedule, i.e., planning and organizing logistics for conferences, meetings and other events, coordinating meeting materials and arranging for travel.</li>\n<li>Monitor emerging issues affecting the day-to-day operations of the organization, determine the urgency, priority and relevance of material, information and communications, and identify problems and concerns.</li>\n<li>Validate expenditures, process invoices for signature and payment, resolve problems with invoices, and provide the director with budgetary information.</li>\n<li>Provide administrative support in fields such as human resources, accommodation, and the purchase of office supplies.</li>\n<li>Coordinate, monitor and track multiple project documentation and deadlines.</li>\n<li>Conduct analysis of and make proposals for the development of procedural project guidelines.</li>\n<li>Coordinate and provide secretariat services for the project team/unit.</li>\n<li>Develop tracking procedures and track resources, activities, and expenditures; identify and flag potential issues, and assist with the production of monthly financial forecasts.</li>\n<li>Participate in project teams/committees meetings; develop records of decisions, and prepare and circulate resolutions.</li>\n</ul>\n<p><strong><br>Statement of Merit Criteria &amp; Conditions of Employment</strong></p>\n<p><strong><br>Essential Qualifications</strong></p>\n<p><strong><br>Education:</strong></p>\n<p>Secondary school diploma</p>\n<p><strong><br>Experience:</strong></p>\n<p>*Recent and **significant experience in providing administrative support to a supervisor/manager. (Administrative support services is defined as but not limited to: managing agendas, scheduling and organizing meetings/teleconferences, preparing and collating meeting file folders and background materials, procuring office equipment and supplies, maintaining a filing system)</p>\n<p>*Recent and **significant experience in the use of Microsoft Office software Word and Excel.<br>\n<br>\nNOTE:<br>\n*Recent is defined as within the last 12 months.<br>\n**Significant is defined as the depth and breadth of experience normally associated with having performed a broad range of activities related to this task which are acquired over a period of at least one (1) year.</p>\n<p><strong><br>Competencies:</strong><br>\n<br>\nAbility to communicate effectively orally<br>\nAbility to communicate effectively in writing<br>\nAbility to work under pressure and meet tight deadlines<br>\nWorks effectively with others<br>\nShows initiative and is action oriented<br>\nAttention to detail<br>\nJudgement<br>\nReliability</p>\n<p><strong><br>Language Requirements:</strong></p>\n<p>Bilingual - Imperative (BBB/BBB)</p>\n<p><strong><br>Asset Qualifications: </strong></p>\n<p>Recent and significant experience in the use of\u00a0PowerPoint<br>\nRecent experience in preparing purchasing, procurement or contracting documents<br>\nRecent experience in providing budget and financial support services<br>\nExperience taking minutes<br>\nExperience providing support to an executive</p>\n<p><strong><br>Conditions of Employment</strong><strong> </strong></p>\n<p>Reliability and Security: Reliability status<strong> </strong></p>\n<p><strong><br>Organizational Needs</strong></p>\n<p>In support of achieving a diversified workforce, consideration may be given to candidates self-identifying as belonging to one of the following Employment Equity groups: Aboriginal peoples, Persons with a Disability; Visible Minorities, Women.<br>\n<br>\n<br><strong>Applications:</strong><br>\n<br>\nInterested AAFC employees are encouraged to forward their resume and cover letter to Louise Pageau at louise.pageau@canada.ca.</p>\n<p>Resumes must clearly identify:</p>\n<ul>\n<li>Your tenure (e.g. term or indeterminate)</li>\n<li>Your substantive group and level</li>\n</ul>\n<p><strong><br>Notes:</strong></p>\n<p>Deployments cannot change the tenure of an employee (i.e: term to indeterminate) or constitute a promotion.</p>\n<p>Communication for this process will be sent via email.</p>\n<p>\u00a0</p>\n",
        "fr": "\n<p>\u00a0</p>\n<p>La Division\u00a0des solutions scientifiques et organisationnelles d'Agriculture et agroalimentaire Canada est \u00e0 la recherche d\u2019une ressource int\u00e9ress\u00e9e \u00e0 une opportunit\u00e9 de 10 mois au niveau AS-02.</p>\n<p><strong><br>Principales fonctions</strong><strong>:</strong></p>\n<ul>\n<li>Fournir des services ex\u00e9cutifs, notamment g\u00e9rer l\u2019emploi du temps du directeur, c.-\u00e0-d., planifier et organiser le volet des conf\u00e9rences, r\u00e9unions et autres \u00e9v\u00e8nements, coordonner les documents n\u00e9cessaires aux r\u00e9unions et organiser les d\u00e9placements.</li>\n<li>Surveiller les probl\u00e8mes \u00e9mergents touchant les activit\u00e9s quotidiennes de l\u2019organisation, d\u00e9terminer le degr\u00e9 d\u2019urgence, de priorit\u00e9 et de pertinence des documents, des renseignements et des communications, et cerner les probl\u00e8mes et les pr\u00e9occupations.</li>\n<li>Saisir des donn\u00e9es dans le syst\u00e8me budg\u00e9taire du Minist\u00e8re afin de consigner les engagements et les d\u00e9penses. Valider les d\u00e9penses, traiter les factures \u00e0 faire signer et \u00e0 payer, r\u00e9gler les probl\u00e8mes li\u00e9s aux factures et fournir des renseignements budg\u00e9taires au directeur.</li>\n<li>Offrir un soutien administratif dans des domaines tels que les ressources humaines, l\u2019am\u00e9nagement des locaux et l\u2019achat de fournitures de bureau.</li>\n<li>Coordonner, superviser et effectuer le suivi de nombreux projets ainsi que les \u00e9ch\u00e9anciers.</li>\n<li>Mener des analyses et effectuer des propositions concernant l\u2019\u00e9laboration des lignes directrices proc\u00e9durales en mati\u00e8re de projets.</li>\n<li>Coordonner et fournir des services de secr\u00e9tariat \u00e0 l\u2019unit\u00e9 ou \u00e0 l\u2019\u00e9quipe du projet.</li>\n<li>Mettre au point au point des proc\u00e9dures de suivi et assurer le suivi des ressources, des activit\u00e9s et des d\u00e9penses, d\u00e9terminer et indiquer les probl\u00e8mes \u00e9ventuels et soutenir la r\u00e9alisation des pr\u00e9visions financi\u00e8res mensuelles.</li>\n<li>Participer aux r\u00e9unions des comit\u00e9s ou des \u00e9quipes du projet. Mettre au point les comptes rendus de d\u00e9cision. Pr\u00e9parer et communiquer les r\u00e8glements de probl\u00e8mes.</li>\n</ul>\n<p><strong><br>\u00c9noncer des crit\u00e8res de m\u00e9rite et conditions d\u2019emploi : </strong></p>\n<p><strong><br>Qualifications essentielles :</strong></p>\n<p><strong><br>\u00c9ducation :</strong></p>\n<p>Dipl\u00f4me d'\u00e9tudes secondaires</p>\n<p><strong><br>Exp\u00e9rience :</strong></p>\n<p>Exp\u00e9rience *r\u00e9cente et **appr\u00e9ciable de la prestation de soutien administratif \u00e0 un superviseur/gestionnaire. (Le soutien administratif se d\u00e9finit comme : la gestion d\u2019agendas, la programmation et l\u2019organisation de r\u00e9unions/t\u00e9l\u00e9conf\u00e9rences, la pr\u00e9paration et le classement des dossiers pour les r\u00e9unions et de la documentation connexe, l\u2019obtention de l\u2019\u00e9quipement et des fournitures de bureau, la tenue d\u2019un syst\u00e8me de classement et d\u2019autres t\u00e2ches connexes de bureau.)</p>\n<p>Exp\u00e9rience *r\u00e9cente et **appr\u00e9ciable de l\u2019utilisation des logiciels Word et Excel de la Suite Microsoft Office.<br>\n<br>\nNOTE :<br>\n*Une exp\u00e9rience r\u00e9cente est une exp\u00e9rience acquise au cours des douze (12) derniers mois.<br>\n**Une exp\u00e9rience appr\u00e9ciable est une exp\u00e9rience riche et diversifi\u00e9e normalement acquise par l\u2019ex\u00e9cution d\u2019un large \u00e9ventail d\u2019activit\u00e9s li\u00e9es \u00e0 la t\u00e2che pendant au moins d\u2019un (1) an.<br>\n<br>\n<br><strong>Comp\u00e9tences :</strong></p>\n<p>Capacit\u00e9 de communiquer efficacement de vive voix<br>\nCapacit\u00e9 de communiquer efficacement par \u00e9crit<br>\nCapacit\u00e9 de travailler sous pression et de respecter les \u00e9ch\u00e9ances<br>\nTravaille efficacement avec les autres<br>\nFaire preuve d'initiative et \u00eatre orient\u00e9 vers l'action<br>\nSouci du d\u00e9tail<br>\nJugement<br>\nFiabilit\u00e9<br>\n<br>\n<br><strong>Exigences linguistiques :</strong></p>\n<p>Bilingue imp\u00e9ratif BBB/BBB</p>\n<p><strong><br>Qualifications constituant un atout :</strong></p>\n<p>Exp\u00e9rience r\u00e9cente et appr\u00e9ciable du\u00a0logiciel\u00a0PowerPoint<br>\nExp\u00e9rience r\u00e9cente de la pr\u00e9paration de documents d'achat, d'approvisionnement ou de passation de contrats<br>\nExp\u00e9rience r\u00e9cente de la prestation de service de soutien budg\u00e9taire et financier<br>\nExp\u00e9rience de la r\u00e9daction de comptes rendus de r\u00e9unions<br>\nExp\u00e9rience du soutien \u00e0 un cadre sup\u00e9rieur</p>\n<p><strong><br>Conditions d\u2019emploi :</strong></p>\n<p>Fiabilit\u00e9 et s\u00e9curit\u00e9 : cote de fiabilit\u00e9</p>\n<p><strong><br>Besoins de l'organisation :</strong></p>\n<p>Pour diversifier l\u2019effectif, on pourra examiner la candidature des personnes qui s\u2019identifient comme appartenant \u00e0 des groupes vis\u00e9s par l\u2019\u00e9quit\u00e9 en mati\u00e8re d\u2019emploi, soit les autochtones, les personnes handicap\u00e9es, les membres des minorit\u00e9s visibles et les femmes.</p>\n<p><strong><br>Candidatures</strong></p>\n<p>Les employ\u00e9s d\u2019AAC int\u00e9ress\u00e9s sont invit\u00e9s \u00e0 envoyer leur curriculum vitae et une lettre d\u2019accompagnement \u00e0 Louise Pageau au louise.pageau@canada.ca.</p>\n<p>Les curriculum vitae doivent nettement pr\u00e9ciser :</p>\n<ul>\n<li>\n<p>votre type de poste (p. ex., \u00e0 dur\u00e9e d\u00e9termin\u00e9e ou ind\u00e9termin\u00e9e);</p>\n</li>\n<li>\n<p>la classification de votre poste d\u2019attache</p>\n</li>\n</ul>\n<p><strong><br>Remarques</strong></p>\n<p>La fonction publique du Canada s'est aussi engag\u00e9e \u00e0 instaurer des processus de s\u00e9lection et un milieu de travail inclusifs et exempts d'obstacles. Si l'on communique avec vous au sujet d'une possibilit\u00e9 d'emploi ou pour des examens, veuillez faire part au repr\u00e9sentant du minist\u00e8re, en temps opportun, de vos besoins pour lesquels des mesures d'adaptation doivent \u00eatre prises pour vous permettre une \u00e9valuation juste et \u00e9quitable.</p>\n<p>Une mutation ne peuvent servir \u00e0 modifier le type de poste d\u2019un employ\u00e9 ou d\u2019une employ\u00e9e (de dur\u00e9e d\u00e9termin\u00e9e \u00e0 dur\u00e9e ind\u00e9termin\u00e9e, etc.) ni constituer une promotion.</p>\n<p>Les communications relatives au processus de s\u00e9lection se feront par courriel.</p>\n<p>\u00a0</p>\n\n"
    },
    "breadcrumb": {
        "en": "Administrative Assistant and Project Support Officer",
        "fr": "Adjoint(e) Administratif(ive) et Agent(e) de soutien aux projets"
    },
    "empl": {
        "type": {
            "en": "Assignment, Acting",
            "fr": "Affectation, Int\u00e9rimaire"
        },
        "classification": {
            "en": "AS-2 and equivalent",
            "fr": "AS-2 et \u00e9quivalent"
        },
        "branch": {
            "en": "Information Systems Branch",
            "fr": "Direction g\u00e9n\u00e9rale des syst\u00e8mes d'information"
        },
        "locations": {
            "en": "NCR",
            "fr": "RCN"
        },
        "date_closing": {
            "en": "2020-03-06",
            "fr": "2020-03-06"
        },
        "open_to": {
            "en": "All AAFC employees in the NCR",
            "fr": "Tous les employ\u00e9s d\u2019AAC dans la RCN"
        },
        "name": {
            "en": "Louise Pageau",
            "fr": "Louise Pageau"
        },
        "email": {
            "en": "louise.pageau@canada.ca",
            "fr": "louise.pageau@canada.ca"
        }
    }
}