{
    "dcr_id": "1582747889514",
    "lang": "en",
    "title": {
        "en": "NCR - Fire Alarm System Testing",
        "fr": "RCN - Test de la fonction de d\u00e9rivation du nouveau syst\u00e8me d'alarme incendie"
    },
    "modified": "2020-02-27 00:00:00.0",
    "issued": "2020-02-27 00:00:00.0",
    "type_name": "intra-intra/news-nouv",
    "node_id": "1279030006975",
    "layout_name": null,
    "dc_date_created": "2020-02-26",
    "breadcrumb_label": "",
    "meta": {
        "issued": {
            "en": "2020-02-27",
            "fr": "2020-02-27"
        },
        "modified": {
            "en": "2020-02-27",
            "fr": "2020-02-27"
        },
        "format": {
            "en": "gcformat",
            "fr": "gcformat"
        },
        "title": {
            "en": "NCR - Fire Alarm System Testing",
            "fr": "RCN - Test de la fonction de d\u00e9rivation du nouveau syst\u00e8me d'alarme incendie"
        },
        "subject": {
            "en": "communications",
            "fr": "communications"
        },
        "description": {
            "en": "Maple Leaf Property Management will test the bypassing functionality on the new Disego Fire Alarm System on Monday, March 2, after 6:00 p.m.",
            "fr": "Gestion immobili\u00e8re Maple Leaf proc\u00e9dera \u00e0 un test de la fonction de d\u00e9rivation du nouveau syst\u00e8me d'alarme incendie Disego le lundi 2 mars, apr\u00e8s 18 h."
        },
        "language": {
            "en": "eng",
            "fr": "fra"
        },
        "audience": {
            "en": "gcaudience",
            "fr": "gcaudience"
        },
        "creator": {
            "en": "Agriculture and Agri-Food Canada",
            "fr": "Agriculture et Agroalimentaire Canada"
        },
        "spatial": {
            "en": "gcregions",
            "fr": "gcregions"
        },
        "service": {
            "en": "AAFC_AgriSource",
            "fr": "AAC_AgriSource"
        },
        "accessRights": {
            "en": "3",
            "fr": "3"
        }
    },
    "body": {
        "en": "<br>\n<br>\n<p>Maple Leaf Property Management will test the bypassing functionality on the new Disego Fire Alarm System on Monday, March 2, after 6:00 p.m. Please see the attached <a href=\"pcdocs://AAFCAAC/105291278/1\">MLPM notice</a>.</p>\n<p><img src=\"https://intranet.agr.gc.ca/resources/prod/news/images/MapleLeafProperty.png\" class=\"center-block\"></p>\n\n\t\t",
        "fr": "<br>\n<br>\n<p>Gestion immobili\u00e8re Maple Leaf proc\u00e9dera \u00e0 un test de la fonction de d\u00e9rivation du nouveau syst\u00e8me d\u2019alarme incendie Disego le lundi 2 mars, apr\u00e8s 18 h. SVP voir <a href=\"pcdocs://AAFCAAC/105291278/1\">l'avis ci-jointe</a>.</p>\n<p><img src=\"https://intranet.agr.gc.ca/resources/prod/news/images/MapleLeafProperty.png\" class=\"center-block\"></p>\n\t\t"
    },
    "breadcrumb": {
        "en": "NCR - Fire Alarm System Testing",
        "fr": "RCN - Test de la fonction de d\u00e9rivation du nouveau syst\u00e8me d'alarme incendie"
    },
    "news": {
        "date_posted": {
            "en": "2020-02-26",
            "fr": "2020-02-26"
        },
        "to": {
            "en": "NCR only",
            "fr": "RCN seulement"
        },
        "by": {
            "en": "Maple Leaf Porperty Management",
            "fr": "Maple Leaf Porperty Management"
        }
    }
}