{
    "dcr_id": "1583772534755",
    "lang": "en",
    "title": {
        "en": "2019-20 Year-End Performance Assessments - Deadline is April 15",
        "fr": "\u00c9valuations de rendement de fin d'exercice 2019-2020 - l'\u00e9ch\u00e9ance est le 15 avril"
    },
    "modified": "2020-03-12 00:00:00.0",
    "issued": "2020-03-12 00:00:00.0",
    "type_name": "intra-intra/news-nouv",
    "node_id": "1279030006975",
    "layout_name": null,
    "dc_date_created": "2020-03-10",
    "breadcrumb_label": "",
    "meta": {
        "issued": {
            "en": "2020-03-12",
            "fr": "2020-03-12"
        },
        "modified": {
            "en": "2020-03-12",
            "fr": "2020-03-12"
        },
        "format": {
            "en": "gcformat",
            "fr": "gcformat"
        },
        "title": {
            "en": "2019-20 Year-End Performance Assessments - Deadline is April 15",
            "fr": "\u00c9valuations de rendement de fin d'exercice 2019-2020 - l'\u00e9ch\u00e9ance est le 15 avril"
        },
        "subject": {
            "en": "communications",
            "fr": "communications"
        },
        "description": {
            "en": "The 2019-2020 fiscal year is quickly coming to a close, and that means it\u2019s time to complete the year-end performance assessments!",
            "fr": "Comme la fin de l'exercice 2019-2020 approche \u00e0 grands pas, c'est le temps de pr\u00e9parer les \u00e9valuations de rendement de fin d'exercice!"
        },
        "language": {
            "en": "eng",
            "fr": "fra"
        },
        "audience": {
            "en": "gcaudience",
            "fr": "gcaudience"
        },
        "creator": {
            "en": "Agriculture and Agri-Food Canada",
            "fr": "Agriculture et Agroalimentaire Canada"
        },
        "spatial": {
            "en": "gcregions",
            "fr": "gcregions"
        },
        "service": {
            "en": "AAFC_AgriSource",
            "fr": "AAC_AgriSource"
        },
        "accessRights": {
            "en": "3",
            "fr": "3"
        }
    },
    "body": {
        "en": "<br>\n<br>\n<p>The 2019-2020 fiscal year is quickly coming to a close, and that means it\u2019s time to complete the year-end performance assessments!</p>\n<p>The year-end assessment provides an opportunity for managers/supervisors and employees alike to:</p>\n<ul>\n<li>reflect on individual achievements against established work objectives and performance indicators</li>\n<li>discuss challenges or obstacles that may have occurred throughout the year</li>\n<li>provide feedback on what is working well or what needs some improvement</li>\n<li>document overall performance results</li>\n</ul>\n<p>All performance assessments must be completed by <strong>April 15.</strong></p>\n<h2><strong>Employee performance assessments</strong></h2>\n<p>These must be completed in the <a rel=\"external\" href=\"https://portal-portail.tbs-sct.gc.ca/home-eng.aspx\">Public Service Performance Management Application</a> (PSPM Application). Please direct all questions regarding employee performance assessments to <a href=\"mailto:aafc.performance-rendement.aac@canada.ca\">aafc.performance-rendement.aac@canada.ca</a>.</p>\n<h2><strong>Executive performance assessments</strong></h2>\n<p>These must be completed in the <a rel=\"external\" href=\"https://talent.tbs-sct.gc.ca/etms-sgtcs/login-eng.aspx\">Executive Talent Management System</a> (ETMS). Please direct all questions pertaining to performance assessments of executives and certain excluded or unrepresented employees to <a href=\"mailto:laeticia.boyer@canada.ca\">laeticia.boyer@canada.ca</a>.</p>\n<h2><strong>Learn more</strong></h2>\n<ul>\n<li><a href=\"https://intranet.agr.gc.ca/agrisource/AgriDoc.do?id=104506818&amp;lang=eng\" target=\"_blank\">Year-End Assessment - Checklist for Employees</a>\u00a0(Word)</li>\n<li><a href=\"https://intranet.agr.gc.ca/agrisource/AgriDoc.do?id=104500574&amp;lang=eng\" target=\"_blank\">Year-End Assessment - Checklist for Managers</a>\n (Word)</li>\n<li><a href=\"http://intranet.agr.gc.ca/agrisource/eng/human-resources/performance-management?id=1287674550306\">Performance Management</a></li>\n<li><a href=\"https://collab.agr.gc.ca/co/ex-comm-ex/SitePages/Home.aspx\">EX Community Knowledge Workspace site</a></li>\n</ul>\n\n\t\t",
        "fr": "<br>\n<br>\n<p>Comme la fin de l\u2019exercice 2019-2020 approche \u00e0 grands pas, c\u2019est le temps de pr\u00e9parer les \u00e9valuations de rendement de fin d\u2019exercice!</p>\n<p>Les \u00e9valuations de fin d'exercice offrent l\u2019occasion aux gestionnaires, superviseurs et employ\u00e9s :</p>\n<ul>\n<li>d\u2019examiner les r\u00e9alisations de chacun en fonction des objectifs de travail \u00e9tablis et des indicateurs de rendement</li>\n<li>de discuter des d\u00e9fis ou des obstacles qui pourraient \u00eatre survenus en cours d\u2019exercice</li>\n<li>de fournir une r\u00e9troaction sur ce qui fonctionne bien et ce qui a besoin d\u2019\u00eatre am\u00e9lior\u00e9</li>\n<li>de documenter les r\u00e9sultats g\u00e9n\u00e9raux en mati\u00e8re de rendement</li>\n</ul>\n<p>Toutes les \u00e9valuations de rendement doivent \u00eatre termin\u00e9es d\u2019ici le <strong>15 avril</strong>.</p>\n<h2><strong>\u00c9valuations de rendement des employ\u00e9s</strong></h2>\n<p>Elles doivent \u00eatre remplies dans l\u2019<a rel=\"external\" href=\"https://portal-portail.tbs-sct.gc.ca/home-fra.aspx\">application Gestion du rendement de la fonction publique</a> (application GRFP). Veuillez adresser toute question concernant les \u00e9valuations de rendement des employ\u00e9s \u00e0 <a href=\"mailto:aafc.performance-rendement.aac@canada.ca\">aafc.performance-rendement.aac@canada.ca</a>.</p>\n<h2><strong>\u00c9valuations de rendement des cadres sup\u00e9rieurs</strong></h2>\n<p>Elles doivent \u00eatre remplies dans le <a rel=\"external\" href=\"https://talent.tbs-sct.gc.ca/etms-sgtcs/Connexion-fra.aspx\">Syst\u00e8me de gestion des talents des cadres sup\u00e9rieurs</a> (SGTCS). Veuillez adresser toute question concernant les \u00e9valuations de rendement des cadres sup\u00e9rieurs et de certains employ\u00e9s exclus ou non repr\u00e9sent\u00e9s \u00e0 <a href=\"mailto:laeticia.boyer@canada.ca\">laeticia.boyer@canada.ca</a>.</p>\n<h2><strong>Renseignements suppl\u00e9mentaires </strong></h2>\n<ul>\n<li><a href=\"https://intranet.agr.gc.ca/agrisource/AgriDoc.do?id=104533340&amp;lang=fra\" target=\"_blank\">Liste de v\u00e9rification de fin d'exercice de l'employ\u00e9</a>\u00a0(Word)</li>\n<li><a href=\"https://intranet.agr.gc.ca/agrisource/AgriDoc.do?id=104533152&amp;lang=fra\" target=\"_blank\">Liste de v\u00e9rification de fin d'exercice du gestionnaire</a>\u00a0(Word)</li>\n<li><a href=\"http://intranet.agr.gc.ca/agrisource/fra/ressources-humaines/gestion-du-rendement?id=1287674550306\">Gestion du rendement</a>\n</li>\n<li><a href=\"https://collab.agr.gc.ca/co/ex-comm-ex/SitePages/Home.aspx\">Site de la Communaut\u00e9 des cadres sup\u00e9rieurs dans l\u2019Espace de travail du savoir</a></li>\n</ul>\n\t\t"
    },
    "breadcrumb": {
        "en": "2019-20 Year-End Performance Assessments - Deadline is April 15",
        "fr": "\u00c9valuations de rendement de fin d'exercice 2019-2020 - l'\u00e9ch\u00e9ance est le 15 avril"
    },
    "news": {
        "date_posted": {
            "en": "2020-03-12",
            "fr": "2020-03-12"
        },
        "to": {
            "en": "All staff",
            "fr": "Tous les employ\u00e9s"
        },
        "by": {
            "en": "Human Resources, Corporate Management Branch",
            "fr": "Ressources humaines, Direction g\u00e9n\u00e9rale de la gestion int\u00e9gr\u00e9e"
        }
    }
}