{
    "dcr_id": "1583776367711",
    "lang": "en",
    "title": {
        "en": "Data Analyst",
        "fr": "Analyste des donn\u00e9es"
    },
    "modified": "2020-03-10 00:00:00.0",
    "issued": "2020-03-10 00:00:00.0",
    "type_name": "intra-intra/empl-empl",
    "node_id": "1279029955397",
    "layout_name": null,
    "dc_date_created": "2020-03-10",
    "breadcrumb_label": "",
    "meta": {
        "issued": {
            "en": "2020-03-10",
            "fr": "2020-03-10"
        },
        "modified": {
            "en": "2020-03-10",
            "fr": "2020-03-10"
        },
        "format": {
            "en": "gcformat",
            "fr": "gcformat"
        },
        "title": {
            "en": "Data Analyst",
            "fr": "Analyste des donn\u00e9es"
        },
        "subject": {
            "en": "staffing",
            "fr": "dotation en personnel"
        },
        "language": {
            "en": "eng",
            "fr": "fra"
        },
        "audience": {
            "en": "gcaudience",
            "fr": "gcaudience"
        },
        "type": {
            "en": "notice",
            "fr": "avis"
        },
        "creator": {
            "en": "Agriculture and Agri-Food Canada",
            "fr": "Agriculture et Agroalimentaire Canada"
        },
        "spatial": {
            "en": "gcregions",
            "fr": "gcregions"
        },
        "service": {
            "en": "AAFC_AgriSource",
            "fr": "AAC_AgriSource"
        },
        "accessRights": {
            "en": "3",
            "fr": "3"
        }
    },
    "body": {
        "en": "\n<p><strong>\u00a0</strong></p>\n<p>Attention all ECDP participants at the EC-03 level! The Cost-Shared Governance and Results unit, within the Programs, Services and Results Division (PSRD) in Programs Branch is looking for a\u00a0Data Analyst to join the team on a one year assignment.<br>\n<br>\nWe are seeking motivated individuals who are eager to dig into large results datasets, support the development and maintenance of the AgriShare system, take on analytical challenges and think ahead to the next Partnership framework. The successful candidate should have strong data manipulation and analytical skills, be able to integrate and disseminate information from multiple sources, synthesize ideas well and communicate effectively with different audiences.</p>\n<p>The Cost-Shared Governance and Results unit works collaboratively with AAFC, provincial governments and territorial governments on the implementation of Canadian Agricultural Partnership (CAP) cost-shared programs. Particularly, the unit works with provinces and territories, and with the Federal-Provincial-Territorial (FPT) priority area working groups on the collection, analysis and reporting of results for CAP cost-shared programming. The unit also supports the development of policy direction and guidance for internal and external partners, and is currently working on the development of the next policy framework in consultation with other AAFC branches.</p>\n<p><strong><br>Language Requirement: </strong>Bilingual imperative (BBB)</p>\n<p><strong><br>As an analyst in the Cost-Shared Governance and Results unit you will: </strong></p>\n<ul>\n<li>Collect, analyze and synthesize results at a national level from the performance measures of the CAP cost-shared program</li>\n<li>Respond to requests for data on CAP results from other AAFC branches and Directorates</li>\n<li>Support the development and maintenance of the Agri-Share system</li>\n<li>Support reporting on results of the CAP cost-shared program with a view to examine the evolution of programming and policies for the next policy framework</li>\n<li>Analyze and develop recommendations on questions related to CAP and engage in discussions with AAFC representatives</li>\n<li>Develop recommendations on policy questions and support the Federal-Provincial-Territorial Finance and Performance Measurement Working Group on performance measurement and financial management</li>\n</ul>\n<p><br>\n<strong>In the Cost-Shared Governance and Results unit you will have the opportunity to broaden your knowledge of: </strong></p>\n<ul>\n<li>Federal/provincial/territorial relations;</li>\n<li>Policy analysis;</li>\n<li>Managing results;</li>\n<li>Briefing senior levels; and</li>\n<li>Report writing.</li>\n</ul>\n<p><br>\n<strong>Interested? Please send your cover letter and resume to Amanda McIntyre at </strong><strong>amanda.mcintyre@canada.ca</strong><strong> by </strong><strong>March 16th 2020.</strong></p>\n<p>In your cover letter, please tell us briefly why you would be a good fit for the position, and why an assignment opportunity working with the Cost-Shared Governance and Results unit has piqued your interest.</p>\n<p>If you have any questions or would like more information, please contact Amanda McIntyre at amanda.mcintyre@canada.ca or <span style=\"white-space: nowrap;\" class=\"baec5a81-e4d6-4674-97f3-e9220f0136c1\">613 773-1876<a href=\"#\" style=\"margin: 0px; border: currentColor; left: 0px; top: 0px; width: 16px; height: 16px; right: 0px; bottom: 0px; overflow: hidden; vertical-align: middle; float: none; display: inline; white-space: nowrap; position: static !important;\" title=\"Call: 613 773-1876\"><img src=\"data:image/png;base64,iVBORw0KGgoAAAANSUhEUgAAABAAAAAQCAYAAAAf8/9hAAABcklEQVR4XpXTPUvDUBTH4aR2c2hBQXGpTiIORhBcBOvgYKf0Awi+4Ggr1MVPIIrYdnEpShddHIyLi6AVXVxsRRDRwbi4KNgu4lCIv8i/i6QRDzycy+09555LqOl5nhEUptPoJe1iDHU8oYlrlDw79m4QEbSLPexzsIc8hDRm8YBjLpj4q8EgxQdab+MNd4ghhQ2adIc1+ORAFEnWWfTDRp7GDfImlsIavKALLuqoqMGUCs4wHtagiQ5uc8kDyCOBKlP1k78QNTOZnMXCQRxWsbjl6iuskV41SQG2Gj9rikvcR1WcgKFDBa1LOEUK56hqv8BUFV3SGWkVS9JQ6Dsv4wQ1DKMPORUvkm78BhdQMI1CTa5I0yrcwSFqFD+SZ7DQesIkCG5S/JpkHYERQRmuNsrZ7Grc+Ef8/Bcoslkfae8Wc7CUHZ++TuAEBj86pHntjaDKXllPy6PW/gkKFaThwp/K87N8hDcQTTKKFTioSxqB8Q2BNX5JtAljwgAAAABJRU5ErkJggg==\" style=\"border: currentColor; bottom: 0px; display: inline; float: none; height: 16px; left: 0px; margin: 0px; overflow: hidden; position: static !important; right: 0px; top: 0px; vertical-align: middle; white-space: nowrap; width: 16px;\" title=\"Call: 613 773-1876\"></a></span>.</p>\n<p><strong><br>Notes</strong>:</p>\n<ul>\n<li>This is a one year Assignment at level with the possibility of extension</li>\n<li>Candidates must have their manager\u2019s approval prior to applying for this opportunity.</li>\n<li>Communication for this process will be sent via email.</li>\n<li>Your cover letter may be used to assess your communication and writing skills.</li>\n<li>Reference checks may be sought.</li>\n</ul>\n<p>\u00a0</p>\n",
        "fr": "\n<p><strong>\u00a0</strong></p>\n<p>Nous avisons tous les participants de niveau EC-03 au PPEC que l\u2019Unit\u00e9 de la gouvernance des frais partag\u00e9s et des r\u00e9sultats (Division des programmes, des services et des r\u00e9sultats, Direction g\u00e9n\u00e9rale des programmes) est \u00e0 la recherche d\u2019un analyste des donn\u00e9es pour une affectation d\u2019un an au sein de son \u00e9quipe.<br>\n<br>\nNous sommes \u00e0 la recherche de personnes motiv\u00e9es qui sont int\u00e9ress\u00e9es \u00e0 puiser dans de vastes ensembles de donn\u00e9es sur les r\u00e9sultats, \u00e0 soutenir le d\u00e9veloppement et l\u2019entretien du syst\u00e8me Agri\u2011\u00c9change, \u00e0 relever des d\u00e9fis analytiques et \u00e0 r\u00e9fl\u00e9chir au cadre du prochain Partenariat. Le candidat retenu doit poss\u00e9der de solides comp\u00e9tences en manipulation de donn\u00e9es et en analyse, \u00eatre capable d\u2019int\u00e9grer et de diffuser les renseignements provenant de sources multiples, de bien synth\u00e9tiser les id\u00e9es et de communiquer efficacement avec divers publics.</p>\n<p>L\u2019Unit\u00e9 de la gouvernance des frais partag\u00e9s et des r\u00e9sultats collabore avec AAC et les gouvernements provinciaux et territoriaux pour mettre en oeuvre les programmes \u00e0 frais partag\u00e9s du Partenariat canadien pour l\u2019agriculture (PCA). L\u2019unit\u00e9 travaille avec les provinces, les territoires et les groupes de travail f\u00e9d\u00e9raux-provinciaux-territoriaux (FPT) sur les domaines prioritaires pour recueiller et analyser des donn\u00e9es sur les r\u00e9sultats des programmes \u00e0 frais partag\u00e9s du PCA et produire des rapports connexes. En outre, l\u2019unit\u00e9 appuie l\u2019\u00e9laboration d\u2019une orientation et de conseils strat\u00e9giques pour les partenaires internes et externes et elle travaille actuellement \u00e0 la pr\u00e9paration du prochain cadre strat\u00e9gique avec le concours des autres directions g\u00e9n\u00e9rales d\u2019AAC.</p>\n<p><strong><br>Exigences linguistiques : </strong>Poste bilingue, nomination imp\u00e9rative (BBB).</p>\n<p><strong><br>En tant qu\u2019analyste de l\u2019Unit\u00e9 de la gouvernance des frais partag\u00e9s et des r\u00e9sultats, vous aurez les responsabilit\u00e9s suivantes : </strong></p>\n<ul>\n<li>Faire la collecte, l\u2019analyse et la synth\u00e8se des r\u00e9sultats \u00e0 l\u2019\u00e9chelle nationale des mesures du rendement des programmes \u00e0 frais partag\u00e9s du PCA.</li>\n<li>Fournir des donn\u00e9es sur les r\u00e9sultats du PCA aux autres directions g\u00e9n\u00e9rales et directions d\u2019AAC sur demande.</li>\n<li>Appuyer le d\u00e9veloppement et l\u2019entretien du syst\u00e8me Agri-\u00c9change.</li>\n<li>Appuyer la production de rapports sur les r\u00e9sultats des programmes \u00e0 frais partag\u00e9s du PCA en vue d\u2019examiner l\u2019\u00e9volution des programmes et des politiques pour le prochain cadre strat\u00e9gique.</li>\n<li>Analyser les questions relatives au PCA, formuler des recommandations connexes et participer \u00e0 des discussions avec des repr\u00e9sentants d\u2019AAC.</li>\n<li>Formuler des recommandations sur les questions strat\u00e9giques et aider le Groupe de travail f\u00e9d\u00e9ral-provincial-territorial sur les finances et la mesure du rendement \u00e0 s\u2019acquitter de ses t\u00e2ches.</li>\n</ul>\n<p><br>\n<strong>Une affectation \u00e0 l\u2019Unit\u00e9 de la gouvernance des frais partag\u00e9s et des r\u00e9sultats vous permettra de parfaire vos connaissances dans les domaines suivants : </strong></p>\n<ul>\n<li>relations f\u00e9d\u00e9rales-provinciales-territoriales;</li>\n<li>analyse des politiques;</li>\n<li>gestion des r\u00e9sultats;</li>\n<li>s\u00e9ances d\u2019information \u00e0 l\u2019intention des cadres sup\u00e9rieurs;</li>\n<li>r\u00e9daction de rapports.</li>\n</ul>\n<p><br>\n<strong>Si cette affectation vous int\u00e9resse, veuillez envoyer votre lettre de pr\u00e9sentation et votre curriculum vitae \u00e0 Amanda McIntyre (</strong><strong>amanda.mcintyre@canada.ca</strong><strong>) d\u2019ici le 16 mars 2020.</strong></p>\n<p>Dans votre lettre de pr\u00e9sentation, veuillez expliquer bri\u00e8vement en quoi vous seriez la bonne personne pour ce poste et pourquoi une occasion d\u2019affectation \u00e0 l\u2019Unit\u00e9 de la gouvernance des frais partag\u00e9s et des r\u00e9sultats a suscit\u00e9 votre int\u00e9r\u00eat.</p>\n<p>If you have any questions or would like more information, please contact Amanda McIntyre at amanda.mcintyre@canada.ca or <span style=\"white-space: nowrap;\" class=\"baec5a81-e4d6-4674-97f3-e9220f0136c1\">613 773-1876<a href=\"#\" style=\"margin: 0px; border: currentColor; left: 0px; top: 0px; width: 16px; height: 16px; right: 0px; bottom: 0px; overflow: hidden; vertical-align: middle; float: none; display: inline; white-space: nowrap; position: static !important;\" title=\"Call: 613 773-1876\"><img src=\"data:image/png;base64,iVBORw0KGgoAAAANSUhEUgAAABAAAAAQCAYAAAAf8/9hAAABcklEQVR4XpXTPUvDUBTH4aR2c2hBQXGpTiIORhBcBOvgYKf0Awi+4Ggr1MVPIIrYdnEpShddHIyLi6AVXVxsRRDRwbi4KNgu4lCIv8i/i6QRDzycy+09555LqOl5nhEUptPoJe1iDHU8oYlrlDw79m4QEbSLPexzsIc8hDRm8YBjLpj4q8EgxQdab+MNd4ghhQ2adIc1+ORAFEnWWfTDRp7GDfImlsIavKALLuqoqMGUCs4wHtagiQ5uc8kDyCOBKlP1k78QNTOZnMXCQRxWsbjl6iuskV41SQG2Gj9rikvcR1WcgKFDBa1LOEUK56hqv8BUFV3SGWkVS9JQ6Dsv4wQ1DKMPORUvkm78BhdQMI1CTa5I0yrcwSFqFD+SZ7DQesIkCG5S/JpkHYERQRmuNsrZ7Grc+Ef8/Bcoslkfae8Wc7CUHZ++TuAEBj86pHntjaDKXllPy6PW/gkKFaThwp/K87N8hDcQTTKKFTioSxqB8Q2BNX5JtAljwgAAAABJRU5ErkJggg==\" style=\"border: currentColor; bottom: 0px; display: inline; float: none; height: 16px; left: 0px; margin: 0px; overflow: hidden; position: static !important; right: 0px; top: 0px; vertical-align: middle; white-space: nowrap; width: 16px;\" title=\"Call: 613 773-1876\"></a></span>.</p>\n<p><strong><br>Remarques</strong></p>\n<ul>\n<li>Il s\u2019agit d\u2019une affectation d\u2019un an \u00e0 un poste de m\u00eame niveau, avec possibilit\u00e9 de prolongation.</li>\n<li>Les candidats doivent obtenir l\u2019approbation de leur gestionnaire avant de poser leur candidature.</li>\n<li>Les communications relatives \u00e0 ce processus se feront par courriel.</li>\n<li>Votre lettre de pr\u00e9sentation pourrait \u00eatre utilis\u00e9e pour \u00e9valuer vos comp\u00e9tences en communication et en r\u00e9daction.</li>\n<li>Les r\u00e9f\u00e9rences des candidats pourraient faire l\u2019objet d\u2019une v\u00e9rification.</li>\n</ul>\n<p>\u00a0</p>\n\n"
    },
    "breadcrumb": {
        "en": "Data Analyst",
        "fr": "Analyste des donn\u00e9es"
    },
    "empl": {
        "type": {
            "en": "Assignment",
            "fr": "Affectation"
        },
        "classification": {
            "en": "EC-3 and equivalent",
            "fr": "EC-3 et \u00e9quivalent"
        },
        "branch": {
            "en": "Programs Branch",
            "fr": "Direction g\u00e9n\u00e9rale des programmes"
        },
        "locations": {
            "en": "Ottawa, Ontario (NCR)",
            "fr": "Ottawa, Ontario (RCN)"
        },
        "date_closing": {
            "en": "2020-03-16",
            "fr": "2020-03-16"
        },
        "open_to": {
            "en": "AAFC ECDP participants at the EC-03 level in the National Capital Region",
            "fr": "Participants d\u2019AAC au PPEC (niveau EC-03) dans la r\u00e9gion de la capitale nationale"
        },
        "name": {
            "en": "Amanda McIntyre",
            "fr": "Amanda McIntyre"
        },
        "email": {
            "en": "amanda.mcintyre@canada.ca",
            "fr": "amanda.mcintyre@canada.ca"
        }
    }
}