{
    "dcr_id": "1585753578822",
    "lang": "en",
    "title": {
        "en": "NCR - Reduced Schedule for National Capital Region Mail Services ",
        "fr": "RCN - Horaire r\u00e9duit des Services de courrier dans la r\u00e9gion de la capitale nationale"
    },
    "modified": "2020-04-01 00:00:00.0",
    "issued": "2020-04-01 00:00:00.0",
    "type_name": "intra-intra/news-nouv",
    "node_id": "1279030006975",
    "layout_name": null,
    "dc_date_created": "2020-04-01",
    "breadcrumb_label": "",
    "meta": {
        "issued": {
            "en": "2020-04-01",
            "fr": "2020-04-01"
        },
        "modified": {
            "en": "2020-04-01",
            "fr": "2020-04-01"
        },
        "format": {
            "en": "gcformat",
            "fr": "gcformat"
        },
        "title": {
            "en": "NCR - Reduced Schedule for National Capital Region Mail Services ",
            "fr": "RCN - Horaire r\u00e9duit des Services de courrier dans la r\u00e9gion de la capitale nationale"
        },
        "subject": {
            "en": "communications",
            "fr": "communications"
        },
        "description": {
            "en": "Due to the COVID-19 situation, the internal mail services within the National Headquarters for the Canadian Agriculture Portfolio (NHCAP) will operate on a reduced schedule until further notice.",
            "fr": "En raison de la COVID-19, les services de courrier internes fonctionneront selon un horaire r\u00e9duit au Complexe de l'administration centrale du portefeuille de l'Agriculture (CACPA) jusqu\u2019\u00e0 nouvel ordre."
        },
        "language": {
            "en": "eng",
            "fr": "fra"
        },
        "audience": {
            "en": "gcaudience",
            "fr": "gcaudience"
        },
        "creator": {
            "en": "Agriculture and Agri-Food Canada",
            "fr": "Agriculture et Agroalimentaire Canada"
        },
        "spatial": {
            "en": "gcregions",
            "fr": "gcregions"
        },
        "service": {
            "en": "AAFC_AgriSource",
            "fr": "AAC_AgriSource"
        },
        "accessRights": {
            "en": "3",
            "fr": "3"
        }
    },
    "body": {
        "en": "<br>\n<br>\n<p>Due to the COVID-19 situation, the internal mail services within the National Headquarters for the Canadian Agriculture Portfolio (NHCAP) will operate on a reduced schedule until further notice.</p>\n<p>Effective immediately, our hours of operation will be from 11 a.m. to 2 p.m. Pick-up and delivery of mail to NHCAP and the Central Experimental Farm will be done once a day between 11:30 a.m. and 1 p.m.</p>\n<p>In cases where a signature is required, we will inform the recipient when their item is delivered. The recipient will be asked to contact us and arrange a pick-up time. We will hold on to the item until the recipient is able to pick it up.</p>\n<p>Employees shipping items should deliver them to the mailroom by 1:30 p.m. to ensure that they are sent that day.</p>\n<p>Thank you for your understanding, and please stay safe.</p>\n<p>\u00a0</p>\n<p><b>National Capital Region Mail Services Team</b><br>613-773-1234<br><a href=\"mailto:aafc.ncrmailservices-servicedemessageriesrcn.aac@canada.ca\">aafc.ncrmailservices-servicedemessageriesrcn.aac@canada.ca</a></p>\n\n\t\t",
        "fr": "<br>\n<br>\n<p>En raison de la COVID-19, les services de courrier internes fonctionneront selon un horaire r\u00e9duit au Complexe de l'administration centrale du portefeuille de l'Agriculture (CACPA) jusqu\u2019\u00e0 nouvel ordre.</p>\n<p>Dor\u00e9navant, nos heures de service seront de 11 h \u00e0 14 h. Le ramassage et la livraison du courrier au CACPA et \u00e0 la Ferme exp\u00e9rimentale centrale se feront une fois par jour, entre 11 h 30 et 13 h.</p>\n<p>Si une signature est requise, nous aviserons le destinataire lors de la r\u00e9ception de l\u2019article. Le destinataire devra communiquer avec nous pour d\u00e9terminer le moment du ramassage. Nous garderons l\u2019article jusqu\u2019au moment o\u00f9 le destinataire pourra passer le ramasser.</p>\n<p>Les employ\u00e9s qui envoient des articles doivent les apporter \u00e0 la salle du courrier avant 13 h 30 pour qu\u2019ils soient exp\u00e9di\u00e9s la journ\u00e9e m\u00eame.</p>\n<p>Merci de votre compr\u00e9hension et soyez prudents.</p>\n<p>\u00a0</p>\n<p><b>\u00c9quipe des Services de courrier de la r\u00e9gion de la capitale nationale</b><br>613-773-1234<br><a href=\"mailto:aafc.ncrmailservices-servicedemessageriesrcn.aac@canada.ca\">aafc.ncrmailservices-servicedemessageriesrcn.aac@canada.ca</a></p>\n<p>\u00a0</p>\n\t\t"
    },
    "breadcrumb": {
        "en": "NCR - Reduced Schedule for National Capital Region Mail Services",
        "fr": "RCN - Horaire r\u00e9duit des Services de courrier dans la r\u00e9gion de la capitale nationale"
    },
    "news": {
        "date_posted": {
            "en": "2020-04-01",
            "fr": "2020-04-01"
        },
        "to": {
            "en": "NCR only",
            "fr": "RCN seulement"
        },
        "by": {
            "en": "National Capital Region Mail Services Team",
            "fr": "\u00c9quipe des Services de courrier de la r\u00e9gion de la capitale nationale"
        }
    }
}