{
    "dcr_id": "1586442478836",
    "lang": "en",
    "title": {
        "en": "AAFC Update on COVID-19 - April 8, 2020",
        "fr": "Mise \u00e0 jour d'AAC sur la COVID-19 - 8 avril 2020"
    },
    "modified": "2020-04-09 00:00:00.0",
    "issued": "2020-04-09 00:00:00.0",
    "type_name": "intra-intra/news-nouv",
    "node_id": "1279030006975",
    "layout_name": null,
    "dc_date_created": "2020-04-09",
    "breadcrumb_label": "",
    "meta": {
        "issued": {
            "en": "2020-04-09",
            "fr": "2020-04-09"
        },
        "modified": {
            "en": "2020-04-09",
            "fr": "2020-04-09"
        },
        "format": {
            "en": "gcformat",
            "fr": "gcformat"
        },
        "title": {
            "en": "AAFC Update on COVID-19 - April 8, 2020",
            "fr": "Mise \u00e0 jour d'AAC sur la COVID-19 - 8 avril 2020"
        },
        "subject": {
            "en": "communications",
            "fr": "communications"
        },
        "description": {
            "en": "Here are today's updates.",
            "fr": "Au programme aujourd\u2019hui. . ."
        },
        "language": {
            "en": "eng",
            "fr": "fra"
        },
        "audience": {
            "en": "gcaudience",
            "fr": "gcaudience"
        },
        "creator": {
            "en": "Agriculture and Agri-Food Canada",
            "fr": "Agriculture et Agroalimentaire Canada"
        },
        "spatial": {
            "en": "gcregions",
            "fr": "gcregions"
        },
        "service": {
            "en": "AAFC_AgriSource",
            "fr": "AAC_AgriSource"
        },
        "accessRights": {
            "en": "3",
            "fr": "3"
        }
    },
    "body": {
        "en": "<br>\n<br>\n<p>As you know, the COVID-19 situation continues to evolve rapidly. Throughout this pandemic, we will bring you the latest information available to help you meet the exceptional challenges it presents\u2014which include making sure that your colleagues and loved ones have the support they need to safeguard their mental health.</p>\n<p>Here are today\u2019s updates:</p>\n<h2><strong><strong>UPDATE: Code 699, Other Leave with Pay </strong></strong></h2>\n<p>For the duration of the COVID-19 crisis, please use Code 699 for employees who are unable to work remotely because:</p>\n<ul>\n<li>the nature of their work makes it impossible to work from home;</li>\n<li>they are required to self-isolate;</li>\n<li>their children are unable to attend school or daycare and they are providing child care;</li>\n<li>they have been diagnosed with COVID-19 and have symptoms;</li>\n<li>they are at high risk of severe illness from COVID-19; or</li>\n<li>they are living with a dependant who is at high risk of severe illness from COVID-19.</li>\n</ul>\n<p>For more information, visit the <a href=\"https://www.canada.ca/en/government/publicservice/covid-19/employee-illness-leave.html\">Employee illness and leave</a> page on Canada.ca.</p>\n<p>Consider taking advantage of <a href=\"http://multimedia.agr.gc.ca/COVID-19/csps_courses-eng.html\">Canada School of Public Service (CSPS) online courses</a> to complete mandatory training, explore new topics, and broaden your knowledge.</p>\n<h2>A reminder to all managers</h2>\n<ul>\n<li>join the <a href=\"https://www.managers-gestionnaires.gc.ca/en\">National Managers' Community</a> on GCConnex for updates and information on technical briefings; and</li>\n<li>make sure to forward all staff messages to any team members who are unable to connect to the AAFC network and remind them to bookmark the <a href=\"http://multimedia.agr.gc.ca/COVID-19/index-eng.html\">Coronavirus disease (COVID-19)</a> web page.\n</li>\n</ul>\n<p>The Government of Canada\u2019s <a href=\"https://www.canada.ca/en/government/publicservice/wellness-inclusion-diversity-public-service/health-wellness-public-servants/mental-health-workplace.html?utm_campaign=not-applicable&amp;utm_medium=vanity-url&amp;utm_source=canada-ca_gcmentalhealth\">Centre of Expertise on Mental Health in the Workplace</a> has launched a new portal on mental health and wellness with resources for managers and teams on mental health and wellness. These resources include:</p>\n<ul>\n<li>information on how important it is for managers to <a href=\"https://www.canada.ca/en/government/publicservice/covid-19/lead-empathy.html\">protect their own mental health</a> so they can support their teams effectively; and</li>\n<li>a new fact sheet called <a href=\"https://www.canada.ca/en/government/publicservice/covid-19/mental-health-tips.html\">Mental health tips for working from home</a>.\n</li>\n</ul>\n<p>We recognize that you are navigating many changes right now as you try to meet the demands of work, care for loved ones, and manage your own well-being. If you are struggling, remember that you can always talk to your manager, and that the <a href=\"https://www.workhealthlife.com/?lang=en-CA\">Employee and Family Assistance Program</a> is available for support. And if you know a child who needs help, please remind them that the <a href=\"https://kidshelpphone.ca/?gclid=EAIaIQobChMIgduavp_F6AIVxpyzCh3MMAuxEAAYASAAEgK3o_D_BwE\">Kids Help Phone</a> is always there to listen. This confidential service is available 24/7 by phone, by text, via mobile app, or through its website.</p>\n<p>We continue to post regular updates on <a href=\"http://multimedia.agr.gc.ca/COVID-19/index-eng.html\">Coronavirus disease (COVID-19)</a>, so don\u2019t forget to visit the webpage every day.</p>\n<p>And remember\u2014you\u2019re part of a team that cares about you. Stay safe, and stay healthy.</p>\n<p>\u00a0</p>\n<p><strong>Christine Walker<br></strong>Assistant Deputy Minister<br>Corporate Management Branch</p>\n\n\t\t",
        "fr": "<br>\n<br>\n<p>Comme vous le savez, la situation entourant la COVID-19 continue d\u2019\u00e9voluer rapidement. Tout au long de cette pand\u00e9mie, nous vous fournirons les plus r\u00e9centes informations disponibles pour vous aider \u00e0 relever les d\u00e9fis exceptionnels que pr\u00e9sente cette situation, notamment le besoin de veiller \u00e0 ce que vos coll\u00e8gues et vos proches aient le soutien dont ils ont besoin pour prendre soin de leur sant\u00e9 mentale.</p>\n<p>Au programme aujourd\u2019hui :</p>\n<h2><strong>MISE \u00c0 JOUR : Code 699 \u2013 Autre cong\u00e9 pay\u00e9</strong></h2>\n<p>Pour la dur\u00e9e de la crise de la COVID-19, veuillez utiliser le code 699 (autre cong\u00e9 pay\u00e9) dans le cas des employ\u00e9s qui sont incapables de travailler \u00e0 distance pour l\u2019une ou l\u2019autre des raisons suivantes :</p>\n<ul>\n<li>La nature de leur travail fait en sorte qu\u2019il leur est impossible de travailler \u00e0 la maison.</li>\n<li>Ils doivent se mettre en isolement.</li>\n<li>Ils ont des enfants qui ne peuvent aller \u00e0 l\u2019\u00e9cole ou \u00e0 la garderie et ils doivent s\u2019en occuper.</li>\n<li>Ils ont re\u00e7u un diagnostic de COVID-19 et pr\u00e9sentent des sympt\u00f4mes de la maladie.</li>\n<li>Ils sont susceptibles d\u2019\u00eatre gravement malades s\u2019ils contractent la COVID\u201119.</li>\n<li>Ils vivent avec une personne \u00e0 charge susceptible d\u2019\u00eatre gravement malade si elle contracte la COVID-19.</li>\n</ul>\n<p>Pour obtenir d\u2019autres pr\u00e9cisions, consultez la page <a href=\"https://www.canada.ca/fr/gouvernement/fonctionpublique/covid-19/maladie-conge-employes.html\">Maladie et cong\u00e9 pour employ\u00e9s</a> sur le site Canada.ca.</p>\n<p>Pensez \u00e0 tirer parti des <a href=\"http://multimedia.agr.gc.ca/COVID-19/csps_courses-fra.html\">cours en ligne de l\u2019\u00c9cole de la fonction publique du Canada</a> pour suivre les formations obligatoires, \u00e9tudier de nouveaux sujets et accro\u00eetre vos connaissances.</p>\n<h2>Rappel pour tous les gestionnaires</h2>\n<ul>\n<li>Joignez-vous \u00e0 la <a href=\"https://managers-gestionnaires.gc.ca/fr\">Communaut\u00e9 nationale des gestionnaires</a> sur GCConnex pour vous renseigner sur les s\u00e9ances d\u2019information techniques;</li>\n<li>Assurez-vous de transmettre tous les messages destin\u00e9s aux employ\u00e9s aux membres de l\u2019\u00e9quipe qui ne peuvent pas se connecter au r\u00e9seau d\u2019AAC et de leur rappeler de mettre la page Web <a href=\"http://multimedia.agr.gc.ca/COVID-19/index-fra.html\">Maladie \u00e0 coronavirus (COVID-19)</a> dans leurs favoris.\n</li>\n</ul>\n<p>Le <a href=\"https://www.canada.ca/fr/gouvernement/fonctionpublique/mieux-etre-inclusion-diversite-fonction-publique/sante-mieux-etre-fonctionnaires/sante-mentale-travail.html\">Centre d\u2019expertise pour la sant\u00e9 mentale en milieu de travail</a> du gouvernement du Canada a lanc\u00e9 un nouveau portail sur la sant\u00e9 mentale et le mieux-\u00eatre qui offre des ressources aux gestionnaires et aux \u00e9quipes, dont les suivantes :</p>\n<ul>\n<li>information sur l\u2019importance pour les gestionnaires de <a href=\"https://www.canada.ca/fr/gouvernement/fonctionpublique/covid-19/dirigez-empathie.html\">prot\u00e9ger leur sant\u00e9 mentale</a> afin de pouvoir aider leurs \u00e9quipes efficacement;</li>\n<li>une nouvelle fiche d\u2019information intitul\u00e9e <a href=\"https://www.canada.ca/fr/gouvernement/fonctionpublique/covid-19/conseils-sante-mentale.html\">Conseils sur la sant\u00e9 mentale pour le travail \u00e0 domicile</a>.\n</li>\n</ul>\n<p>Nous comprenons que vous g\u00e9rez de nombreux changements en ce moment pour r\u00e9pondre \u00e0 des exigences professionnelles, prendre soin de vos proches et assurer votre propre bien-\u00eatre. Si vous \u00e9prouvez des difficult\u00e9s, n\u2019oubliez pas que vous pouvez parler \u00e0 votre gestionnaire et faire appel au <a href=\"https://www.workhealthlife.com/?explicitSoftLogin=true\">Programme d\u2019aide aux employ\u00e9s et \u00e0 la famille</a>. De plus, si vous connaissez un enfant qui a besoin d\u2019aide, dites-lui que <a href=\"https://jeunessejecoute.ca/\">Jeunesse, J\u2019\u00e9coute</a> est toujours l\u00e0 pour l\u2019\u00e9couter. Ce service confidentiel est offert 24 heures sur 24, 7 jours sur 7 par t\u00e9l\u00e9phone, texto, application mobile et site Web.</p>\n<p>Nous continuons d\u2019afficher r\u00e9guli\u00e8rement des mises \u00e0 jour sur la <a href=\"http://multimedia.agr.gc.ca/COVID-19/index-fra.html\">maladie \u00e0 coronavirus (COVID-19)</a>. Prenez l\u2019habitude de visiter cette page Web tous les jours.</p>\n<p>N\u2019oubliez pas que vous faites partie d\u2019une \u00e9quipe qui se pr\u00e9occupe de vous. Restez en s\u00e9curit\u00e9 et en sant\u00e9.</p>\n<p>\u00a0</p>\n<p><strong>Christine Walker<br></strong>Sous-ministre adjointe<br>Direction g\u00e9n\u00e9rale de la gestion int\u00e9gr\u00e9e</p>\n\t\t"
    },
    "breadcrumb": {
        "en": "AAFC Update on COVID-19 - April 8, 2020",
        "fr": "Mise \u00e0 jour d'AAC sur la COVID-19 - 8 avril 2020"
    },
    "news": {
        "date_posted": {
            "en": "2020-04-09",
            "fr": "2020-04-09"
        },
        "to": {
            "en": "All staff",
            "fr": "Tous les employ\u00e9s"
        },
        "by": {
            "en": "Christine Walker, Assistant Deputy Minister, Corporate Management Branch",
            "fr": "Christine Walker, Sous-ministre adjointe, Direction g\u00e9n\u00e9rale de la gestion int\u00e9gr\u00e9e"
        }
    }
}