{
    "dcr_id": "1586273158470",
    "lang": "en",
    "title": {
        "en": "A Message From the Clerk ",
        "fr": "Un message de la part du Greffier"
    },
    "modified": "2020-04-07 00:00:00.0",
    "issued": "2020-04-07 00:00:00.0",
    "type_name": "intra-intra/news-nouv",
    "node_id": "1279030006975",
    "layout_name": null,
    "dc_date_created": "2020-04-07",
    "breadcrumb_label": "",
    "meta": {
        "issued": {
            "en": "2020-04-07",
            "fr": "2020-04-07"
        },
        "modified": {
            "en": "2020-04-07",
            "fr": "2020-04-07"
        },
        "format": {
            "en": "gcformat",
            "fr": "gcformat"
        },
        "title": {
            "en": "A Message From the Clerk ",
            "fr": "Un message de la part du Greffier"
        },
        "subject": {
            "en": "communications",
            "fr": "communications"
        },
        "description": {
            "en": "I wanted to be in touch to share three thoughts.",
            "fr": "Je voulais vous faire part de trois r\u00e9flexions."
        },
        "language": {
            "en": "eng",
            "fr": "fra"
        },
        "audience": {
            "en": "gcaudience",
            "fr": "gcaudience"
        },
        "creator": {
            "en": "Agriculture and Agri-Food Canada",
            "fr": "Agriculture et Agroalimentaire Canada"
        },
        "spatial": {
            "en": "gcregions",
            "fr": "gcregions"
        },
        "service": {
            "en": "AAFC_AgriSource",
            "fr": "AAC_AgriSource"
        },
        "accessRights": {
            "en": "3",
            "fr": "3"
        }
    },
    "body": {
        "en": "<br>\n<br>\n<p>Dear Colleagues,</p>\n<p>I wanted to be in touch to share three thoughts.</p>\n<p>The first is to encourage all of us, as strongly as I can, to renew\u2014and redouble if possible\u2014our efforts to take all the public health precautions to prevent the further spread of COVID-19. This is for our own protection and that of our communities right across the country. Hand washing, physical distancing, and staying home except for the necessary requirements\u2014as public servants, we should be leading the way; as citizens, we join with everyone in our communities to make a practical contribution to battling this pandemic.</p>\n<p>Just as important to me as reinforcing the public health advice, is offering my thanks to you. I couldn\u2019t properly capture all the work that is being done by public servants to protect all of us from the virus, to serve Canadians who continue to need help, to design and set up new services for those facing the impact of the pandemic, and to support the infrastructure needed to make it all function. So many of you, in all parts of the country, are working at an unprecedented intensity, some of you at personal risk and so many with significant impact on your own personal and family lives. We have heard the Prime Minister acknowledge and thank public servants for their service, and we should feel proud of what we are doing. We join colleagues in public service at all levels of government, in all forms of service, who are acting professionally and selflessly. Words aren\u2019t adequate, but they are heartfelt\u2014thank you.</p>\n<p>My last thought in this message is to acknowledge the strangeness of what we are going through. For many of us who are separated from our colleagues and those still working in their normal workplaces and having to keep their distance, relying on phones and email for communication, day after day, feels unsettling and upsetting. Some of us have been asked to do different things or even to join different groups or teams that need supplementing. Many of us are keenly aware that we are not working nearly as hard as some on the front lines or on projects and initiatives requiring intense and ongoing effort. I would say this: don\u2019t feel guilty! Maybe you\u2019ve made this kind of exceptional effort in the past; others will be called on to take their turn in the future! It is what it is, and I know that all of us are willing to do whatever is required of us.</p>\n<p>In the meantime, stay sharp and be thoughtful of the contributions you and your teams can make. Please respond enthusiastically if asked to help out with efforts somewhere else, as many have already done. Keep working on assignments whose time will come again! Take the time to train and upgrade your knowledge if the immediate pressure is reduced on your normal tasks. Managers, stay close to your teams and be responsive. All of us can help to reinforce our colleagues and support their mental health.</p>\n<p>The motto of our ongoing renewal of the public service is \u201cAgile, Inclusive, Equipped.\u201d Who knew that \u201cagile\u201d would mean this kind of adjustment! But for now, it does. And who knows what we are learning along the way that will help us be better equipped for the future? As for inclusive, we are all in this together. The Canada that is so reflective of the world is experiencing a global pandemic. Our commitment to being in this together and serving everyone will be an incalculable advantage for Canada. The public service has a big role in making that so.</p>\n<p>\u00a0</p>\n<p><strong>Ian Shugart</strong><br>\nClerk of the Privy Council and Secretary to the Cabinet</p>\n\n\t\t",
        "fr": "<br>\n<br>\n<p>Chers coll\u00e8gues,</p>\n<p>Je voulais vous faire part de trois r\u00e9flexions.</p>\n<p>Premi\u00e8rement, j\u2019invite chacun d\u2019entre nous, dans toute la mesure du possible, \u00e0 renouveler les efforts, voire \u00e0 redoubler d\u2019ardeur, pour suivre les pr\u00e9cautions sanitaires visant \u00e0 freiner la propagation de la COVID-19. Il en va de notre protection et de celle de nos collectivit\u00e9s \u00e0 la grandeur du pays. Se laver les mains, s\u2019\u00e9loigner physiquement, rester \u00e0 la maison, sauf en cas de n\u00e9cessit\u00e9. En tant que fonctionnaires, nous devons montrer l\u2019exemple. En tant que citoyens, nous faisons des gestes concrets pour lutter contre la pand\u00e9mie actuelle, en collaboration avec tous nos concitoyens.</p>\n<p>Il est tout aussi important pour moi de vous remercier que de renforcer les conseil de sant\u00e9 publique. Je ne saurais bien rendre compte de tout le travail que font les fonctionnaires pour nous prot\u00e9ger du virus, pour servir les Canadiens qui ont encore besoin d\u2019aide, pour concevoir et mettre sur pied des services destin\u00e9s aux personnes qui subissent les contrecoups de la pand\u00e9mie et pour prendre en charge l\u2019infrastructure n\u00e9cessaire pour faire fonctionner le tout. Vous \u00eates si nombreux, partout au Canada, \u00e0 travailler avec une intensit\u00e9 sans pr\u00e9c\u00e9dent. Pour certains, c\u2019est \u00e0 leurs propres risques, et pour beaucoup, les r\u00e9percussions sont \u00e9normes sur les plans personnel et familial. Nous avons entendu le premier ministre exprimer sa reconnaissance \u00e0 l\u2019endroit des fonctionnaires et les remercier pour leur service. Nous devrions tous \u00eatre fiers de ce que nous faisons. De concert avec nos coll\u00e8gues dans tous les ordres de gouvernement, quelle que soit la fonction, nous agissons avec professionnalisme et altruisme. Les paroles ne suffisent pas, mais elles viennent du fond du c\u0153ur : merci!</p>\n<p>En terminant, je me dois de souligner l\u2019\u00e9tranget\u00e9 de ce que nous vivons. Nous sommes nombreux \u00e0 \u00eatre \u00e0 l\u2019\u00e9cart de nos coll\u00e8gues, et ceux qui sont encore dans leur milieu de travail habituel doivent rester \u00e0 distance des autres. Nous d\u00e9pendons du t\u00e9l\u00e9phone et du courriel pour communiquer, jour apr\u00e8s jour. C\u2019est un sentiment perturbant et bouleversant. Certains sont appel\u00e9s \u00e0 faire des choses diff\u00e9rentes, et m\u00eame \u00e0 int\u00e9grer d\u2019autres groupes ou \u00e9quipes qui ont besoin de renfort. Bon nombre d\u2019entre nous savent bien qu\u2019ils ne travaillent pas avec autant d\u2019ardeur que certaines personnes qui sont au front ou qui participent \u00e0 des projets ou \u00e0 des initiatives n\u00e9cessitant un effort intense et soutenu. Je peux vous dire ceci : ne vous sentez pas coupables! Vous avez peut-\u00eatre d\u00e9j\u00e0 eu \u00e0 livrer un effort de la sorte auparavant, et d\u2019autres seront appel\u00e9s \u00e0 faire de m\u00eame \u00e0 l\u2019avenir! Les choses sont ce qu\u2019elles sont, et je sais que nous ne demandons pas mieux que de faire le n\u00e9cessaire, peu importe en quoi \u00e7a consiste.</p>\n<p>Dans l\u2019intervalle, restez vigilants et songez \u00e0 la contribution que vos \u00e9quipes et vous pouvez apporter. Dites oui avec enthousiasme si on sollicite votre aide quelque part, comme bien d\u2019autres l\u2019ont fait avant vous. Continuez de vaquer \u00e0 vos occupations professionnelles, qui reprendront leur cours normal. Prenez du temps pour suivre une formation et approfondir vos connaissances si vos t\u00e2ches courantes sont moins pressantes qu\u2019\u00e0 l\u2019habitude. Gestionnaires : gardez le contact avec vos \u00e9quipes et soyez attentifs aux besoins. Nous pouvons tous aider \u00e0 renforcer nos coll\u00e8gues et \u00e0 favoriser leur sant\u00e9 mentale.</p>\n<p>\u00ab Agile, inclusive, outill\u00e9e \u00bb, c\u2019est la devise du renouvellement continu de la fonction publique. Qui aurait pu pr\u00e9dire que l\u2019agilit\u00e9, ce serait de prendre les moyens que nous avons pris pour nous adapter?! Mais \u00e0 l\u2019heure actuelle, c\u2019est le cas. Et qui sait? Peut-\u00eatre que ce que nous apprenons en chemin nous outillera mieux pour l\u2019avenir. Et l\u2019inclusivit\u00e9? Bien, nous sommes tous dans le m\u00eame bateau. Notre pays, qui est le fid\u00e8le reflet du monde, est en situation de pand\u00e9mie. Notre d\u00e9termination \u00e0 faire front commun et \u00e0 servir tout le monde sera un atout inestimable pour le Canada. La fonction publique a un grand r\u00f4le \u00e0 jouer pour y parvenir.</p>\n<p>\u00a0</p>\n<p><strong>Ian Shugart </strong><br>\nGreffier du Conseil priv\u00e9 et secr\u00e9taire du Cabinet</p>\n\t\t"
    },
    "breadcrumb": {
        "en": "A Message From the Clerk",
        "fr": "Un message de la part du Greffier"
    },
    "news": {
        "date_posted": {
            "en": "2020-04-07",
            "fr": "2020-04-07"
        },
        "to": {
            "en": "All staff",
            "fr": "Tous les employ\u00e9s"
        },
        "by": {
            "en": "Ian Shugart, Clerk of the Privy Council and Secretary to the Cabinet",
            "fr": "Ian Shugart, Greffier du Conseil priv\u00e9 et secr\u00e9taire du Cabinet"
        }
    }
}