{
    "dcr_id": "1587760644611",
    "lang": "en",
    "title": {
        "en": "Staying the Course ",
        "fr": "Garder le cap"
    },
    "modified": "2020-04-24 00:00:00.0",
    "issued": "2020-04-24 00:00:00.0",
    "type_name": "intra-intra/news-nouv",
    "node_id": "1279030006975",
    "layout_name": null,
    "dc_date_created": "2020-04-24",
    "breadcrumb_label": "",
    "meta": {
        "issued": {
            "en": "2020-04-24",
            "fr": "2020-04-24"
        },
        "modified": {
            "en": "2020-04-24",
            "fr": "2020-04-24"
        },
        "format": {
            "en": "gcformat",
            "fr": "gcformat"
        },
        "title": {
            "en": "Staying the Course ",
            "fr": "Garder le cap"
        },
        "subject": {
            "en": "communications",
            "fr": "communications"
        },
        "description": {
            "en": "Over the last few weeks, articles have begun to appear from various media outlets congratulating federal public servants for their extraordinary efforts to help Canadians during the COVID-19 pandemic.",
            "fr": "Au cours des derni\u00e8res semaines, des articles ont commenc\u00e9 \u00e0 para\u00eetre dans divers m\u00e9dias pour f\u00e9liciter les fonctionnaires f\u00e9d\u00e9raux des efforts extraordinaires qu'ils d\u00e9ploient pour aider les Canadiens pendant la pand\u00e9mie de COVID-19."
        },
        "language": {
            "en": "eng",
            "fr": "fra"
        },
        "audience": {
            "en": "gcaudience",
            "fr": "gcaudience"
        },
        "creator": {
            "en": "Agriculture and Agri-Food Canada",
            "fr": "Agriculture et Agroalimentaire Canada"
        },
        "spatial": {
            "en": "gcregions",
            "fr": "gcregions"
        },
        "service": {
            "en": "AAFC_AgriSource",
            "fr": "AAC_AgriSource"
        },
        "accessRights": {
            "en": "3",
            "fr": "3"
        }
    },
    "body": {
        "en": "<br>\n<br>\n<p>Over the last few weeks, articles have begun to appear from various media outlets congratulating federal public servants for their extraordinary efforts to help Canadians during the COVID-19 pandemic. The praise is well deserved\u2014you\u2019ve proven yourselves to be strong and resourceful employees who approach your work with flexibility and integrity. Thank you all for your outstanding efforts.</p>\n<h2><strong>So what\u2019s next?</strong></h2>\n<p>The challenges we are facing due to the COVID-19 pandemic continue to affect our lives. As we said last week, we still don\u2019t know how long the current circumstances will last. Until then, the focus is still on managing today\u2019s realities, both in the department and those facing the sector. While we navigate and adjust to these ongoing challenges, we are also beginning to have discussions across government and within the department about reintegration and how we might be able to resume regular operations, including returning to our office buildings and research centres.</p>\n<h2><strong>This week\u2019s developments</strong></h2>\n<p>Yesterday, we held a virtual town hall with AAFC executives to discuss the evolving pressures facing the agriculture and agri-food sectors, the state of our research and development work, and the latest corporate updates.</p>\n<p>Right now, the pressure on certain sectors is extremely elevated. The department continues to work closely with our partners and the industry on issues related to processing plant closures, labour shortages, and the interconnectedness of the food supply chain, and we are trying to mobilize supports when and where needed.</p>\n<p>At the town hall, we also focused on bright spots and the continued collaboration we are seeing. One such example is the fact that close to 400 of you have put up your hands to provide extra support as needed across the department by adding your name to the volunteer inventory. We encouraged our executives to use this talent pool to address any surge needs going forward.</p>\n<h2><strong>Supporting one another</strong></h2>\n<p>We recognize that some of you continue to feel mixed emotions right now\u2014whether you are thinking about resuming regular operations, shaken by the terrible loss and tragedy that took place in Nova Scotia, or struggling with your own individual challenges.</p>\n<p>In times of crisis, while it is essential that we take care of ourselves, it is also important that we take care of each other. Please take a moment to share words of caring and gratitude with those you appreciate\u2014it\u2019s good for your health.</p>\n<p>In addition to the mental health tools, tips, and supports accessible on our <a href=\"http://multimedia.agr.gc.ca/COVID-19/mental_health-eng.html#_blank\">COVID-19 website</a>, Jane Taylor, AAFC\u2019s Ombudsperson, remains available for one-on-one video meetings, WebEx sessions, and meetings by phone. The Ombudsperson provides a safe environment where employees at all levels can raise, discuss, and address work-related issues without fear of reprisal. To schedule an appointment with the Ombuds, please send an email to <a href=\"mailto:AAFC.Ombuds.AAC@canada.ca\">AAFC.Ombuds.AAC@canada.ca</a>.</p>\n<p>Lastly, we wanted to let you know that we will be looking at the possibility of an all-staff meeting as well as restarting our conversations (virtual) with employees over the next few weeks to check in and see how you are doing\u2014so keep an eye out for the invitations.</p>\n<p>Take care of yourselves and your loved ones.</p>\n<p>\u00a0</p>\n<p><strong>Chris Forbes<br></strong>Deputy Minister</p>\n<p><strong>Annette Gibbons<br></strong>Associate Deputy Minister</p>\n\n\t\t",
        "fr": "<br>\n<br>\n<p>Au cours des derni\u00e8res semaines, des articles ont commenc\u00e9 \u00e0 para\u00eetre dans divers m\u00e9dias pour f\u00e9liciter les fonctionnaires f\u00e9d\u00e9raux des efforts extraordinaires qu\u2019ils d\u00e9ploient pour aider les Canadiens pendant la pand\u00e9mie de COVID-19. Les \u00e9loges sont bien m\u00e9rit\u00e9s : vous prouvez que vous \u00eates forts et ing\u00e9nieux et que vous abordez votre travail avec souplesse et int\u00e9grit\u00e9. Merci \u00e0 tous pour vos efforts exceptionnels.</p>\n<h2><strong>Et maintenant?</strong></h2>\n<p>Les d\u00e9fis auxquels nous sommes confront\u00e9s en raison de la pand\u00e9mie de COVID-19 continuent de perturber nos vies. Comme nous l\u2019avons dit la semaine derni\u00e8re, nous ne savons toujours pas combien de temps les circonstances actuelles vont durer. D\u2019ici l\u00e0, nous continuons de g\u00e9rer les r\u00e9alit\u00e9s d\u2019aujourd\u2019hui, tant au sein du Minist\u00e8re que dans le secteur. Alors que nous nous adaptons \u00e0 ces r\u00e9alit\u00e9s, nous commen\u00e7ons \u00e9galement \u00e0 tenir des discussions \u00e0 l\u2019\u00e9chelle du gouvernement et du Minist\u00e8re sur la fa\u00e7on dont nous pourrions reprendre nos activit\u00e9s normales, y compris le retour dans nos bureaux et nos centres de recherche.</p>\n<h2><strong>Les nouvelles de la semaine</strong></h2>\n<p>Hier, nous avons tenu une assembl\u00e9e virtuelle avec les dirigeants d\u2019AAC pour discuter de l\u2019\u00e9volution des pressions auxquelles fait face le secteur agricole et agroalimentaire, de l\u2019avancement de nos travaux de recherche et de d\u00e9veloppement et des derni\u00e8res nouvelles minist\u00e9rielles.</p>\n<p>En ce moment, les pressions exerc\u00e9es sur certains secteurs sont \u00e9normes. Le Minist\u00e8re continue de travailler \u00e9troitement avec ses partenaires et l\u2019industrie sur les questions li\u00e9es aux fermetures d\u2019usines de transformation, aux p\u00e9nuries de main-d\u2019\u0153uvre et \u00e0 l\u2019interd\u00e9pendance de la cha\u00eene d\u2019approvisionnement alimentaire, et nous essayons de fournir un soutien au moment et \u00e0 l\u2019endroit o\u00f9 il est n\u00e9cessaire.</p>\n<p>\u00c0 l\u2019assembl\u00e9e, nous avons \u00e9galement soulev\u00e9 les points positifs et la collaboration que nous continuons de constater. Un exemple est le fait que pr\u00e8s de 400 d\u2019entre vous ont lev\u00e9 la main pour apporter une aide suppl\u00e9mentaire, selon les besoins, \u00e0 l\u2019\u00e9chelle du Minist\u00e8re en ajoutant votre nom au r\u00e9pertoire des volontaires. Nous avons encourag\u00e9 nos dirigeants \u00e0 utiliser ce bassin de talents pour r\u00e9pondre \u00e0 tout besoin suppl\u00e9mentaire \u00e0 l\u2019avenir.</p>\n<h2><strong>S\u2019appuyer les uns les autres</strong></h2>\n<p>Nous reconnaissons que certains d\u2019entre vous continuent d\u2019\u00e9prouver des sentiments partag\u00e9s, que vous songiez \u00e0 reprendre vos activit\u00e9s normales, que vous soyez \u00e9branl\u00e9s par la terrible trag\u00e9die qui a eu lieu en Nouvelle-\u00c9cosse ou que vous soyez aux prises avec des difficult\u00e9s personnelles.</p>\n<p>En temps de crise, s\u2019il est essentiel que nous prenions soin de nous-m\u00eames, il est \u00e9galement important que nous prenions soin les uns des autres. Veuillez prendre un moment pour envoyer des mots de gentillesse et de gratitude \u00e0 ceux que vous appr\u00e9ciez \u2013 c\u2019est bon pour votre sant\u00e9.</p>\n<p>En plus des outils, des conseils et du soutien en mati\u00e8re de sant\u00e9 mentale accessibles sur notre <a href=\"http://multimedia.agr.gc.ca/COVID-19/mental_health-fra.html\">site Web sur la COVID-19</a>, Jane Taylor, l\u2019ombudsman d\u2019AAC, reste dispos\u00e9e \u00e0 tenir des r\u00e9unions individuelles par vid\u00e9oconf\u00e9rence, des s\u00e9ances WebEx et des r\u00e9unions par t\u00e9l\u00e9phone. L\u2019ombudsman offre un environnement s\u00e9curitaire o\u00f9 les employ\u00e9s, de tous les \u00e9chelons, peuvent soulever des probl\u00e8mes en milieu de travail, en discuter et tenter de les r\u00e9gler sans crainte de repr\u00e9sailles. Pour prendre rendez-vous avec l\u2019ombudsman, veuillez envoyer un courriel \u00e0 l\u2019adresse <a href=\"mailto:AAFC.Ombuds.AAC@canada.ca\">AAFC.Ombuds.AAC@canada.ca</a>.</p>\n<p>Enfin, nous voulions vous informer que nous examinerons la possibilit\u00e9 d\u2019organiser une r\u00e9union de tout le personnel et de reprendre nos conversations (virtuelles) avec les employ\u00e9s au cours des prochaines semaines pour voir comment vous allez. Restez \u00e0 l\u2019aff\u00fbt!</p>\n<p>Prenez soin de vous et de vos proches.</p>\n<p>\u00a0</p>\n<p><strong>Chris Forbes<br></strong>Sous-ministre</p>\n<p><strong>Annette Gibbons<br></strong>Sous-ministre d\u00e9l\u00e9gu\u00e9e</p>\n\t\t"
    },
    "breadcrumb": {
        "en": "Staying the Course",
        "fr": "Garder le cap"
    },
    "news": {
        "date_posted": {
            "en": "2020-04-24",
            "fr": "2020-04-24"
        },
        "to": {
            "en": "All staff",
            "fr": "Tous les employ\u00e9s"
        },
        "by": {
            "en": "Chris Forbes, Deputy Minister, and Annette Gibbons, Associate Deputy Minister",
            "fr": "Chris Forbes, Sous-ministre, et Annette Gibbons, Sous-ministre d\u00e9l\u00e9gu\u00e9e"
        }
    }
}