{
    "dcr_id": "1587377552917",
    "lang": "en",
    "title": {
        "en": "Scheduled Maintenance of ISB Services - April 23-26",
        "fr": "Entretien pr\u00e9vu des services de la DGSI - Du 23 au 26 avril"
    },
    "modified": "2020-04-20 00:00:00.0",
    "issued": "2020-04-20 00:00:00.0",
    "type_name": "intra-intra/news-nouv",
    "node_id": "1279030006975",
    "layout_name": null,
    "dc_date_created": "2020-04-20",
    "breadcrumb_label": "",
    "meta": {
        "issued": {
            "en": "2020-04-20",
            "fr": "2020-04-20"
        },
        "modified": {
            "en": "2020-04-20",
            "fr": "2020-04-20"
        },
        "format": {
            "en": "gcformat",
            "fr": "gcformat"
        },
        "title": {
            "en": "Scheduled Maintenance of ISB Services - April 23-26",
            "fr": "Entretien pr\u00e9vu des services de la DGSI - Du 23 au 26 avril"
        },
        "subject": {
            "en": "communications",
            "fr": "communications"
        },
        "description": {
            "en": "Please be advised that preventative maintenance of ISB services will be performed between Thursday, April 23, and Sunday, April 26.",
            "fr": "Veuillez prendre note qu'un entretien pr\u00e9ventif des services de la DGSI aura lieu entre le jeudi 23 avril et le dimanche 26 avril."
        },
        "language": {
            "en": "eng",
            "fr": "fra"
        },
        "audience": {
            "en": "gcaudience",
            "fr": "gcaudience"
        },
        "creator": {
            "en": "Agriculture and Agri-Food Canada",
            "fr": "Agriculture et Agroalimentaire Canada"
        },
        "spatial": {
            "en": "gcregions",
            "fr": "gcregions"
        },
        "service": {
            "en": "AAFC_AgriSource",
            "fr": "AAC_AgriSource"
        },
        "accessRights": {
            "en": "3",
            "fr": "3"
        }
    },
    "body": {
        "en": "<br>\n<br>\n<p>Please be advised that preventative maintenance of ISB services will be performed between Thursday, April 23, and Sunday, April 26.<br>\n<br>\nThese measures are performed regularly to improve performance and to ensure that the department does not experience any outages that would affect employees and the delivery of our services.<br><br>Consequently, the following service may be slower during the following period:</p>\n<p><b>Friday, </b><b>April 25 \u2013 7:00 a.m. until Sunday, April 26 \u2013 6:30 p.m. (ET)</b></p>\n<ul>\n<li>Email</li>\n</ul>\n<p>\n<b>Note</b>: Incoming and outgoing emails may be delayed by up to 15 minutes.</p>\n<p>\nIn addition, the following services may not be available during the following periods:<br><br><strong>Thursday, </strong><strong>April 23 \u20131:00 a.m. until 6:00 a.m. (ET)</strong></p>\n<ul>\n<li>AgriApps</li>\n<li>Homebase</li>\n</ul>\n<p><strong>Friday, </strong><strong>April 24 \u2013 3:00 a.m. until 8:00 a.m. (ET)</strong></p>\n<ul>\n<li>Cognos Business Intelligence Gateway (no access to Cognos reports)</li>\n</ul>\n<p><strong>Saturday, </strong><strong>April 25 \u2013 1:00 a.m. until 6:00 a.m. (ET)</strong></p>\n<ul>\n<li>Cognos Business Intelligence Gateway (no access to Cognos reports)</li>\n<li>AgriDOC</li>\n</ul>\n<p><strong>Sunday, </strong><strong>April 26 \u2013 3:00 a.m. until 8:00 a.m. (ET)</strong></p>\n<ul>\n<li>Cognos Business Intelligence Gateway (no access to Cognos reports)</li>\n</ul>\n<p>Should you have any questions or concerns, please do not hesitate to contact IT Centre TI.<br>\n<br>\n<strong>\u00a0</strong></p>\n<p><strong>IT Centre TI</strong><br>\nTelephone: 1-855-545-4411<br>\n<a href=\"http://myitcentreti-monitcentreti/\">My IT Centre TI</a></p>\n<p><img src=\"https://intranet.agr.gc.ca/resources/prod/news/images/ITCentreTI2.png\" class=\"center-block\"></p>\n\n\t\t",
        "fr": "<br>\n<br>\n<p>Veuillez prendre note qu\u2019un entretien pr\u00e9ventif des services de la DGSI aura lieu entre le jeudi 23 avril et le dimanche 26 avril.<br><br>Ces mesures sont prises r\u00e9guli\u00e8rement pour am\u00e9liorer le rendement des syst\u00e8mes et veiller \u00e0 ce que le Minist\u00e8re ne subisse pas de panne pouvant nuire aux employ\u00e9s et \u00e0 la prestation<br>de nos services.<br><br>Par cons\u00e9quent, le service suivant pourrait \u00eatre ralenti au cours de la p\u00e9riode indiqu\u00e9e ci-dessous\u00a0:</p>\n<p><b>De\u00a07\u00a0h (HE) le samedi\u00a025\u00a0avril \u00e0 18\u00a0h\u00a030 (HE) le dimanche\u00a026\u00a0avril </b></p>\n<ul>\n<li>Courriel</li>\n</ul>\n<p><b>Remarque\u00a0</b>: La r\u00e9ception et l\u2019exp\u00e9dition de courriels pourraient \u00eatre retard\u00e9es d\u2019au plus\u00a015\u00a0minutes.</p>\n<p>\nEn outre, les services suivants pourraient ne pas \u00eatre accessibles au cours de la p\u00e9riode indiqu\u00e9e ci-dessous\u00a0:<br><br><strong>Le jeudi 23 avril, de 1 h \u00e0 6 h (HE)</strong></p>\n<ul>\n<li>AgriApps</li>\n<li>Homebase</li>\n</ul>\n<p><strong>Le vendredi 24 avril, de 3 h \u00e0 8 h (HE</strong><strong>)</strong></p>\n<ul>\n<li>Portail d\u2019information de gestion Cognos (pas d\u2019acc\u00e8s aux rapports Cognos)</li>\n</ul>\n<p><strong>Le samedi 25 avril, de 1 h \u00e0 6 h (HE)</strong></p>\n<ul>\n<li>Portail d\u2019information de gestion Cognos (pas d\u2019acc\u00e8s aux rapports Cognos)</li>\n<li>AgriDOC</li>\n</ul>\n<p><strong>Le dimanche 26 avril, de 3 h \u00e0 8 h (HE</strong><strong>)</strong></p>\n<ul>\n<li>Portail d\u2019information de gestion Cognos (pas d\u2019acc\u00e8s aux rapports Cognos)</li>\n</ul>\n<p>Si vous avez des questions ou des pr\u00e9occupations \u00e0 ce sujet, n\u2019h\u00e9sitez pas \u00e0 communiquer avec le IT Centre TI.<br>\n<br>\n<strong>\u00a0</strong></p>\n<p><strong>IT Centre TI</strong><br>\nT\u00e9l\u00e9phone : 1-855-545-4411<br>\n<a href=\"http://myitcentreti-monitcentreti/\">Mon IT Centre TI</a></p>\n<p><img src=\"https://intranet.agr.gc.ca/resources/prod/news/images/ITCentreTI2.png\" class=\"center-block\"></p>\n\t\t"
    },
    "breadcrumb": {
        "en": "Scheduled Maintenance of ISB Services - April 23-26",
        "fr": "Entretien pr\u00e9vu des services de la DGSI - Du 23 au 26 avril"
    },
    "news": {
        "date_posted": {
            "en": "2020-04-23",
            "fr": "2020-04-23"
        },
        "to": {
            "en": "All staff",
            "fr": "Tous les employ\u00e9s"
        },
        "by": {
            "en": "IT Centre TI",
            "fr": "IT Centre TI"
        }
    }
}