{
    "dcr_id": "1588694176231",
    "lang": "en",
    "title": {
        "en": "A Message From The Clerk",
        "fr": "Un message de la part du Greffier"
    },
    "modified": "2020-05-05 00:00:00.0",
    "issued": "2020-05-05 00:00:00.0",
    "type_name": "intra-intra/news-nouv",
    "node_id": "1279030006975",
    "layout_name": null,
    "dc_date_created": "2020-05-05",
    "breadcrumb_label": "",
    "meta": {
        "issued": {
            "en": "2020-05-05",
            "fr": "2020-05-05"
        },
        "modified": {
            "en": "2020-05-05",
            "fr": "2020-05-05"
        },
        "format": {
            "en": "gcformat",
            "fr": "gcformat"
        },
        "title": {
            "en": "A Message From The Clerk",
            "fr": "Un message de la part du Greffier"
        },
        "subject": {
            "en": "communications",
            "fr": "communications"
        },
        "description": {
            "en": "This is Mental Health Week. Maybe in the past you\u2019ve just noted it was Mental Health Week and moved on\u2014but somehow this year it feels different.",
            "fr": "C'est la Semaine de la sant\u00e9 mentale. Auparavant, peut-\u00eatre que vous avez simplement pris note que c'\u00e9tait la Semaine de la sant\u00e9 mentale et que vous \u00eates pass\u00e9s \u00e0 autre chose."
        },
        "language": {
            "en": "eng",
            "fr": "fra"
        },
        "audience": {
            "en": "gcaudience",
            "fr": "gcaudience"
        },
        "creator": {
            "en": "Agriculture and Agri-Food Canada",
            "fr": "Agriculture et Agroalimentaire Canada"
        },
        "spatial": {
            "en": "gcregions",
            "fr": "gcregions"
        },
        "service": {
            "en": "AAFC_AgriSource",
            "fr": "AAC_AgriSource"
        },
        "accessRights": {
            "en": "3",
            "fr": "3"
        }
    },
    "body": {
        "en": "<br>\n<br>\n<p>This is Mental Health Week. Maybe in the past you\u2019ve just noted it was Mental Health Week and moved on\u2014but somehow this year it feels different. COVID-19 has made a lot of difference to a lot of people in a lot of ways. I think it has touched everyone in some way or another. One area it has had an impact on is our mental health.</p>\n<p>There are many things that affect our mental health\u2014stress, worry, disruption and uncertainty among them. COVID-19 has certainly brought those things into our lives, and it would be naive or arrogant to think our mental health isn\u2019t affected. Of course, many of us had struggles long before the pandemic arrived.</p>\n<p>So whether it\u2019s about our own coping, or a loved one, or a colleague, Mental Health Week is a good reminder of our vulnerability and the availability of help. Be self-aware. Be aware of others. Make use of the help that is available\u2014and encourage others to do the same.</p>\n<p>This year\u2019s Mental Health Week campaign, led once again by the <a href=\"http://www.cmha.ca/\">Canadian Mental Health Association</a>, is asking all Canadians to stay socially connected, even while engaging in physical distancing, and to say more than \u201cI\u2019m fine,\u201d when discussing their mental health. In these rather uncertain times, it\u2019s ok not to be ok. This week is all about contributing to a culture of understanding and acceptance, where we can all be open and honest about our mental health and how we\u2019re feeling.</p>\n<p>There are many resources available to you, such as the Government of Canada\u2019s Mental Health <a href=\"https://www.canada.ca/en/government/publicservice/covid-19.html\">resource hub</a>, Health Canada\u2019s <a href=\"https://ca.portal.gs/\">Wellness Together Canada</a> portal, and the <a href=\"https://www.canada.ca/en/government/publicservice/wellness-inclusion-diversity-public-service/health-wellness-public-servants/mental-health-workplace.html\">Centre of Expertise on Mental Health in the Workplace</a> fact sheets on COVID-19 and mental health. I would also encourage anyone who would like to speak in confidence with a mental health professional to contact the <a href=\"https://www.workhealthlife.com/?lang=en-CA\">Employee Assistance Program</a>, which provides confidential support through its counsellors who are available 24 hours a day.</p>\n<p>As you go through this week, remember: we are not alone. You are not alone. We will continue to face this together, and we will get through it together.</p>\n<p>\u00a0</p>\n<p><strong>Ian Shugart<br></strong>Clerk of the Privy Council and Secretary to the Cabinet</p>\n\n\t\t",
        "fr": "<br>\n<br>\n<p>C\u2019est la Semaine de la sant\u00e9 mentale. Auparavant, peut-\u00eatre que vous avez simplement pris note que c\u2019\u00e9tait la Semaine de la sant\u00e9 mentale et que vous \u00eates pass\u00e9s \u00e0 autre chose. Mais tant bien que mal, la situation semble diff\u00e9rente cette ann\u00e9e. La COVID-19 a v\u00e9ritablement chang\u00e9 le cours de l\u2019existence de nombreuses personnes, et ce, de bien des fa\u00e7ons. Je crois qu\u2019elle a touch\u00e9 tout le monde d\u2019une mani\u00e8re ou d\u2019une autre. C\u2019est le cas pour notre sant\u00e9 mentale.</p>\n<p>Une multitude de facteurs influent sur notre sant\u00e9 mentale : le stress, les soucis, les perturbations, l\u2019incertitude, etc. La COVID-19 a assur\u00e9ment apport\u00e9 de tout cela dans nos vies. Ce serait \u00eatre na\u00eff ou arrogant que de penser que notre sant\u00e9 mentale ne s\u2019en est pas ressentie. Bien entendu, nous \u00e9tions nombreux \u00e0 \u00e9prouver des difficult\u00e9s bien avant l\u2019arriv\u00e9e de la pand\u00e9mie.</p>\n<p>Alors, qu\u2019il s\u2019agisse de notre propre processus d\u2019adaptation, ou d\u2019un \u00eatre cher ou d\u2019un coll\u00e8gue, la Semaine de la sant\u00e9 mentale constitue un bon rappel de notre vuln\u00e9rabilit\u00e9 et de l\u2019aide qui existe. Soyez conscient de vous-m\u00eames. Soyez conscients d\u2019autrui. Profitez de l\u2019aide qui vous est offerte, et incitez les autres \u00e0 en faire autant.</p>\n<p>Cette ann\u00e9e, l\u2019<a href=\"https://cmha.ca/fr\">Association canadienne pour la sant\u00e9 mentale</a>, qui m\u00e8ne une fois de plus la campagne de la Semaine de la sant\u00e9 mentale, demande \u00e0 tous les Canadiens de maintenir les contacts sociaux, tout en respectant l\u2019\u00e9loignement physique, et de ne pas se contenter de dire \u00ab je vais bien \u00bb lorsqu\u2019ils parlent de leur sant\u00e9 mentale. En ces temps plut\u00f4t incertains, il est permis de ne pas se sentir bien. Contribuer \u00e0 une culture ancr\u00e9e dans la compr\u00e9hension et l\u2019acceptation, o\u00f9 nous pouvons tous parler ouvertement et honn\u00eatement de notre sant\u00e9 mentale et de nos sentiments, c\u2019est la raison d\u2019\u00eatre de cette semaine.</p>\n<p>De nombreuses ressources sont mises \u00e0 votre disposition, comme le <a href=\"https://www.canada.ca/fr/gouvernement/fonctionpublique/covid-19.html\">centre de ressources</a> sur la sant\u00e9 mentale du gouvernement du Canada, le portail <a href=\"https://ca.portal.gs/\">Espace mieux-\u00eatre Canada</a> de Sant\u00e9 Canada ainsi que les fiches d\u2019information sur la COVID-19 et la sant\u00e9 mentale du <a href=\"https://www.canada.ca/fr/gouvernement/fonctionpublique/mieux-etre-inclusion-diversite-fonction-publique/sante-mieux-etre-fonctionnaires/sante-mentale-travail.html\">Centre d\u2019expertise pour la sant\u00e9 mentale en milieu de travail</a>. J\u2019incite ceux et celles qui souhaitent parler en toute confiance \u00e0 un professionnel de la sant\u00e9 mentale \u00e0 s\u2019adresser au <a href=\"https://www.workhealthlife.com/?explicitSoftLogin=true\">Programme d\u2019aide aux employ\u00e9</a>s. Ses conseillers sont \u00e0 l\u2019\u00e9coute 24 heures sur 24 pour vous offrir un soutien confidentiel.</p>\n<p>Pendant que vous vaquez \u00e0 vos occupations cette semaine, n\u2019oubliez pas que nous ne sommes pas seuls. Vous n\u2019\u00eates pas seuls. Nous allons continuer de faire face \u00e0 la situation ensemble, et c\u2019est aussi ensemble que nous allons la surmonter.</p>\n<p>\u00a0</p>\n<p><strong>Ian Shugart<br></strong>Greffier du Conseil priv\u00e9 et secr\u00e9taire du Cabinet</p>\n\t\t"
    },
    "breadcrumb": {
        "en": "A Message From The Clerk",
        "fr": "Un message de la part du Greffier"
    },
    "news": {
        "date_posted": {
            "en": "2020-05-05",
            "fr": "2020-05-05"
        },
        "to": {
            "en": "All staff",
            "fr": "Tous les employ\u00e9s"
        },
        "by": {
            "en": "Ian Shugart, Clerk of the Privy Council and Secretary to the Cabinet",
            "fr": "Ian Shugart, Greffier du Conseil priv\u00e9 et secr\u00e9taire du Cabinet"
        }
    }
}