{
    "dcr_id": "1591297550218",
    "lang": "en",
    "title": {
        "en": "Senior Policy Analyst",
        "fr": "Analyste principal des politiques"
    },
    "modified": "2020-06-05 00:00:00.0",
    "issued": "2020-06-05 00:00:00.0",
    "type_name": "intra-intra/empl-empl",
    "node_id": "1279029955397",
    "layout_name": null,
    "dc_date_created": "2020-06-05",
    "breadcrumb_label": "",
    "meta": {
        "issued": {
            "en": "2020-06-05",
            "fr": "2020-06-05"
        },
        "modified": {
            "en": "2020-06-05",
            "fr": "2020-06-05"
        },
        "format": {
            "en": "gcformat",
            "fr": "gcformat"
        },
        "title": {
            "en": "Senior Policy Analyst",
            "fr": "Analyste principal des politiques"
        },
        "subject": {
            "en": "staffing",
            "fr": "dotation en personnel"
        },
        "language": {
            "en": "eng",
            "fr": "fra"
        },
        "audience": {
            "en": "gcaudience",
            "fr": "gcaudience"
        },
        "type": {
            "en": "notice",
            "fr": "avis"
        },
        "creator": {
            "en": "Agriculture and Agri-Food Canada",
            "fr": "Agriculture et Agroalimentaire Canada"
        },
        "spatial": {
            "en": "gcregions",
            "fr": "gcregions"
        },
        "service": {
            "en": "AAFC_AgriSource",
            "fr": "AAC_AgriSource"
        },
        "accessRights": {
            "en": "3",
            "fr": "3"
        }
    },
    "body": {
        "en": "\n<div>\n<div><strong>\u00a0</strong></div>\nEmployees of Agriculture and Agri-Food Canada in the NCR are invited to express their interest for a deployment, assignment or acting opportunity in the Policy and Coordination team (PPEM) of the Market and Industry Services Branch (MISB).</div>\n<div>\u00a0</div>\n<div><strong>Duties: </strong></div>\n<div>This position is located within the Policy, Planning and Emergency Management Division and supports the Assistant Deputy Minister in ensuring that the Branch maintains the appropriate business, human resource and operational plans to effectively carry out work undertaken in pursuit of the Branch's mandate, and represents MISB in departmental planning and reporting activities (e.g., Management, Resources and Results Structure, Report on Plans and Priorities, Departmental Performance Report).</div>\n<div>\u00a0</div>\n<div>The Policy and Coordination team provides policy analysis for the Branch, is responsible for cross-cutting policy development and advice, leads on the Department\u2019s International Strategy, and ensures that initiatives and activities are in line with the priorities of the Department and the Government more broadly.</div>\n<div>\u00a0</div>\n<div>The successful candidate will contribute to the advancement of the following files:\u00a0</div>\n<ul>\n<li>\n<div>Agriculture and Agri-Food international strategic framework</div>\n</li>\n<li>\n<div>Strategy design and coordination</div>\n</li>\n<li>\n<div>Cross sectoral issues coordination</div>\n</li>\n<li>\n<div>Federal, Provincial and Industry engagement</div>\n</li>\n<li>\n<div>Knowledge development and management\u00a0</div>\n</li>\n</ul>\n<div>\u00a0</div>\n<div>This position involves working closely with a number of key players including portfolio colleagues, other government departments, and the industry.\u00a0</div>\n<div>\u00a0</div>\n<div><strong>Statement of Merit Criteria &amp; Conditions of Employment:</strong></div>\n<div>\u00a0</div>\n<div><strong>Essential Qualifications:</strong></div>\n<div><strong>\u00a0</strong></div>\n<div><strong>Education:</strong> Graduation with a <a href=\"https://www.canada.ca/en/treasury-board-secretariat/services/staffing/qualification-standards/core.html#deg\">degree</a> from a <a href=\"https://www.canada.ca/en/treasury-board-secretariat/services/staffing/qualification-standards/core.html#rpsi\">recognized post-secondary institution</a> with <a href=\"https://www.canada.ca/en/treasury-board-secretariat/services/staffing/qualification-standards/core.html#acce\">acceptable</a> <a href=\"https://www.canada.ca/en/treasury-board-secretariat/services/staffing/qualification-standards/core.html#spec\">specialization</a> in economics, sociology or statistics.\u00a0</div>\n<div>Notes:</div>\n<div>Candidates must always have a <a href=\"https://www.canada.ca/en/treasury-board-secretariat/services/staffing/qualification-standards/core.html#deg\">degree</a>. The courses for the <a href=\"https://www.canada.ca/en/treasury-board-secretariat/services/staffing/qualification-standards/core.html#spec\">specialization</a> must be <a href=\"https://www.canada.ca/en/treasury-board-secretariat/services/staffing/qualification-standards/core.html#acce\">acceptable</a> and may have been taken at a <a href=\"https://www.canada.ca/en/treasury-board-secretariat/services/staffing/qualification-standards/core.html#rpsi\">recognized post-secondary institution</a>, but not necessarily within a <a href=\"https://www.canada.ca/en/treasury-board-secretariat/services/staffing/qualification-standards/core.html#deg\">degree</a> program in the required <a href=\"https://www.canada.ca/en/treasury-board-secretariat/services/staffing/qualification-standards/core.html#spec\">specialization</a>. The <a href=\"https://www.canada.ca/en/treasury-board-secretariat/services/staffing/qualification-standards/core.html#spec\">specialization</a> may also be obtained through an <a href=\"https://www.canada.ca/en/treasury-board-secretariat/services/staffing/qualification-standards/core.html#acce\">acceptable</a> combination of education, training and/or experience.</div>\n<div>\u00a0</div>\n<div><strong>Experience </strong></div>\n<ul>\n<li>\n<div>Experience with the agri-food sector and AAFC Governance.</div>\n</li>\n<li>\n<div>Significant* experience in a coordination role in a government context.</div>\n</li>\n<li>\n<div>Experience in identifying, researching, analyzing and writing briefs and reports related to regulatory or other relevant fields.</div>\n</li>\n<li>\n<div>Experience in establishing and maintaining effective relationships with federal and provincial government and other stakeholders.</div>\n</li>\n<li>\n<div>Experience in developing and providing advice to senior management.</div>\n</li>\n</ul>\n<div>\u00a0</div>\n<div>*Significant is defined as the depth and breadth associated with the performance of duties normally accumulated over a period of approximately two years.</div>\n<div>\u00a0</div>\n<div><strong>Competencies\u00a0</strong></div>\n<div>Analytical Thinking</div>\n<div>Strategic Thinking</div>\n<div>Writing Skills</div>\n<div>Interactive Communication</div>\n<div>Judgement</div>\n<div>Initiative</div>\n<div>\u00a0</div>\n<div><strong>Language requirements\u00a0</strong></div>\n<div>Bilingual Imperative - BBB / BBB</div>\n<div>\u00a0</div>\n<div><strong>Operational requirements</strong></div>\n<div>Ability and willingness to occasionally work overtime.</div>\n<div>Ability and willingness to travel.</div>\n<div>\u00a0</div>\n<div><strong>Conditions of employment</strong></div>\n<div>Secret security clearance</div>\n<div>\u00a0</div>\n<div><strong>Applications</strong></div>\n<div>Interested AAFC employees in the NCR are encouraged to forward their resume and a cover letter to Amrane Boumghar \u2013 Deputy Director, Policy and Coordination (PPEM-MISB) amrane.boumghar@canada.ca before the deadline.</div>\n<div>\u00a0</div>\n<div>Resumes must clearly identify:</div>\n<ul>\n<li>\n<div>Your tenure (e.g. term or indeterminate)</div>\n</li>\n<li>\n<div>Your substantive group and level\u00a0</div>\n</li>\n</ul>\n<div>\u00a0</div>\n<div><strong>Notes</strong></div>\n<ul>\n<li>\n<div>Your cover letter may be used to assess your communication and writing skills.</div>\n</li>\n<li>\n<div>Candidates may be assessed through an interview.</div>\n</li>\n<li>\n<div>Reference checks may be sought.</div>\n</li>\n<li>\n<div>Communication for this process will be sent via email.</div>\n</li>\n<li>\n<div>Deployments cannot change the tenure of an employee (i.e: term to indeterminate) or constitute a promotion. </div>\n</li>\n<li>\n<div>A pool of qualified candidates may be established and may be used to staff similar positions on an acting, assignment or deployment basis.</div>\n<div>\u00a0</div>\n</li>\n</ul>\n",
        "fr": "\n<div>\n<div><strong>\u00a0</strong></div>\nOn invite les employ\u00e9s d\u2019Agriculture et Agroalimentaire Canada dans la RCN \u00e0 faire part de leur int\u00e9r\u00eat pour une opportunit\u00e9 de mutation, d\u2019affectation ou d\u2019int\u00e9rimaire au sein de l\u2019\u00e9quipe des politiques et coordination (PPGU) de la Direction g\u00e9n\u00e9rale des services \u00e0 l\u2019industrie et aux march\u00e9s (DGSIM).</div>\n<div>\u00a0</div>\n<div><strong>Fonctions :</strong></div>\n<div>Ce poste est situ\u00e9 au sein de la Division des politiques, de la planification et de la gestion des urgences qui aide le Sous-ministre adjoint \u00e0 veiller \u00e0 ce que la Direction maintienne les plans d'affaires, de ressources humaines et op\u00e9rationnels appropri\u00e9s pour ex\u00e9cuter efficacement les travaux entrepris dans le cadre de son mandat et repr\u00e9sente la DGSIM dans les activit\u00e9s de planification et de production de rapports du Minist\u00e8re (p. ex. gestion, structure des ressources et des r\u00e9sultats, rapport sur les plans et les priorit\u00e9s, rapport minist\u00e9riel sur le rendement).</div>\n<div>\u00a0</div>\n<div>L'\u00e9quipe des politiques et de la coordination fournit une analyse des politiques \u00e0 la Direction, est responsable de l'\u00e9laboration et des conseils intersectoriels des politiques, dirige la strat\u00e9gie internationale du Minist\u00e8re et s'assure que les initiatives et les activit\u00e9s sont conformes aux priorit\u00e9s du Minist\u00e8re et du gouvernement en g\u00e9n\u00e9ral.</div>\n<div>Le (la) candidat(e) retenu(e) contribuera entre autres \u00e0 l\u2019avancement des dossiers suivants :</div>\n<ul>\n<li>\n<div>Le cadre strat\u00e9gique international du secteur agricole et agroalimentaire</div>\n</li>\n<li>\n<div>Conception et coordination de strat\u00e9gies</div>\n</li>\n<li>\n<div>Coordination des enjeux intersectoriels</div>\n</li>\n<li>\n<div>Engagement au niveau f\u00e9d\u00e9ral, provincial et de l\u2019industrie</div>\n</li>\n<li>\n<div>D\u00e9veloppement et gestion des connaissances</div>\n</li>\n</ul>\n<div>Ce poste implique de travailler \u00e9troitement avec un certain nombre d\u2019intervenants cl\u00e9s du portefeuille, d\u2019autres minist\u00e8res, et de l\u2019industrie.\u00a0</div>\n<div>\u00a0</div>\n<div><strong>\u00c9nonc\u00e9 des crit\u00e8res de m\u00e9rite et des conditions d\u2019emploi:</strong></div>\n<div>\u00a0</div>\n<div><strong>Qualifications essentielles :</strong></div>\n<div>\u00a0</div>\n<div><strong>\u00c9tudes : </strong>un <a href=\"https://www.canada.ca/fr/secretariat-conseil-tresor/services/dotation/normes-qualification/centrale.html#Dipl\">grade</a> d\u2019un <a href=\"https://www.canada.ca/fr/secretariat-conseil-tresor/services/dotation/normes-qualification/centrale.html#eepr\">\u00e9tablissement d\u2019enseignement postsecondaire reconnu</a> avec <a href=\"https://www.canada.ca/fr/secretariat-conseil-tresor/services/dotation/normes-qualification/centrale.html#spec\">sp\u00e9cialisation</a> <a href=\"https://www.canada.ca/fr/secretariat-conseil-tresor/services/dotation/normes-qualification/centrale.html#acc\">acceptable</a> en \u00e9conomie, en sociologie ou en statistique.</div>\n<div>Remarques:</div>\n<div>Les candidats doivent toujours d\u00e9tenir un <a href=\"https://www.canada.ca/fr/secretariat-conseil-tresor/services/dotation/normes-qualification/centrale.html#Dipl\">grade</a>. Les cours de <a href=\"https://www.canada.ca/fr/secretariat-conseil-tresor/services/dotation/normes-qualification/centrale.html#spec\">sp\u00e9cialisation</a> doivent \u00eatre <a href=\"https://www.canada.ca/fr/secretariat-conseil-tresor/services/dotation/normes-qualification/centrale.html#acc\">acceptables</a> et avoir \u00e9t\u00e9 suivis aupr\u00e8s d\u2019un <a href=\"https://www.canada.ca/fr/secretariat-conseil-tresor/services/dotation/normes-qualification/centrale.html#eepr\">\u00e9tablissement d\u2019enseignement postsecondaire reconnu</a>, mais pas n\u00e9cessairement dans le cadre d\u2019un programme menant \u00e0 l\u2019obtention d\u2019un <a href=\"https://www.canada.ca/fr/secretariat-conseil-tresor/services/dotation/normes-qualification/centrale.html#Dipl\">grade</a> dans le domaine de la <a href=\"https://www.canada.ca/fr/secretariat-conseil-tresor/services/dotation/normes-qualification/centrale.html#spec\">sp\u00e9cialisation</a> requise. La <a href=\"https://www.canada.ca/fr/secretariat-conseil-tresor/services/dotation/normes-qualification/centrale.html#spec\">sp\u00e9cialisation</a> peut \u00e9galement \u00eatre form\u00e9e d\u2019un agencement <a href=\"https://www.canada.ca/fr/secretariat-conseil-tresor/services/dotation/normes-qualification/centrale.html#acc\">acceptable</a> d\u2019\u00e9tudes, de formation et (ou) d\u2019exp\u00e9rience.</div>\n<div><strong>\u00a0</strong></div>\n<div><strong>Exp\u00e9rience :</strong></div>\n<ul>\n<li>\n<div>Exp\u00e9rience dans le secteur agroalimentaire et de la gouvernance \u00e0 AAC.</div>\n</li>\n<li>\n<div>Exp\u00e9rience de travail appr\u00e9ciable* dans un r\u00f4le de coordination dans un contexte gouvernemental.</div>\n</li>\n<li>\n<div>Exp\u00e9rience de la recherche, de l\u2019analyse et de la r\u00e9daction de documents d\u2019information et de rapports li\u00e9s \u00e0 la r\u00e9glementation ou \u00e0 d\u2019autres domaines pertinents</div>\n</li>\n<li>\n<div>Exp\u00e9rience de l\u2019\u00e9tablissement et du maintien de relations efficaces avec les gouvernements f\u00e9d\u00e9ral et provinciaux ainsi que d\u2019autres intervenants.</div>\n</li>\n<li>\n<div>Exp\u00e9rience dans le d\u00e9veloppement et pr\u00e9sentation de conseil \u00e0 la haute gestion.</div>\n</li>\n</ul>\n<div>*On entend par\u300aexp\u00e9rience appr\u00e9ciable\u300bla dur\u00e9e et l'\u00e9tendue de l'exp\u00e9rience acquise au cours d'environ deux ans de travail.</div>\n<div>\u00a0</div>\n<div><strong>Comp\u00e9tences</strong></div>\n<div>R\u00e9flexion analytique</div>\n<div>R\u00e9flexion strat\u00e9gique</div>\n<div>Aptitudes \u00e0 \u00e9crire</div>\n<div>Communication interactive</div>\n<div>Jugement</div>\n<div>Initiative</div>\n<div>\u00a0</div>\n<div><strong>Exigences linguistiques\u00a0</strong></div>\n<div>Bilingue imp\u00e9ratif BBB / BBB</div>\n<div>\u00a0</div>\n<div><strong>Besoins op\u00e9rationnels </strong></div>\n<div>Volont\u00e9 et capacit\u00e9 de faire des heures suppl\u00e9mentaires \u00e0 l\u2019occasion.</div>\n<div>Volont\u00e9 et capacit\u00e9 \u00e0 voyager.</div>\n<div>\u00a0</div>\n<div><strong>Conditions d\u2019emploi </strong></div>\n<div>Autorisation s\u00e9curitaire Secret\u00a0</div>\n<div>\u00a0</div>\n<div><strong>Candidature </strong></div>\n<div>Les employ\u00e9s d\u2019AAC dans la RCN int\u00e9ress\u00e9s sont invit\u00e9s \u00e0 envoyer leur curriculum vitae et une lettre de motivation \u00e0 Amrane Boumghar \u2013\u00a0Directeur Adjoint, Politiques et Coordination (PPGU-DGSIM) amrane.boumghar@canada.ca avant la date limite.</div>\n<div>\u00a0</div>\n<div>Les curriculum vitae doivent nettement pr\u00e9ciser :</div>\n<ul>\n<li>\n<div>votre type de poste (p. ex., \u00e0 dur\u00e9e d\u00e9termin\u00e9e ou ind\u00e9termin\u00e9e);</div>\n</li>\n<li>\n<div>la classification de votre poste d\u2019attache.\u00a0</div>\n</li>\n</ul>\n<div>\u00a0</div>\n<div><strong>Remarques</strong></div>\n<ul>\n<li>\n<div>Votre lettre de pr\u00e9sentation pourrait \u00eatre utilis\u00e9e pour \u00e9valuer vos comp\u00e9tences en communication et en r\u00e9daction.</div>\n</li>\n<li>\n<div>Les candidats pourront \u00eatre \u00e9valu\u00e9s au moyen d\u2019une entrevue.</div>\n</li>\n<li>\n<div>Une v\u00e9rification des r\u00e9f\u00e9rences pourra \u00eatre effectu\u00e9e.</div>\n</li>\n<li>\n<div>Les communications relatives au processus de s\u00e9lection se feront par courriel.</div>\n</li>\n<li>\n<div>Une mutation ne peuvent servir \u00e0 modifier le type de poste d\u2019un employ\u00e9 ou d\u2019une employ\u00e9e (de dur\u00e9e d\u00e9termin\u00e9e \u00e0 dur\u00e9e ind\u00e9termin\u00e9e, etc.) ni constituer une promotion.</div>\n</li>\n<li>\n<div>Un bassin de candidats qualifi\u00e9s pourra \u00eatre cr\u00e9\u00e9 et pourra servir \u00e0 doter des postes semblables sur une base int\u00e9rimaire, d\u2019affectation ou de mutation.<em> </em></div>\n</li>\n</ul>\n<div>\u00a0</div>\n<ul>\n</ul>\n\n"
    },
    "breadcrumb": {
        "en": "Senior Policy Analyst",
        "fr": "Analyste principal des politiques"
    },
    "empl": {
        "type": {
            "en": "Assignment, Deployment, Acting",
            "fr": "Affectation, Mutation, Int\u00e9rimaire"
        },
        "classification": {
            "en": "EC-6",
            "fr": "EC-6"
        },
        "branch": {
            "en": "Market and Industry Services Branch",
            "fr": "Direction g\u00e9n\u00e9rale des services \u00e0 l'industrie et aux march\u00e9s"
        },
        "locations": {
            "en": "Ottawa, Ontario",
            "fr": "Ottawa, Ontario"
        },
        "date_closing": {
            "en": "2020-06-21",
            "fr": "2020-06-21"
        },
        "open_to": {
            "en": "All AAFC employees",
            "fr": "Tous les employ\u00e9s d\u2019AAC"
        },
        "name": {
            "en": "Amrane Boumghar",
            "fr": "Amrane Boumghar"
        },
        "email": {
            "en": "amrane.boumghar@canada.ca",
            "fr": "amrane.boumghar@canada.ca"
        }
    }
}