{
    "dcr_id": "1591132225326",
    "lang": "en",
    "title": {
        "en": "Commerce Officer",
        "fr": "Agent / Agente de commerce "
    },
    "modified": "2020-06-04 00:00:00.0",
    "issued": "2020-06-03 00:00:00.0",
    "type_name": "intra-intra/empl-empl",
    "node_id": "1279029955397",
    "layout_name": null,
    "dc_date_created": "2020-06-03",
    "breadcrumb_label": "",
    "meta": {
        "issued": {
            "en": "2020-06-03",
            "fr": "2020-06-03"
        },
        "modified": {
            "en": "2020-06-04",
            "fr": "2020-06-04"
        },
        "format": {
            "en": "gcformat",
            "fr": "gcformat"
        },
        "title": {
            "en": "Commerce Officer",
            "fr": "Agent / Agente de commerce "
        },
        "subject": {
            "en": "staffing",
            "fr": "dotation en personnel"
        },
        "language": {
            "en": "eng",
            "fr": "fra"
        },
        "audience": {
            "en": "gcaudience",
            "fr": "gcaudience"
        },
        "type": {
            "en": "notice",
            "fr": "avis"
        },
        "creator": {
            "en": "Agriculture and Agri-Food Canada",
            "fr": "Agriculture et Agroalimentaire Canada"
        },
        "spatial": {
            "en": "gcregions",
            "fr": "gcregions"
        },
        "service": {
            "en": "AAFC_AgriSource",
            "fr": "AAC_AgriSource"
        },
        "accessRights": {
            "en": "3",
            "fr": "3"
        }
    },
    "body": {
        "en": "\n<p>\u00a0</p>\n<p>The Claims and Financial Reporting Division of the Innovation Programs Directorate (IPD) is looking for an organized and self-motivated individual for an assignment at level or acting opportunity for a period of one year, with the possibility of extension or deployment. This position offers the opportunity to work with a dynamic and energetic team that supports the financial reporting requirements for the grants and contributions programs administered by IPD, and to develop and/or provide input to AAFC policies and guidelines related to grants and contributions.<br>\n<br>\nThe successful candidate will have strong mathematical and analytical skills, and must be detail-oriented. Specific tasks include, reviewing financial reports submitted by Recipients; selecting expenditures to sample; reviewing the sampling documentation to ensure eligibility of expenditures; monitoring project funding, cost share ratios and stacking limits; monitoring service standards; updating financial tracking tools; and communicating regularly with both internal and external clients.<br>\n<br>\n<br>\n<strong>ESSENTIAL QUALIFICATIONS</strong></p>\n<p><br>\n<strong>Language Requirement:</strong> Bilingual Imperative (BBB/BBB)<br>\n<br>\nGraduation with a degree from recognized post-secondary institution, with a specialization in accounting, finance, business administration, commerce or economics; OR, an acceptable combination of education, training and experience.<br>\n<br>\nExperience in providing financial services, such as budgeting, forecasting, reporting, analysis or accounting operations.<br>\nExperience delivering programs or services to internal and/or external clients.<br>\nExperience working with Excel at an intermediate level (such as: create spreadsheets/worksheets, enter data, format, adjust layouts, create charts, print, create formulas across multiple worksheets/workbooks, use the IF, VLOOKUP and other Power functions, set security and sharing protocols, create pivot tables and use data management features).</p>\n<p><strong><br>COMPETENCIES</strong><br>\n<br>\nWorking Effectively with Others<br>\nShowing Initiative and Being Action Oriented<br>\nThinking Things Through (Reasoning and Judgement)</p>\n<p><br>\n<strong>ABILITIES</strong></p>\n<p>Ability to communicate effectively orally.<br>\nAbility to communicate effectively in writing.</p>\n<p><strong><br>ASSET QUALIFICATIONS</strong></p>\n<p>Experience reviewing, analyzing and synthesizing information to prepare documentation and recommendations for management.<br>\nExperience in analyzing, interpreting, and applying policies, guidelines, and/or regulations.<br>\nExperience working with the Financial Administration Act (FAA) and/or Treasury Board policies, directives and guidelines related to the delivery of grants and contributions programs.<br>Experience in developing, implementing or delivering government grants and contributions programs or initiatives (within the last 5 years).<br>\nExperience in financial or management accounting.</p>\n<p><br>\n<strong>Organizational Needs</strong></p>\n<p>In support of achieving a diversified workforce, consideration may be given to candidates self-identifying as belonging to one of the following Employment Equity groups: Aboriginal peoples, Persons with a Disability; Visible Minorities, Women.<br>\n<br>\n<br><strong>Operational Requirement</strong></p>\n<p>Willingness to work overtime<br>\n<br>\n<br><strong>Conditions of Employment</strong><br>\n<br>\nReliability and Security: Reliability Status</p>\n<p><strong>Applications</strong></p>\n<p>If you are a CO-01 interested in this assignment, please provide:</p>\n<ul>\n<li>a short letter (2 pages maximum) expressing why you are interested in the position and the skills, experience and knowledge you would bring to this position<strong>; </strong>and</li>\n<li>your resume.</li>\n</ul>\n<p>If you are not at the CO-01 level and are interested in an acting opportunity, please provide:</p>\n<ul>\n<li>a cover letter explaining clearly how you meet the education and experiences related to this opportunity<strong>; </strong>and</li>\n<li>your resume.</li>\n</ul>\n<p>Send all documents to Pietro Natoli at Pietro.Natoli@canada.ca by June 12, 2020.<br>\n<br>\nIf you have any questions or would like more information, please contact Pietro Natoli at pietro.natoli@canada.ca.</p>\n<p><br>\n<strong>Notes</strong></p>\n<ul>\n<li>Employees at the CO-01 level will be considered first for an assignment opportunity. Should there be no qualified at level candidates, other employees will be considered for an acting opportunity.</li>\n<li>The opportunity is for a 1 year acting or assignment with the possibility of an extension.</li>\n<li>Candidates who want to be considered for an <strong>assignment</strong> must have their manager\u2019s approval prior to applying for this opportunity.</li>\n<li>Communication for this process will be sent via email.</li>\n<li>Candidates may be assessed through an interview.</li>\n<li>Reference checks may be sought.</li>\n<li>Your cover letter may be used to assess your communication and writing skills.</li>\n</ul>\n",
        "fr": "\n<p>\u00a0</p>\n<p>La Division des rapports financiers et des demandes de remboursement de la Direction des programmes d\u2019innovation (DPI) est \u00e0 la recherche d\u2019une personne motiv\u00e9e et organis\u00e9e pour une affectation au m\u00eame niveau ou possibilit\u00e9 int\u00e9rimaire pour une dur\u00e9e d\u2019un an, avec possibilit\u00e9 de prolongation ou de mutation. Le poste offre l\u2019occasion de travailler avec une \u00e9quipe dynamique et \u00e9nergique qui contribue au respect des exigences en mati\u00e8re de rapports financiers associ\u00e9es aux programmes de subventions et de contributions administr\u00e9s par la DPI, de m\u00eame que d\u2019\u00e9laborer des politiques et des lignes directrices d\u2019AAC applicables aux subventions et aux contributions ou de prendre part aux travaux d\u2019\u00e9laboration.<br>\n<br>\nLe ou la titulaire doit poss\u00e9der de solides comp\u00e9tences en analyse et en math\u00e9matiques et faire preuve de minutie. Il ou elle devra notamment accomplir les t\u00e2ches suivantes : examiner les rapports financiers pr\u00e9sent\u00e9s par les b\u00e9n\u00e9ficiaires; choisir les d\u00e9penses qui feront partie de l\u2019\u00e9chantillon \u00e0 analyser; passer en revue la documentation relative \u00e0 l\u2019\u00e9chantillon pour assurer l\u2019admissibilit\u00e9 des d\u00e9penses; surveiller le financement des projets, les ratios de partage des co\u00fbts et la limite du cumul de l\u2019aide; suivre de pr\u00e8s les normes de service; mettre \u00e0 jour les outils de suivi financier et communiquer r\u00e9guli\u00e8rement avec les clients \u00e0 l\u2019interne et ceux de l\u2019ext\u00e9rieur.<br>\n<br>\n<br><strong>QUALIFICATIONS ESSENTIELLES<br>\n<br><br>\nExigences linguistiques : </strong>Poste bilingue, niveau BBB/BBB imp\u00e9ratif \u00e0 la nomination<strong>.</strong><br>\n<br>\nGrade d\u2019un \u00e9tablissement d\u2019enseignement postsecondaire reconnu, avec sp\u00e9cialisation en comptabilit\u00e9, en finance, en administration des affaires, en commerce ou en \u00e9conomie; OU combinaison acceptable d\u2019\u00e9tudes, de formation et d\u2019exp\u00e9rience.<br>\n<br>\nExp\u00e9rience de la prestation de services financiers, notamment la budg\u00e9tisation, les pr\u00e9visions, la production de rapports, l\u2019analyse ou les op\u00e9rations comptables.<br>\nExp\u00e9rience de l\u2019ex\u00e9cution de programmes ou de la prestation de services \u00e0 l\u2019intention de clients \u00e0 l\u2019interne ou de l\u2019ext\u00e9rieur.<br>\nExp\u00e9rience de l\u2019utilisation d\u2019Excel \u00e0 un niveau interm\u00e9diaire (Tel que : cr\u00e9er des feuilles de calcul, d'entrer des donn\u00e9es, de formater, d'ajuster des dispositions, de cr\u00e9er des graphiques, d'imprimer, de cr\u00e9er des formules sur plusieurs feuilles de calcul / classeurs, d'utiliser les fonctions IF, VLOOKUP et d'autres fonctions d'alimentation, de d\u00e9finir des protocoles de s\u00e9curit\u00e9 et de partage, de cr\u00e9er des tableaux crois\u00e9s dynamiques et utilisation des fonctionnalit\u00e9s de gestion des donn\u00e9es).</p>\n<p><strong><br>COMP\u00c9TENCES</strong></p>\n<p>Travailler efficacement avec les autres<br>\nFaire preuve d\u2019initiative et \u00eatre orient\u00e9 vers l\u2019action<br>\nR\u00e9fl\u00e9chir en profondeur (raisonnement et jugement)</p>\n<p><br>\n<strong>CAPACIT\u00c9S</strong></p>\n<p>Capacit\u00e9 de communiquer efficacement de vive voix.<br>\nCapacit\u00e9 de communiquer efficacement par \u00e9crit.</p>\n<p><br>\n<strong>QUALIFICATIONS CONSTITUANT UN ATOUT</strong></p>\n<p>Exp\u00e9rience de l\u2019examen, de l\u2019analyse et de la synth\u00e8se d\u2019informations pour la pr\u00e9paration de documents et la formulation de recommandations \u00e0 l\u2019intention de gestionnaires.<br>\nExp\u00e9rience de l\u2019analyse, de l\u2019interpr\u00e9tation et de l\u2019application de politiques, de lignes directrices et/ou de r\u00e8glements.<br>\nExp\u00e9rience de travail avec la <em>Loi sur la gestion des finances publiques</em> (LGFP) et/ou des politiques, des directives et des lignes directrices du Conseil du Tr\u00e9sor applicables \u00e0 l\u2019ex\u00e9cution des programmes de subventions et de contributions.<br>\nExp\u00e9rience de l\u2019\u00e9laboration, de la mise en \u0153uvre ou de l\u2019ex\u00e9cution d\u2019initiatives ou de programmes gouvernementaux de subventions et de contributions (au cours des cinq derni\u00e8res ann\u00e9es).<br>\nExp\u00e9rience dans le domaine de la comptabilit\u00e9 g\u00e9n\u00e9rale ou de la comptabilit\u00e9 de gestion.<br>\n<br>\n<br><strong>Besoins organisationnels </strong><br>\n<br>\nPour les besoins de la diversification de l\u2019effectif, une attention particuli\u00e8re pourrait \u00eatre accord\u00e9e aux candidats qui auront indiqu\u00e9 leur appartenance \u00e0 l\u2019un des groupes suivants vis\u00e9s par l\u2019\u00e9quit\u00e9 en mati\u00e8re d\u2019emploi : Autochtones, personnes handicap\u00e9es, membres d\u2019une minorit\u00e9 visible, femmes.<br>\n<br>\n<br><strong>Besoins op\u00e9rationnels</strong></p>\n<p>Consentir \u00e0 faire des heures suppl\u00e9mentaires.</p>\n<p><strong><br>Conditions d\u2019emploi</strong></p>\n<p>Fiabilit\u00e9 et s\u00e9curit\u00e9 : Cote de fiabilit\u00e9.</p>\n<p><strong><br>Candidature</strong></p>\n<p>Si vous \u00eates un employ\u00e9 ind\u00e9termin\u00e9 au niveau CO-01 et que cette possibilit\u00e9 d\u2019affectation vous int\u00e9resse, veuillez fournir :</p>\n<ul>\n<li>une courte lettre (2 pages maximum) expliquant pourquoi ce poste vous int\u00e9resse et les habilet\u00e9s, les exp\u00e9riences et les connaissances que vous apporterez au poste ; et</li>\n<li>votre curriculum vitae.</li>\n</ul>\n<p>Si vous n\u2019\u00eates pas au niveau CO-01 et que cette possibilit\u00e9 d\u2019int\u00e9rimaire vous int\u00e9resse, veuillez fournir :</p>\n<ul>\n<li>une lettre expliquant clairement comment vous rencontrez l\u2019\u00e9ducation et les exp\u00e9riences li\u00e9es \u00e0 cette opportunit\u00e9 ; et</li>\n<li>votre curriculum vitae.</li>\n</ul>\n<p>Veuillez faire parvenir tous les documents \u00e0 Pietro Natoli par courriel \u00e0 l\u2019adresse pietro.natoli@canada.ca d\u2019ici le 12 juin 2020.<br>\n<br>\nSi vous avez des questions ou souhaitez obtenir plus d\u2019information, veuillez communiquer avec Pietro Natoli \u00e0 l\u2019adresse pietro.natoli@canada.ca.<br>\n<br>\n<br><strong>Remarques</strong></p>\n<ul>\n<li>Les employ\u00e9s ind\u00e9termin\u00e9s au niveau CO-01 seront les premiers \u00e0 \u00eatre consid\u00e9r\u00e9s pour une opportunit\u00e9 d\u2019affection. S\u2019il n\u2019y a pas de candidats qualifi\u00e9s \u00e0 niveau, les employ\u00e9es \u00e0 d\u2019autres niveau seront consid\u00e9r\u00e9s pour une opportunit\u00e9 int\u00e9rimaire.</li>\n<li>Il s\u2019agit d\u2019une affection ou d\u2019une nomination int\u00e9rimaire d\u2019un an avec possibilit\u00e9 de prolongation.</li>\n<li>Les candidates qui souhaitent \u00eatre pris en consid\u00e9ration pour une <strong>affectation</strong> doivent obtenir l\u2019approbation de leur gestionnaire avant de postuler pour cette opportunit\u00e9.</li>\n<li>Les communications relatives \u00e0 ce processus se feront par courriel.</li>\n<li>Les candidats pourraient devoir passer une entrevue.</li>\n<li>Une v\u00e9rification des r\u00e9f\u00e9rences pourrait \u00eatre effectu\u00e9e.</li>\n<li>La lettre de pr\u00e9sentation pourrait \u00eatre utilis\u00e9e pour \u00e9valuer les comp\u00e9tences en communication et en r\u00e9daction des candidats.</li>\n</ul>\n\n"
    },
    "breadcrumb": {
        "en": "Commerce Officer",
        "fr": "Agent / Agente de commerce"
    },
    "empl": {
        "type": {
            "en": "Assignment, Deployment, Acting",
            "fr": "Affectation, Mutation, Int\u00e9rimaire"
        },
        "classification": {
            "en": "CO-1 and equivalent",
            "fr": "CO-1 et \u00e9quivalent"
        },
        "branch": {
            "en": "Programs Branch",
            "fr": "Direction g\u00e9n\u00e9rale des programmes"
        },
        "locations": {
            "en": "NCR/Ottawa (Virtual)",
            "fr": "RCN/Ottawa (virtuel)"
        },
        "date_closing": {
            "en": "2020-06-12",
            "fr": "2020-06-12"
        },
        "open_to": {
            "en": "All AAFC Employees",
            "fr": "Tous les employ\u00e9s d\u2019AAC"
        },
        "name": {
            "en": "Pietro Natoli",
            "fr": "Pietro Natoli"
        },
        "email": {
            "en": "pietro.natoli@canada.ca",
            "fr": "pietro.natoli@canada.ca"
        }
    }
}