{
    "dcr_id": "1591645018489",
    "lang": "en",
    "title": {
        "en": "Scheduled Maintenance of ISB Services \u2013 June 13-17",
        "fr": "Entretien pr\u00e9vu des services de la DGSI \u2013 du 13 au 17 juin"
    },
    "modified": "2020-06-09 00:00:00.0",
    "issued": "2020-06-09 00:00:00.0",
    "type_name": "intra-intra/news-nouv",
    "node_id": "1279030006975",
    "layout_name": null,
    "dc_date_created": "2020-06-09",
    "breadcrumb_label": "",
    "meta": {
        "issued": {
            "en": "2020-06-09",
            "fr": "2020-06-09"
        },
        "modified": {
            "en": "2020-06-09",
            "fr": "2020-06-09"
        },
        "format": {
            "en": "gcformat",
            "fr": "gcformat"
        },
        "title": {
            "en": "Scheduled Maintenance of ISB Services \u2013 June 13-17",
            "fr": "Entretien pr\u00e9vu des services de la DGSI \u2013 du 13 au 17 juin"
        },
        "subject": {
            "en": "communications",
            "fr": "communications"
        },
        "description": {
            "en": "Please be advised that preventative maintenance of ISB services will be performed between Saturday, June 13, and Wednesday, June 17.",
            "fr": "Veuillez noter qu\u2019un entretien pr\u00e9ventif des services de la DGSI aura lieu du samedi 13 juin au mercredi 17 juin."
        },
        "language": {
            "en": "eng",
            "fr": "fra"
        },
        "audience": {
            "en": "gcaudience",
            "fr": "gcaudience"
        },
        "creator": {
            "en": "Agriculture and Agri-Food Canada",
            "fr": "Agriculture et Agroalimentaire Canada"
        },
        "spatial": {
            "en": "gcregions",
            "fr": "gcregions"
        },
        "service": {
            "en": "AAFC_AgriSource",
            "fr": "AAC_AgriSource"
        },
        "accessRights": {
            "en": "3",
            "fr": "3"
        }
    },
    "body": {
        "en": "<br>\n<br>\n<p>Please be advised that preventative maintenance of ISB services will be performed between Saturday, June 13, and Wednesday, June 17.<br>\n<br>\nThe following downtime is part of a management plan to upgrade our infrastructure systems. These measures are performed regularly to improve performance and to ensure that the department does not experience any outages that would affect employees and the delivery of our services.<br>\n<br>\nConsequently, the following services may not be available during these periods:</p>\n<p><strong>Saturday, </strong><strong>June 13 \u2013 1:00 a.m. until 6:00 a.m. (ET)</strong></p>\n<ul>\n<li>Skype for Business</li>\n</ul>\n<p><strong>Saturday, </strong><strong>June 13 \u201312:30 p.m. until 1:30 p.m. (ET)</strong></p>\n<ul>\n<li>AgriSource</li>\n</ul>\n<p><strong>Saturday, </strong><strong>June 13 \u20131:30 p.m. until 2:30 p.m. (ET)</strong></p>\n<ul>\n<li>AAFC Online</li>\n</ul>\n<p><strong>Saturday, </strong><strong>June 13 \u20132:30 p.m. until 3:00 p.m. (ET)</strong></p>\n<ul>\n<li>Email Subscription Service</li>\n</ul>\n<p><strong>Saturday, </strong><strong>June 13 \u20133:00 p.m. until 3:30 p.m. (ET)</strong></p>\n<ul>\n<li>Microbial Pesticide Database Directory</li>\n<li>Biopesticides Database Directory</li>\n</ul>\n<p><strong>Saturday, </strong><strong>June 13 \u20133:30 p.m. until 4:00 p.m. (ET)</strong></p>\n<ul>\n<li>Drought Watch</li>\n</ul>\n<p><strong>Wednesday, </strong><strong>June 17 \u2013 1:00 a.m. until 6:00 a.m. (ET)</strong></p>\n<ul>\n<li>My IT Centre TI</li>\n</ul>\n<p>Should you have any questions or concerns, please do not hesitate to contact IT Centre TI.<br>\n<br>\n<strong>\u00a0</strong></p>\n<p><strong>IT Centre TI</strong><br>\nTelephone: 1-855-545-4411<br>\n<a href=\"http://myitcentreti-monitcentreti/\">My IT Centre TI</a></p>\n<p><img src=\"https://intranet.agr.gc.ca/resources/prod/news/images/ITCentreTI2.png\" class=\"center-block\"></p>\n\n\t\t",
        "fr": "<br>\n<br>\n<p>Veuillez noter qu\u2019un entretien pr\u00e9ventif des services de la DGSI aura lieu du samedi 13 juin au mercredi 17 juin.<br>\n<br>\nLes interruptions suivantes sont pr\u00e9vues dans le cadre d\u2019un plan de gestion visant la mise \u00e0 niveau de nos syst\u00e8mes d\u2019infrastructure. Ces mesures sont prises r\u00e9guli\u00e8rement afin d\u2019am\u00e9liorer le rendement et d\u2019\u00e9viter que le Minist\u00e8re subisse des pannes qui pourraient nuire aux employ\u00e9s et \u00e0 la prestation de nos services.<br>\n<br>\nPar cons\u00e9quent, les services suivants pourraient ne pas \u00eatre accessibles pendant les p\u00e9riodes indiqu\u00e9es :</p>\n<p><strong>Le samedi 13 juin, de 1 h \u00e0 6 h (HE)</strong></p>\n<ul>\n<li>Skype Entreprise</li>\n</ul>\n<p><strong>Samedi 13 juin </strong><strong>\u2013 de 12 h 30 \u00e0 13 h 30 (HE)</strong></p>\n<ul>\n<li>AgriSource</li>\n</ul>\n<p><strong>Samedi 13 juin </strong><strong>\u2013 de 13 h 30 \u00e0 14 h 30 (HE)</strong></p>\n<ul>\n<li>AAC en direct</li>\n</ul>\n<p><strong>Samedi 13 juin </strong><strong>\u2013 de 14 h 30 \u00e0 15 h (HE)</strong></p>\n<ul>\n<li>Service d\u2019abonnement par courriel</li>\n</ul>\n<p><strong>Samedi 13 juin </strong><strong>\u2013 de 15 h \u00e0 15 h 30 (HE)</strong></p>\n<ul>\n<li>R\u00e9pertoire de la base de donn\u00e9es sur les pesticides microbiens</li>\n<li>R\u00e9pertoire de la base de donn\u00e9es sur les biopesticides</li>\n</ul>\n<p><strong>Samedi 13 juin </strong><strong>\u2013 de 15 h 30 \u00e0 16 h (HE)</strong></p>\n<ul>\n<li>Guetter la s\u00e9cheresse</li>\n</ul>\n<p><strong>Le mercredi 17 juin, de 1 h \u00e0 6 h (HE)</strong></p>\n<ul>\n<li>Mon IT Centre TI</li>\n</ul>\n<p>Si vous avez des questions ou des pr\u00e9occupations \u00e0 ce sujet, n\u2019h\u00e9sitez pas \u00e0 communiquer avec le IT Centre TI.<br>\n<br>\n<strong></strong></p>\n<p><strong>IT Centre TI</strong><br>\nT\u00e9l\u00e9phone : 1-855-545-4411<br>\n<a href=\"http://myitcentreti-monitcentreti/\">Mon IT Centre TI</a></p>\n<p>\u00a0</p>\n<p>\u00a0</p>\n\t\t"
    },
    "breadcrumb": {
        "en": "Scheduled Maintenance of ISB Services \u2013 June 13-17",
        "fr": "Entretien pr\u00e9vu des services de la DGSI \u2013 du 13 au 17 juin"
    },
    "news": {
        "date_posted": {
            "en": "2020-06-11",
            "fr": "2020-06-11"
        },
        "to": {
            "en": "All staff",
            "fr": "Tous les employ\u00e9s"
        },
        "by": {
            "en": "IT Centre TI",
            "fr": "IT Centre TI"
        }
    }
}