{
    "dcr_id": "1591106724824",
    "lang": "en",
    "title": {
        "en": "Executive Assistant",
        "fr": "Adjoint(e) Ex\u00e9cutif(ve)"
    },
    "modified": "2020-06-03 00:00:00.0",
    "issued": "2020-06-03 00:00:00.0",
    "type_name": "intra-intra/empl-empl",
    "node_id": "1279029955397",
    "layout_name": null,
    "dc_date_created": "2020-06-02",
    "breadcrumb_label": "",
    "meta": {
        "issued": {
            "en": "2020-06-03",
            "fr": "2020-06-03"
        },
        "modified": {
            "en": "2020-06-03",
            "fr": "2020-06-03"
        },
        "format": {
            "en": "gcformat",
            "fr": "gcformat"
        },
        "title": {
            "en": "Executive Assistant",
            "fr": "Adjoint(e) Ex\u00e9cutif(ve)"
        },
        "subject": {
            "en": "staffing",
            "fr": "dotation en personnel"
        },
        "language": {
            "en": "eng",
            "fr": "fra"
        },
        "audience": {
            "en": "gcaudience",
            "fr": "gcaudience"
        },
        "type": {
            "en": "notice",
            "fr": "avis"
        },
        "creator": {
            "en": "Agriculture and Agri-Food Canada",
            "fr": "Agriculture et Agroalimentaire Canada"
        },
        "spatial": {
            "en": "gcregions",
            "fr": "gcregions"
        },
        "service": {
            "en": "AAFC_AgriSource",
            "fr": "AAC_AgriSource"
        },
        "accessRights": {
            "en": "3",
            "fr": "3"
        }
    },
    "body": {
        "en": "\n<p>\u00a0</p>\n<p>The Director General\u2019s (DG) Office of Business Development and Competitiveness Programs Directorate (BDCD) of Programs Branch is looking for an interested and motivated individual for an assignment or acting opportunity for 3 months. This learning opportunity would expose the selected individual to a vast array of duties that are associated to an Executive Assistant role in a DG\u2019s office. The opportunity would include duties such as planning and organizing meetings and retreats; coordinating directorate travel; preparing/submitting financial documents, and act as the principal TRECS coordinator, as required.<br>\n<br>\n</p>\n<p><strong>Essential Qualifications<br>\n<br>\n</strong></p>\n<p><strong>Education</strong></p>\n<p>A secondary school diploma or an acceptable combination of education, training and/or experience.<br>\n<br>\n<strong>\u00a0</strong></p>\n<p><strong>Experience</strong></p>\n<p>Experience in providing a range of administrative support services to senior management and their staff;<br>\nExperience coordinating the collection and dissemination of briefing materials;<br>\nExperience in handling/processing sensitive and confidential information.<br>\n<br>\n</p>\n<p><strong>Competencies</strong><br>\nDiscretion<br>\nJudgment<br>\nAdaptability<br>\nPlanning and Organization<br>\nInteractive Communication<br>\n<br>\n</p>\n<p><strong>Asset Qualifications </strong></p>\n<p>Experience using government systems such as: Correspondence and tracking systems (i.e. TRECS), Travel systems (i.e. HRG- Shared Travel Services);<br>\nExperience submitting/coordinating HR and/or accommodations requests.<br>\n<br>\n</p>\n<p><strong>Operational Requirements</strong></p>\n<p>Willingness and ability to work overtime<br>\n<br>\n</p>\n<p><strong>Conditions of Employment</strong><br>\n<br>\nSecret security clearance<br>\n<br>\n</p>\n<p><strong>Applications</strong></p>\n<p>Interested AAFC employees are encouraged to forward their resume and cover letter (2 pages maximum) expressing why they are interested in the position and the skills, experience and knowledge they would bring to the job to Shannon Church at <a href=\"mailto:shannon.church@canada.ca\">shannon.church@canada.ca</a>\u00a0by 23:59 pacific time, June 9, 2020.<br>\n<br>\nResumes must clearly identify:</p>\n<ul>\n<li>Your tenure (e.g. term or indeterminate)</li>\n<li>Your substantive group and level</li>\n</ul>\n<p><strong>\u00a0</strong></p>\n<p><strong>Notes</strong></p>\n<ul>\n<li>This is a 3 month acting or assignment opportunity starting June 29, 2020.</li>\n<li>Employees who want to be considered for an <strong>assignment</strong> must have their manager\u2019s approval prior to applying for this opportunity.</li>\n<li>Your cover letter may be used to assess your communication and writing skills.</li>\n<li>Candidates may be assessed through an interview.</li>\n<li>Reference checks may be sought.</li>\n<li>Communication for this process will be sent via email.</li>\n</ul>\n",
        "fr": "\n<p>\u00a0</p>\n<p>Le bureau du directeur g\u00e9n\u00e9ral (DG) de la Direction du d\u00e9veloppement des entreprises et de la comp\u00e9titivit\u00e9 (DDEC) dans la Direction g\u00e9n\u00e9rale des Programmes recherche une personne int\u00e9ress\u00e9e et motiv\u00e9e pour une affectation ou une possibilit\u00e9 int\u00e9rimaire pour une p\u00e9riode de trois mois. Cette occasion d'apprentissage exposerait la personne choisie \u00e0 un vaste \u00e9ventail de fonctions associ\u00e9es \u00e0 un r\u00f4le d'adjoint(e) ex\u00e9cutif(ve) dans le bureau d'un DG. L'opportunit\u00e9 comprendrait des t\u00e2ches telles que la planification et l'organisation de r\u00e9unions et de s\u00e9ances de r\u00e9flexion; la coordination des voyages de la direction ainsi que la pr\u00e9paration et l\u2019envoi de documents financiers. En outre, le candidat agira comme coordonnateur principal du SSRCHD, au besoin.<br>\n<br>\n</p>\n<p><strong>Qualifications essentielles<br>\n<br>\n</strong></p>\n<p><strong>\u00c9tudes </strong><br>\n<br>\nDipl\u00f4me d\u2019\u00e9tudes secondaires ou combinaison acceptable d\u2019\u00e9tudes, de formation et d\u2019exp\u00e9rience.<br>\n<br>\n<strong>\u00a0</strong></p>\n<p><strong>Exp\u00e9rience</strong><br>\n<br>\nExp\u00e9rience de la prestation d\u2019une vaste gamme de services de soutien administratif \u00e0 l\u2019intention des cadres sup\u00e9rieurs et de leurs employ\u00e9s ;<br>\nExp\u00e9rience de la coordination de la collecte et de la diffusion de documents d\u2019information ;<br>\nExp\u00e9rience de la manipulation et du traitement de renseignements de nature d\u00e9licate et confidentielle.<br>\n<br>\n</p>\n<p><strong>Comp\u00e9tences</strong><br>\n<br>\nDiscr\u00e9tion<br>\nJugement<br>\nFacult\u00e9 d\u2019adaptation<br>\nSens de la planification et de l\u2019organisation<br>\nCommunication interactive<br>\n<br>\n</p>\n<p><strong>Qualifications constituant un atout </strong><br>\n<br>\nExp\u00e9rience de l\u2019utilisation de syst\u00e8mes gouvernementaux comme les syst\u00e8mes de correspondance et de suivi (p. ex. SSRCHD), les syst\u00e8mes de voyage (p. ex. Services de voyage partag\u00e9s de HRG) ou les syst\u00e8mes financiers (p. ex. Enterprise) ;<br>\nExp\u00e9rience dans la soumission / la coordination de demandes de ressources humaines et / ou de demandes concernant les locaux.<br>\n<br>\n</p>\n<p><strong>Besoins op\u00e9rationnels </strong></p>\n<p>\u00catre apte et dispos\u00e9 \u00e0 faire des heures suppl\u00e9mentaires.<br>\n<br>\n</p>\n<p><strong>Conditions d\u2019emploi</strong></p>\n<p>S\u00e9curit\u00e9 <strong>:</strong> Cote de niveau secret<br>\n<br>\n</p>\n<p><strong>Demandes</strong><br>\n<br>\nLes employ\u00e9s int\u00e9ress\u00e9s d'AAC sont encourag\u00e9s \u00e0 faire parvenir leur curriculum vitae et une lettre de pr\u00e9sentation (maximum de 2 pages en expliquant pourquoi ils/elles sont int\u00e9ress\u00e9(es) par le poste et les comp\u00e9tences, l'exp\u00e9rience et les connaissances qu'ils/elles apporteraient au travail) \u00e0 Shannon Church (<a href=\"mailto:shannon.church@canada.ca\">shannon.church@canada.ca</a>) au plus tard le 9 juin 2020, \u00e0 23 h 59, heure du Pacifique.<br>\n<br>\nLe curriculum vitae doit clairement indiquer :</p>\n<ul>\n<li>la dur\u00e9e de votre emploi (p. ex. p\u00e9riode d\u00e9termin\u00e9e ou ind\u00e9termin\u00e9e);</li>\n<li>votre groupe et niveau de titularisation.</li>\n</ul>\n<p><strong>\u00a0</strong></p>\n<p><strong>Remarques</strong></p>\n<ul>\n<li>Il s\u2019agit d\u2019une nomination int\u00e9rimaire ou d\u2019une affectation pour une p\u00e9riode de trois mois qui commencera le 29 juin 2020.</li>\n<li>Les employ\u00e9s qui souhaitent \u00eatre pris en consid\u00e9ration pour une <strong>affectation</strong> doivent obtenir l\u2019approbation de leur gestionnaire avant de poser leur candidature.</li>\n<li>Votre lettre de pr\u00e9sentation pourrait \u00eatre utilis\u00e9e pour \u00e9valuer vos comp\u00e9tences en communication et en r\u00e9daction.</li>\n<li>Les candidats pourront \u00eatre \u00e9valu\u00e9s au moyen d\u2019une entrevue.</li>\n<li>Les r\u00e9f\u00e9rences pourraient faire l\u2019objet d\u2019une v\u00e9rification.</li>\n<li>Les communications relatives \u00e0 ce processus se feront par courriel.</li>\n</ul>\n<p>\u00a0</p>\n\n"
    },
    "breadcrumb": {
        "en": "Executive Assistant",
        "fr": "Adjoint(e) Ex\u00e9cutif(ve)"
    },
    "empl": {
        "type": {
            "en": "Assignment, Acting",
            "fr": "Affectation, Int\u00e9rimaire"
        },
        "classification": {
            "en": "AS-3 and equivalent",
            "fr": "AS-3 et \u00e9quivalent"
        },
        "branch": {
            "en": "Programs Branch",
            "fr": "Direction g\u00e9n\u00e9rale des programmes"
        },
        "locations": {
            "en": "NCR/Ottawa (Virtual)",
            "fr": "RCN/Ottawa (virtuel)"
        },
        "date_closing": {
            "en": "2020-06-09",
            "fr": "2020-06-09"
        },
        "open_to": {
            "en": "All AAFC Employees",
            "fr": "Tous les employ\u00e9s d'AAC"
        },
        "name": {
            "en": "Shannon Church",
            "fr": "Shannon Church"
        },
        "email": {
            "en": "shannon.church@canada.ca",
            "fr": "shannon.church@canada.ca"
        }
    }
}