{
    "dcr_id": "1592416778613",
    "lang": "en",
    "title": {
        "en": "Director, Disaster Assessment and Analysis, Business Risk Management Directorate",
        "fr": "Directeur, \u00c9valuation et analyse des catastrophes, Direction des programmes de gestion des risques de l'entrep"
    },
    "modified": "2020-06-18 00:00:00.0",
    "issued": "2020-06-18 00:00:00.0",
    "type_name": "intra-intra/empl-empl",
    "node_id": "1279029955397",
    "layout_name": null,
    "dc_date_created": "2020-06-18",
    "breadcrumb_label": "",
    "meta": {
        "issued": {
            "en": "2020-06-18",
            "fr": "2020-06-18"
        },
        "modified": {
            "en": "2020-06-18",
            "fr": "2020-06-18"
        },
        "format": {
            "en": "gcformat",
            "fr": "gcformat"
        },
        "title": {
            "en": "Director, Disaster Assessment and Analysis, Business Risk Management Directorate",
            "fr": "Directeur, \u00c9valuation et analyse des catastrophes, Direction des programmes de gestion des risques de l'entrep"
        },
        "language": {
            "en": "eng",
            "fr": "fra"
        },
        "audience": {
            "en": "gcaudience",
            "fr": "gcaudience"
        },
        "creator": {
            "en": "Agriculture and Agri-Food Canada",
            "fr": "Agriculture et Agroalimentaire Canada"
        },
        "spatial": {
            "en": "gcregions",
            "fr": "gcregions"
        },
        "service": {
            "en": "AAFC_AgriSource",
            "fr": "AAC_AgriSource"
        },
        "accessRights": {
            "en": "3",
            "fr": "3"
        }
    },
    "body": {
        "en": "\n<p>Employees of Agriculture and Agri-Food Canada (AAFC) at the EC-08 (or equivalents) or EX minus 1 level are invited to express their interest in an assignment at level or acting opportunity to lead the Disaster Assessment and Analysis Division, in the Business Risk Management (BRM) Directorate of Programs Branch.<br>\n<br>\nThe Disaster Assessment and Analysis Division is responsible for administering the AgriRecovery Program through the research and analysis of the impacts of real or potential disasters affecting agricultural producers across Canada. This opportunity is a chance for you to be exposed to a wide range of issues dealt with by the Disaster Assessment and Analysis Division and gain a thorough understanding of provincial and federal agriculture programs and how they respond to disaster events. The selected candidate will also be involved in the development of programs, including their implementation and monitoring.</p>\n\n<p><br>\n<strong>Duties</strong></p>\n\n<p>Responsibilities will include: preparing briefings for senior management and the Minister; managing the team responsible for policy analysis on current and emerging issues impacting one or more sectors or regions; and developing potential programs to respond to these issues in partnership with provincial governments.<br>\n<br>\n<strong>Language Requirement: </strong>Bilingual Imperative BBB/BBB</p>\n\n<p><br>\n<strong>Education</strong></p>\n\n<p>If you are at a lower level seeking an acting opportunity, you are required to meet the minimum education of graduation with a <a href=\"https://www.canada.ca/en/treasury-board-secretariat/services/staffing/qualification-standards/core.html#deg\">degree</a> from a <a href=\"https://www.canada.ca/en/treasury-board-secretariat/services/staffing/qualification-standards/core.html#rpsi\">recognized post-secondary institution</a> with <a href=\"https://www.canada.ca/en/treasury-board-secretariat/services/staffing/qualification-standards/core.html#acce\">acceptable</a> <a href=\"https://www.canada.ca/en/treasury-board-secretariat/services/staffing/qualification-standards/core.html#spec\">specialization</a> in economics, sociology or statistics.</p>\n\n<p>If you are at an equivalent level seeking an assignment opportunity, you are required to meet the minimum education requirement of graduation with a <a href=\"https://www.canada.ca/en/treasury-board-secretariat/services/staffing/qualification-standards/core.html#deg\">degree</a> from a <a href=\"https://www.canada.ca/en/treasury-board-secretariat/services/staffing/qualification-standards/core.html#rpsi\">recognized post-secondary institution</a>.</p>\n\n<p><br>\n<strong>Experience:</strong></p>\n\n<p>Extensive experience* in policy development and/or program delivery.<br>\nExtensive experience* in formulating recommendation on policy options and strategies.<br>\nExperience in managing human resources and financial management.<br>\nExperience in establishing collaborative relationships with government officials (international, federal, provincial or municipal), businesses, or external stakeholders.<br>\nExperience in conducting economic analysis and providing strategic information and advice to senior managers.<br>\nExtensive experience* in preparing and coordinating comprehensive briefing material (such as reports, briefing notes, presentations, program or policy documents) for senior officials (Director General and above).</p>\n\n<p><em>* Extensive experience is experience gained over a minimum of 3 years.</em></p>\n\n<p><br>\n<strong>Knowledge </strong></p>\n\n<p>Knowledge of production and supply management in the Agricultural sector</p>\n\n<p><br>\n<strong>Abilities</strong></p>\n\n<p>Ability to communicate effectively orally<br>\nAbility to communicate effectively in writing<br>\n\u00a0</p>\n\n<p><strong>Competencies</strong></p>\n\n<p>Judgement<br>\nLeadership<br>\nStrategic Thinking<br>\nRelationship building</p>\n\n<p><br>\n<strong>Asset experience and knowledge</strong></p>\n\n<p>Experience negotiating with stakeholders<br>\nKnowledge of business risk management theories and practices</p>\n\n<p><br>\n<strong>Operational Requirements</strong></p>\n\n<p>Willingness and ability to work overtime<br>\nWillingness and ability to travel</p>\n\n<p><br>\n<strong>Conditions of Employment</strong></p>\n\n<p>Secret Security Clearance<br>\n\u00a0</p>\n\n<p><strong>Applications</strong></p>\n\n<p>If you are an indeterminate EX equivalent employee and are interested in this assignment, please provide:</p>\n\n<ul>\n\t<li>a short letter (2 pages maximum) expressing why you are interested in the position and the skills, experience and knowledge you would bring to the position of <strong>Director, Disaster Assessment and Analysis, BRM ; </strong>and</li>\n\t<li>your resume.</li>\n</ul>\n\n<p><br>\nIf you are not at an EX equivalent level and are interested in an acting opportunity, please provide:</p>\n\n<ul>\n\t<li>a cover letter explaining clearly how you meet the education and experiences related to this opportunity<strong>; </strong>and</li>\n\t<li>your resume.</li>\n</ul>\n\n<p><br>\nSend all documents to Maricela Segurasalas at <a href=\"mailto:maricela.segurasalas@canada.ca\">maricela.segurasalas@canada.ca</a>\u00a0by Friday, June 26, 2020.<br>\n<br>\nResumes must clearly identify your substantive group and level.<br>\n<br>\nIf you have any questions or would like more information, please contact Scott Pellow at <a href=\"mailto:scott.pellow@canada.ca\">scott.pellow@canada.ca</a>.</p>\n\n<p><br>\n<strong>Notes: </strong></p>\n\n<ul>\n\t<li>Employees at an indeterminate EX equivalent level will be considered first for an assignment opportunity. Should there be no qualified at level candidates, employees at an EX minus one level will be considered for an acting opportunity.</li>\n\t<li>The opportunity is for a 1 year acting or <strong>assignment</strong> with the possibility of an extension.</li>\n\t<li>Communication for this process will be sent via email.</li>\n\t<li>Candidates who want to be considered for an assignment must have their manager\u2019s approval prior to applying for this opportunity.</li>\n\t<li>Candidates may be assessed through an interview.</li>\n\t<li>A written exam may be administered.</li>\n\t<li>Reference checks may be sought.</li>\n</ul>\n\n<p>\u00a0</p>\n\n",
        "fr": "\n<p>Les employ\u00e9s d'Agriculture et Agroalimentaire Canada (AAC) au niveau EC-08 (ou \u00e9quivalent) ou EX moins 1 sont invit\u00e9s \u00e0 exprimer leur int\u00e9r\u00eat pour un opportunit\u00e9 d\u2019affectation \u00e0 un niveau ou une opportunit\u00e9 int\u00e9rimaire pour diriger l\u2019\u00e9quipe de l\u2019\u00e9valuation et analyse des catastrophes de la Direction des programmes de gestion des risques de l'entreprise de la Direction g\u00e9n\u00e9rale des programmes.<br>\n<br>\nL\u2019\u00e9quipe de l\u2019\u00e9valuation et analyse des catastrophes est responsable de l\u2019administration du programme Agri-relance en faisant de la recherche et de l\u2019analyse sur les impacts de catastrophes r\u00e9elles ou potentielles affectant les producteurs agricoles \u00e0 travers le pays. Cette opportunit\u00e9 vous permettra de vous familiariser avec les multiples enjeux g\u00e9r\u00e9s par l\u2019\u00e9quipe de l\u2019\u00e9valuation et analyse des catastrophes et d\u2019approfondir votre compr\u00e9hension des programmes agricoles provinciaux et f\u00e9d\u00e9raux et comment ceux-ci sont utilis\u00e9s pour r\u00e9pondre \u00e0 des catastrophes. Le candidat s\u00e9lectionn\u00e9 sera aussi impliqu\u00e9 dans le d\u00e9veloppement de programmes, incluant la mise en \u0153uvre et la surveillance.<br>\n<br>\n<strong>Responsabilit\u00e9s</strong></p>\n\n<p>Les responsabilit\u00e9s li\u00e9es \u00e0 ce poste inclues : la pr\u00e9paration de note d\u2019information pour la haute gestion et pour la Ministre ; la gestion de l\u2019\u00e9quipe responsable de l\u2019analyse de politiques portant sur les enjeux existant et \u00e9mergeant aillant un impact sur un ou plusieurs secteurs ou r\u00e9gions ; et le d\u00e9veloppement, en partenariat avec les gouvernements provinciaux, de programmes pouvant r\u00e9pondre \u00e0 ces enjeux.<br>\n<br>\n<strong>\u00c9ducation</strong></p>\n\n<p>Si vous \u00eates un employ\u00e9 qui n\u2019est pas \u00e0 niveau \u00e0 la recherche d\u2019une nomination int\u00e9rimaire, vous devez rencontrer le niveau d\u2019\u00e9ducation minimum suivant: un <a href=\"https://www.canada.ca/fr/secretariat-conseil-tresor/services/dotation/normes-qualification/centrale.html#Dipl\">grade</a> d\u2019un <a href=\"https://www.canada.ca/fr/secretariat-conseil-tresor/services/dotation/normes-qualification/centrale.html#eepr\">\u00e9tablissement d\u2019enseignement postsecondaire reconnu</a> avec <a href=\"https://www.canada.ca/fr/secretariat-conseil-tresor/services/dotation/normes-qualification/centrale.html#spec\">sp\u00e9cialisation</a> <a href=\"https://www.canada.ca/fr/secretariat-conseil-tresor/services/dotation/normes-qualification/centrale.html#acc\">acceptable</a> en \u00e9conomie, en sociologie ou en statistique.</p>\n\n<p>Si vous \u00eates un employ\u00e9 \u00e0 niveau \u00e0 la recherche d\u2019une affectation, vous devez rencontrer le niveau d\u2019\u00e9ducation minimum suivant : un <a href=\"https://www.canada.ca/fr/secretariat-conseil-tresor/services/dotation/normes-qualification/centrale.html#Dipl\">grade</a> d\u2019un <a href=\"https://www.canada.ca/fr/secretariat-conseil-tresor/services/dotation/normes-qualification/centrale.html#eepr\">\u00e9tablissement d\u2019enseignement postsecondaire reconnu</a>.</p>\n\n<p><br>\n<strong>Profil linguistique exig\u00e9 :</strong> Bilingue imp\u00e9ratif : BBB/BBB</p>\n\n<p><br>\n<strong>Exp\u00e9rience</strong></p>\n\n<p>Exp\u00e9rience vaste* dans la conception et/ou la prestation de programmes ou de services.<br>\nExp\u00e9rience vaste* dans la formulation de recommandations sur des questions de politiques et de strat\u00e9gies.<br>\nExp\u00e9rience en gestion des ressources humaines et des finances.<br>\nExp\u00e9rience de l\u2019\u00e9tablissement de relations de collaborations avec des employ\u00e9es du gouvernement (international, f\u00e9d\u00e9ral, provincial ou municipal), des entreprises ou des intervenants externes.<br>\nExp\u00e9rience de l\u2019analyse \u00e9conomique et de la prestation de renseignements et de conseils strat\u00e9giques aux cadres sup\u00e9rieurs.<br>\nExp\u00e9rience vaste* de la pr\u00e9paration de mat\u00e9riel d\u2019information (p. ex., rapports, notes d\u2019information, pr\u00e9sentations, document de programme ou de politique) \u00e0 l\u2019intention de cadres sup\u00e9rieurs (directeurs g\u00e9n\u00e9raux et postes de niveau sup\u00e9rieur).</p>\n\n<p><em>* Exp\u00e9rience vaste est de l\u2019exp\u00e9rience acquise sur un minimum de 3 ans.</em></p>\n\n<p><br>\n<strong>Connaissance</strong></p>\n\n<p>Connaissance de la production et de la gestion de l\u2019offre dans le secteur agricole</p>\n\n<p><br>\n<strong>Capacit\u00e9s</strong></p>\n\n<p>Capacit\u00e9 de communiquer efficacement \u00e0 l\u2019oral<br>\nCapacit\u00e9 de communiquer efficacement par \u00e9crit</p>\n\n<p><br>\n<strong>Comp\u00e9tences</strong></p>\n\n<p>Jugement<br>\nLeadership<br>\nPens\u00e9e strat\u00e9gique<br>\n\u00c9tablissement de relations</p>\n\n<p><br>\n<strong>Exp\u00e9rience et connaissances constituant un atout</strong></p>\n\n<p>Exp\u00e9rience dans la n\u00e9gociation avec des intervenants<br>\nConnaissance des th\u00e9ories et pratiques dans le domaine de gestion des risques de l'entreprise</p>\n\n<p><br>\n<strong>Exigences op\u00e9rationnelles </strong></p>\n\n<p>Consentir \u00e0 faire des heures suppl\u00e9mentaires et \u00eatre en mesure de le faire<br>\nConsentir \u00e0 voyager et \u00eatre en mesure de le faire\u00a0</p>\n\n<p>\u00a0</p>\n\n<p><strong>Condition d\u2019emploi: </strong><br>\n<br>\nCote de s\u00e9curit\u00e9<strong><strong> </strong></strong>Secr\u00e8te</p>\n\n<p><br>\n<strong>Applications:</strong></p>\n\n<p>Si vous \u00eates un employ\u00e9 ind\u00e9termin\u00e9 \u00e0 un niveau EX \u00e9quivalent et que cette possibilit\u00e9 d\u2019affectation vous int\u00e9resse, veuillez fournir :</p>\n\n<ul>\n\t<li>une courte lettre (2 pages maximum) expliquant pourquoi ce poste vous int\u00e9resse et les habilet\u00e9s, les exp\u00e9riences et les connaissances que vous apporterez au poste de <strong>Directeur, \u00c9valuation et analyse des catastrophes, Direction des programmes de gestion des risques de l'entreprise </strong>; et</li>\n\t<li>votre curriculum vitae.</li>\n</ul>\n\n<p><br>\nSi vous n\u2019\u00eates pas \u00e0 un niveau EX \u00e9quivalent et que cette possibilit\u00e9 d\u2019int\u00e9rimaire vous int\u00e9resse, veuillez fournir :</p>\n\n<ul>\n\t<li>une lettre expliquant clairement comment vous rencontrez l\u2019\u00e9ducation et les exp\u00e9riences li\u00e9es \u00e0 cette opportunit\u00e9 ; et</li>\n\t<li>votre curriculum vitae.</li>\n</ul>\n\n<p><br>\nVeuillez envoyer tous les documents \u00e0 Maricela Segurasalas \u00e0 <a href=\"mailto:maricela.segurasalas@canada.ca\">maricela.segurasalas@canada.ca</a>\u00a0d\u2019ici vendredi le 26 juin 2020.<br>\n<br>\nVeuillez indiquer clairement votre groupe et niveau de titularisation dans votre curriculum vitae.<br>\n<br>\nSi vous avez des questions ou si vous souhaitez obtenir de plus amples renseignements, n\u2019h\u00e9sitez pas \u00e0 communiquer avec Scott Pellow par courriel \u00e0 l\u2019adresse <a href=\"mailto:scott.pellow@canada.ca\">scott.pellow@canada.ca</a>.</p>\n\n<p>\u00a0</p>\n\n<p><strong>Notes: </strong></p>\n\n<ul>\n\t<li>Les employ\u00e9s ind\u00e9termin\u00e9s \u00e0 un niveau EX \u00e9quivalent seront les premiers \u00e0 \u00eatre consid\u00e9r\u00e9s pour une opportunit\u00e9 d\u2019affection. S\u2019il n\u2019y a pas de candidats qualifi\u00e9s \u00e0 niveau, les employ\u00e9es \u00e0 un niveau EX moins 1 seront consid\u00e9r\u00e9s pour une opportunit\u00e9 int\u00e9rimaire.</li>\n\t<li>Il s\u2019agit d\u2019une affection ou d\u2019une nomination int\u00e9rimaire d\u2019un an avec possibilit\u00e9 de prolongation.</li>\n\t<li>Toute communication relative \u00e0 ce processus sera faite par courriel.</li>\n\t<li>Les candidates qui souhaitent \u00eatre pris en consid\u00e9ration pour une <strong>affectation</strong> doivent obtenir l\u2019approbation de leur gestionnaire avant de postuler pour cette opportunit\u00e9.</li>\n\t<li>Les candidats peuvent \u00eatre \u00e9valu\u00e9s lors d\u2019une entrevue.</li>\n\t<li>Un examen \u00e9crit pourrait \u00eatre administr\u00e9.</li>\n\t<li>Une v\u00e9rification des r\u00e9f\u00e9rences pourrait \u00eatre faite.</li>\n</ul>\n\n<p>\u00a0</p>\n\n\n"
    },
    "breadcrumb": {
        "en": "Director, Disaster Assessment and Analysis, Business Risk Management Directorate",
        "fr": "Directeur, \u00c9valuation et analyse des catastrophes, Direction des programmes de gestion des risques de l'entrep"
    },
    "empl": {
        "type": {
            "en": "Assignment, Acting",
            "fr": "Affectation, Int\u00e9rimaire"
        },
        "classification": {
            "en": "EC-8 and equivalent",
            "fr": "EC-8 et \u00e9quivalent"
        },
        "branch": {
            "en": "Programs Branch",
            "fr": "Direction g\u00e9n\u00e9rale des programmes"
        },
        "locations": {
            "en": "NCR/Ottawa (Virtual)",
            "fr": "RCN/Ottawa (virtuel)"
        },
        "date_closing": {
            "en": "2020-06-26",
            "fr": "2020-06-26"
        },
        "open_to": {
            "en": "All AAFC employees in the NCR in an EX equivalent or EX minus 1 level",
            "fr": "Tous les employ\u00e9s d\u2019AAC situ\u00e9s dans la RCN \u00e0 un niveau EX \u00e9quivalent ou \u00e0 un niveau EX moins 1"
        },
        "name": {
            "en": "Maricela Segurasalas",
            "fr": "Maricela Segurasalas"
        },
        "email": {
            "en": "maricela.segurasalas@canada.ca",
            "fr": "maricela.segurasalas@canada.ca"
        }
    }
}