{
    "dcr_id": "1592413091879",
    "lang": "en",
    "title": {
        "en": "National Indigenous Peoples Day - June 21",
        "fr": "Journ\u00e9e nationale des peuples autochtones - le 21 juin "
    },
    "modified": "2020-06-18 00:00:00.0",
    "issued": "2020-06-17 00:00:00.0",
    "type_name": "intra-intra/news-nouv",
    "node_id": "1279030006975",
    "layout_name": null,
    "dc_date_created": "2020-06-17",
    "breadcrumb_label": "",
    "meta": {
        "issued": {
            "en": "2020-06-17",
            "fr": "2020-06-17"
        },
        "modified": {
            "en": "2020-06-18",
            "fr": "2020-06-18"
        },
        "format": {
            "en": "gcformat",
            "fr": "gcformat"
        },
        "title": {
            "en": "National Indigenous Peoples Day - June 21",
            "fr": "Journ\u00e9e nationale des peuples autochtones - le 21 juin "
        },
        "subject": {
            "en": "communications",
            "fr": "communications"
        },
        "description": {
            "en": "June 21 is National Indigenous Peoples Day, a day to celebrate and gain a greater knowledge and understanding of First Nations, Inuit and M\u00e9tis - three distinct peoples with unique histories, languages, cultural practices and spiritual beliefs.",
            "fr": "Le 21 juin est la Journ\u00e9e nationale des peuples autochtones, une occasion pour c\u00e9l\u00e9brer et approfondir notre connaissance et notre compr\u00e9hension des Premi\u00e8res Nations, des Inuits et des M\u00e9tis \u2013 trois groupes distincts qui ont chacun leur histoire, leurs langues, leurs pratiques culturelles et leurs croyances spirituelles."
        },
        "language": {
            "en": "eng",
            "fr": "fra"
        },
        "audience": {
            "en": "gcaudience",
            "fr": "gcaudience"
        },
        "creator": {
            "en": "Agriculture and Agri-Food Canada",
            "fr": "Agriculture et Agroalimentaire Canada"
        },
        "spatial": {
            "en": "gcregions",
            "fr": "gcregions"
        },
        "service": {
            "en": "AAFC_AgriSource",
            "fr": "AAC_AgriSource"
        },
        "accessRights": {
            "en": "3",
            "fr": "3"
        }
    },
    "body": {
        "en": "<br>\n<br>\n<p>June 21 is National Indigenous Peoples Day, a day to celebrate and gain a greater knowledge and understanding of First Nations, Inuit and M\u00e9tis \u2013 three distinct peoples with unique histories, languages, cultural practices and spiritual beliefs. We encourage all Canadians to honour the shared history of Canada and to build an understanding of how the past has shaped our present.</p>\n<h2><strong>Attend a National Indigenous Peoples Day event</strong></h2>\n<p>National Indigenous Peoples Day events are a great way to learn about Indigenous cultures firsthand and are fun for the whole family.</p>\n<h2><strong>Summer Solstice Indigenous Festival - Virtual Edition</strong></h2>\n<p>In 2020, the festival brings together artists, vendors and performers online to share their crafts, expertise and talents with all of Canada. Tune into Indigenous music and performers, theatre and dance including a social distance pow wow competition. Register for Indigenous cooking and arts &amp; crafts workshops; learn from Elders\u2019 teachings and traditions; shop at the virtual marketplace. Education (Multi)Day is back for students and teachers, as well as family-packed done-at-home activities.</p>\n<p><strong>Date: </strong>June 1-21 <br>Check the <a href=\"https://summersolsticefestivals.ca/\">Summer Solstice Indigenous Festivals website</a> for details.</p>\n<h2><strong>Learn more</strong></h2>\n<ul>\n<li><a href=\"https://www.rcaanc-cirnac.gc.ca/eng/1100100013248/1534872397533\">About National Indigenous Peoples Day</a></li>\n<li><a href=\"https://collab.agr.gc.ca/co/acn-crea/SitePages/Home.aspx\">AAFC\u2019s Indigenous Network Circle</a></li>\n</ul>\n<p>\u00a0</p>\n<p><strong>Samantha David and Erle Einarsson</strong><br>\nIndigenous Network Circle Co-Chairs</p>\n<p><strong>Brian Gray</strong><br>\nIndigenous Network Circle Champion</p>\n<p><img src=\"https://intranet.agr.gc.ca/resources/prod/news/images/INCBanner2019-EN.png\" class=\"center-block\"></p>\n\n\t\t",
        "fr": "<br>\n<br>\n<p>Le 21 juin est la Journ\u00e9e nationale des peuples autochtones, une occasion pour c\u00e9l\u00e9brer et approfondir notre connaissance et notre compr\u00e9hension des Premi\u00e8res Nations, des Inuits et des M\u00e9tis \u2013 trois groupes distincts qui ont chacun leur histoire, leurs langues, leurs pratiques culturelles et leurs croyances spirituelles. Nous encourageons tous les Canadiens \u00e0 rendre hommage \u00e0 l\u2019histoire commune du Canada afin de comprendre comment le pass\u00e9 a fa\u00e7onn\u00e9 le pr\u00e9sent.</p>\n<h2><strong>Participer \u00e0 une activit\u00e9 dans le cadre de la Journ\u00e9e nationale des peuples autochtones</strong></h2>\n<p>Les activit\u00e9s tenues dans le cadre de la Journ\u00e9e nationale des peuples autochtones permettent de se familiariser avec les cultures autochtones et sont un divertissement pour toute la famille.</p>\n<h2><strong>Festival autochtone du solstice d\u2019\u00e9t\u00e9 \u2013 \u00e9dition virtuelle</strong></h2>\n<p>En 2020, le festival r\u00e9unira des artistes et des vendeurs en ligne pour partager leur artisanat, leur expertise et leurs talents avec l'ensemble du Canada. Faites l\u2019exp\u00e9rience de musique et d\u2019artistes autochtones, du th\u00e9\u00e2tre et de la danse, y compris un concours de pow-wow \u00e0 distance. Inscrivez-vous aux ateliers de cuisine et d'artisanat autochtones; familiarisez-vous avec les enseignements et les traditions des a\u00een\u00e9s; magasinez dans le march\u00e9 virtuel. La journ\u00e9e (multi)\u00e9ducation est de retour pour les \u00e9tudiants et les enseignants ainsi que pour les activit\u00e9s familiales \u00e0 domicile.</p>\n<p><strong>Date :</strong> Du 1 au 21 juin <br>Consultez leur <a href=\"https://summersolsticefestivals.ca/\">site web</a> pour conna\u00eetre les d\u00e9tails (disponible en anglais seulement)</p>\n<h2><strong>Pour en savoir plus</strong></h2>\n<ul>\n<li><a href=\"https://www.rcaanc-cirnac.gc.ca/fra/1100100013248/1534872397533\">\u00c0 propos de la Journ\u00e9e nationale des peuples autochtones</a></li>\n<li><a href=\"https://collab.agr.gc.ca/co/acn-crea/SitePages/Home.aspx\">Cercle de r\u00e9seautage des employ\u00e9s autochtones d\u2019AAC </a></li>\n</ul>\n<p>\u00a0</p>\n<p><strong>Samantha David et Erle Einarsson </strong><br>\nCopr\u00e9sidents du Cercle de r\u00e9seautage des employ\u00e9s autochtones</p>\n<p><strong>Brian Gray</strong><br>\nChampion du Cercle de r\u00e9seautage des employ\u00e9s autochtones</p>\n<p><img src=\"https://intranet.agr.gc.ca/resources/prod/news/images/INCBanner2019-FR.png\" class=\"center-block\"></p>\n\t\t"
    },
    "breadcrumb": {
        "en": "National Indigenous Peoples Day - June 21",
        "fr": "Journ\u00e9e nationale des peuples autochtones - le 21 juin"
    },
    "news": {
        "date_posted": {
            "en": "2020-06-17",
            "fr": "2020-06-17"
        },
        "to": {
            "en": "All staff",
            "fr": "Tous les employ\u00e9s"
        },
        "by": {
            "en": "Indigenous Network Circle",
            "fr": "Le cercle de r\u00e9seautage des employ\u00e9s autochtones"
        }
    }
}