{
    "dcr_id": "1592918061028",
    "lang": "en",
    "title": {
        "en": "Leading with Empathy Through the Easing of COVID-19 Restrictions",
        "fr": "Diriger avec empathie pendant l'assouplissement des restrictions li\u00e9es \u00e0 la COVID-19"
    },
    "modified": "2020-06-24 00:00:00.0",
    "issued": "2020-06-24 00:00:00.0",
    "type_name": "intra-intra/news-nouv",
    "node_id": "1279030006975",
    "layout_name": null,
    "dc_date_created": "2020-06-23",
    "breadcrumb_label": "",
    "meta": {
        "issued": {
            "en": "2020-06-24",
            "fr": "2020-06-24"
        },
        "modified": {
            "en": "2020-06-24",
            "fr": "2020-06-24"
        },
        "format": {
            "en": "gcformat",
            "fr": "gcformat"
        },
        "title": {
            "en": "Leading with Empathy Through the Easing of COVID-19 Restrictions",
            "fr": "Diriger avec empathie pendant l'assouplissement des restrictions li\u00e9es \u00e0 la COVID-19"
        },
        "subject": {
            "en": "communications",
            "fr": "communications"
        },
        "description": {
            "en": "The COVID-19 pandemic and the restrictions put in place to combat it have affected all public servants. The easing of these restrictions will be no different.",
            "fr": "La pand\u00e9mie de COVID-19 et les restrictions mises en place pour en freiner la propagation ont touch\u00e9 tous les fonctionnaires. L'assouplissement des restrictions ne sera pas diff\u00e9rent."
        },
        "language": {
            "en": "eng",
            "fr": "fra"
        },
        "audience": {
            "en": "gcaudience",
            "fr": "gcaudience"
        },
        "creator": {
            "en": "Agriculture and Agri-Food Canada",
            "fr": "Agriculture et Agroalimentaire Canada"
        },
        "spatial": {
            "en": "gcregions",
            "fr": "gcregions"
        },
        "service": {
            "en": "AAFC_AgriSource",
            "fr": "AAC_AgriSource"
        },
        "accessRights": {
            "en": "3",
            "fr": "3"
        }
    },
    "body": {
        "en": "<br>\n<br>\n<p>The COVID-19 pandemic and the restrictions put in place to combat it have affected all public servants. The easing of these restrictions will be no different. This learning event focuses on the psychological needs of public servants as the COVID-19 restrictions change.</p>\n<p>Jointly presented by the Canada School of Public Service, the National Managers' Community, the Centre of Expertise on Mental Health in the Workplace and a number of deputy ministers, this event offers GC managers and executives practical tools, conversation starters, and tips on how to lead their teams with empathy and protect the psychological health of public servants during the easing of COVID-19 restrictions. Following the presentation, a panel of experts on mental health and empathy will participate in a Q and A.</p>\n<p>This event is part of the\u00a0<a href=\"https://www.csps-efpc.gc.ca/events/COVID-19-easing-restrictions/index-eng.aspx\">Easing of COVID-19 Restrictions in the Workplace Series</a>.</p>\n<h2><strong>Event information</strong></h2>\n<p><strong>Date and time:</strong>\u00a0June 29, 2020 | 11:00 am to 12:30 pm (ET)<br><strong>Language:</strong>\u00a0French<br><strong>Location:</strong>\u00a0Available across Canada by webcast<br><strong>Audience:</strong>\u00a0Managers and executives<br><strong>Speaker:</strong>\u00a0To be confirmed<br><strong>Moderator: Vanessa Vermette</strong>, Director General, Communications and Engagement, Canada School of Public Service</p>\n<p><a href=\"mailto:csps.registration-inscription.efpc@canada.ca?subject=Le%2029%20juin%2C%202020%20-%20Diriger%20avec%20empathie%20pendant%20l%E2%80%99assouplissement%20des%20restrictions%20li%C3%A9es%20%C3%A0%20la%20COVID-19%20(Fran%C3%A7ais)&amp;body=Je%20souhaite%20m'inscrire%20%C3%A0%20l'%C3%A9v%C3%A9nement%20en%20fran%C3%A7ais.%0D%0A%0D%0APr%C3%A9nom%20%3A%20%0D%0ANom%20%3A%20%20%0D%0AMinist%C3%A8re%20%3A%20%0D%0ACourriel%20%3A\">Register for webcast: French session</a></p>\n<p><strong>Date and time:</strong>\u00a0June 29, 2020 | 1:30 pm to 3:00 pm (ET)<br><strong>Language:</strong>\u00a0English<br><strong>Location:</strong>\u00a0Available across Canada by webcast<br><strong>Audience:</strong>\u00a0Managers and executives<br><strong>Speaker:</strong>\u00a0To be confirmed<br><strong>Moderator: Vanessa Vermette</strong>, Director General, Communications and Engagement, Canada School of Public Service</p>\n<p><a href=\"mailto:csps.registration-inscription.efpc@canada.ca?subject=June%2029%2C%202020%20%E2%80%93%20Leading%20with%20Empathy%20Through%20the%20Easing%20of%20COVID-19%20Restrictions%20(English)&amp;body=I%20would%20like%20to%20register%20for%20the%20English%20event.%0D%0A%0D%0AFirst%20name%3A%20%0D%0ALast%20name%3A%20%0D%0ADepartment%3A%20%20%0D%0AEmail%3A%20\">Register for webcast: English session</a></p>\n<p>If you have difficulty registering or have questions about this event, please email\u00a0<a href=\"mailto:csps.learningevents-evenementsdapprentissage.efpc@canada.ca\">csps.learningevents-evenementsdapprentissage.\u200befpc@canada.ca</a>.</p>\n\n\t\t",
        "fr": "<br>\n<br>\n<p>La pand\u00e9mie de COVID-19 et les restrictions mises en place pour en freiner la propagation ont touch\u00e9 tous les fonctionnaires. L'assouplissement des restrictions ne sera pas diff\u00e9rent. Cet \u00e9v\u00e9nement met l'accent sur les besoins psychologiques des fonctionnaires alors que les restrictions li\u00e9es \u00e0 la COVID-19 s'assouplissent.</p>\n<p>Cet \u00e9v\u00e9nement est pr\u00e9sent\u00e9 conjointement par l'\u00c9cole de la fonction publique du Canada, la Communaut\u00e9 nationale des gestionnaires et le Centre d'expertise pour la sant\u00e9 mentale en milieu de travail. Il vise \u00e0 offrir aux gestionnaires et aux cadres du GC des outils pratiques, des sujets susceptibles d'alimenter la conversation et des conseils afin de diriger leurs \u00e9quipes avec empathie et de veiller \u00e0 la sant\u00e9 psychologique de tous les fonctionnaires pendant l'assouplissement des restrictions li\u00e9es \u00e0 la COVID-19. \u00c0 la fin de la pr\u00e9sentation, un groupe d'experts en sant\u00e9 mentale et en empathie participera \u00e0 une s\u00e9ance de questions et r\u00e9ponses.</p>\n<p>Cet \u00e9v\u00e9nement fait partie de la <a href=\"https://www.csps-efpc.gc.ca/events/COVID-19-easing-restrictions/index-fra.aspx\">S\u00e9rie sur l'assouplissement des restrictions li\u00e9es \u00e0 la COVID-19 en milieu de travail</a>.</p>\n<h2><strong>Renseignements sur les activit\u00e9s</strong></h2>\n<p><strong>Date et heure : </strong>Le 29 juin 2020 | de 11 h \u00e0 12 h 30 (HE)<br><strong>Langue\u00a0: </strong>Fran\u00e7ais<br><strong>Lieu :\u00a0</strong>Offert partout au Canada par webdiffusion<br><strong>Auditoire :</strong>\u00a0Fonctionnaires de tous les groupes et niveaux<br><strong>Conf\u00e9renci\u00e8re\u00a0: </strong>\u00c0 confirmer<br><strong>Animatrice\u00a0: Vanessa Vermette</strong>, directrice g\u00e9n\u00e9rale, Communications et mobilisation, \u00c9cole de la fonction publique du Canada</p>\n<p><a href=\"mailto:csps.registration-inscription.efpc@canada.ca?subject=Le%2029%20juin%2C%202020%20-%20Diriger%20avec%20empathie%20pendant%20l%E2%80%99assouplissement%20des%20restrictions%20li%C3%A9es%20%C3%A0%20la%20COVID-19%20(Fran%C3%A7ais)&amp;body=Je%20souhaite%20m'inscrire%20%C3%A0%20l'%C3%A9v%C3%A9nement%20en%20fran%C3%A7ais.%0D%0A%0D%0APr%C3%A9nom%20%3A%20%0D%0ANom%20%3A%20%20%0D%0AMinist%C3%A8re%20%3A%20%0D%0ACourriel%20%3A\">Inscrivez-vous : webdiffusion (s\u00e9ance\u00a0en\u00a0fran\u00e7ais)</a></p>\n<p><strong>Date et heure : </strong>Le 29 juin 2020 | de 13 h 30 \u00e0 15 h (HE)<br><strong>Langue\u00a0: </strong>Anglais<br><strong>Lieu :</strong>\u00a0Offert partout au Canada par webdiffusion<br><strong>Auditoire :</strong>\u00a0Gestionnaires et cadres<br><strong>Conf\u00e9renci\u00e8re\u00a0: </strong>\u00c0 confirmer<br><strong>Animatrice\u00a0: Vanessa Vermette</strong>, directrice g\u00e9n\u00e9rale, Communications et mobilisation, \u00c9cole de la fonction publique du Canada</p>\n<p><a href=\"mailto:csps.registration-inscription.efpc@canada.ca?subject=June%2029%2C%202020%20%E2%80%93%20Leading%20with%20Empathy%20Through%20the%20Easing%20of%20COVID-19%20Restrictions%20(English)&amp;body=I%20would%20like%20to%20register%20for%20the%20English%20event.%0D%0A%0D%0AFirst%20name%3A%20%0D%0ALast%20name%3A%20%0D%0ADepartment%3A%20%20%0D%0AEmail%3A%20\">Inscrivez-vous : webdiffusion (s\u00e9ance\u00a0en\u00a0anglais)</a></p>\n<p>Si vous avez des difficult\u00e9s \u00e0 vous inscrire ou si vous avez des questions concernant cet \u00e9v\u00e9nement, \u00e9crivez \u00e0 <a href=\"mailto:csps.learningevents-evenementsdapprentissage.efpc@canada.ca\">csps.learningevents-evenementsdapprentissage.\u200befpc@canada.ca</a>.</p>\n\t\t"
    },
    "breadcrumb": {
        "en": "Leading with Empathy Through the Easing of COVID-19 Restrictions",
        "fr": "Diriger avec empathie pendant l'assouplissement des restrictions li\u00e9es \u00e0 la COVID-19"
    },
    "news": {
        "date_posted": {
            "en": "2020-06-25",
            "fr": "2020-06-25"
        },
        "to": {
            "en": "All staff",
            "fr": "Tous les employ\u00e9s"
        },
        "by": {
            "en": "Canada School of Public Service",
            "fr": "\u00c9cole de la fonction publique du Canada"
        }
    }
}