{
    "dcr_id": "1592829758079",
    "lang": "en",
    "title": {
        "en": "Clarification of Province of Work for Employees Teleworking During COVID-19",
        "fr": "Pr\u00e9cision au sujet de la province de travail pour les employ\u00e9s qui font du t\u00e9l\u00e9travail pendant la pand\u00e9mie de la COVID-19"
    },
    "modified": "2020-06-24 00:00:00.0",
    "issued": "2020-06-24 00:00:00.0",
    "type_name": "intra-intra/news-nouv",
    "node_id": "1279030006975",
    "layout_name": null,
    "dc_date_created": "2020-06-22",
    "breadcrumb_label": "",
    "meta": {
        "issued": {
            "en": "2020-06-24",
            "fr": "2020-06-24"
        },
        "modified": {
            "en": "2020-06-24",
            "fr": "2020-06-24"
        },
        "format": {
            "en": "gcformat",
            "fr": "gcformat"
        },
        "title": {
            "en": "Clarification of Province of Work for Employees Teleworking During COVID-19",
            "fr": "Pr\u00e9cision au sujet de la province de travail pour les employ\u00e9s qui font du t\u00e9l\u00e9travail pendant la pand\u00e9mie de la COVID-19"
        },
        "subject": {
            "en": "communications",
            "fr": "communications"
        },
        "description": {
            "en": "For employees working from home because of the pandemic, the Canada Revenue Agency and Revenu Qu\u00e9bec have confirmed that the province of work for taxation purposes will not change.",
            "fr": "L'Agence du revenu du Canada et Revenu Qu\u00e9bec ont confirm\u00e9 que la province de travail aux fins d'imposition ne changera pas pour les employ\u00e9s qui font du t\u00e9l\u00e9travail en raison de la pand\u00e9mie de la COVID-19."
        },
        "language": {
            "en": "eng",
            "fr": "fra"
        },
        "audience": {
            "en": "gcaudience",
            "fr": "gcaudience"
        },
        "creator": {
            "en": "Agriculture and Agri-Food Canada",
            "fr": "Agriculture et Agroalimentaire Canada"
        },
        "spatial": {
            "en": "gcregions",
            "fr": "gcregions"
        },
        "service": {
            "en": "AAFC_AgriSource",
            "fr": "AAC_AgriSource"
        },
        "accessRights": {
            "en": "3",
            "fr": "3"
        }
    },
    "body": {
        "en": "<br>\n<br>\n<p>For employees working from home because of the pandemic, the Canada Revenue Agency and Revenu Qu\u00e9bec have confirmed that the province of work for taxation purposes will not change.</p>\n<p>This means that if you are currently teleworking from your home in one province, and you normally report to an office located in a different province, the province used to calculate your payroll deductions at source continues to be your normal work office location. These deductions include Federal and Provincial/Territorial income taxes, Employment Insurance (EI), Qu\u00e9bec Parental Insurance Plan (QPIP), Canada Pension Plan (CPP) and Qu\u00e9bec Pension Plan (QPP).</p>\n<p>The same policy applies to designated paid holidays as outlined in your collective agreement.</p>\n<p><strong>Example: </strong></p>\n<p>You normally report to work at an office located in Quebec, however, during the pandemic you are teleworking from your home in Ontario.</p>\n<p>Your deductions at source will continue to be based on Quebec provincial rates. The Quebec provincial holiday on June 24 will also continue to be your designated paid holiday, and the Ontario provincial holiday will not apply. Your province of work will not change to Ontario due to the COVID-19 situation.</p>\n<h2><strong>Resources</strong></h2>\n<ul>\n<li>The <a href=\"https://www.gcpedia.gc.ca/gcwiki/images/2/2f/Job_Aid_Federal_Provincial_and_Territorial_Payroll_Deductions_-_Effective_January_1_2017_-_EN.pdf\">job aid</a> on federal, provincial and territorial payroll deductions provides information on tax rates, tax credits, and contribution rates</li>\n<li><a href=\"https://www.tbs-sct.gc.ca/agreements-conventions/index-eng.aspx\">Collective agreements for public service</a> (TBS) provides information on designated paid holidays</li>\n<li><a href=\"https://www.tpsgc-pwgsc.gc.ca/remuneration-compensation/services-paye-pay-services/paye-information-pay/paye-talon-stub-pay-eng.html\">How public service pay works</a> (PSPC) provides information on when and how you get paid</li>\n</ul>\n<p>\u00a0</p>\n<ul>\n</ul>\n\n\t\t",
        "fr": "<br>\n<br>\n<p>L\u2019Agence du revenu du Canada et Revenu Qu\u00e9bec ont confirm\u00e9 que la province de travail aux fins d\u2019imposition ne changera pas pour les employ\u00e9s qui font du t\u00e9l\u00e9travail en raison de la pand\u00e9mie de la COVID-19.</p>\n<p>Autrement dit, si vous travaillez actuellement de la maison dans une province donn\u00e9e et que vous vous rendez normalement \u00e0 un bureau situ\u00e9 dans une autre province, la province aux fins du calcul des retenues \u00e0 la source continuera d\u2019\u00eatre celle de votre lieu de travail habituel. Ces retenues comprennent les imp\u00f4ts f\u00e9d\u00e9ral, provincial ou territorial sur le revenu, l\u2019assurance emploi (AE), le R\u00e9gime qu\u00e9b\u00e9cois d\u2019assurance parentale (RQAP), le R\u00e9gime de pensions du Canada (RPC) et le R\u00e9gime de rentes du Qu\u00e9bec (RRQ).</p>\n<p>Le m\u00eame principe s\u2019appliquera aux jours f\u00e9ri\u00e9s pay\u00e9s comme ils sont indiqu\u00e9s dans la convention collective.</p>\n<p><strong>Exemple</strong> :</p>\n<p>Vous vous pr\u00e9sentez normalement au travail \u00e0 un bureau situ\u00e9 au Qu\u00e9bec. Cependant, pendant la pand\u00e9mie vous faites du t\u00e9l\u00e9travail depuis votre demeure en Ontario.</p>\n<p>Vos retenues \u00e0 la source continueront \u00e0 \u00eatre pr\u00e9lev\u00e9es selon les taux provinciaux du Qu\u00e9bec. Le jour f\u00e9ri\u00e9 provincial du Qu\u00e9bec le 24 juin continuera \u00e9galement \u00e0 \u00eatre un jour f\u00e9ri\u00e9 pay\u00e9 et le jour f\u00e9ri\u00e9 provincial de l\u2019Ontario ne s\u2019appliquera pas. Votre province de travail ne sera pas modifi\u00e9e pour l\u2019Ontario en raison de la pand\u00e9mie de la COVID-19.</p>\n<h2><strong>Ressources</strong></h2>\n<ul>\n<li><a href=\"http://www.gcpedia.gc.ca/gcwiki/images/1/1a/Job_Aid_Federal_Provincial_and_Territorial_Payroll_Deductions_-_Effective_January_1_2017_-_FR.pdf\">L\u2019outil de travail</a> \u00ab Retenues f\u00e9d\u00e9rales, provinciales et territoriales sur la paye \u00bb offre des renseignements sur les taux d\u2019imposition, les cr\u00e9dits d\u2019imp\u00f4t et les taux de cotisation</li>\n<li>La page web <a href=\"https://www.tbs-sct.gc.ca/agreements-conventions/index-fra.aspx\">Conventions collectives pour la fonction publique</a> (SCT) fournit des renseignements au sujet des jours f\u00e9ri\u00e9s pay\u00e9s</li>\n<li>Apprenez \u00e0 quel moment et de quelle fa\u00e7on vous obtenez votre paye sur la page Web \u00ab <a href=\"https://www.tpsgc-pwgsc.gc.ca/remuneration-compensation/services-paye-pay-services/paye-information-pay/paye-talon-stub-pay-fra.html\">Comment fonctionne la paye de la fonction publique</a> (SPAC) \u00bb</li>\n</ul>\n\t\t"
    },
    "breadcrumb": {
        "en": "Clarification of Province of Work for Employees Teleworking During COVID-19",
        "fr": "Pr\u00e9cision au sujet de la province de travail pour les employ\u00e9s qui font du t\u00e9l\u00e9travail pendant la pand\u00e9mie de la COVID-19"
    },
    "news": {
        "date_posted": {
            "en": "2020-06-25",
            "fr": "2020-06-25"
        },
        "to": {
            "en": "All staff",
            "fr": "Tous les employ\u00e9s"
        },
        "by": {
            "en": "Corporate Management Branch",
            "fr": "Direction g\u00e9n\u00e9rale de la gestion int\u00e9gr\u00e9e"
        }
    }
}