{
    "dcr_id": "1592248221221",
    "lang": "en",
    "title": {
        "en": "Disability Insurance Plan Monthly Premiums to Increase",
        "fr": "Les primes mensuelles du R\u00e9gime d'assurance-invalidit\u00e9 augmenteront"
    },
    "modified": "2020-06-17 00:00:00.0",
    "issued": "2020-06-17 00:00:00.0",
    "type_name": "intra-intra/news-nouv",
    "node_id": "1279030006975",
    "layout_name": null,
    "dc_date_created": "2020-06-16",
    "breadcrumb_label": "",
    "meta": {
        "issued": {
            "en": "2020-06-17",
            "fr": "2020-06-17"
        },
        "modified": {
            "en": "2020-06-17",
            "fr": "2020-06-17"
        },
        "format": {
            "en": "gcformat",
            "fr": "gcformat"
        },
        "title": {
            "en": "Disability Insurance Plan Monthly Premiums to Increase",
            "fr": "Les primes mensuelles du R\u00e9gime d'assurance-invalidit\u00e9 augmenteront"
        },
        "subject": {
            "en": "communications",
            "fr": "communications"
        },
        "description": {
            "en": "The Treasury Board Secretariat has announced that the total premium rate for the Disability Insurance (DI) plan will increase on July 8.",
            "fr": "Le Secr\u00e9tariat du Conseil du Tr\u00e9sor a annonc\u00e9 que le taux de prime total du R\u00e9gime d'assurance-invalidit\u00e9 (AI) augmentera le 8 juillet."
        },
        "language": {
            "en": "eng",
            "fr": "fra"
        },
        "audience": {
            "en": "gcaudience",
            "fr": "gcaudience"
        },
        "creator": {
            "en": "Agriculture and Agri-Food Canada",
            "fr": "Agriculture et Agroalimentaire Canada"
        },
        "spatial": {
            "en": "gcregions",
            "fr": "gcregions"
        },
        "service": {
            "en": "AAFC_AgriSource",
            "fr": "AAC_AgriSource"
        },
        "accessRights": {
            "en": "3",
            "fr": "3"
        }
    },
    "body": {
        "en": "<br>\n<br>\n<p>The Treasury Board Secretariat has announced that the total premium rate for the Disability Insurance (DI)\u00a0plan will increase on July 8, to $2.32 per month for every $1,000 of a plan member's insured salary.</p>\n<p>The Government pays 85 percent of the costs of the DI plan, as shown below.</p>\n<h2><strong>Monthly premiums</strong></h2>\n<table cellspacing=\"0\" border=\"1\" width=\"700\">\n<tbody>\n<tr>\n<td style=\"background-color: #bfbfbf; width: 127.35pt;\">\n<p>\u00a0</p>\n</td>\n<td style=\"background-color: #bfbfbf; border-color: windowtext windowtext windowtext #000000; width: 170.1pt;\">\n<p><strong>Monthly premium rate effective<br>\n\t\t\tJuly 8, 2020</strong></p>\n</td>\n<td style=\"background-color: #bfbfbf; border-color: windowtext windowtext windowtext #000000; width: 170.05pt;\">\n<p><strong>Previous monthly premium rate effective February 1, 2013</strong></p>\n</td>\n</tr>\n<tr>\n<td style=\"border-color: #000000 windowtext windowtext; width: 127.35pt;\">\n<p><strong>DI Plan premium rate</strong></p>\n</td>\n<td style=\"border-color: #000000 windowtext windowtext #000000; width: 170.1pt;\">\n<p>$2.32 for every $1,000 of a plan member\u2019s insured salary</p>\n</td>\n<td style=\"border-color: #000000 windowtext windowtext #000000; width: 170.05pt;\">\n<p>$1.93 for every $1,000 of a plan member\u2019s insured salary</p>\n</td>\n</tr>\n<tr>\n<td style=\"border-color: #000000 windowtext windowtext; width: 127.35pt;\">\n<p><strong>Employee portion (15%)</strong></p>\n</td>\n<td style=\"border-color: #000000 windowtext windowtext #000000; width: 170.1pt;\">\n<p>$0.35 for every $1,000 of insured salary</p>\n</td>\n<td style=\"border-color: #000000 windowtext windowtext #000000; width: 170.05pt;\">\n<p>$0.29 for every $1,000 of insured salary</p>\n</td>\n</tr>\n<tr>\n<td style=\"border-color: #000000 windowtext windowtext; width: 127.35pt;\">\n<p><strong>Employer portion (85%)</strong></p>\n</td>\n<td style=\"border-color: #000000 windowtext windowtext #000000; width: 170.1pt;\">\n<p>$1.97 for every $1,000 of insured salary</p>\n</td>\n<td style=\"border-color: #000000 windowtext windowtext #000000; width: 170.05pt;\">\n<p>$1.64 for every $1,000 of insured salary</p>\n</td>\n</tr>\n</tbody>\n</table>\n<p>\u00a0</p>\n<p>Premium contributions are typically made by payroll deduction, and are waived while a member is receiving disability benefits or on leave without pay.</p>\n<p>Learn more about eligibility, benefits and the claims process for the <a href=\"https://www.canada.ca/en/treasury-board-secretariat/topics/benefit-plans/plans/disability-insurance-plan.html\">Disability Insurance Plan for the public service</a>.</p>\n\n\t\t",
        "fr": "<br>\n<br>\n<p>Le Secr\u00e9tariat du Conseil du Tr\u00e9sor a annonc\u00e9 que le taux de prime total du R\u00e9gime d\u2019AI augmentera le 8 juillet, passant de 2,32 $ par mois par tranche de 1 000 $ du salaire assur\u00e9 d\u2019un participant au r\u00e9gime.</p>\n<p>Le gouvernement assume 85 pour cent des co\u00fbts du R\u00e9gime d\u2019AI, comme l\u2019indique le tableau ci-dessous.</p>\n<h2><strong>Primes mensuelles</strong></h2>\n<table cellspacing=\"0\" border=\"1\" width=\"700\">\n<tbody>\n<tr>\n<td style=\"background-color: #bfbfbf; width: 127.35pt;\">\n<p>\u00a0</p>\n</td>\n<td style=\"background-color: #bfbfbf; border-color: windowtext windowtext windowtext #000000; width: 170.1pt;\">\n<p><strong>Taux de prime mensuel en vigueur le 8 juillet 2020</strong></p>\n</td>\n<td style=\"background-color: #bfbfbf; border-color: windowtext windowtext windowtext #000000; width: 170.05pt;\">\n<p><strong>Taux de prime mensuel pr\u00e9c\u00e9dent en vigueur le 1er f\u00e9vrier 2013</strong></p>\n</td>\n</tr>\n<tr>\n<td style=\"border-color: #000000 windowtext windowtext; width: 127.35pt;\">\n<p><strong>Taux de prime du<br>\n\t\t\tR\u00e9gime d\u2019AI</strong></p>\n</td>\n<td style=\"border-color: #000000 windowtext windowtext #000000; width: 170.1pt;\">\n<p>2,32 $ par tranche de 1 000 $ du salaire assur\u00e9 d\u2019un participant au r\u00e9gime</p>\n</td>\n<td style=\"border-color: #000000 windowtext windowtext #000000; width: 170.05pt;\">\n<p>1,93 $ par tranche de 1 000 $ du salaire assur\u00e9 d\u2019un participant au r\u00e9gime</p>\n</td>\n</tr>\n<tr>\n<td style=\"border-color: #000000 windowtext windowtext; width: 127.35pt;\">\n<p><strong>Part de l\u2019employ\u00e9 (15 %) </strong></p>\n</td>\n<td style=\"border-color: #000000 windowtext windowtext #000000; width: 170.1pt;\">\n<p>0,35 $ par tranche de 1 000 $ du salaire assur\u00e9</p>\n</td>\n<td style=\"border-color: #000000 windowtext windowtext #000000; width: 170.05pt;\">\n<p>0,29 $ par tranche de 1 000 $ du salaire assur\u00e9</p>\n</td>\n</tr>\n<tr>\n<td style=\"border-color: #000000 windowtext windowtext; width: 127.35pt;\">\n<p><strong>Part de l\u2019employeur (85 %)</strong></p>\n</td>\n<td style=\"border-color: #000000 windowtext windowtext #000000; width: 170.1pt;\">\n<p>1,97 $ par tranche de 1 000 $ du salaire assur\u00e9</p>\n</td>\n<td style=\"border-color: #000000 windowtext windowtext #000000; width: 170.05pt;\">\n<p>1,64 $ par tranche de 1 000 $ du salaire assur\u00e9</p>\n</td>\n</tr>\n</tbody>\n</table>\n<p>\u00a0</p>\n<p>Les cotisations sont habituellement retenues \u00e0 la source et ne sont pas pr\u00e9lev\u00e9es lorsqu\u2019un participant re\u00e7oit des prestations d\u2019invalidit\u00e9 ou est en cong\u00e9 sans solde.</p>\n<p>Pour en savoir plus sur l\u2019admissibilit\u00e9, les prestations et les demandes de remboursement, consultez la page <a href=\"https://www.canada.ca/fr/secretariat-conseil-tresor/sujets/regimes-assurance/regimes/regime-assurance-invalidite.html\">R\u00e9gime d'assurance-invalidit\u00e9 pour la fonction publique</a>.</p>\n<p>\u00a0</p>\n\t\t"
    },
    "breadcrumb": {
        "en": "Disability Insurance Plan Monthly Premiums to Increase",
        "fr": "Les primes mensuelles du R\u00e9gime d'assurance-invalidit\u00e9 augmenteront"
    },
    "news": {
        "date_posted": {
            "en": "2020-06-18",
            "fr": "2020-06-18"
        },
        "to": {
            "en": "All staff",
            "fr": "Tous les employ\u00e9s"
        },
        "by": {
            "en": "Pay Transformation, Corporate Management Branch",
            "fr": "Transformation de la paye, Direction g\u00e9n\u00e9rale de la gestion int\u00e9gr\u00e9e"
        }
    }
}