{
    "dcr_id": "1593523478545",
    "lang": "en",
    "title": {
        "en": "Scheduled Maintenance of ISB Services - July 4",
        "fr": "Entretien pr\u00e9vu des services de la DSI - 4 juillet"
    },
    "modified": "2020-07-02 00:00:00.0",
    "issued": "2020-07-02 00:00:00.0",
    "type_name": "intra-intra/news-nouv",
    "node_id": "1279030006975",
    "layout_name": null,
    "dc_date_created": "2020-06-30",
    "breadcrumb_label": "",
    "meta": {
        "issued": {
            "en": "2020-07-02",
            "fr": "2020-07-02"
        },
        "modified": {
            "en": "2020-07-02",
            "fr": "2020-07-02"
        },
        "format": {
            "en": "gcformat",
            "fr": "gcformat"
        },
        "title": {
            "en": "Scheduled Maintenance of ISB Services - July 4",
            "fr": "Entretien pr\u00e9vu des services de la DSI - 4 juillet"
        },
        "subject": {
            "en": "communications",
            "fr": "communications"
        },
        "description": {
            "en": "Please be advised that preventative maintenance of ISB services will be performed on Saturday, July 4.",
            "fr": "Veuillez prendre note qu'un entretien pr\u00e9ventif des services de la DGSI aura lieu le samedi 4 juillet 2020."
        },
        "language": {
            "en": "eng",
            "fr": "fra"
        },
        "audience": {
            "en": "gcaudience",
            "fr": "gcaudience"
        },
        "creator": {
            "en": "Agriculture and Agri-Food Canada",
            "fr": "Agriculture et Agroalimentaire Canada"
        },
        "spatial": {
            "en": "gcregions",
            "fr": "gcregions"
        },
        "service": {
            "en": "AAFC_AgriSource",
            "fr": "AAC_AgriSource"
        },
        "accessRights": {
            "en": "3",
            "fr": "3"
        }
    },
    "body": {
        "en": "<br>\n<br>\n<p>Please be advised that preventative maintenance of ISB services will be performed on Saturday, July 4.<br>\n<br>\nThe following downtime is part of a management plan to upgrade our infrastructure systems. These measures are performed regularly to improve performance and to ensure that the department does not experience any outages that would affect employees and the delivery of our services.<br>\n<br>\nConsequently, the following services may not be available during the this period:</p>\n<p><strong>*Saturday, </strong><strong>July 4 \u2013 6:30 a.m. until 6:45 a.m. (ET)</strong></p>\n<ul>\n<li>Compensation Web Applications, including Phoenix</li>\n<li>Email services</li>\n</ul>\n<p><strong>Note</strong>: Email services will be available through mobile devices</p>\n<ul>\n<li>\n<p>Internet and secure remote access</p>\n</li>\n</ul>\n<p><strong>Note</strong>: This includes access to all web pages and applications that are accessed through the Internet</p>\n<ul>\n<li>PeopleSoft</li>\n<li>SAP</li>\n</ul>\n<p>Should you have any questions or concerns, please do not hesitate to contact IT Centre TI.</p>\n<p>*Please click here for a <a href=\"https://collab.agr.gc.ca/co/ccc/_layouts/15/guestaccess.aspx?guestaccesstoken=xtzL4zmklcCupLfIee9ppF2e%2byvhtKUqlX%2fpAefZYXo%3d&amp;docid=2_085c70ed5b259473d8a8ed58542aefa2a&amp;rev=1\">complete listing of affected services</a> during these periods.</p>\n<p><strong>\u00a0</strong></p>\n<p><strong>IT Centre TI</strong><br>\nTelephone: 1-855-545-4411<br>\n<a href=\"http://myitcentreti-monitcentreti/\">My IT Centre TI</a></p>\n<p><img src=\"https://intranet.agr.gc.ca/resources/prod/news/images/ITCentreTI2.png\" class=\"center-block\"></p>\n\n\t\t",
        "fr": "<br>\n<br>\n<p>Veuillez prendre note qu\u2019un entretien pr\u00e9ventif des services de la DGSI aura lieu le samedi 4 juillet 2020. </p>\n<p>Les interruptions suivantes sont pr\u00e9vues dans le cadre d\u2019un plan de gestion visant la mise \u00e0 niveau de nos syst\u00e8mes d\u2019infrastructure. Ces entretiens sont faits r\u00e9guli\u00e8rement pour am\u00e9liorer le rendement des syst\u00e8mes et veiller \u00e0 ce que le Minist\u00e8re ne subisse pas de pannes pouvant nuire aux employ\u00e9s et \u00e0 la prestation de nos services.</p>\n<p>Par cons\u00e9quent, les services suivants ne seront pas accessibles au cours des p\u00e9riodes suivantes :</p>\n<p><strong>*Le samedi 4 juillet, de 6 h 30 \u00e0 6 h 45 (HNE)</strong></p>\n<ul>\n<li>Applications Web de la r\u00e9mun\u00e9ration, y compris le Syst\u00e8me de paye Ph\u00e9nix</li>\n<li>Services de courriel</li>\n</ul>\n<p><strong>Remarque</strong> : Les services de courriel seront accessibles sur des appareils mobiles.</p>\n<ul>\n<li>\n<p>Internet sans fil et acc\u00e8s \u00e0 distance s\u00e9curis\u00e9</p>\n</li>\n</ul>\n<p><strong>Remarque</strong> : Cela comprend toutes les pages et applications Web auxquelles on acc\u00e8de \u00e0 partir d\u2019Internet.</p>\n<ul>\n<li>PeopleSoft</li>\n<li>SAP</li>\n</ul>\n<p>Si vous avez des questions ou des pr\u00e9occupations, n\u2019h\u00e9sitez pas \u00e0 communiquer avec le IT Centre TI.</p>\n<p>*Cliquez ici pour obtenir la <a href=\"https://collab.agr.gc.ca/co/ccc/_layouts/15/guestaccess.aspx?guestaccesstoken=eoz5XjEoVgxE3mpkYMys959Rsnis0OkjGG88EOi6Ypw%3d&amp;docid=2_0416bce0dc8804cbbb66e1b5c09201c1e&amp;rev=1\">liste exhaustive des services touch\u00e9s</a> pendant ces p\u00e9riodes.</p>\n<p><strong>\u00a0</strong></p>\n<p><strong>IT Centre TI<br></strong>T\u00e9l\u00e9phone : 1-855-545-4411<br><a href=\"http://myitcentreti-monitcentreti/\">Mon IT Centre TI</a></p>\n<p><img src=\"https://intranet.agr.gc.ca/resources/prod/news/images/ITCentreTI2.png\" class=\"center-block\"></p>\n\t\t"
    },
    "breadcrumb": {
        "en": "Scheduled Maintenance of ISB Services - July 4",
        "fr": "Entretien pr\u00e9vu des services de la DSI - 4 juillet"
    },
    "news": {
        "date_posted": {
            "en": "2020-07-02",
            "fr": "2020-07-02"
        },
        "to": {
            "en": "All staff",
            "fr": "Tous les employ\u00e9s"
        },
        "by": {
            "en": "IT Centre TI",
            "fr": "IT Centre TI"
        }
    }
}