{
    "dcr_id": "1593526025927",
    "lang": "en",
    "title": {
        "en": "Executive Assistant",
        "fr": "Adjoint(e) Ex\u00e9cutif(ve)"
    },
    "modified": "2020-07-02 00:00:00.0",
    "issued": "2020-07-02 00:00:00.0",
    "type_name": "intra-intra/empl-empl",
    "node_id": "1279029955397",
    "layout_name": null,
    "dc_date_created": "2020-06-30",
    "breadcrumb_label": "",
    "meta": {
        "issued": {
            "en": "2020-07-02",
            "fr": "2020-07-02"
        },
        "modified": {
            "en": "2020-07-02",
            "fr": "2020-07-02"
        },
        "format": {
            "en": "gcformat",
            "fr": "gcformat"
        },
        "title": {
            "en": "Executive Assistant",
            "fr": "Adjoint(e) Ex\u00e9cutif(ve)"
        },
        "subject": {
            "en": "staffing",
            "fr": "dotation en personnel"
        },
        "language": {
            "en": "eng",
            "fr": "fra"
        },
        "audience": {
            "en": "gcaudience",
            "fr": "gcaudience"
        },
        "type": {
            "en": "notice",
            "fr": "avis"
        },
        "creator": {
            "en": "Agriculture and Agri-Food Canada",
            "fr": "Agriculture et Agroalimentaire Canada"
        },
        "spatial": {
            "en": "gcregions",
            "fr": "gcregions"
        },
        "service": {
            "en": "AAFC_AgriSource",
            "fr": "AAC_AgriSource"
        },
        "accessRights": {
            "en": "3",
            "fr": "3"
        }
    },
    "body": {
        "en": "\n<p><strong>\u00a0</strong></p>\n<p>Are you looking for an opportunity to try working in a new area without having to move locations? We are looking for a self-motivated, well-organized, detail-oriented executive assistant who can work remotely while supporting a Branch Head\u2019s office which is located in Ottawa.</p>\n<p>The Office of Audit and Evaluation (OAE) is a branch-level organization in AAFC that delivers the internal audit and evaluation functions for the Deputy Minister. Similar to a small ADM-level office, the Branch Head\u2019s office is quite busy and provides an opportunity to get involved in all areas of running a branch.</p>\n<p>Employees of Agriculture and Agri-Food Canada (AAFC) across Canada who currently are in an AS-02 or AS-03 position, are invited to express their interest in a deployment, an assignment or an acting opportunity for the position of Executive Assistant to the Branch Head of the OAE.</p>\n<p><strong><br>Duties include:</strong><br>\n\u2022 Managing the day-to-day agenda, calendar, meeting material and emails for the Branch Head.<br>\n\u2022 Managing the TRECs function and working with the Deputy and ADM offices to fulfill requests in a timely manner.<br>\n\u2022 Organizing and providing administrative support for Branch Head meetings (logistics, documents, conference calls/videoconferences, and hospitality).<br>\n\u2022 Managing the process for, and quality of, incoming and outgoing dockets for the Branch Head.<br>\n\u2022 Developing and managing branch-level tracking tools.<br>\n\u2022 Acquiring supplies and paying invoices.<br>\n\u2022 Providing support for the branch-level budget.<br>\n<br>\n<br><strong>Language Requirement: </strong><br>\nBilingual Imperative BBB/BBB</p>\n<p><strong><br>Education:</strong><br>\nSecondary school diploma or an acceptable combination of education, training and/or experience.<br>\n<br>\nIf you have foreign credentials, please follow the link below for information on how to obtain a degree equivalency. You must obtain an equivalency, at your own expense, in order to be considered for appointment into the public service.</p>\n<p><a href=\"https://www.canada.ca/en/public-service-commission/jobs/services/gc-jobs/degree-equivalency.html\">Degree equivalency</a></p>\n<p><strong><br>Experience:</strong></p>\n<ul>\n<li>\n<p>Recent* experience working in a senior executive office (Director General office or above).</p>\n</li>\n<li>\n<p>Recent* experience managing and organizing the daily agenda, calendar and email for an executive and preparing documentation for meetings, conferences, travel and training.</p>\n</li>\n<li>\n<p>Experience using AAFC correspondence tracking system such as TRECs (CCM Mercury), Agridoc, KW or other similar electronic document management systems.</p>\n</li>\n<li>\n<p>Experience coordinating the collection of and dissemination of briefing materials and liaising with offices of internal or external senior officials.<br>\n\t<br>\n\tNote:<br>\n\t*Recent means the experience was gained within the past two years.</p>\n</li>\n</ul>\n<p><strong><br>Knowledge:</strong></p>\n<p>Knowledge of general office procedures<br>\n<br>\n<br><strong>Competencies:</strong></p>\n<p>Dependability<br>\nInitiative<br>\nTeamwork<br>\nInteractive communication<br>\nDiscretion</p>\n<p><strong><br>Ability:</strong><br>\nAbility to maintain a constant level of superior service in a demanding and high-pressure environment, respecting deadlines and setting priorities.</p>\n<p><strong><br>Conditions of Employment:</strong></p>\n<p>Secret Security Clearance</p>\n<p><strong><br>Applications:</strong></p>\n<p>If you are interested in an this opportunity, please provide:</p>\n<ul>\n<li>A copy of your resum\u00e9.</li>\n</ul>\n<p>Send all documents to Nathalie Potvin at <a href=\"mailto:nathalie.potvin2@canada.ca\">nathalie.potvin2@canada.ca</a>\u00a0\u00a0by Sunday July 12, 2020, at 23:59 Pacific Time.<br>\n<br>\nYour resume must clearly identify your substantive group and level.</p>\n<p>If you\u2019ve qualified in an AS-03 pool, please provide the process number.<br>\n<br>\nIf you have any questions or would like more information, please contact Nathalie Potvin at <a href=\"mailto:nathalie.potvin2@canada.ca\">nathalie.potvin2@canada.ca</a><br>\n<br>\n<br><strong>Notes: </strong></p>\n<ul>\n<li>Communication for this process will be sent via email.</li>\n<li>Candidates may be assessed through an MS Teams interview.</li>\n<li>Reference checks will be sought.</li>\n</ul>\n<p>\u00a0</p>\n",
        "fr": "\n<div>\n<div><strong>\u00a0</strong></div>\n\u00cates-vous \u00e0 la recherche d\u2019une opportunit\u00e9 afin de travailler dans un nouveau domaine sans avoir \u00e0 d\u00e9m\u00e9nager? Nous sommes \u00e0 la recherche d\u2019un(e) adjoint(e) ex\u00e9cutif(ve) qui est motiv\u00e9, qui a un bon sens d\u2019organisation, ax\u00e9 sur les d\u00e9tails et qui peut travailler \u00e0 distance afin de fournir un soutien administratif au bureau du chef de division qui est situ\u00e9 \u00e0 Ottawa.</div>\n<div>Le bureau de la v\u00e9rification et de l\u2019\u00e9valuation (BVE) est une direction g\u00e9n\u00e9rale du minist\u00e8re qui a pour fonction de fournir des services de v\u00e9rification et d\u2019\u00e9valuation au Sous-ministre. Similaire au petit bureau de sous-ministre adjoint, le bureau du chef de division est tr\u00e8s occup\u00e9 et offre une possibilit\u00e9 de s\u2019impliquer dans tous les domaines de la direction g\u00e9n\u00e9rale.</div>\n<div>Les employ\u00e9s d\u2019Agriculture et Agroalimentaire Canada (AAC) \u00e0 travers le Canada, qui occupent pr\u00e9sentement un poste au niveau AS-02 ou AS-03, sont invit\u00e9s \u00e0 exprimer leur int\u00e9r\u00eat pour une mutation, une affectation ou un int\u00e9rimaire dans le poste d\u2019adjoint(e) ex\u00e9cutif(ve) au chef de division du BVE.</div>\n<div><strong><br>Taches:</strong><br>\n\u2022 G\u00e9rer l\u2019horaire quotidien, le calendrier, les courriels et le mat\u00e9riel pour les r\u00e9unions du chef de division.<br>\n\u2022 G\u00e9rer les demandes de TRECs et travailler avec les bureaux du Sous-ministre et de sous-ministre adjoint afin de compl\u00e9ter les demandes dans un d\u00e9lai convenable.<br>\n\u2022 Organiser et fournir un soutien administratif pour les r\u00e9unions du chef de division (logistique,documentation, appels conf\u00e9rences/vid\u00e9oconf\u00e9rences et d\u2019accueil).<br>\n\u2022 G\u00e9rer le processus et le contr\u00f4le de la qualit\u00e9 des dossiers entrant et sortant du bureau du chef de division.<br>\n\u2022 G\u00e9rer et d\u00e9velopper des outils de suivi pour la direction g\u00e9n\u00e9rale.<br>\n\u2022 Effectuer des commandes de fournitures et payer des factures.<br>\n\u2022 Apporter un soutien pour le budget de la direction g\u00e9n\u00e9rale.</div>\n<div><strong><br>Exigences linguistiques:</strong><br>\nBilingue - Imp\u00e9ratif (BBB/BBB)</div>\n<div><strong><br>\u00c9ducation:</strong><br>\nUn dipl\u00f4me d'\u00e9tudes secondaires ou un agencement acceptable d'\u00e9tudes, de formation et (ou) d'exp\u00e9rience.<br>\n<br>\nSI VOUS AVEZ DES DIPLOMES ETRANGERS, s'il vous pla\u00eet suivez le lien ci-dessous pour obtenir des informations sur la fa\u00e7on d'obtenir une \u00e9quivalence de dipl\u00f4me. Vous devez obtenir une \u00e9quivalence, \u00e0 vos propres frais, afin d\u2019\u00eatre consid\u00e9r\u00e9 pour une nomination dans la fonction publique.</div>\n<div><a href=\"https://www.canada.ca/fr/commission-fonction-publique/emplois/services/emplois-gc/equivalence-diplomes.html\">\u00c9quivalence des dipl\u00f4mes</a></div>\n<div><strong><br>Exp\u00e9rience:</strong></div>\n<ul>\n<li>\n<div>Exp\u00e9rience de travail r\u00e9cente* dans un bureau de cadre sup\u00e9rieur (Directeur g\u00e9n\u00e9ral ou sup\u00e9rieure).</div>\n</li>\n<li>\n<div>Exp\u00e9rience de travail r\u00e9cente* de la gestion et de l'organisation de l'horaire quotidien, le calendrier et courriel pour un cadre, et la pr\u00e9paration de toute documentation pertinente pour les r\u00e9unions, conf\u00e9rences, d\u00e9placements et formation.</div>\n</li>\n<li>\n<div>Exp\u00e9rience dans l'utilisation de logiciel de suivi de correspondance d\u2019AAC tel que TRECs (CCM Mercury), Agridoc, KW ou tout autre syst\u00e8me \u00e9lectronique de gestion de l\u2019information similaire.</div>\n</li>\n<li>\n<div>Exp\u00e9rience dans la coordination de la collecte et la diffusion de mat\u00e9riel d\u2019informations et de la liaison avec des bureaux de haute direction internes ou externes.<br>\n\t<br>\n\t*Exp\u00e9rience r\u00e9cente s\u2019entend d\u2019une exp\u00e9rience acquise au cours des deux derni\u00e8res ann\u00e9es.</div>\n</li>\n</ul>\n<div><strong><br>Connaissance:</strong><br>\nConnaissance des proc\u00e9dures g\u00e9n\u00e9rales de bureau</div>\n<div><strong><br>Comp\u00e9tences:</strong><br>\nInitiative<br>\nFiabilit\u00e9<br>\nTravail d\u2019\u00e9quipe<br>\nCommunication interactive<br>\nDiscr\u00e9tion<br>\n<br>\n<br><strong>Capacit\u00e9:</strong><br>\nCapacit\u00e9 d'offrir en tout temps un excellent niveau de service dans un milieu exigeant o\u00f9 la pression est \u00e9lev\u00e9e, tout en respectant les d\u00e9lais et les priorit\u00e9s \u00e9tablies.</div>\n<h2><strong><br>Conditions d'emploi:</strong></h2>\n<div>Autorisation s\u00e9curitaire Secret<br>\n<br>\n<br><strong>Applications:</strong></div>\n<div>Si vous \u00eates int\u00e9ress\u00e9 par cette opportunit\u00e9, svp soumettre:</div>\n<ul>\n<li>Une copie de votre curriculum vitae</li>\n</ul>\n<div>Envoyez tous vos documents \u00e0 Nathalie Potvin au <a href=\"mailto:nathalie.potvin2@canada.ca\">nathalie.potvin2@canada.ca</a> \u00a0d\u2019ici dimanche le 12 juillet 2020 \u00e0 23h59, heure du Pacifique.</div>\n<div>Votre curriculum vitae doit clairement identifier le groupe et le niveau de votre substantif.</div>\n<div>Si vous \u00eates qualifi\u00e9 dans un bassin d\u2019AS-03, svp nous fournir le num\u00e9ro du processus.</div>\n<div>Si vous avez des questions ou vous aimeriez plus d\u2019information, svp contacter Nathalie Potvin au <a href=\"mailto:nathalie.potvin2@canada.ca\">nathalie.potvin2@canada.ca</a><br>\n<br>\n<br><strong>Notes: </strong></div>\n<ul>\n<li>Les communications relatives \u00e0 ce processus se feront par courriel.</li>\n<li>Les candidats pourraient \u00eatre \u00e9valu\u00e9s dans le cadre d\u2019une entrevue via MS Teams.</li>\n<li>Une v\u00e9rification des r\u00e9f\u00e9rences sera faite.</li>\n</ul>\n<div><em>\u00a0</em></div>\n\n"
    },
    "breadcrumb": {
        "en": "Executive Assistant",
        "fr": "Adjoint(e) Ex\u00e9cutif(ve)"
    },
    "empl": {
        "type": {
            "en": "Assignment, Deployment, Acting",
            "fr": "Affectation, Mutation, Int\u00e9rimaire"
        },
        "classification": {
            "en": "AS-3",
            "fr": "AS-3"
        },
        "branch": {
            "en": "Office of Audit and Evaluation",
            "fr": "Bureau de la v\u00e9rification et de l'\u00e9valuation"
        },
        "locations": {
            "en": "Ottawa/Remote",
            "fr": "Ottawa/\u00c0 distance"
        },
        "date_closing": {
            "en": "2020-07-12",
            "fr": "2020-07-12"
        },
        "open_to": {
            "en": "All AAFC employees at the AS-02 or AS-03 level",
            "fr": "Tous les employ\u00e9es d'AAC de niveau AS-02 ou AS-03"
        },
        "name": {
            "en": "Nathalie Potvin",
            "fr": "Nathalie Potvin"
        },
        "email": {
            "en": "nathalie.potvin2@canada.ca",
            "fr": "nathalie.potvin2@canada.ca"
        }
    }
}