{
    "dcr_id": "1593442317389",
    "lang": "en",
    "title": {
        "en": "Security Awareness Online Training Platform Update",
        "fr": "Mise \u00e0 niveau de la plateforme utilis\u00e9e pour la formation en ligne sur la sensibilisation \u00e0 la s\u00e9curit\u00e9 "
    },
    "modified": "2020-07-02 00:00:00.0",
    "issued": "2020-07-02 00:00:00.0",
    "type_name": "intra-intra/news-nouv",
    "node_id": "1279030006975",
    "layout_name": null,
    "dc_date_created": "2020-06-29",
    "breadcrumb_label": "",
    "meta": {
        "issued": {
            "en": "2020-07-02",
            "fr": "2020-07-02"
        },
        "modified": {
            "en": "2020-07-02",
            "fr": "2020-07-02"
        },
        "format": {
            "en": "gcformat",
            "fr": "gcformat"
        },
        "title": {
            "en": "Security Awareness Online Training Platform Update",
            "fr": "Mise \u00e0 niveau de la plateforme utilis\u00e9e pour la formation en ligne sur la sensibilisation \u00e0 la s\u00e9curit\u00e9 "
        },
        "subject": {
            "en": "communications",
            "fr": "communications"
        },
        "description": {
            "en": "Departmental Security Services recently updated the departmental security awareness online platform, Terranova.",
            "fr": "Les Services de s\u00e9curit\u00e9 minist\u00e9riels ont r\u00e9cemment mis \u00e0 niveau la plateforme de formation en ligne sur la sensibilisation \u00e0 la s\u00e9curit\u00e9, Terranova."
        },
        "language": {
            "en": "eng",
            "fr": "fra"
        },
        "audience": {
            "en": "gcaudience",
            "fr": "gcaudience"
        },
        "creator": {
            "en": "Agriculture and Agri-Food Canada",
            "fr": "Agriculture et Agroalimentaire Canada"
        },
        "spatial": {
            "en": "gcregions",
            "fr": "gcregions"
        },
        "service": {
            "en": "AAFC_AgriSource",
            "fr": "AAC_AgriSource"
        },
        "accessRights": {
            "en": "3",
            "fr": "3"
        }
    },
    "body": {
        "en": "<br>\n<br>\n<p>Departmental Security Services recently updated the departmental security awareness online platform, Terranova. Terranova is used to access mandatory online security training. The updated platform is more user\u2011friendly and accessible.</p>\n<p>To register for the course, employees can email Security Training with their first name, last name, email address and official language of preference for the training.</p>\n<p>Employees who previously had an account can access the new <a href=\"https://secure.terranovasite.com/portal/Login/e/AAFC\">platform</a> using their e-mail address and previous Terranova password or they can simply request a password reset.</p>\n<p>All training records that were in the previous system remain as is. Employees do not have to re\u2011do any courses they\u2019ve already completed.</p>\n<p>If you have any questions regarding the upgrade, contact the Security Awareness Program within Departmental Security Services.</p>\n\n\t\t",
        "fr": "<br>\n<br>\n<p>Les Services de s\u00e9curit\u00e9 minist\u00e9riels ont r\u00e9cemment mis \u00e0 niveau la plateforme de formation en ligne sur la sensibilisation \u00e0 la s\u00e9curit\u00e9, Terranova. Terranova est utilis\u00e9e pour l\u2019acc\u00e8s \u00e0 la formation obligatoire en ligne sur la s\u00e9curit\u00e9. La nouvelle plateforme est plus conviviale et plus accessible.</p>\n<p>Pour s\u2019inscrire au cours, les employ\u00e9s peuvent envoyer un courriel \u00e0 Formation sur la s\u00e9curit\u00e9 en indiquant leur pr\u00e9nom, leur nom de famille, leur adresse de courriel et la langue de leur choix pour la formation.</p>\n<p>Les employ\u00e9s qui avaient d\u00e9j\u00e0 un compte peuvent acc\u00e9der \u00e0 la nouvelle <a href=\"https://secure.terranovasite.com/portal/Login/e/AAFC\">plateforme</a> en utilisant leur adresse de courriel et leur ancien mot de passe Terranova ou peuvent simplement demander la r\u00e9initialisation de leur mot de passe.</p>\n<p>Tous les dossiers de formation qui \u00e9taient dans le syst\u00e8me pr\u00e9c\u00e9dent sont conserv\u00e9s tels quels. Les employ\u00e9s n\u2019ont pas besoin de refaire les cours qu\u2019ils ont d\u00e9j\u00e0 suivis.</p>\n<p>Si vous avez des questions sur cette mise \u00e0 niveau, veuillez communiquer avec le Programme de sensibilisation \u00e0 la s\u00e9curit\u00e9 des Services de s\u00e9curit\u00e9 minist\u00e9riels.</p>\n\t\t"
    },
    "breadcrumb": {
        "en": "Security Awareness Online Training Platform Update",
        "fr": "Mise \u00e0 niveau de la plateforme utilis\u00e9e pour la formation en ligne sur la sensibilisation \u00e0 la s\u00e9curit\u00e9"
    },
    "news": {
        "date_posted": {
            "en": "2020-07-02",
            "fr": "2020-07-02"
        },
        "to": {
            "en": "All staff",
            "fr": "Tous les employ\u00e9s"
        },
        "by": {
            "en": "Departmental Security Services, Corporate Management Branch",
            "fr": "Services de s\u00e9curit\u00e9 minist\u00e9riels, Direction g\u00e9n\u00e9rale de la gestion int\u00e9gr\u00e9e"
        }
    }
}