{
    "dcr_id": "1594749530629",
    "lang": "en",
    "title": {
        "en": "Message from AAFC Mental Wellness Co-Champions",
        "fr": " Message de la part des co-championnes du mieux-\u00eatre mental d\u2019AAC"
    },
    "modified": "2020-07-15 00:00:00.0",
    "issued": "2020-07-15 00:00:00.0",
    "type_name": "intra-intra/news-nouv",
    "node_id": "1279030006975",
    "layout_name": null,
    "dc_date_created": "2020-07-14",
    "breadcrumb_label": "",
    "meta": {
        "issued": {
            "en": "2020-07-15",
            "fr": "2020-07-15"
        },
        "modified": {
            "en": "2020-07-15",
            "fr": "2020-07-15"
        },
        "format": {
            "en": "gcformat",
            "fr": "gcformat"
        },
        "title": {
            "en": "Message from AAFC Mental Wellness Co-Champions",
            "fr": " Message de la part des co-championnes du mieux-\u00eatre mental d\u2019AAC"
        },
        "subject": {
            "en": "communications",
            "fr": "communications"
        },
        "description": {
            "en": "We hope that you are all enjoying the summer months from coast to coast and that you are taking some time for yourselves and your families.",
            "fr": "Nous esp\u00e9rons que vous profitez des mois d'\u00e9t\u00e9, d'un oc\u00e9an \u00e0 l'autre, et que vous prenez du temps pour vous et vos familles."
        },
        "language": {
            "en": "eng",
            "fr": "fra"
        },
        "audience": {
            "en": "gcaudience",
            "fr": "gcaudience"
        },
        "creator": {
            "en": "Agriculture and Agri-Food Canada",
            "fr": "Agriculture et Agroalimentaire Canada"
        },
        "spatial": {
            "en": "gcregions",
            "fr": "gcregions"
        },
        "service": {
            "en": "AAFC_AgriSource",
            "fr": "AAC_AgriSource"
        },
        "accessRights": {
            "en": "3",
            "fr": "3"
        }
    },
    "body": {
        "en": "<br>\n<br>\n<p>We hope that you are all enjoying the summer months from coast to coast and that you are taking some time for yourselves and your families.</p>\n<p>We would like to take this opportunity to provide updates and resources regarding two events on mental health that were hosted by the <a href=\"https://www.canada.ca/gcmentalhealth\">Centre of Expertise (CoE) on Mental Health in the Workplace</a> and the Canada School of Public Service at the end of June.</p>\n<h2><strong>Mental health and the easing of COVID-19 restrictions in the workplace (June 25)</strong></h2>\n<p>June 25, the CoE and the CSPS hosted a <a href=\"https://www.csps-efpc.gc.ca/events/COVID-19-mental-restrictions/index-eng.aspx\">Power Chat on Mental Health and the Easing of COVID-19 Restrictions in the Workplace,</a> which attracted more than 3000 participants and 100 questions. If you missed the event or would like a refresher, recordings have been made available for a limited time on <a href=\"https://www.youtube.com/channel/UC7v7PBgbsatDzXMim2yF5rQ\">YouTube</a>. Further, the English recording can be found <a href=\"http://collaboratevideo.net/MaxPlayer98/default.aspx?cid=cshost&amp;pid=V1N&amp;vid=2020-06-25-EN&amp;ln=en&amp;bw=720p&amp;count=1&amp;webcastID=CS-2020-06-25-ENr\">here</a> while the French recording can be found <a href=\"http://collaboratevideo.net/MaxPlayer98/default.aspx?cid=cshost&amp;pid=V1N&amp;vid=2020-06-25-FR&amp;ln=fr&amp;bw=720p&amp;count=1&amp;webcastID=CS-2020-06-25-FRr\">here</a>. Please keep in mind that the recordings are only available in the language of delivery.</p>\n<p>Links to follow-up resources can be found on the CoE\u2019s <a href=\"https://gcconnex.gc.ca/discussion/view/66640282/recording-link-and-additional-resources-power-chat-on-mental-health-and-the-easing-of-covid-19-restrictions-in-the-workplace-june-25-2020-enregistrement-et-ressources-additionnelles-discussion-directe-sur-la-sante-mentale-et-lassouplissement-des-restrictions-liees-a-la-covid-19-sur-le-lieu-de-travail?language=en\">main GCConnex page</a>.</p>\n<h2><strong>Leading with e<strong>mpathy through the easing of COVID-19 restrictions (June 29)</strong></strong></h2>\n<p>COVID-19 pandemic and the restrictions put in place to limit the spread of the virus have affected all public servants, and the easing of these restrictions will be no different. On Monday, June 29, the CSPS hosted, with the collaboration of the CoE and the National Managers\u2019 Community, a session on <a href=\"https://www.csps-efpc.gc.ca/events/leading-empathy/index-eng.aspx\">Leading with Empathy Through the Easing of COVID-19 Restrictions</a>. event attracted nearly 1500 participants. <a href=\"https://gcconnex.gc.ca/file/view/66643988/leading-with-empathy-through-the-easing-of-covid-19-restrictions?language=en\"> presentation from the event</a> provides conversation starters on the current mental health consequences of the pandemic and tips for managers and executives on how to lead their teams with empathy and protect the psychological health of their employees during the easing of COVID-19 restrictions. recordings have been made available for a limited time on <a href=\"https://www.youtube.com/channel/UC7v7PBgbsatDzXMim2yF5rQ\">YouTube</a>. Further, the English recording can be found <a href=\"https://www.youtube.com/watch?v=SEYbMf08HAE\">here</a> while the French recording can be found <a href=\"https://www.youtube.com/watch?v=S3_c_LWpJ5c&amp;feature=youtu.be\">here.</a> Again, please keep in mind that the recordings are only available in the language of delivery.</p>\n<p>Don\u2019t forget that mental health tools, tips, and resources are available through AAFC\u2019s Wellness Team and on <a href=\"http://multimedia.agr.gc.ca/COVID-19/mental_health-eng.html\">AAFC\u2019s COVID-19 website</a>. Employees can also contact the Ombudsperson\u2019s office. Finally, you can learn how you can better protect your mental health through Health Canada\u2019s <a href=\"https://ca.portal.gs/?lang=en-ca\">Wellness Together Canada</a> portal.</p>\n<p>Be well,</p>\n<p>\u00a0</p>\n<p><strong>Mary Dila and Jane McDonald<br></strong>AAFC Mental Wellness Co-Champions</p>\n\n\t\t",
        "fr": "<br>\n<br>\n<p>Nous esp\u00e9rons que vous profitez des mois d\u2019\u00e9t\u00e9, d\u2019un oc\u00e9an \u00e0 l\u2019autre, et que vous prenez du temps pour vous et vos familles.</p>\n<p>Nous voulons prendre un moment pour vous fournir des mises \u00e0 jour et des ressources concernant deux \u00e9v\u00e9nements sur la sant\u00e9 mentale qui ont \u00e9t\u00e9 organis\u00e9s par le <a href=\"https://www.canada.ca/fr/gouvernement/fonctionpublique/mieux-etre-inclusion-diversite-fonction-publique/sante-mieux-etre-fonctionnaires/sante-mentale-travail.html\">Centre d'expertise pour la sant\u00e9 mentale en milieu de travail</a> et l'\u00c9cole de la fonction publique du Canada \u00e0 la fin du mois de juin.</p>\n<h2><strong>La sant\u00e9 mentale et l'assouplissement des restrictions li\u00e9es \u00e0 la COVID-19 sur le lieu de travail (25 juin)</strong></h2>\n<p>Le 25 juin, le Centre d\u2019expertise et l\u2019EFPC ont organis\u00e9 une <a href=\"https://www.csps-efpc.gc.ca/events/COVID-19-mental-restrictions/index-fra.aspx\">discussion directe sur la sant\u00e9 mentale et l'assouplissement des restrictions li\u00e9es \u00e0 la COVID-19 sur le lieu de travail</a>, qui a attir\u00e9 plus de 3 000 participants et a suscit\u00e9 100 questions. Si vous avez manqu\u00e9 cet \u00e9v\u00e9nement ou que vous souhaitez vous rafra\u00eechir la m\u00e9moire, les enregistrements de cette discussion sont disponibles sur <a href=\"https://www.youtube.com/channel/UC7v7PBgbsatDzXMim2yF5rQ\">YouTube</a> pour une dur\u00e9e limit\u00e9e.\u00a0Vous pouvez \u00e9galement visionner les enregistrements en <span style='line-height: 107%; font-family: \"Calibri\",sans-serif; font-size: 11pt; mso-fareast-font-family: Calibri; mso-ansi-language: EN-US; mso-fareast-language: EN-US; mso-bidi-language: AR-SA; mso-ascii-theme-font: minor-latin; mso-fareast-theme-font: minor-latin; mso-hansi-theme-font: minor-latin; mso-bidi-font-family: \"Times New Roman\"; mso-bidi-theme-font: minor-bidi;'><a href=\"http://collaboratevideo.net/MaxPlayer98/default.aspx?cid=cshost&amp;pid=V1N&amp;vid=2020-06-25-FR&amp;ln=fr&amp;bw=720p&amp;count=1&amp;webcastID=CS-2020-06-25-FRr\">fran\u00e7ais</a></span> et en <span style='line-height: 107%; font-family: \"Calibri\",sans-serif; font-size: 11pt; mso-fareast-font-family: Calibri; mso-ansi-language: EN-US; mso-fareast-language: EN-US; mso-bidi-language: AR-SA; mso-ascii-theme-font: minor-latin; mso-fareast-theme-font: minor-latin; mso-hansi-theme-font: minor-latin; mso-bidi-font-family: \"Times New Roman\"; mso-bidi-theme-font: minor-bidi;'><a href=\"http://collaboratevideo.net/MaxPlayer98/default.aspx?cid=cshost&amp;pid=V1N&amp;vid=2020-06-25-EN&amp;ln=en&amp;bw=720p&amp;count=1&amp;webcastID=CS-2020-06-25-ENr\">anglais</a></span> sur le site Web de l\u2019EFPC.  Veuillez garder \u00e0 l'esprit que les enregistrements ne sont disponibles que dans la langue de diffusion.</p>\n<p>Les liens vers les ressources de suivi se trouvent sur la <a href=\"https://gcconnex.gc.ca/discussion/view/66640282/recording-link-and-additional-resources-power-chat-on-mental-health-and-the-easing-of-covid-19-restrictions-in-the-workplace-june-25-2020-enregistrement-et-ressources-additionnelles-discussion-directe-sur-la-sante-mentale-et-lassouplissement-des-restrictions-liees-a-la-covid-19-sur-le-lieu-de-travail?language=fr\">page principale GCConnex</a> du Centre d\u2019expertise.</p>\n<h2><strong>Diriger avec empathie pendant l'assouplissement des restrictions li\u00e9es \u00e0 la COVID-19 (29 juin)</strong></h2>\n<p>La pand\u00e9mie COVID-19 et les restrictions mises en place pour limiter la propagation du virus ont touch\u00e9 tous les fonctionnaires, et l'assouplissement de ces restrictions ne sera pas diff\u00e9rent. Le lundi 29 juin, l'\u00c9cole de la fonction publique du Canada a organis\u00e9, en collaboration avec le Centre et de la Communaut\u00e9 nationale des gestionnaires, une s\u00e9ance sur le th\u00e8me <a href=\"https://www.csps-efpc.gc.ca/events/leading-empathy/index-fra.aspx\">Diriger avec empathie pendant l'assouplissement des restrictions li\u00e9es a la COVID-19</a>. L'\u00e9v\u00e9nement a attir\u00e9 pr\u00e8s de 1500 participants. <a href=\"https://gcconnex.gc.ca/file/view/66646049/diriger-avec-empathie-pendant-lassouplissement-des-restrictions-liees-a-la-covid-19?language=fr\">La pr\u00e9sentation de l'\u00e9v\u00e9nement</a> fournit des \u00e9l\u00e9ments de conversation sur les cons\u00e9quences actuelles de la pand\u00e9mie sur la sant\u00e9 mentale et des conseils pour les gestionnaires et les cadres sur la fa\u00e7on de diriger leurs \u00e9quipes avec empathie et de prot\u00e9ger la sant\u00e9 psychologique de leurs employ\u00e9s pendant l'assouplissement des restrictions COVID-19. Les enregistrements sont mis \u00e0 disposition sur <a href=\"https://www.youtube.com/channel/UC7v7PBgbsatDzXMim2yF5rQ\">YouTube</a> pour une dur\u00e9e limit\u00e9e.\u00a0Vous pouvez \u00e9galement visionner les enregistrements en <span style='line-height: 107%; font-family: \"Calibri\",sans-serif; font-size: 11pt; mso-fareast-font-family: Calibri; mso-ansi-language: EN-US; mso-fareast-language: EN-US; mso-bidi-language: AR-SA; mso-ascii-theme-font: minor-latin; mso-fareast-theme-font: minor-latin; mso-hansi-theme-font: minor-latin; mso-bidi-font-family: \"Times New Roman\"; mso-bidi-theme-font: minor-bidi;'><a href=\"https://www.youtube.com/watch?v=S3_c_LWpJ5c&amp;feature=youtu.be\">fran\u00e7ais</a></span> et en <span style='line-height: 107%; font-family: \"Calibri\",sans-serif; font-size: 11pt; mso-fareast-font-family: Calibri; mso-ansi-language: EN-US; mso-fareast-language: EN-US; mso-bidi-language: AR-SA; mso-ascii-theme-font: minor-latin; mso-fareast-theme-font: minor-latin; mso-hansi-theme-font: minor-latin; mso-bidi-font-family: \"Times New Roman\"; mso-bidi-theme-font: minor-bidi;'><a href=\"https://www.youtube.com/watch?v=SEYbMf08HAE\">anglais</a></span> sur le site Web de l\u2019EFPC.  Encore une fois, veuillez garder \u00e0 l'esprit que les enregistrements ne sont disponibles que dans la langue de diffusion.</p>\n<p>N\u2019oubliez pas qu\u2019il y a plusieurs outils, conseils et ressources sur la sant\u00e9 mentale disponibles aupr\u00e8s de l\u2019\u00e9quipe du Mieux-\u00eatre en milieu de travail et sur la <a href=\"http://multimedia.agr.gc.ca/COVID-19/mental_health-fra.html\">page COVID-19 d\u2019AAC</a>. Les employ\u00e9s peuvent aussi contacter le Bureau de l\u2019ombudsman. Finalement, vous pouvez obtenir des conseils pour mieux prot\u00e9ger votre sant\u00e9 mentale en consultant le portail <a href=\"https://ca.portal.gs/?lang=fr-ca\">Espace mieux \u00eatre Canada</a> de Sant\u00e9 Canada.</p>\n<p>Portez-vous bien,</p>\n<p>\u00a0</p>\n<p><strong>Mary Dila et Jane McDonald<br></strong>Co-championnes du mieux-\u00eatre mental d\u2019AAC</p>\n\t\t"
    },
    "breadcrumb": {
        "en": "Message from AAFC Mental Wellness Co-Champions",
        "fr": "Message de la part des co-championnes du mieux-\u00eatre mental d'AAC"
    },
    "news": {
        "date_posted": {
            "en": "2020-07-14",
            "fr": "2020-07-16"
        },
        "to": {
            "en": "All staff",
            "fr": "Tous les employ\u00e9s"
        },
        "by": {
            "en": "Mary Dila and Jane McDonald, AAFC Mental Wellness Co-Champions",
            "fr": "Mary Dila et Jane McDonald, Co-championnes du mieux-\u00eatre mental d'AAC"
        }
    }
}