{
    "dcr_id": "1594401762372",
    "lang": "en",
    "title": {
        "en": "Strategic Advisor",
        "fr": "Conseiller strat\u00e9gique"
    },
    "modified": "2020-07-13 00:00:00.0",
    "issued": "2020-07-13 00:00:00.0",
    "type_name": "intra-intra/empl-empl",
    "node_id": "1279029955397",
    "layout_name": null,
    "dc_date_created": "2020-07-10",
    "breadcrumb_label": "",
    "meta": {
        "issued": {
            "en": "2020-07-13",
            "fr": "2020-07-13"
        },
        "modified": {
            "en": "2020-07-13",
            "fr": "2020-07-13"
        },
        "format": {
            "en": "gcformat",
            "fr": "gcformat"
        },
        "title": {
            "en": "Strategic Advisor",
            "fr": "Conseiller strat\u00e9gique"
        },
        "subject": {
            "en": "staffing",
            "fr": "dotation en personnel"
        },
        "language": {
            "en": "eng",
            "fr": "fra"
        },
        "audience": {
            "en": "gcaudience",
            "fr": "gcaudience"
        },
        "type": {
            "en": "notice",
            "fr": "avis"
        },
        "creator": {
            "en": "Agriculture and Agri-Food Canada",
            "fr": "Agriculture et Agroalimentaire Canada"
        },
        "spatial": {
            "en": "gcregions",
            "fr": "gcregions"
        },
        "service": {
            "en": "AAFC_AgriSource",
            "fr": "AAC_AgriSource"
        },
        "accessRights": {
            "en": "3",
            "fr": "3"
        }
    },
    "body": {
        "en": "\n<p>\u00a0</p>\n<p>Employees of Agriculture and Agri-Food Canada at the EC-04/EC-05 level in the EC Development Program are invited to express their interest in an assignment opportunity in the Assistant Deputy Minister\u2019s Office (ADMO) in Corporate Management Branch. The position is for a 12 month assignment.</p>\n<p><br>The position will allow you to work closely with the Senior Advisor to gain:</p>\n<ul>\n<li>An understanding of departmental processes, including on the reintegration process which is a significant corporate initiative;</li>\n<li>A broader view of key issues and senior decision-making processes;</li>\n<li>A unique perspective which further hones and develops all the core EC competencies.</li>\n</ul>\n<p><br>You will work closely with CMB\u2019s Senior Advisor to:</p>\n<ul>\n<li>Provide support to the Assistant Deputy Minister of CMB, by coordinating and facilitating Branch input and information, also ensuring the ADM is prepared for meetings;</li>\n<li>Assist in the management of projects crossing Directorate or Departmental functional lines;</li>\n<li>Debrief and advise the Assistant Deputy Minister of CMB on various files;</li>\n<li>Assist on sensitive and evolving policy, program or operational matters; and</li>\n<li>Occasionally accompany the Senior Advisor and/or the Assistant Deputy Minister in meetings, including departmental governance committees.</li>\n</ul>\n<p><br>Candidates should have strong analytical, communication and writing skills, as well as good judgement and initiative. Candidates should be prepared to operate in a fast paced, high volume environment.</p>\n<p><br>Candidates should be willing to work the hours of 8:30a.m. \u2013 4:30p.m., and be available to work overtime with short notice.</p>\n<p><br>Please note that this advertisement is intended for an at level opportunity.</p>\n<p><br>Interested? Send your resume and an email (maximum 250 words) explaining why you are interested in this opportunity to Rachelle Tanguay (Rachelle.tanguay@canada.ca) before the deadline.</p>\n<p>\u00a0</p>\n",
        "fr": "\n<p>\u00a0</p>\n<p>On invite les employ\u00e9s d\u2019Agriculture et Agroalimentaire Canada au niveau EC-04/EC-05 qui participent au Programme de perfectionnement des EC \u00e0 faire part de leur int\u00e9r\u00eat en ce qui concerne une occasion d\u2019affectation au sein du bureau du sous\u2011ministre adjoint (BSMA) dans la Direction g\u00e9n\u00e9rale de la gestion int\u00e9gr\u00e9e. Le poste sera pourvu par affectation de 12 mois.</p>\n<p><br>Le poste vous permettra de collaborer \u00e9troitement avec la conseill\u00e8re principale en politiques afin :</p>\n<ul>\n<li>de comprendre les processus du Minist\u00e8re, y inclus l\u2019initiative organisationnelle importante de r\u00e9int\u00e9gration;</li>\n<li>d\u2019avoir une meilleure vue d\u2019ensemble des probl\u00e8mes cl\u00e9s et des processus d\u00e9cisionnels de la haute gestion;</li>\n<li>d\u2019obtenir un point de vue unique qui affine et renforce toutes les comp\u00e9tences de base des employ\u00e9s du groupe EC.</li>\n</ul>\n<p><br>Vous travaillerez en \u00e9troite collaboration avec la conseill\u00e8re principale de la DGGI aux fins suivantes :</p>\n<ul>\n<li>offrir un soutien au sous\u2011ministre adjoint de la DGGI en coordonnant et en facilitant les contributions et information de la Direction g\u00e9n\u00e9rale, ainsi que d\u2019assurer que la SMA est pr\u00e9par\u00e9 pour les r\u00e9unions ;</li>\n<li>aider \u00e0 g\u00e9rer des projets concernant les domaines fonctionnels de plusieurs directions ou minist\u00e8res;</li>\n<li>Fournir des comptes rendus et des conseils \u00e0 la Sous ministre adjoint de la DGGI sur plusieurs dossiers;</li>\n<li>aider \u00e0 r\u00e9gler de nombreuses questions d\u00e9licates et en \u00e9volution concernant les politiques, les programmes ou les op\u00e9rations;</li>\n<li>accompagner \u00e0 l\u2019occasion la Conseill\u00e8re principale ou la Sous\u2011ministre adjoint aux r\u00e9unions, y inclus les comit\u00e9s de gouvernances d\u2019AAC.</li>\n</ul>\n<p><br>Les candidats doivent poss\u00e9der de fortes comp\u00e9tences en analyse, en communication et en r\u00e9daction, en plus de faire preuve de jugement et d\u2019esprit d\u2019initiative. Les candidats doivent \u00eatre pr\u00eats \u00e0 travailler dans un environnement \u00e0 haut d\u00e9bit et \u00e0 rythme rapide.</p>\n<p><br>Les candidats doivent \u00eatre pr\u00eats \u00e0 travailler de 8 h30 \u00e0 16 h30 et de faire des heures suppl\u00e9mentaires, avec un court pr\u00e9avis.</p>\n<p><br>Veuillez noter que ce processus donnera lieu \u00e0 une affectation au niveau d\u2019attache.</p>\n<p><br>Si cela vous int\u00e9resse, veuillez envoyer \u00e0 Rachelle Tanguay (Rachelle.Tanguay@canada.ca) votre <em>curriculum vit\u00e6</em> ainsi qu\u2019un courriel d\u2019un maximum de 250 mots dans lequel vous expliquez les raisons de votre int\u00e9r\u00eat avant la date limite.</p>\n<p>\u00a0</p>\n\n"
    },
    "breadcrumb": {
        "en": "Strategic Advisor",
        "fr": "Conseiller strat\u00e9gique"
    },
    "empl": {
        "type": {
            "en": "Assignment",
            "fr": "Affectation"
        },
        "classification": {
            "en": "EC-4, EC-5",
            "fr": "EC-4, EC-5"
        },
        "branch": {
            "en": "Corporate Management Branch",
            "fr": "Gestion int\u00e9gr\u00e9e"
        },
        "locations": {
            "en": "NCR",
            "fr": "RCN"
        },
        "date_closing": {
            "en": "2020-07-21",
            "fr": "2020-07-21"
        },
        "open_to": {
            "en": "AAFC employees in the ECDP at the EC-04 and EC-05 level",
            "fr": "Employ\u00e9s d'AAC qui participent au PPEC de niveau EC-04 et EC-05"
        },
        "name": {
            "en": "Rachelle Tanguay",
            "fr": "Rachelle Tanguay"
        },
        "email": {
            "en": "rachelle.tanguay@canada.ca",
            "fr": "rachelle.tanguay@canada.ca"
        }
    }
}