{
    "dcr_id": "1595356460156",
    "lang": "en",
    "title": {
        "en": "Reminder - Call for Nominations for The Canadian Council for Public-Private Partnerships\u2019 2020 National Awards for Innovation and Excellence \u2013 Deadline is September 15",
        "fr": "Rappel - Appel de candidatures pour les Prix nationaux de 2020 pour l\u2019innovation et l\u2019excellence d\u00e9cern\u00e9s par le Conseil canadien pour les Partenariats public-priv\u00e9 \u2013 Date limite est le 15 septembre"
    },
    "modified": "2020-08-19 00:00:00.0",
    "issued": "2020-07-23 00:00:00.0",
    "type_name": "intra-intra/news-nouv",
    "node_id": "1279030006975",
    "layout_name": null,
    "dc_date_created": "2020-07-21",
    "breadcrumb_label": "Reminder - Call for Nominations for The Canadian Council for Public-Private Partnerships 2020...",
    "meta": {
        "issued": {
            "en": "2020-07-23",
            "fr": "2020-07-23"
        },
        "modified": {
            "en": "2020-08-19",
            "fr": "2020-08-19"
        },
        "format": {
            "en": "gcformat",
            "fr": "gcformat"
        },
        "title": {
            "en": "Reminder - Call for Nominations for The Canadian Council for Public-Private Partnerships\u2019 2020 National Awards for Innovation and Excellence \u2013 Deadline is September 15",
            "fr": "Rappel - Appel de candidatures pour les Prix nationaux de 2020 pour l\u2019innovation et l\u2019excellence d\u00e9cern\u00e9s par le Conseil canadien pour les Partenariats public-priv\u00e9 \u2013 Date limite est le 15 septembre"
        },
        "subject": {
            "en": "communications",
            "fr": "communications"
        },
        "description": {
            "en": "Nominations are now being accepted for the Canadian Council for Public-Private Partnerships\u2019 (CCPPP) 2020 National Awards for Innovation and Excellence.",
            "fr": "Les mises en candidature des Prix nationaux de 2020 pour l'innovation et l'excellence d\u00e9cern\u00e9s par le Conseil canadien pour les Partenariats public-priv\u00e9 sont maintenant accept\u00e9es."
        },
        "language": {
            "en": "eng",
            "fr": "fra"
        },
        "audience": {
            "en": "gcaudience",
            "fr": "gcaudience"
        },
        "creator": {
            "en": "Agriculture and Agri-Food Canada",
            "fr": "Agriculture et Agroalimentaire Canada"
        },
        "spatial": {
            "en": "gcregions",
            "fr": "gcregions"
        },
        "service": {
            "en": "AAFC_AgriSource",
            "fr": "AAC_AgriSource"
        },
        "accessRights": {
            "en": "3",
            "fr": "3"
        }
    },
    "body": {
        "en": "<br>\n<br>\n<p>Nominations are now being accepted for the Canadian Council for Public-Private Partnerships\u2019 (CCPPP) 2020 National Awards for Innovation\u00a0and Excellence. Nominate your deserving AAFC colleagues!</p>\n<p>These awards honour governments and public institutions and their private sector partners who have demonstrated excellence and innovation in public-private partnerships.</p>\n<p>Three awards are presented annually to showcase Canadian excellence and innovation in project financing, service delivery, infrastructure investment and/or generation of economic benefit, that enhances the quality of public services and facilities.</p>\n<p>Awards may be announced in each of the following key areas:</p>\n<ul>\n<li>Project Development</li>\n<li>Project Financing</li>\n<li>Service Delivery</li>\n<li>Infrastructure</li>\n</ul>\n<p>For more information on the eligibility criteria for an individual or team award, please visit the <a href=\"http://pppcouncil.ca/web/Awards/web/Awards/About_the_CCPPP_National_Awards.aspx?hkey=ac365693-d514-4b12-af81-da3118707bab\">CCPPP website</a>. Please forward your application to Awards and Recognition at <a href=\"mailto:aafc.awards-reconnaissance.aac@canada.ca\">aafc.awards-reconnaissance.aac@canada.ca</a>. The deadline for submissions is <strong>September 15, 2020.</strong></p>\n\n\t\t",
        "fr": "<br>\n<br>\n<p>Les mises en candidature des Prix nationaux de 2020 pour l\u2019innovation et l\u2019excellence d\u00e9cern\u00e9s par le Conseil canadien pour les Partenariats public-priv\u00e9<strong> </strong>sont maintenant accept\u00e9es. Pr\u00e9sentez la candidature de vos coll\u00e8gues d\u2019AAC m\u00e9ritants!</p>\n<p>Ces prix reconnaissent les gouvernements et les institutions publiques et leurs partenaires du secteur priv\u00e9 qui ont fait preuve d\u2019excellence et d\u2019innovation dans la cadre d\u2019un partenariat public-priv\u00e9.</p>\n<p>Trois prix sont pr\u00e9sent\u00e9s chaque ann\u00e9e pour faire valoir l\u2019excellence et l\u2019innovation canadiennes dans le financement de projets, la prestation de services, l\u2019investissement dans l\u2019infrastructure et la production d\u2019un avantage \u00e9conomique, qui am\u00e9liore la qualit\u00e9 des services et des installations offerts au public.</p>\n<p>Des prix peuvent \u00eatre annonc\u00e9s dans chacun des secteurs cl\u00e9s suivants :</p>\n<ul>\n<li>D\u00e9veloppement de projets</li>\n<li>Financement de projets</li>\n<li>Prestation de services</li>\n<li>Infrastructure</li>\n</ul>\n<p>Pour obtenir plus de renseignements sur les crit\u00e8res d'admissibilit\u00e9 d'une personne ou d'une \u00e9quipe, visitez le <a href=\"https://pppcouncil.ca/web/Awards/web/Awards/About_the_CCPPP_National_Awards.aspx?hkey=ac365693-d514-4b12-af81-da3118707bab\">site Web du CCPPP</a>. Veuillez faire parvenir votre soumission \u00e0 l\u2019\u00c9quipe des prix et de la reconnaissance \u00e0 <a href=\"mailto:aafc.awards-reconnaissance.aac@canada.ca\">aafc.awards-reconnaissance.aac@canada.ca</a>. La date limite des mises en candidature est le <strong>15 septembre 2020.</strong></p>\n\t\t"
    },
    "breadcrumb": {
        "en": "Reminder - Call for Nominations for The Canadian Council for Public-Private Partnerships 2020...",
        "fr": "Rappel - Appel de candidatures pour les Prix nationaux de 2020 pour l'innovation et l'excellence..."
    },
    "news": {
        "date_posted": {
            "en": "2020-08-20",
            "fr": "2020-08-20"
        },
        "to": {
            "en": "All staff",
            "fr": "Tous les employ\u00e9s"
        },
        "by": {
            "en": "Human Resources, Corporate Management Branch",
            "fr": "Ressources humaines, Direction g\u00e9n\u00e9rale de la gestion int\u00e9gr\u00e9e"
        }
    }
}