{
    "dcr_id": "1595339253094",
    "lang": "en",
    "title": {
        "en": "Prepare for Summer Vacation and Avoid Post-Holiday IT Issues",
        "fr": "Partez en vacances tout en \u00e9vitant les probl\u00e8mes informatiques \u00e0 votre retour"
    },
    "modified": "2020-07-23 00:00:00.0",
    "issued": "2020-07-23 00:00:00.0",
    "type_name": "intra-intra/news-nouv",
    "node_id": "1279030006975",
    "layout_name": null,
    "dc_date_created": "2020-07-21",
    "breadcrumb_label": "",
    "meta": {
        "issued": {
            "en": "2020-07-23",
            "fr": "2020-07-23"
        },
        "modified": {
            "en": "2020-07-23",
            "fr": "2020-07-23"
        },
        "format": {
            "en": "gcformat",
            "fr": "gcformat"
        },
        "title": {
            "en": "Prepare for Summer Vacation and Avoid Post-Holiday IT Issues",
            "fr": "Partez en vacances tout en \u00e9vitant les probl\u00e8mes informatiques \u00e0 votre retour"
        },
        "subject": {
            "en": "communications",
            "fr": "communications"
        },
        "description": {
            "en": "Every year after summer holidays, we get a surge in tickets submitted for common IT issues.",
            "fr": "Chaque ann\u00e9e, apr\u00e8s les vacances d'\u00e9t\u00e9, nous enregistrons une brusque augmentation du nombre de billets ouverts pour des probl\u00e8mes informatiques courants."
        },
        "language": {
            "en": "eng",
            "fr": "fra"
        },
        "audience": {
            "en": "gcaudience",
            "fr": "gcaudience"
        },
        "creator": {
            "en": "Agriculture and Agri-Food Canada",
            "fr": "Agriculture et Agroalimentaire Canada"
        },
        "spatial": {
            "en": "gcregions",
            "fr": "gcregions"
        },
        "service": {
            "en": "AAFC_AgriSource",
            "fr": "AAC_AgriSource"
        },
        "accessRights": {
            "en": "3",
            "fr": "3"
        }
    },
    "body": {
        "en": "<br>\n<br>\n<p>Every year after summer holidays, we get a surge in tickets submitted for common IT issues. We\u2019ve all been there, forgetting our computer password after some time away, or locking ourselves out of our email. To help you tackle some of these common issues, here are a few tips on handy self-serve tools and things you can do to ensure your request is addressed faster.<br>\n<br>\n1. Forgot your computer password or locked your computer network account? \u00a0If you\u2019re working in the office, ask a colleague to reset/unlock it through our <a href=\"https://esas3.agr.gc.ca/ESAS-SEAS/private-prive/services.page\">Network Password Reset</a> tool. If you\u2019re working from home, call IT Centre TI as the tool doesn\u2019t work remotely.</p>\n<p>2. Forgot your email password? When you\u2019re connected to the AAFC network, log in to the email <a href=\"https://youremail-votrecourriel.canada.ca/my.policy\">Service Delivery Portal</a> with your email address, click on \u201cforgot password\u201d and follow the prompts to reset the password.</p>\n<p>3. Before submitting any ticket, try troubleshooting by:</p>\n<ul>\n<li>Restarting your laptop or clearing your browsing history (open the browser window, press Ctrl+Shift+Delete on your keyboard, and follow the prompts to clear the history)</li>\n<li>Reading <a href=\"http://assystweb.agr.gc.ca:8080/assystnet/#faqs\">My IT Centre TI FAQs</a></li>\n</ul>\n<p>4. Having trouble with the Government of Canada Secure Remote Access (GCSRA) service? If you\u2019re unable to log in, call IT Centre TI. If you\u2019re logged in but experiencing issues, submit a <a href=\"https://assystweb.agr.gc.ca/assystnet/#serviceOfferings/1578\">GCSRA ticket</a> using the My IT Centre TI portal. Make sure to note any error messages you see. User guides are also available in the Start menu of your AAFC workstation (in the Canada folder). You can access them even when you\u2019re not connected to the network.</p>\n<p>5. Experiencing issues with your mobile device? Open a <a href=\"https://assystweb.agr.gc.ca/assystnet/#serviceOfferings/1532\">mobile device ticket</a> using the My IT Centre TI portal. Remember to download the latest phone updates to ensure that your device is secure and continues working properly. Always accept any phone update prompts and\u2014because some applications don\u2019t prompt automatically\u2014go to the Play Store to update them on a monthly basis (Play Store &gt; My apps and games &gt; Update all).</p>\n<p>If you have any questions, please contact IT Centre TI.</p>\n<p>\u00a0</p>\n<p><strong>IT Centre TI</strong><br>\n1-855-545-4411<br>\n<a href=\"http://myitcentreti-monitcentreti/\">My IT Centre TI</a></p>\n<p><img src=\"https://intranet.agr.gc.ca/resources/prod/news/images/ITCentreTI2.png\" class=\"center-block\"></p>\n\n\t\t",
        "fr": "<br>\n<br>\n<p>Chaque ann\u00e9e, apr\u00e8s les vacances d\u2019\u00e9t\u00e9, nous enregistrons une brusque augmentation du nombre de billets ouverts pour des probl\u00e8mes informatiques courants. Il nous est tous arriv\u00e9 d\u2019oublier le mot de passe de notre ordinateur apr\u00e8s une absence ou de verrouiller notre compte de courriel. Afin de r\u00e9gler ces probl\u00e8mes courants, voici des outils libre-service utiles et des conseils sur ce que vous pouvez faire pour acc\u00e9l\u00e9rer le traitement de votre demande.<br>\n<br>\n1. Vous avez oubli\u00e9 le mot de passe de votre ordinateur ou verrouill\u00e9 votre compte r\u00e9seau? Si vous travaillez au bureau, demandez \u00e0 un coll\u00e8gue de r\u00e9initialiser/d\u00e9verrouiller le mot de passe au moyen de l\u2019outil <a href=\"https://esas3.agr.gc.ca/ESAS-SEAS/private-prive/services.page\">R\u00e9initialisation de mot de passe r\u00e9seau</a>. Si vous travaillez \u00e0 la maison, appelez le IT Centre TI, car cet outil ne fonctionne pas \u00e0 distance.</p>\n<p>2. Vous avez oubli\u00e9 le mot de passe de votre compte courriel? Une fois branch\u00e9 au r\u00e9seau d\u2019AAC, faites une ouverture de session dans le <a href=\"https://youremail-votrecourriel.canada.ca/my.policy\">portail de services</a> avec votre adresse de courriel, puis cliquez sur \u00ab Mot de passe oubli\u00e9 \u00bb et suivez les instructions pour r\u00e9initialiser votre mot de passe.</p>\n<p>3. Avant d\u2019ouvrir un billet, essayez les solutions suivantes :</p>\n<ul>\n<li>Red\u00e9marrez votre ordinateur portable ou nettoyez votre historique de navigation (ouvrez une fen\u00eatre du navigateur, appuyez sur Ctrl+Maj+Suppr, puis suivez les instructions pour effacer votre historique de navigation).</li>\n<li>Consultez la <a href=\"http://assystweb.agr.gc.ca:8080/assystnet/#faqs\">FAQ de Mon IT Centre TI</a>.</li>\n</ul>\n<p>4. Vous avez de la difficult\u00e9 \u00e0 utiliser le service d\u2019acc\u00e8s \u00e0 distance prot\u00e9g\u00e9 du gouvernement du Canada (ADPGC)? Si vous n\u2019\u00eates pas capable d\u2019ouvrir une session, appelez le IT Centre TI. Si vous \u00eates connect\u00e9 et que vous \u00e9prouvez des difficult\u00e9s, veuillez ouvrir un \u00a0<a href=\"https://assystweb.agr.gc.ca/assystnet/#serviceOfferings/1578\">billet ADPGC</a> au moyen du portail Mon IT Centre TI. Assurez-vous de prendre en note tout message d\u2019erreur. Des guides d\u2019utilisation sont \u00e9galement disponibles dans le menu \u00ab d\u00e9marrer \u00bb de votre poste de travail d\u2019AAC (dans le dossier Canada). Vous pouvez les consulter m\u00eame si vous n\u2019\u00eates pas branch\u00e9 au r\u00e9seau.</p>\n<p>5. Votre appareil mobile ne fonctionne pas bien? Ouvrez un <a href=\"https://assystweb.agr.gc.ca/assystnet/#serviceOfferings/1532\">billet pour appareil mobile</a> au moyen du portail Mon IT Centre TI. N\u2019oubliez pas de t\u00e9l\u00e9charger les plus r\u00e9centes mises \u00e0 jour du t\u00e9l\u00e9phone pour que celui-ci soit s\u00e9curis\u00e9 et continue de fonctionner correctement. Acceptez toujours les invites de mise \u00e0 jour du t\u00e9l\u00e9phone et, comme certaines applications n\u2019envoient pas d\u2019invites automatiquement, allez dans le Play Store pour mettre celles-ci \u00e0 jour chaque mois (Play Store &gt; Mes jeux et applications &gt; Tout mettre \u00e0 jour).</p>\n<p>Si vous avez des questions, veuillez communiquer avec le IT Centre TI.</p>\n<p>\u00a0</p>\n<p><strong>IT Centre TI</strong><br>\n1-855-545-4411<br>\n<a href=\"http://myitcentreti-monitcentreti/\">Mon IT Centre TI</a></p>\n<p><img src=\"https://intranet.agr.gc.ca/resources/prod/news/images/ITCentreTI2.png\" class=\"center-block\"></p>\n\t\t"
    },
    "breadcrumb": {
        "en": "Prepare for Summer Vacation and Avoid Post-Holiday IT Issues",
        "fr": "Partez en vacances tout en \u00e9vitant les probl\u00e8mes informatiques \u00e0 votre retour"
    },
    "news": {
        "date_posted": {
            "en": "2020-07-23",
            "fr": "2020-07-23"
        },
        "to": {
            "en": "All staff",
            "fr": "Tous les employ\u00e9s"
        },
        "by": {
            "en": "IT Centre TI",
            "fr": "IT Centre TI"
        }
    }
}