{
    "dcr_id": "1595340292738",
    "lang": "en",
    "title": {
        "en": "Staffing Update",
        "fr": "Le point sur la dotation"
    },
    "modified": "2020-07-21 00:00:00.0",
    "issued": "2020-07-21 00:00:00.0",
    "type_name": "intra-intra/news-nouv",
    "node_id": "1279030006975",
    "layout_name": null,
    "dc_date_created": "2020-07-21",
    "breadcrumb_label": "",
    "meta": {
        "issued": {
            "en": "2020-07-21",
            "fr": "2020-07-21"
        },
        "modified": {
            "en": "2020-07-21",
            "fr": "2020-07-24"
        },
        "format": {
            "en": "gcformat",
            "fr": "gcformat"
        },
        "title": {
            "en": "Staffing Update",
            "fr": "Le point sur la dotation"
        },
        "subject": {
            "en": "communications",
            "fr": "communications"
        },
        "description": {
            "en": "We would like to announce the appointment of Katherine MacDonald as the new Corporate Secretary in the Deputy Minister's Office, effective August 17.",
            "fr": "Nous sommes heureux d'annoncer la nomination de Katherine MacDonald dans le r\u00f4le de secr\u00e9taire g\u00e9n\u00e9rale dans le bureau du sous-ministre en date du 17 ao\u00fbt prochain."
        },
        "language": {
            "en": "eng",
            "fr": "fra"
        },
        "audience": {
            "en": "gcaudience",
            "fr": "gcaudience"
        },
        "creator": {
            "en": "Agriculture and Agri-Food Canada",
            "fr": "Agriculture et Agroalimentaire Canada"
        },
        "spatial": {
            "en": "gcregions",
            "fr": "gcregions"
        },
        "service": {
            "en": "AAFC_AgriSource",
            "fr": "AAC_AgriSource"
        },
        "accessRights": {
            "en": "3",
            "fr": "3"
        }
    },
    "body": {
        "en": "<br>\n<br>\n<p>We would like to announce the appointment of Katherine MacDonald as the new Corporate Secretary in the Deputy Minister\u2019s Office, effective August 17.</p>\n<p>Katherine has worked at AAFC since 2005 in various leadership roles in Public Affairs, Strategic Policy and the Market and Industry Services Branches. Her wide ranging experiences have given her a deep understanding of the department and the sector. Most recently she has been acting as Director General, Regional Operations.</p>\n<p>We would also like to thank Donald Boucher for his support as Corporate Secretary since April 2019. In his role, Donald established strong collaborations across the department and played a significant role in the management of key files. As of August 17, Donald will be taking on the role of Executive Director of the Crops and Horticulture Division in MISB.</p>\n<p>Please join us in wishing all the best to Katherine and Donald in their new roles.</p>\n<p>\u00a0</p>\n<p><strong>Chris Forbes<br></strong>Deputy Minister</p>\n<p><strong>Annette Gibbons<br></strong>Associate Deputy Minister</p>\n\n\t\t",
        "fr": "<br>\n<br>\n<p>Nous sommes heureux d\u2019annoncer la nomination de Katherine MacDonald dans le r\u00f4le de secr\u00e9taire g\u00e9n\u00e9rale dans le bureau du sous-ministre en date du 17 ao\u00fbt prochain.</p>\n<p>Katherine s\u2019est jointe \u00e0 AAC en 2005 et a depuis occup\u00e9 divers postes de leadership au sein des directions g\u00e9n\u00e9rales des Affaires publiques, des Politiques strat\u00e9giques et des Services \u00e0 l\u2019industrie et aux march\u00e9s. Katherine occupe pr\u00e9sentement le poste de directrice g\u00e9n\u00e9rale des op\u00e9rations r\u00e9gionales.</p>\n<p>Nous souhaitons \u00e9galement remercier Donald pour son support en tant que secr\u00e9taire g\u00e9n\u00e9ral depuis avril 2019. Dans ses fonctions, Donald a \u00e9tabli de fortes collaborations au sein du minist\u00e8re et a jou\u00e9 un r\u00f4le important dans la gestion d\u2019enjeux cl\u00e9s. \u00c0 partir du 17 ao\u00fbt, Donald occupera le poste de directeur ex\u00e9cutif de la division des cultures et de l\u2019horticulture \u00e0 la DGSIM.</p>\n<p>Joignez-vous \u00e0 nous afin de souhaiter la meilleure des chances \u00e0 Katherine et Donald dans leurs nouvelles fonctions.</p>\n<p>\u00a0</p>\n<p><strong>Chris Forbes<br></strong>Sous-ministre</p>\n<p><strong>Annette Gibbons<br></strong>Sous-\u00administre d\u00e9l\u00e9gu\u00e9e</p>\n\t\t"
    },
    "breadcrumb": {
        "en": "Staffing Update",
        "fr": "Le point sur la dotation"
    },
    "news": {
        "date_posted": {
            "en": "2020-07-21",
            "fr": "2020-07-21"
        },
        "to": {
            "en": "All staff",
            "fr": "Tous les employ\u00e9s"
        },
        "by": {
            "en": "Chris Forbes, Deputy Minister, and Annette Gibbons, Associate Deputy Minister",
            "fr": "Chris Forbes, Sous-ministre, et Annette Gibbons, Sous-ministre d\u00e9l\u00e9gu\u00e9e"
        }
    }
}