{
    "dcr_id": "1596734632072",
    "lang": "en",
    "title": {
        "en": "Policy Analyst/Economist ",
        "fr": "Analyste des politiques/\u00e9conomiste "
    },
    "modified": "2020-08-06 00:00:00.0",
    "issued": "2020-08-06 00:00:00.0",
    "type_name": "intra-intra/empl-empl",
    "node_id": "1279029955397",
    "layout_name": null,
    "dc_date_created": "2020-08-06",
    "breadcrumb_label": "",
    "meta": {
        "issued": {
            "en": "2020-08-06",
            "fr": "2020-08-06"
        },
        "modified": {
            "en": "2020-08-06",
            "fr": "2020-08-06"
        },
        "format": {
            "en": "gcformat",
            "fr": "gcformat"
        },
        "title": {
            "en": "Policy Analyst/Economist ",
            "fr": "Analyste des politiques/\u00e9conomiste "
        },
        "subject": {
            "en": "staffing",
            "fr": "dotation en personnel"
        },
        "language": {
            "en": "eng",
            "fr": "fra"
        },
        "audience": {
            "en": "gcaudience",
            "fr": "gcaudience"
        },
        "type": {
            "en": "notice",
            "fr": "avis"
        },
        "creator": {
            "en": "Agriculture and Agri-Food Canada",
            "fr": "Agriculture et Agroalimentaire Canada"
        },
        "spatial": {
            "en": "gcregions",
            "fr": "gcregions"
        },
        "service": {
            "en": "AAFC_AgriSource",
            "fr": "AAC_AgriSource"
        },
        "accessRights": {
            "en": "3",
            "fr": "3"
        }
    },
    "body": {
        "en": "\n<p><strong>\u00a0</strong></p>\n<p><strong>The Food Policy Division is looking for a strong EC-03, EC-4, or EC-5, for a one year at-level assignment \u2013 this is an opportunity to learn about the Food Policy for Canada, and to gain experience in:</strong></p>\n<ul>\n<li>Stakeholder engagement and coordination in support of a Minister\u2019s key mandate letter commitment to move forward with Food Policy for Canada, such as a new Minister\u2019s Food Policy Advisory Council and federal leadership on food loss and waste reduction;</li>\n<li>Drafting policy papers, policy-related briefings and presentations on complex issues;</li>\n<li>Supporting a senior-level interdepartmental committee and the external Advisory Council, regarding policy discussions, including drafting presentations and background materials; and,</li>\n<li>Communicating and collaborating with other orders of government, Indigenous partners, stakeholders from industry, civil society, and academia to implement the Food Policy for Canada.</li>\n</ul>\n<p>If you are looking to round-out your ECDP experience, or to learn about complex and interconnected policy issues and stakeholders and advance Ministerial mandate letter priorities, the Food Policy Division is for you! We are looking for an energetic candidate who is a strategic thinker, with strong writing skills to join the team on a one-year assignment.</p>\n<p>Employees of Agriculture and Agri-Food Canada at the EC-4 group and level in the ECDP, and employees who have graduated from the ECDP at the EC-5 and are looking for something new, are invited to express their interest in this one year at-level assignment within the Engagement and Coordination Unit of the Food Policy Division in the Strategic Policy Branch.</p>\n<p><strong><br>Applications</strong></p>\n<p>Interested? Please to forward your resume and a brief cover note to Sandra Newsome (sandra.newsome@canada.ca). If you have questions, please call her at 343-548-2029. She\u2019s always happy to discuss the Unit\u2019s work for the year ahead, and to answer any questions you may have.</p>\n<p>Your resume should clearly identify:</p>\n<ul>\n<li>Your tenure (e.g. term or indeterminate employee); and,</li>\n<li>Your substantive group and level</li>\n</ul>\n<p>\u00a0</p>\n",
        "fr": "\n<p><strong>\u00a0</strong></p>\n<p><strong>La Division de la politique alimentaire est \u00e0 la recherche d\u2019un EC-03, EC-4 ou EC-5 comp\u00e9tent pour une affectation d\u2019un an au niveau de titularisation. C\u2019est l\u2019occasion pour le candidat retenu de se familiariser avec la Politique alimentaire pour le Canada et d\u2019acqu\u00e9rir de l\u2019exp\u00e9rience en accomplissant les t\u00e2ches suivantes :</strong></p>\n<ul>\n<li>Assurer la coordination avec les intervenants et collaborer avec ces derniers \u00e0 l\u2019appui d\u2019un engagement cl\u00e9 de la lettre de mandat de la ministre, soit de mettre en \u0153uvre la Politique alimentaire pour le Canada, ce qui comprend le nouveau Conseil de la politique alimentaire du Canada et le leadership f\u00e9d\u00e9ral li\u00e9 \u00e0 la r\u00e9duction des pertes et du gaspillage d\u2019aliments;</li>\n<li>R\u00e9diger des documents strat\u00e9giques, de notes d\u2019information sur les politiques et des pr\u00e9sentations sur des questions complexes;</li>\n<li>Appuyer un comit\u00e9 interminist\u00e9riel de cadres sup\u00e9rieurs et le Conseil consultatif externe en ce qui concerne les discussions strat\u00e9giques, ce qui inclut la r\u00e9daction de pr\u00e9sentations et de documents d\u2019information;</li>\n<li>Communiquer et collaborer avec d\u2019autres paliers de gouvernement, des partenaires autochtones, des intervenants du secteur, des membres de la soci\u00e9t\u00e9 civile et le milieu universitaire afin de mettre en \u0153uvre la Politique alimentaire pour le Canada.</li>\n</ul>\n<p>Si vous souhaitez parfaire votre formation du PPEC, vous familiariser avec des questions strat\u00e9giques complexes interd\u00e9pendantes, en apprendre plus sur les intervenants ou faire avancer les priorit\u00e9s de la lettre de mandat de la ministre, la Division de la politique alimentaire est pour vous! Nous sommes \u00e0 la recherche d\u2019un candidat dynamique qui est dou\u00e9 pour la r\u00e9flexion strat\u00e9gique et la r\u00e9daction en vue d\u2019une affectation d\u2019un an dans notre \u00e9quipe.</p>\n<p>Les employ\u00e9s d\u2019AAC au niveau EC-4 qui participent au PPEC et les employ\u00e9s au niveau EC-05 qui ont termin\u00e9 le PPEC et qui souhaitent relever un nouveau d\u00e9fi sont invit\u00e9s \u00e0 signifier leur int\u00e9r\u00eat pour cette possibilit\u00e9 d\u2019affectation d\u2019un an au niveau de titularisation dans l\u2019Unit\u00e9 de la mobilisation et de la coordination, Division de la politique alimentaire, Direction g\u00e9n\u00e9rale des politiques strat\u00e9giques.</p>\n<p><strong><br>Candidatures </strong></p>\n<p>Cette affectation vous int\u00e9resse? Veuillez envoyer votre <em>curriculum vitae</em> et une br\u00e8ve lettre de pr\u00e9sentation \u00e0 Sandra Newsome (sandra.newsome@canada.ca). Si vous avez des questions, veuillez appeler cette derni\u00e8re au 343-548-2029. C\u2019est toujours un plaisir pour elle de discuter du travail de l\u2019Unit\u00e9 et de r\u00e9ponde \u00e0 vos questions.</p>\n<p>Votre <em>curriculum vitae</em> doit clairement indiquer :</p>\n<ul>\n<li>la dur\u00e9e de votre emploi (p. ex. dur\u00e9e d\u00e9termin\u00e9e ou ind\u00e9termin\u00e9e);</li>\n<li>le groupe et le niveau de votre poste d\u2019attache.</li>\n</ul>\n<p>\u00a0</p>\n\n"
    },
    "breadcrumb": {
        "en": "Policy Analyst/Economist",
        "fr": "Analyste des politiques/\u00e9conomiste"
    },
    "empl": {
        "type": {
            "en": "Assignment",
            "fr": "Affectation"
        },
        "classification": {
            "en": "EC-3, EC-4, EC-5 and equivalent",
            "fr": "EC-3, EC-4, EC-5 et \u00e9quivalent"
        },
        "branch": {
            "en": "Strategic Policy Branch",
            "fr": "Direction g\u00e9n\u00e9rale des politiques strat\u00e9giques"
        },
        "locations": {
            "en": "National Capital Region",
            "fr": "R\u00e9gion de la capitale nationale"
        },
        "date_closing": {
            "en": "2020-08-19",
            "fr": "2020-08-19"
        },
        "open_to": {
            "en": "ECDP participants at the EC-03/EC-04 group and level, and employees at the EC-05 group and level.",
            "fr": "Participants au PPEC au niveau EC-03/EC-04 et employ\u00e9s au niveau EC-05"
        },
        "name": {
            "en": "Sandra Newsome",
            "fr": "Sandra Newsome"
        },
        "email": {
            "en": "sandra.newsome@canada.ca",
            "fr": "sandra.newsome@canada.ca"
        }
    }
}