{
    "dcr_id": "1597693359491",
    "lang": "en",
    "title": {
        "en": "Staffing Update",
        "fr": "Le point sur la dotation"
    },
    "modified": "2020-08-20 00:00:00.0",
    "issued": "2020-08-20 00:00:00.0",
    "type_name": "intra-intra/news-nouv",
    "node_id": "1279030006975",
    "layout_name": null,
    "dc_date_created": "2020-08-18",
    "breadcrumb_label": "",
    "meta": {
        "issued": {
            "en": "2020-08-20",
            "fr": "2020-08-20"
        },
        "modified": {
            "en": "2020-08-20",
            "fr": "2020-08-20"
        },
        "format": {
            "en": "gcformat",
            "fr": "gcformat"
        },
        "title": {
            "en": "Staffing Update",
            "fr": "Le point sur la dotation"
        },
        "subject": {
            "en": "communications",
            "fr": "communications"
        },
        "description": {
            "en": "We are pleased to announce the appointment of Dr. Liz Foster in the role of Associate Assistant Deputy Minister of the Science and Technology Branch, effective August 24, 2020.",
            "fr": "Nous sommes heureux d'annoncer la nomination de Mme Liz Foster, Ph. D., \u00e0 titre de sous-ministre adjointe d\u00e9l\u00e9gu\u00e9e de la Direction g\u00e9n\u00e9rale des sciences et de la technologie, \u00e0 compter du 24 ao\u00fbt 2020."
        },
        "language": {
            "en": "eng",
            "fr": "fra"
        },
        "audience": {
            "en": "gcaudience",
            "fr": "gcaudience"
        },
        "creator": {
            "en": "Agriculture and Agri-Food Canada",
            "fr": "Agriculture et Agroalimentaire Canada"
        },
        "spatial": {
            "en": "gcregions",
            "fr": "gcregions"
        },
        "service": {
            "en": "AAFC_AgriSource",
            "fr": "AAC_AgriSource"
        },
        "accessRights": {
            "en": "3",
            "fr": "3"
        }
    },
    "body": {
        "en": "<br>\n<br>\n<p>We are pleased to announce the appointment of Dr. Liz Foster in the role of Associate Assistant Deputy Minister of the Science and Technology Branch, effective August 24, 2020.</p>\n<p>Since November 2016, Liz has held different positions at AAFC, including Director of Science Partnerships, Director General of the Prairie Region, and Director General, Partnerships and Planning Directorate. Most recently, she was on assignment as Director General of the Ontario and Quebec Region. Liz also acted as Associate Assistant Deputy Minister of the Science and Technology Branch from December 2019 to April 2020.</p>\n<p>Before that, she spent 13 years at the Canadian Food Inspection Agency in various roles of increasing responsibility. Liz began her career at AAFC at the Ottawa Research and Development Centre, from 1996 to 2003.</p>\n<p>Liz brings a depth of experience from over 24 years of public service and a proven track record of working collaboratively within and across branches and departments, and with stakeholders.</p>\n<p>She holds a Doctor of Philosophy (Plant Molecular Genetics) from the University of Guelph, an Honours Bachelor of Science (Biology) from the University of Waterloo, and a Certificate in Public Sector Leadership and Governance from the University of Ottawa.</p>\n<p>We would like to take this opportunity to also thank Dr. Javier Gracia\u2011Garza, who has been acting in this position since April 2020, for his contribution, especially during these challenging times.</p>\n<p>Please join us in congratulating Liz and wishing her all the best as she takes on her new role.</p>\n<p>\u00a0</p>\n<p><strong>Chris Forbes<br></strong>Deputy Minister</p>\n<p><strong>Annette Gibbons<br></strong>Associate Deputy Minister</p>\n\n\t\t",
        "fr": "<br>\n<br>\n<p>Nous sommes heureux d\u2019annoncer la nomination de Mme Liz Foster, Ph. D., \u00e0 titre de sous-ministre adjointe d\u00e9l\u00e9gu\u00e9e de la Direction g\u00e9n\u00e9rale des sciences et de la technologie, \u00e0 compter du 24 ao\u00fbt 2020.</p>\n<p>Depuis novembre 2016, Liz a occup\u00e9 diff\u00e9rents postes \u00e0 AAC, dont celui de directrice des partenariats scientifiques, de directrice g\u00e9n\u00e9rale de la r\u00e9gion des Prairies et de directrice g\u00e9n\u00e9rale de la Direction des partenariats et de la planification. Plus r\u00e9cemment, elle a \u00e9t\u00e9 en affectation \u00e0 titre de directrice g\u00e9n\u00e9rale des r\u00e9gions de l\u2019Ontario et du Qu\u00e9bec. De d\u00e9cembre 2019 \u00e0 avril 2020, Liz \u00e9tait \u00e9galement sous-ministre adjointe d\u00e9l\u00e9gu\u00e9e de la Direction g\u00e9n\u00e9rale des sciences et de la technologie.</p>\n<p>Pr\u00e9c\u00e9demment, elle a travaill\u00e9 13 ans \u00e0 l\u2019Agence canadienne d\u2019inspection des aliments, dans le cadre de divers r\u00f4les de responsabilit\u00e9 croissante. Liz a commenc\u00e9 sa carri\u00e8re \u00e0 AAC au Centre de recherche et de d\u00e9veloppement d\u2019Ottawa, de 1996 \u00e0 2003.</p>\n<p>Gr\u00e2ce \u00e0 plus de 24 ans dans la fonction publique, elle apporte avec elle une vaste exp\u00e9rience et une feuille de route exemplaire de la collaboration au sein des directions g\u00e9n\u00e9rales et des minist\u00e8res, et entre eux, ainsi qu\u2019aupr\u00e8s des intervenants.</p>\n<p>Titulaire d\u2019un doctorat en philosophie (g\u00e9n\u00e9tique mol\u00e9culaire des v\u00e9g\u00e9taux) de l\u2019Universit\u00e9 de Guelph, elle d\u00e9tient \u00e9galement un baccalaur\u00e9at \u00e8s sciences (biologie) de l\u2019Universit\u00e9 de Waterloo et un certificat en leadership du secteur public et gouvernance de l\u2019Universit\u00e9 d\u2019Ottawa.</p>\n<p>Nous aimerions profiter de l\u2019occasion pour remercier \u00e9galement M. Javier Gracia\u2011Garza, Ph. D., qui assure l\u2019int\u00e9rim depuis avril 2020, pour sa contribution, tout particuli\u00e8rement en cette p\u00e9riode difficile.</p>\n<p>Joignez-vous \u00e0 nous pour f\u00e9liciter Liz et pour lui souhaiter la meilleure des chances dans ses nouvelles fonctions.</p>\n<p>\u00a0</p>\n<p><strong>Chris Forbes<br></strong>Sous-ministre</p>\n<p><strong>Annette Gibbons<br></strong>Sous-ministre d\u00e9l\u00e9gu\u00e9e</p>\n\t\t"
    },
    "breadcrumb": {
        "en": "Staffing Update",
        "fr": "Le point sur la dotation"
    },
    "news": {
        "date_posted": {
            "en": "2020-08-20",
            "fr": "2020-08-20"
        },
        "to": {
            "en": "All staff",
            "fr": "Tous les employ\u00e9s"
        },
        "by": {
            "en": "Chris Forbes, Deputy Minister, and Annette Gibbons, Associate Deputy Minister",
            "fr": "Chris Forbes, sous-ministre, et Annette Gibbons, sous-ministre d\u00e9l\u00e9gu\u00e9e"
        }
    }
}