{
    "dcr_id": "1597250633432",
    "lang": "en",
    "title": {
        "en": "New on the Good News Grows Page",
        "fr": "Nouveaut\u00e9s sur la page \u00ab Les bonnes nouvelles sont dans le pr\u00e9 \u00bb"
    },
    "modified": "2020-08-12 00:00:00.0",
    "issued": "2020-08-12 00:00:00.0",
    "type_name": "intra-intra/news-nouv",
    "node_id": "1279030006975",
    "layout_name": null,
    "dc_date_created": "2020-08-12",
    "breadcrumb_label": "",
    "meta": {
        "issued": {
            "en": "2020-08-12",
            "fr": "2020-08-12"
        },
        "modified": {
            "en": "2020-08-12",
            "fr": "2020-08-12"
        },
        "format": {
            "en": "gcformat",
            "fr": "gcformat"
        },
        "title": {
            "en": "New on the Good News Grows Page",
            "fr": "Nouveaut\u00e9s sur la page \u00ab Les bonnes nouvelles sont dans le pr\u00e9 \u00bb"
        },
        "subject": {
            "en": "communications",
            "fr": "communications"
        },
        "description": {
            "en": "During the COVID-19 pandemic, we could all use a little more social connection with our colleagues.",
            "fr": "Pendant la pand\u00e9mie de COVID-19, il importe plus que jamais d'entretenir des liens sociaux avec nos coll\u00e8gues."
        },
        "language": {
            "en": "eng",
            "fr": "fra"
        },
        "audience": {
            "en": "gcaudience",
            "fr": "gcaudience"
        },
        "creator": {
            "en": "Agriculture and Agri-Food Canada",
            "fr": "Agriculture et Agroalimentaire Canada"
        },
        "spatial": {
            "en": "gcregions",
            "fr": "gcregions"
        },
        "service": {
            "en": "AAFC_AgriSource",
            "fr": "AAC_AgriSource"
        },
        "accessRights": {
            "en": "3",
            "fr": "3"
        }
    },
    "body": {
        "en": "<br>\n<br>\n<p>During the COVID-19 pandemic, we could all use a little more social connection with our colleagues. <a href=\"http://multimedia.agr.gc.ca/COVID-19/goodnews-bonnesnouvelles-eng.html\">Good News Grows</a> is a series featuring #GCAggie stories and what AAFC employees have been up to during the last few months, as well as how they have stepped up in a time of uncertainty and change.</p>\n<p>New stories this week:</p>\n<ul>\n<li><a href=\"http://multimedia.agr.gc.ca/COVID-19/gng_pollinators-eng.html\">Pleasing pollinators: Supporting your hardworking garden allies</a></li>\n<li><a href=\"http://multimedia.agr.gc.ca/COVID-19/gng_plant_diversity-eng.html\">Plant Diversity: Our food supply depends on it, now more than ever</a></li>\n</ul>\n<h2><strong>Share your stories!</strong></h2>\n<p>We\u2019re always looking for more good news stories from all corners of the department. If you have a story that you think is worth sharing, tell us about it through our <a href=\"https://forms.gle/jGkzdTjYfBHgHoyg9\">Story Submission Form</a>. Select stories may also be shared with Canadians, through the Department\u2019s social media channels.</p>\n\n\t\t",
        "fr": "<br>\n<br>\n<p>Pendant la pand\u00e9mie de COVID-19, il importe plus que jamais d\u2019entretenir des liens sociaux avec nos coll\u00e8gues. <a href=\"http://multimedia.agr.gc.ca/COVID-19/goodnews-bonnesnouvelles-fra.html\">Les bonnes nouvelles sont dans le pr\u00e9</a> est une s\u00e9rie d\u2019histoires #AgromaneGC et de r\u00e9cits sur ce qui a occup\u00e9 les employ\u00e9s d\u2019AAC au cours des derniers mois, ainsi que sur la fa\u00e7on dont ils ont r\u00e9pondu \u00e0 l\u2019appel en cette p\u00e9riode d\u2019incertitude et de changement.</p>\n<p>Voici les nouveaut\u00e9s cette semaine </p>\n<ul>\n<li><a href=\"http://multimedia.agr.gc.ca/COVID-19/gng_pollinators-fra.html\">Attirez les pollinisateurs : Soutenez vos infatigables alli\u00e9s du jardin</a></li>\n<li><a href=\"http://multimedia.agr.gc.ca/COVID-19/gng_plant_diversity-fra.html\">Aujourd'hui plus que jamais, notre approvisionnement alimentaire est tributaire de la diversit\u00e9 v\u00e9g\u00e9tale</a></li>\n</ul>\n<h2><strong>Racontez votre histoire!</strong></h2>\n<p>Nous sommes toujours \u00e0 la recherche d\u2019histoires positives de tous les secteurs du Minist\u00e8re. Si vous avez une histoire qui m\u00e9rite d\u2019\u00eatre partag\u00e9e, faites-le-nous savoir en remplissant notre <a href=\"https://forms.gle/vhqr49fd4b7rkxPR8\">formulaire en ligne</a>. Certaines histoires pourraient m\u00eame \u00eatre diffus\u00e9es aux Canadiens par le biais des m\u00e9dias sociaux du Minist\u00e8re.</p>\n\t\t"
    },
    "breadcrumb": {
        "en": "New on the Good News Grows Page",
        "fr": "Nouveaut\u00e9s sur la page \u00ab Les bonnes nouvelles sont dans le pr\u00e9 \u00bb"
    },
    "news": {
        "date_posted": {
            "en": "2020-08-13",
            "fr": "2020-08-20"
        },
        "to": {
            "en": "All staff",
            "fr": "Tous les employ\u00e9s"
        },
        "by": {
            "en": "Corporate Communications, Public Affairs Branch",
            "fr": "Communications minist\u00e9rielles, Direction g\u00e9n\u00e9rale des affaires publiques"
        }
    }
}