{
    "dcr_id": "1597088185374",
    "lang": "en",
    "title": {
        "en": "Scheduled Maintenance of ISB Services - August 16",
        "fr": "Entretien pr\u00e9vu des services de la DGSI \u2013 le 16 ao\u00fbt"
    },
    "modified": "2020-08-12 00:00:00.0",
    "issued": "2020-08-12 00:00:00.0",
    "type_name": "intra-intra/news-nouv",
    "node_id": "1279030006975",
    "layout_name": null,
    "dc_date_created": "2020-08-12",
    "breadcrumb_label": "",
    "meta": {
        "issued": {
            "en": "2020-08-12",
            "fr": "2020-08-12"
        },
        "modified": {
            "en": "2020-08-12",
            "fr": "2020-08-12"
        },
        "format": {
            "en": "gcformat",
            "fr": "gcformat"
        },
        "title": {
            "en": "Scheduled Maintenance of ISB Services - August 16",
            "fr": "Entretien pr\u00e9vu des services de la DGSI \u2013 le 16 ao\u00fbt"
        },
        "subject": {
            "en": "communications",
            "fr": "communications"
        },
        "description": {
            "en": "Please be advised that preventative maintenance of ISB services will be performed on Sunday, August 16.",
            "fr": "Veuillez noter qu'un entretien pr\u00e9ventif des services de la DGSI aura lieu le dimanche 16 ao\u00fbt."
        },
        "language": {
            "en": "eng",
            "fr": "fra"
        },
        "audience": {
            "en": "gcaudience",
            "fr": "gcaudience"
        },
        "creator": {
            "en": "Agriculture and Agri-Food Canada",
            "fr": "Agriculture et Agroalimentaire Canada"
        },
        "spatial": {
            "en": "gcregions",
            "fr": "gcregions"
        },
        "service": {
            "en": "AAFC_AgriSource",
            "fr": "AAC_AgriSource"
        },
        "accessRights": {
            "en": "3",
            "fr": "3"
        }
    },
    "body": {
        "en": "<br>\n<br>\n<p>Please be advised that preventative maintenance of ISB services will be performed on Sunday, August 16.</p>\n<p>The following downtime is part of a management plan to upgrade our infrastructure systems. These measures are performed regularly to improve performance and to ensure that the department does not experience any outages that would affect employees and the delivery of our services.</p>\n<p>Consequently, the following services may not be available during this period:</p>\n<p><strong>*Sunday, August 16 \u2013 9:00 a.m. until 1:00 p.m. (ET)</strong></p>\n<ul>\n<li>AAFC Online</li>\n<li>Business Risk Management System</li>\n<li>Grants and Contribution Delivery System</li>\n<li>Science Management System \u2013 Monitoring and Reporting System</li>\n</ul>\n<p>*Please click here for a <a href=\"https://collab.agr.gc.ca/co/ccc/_layouts/15/guestaccess.aspx?guestaccesstoken=eBOj4zyY9zrrIa22xcyI%2fFFbdvJKlUnBw4LuNrGWfIg%3d&amp;docid=2_050452c1cbdde4ccf9e0b26af3148bec4&amp;rev=1\">complete listing of affected services</a> (Word) during this period.</p>\n<p>Should you have any questions or concerns, please do not hesitate to contact IT Centre TI.</p>\n<p><strong>\u00a0</strong></p>\n<p><strong>IT Centre TI<br></strong>Telephone: 1-855-545-4411<br><a href=\"http://myitcentreti-monitcentreti/\">My IT Centre TI</a></p>\n<p><img src=\"https://intranet.agr.gc.ca/resources/prod/news/images/ITCentreTI2.png\" class=\"center-block\"></p>\n\n\t\t",
        "fr": "<br>\n<br>\n<p>Veuillez noter qu\u2019un entretien pr\u00e9ventif des services de la DGSI aura lieu le dimanche 16 ao\u00fbt.</p>\n<p>Les interruptions suivantes sont pr\u00e9vues dans le cadre d\u2019un plan de gestion visant la mise \u00e0 niveau de nos syst\u00e8mes d\u2019infrastructure. Ces mesures sont prises r\u00e9guli\u00e8rement afin d\u2019am\u00e9liorer le rendement et d\u2019\u00e9viter que le Minist\u00e8re subisse des pannes qui pourraient nuire aux employ\u00e9s et \u00e0 la prestation de nos services.</p>\n<p>En cons\u00e9quence, les services suivants pourraient ne pas \u00eatre accessibles pendant la p\u00e9riode indiqu\u00e9e :</p>\n<p><strong>*Le dimanche 16 ao\u00fbt, de 9 h \u00e0 13 h (HE)</strong></p>\n<ul>\n<li>AAC en direct</li>\n<li>Syst\u00e8me de gestion des risques de l\u2019entreprise</li>\n<li>Syst\u00e8me de prestation des subventions et des contributions</li>\n<li>Syst\u00e8mes de gestion des sciences \u2013 Syst\u00e8me de surveillance et d\u2019\u00e9tablissement de rapports</li>\n</ul>\n<p>*Veuillez cliquer ici pour avoir acc\u00e8s \u00e0 la <a href=\"https://collab.agr.gc.ca/co/ccc/_layouts/15/guestaccess.aspx?guestaccesstoken=wzud67oBhuqOfYw9X4gBeQh1Hm3Yb9JippaczduQOxk%3d&amp;docid=2_01952b8afbd3947d8b4700f1ac42c0699&amp;rev=1\">liste compl\u00e8te des services</a> (Word) touch\u00e9s pendant ce p\u00e9riode.</p>\n<p>Si vous avez des questions ou des pr\u00e9occupations \u00e0 ce sujet, n\u2019h\u00e9sitez pas \u00e0 communiquer avec le IT Centre TI.</p>\n<p><strong>\u00a0</strong></p>\n<p><strong>IT Centre TI<br></strong>T\u00e9l\u00e9phone : 1-855-545-4411<br><a href=\"http://myitcentreti-monitcentreti/\">Mon IT Centre TI</a></p>\n<p><img src=\"https://intranet.agr.gc.ca/resources/prod/news/images/ITCentreTI2.png\" class=\"center-block\"></p>\n\t\t"
    },
    "breadcrumb": {
        "en": "Scheduled Maintenance of ISB Services - August 16",
        "fr": "Entretien pr\u00e9vu des services de la DGSI \u2013 le 16 ao\u00fbt"
    },
    "news": {
        "date_posted": {
            "en": "2020-08-13",
            "fr": "2020-08-13"
        },
        "to": {
            "en": "All staff",
            "fr": "Tous les employ\u00e9s"
        },
        "by": {
            "en": "IT Centre TI",
            "fr": "IT Centre TI"
        }
    }
}