{
    "dcr_id": "1598021161527",
    "lang": "en",
    "title": {
        "en": "Deputy Director",
        "fr": "Directeur adjoint ou directrice adjointe"
    },
    "modified": "2020-08-26 00:00:00.0",
    "issued": "2020-08-24 00:00:00.0",
    "type_name": "intra-intra/empl-empl",
    "node_id": "1279029955397",
    "layout_name": null,
    "dc_date_created": "2020-08-24",
    "breadcrumb_label": "",
    "meta": {
        "issued": {
            "en": "2020-08-24",
            "fr": "2020-08-24"
        },
        "modified": {
            "en": "2020-08-26",
            "fr": "2020-08-26"
        },
        "format": {
            "en": "gcformat",
            "fr": "gcformat"
        },
        "title": {
            "en": "Deputy Director",
            "fr": "Directeur adjoint ou directrice adjointe"
        },
        "subject": {
            "en": "staffing",
            "fr": "dotation en personnel"
        },
        "language": {
            "en": "eng",
            "fr": "fra"
        },
        "audience": {
            "en": "gcaudience",
            "fr": "gcaudience"
        },
        "type": {
            "en": "notice",
            "fr": "avis"
        },
        "creator": {
            "en": "Agriculture and Agri-Food Canada",
            "fr": "Agriculture et Agroalimentaire Canada"
        },
        "spatial": {
            "en": "gcregions",
            "fr": "gcregions"
        },
        "service": {
            "en": "AAFC_AgriSource",
            "fr": "AAC_AgriSource"
        },
        "accessRights": {
            "en": "3",
            "fr": "3"
        }
    },
    "body": {
        "en": "\n<p>\u00a0</p>\n<p>Employees of Agriculture and Agri-Food Canada (AAFC) at the EC-06 or EC-07 level (and equivalents) are invited to express their interest in a 12 month assignment with possibility of extension as Deputy Director of the Business Risk Management (BRM) team within the Policy, Planning and Integration (PPI) Directorate in Strategic Policy Branch (SPB).</p>\n<p>The BRM team is responsible for liaising with the provinces, other government departments, and industry in conjunction with PB colleagues, undertaking analysis and research and providing policy recommendations on BRM programs.</p>\n<p>The position of Deputy Director requires strategic individuals with strong analytical, research and writing skills. The successful candidate will lead on policy analysis and provide strategic advice to senior management. Primary responsibilities include leading the BRM policy team in:</p>\n<ul>\n<li>\n<p>Developing an understanding the issues affecting the agriculture sector, and providing strategic policy advice on BRM programs, and/or related strategic initiatives,</p>\n</li>\n<li>\n<p>Participating in departmental working groups, the Federal/Provincial/Territorial (FPT) BRM Policy Working Group and potentially other inter-governmental or inter-departmental groups to support policy integration and development related to BRM and the broader Agriculture and Agri-Food portfolio,</p>\n</li>\n<li>\n<p>Undertaking analysis and research on emerging BRM and other Canadian Agricultural Partnership (CAP) issues,</p>\n</li>\n<li>\n<p>Preparing Memoranda to Cabinet, policy papers, briefing notes, and speaking points, as necessary,</p>\n</li>\n<li>\n<p>Working collaboratively with others under tight deadlines.</p>\n</li>\n</ul>\n<p><strong><br>Education:</strong><br>\nGraduation with a degree from a recognized post-secondary institution with acceptable specialization in economics, business, finance, agriculture, sociology or statistics.</p>\n<p>Candidates must always have a degree. The courses for the specialization must be acceptable and may have been taken at a recognized post-secondary institution, but not necessarily within a degree program in the required specialization. The specialization may also be obtained through an acceptable combination of education, training and/or experience.</p>\n<p><strong><br>The ideal candidate should have the following essential experience and knowledge:</strong><br>\nExperience leading on projects with demanding deadlines.<br>\nExperience in developing policy analysis, policy position papers or policy-related research.<br>\nExperience in providing briefing materials including strategic advice and/or recommendations on economic, social or environmental issues for Senior Management (ADM or higher).<br>\nExperience in working cooperatively with partners and stakeholders including industry, other government departments, provincial departments, national or international organizations or portfolio agencies on horizontal issues.<br>\nKnowledge of AAFC priorities, objectives, structure and processes.</p>\n<p><strong><br>Asset Qualifications: </strong><br>\nExperience working with BRM programs or strategic initiatives (non-BRM programs).<br>\nExperience participating in multi-disciplinary working groups.<br>\nExperience in working with Central Agencies.<br>\nKnowledge of primary agriculture, including risk management.<br>\nKnowledge of economic, or sociological or statistical principles, practices, techniques, tools and/or methods.</p>\n<p><strong><br>Language Requirement: </strong><br>\nBilingual Imperative BBB/BBB, English Essential, or French Essential</p>\n<p><strong><br>Conditions of Employment: </strong><br>\nSecurity: Secret clearance is required.<br>\nAbility and willingness to work overtime on short notice.</p>\n<p><strong><br>Applications:</strong><br>\nInterested AAFC employees are encouraged to forward their resume and cover letter to Pr\u00e9scille Lebrun by email at <a href=\"prescille.lebrun@canada.ca\">prescille.lebrun@canada.ca</a>, and must clearly demonstrate IN THEIR COVER LETTER how they meet the essential qualifications and any applicable asset qualification(s). Your cover letter must also clearly identify: Your tenure (e.g., term or indeterminate), substantive group and level, current language profile and security level.</p>\n<p>\u00a0</p>\n",
        "fr": "\n<p>\u00a0</p>\n<p>Les employ\u00e9s d\u2019Agriculture et Agroalimentaire Canada (AAC) qui occupent un poste EC-06 ou EC-07 (ou l\u2019\u00e9quivalent) sont invit\u00e9s \u00e0 exprimer leur int\u00e9r\u00eat pour une affectation de 12 mois avec possibilit\u00e9 de prolongation \u00e0 titre de directeur adjoint ou de directrice adjointe au sein de l\u2019\u00e9quipe de Gestion des risques de l\u2019entreprise (GRE) de la Direction de la planification et de l\u2019int\u00e9gration des politiques (DPIP), Direction g\u00e9n\u00e9rale des politiques strat\u00e9giques (DGPS).</p>\n<p>L\u2019\u00e9quipe de GRE est charg\u00e9e d\u2019assurer la liaison avec les provinces, les autres minist\u00e8res et l\u2019industrie en collaboration avec les coll\u00e8gues de la DGP, en proc\u00e9dant \u00e0 des analyses et \u00e0 des recherches et en formulant des recommandations strat\u00e9giques sur les programmes de GRE.</p>\n<p>Le directeur adjoint ou la directrice adjointe occupe un poste strat\u00e9gique qui requiert de solides comp\u00e9tences en analyse, en recherche et en r\u00e9daction. La personne choisie pour le poste pilotera l\u2019analyse des politiques et donnera des conseils strat\u00e9giques \u00e0 la haute direction. Elle devra notamment diriger l\u2019\u00e9quipe de la politique de GRE dans les t\u00e2ches suivantes :</p>\n<ul>\n<li>\n<p>Comprendre les enjeux qui touchent le secteur de l\u2019agriculture et fournir des conseils strat\u00e9giques sur les programmes de GRE ou les initiatives strat\u00e9giques connexes.</p>\n</li>\n<li>\n<p>Participer aux groupes de travail minist\u00e9riels, au groupe de travail f\u00e9d\u00e9ral-provincial-territorial (FPT) sur la politique de GRE et possiblement \u00e0 d\u2019autres groupes intergouvernementaux ou interminist\u00e9riels pour appuyer l\u2019int\u00e9gration et l\u2019\u00e9laboration des politiques li\u00e9es \u00e0 la GRE ainsi qu\u2019\u00e0 l\u2019ensemble du portefeuille de l\u2019Agriculture et de l\u2019Agroalimentaire.</p>\n</li>\n<li>\n<p>Effectuer des analyses et des recherches sur les enjeux \u00e9mergents concernant la GRE et le Partenariat canadien pour l\u2019agriculture (PCA).</p>\n</li>\n<li>\n<p>Pr\u00e9parer des m\u00e9moires au Cabinet, des documents d\u2019orientation, des notes d\u2019information et des notes d\u2019allocution, au besoin.</p>\n</li>\n<li>\n<p>Travailler en collaboration en respectant des d\u00e9lais serr\u00e9s.</p>\n</li>\n</ul>\n<p><strong><br>\u00c9tudes</strong><br>\nGrade d\u2019un \u00e9tablissement d\u2019enseignement postsecondaire reconnu avec sp\u00e9cialisation acceptable en \u00e9conomie, en affaires, en finance, en agriculture, en sociologie ou en statistique.</p>\n<p>Les personnes qui posent leur candidature doivent poss\u00e9der un dipl\u00f4me. Les cours li\u00e9s \u00e0 la sp\u00e9cialisation doivent \u00eatre acceptables et peuvent avoir \u00e9t\u00e9 suivis dans un \u00e9tablissement d\u2019enseignement postsecondaire reconnu, mais pas n\u00e9cessairement dans le cadre d\u2019un programme d\u2019\u00e9tudes postsecondaires dans la sp\u00e9cialit\u00e9 demand\u00e9e. Une combinaison acceptable d\u2019\u00e9tudes, de formation et/ou d\u2019exp\u00e9rience peut tenir lieu de sp\u00e9cialisation.</p>\n<p><strong><br>La personne id\u00e9ale poss\u00e8de l\u2019exp\u00e9rience et les connaissances essentielles suivantes :</strong><br>\nExp\u00e9rience de la direction de projets assortis d\u2019\u00e9ch\u00e9ances serr\u00e9es.<br>\nExp\u00e9rience de l\u2019\u00e9laboration d\u2019analyses des politiques, de documents d\u2019orientation ou de recherches ax\u00e9es sur les politiques.<br>\nExp\u00e9rience de la production de documents d\u2019information pour la haute direction (SMA ou niveau sup\u00e9rieur), y compris des conseils ou des recommandations strat\u00e9giques sur des enjeux \u00e9conomiques, sociaux ou environnementaux.<br>\nExp\u00e9rience de la collaboration \u00e0 des dossiers horizontaux avec des partenaires et des intervenants, y compris l\u2019industrie, d\u2019autres minist\u00e8res f\u00e9d\u00e9raux, des minist\u00e8res provinciaux, des organisations nationales ou internationales ou encore des organismes du portefeuille.<br>\nConnaissance des priorit\u00e9s, des objectifs, de la structure et des processus d\u2019AAC.</p>\n<p><strong><br>Qualifications constituant un atout </strong><br>\nExp\u00e9rience de travail avec des programmes de GRE ou des initiatives strat\u00e9giques (autres que les programmes de GRE).Exp\u00e9rience de la participation \u00e0 des groupes de travail multidisciplinaires.<br>\nExp\u00e9rience de travail avec les organismes centraux.<br>\nConnaissance de l\u2019agriculture primaire, y compris la gestion des risques.<br>\nConnaissance des principes, des pratiques, des techniques, des outils et des m\u00e9thodes se rapportant \u00e0 l\u2019\u00e9conomie, la sociologie ou la statistique.</p>\n<p><strong><br>Exigences linguistiques </strong><br>\nPoste bilingue, niveau BBB/BBB imp\u00e9ratif \u00e0 la nomination, anglais essentiel ou fran\u00e7ais essentiel</p>\n<p><strong><br>Conditions d\u2019emploi</strong><br>\nS\u00e9curit\u00e9 : Cote de s\u00e9curit\u00e9 de niveau \u00ab secret \u00bb.<br>\n\u00catre apte et dispos\u00e9 \u00e0 faire des heures suppl\u00e9mentaires \u00e0 court pr\u00e9avis.</p>\n<p><strong><br>Dossiers de candidature</strong><br>\nLes employ\u00e9s d\u2019AAC int\u00e9ress\u00e9s sont encourag\u00e9s \u00e0 faire parvenir leur curriculum vitae et une lettre de pr\u00e9sentation \u00e0 Pr\u00e9scille Lebrun par courriel au\u00a0<a href=\"prescille.lebrun@canada.ca\">prescille.lebrun@canada.ca</a>, et doivent d\u00e9montrer clairement dans leur LETTRE DE PR\u00c9SENTATION en quoi ils poss\u00e8dent les qualifications essentielles et les qualifications constituant un atout applicables. Ils doivent \u00e9galement indiquer clairement dans la lettre de pr\u00e9sentation : la dur\u00e9e de leur emploi (c.-\u00e0-d. d\u00e9termin\u00e9e ou ind\u00e9termin\u00e9e), leur groupe et niveau de titularisation, leur profil linguistique et leur cote de s\u00e9curit\u00e9.</p>\n<p>\u00a0</p>\n\n"
    },
    "breadcrumb": {
        "en": "Deputy Director",
        "fr": "Directeur adjoint ou directrice adjointe"
    },
    "empl": {
        "type": {
            "en": "Assignment, Acting",
            "fr": "Affectation, Int\u00e9rimaire"
        },
        "classification": {
            "en": "EC-7 and equivalent",
            "fr": "EC-7 et \u00e9quivalent"
        },
        "branch": {
            "en": "Strategic Policy Branch",
            "fr": "Direction g\u00e9n\u00e9rale des politiques strat\u00e9giques"
        },
        "locations": {
            "en": "National Capital Region (NCR)",
            "fr": "R\u00e9gion de la capitale nationale (RCN)"
        },
        "date_closing": {
            "en": "2020-09-04",
            "fr": "2020-09-04"
        },
        "open_to": {
            "en": "AAFC Employees at the EC-06 or EC-07 Group and level (and equivalents)",
            "fr": "Employ\u00e9s d\u2019AAC de groupe et niveau EC-06 ou EC-07 (et l\u2019\u00e9quivalent)"
        },
        "name": {
            "en": "Pr\u00e9scille Lebrun",
            "fr": "Pr\u00e9scille Lebrun"
        },
        "email": {
            "en": "prescille.lebrun@canada.ca",
            "fr": "prescille.lebrun@canada.ca"
        }
    }
}