{
    "dcr_id": "1599074579613",
    "lang": "en",
    "title": {
        "en": "September Edition of CUE Now Available",
        "fr": "Le num\u00e9ro de septembre de l'AIDE-M\u00c9MOIRE est maintenant en ligne"
    },
    "modified": "2020-09-03 00:00:00.0",
    "issued": "2020-09-03 00:00:00.0",
    "type_name": "intra-intra/news-nouv",
    "node_id": "1279030006975",
    "layout_name": null,
    "dc_date_created": "2020-09-02",
    "breadcrumb_label": "",
    "meta": {
        "issued": {
            "en": "2020-09-03",
            "fr": "2020-09-03"
        },
        "modified": {
            "en": "2020-09-03",
            "fr": "2020-09-03"
        },
        "format": {
            "en": "gcformat",
            "fr": "gcformat"
        },
        "title": {
            "en": "September Edition of CUE Now Available",
            "fr": "Le num\u00e9ro de septembre de l'AIDE-M\u00c9MOIRE est maintenant en ligne"
        },
        "subject": {
            "en": "communications",
            "fr": "communications"
        },
        "description": {
            "en": "The September edition of CUE: a quick reference tool is now available, in PDF (check out the new design) and HTML formats.",
            "fr": "Le num\u00e9ro de septembre de l'AIDE-M\u00c9MOIRE : un outil de r\u00e9f\u00e9rence rapide est maintenant disponible en format PDF (allez voir la nouvelle mise en page) et HTML."
        },
        "language": {
            "en": "eng",
            "fr": "fra"
        },
        "audience": {
            "en": "gcaudience",
            "fr": "gcaudience"
        },
        "creator": {
            "en": "Agriculture and Agri-Food Canada",
            "fr": "Agriculture et Agroalimentaire Canada"
        },
        "spatial": {
            "en": "gcregions",
            "fr": "gcregions"
        },
        "service": {
            "en": "AAFC_AgriSource",
            "fr": "AAC_AgriSource"
        },
        "accessRights": {
            "en": "3",
            "fr": "3"
        }
    },
    "body": {
        "en": "<br>\n<br>\n<p>The September edition of <strong><em>CUE</em></strong><strong><em>: a quick reference tool </em></strong>is now available, in <a href=\"http://intranet.agr.gc.ca/resources/prod/pdf/corp_comm_marketing/cue_am_09_2020_v1-eng.pdf\">PDF</a> (check out the new design) and <a href=\"http://intranet.agr.gc.ca/agrisource/eng?id=1597838893251\">HTML</a> formats. It includes the information you need at your fingertips, in a format that helps you deliver it to employees.</p>\n<p>Included in this edition:</p>\n<ul>\n<li>Charting the Way Forward Together: Information for Employees on Easing COVID-19 Restrictions</li>\n<li>2020-21 Performance Agreements and Learning Plans</li>\n<li>Government of Canada Secure Remote Access Service</li>\n<li>GCcollaboration and Microsoft Office 365</li>\n<li>Covid-19 Response</li>\n</ul>\n<p><img src=\"https://intranet.agr.gc.ca/resources/prod/news/images/CUE-BANNER_EN.jpg\" class=\"center-block\"></p>\n\n\t\t",
        "fr": "<br>\n<br>\n<p>Le num\u00e9ro de septembre de l\u2019<strong><em>AIDE-M\u00c9MOIRE </em></strong><strong><em>: un outil de r\u00e9f\u00e9rence rapide </em></strong>est maintenant disponible en format <a href=\"http://intranet.agr.gc.ca/resources/prod/pdf/corp_comm_marketing/cue_am_09_2020_v1-fra.pdf\">PDF</a> (allez voir la nouvelle mise en page) et <a href=\"http://intranet.agr.gc.ca/agrisource/fra?id=1597838893251\">HTML</a>. Il vous donne l\u2019information dont vous avez besoin, dans un format qui vous aide \u00e0 la communiquer aux employ\u00e9s.</p>\n<p>Dans ce num\u00e9ro :</p>\n<ul>\n<li>Tra\u00e7ons ensemble la voie \u00e0 suivre : Renseignements \u00e0 l\u2019intention des employ\u00e9s sur l\u2019assouplissement des restrictions li\u00e9es \u00e0 la COVID-19</li>\n<li>Ententes de rendement et plans d\u2019apprentissage 2020-2021</li>\n<li>Service d\u2019acc\u00e8s \u00e0 distance prot\u00e9g\u00e9 du gouvernement du Canada</li>\n<li>GCcollab et Microsoft Office 365</li>\n<li>R\u00e9ponse \u00e0 la COVID-19</li>\n</ul>\n<p><img src=\"https://intranet.agr.gc.ca/resources/prod/news/images/CUE-BANNER_FR.jpg\" class=\"center-block\"></p>\n\t\t"
    },
    "breadcrumb": {
        "en": "September Edition of CUE Now Available",
        "fr": "Le num\u00e9ro de septembre de l'AIDE-M\u00c9MOIRE est maintenant en ligne"
    },
    "news": {
        "date_posted": {
            "en": "2020-09-03",
            "fr": "2020-09-03"
        },
        "to": {
            "en": "All staff",
            "fr": "Tous les employ\u00e9s"
        },
        "by": {
            "en": "Public Affairs Branch",
            "fr": "Direction g\u00e9n\u00e9rale des affaires publiques"
        }
    }
}