{
    "dcr_id": "1599586388804",
    "lang": "en",
    "title": {
        "en": "Policy and Data Analyst",
        "fr": "Analyste des politiques et des donn\u00e9es"
    },
    "modified": "2020-09-21 00:00:00.0",
    "issued": "2020-09-09 00:00:00.0",
    "type_name": "intra-intra/empl-empl",
    "node_id": "1279029955397",
    "layout_name": null,
    "dc_date_created": "2020-09-08",
    "breadcrumb_label": "",
    "meta": {
        "issued": {
            "en": "2020-09-09",
            "fr": "2020-09-09"
        },
        "modified": {
            "en": "2020-09-21",
            "fr": "2020-09-21"
        },
        "format": {
            "en": "gcformat",
            "fr": "gcformat"
        },
        "title": {
            "en": "Policy and Data Analyst",
            "fr": "Analyste des politiques et des donn\u00e9es"
        },
        "subject": {
            "en": "staffing",
            "fr": "dotation en personnel"
        },
        "language": {
            "en": "eng",
            "fr": "fra"
        },
        "audience": {
            "en": "gcaudience",
            "fr": "gcaudience"
        },
        "type": {
            "en": "notice",
            "fr": "avis"
        },
        "creator": {
            "en": "Agriculture and Agri-Food Canada",
            "fr": "Agriculture et Agroalimentaire Canada"
        },
        "spatial": {
            "en": "gcregions",
            "fr": "gcregions"
        },
        "service": {
            "en": "AAFC_AgriSource",
            "fr": "AAC_AgriSource"
        },
        "accessRights": {
            "en": "3",
            "fr": "3"
        }
    },
    "body": {
        "en": "\n<div>\n<div><strong>\u00a0</strong></div>\nEmployees of Agriculture and Agri-Food Canada at the EC-02, EC-03, or EC-04 level are invited to express interest in an assignment opportunity at the Farm Products Council of Canada, Regulatory and Sectoral Affairs. The anticipated period of the assignment is between 6 and 12 months.</div>\n<div>\u00a0</div>\n<div><strong>Are you looking for?</strong></div>\n<ul>\n<li><strong>Experience in </strong><strong>analysis and interpretation</strong> of complex legislative and regulatory information from different jurisdictions (provincial and federal)?</li>\n<li><strong>Developing your skills to communicate</strong> and work with different federal and provincial organizations?</li>\n<li><strong>Contributing your analytical thinking</strong> to the development of new knowledge on the regulatory process, data base development and data analysis?</li>\n</ul>\n<div>The candidate will have strong analytical skills, data analysis and data base development experience; and must be detail-oriented. He/she will be able to establish and maintain a network and have the ability to work with federal, provincial and industry stakeholders. Specific tasks include the preparation of documents required for the regulatory process, frequent communication with federal, provincial and industry stakeholders and data management and analysis.</div>\n<div>\u00a0</div>\n<div><strong>What we offer:</strong></div>\n<div>\u00a0</div>\n<div>A twofold opportunity to develop your competencies</div>\n<div>\u00a0</div>\n<ol>\n<li>\n<div>Regulatory</div>\n<div>\u00a0</div>\n</li>\n</ol>\n\n<ul>\n<li>Research and assessment of regulatory instruments to ensure consistency, coherence and development of recommendations for amendments;</li>\n</ul>\n<div>\u00a0</div>\n<ul>\n<li>Liaison with provincial and federal agricultural authorities, Justice Canada and Treasury Board Secretariat throughout the regulatory process and preparation of all necessary documentation and reports;</li>\n</ul>\n<div>\u00a0</div>\n<ul>\n<li>Development of recommendations for regulatory amendments which allow for the correction of any identified problems.</li>\n</ul>\n<div>\u00a0</div>\n<ul>\n<li>Development and preparation of discussion papers, briefing notes, presentations, regulatory amendments, triage and RIAS statements and editing and production of schedules and reports.</li>\n</ul>\n<div>\u00a0\u00a0</div>\n<p>\u00a0\u00a0\u00a0\u00a0\u00a02.\u00a0 Data analysis</p>\n<p>\u00a0</p>\n<ul>\n<li>Research, validation, presentation and evaluation of information and use of databases as well as analysis;</li>\n</ul>\n<div>\u00a0</div>\n<ul>\n<li>Identification, monitoring, integration and reporting of information and data on relevant trends, issues and developments and assessment of the significance and implication to agricultural sectors.</li>\n</ul>\n<div>\u00a0</div>\n<div>The candidate must have some basic understanding of working with data and relevant software as well as strong communication and writing skills, good judgement and initiative. Applicants should possess the developed capacity to work as a member of a team readily sharing information and knowledge and the capacity to work independently.</div>\n<div>\u00a0</div>\n<div><strong>About Farm Products Council of Canada</strong></div>\n<div>The Farm Products Council of Canada is an oversight body which provides oversight of the national supply management agencies for poultry and eggs, as well as the supervision of national promotion and research agencies for farm products reporting to the Minister of Agriculture and Agri-food. In addition, the FPCC has also been charged with administering the Agricultural Products Marketing Act (APMA) on behalf of Agri-Food and Agriculture Canada (AAFC). The APMA allows the federal government to delegate its authorities over interprovincial and export trade to provincial commodity boards on a wide range of farm products.</div>\n<div>\u00a0</div>\n<div>FPCC is located on the Experimental Farm and as a small federal organization, offers a friendly work environment where employees competencies can make a real difference.</div>\n<div>\u00a0</div>\n<div><strong>Applications:</strong></div>\n<div>If you are interested in this position, please provide:</div>\n<ul>\n<li>A short letter (2 pages maximum) expressing the reason for your interest, and outlining the skills and experience that you would bring to the position;</li>\n<li>Your resume;</li>\n<li>Your substantive group and level;</li>\n<li>Security clearance</li>\n</ul>\n<div>\u00a0</div>\n<div>Notes:</div>\n<ul>\n<li>Communication for this process will be sent via email</li>\n<li>Candidates may be assessed through an informal interview</li>\n<li>A written exam may be administered</li>\n<li>Reference checks may be sought</li>\n</ul>\n<div>\u00a0</div>\n<div>Interested employees are encouraged to forward their resume and cover letter to Bill Edwardson at william.edwardson@canada.ca</div>\n<div>\u00a0</div>\n<div>If you have any questions or would like more information, please contact Bill Edwardson at <a href=\"mailto:william.edwardson@canada.ca\">william.edwardson@canada.ca</a>.</div>\n<div>\u00a0</div>\n",
        "fr": "\n<p>\u00a0</p>\n<p>Les employ\u00e9s d\u2019Agriculture et Agroalimentaire Canada qui occupent un poste EC-02, EC-03 ou EC-04 sont invit\u00e9s \u00e0 faire part de leur int\u00e9r\u00eat pour une possibilit\u00e9 d\u2019affectation au Conseil des produits agricoles du Canada, Affaires r\u00e8glementaires et sectorielles. La p\u00e9riode pr\u00e9vue de l\u2019affectation est de 6 \u00e0 12 mois.</p>\n<p>\u00a0</p>\n<p><strong>Vous cherchez \u00e0..</strong></p>\n<p>\u00a0</p>\n<ul>\n<li><strong>Acqu\u00e9rir de l\u2019exp\u00e9rience dans l\u2019analyse et l\u2019interpr\u00e9tation</strong> de textes l\u00e9gislatifs et r\u00e9glementaires complexes provenant de diff\u00e9rentes administrations provinciales et f\u00e9d\u00e9rales ?</li>\n<li><strong>D\u00e9velopper vos capacit\u00e9 \u00e0 communiquer et collaborer</strong> avec diff\u00e9rentes organisations provinciales et f\u00e9d\u00e9rales ?</li>\n<li><strong>Mettre votre capacit\u00e9 de r\u00e9flexion analytique</strong> au profit de l\u2019acquisition de nouvelles connaissances sur le processus r\u00e9glementaire, l\u2019analyse de donn\u00e9es et de la conception de bases de donn\u00e9es?</li>\n</ul>\n<p>\u00a0</p>\n<p>Le titulaire doit poss\u00e9der de solides comp\u00e9tences en analyse et faire preuve de minutie. Il doit \u00eatre en mesure d\u2019\u00e9tablir et de maintenir un r\u00e9seau, ainsi que de travailler avec les intervenants des gouvernements f\u00e9d\u00e9ral et provinciaux et de l\u2019industrie. Les t\u00e2ches particuli\u00e8res comprennent la pr\u00e9paration des documents exig\u00e9s pour le processus de r\u00e9glementation, les communications fr\u00e9quentes avec les intervenants des gouvernements f\u00e9d\u00e9ral et provinciaux et de l\u2019industrie, ainsi que la gestion et l\u2019analyse des donn\u00e9es.</p>\n<p>\u00a0</p>\n<p><strong>Ce que nous avons \u00e0 offrir : </strong></p>\n<p>\u00a0</p>\n<p>Un emploi comportant 2 volets pour d\u00e9velopper vos comp\u00e9tences</p>\n<p>\u00a0</p>\n<ol>\n<li>\n<p>R\u00e9glementation</p>\n<p>\u00a0</p>\n</li>\n</ol>\n\n<ul>\n<li>Recherche et \u00e9valuation d\u2019instruments r\u00e9glementaires pour assurer l\u2019uniformit\u00e9, la coh\u00e9rence et l\u2019\u00e9laboration de recommandations de modifications;</li>\n</ul>\n<p>\u00a0</p>\n<ul>\n<li>Liaison avec les autorit\u00e9s agricoles provinciales et f\u00e9d\u00e9rales, Justice Canada et le Secr\u00e9tariat du Conseil du Tr\u00e9sor tout au long du processus de r\u00e9glementation et pr\u00e9paration de tous les documents et rapports n\u00e9cessaires;</li>\n</ul>\n<p>\u00a0</p>\n<ul>\n<li>\u00c9laboration de recommandations de modifications r\u00e9glementaires qui permettent de corriger tout probl\u00e8me relev\u00e9;</li>\n</ul>\n<p>\u00a0</p>\n<ul>\n<li>\u00c9laboration et pr\u00e9paration de documents de travail, de notes d\u2019information, de pr\u00e9sentations, de modifications r\u00e9glementaires, d\u2019\u00e9nonc\u00e9s de triage et de r\u00e9sum\u00e9s de l\u2019\u00e9tude d\u2019impact de la r\u00e9glementation (REIR), et r\u00e9vision et production d\u2019annexes et de rapports.</li>\n</ul>\n<p>\u00a0</p>\n<p>\u00a0\u00a0\u00a0\u00a0 2. Analyse des donn\u00e9es</p>\n<p>\u00a0</p>\n<ol>\n</ol>\n\n<ul>\n<li>Recherche, validation, pr\u00e9sentation et \u00e9valuation des informations et utilisation des bases de donn\u00e9es ainsi que l\u2019analyse;</li>\n</ul>\n<p>\u00a0</p>\n<ul>\n<li>Identification, suivi, int\u00e9gration et communication d\u2019informations et de donn\u00e9es sur les tendances, enjeux et d\u00e9veloppements pertinents et \u00e9valuation de leur importance et de leur incidence sur les secteurs agricoles.</li>\n</ul>\n<p>\u00a0</p>\n<p>\u00a0</p>\n<p>Le candidat doit avoir une bonne connaissance du travail avec des donn\u00e9es et des logiciels pertinents ainsi que de solides comp\u00e9tences en communication et en r\u00e9daction, un bon jugement et de l\u2019initiative. Les candidats doivent avoir une capacit\u00e9 sup\u00e9rieure de travailler en tant que membre d\u2019une \u00e9quipe partageant volontiers des renseignements et des connaissances et la capacit\u00e9 de travailler de mani\u00e8re ind\u00e9pendante.</p>\n<p>\u00a0</p>\n<p>\u00a0</p>\n<p><strong>\u00c0 propos du Conseil des produits agricoles du Canada</strong></p>\n<p>Le Conseil des produits agricoles du Canada (CPAC) est une organisation charg\u00e9e de surveiller les offices canadiens de gestion de l\u2019offre des volailles et des \u0153ufs, ainsi que de superviser les organismes nationaux de promotion et de recherche des produits agricoles qui rel\u00e8vent du ministre de l\u2019Agriculture et de l\u2019Agroalimentaire. En outre, le CPAC est responsable de l\u2019administration de la LCPA au nom du minist\u00e8re de l\u2019Agriculture et de l\u2019Agroalimentaire du Canada (AAC). La LCPA permet au gouvernement f\u00e9d\u00e9ral de d\u00e9l\u00e9guer ses pouvoirs \u00e0 des offices provinciaux de commercialisation en ce qui concerne le commerce interprovincial et l\u2019exportation d\u2019une vaste gamme de produits agricoles.</p>\n<p>\u00a0</p>\n<p>Situ\u00e9 sur la Ferme exp\u00e9rimentale centrale, le CPAC, en tant que petite organisation f\u00e9d\u00e9rale, offre un milieu de travail convivial o\u00f9 les comp\u00e9tences des employ\u00e9s peuvent faire une r\u00e9elle diff\u00e9rence.</p>\n<p>\u00a0</p>\n<p><strong>Candidature</strong></p>\n<p>Si le poste vous int\u00e9resse, veuillez fournir ce qui suit :</p>\n<ul>\n<li>une courte lettre (d\u2019au plus deux pages) dans laquelle vous expliquez pourquoi ce poste vous int\u00e9resse et pr\u00e9sentez les comp\u00e9tences et l\u2019exp\u00e9rience que vous mettriez \u00e0 profit</li>\n<li>votre curriculum vit\u00e6</li>\n<li>votre groupe et niveau</li>\n<li>Votre cote de s\u00e9curit\u00e9</li>\n</ul>\n<p>Remarques</p>\n<ul>\n<li>Les communications pour ce processus seront envoy\u00e9es par courriel.</li>\n<li>Les candidats peuvent \u00eatre \u00e9valu\u00e9s dans le cadre d\u2019une entrevue informelle.</li>\n<li>Les candidats pourraient devoir passer un examen \u00e9crit.</li>\n<li>Les r\u00e9f\u00e9rences pourraient faire l\u2019objet d\u2019une v\u00e9rification.</li>\n</ul>\n<p>\u00a0</p>\n<p>\u00a0</p>\n<p>Les employ\u00e9s int\u00e9ress\u00e9s sont invit\u00e9s \u00e0 faire parvenir leur curriculum vit\u00e6 accompagn\u00e9 d\u2019une lettre de pr\u00e9sentation (250 mots) \u00e0 Bill Edwardson \u00e0 l\u2019adresse suivante : william.edwardson@canada.ca</p>\n<p>\u00a0</p>\n<p>Si vous avez des questions ou d\u00e9sirez plus d\u2019informations, veuillez communiquer avec Bill Edwardson par courriel, \u00e0 <a href=\"mailto:william.edwardson@canada.ca\">william.edwardson@canada.ca</a>.</p>\n<p>\u00a0</p>\n\n"
    },
    "breadcrumb": {
        "en": "Policy and Data Analyst",
        "fr": "Analyste des politiques et des donn\u00e9es"
    },
    "empl": {
        "type": {
            "en": "Assignment",
            "fr": "Affectation"
        },
        "classification": {
            "en": "EC-2, EC-3, EC-4 and equivalent",
            "fr": "EC-2, EC-3, EC-4 et \u00e9quivalent"
        },
        "branch": {
            "en": "Farm Products Council of Canada",
            "fr": "Conseil des produits agricoles du Canada"
        },
        "locations": {
            "en": "National Capital Region",
            "fr": "R\u00e9gion de la capitale nationale"
        },
        "date_closing": {
            "en": "2020-10-02",
            "fr": "2020-10-02"
        },
        "open_to": {
            "en": "ECDP participants at the EC-02, EC-03 and EC-04 level",
            "fr": "Participants au PPEC, niveaux EC-02, EC-03 et EC-04"
        },
        "name": {
            "en": "Bill Edwardson",
            "fr": "Bill Edwardson"
        },
        "email": {
            "en": "william.edwardson@canada.ca",
            "fr": "william.edwardson@canada.ca"
        }
    }
}