{
    "dcr_id": "1599580348772",
    "lang": "en",
    "title": {
        "en": "AAFC Week of Plant Health",
        "fr": "Semaine de la protection des v\u00e9g\u00e9taux d'AAC"
    },
    "modified": "2020-09-10 00:00:00.0",
    "issued": "2020-09-10 00:00:00.0",
    "type_name": "intra-intra/news-nouv",
    "node_id": "1279030006975",
    "layout_name": null,
    "dc_date_created": "2020-09-08",
    "breadcrumb_label": "",
    "meta": {
        "issued": {
            "en": "2020-09-10",
            "fr": "2020-09-10"
        },
        "modified": {
            "en": "2020-09-10",
            "fr": "2020-09-10"
        },
        "format": {
            "en": "gcformat",
            "fr": "gcformat"
        },
        "title": {
            "en": "AAFC Week of Plant Health",
            "fr": "Semaine de la protection des v\u00e9g\u00e9taux d'AAC"
        },
        "subject": {
            "en": "communications",
            "fr": "communications"
        },
        "description": {
            "en": "This year we are hosting our first ever AAFC Week of Plant Health!",
            "fr": "Cette ann\u00e9e, nous organisons la toute premi\u00e8re Semaine de la protection des v\u00e9g\u00e9taux d'AAC!"
        },
        "language": {
            "en": "eng",
            "fr": "fra"
        },
        "audience": {
            "en": "gcaudience",
            "fr": "gcaudience"
        },
        "creator": {
            "en": "Agriculture and Agri-Food Canada",
            "fr": "Agriculture et Agroalimentaire Canada"
        },
        "spatial": {
            "en": "gcregions",
            "fr": "gcregions"
        },
        "service": {
            "en": "AAFC_AgriSource",
            "fr": "AAC_AgriSource"
        },
        "accessRights": {
            "en": "3",
            "fr": "3"
        }
    },
    "body": {
        "en": "<br>\n<br>\n<p>This year we are hosting our first ever AAFC Week of Plant Health!</p>\n<p>Plants are the foundation of life on earth. Did you know that:</p>\n<ul>\n<li>Plants produce 98 percent of the oxygen we breathe, and more than 80 percent of the food we eat.</li>\n<li>For nearly half of the earth\u2019s population, plants are a primary source of income and support economic development. Humans use them to make clothes, shelter, medicines, and many other things that are essential to our lives. A threat to plant health is also a threat to the health and prosperity of people across the globe.</li>\n<li>In Canada, the agricultural sector is responsible for 1 in 8 jobs.</li>\n</ul>\n<p>As part of the AAFC Week of Plant Health, we will be hosting daily sessions on MS Teams covering a range of topics and featuring experts from AAFC and CFIA.</p>\n<p>Monday, September 21, 12:00 to 1:00 (ET):<strong> Plant Health in a Changing World</strong></p>\n<p>Tuesday, September 22, 12:00 to 12:45 (ET):<strong> </strong><strong>Biovigilance</strong></p>\n<p>Wednesday, September 23, 12:00 to 12:45 (ET):<strong> </strong><strong>Battling Pests from Near and Far</strong></p>\n<p>Thursday, September24, 12:00 to 12:45 (ET):<strong> </strong><strong>International Science Collaboration in Plant Health</strong></p>\n<p>Friday, September 25, 12:00 to 1:00 (ET):<strong> </strong><strong>Panel Discussion: The Future of Plant Health</strong></p>\n<p>Stay tuned for presenter details and MS Teams coordinates.</p>\n\n\t\t",
        "fr": "<br>\n<br>\n<p>Cette ann\u00e9e, nous organisons la toute premi\u00e8re Semaine de la protection des v\u00e9g\u00e9taux d\u2019AAC!</p>\n<p>Les plantes constituent le fondement de la vie sur Terre. Saviez-vous que...</p>\n<ul>\n<li>Les v\u00e9g\u00e9taux produisent 98 % de l\u2019oxyg\u00e8ne que nous respirons, et plus de 80 % des aliments que nous mangeons.</li>\n<li>Pour pr\u00e8s de la moiti\u00e9 de la population mondiale, les v\u00e9g\u00e9taux sont une source primaire de revenus et appuient le d\u00e9veloppement \u00e9conomique. Pour les humains, ils servent de v\u00eatements, d\u2019abri et de rem\u00e8des, en plus de nombreux autres \u00e9l\u00e9ments essentiels \u00e0 nos vies. Une menace pour les v\u00e9g\u00e9taux repr\u00e9sente \u00e9galement une menace pour la sant\u00e9 et la prosp\u00e9rit\u00e9 des gens du monde entier.</li>\n<li>Au Canada, 1 emploi sur 8 provient du secteur agricole.</li>\n</ul>\n<p>Dans le cadre de la semaine de la protection des v\u00e9g\u00e9taux d\u2019AAC, nous tiendrons des s\u00e9ances quotidiennes sur MS Teams pour couvrir une vaste gamme de sujets et pr\u00e9senter des experts d\u2019AAC et de l\u2019ACIA.</p>\n<p>Le lundi 21 septembre 2020, de 12 h \u00e0 13 h (HE) :<strong> La protection des v\u00e9g\u00e9taux dans un monde en constante \u00e9volution</strong></p>\n<p>Le mardi 22 septembre 2020, de 12 h \u00e0 12 h 45 (HE) :<strong> Biovigilance</strong></p>\n<p>Le mercredi 23 septembre 2020, de 12 h \u00e0 12 h 45 (HE) :<strong> La lutte antiparasitaire, de pr\u00e8s comme de loin</strong></p>\n<p>Le jeudi 24 septembre 2020, de 12 h \u00e0 12 h 45 (HE) :<strong> Collaboration scientifique internationale sur la protection des v\u00e9g\u00e9taux</strong></p>\n<p>Le vendredi 25 septembre 2020, de 12 h \u00e0 13 h (HE) :<strong> Discussion de groupe : l\u2019avenir de la protection des v\u00e9g\u00e9taux</strong></p>\n<p>Restez \u00e0 l\u2019affut pour en savoir davantage sur les pr\u00e9sentations et les coordonn\u00e9es MS Teams.</p>\n\t\t"
    },
    "breadcrumb": {
        "en": "AAFC Week of Plant Health",
        "fr": "Semaine de la protection des v\u00e9g\u00e9taux d'AAC"
    },
    "news": {
        "date_posted": {
            "en": "2020-09-10",
            "fr": "2020-09-10"
        },
        "to": {
            "en": "All staff",
            "fr": "Tous les employ\u00e9s"
        },
        "by": {
            "en": "Science and Technology Branch",
            "fr": "Direction g\u00e9n\u00e9rale des sciences et de la technologie"
        }
    }
}