{
    "dcr_id": "1599674067940",
    "lang": "en",
    "title": {
        "en": "GCSRA Update: Working Remotely Without Time Limitations",
        "fr": "Le point sur l'ADPGC : T\u00e9l\u00e9travailler sans contrainte de temps"
    },
    "modified": "2020-09-10 00:00:00.0",
    "issued": "2020-09-10 00:00:00.0",
    "type_name": "intra-intra/news-nouv",
    "node_id": "1279030006975",
    "layout_name": null,
    "dc_date_created": "2020-09-09",
    "breadcrumb_label": "",
    "meta": {
        "issued": {
            "en": "2020-09-10",
            "fr": "2020-09-10"
        },
        "modified": {
            "en": "2020-09-10",
            "fr": "2020-09-10"
        },
        "format": {
            "en": "gcformat",
            "fr": "gcformat"
        },
        "title": {
            "en": "GCSRA Update: Working Remotely Without Time Limitations",
            "fr": "Le point sur l'ADPGC : T\u00e9l\u00e9travailler sans contrainte de temps"
        },
        "subject": {
            "en": "communications",
            "fr": "communications"
        },
        "description": {
            "en": "The rollout of the Government of Canada Secure Remote Access (GCSRA) service, the new VPN service that allows you to remotely access the AAFC network, is almost finished.",
            "fr": "Le d\u00e9ploiement du syst\u00e8me d\u2019acc\u00e8s \u00e0 distance prot\u00e9g\u00e9 du gouvernement du Canada (ADPGC), le nouveau service qui vous permet d'acc\u00e9der \u00e0 distance au r\u00e9seau d'AAC, est presque termin\u00e9."
        },
        "language": {
            "en": "eng",
            "fr": "fra"
        },
        "audience": {
            "en": "gcaudience",
            "fr": "gcaudience"
        },
        "creator": {
            "en": "Agriculture and Agri-Food Canada",
            "fr": "Agriculture et Agroalimentaire Canada"
        },
        "spatial": {
            "en": "gcregions",
            "fr": "gcregions"
        },
        "service": {
            "en": "AAFC_AgriSource",
            "fr": "AAC_AgriSource"
        },
        "accessRights": {
            "en": "3",
            "fr": "3"
        }
    },
    "body": {
        "en": "<br>\n<br>\n<p>The rollout of the Government of Canada Secure Remote Access (GCSRA) service, the new VPN service that allows you to remotely access the AAFC network, is almost finished. While we are still helping a small group of employees with unique needs and issues, everyone who can should switch to GCSRA using the AnyConnect software to log into the network instead of the old Pulse Secure software.</p>\n<p>Instructions on how to connect are available offline in your Windows Start menu folder called Canada (GCSRA Quick Guide). You will need an AAFC-issued, Windows-based laptop or tablet, and your myKEY.</p>\n<p>With GCSRA, you:</p>\n<ul>\n<li><strong>don\u2019t have to adhere to the network access schedule</strong> and can access the network any time you want;</li>\n<li>won\u2019t experience any timeouts, and</li>\n<li>get a better performance.</li>\n</ul>\n<p>With GCSRA\u2019s great benefit of no time limitation on access, we were also able to replace the temporary GCcollaboration tool with the permanent M365 one, ensuring that:</p>\n<ul>\n<li>there are no gaps in service, and</li>\n<li>the permanent M365 tool satisfies important security and information management guidelines, protecting AAFC\u2019s valuable information and data.</li>\n</ul>\n<p>If you are unable to connect to GCSRA, contact IT Centre TI at 1-855-545-4411. For all other GCSRA issues, please submit requests using <a href=\"https://assystweb.agr.gc.ca/assystnet/#serviceOfferings/1578\">My IT Centre TI</a>. </p>\n<p>Once we address the outstanding issues employees have, we will discontinue Pulse Secure.</p>\n\n\t\t",
        "fr": "<br>\n<br>\n<p>Le d\u00e9ploiement du syst\u00e8me d\u2019acc\u00e8s \u00e0 distance prot\u00e9g\u00e9 du gouvernement du Canada (ADPGC), le nouveau service qui vous permet d\u2019acc\u00e9der \u00e0 distance au r\u00e9seau d\u2019AAC, est presque termin\u00e9. Tandis que nous continuons d\u2019aider un petit groupe d\u2019employ\u00e9s ayant des besoins et des probl\u00e8mes particuliers, tous ceux qui le peuvent doivent passer au syst\u00e8me d\u2019ADPGC en utilisant le logiciel AnyConnect au lieu de l\u2019ancien logiciel Pulse Secure pour se connecter au r\u00e9seau.</p>\n<p>Des instructions pour se connecter sont accessibles hors ligne dans le dossier Canada (ADPGC Guide de consultation rapide) de votre menu D\u00e9marrer de Windows. Vous aurez besoin d\u2019un ordinateur portable ou d\u2019une tablette d\u2019AAC fonctionnant sous Windows et de votre justificatif d\u2019identit\u00e9 maCL\u00c9.</p>\n<p>Gr\u00e2ce \u00e0 l\u2019ADPGC, vous :</p>\n<ul>\n<li><strong>n\u2019avez pas \u00e0 suivre le calendrier d\u2019acc\u00e8s au r\u00e9seau</strong> et pouvez acc\u00e9der au r\u00e9seau en tout temps;</li>\n<li>ne conna\u00eetrez pas de d\u00e9lais d\u2019attente;</li>\n<li>obtenez un meilleur rendement.</li>\n</ul>\n<p>\u00c9tant donn\u00e9 qu\u2019il n\u2019y a pas de contrainte de temps li\u00e9e au syst\u00e8me d\u2019ADPGC, nous avons pu aussi remplacer l\u2019outil GCcollaboration par l\u2019outil permanent M365 pour nous assurer :</p>\n<ul>\n<li>qu\u2019il n\u2019y a pas d\u2019\u00e9cart de service;</li>\n<li>que l\u2019outil permanent M365 satisfait aux lignes directrices importantes en mati\u00e8re de s\u00e9curit\u00e9 et de gestion de l\u2019information, de fa\u00e7on \u00e0 prot\u00e9ger les donn\u00e9es et les renseignements essentiels d\u2019AAC.</li>\n</ul>\n<p>Si vous ne pouvez vous connecter au syst\u00e8me d\u2019ADPGC, communiquez avec IT Centre TI au 1-855-545-4411. Pour tout autre probl\u00e8me li\u00e9 \u00e0 l\u2019ADPGC, veuillez soumettre vos demandes sur le portail <a href=\"https://assystweb.agr.gc.ca/assystnet/#serviceOfferings/1578\">Mon IT Centre TI</a>.</p>\n<p>Une fois que nous aurons r\u00e9gl\u00e9 les probl\u00e8mes en suspens des employ\u00e9s, nous d\u00e9sactiverons Pulse Secure.</p>\n\t\t"
    },
    "breadcrumb": {
        "en": "GCSRA Update: Working Remotely Without Time Limitations",
        "fr": "Le point sur l'ADPGC : T\u00e9l\u00e9travailler sans contrainte de temps"
    },
    "news": {
        "date_posted": {
            "en": "2020-09-10",
            "fr": "2020-09-10"
        },
        "to": {
            "en": "All staff",
            "fr": "Tous les employ\u00e9s"
        },
        "by": {
            "en": "Information Systems Branch",
            "fr": "Direction g\u00e9n\u00e9rale des syst\u00e8mes d\u2019information"
        }
    }
}