{
    "dcr_id": "1599570498259",
    "lang": "en",
    "title": {
        "en": "NCR - Reminders for Safe Evacuation of NHCAP ",
        "fr": "RCN - Rappels pour l'\u00e9vacuation s\u00e9curitaire du CACPA "
    },
    "modified": "2020-09-24 00:00:00.0",
    "issued": "2020-09-24 00:00:00.0",
    "type_name": "intra-intra/news-nouv",
    "node_id": "1279030006975",
    "layout_name": null,
    "dc_date_created": "2020-09-08",
    "breadcrumb_label": "",
    "meta": {
        "issued": {
            "en": "2020-09-24",
            "fr": "2020-09-24"
        },
        "modified": {
            "en": "2020-09-24",
            "fr": "2020-09-24"
        },
        "format": {
            "en": "gcformat",
            "fr": "gcformat"
        },
        "title": {
            "en": "NCR - Reminders for Safe Evacuation of NHCAP ",
            "fr": "RCN - Rappels pour l'\u00e9vacuation s\u00e9curitaire du CACPA "
        },
        "subject": {
            "en": "communications",
            "fr": "communications"
        },
        "description": {
            "en": "Your Building Emergency Evacuation Team (BEET) for the National Headquarters Complex (NHCAP) reminds you of the procedures for a safe emergency evacuation.",
            "fr": "L'\u00c9quipe d\u2019urgence et d'\u00e9vacuation de l'immeuble (EUEI) du Complexe de l'administration centrale (CACPA) vous rappelle la proc\u00e9dure d'\u00e9vacuation d'urgence s\u00e9curitaire."
        },
        "language": {
            "en": "eng",
            "fr": "fra"
        },
        "audience": {
            "en": "gcaudience",
            "fr": "gcaudience"
        },
        "creator": {
            "en": "Agriculture and Agri-Food Canada",
            "fr": "Agriculture et Agroalimentaire Canada"
        },
        "spatial": {
            "en": "gcregions",
            "fr": "gcregions"
        },
        "service": {
            "en": "AAFC_AgriSource",
            "fr": "AAC_AgriSource"
        },
        "accessRights": {
            "en": "3",
            "fr": "3"
        }
    },
    "body": {
        "en": "<br>\n<br>\n<p>Your Building Emergency Evacuation Team (BEET) for the National Headquarters Complex (NHCAP) reminds you of the procedures for a safe emergency evacuation.</p>\n<p>In the event of an evacuation:</p>\n<ul>\n<li>Remain calm;</li>\n<li>Do not use the elevators;</li>\n<li>Leave the building through the nearest and safest exit point;</li>\n<li>Refrain from using your mobile devices while descending stairs;</li>\n<li>Avoid bringing food or drink into the stairwells;</li>\n<li>Remain a safe distance away from the building at the designated rally points;</li>\n<li>Do not block emergency vehicles and crews; and,</li>\n<li>Wait for further instructions from Security and BEET Wardens\u00a0</li>\n</ul>\n<p>If time permits, ensure no classified information is visible or insecure in your office. Gather only necessary personal items such as a purse, wallet, keys, medication and jacket in the event that re-entry to the building is limited, delayed or denied by authorities.</p>\n<p>All non-emergency traffic will be redirected or stopped. Therefore, refrain from leaving the parking lot via a motor vehicle.</p>\n<h2><strong>Additional instructions due to COVID-19</strong></h2>\n<p>\n\tAs standard procedures continually evolve due to COVID-19 precautions, we must adapt our procedures as well. As such, certain extra steps and equipment will be needed for all BEET Wardens, as well as for all employees:</p>\n<ul>\n<li>\n\tEnsure you are wearing your mask when evacuating the building. Gloves may also be worn for additional precaution.</li>\n<li>While physical distancing is an essential step to avoid contracting COVID, during a building emergency, immediate evacuation takes precedence and it may not be possible to remain six feet from your fellow employees. This is why a mask is essential during an evacuation. Please focus on <strong>exiting</strong> the building safely via the stairwells.</li>\n</ul>\n<p>Once you have arrived outside and are heading to a rally point, please begin properly distancing again. Don\u2019t huddle closely at the rally point. There is sufficient space to stand apart, while remaining a safe distance from the building.</p>\n<p>For additional information, questions/concerns, or if you are interested in joining BEET, please contact <a href=\"mailto:aafc.nhcapbeet-cacpaeeui.aac@canada.ca\">aafc.nhcapbeet-cacpaeeui.aac@canada.ca</a>.</p>\n<p>\u00a0</p>\n\n\t\t",
        "fr": "<br>\n<br>\n<p>L\u2019\u00c9quipe d\u2019urgence et d\u2019\u00e9vacuation de l\u2019immeuble (EUEI) du Complexe de l\u2019administration centrale (CACPA) vous rappelle la proc\u00e9dure d\u2019\u00e9vacuation d\u2019urgence s\u00e9curitaire.</p>\n<p>En cas d\u2019\u00e9vacuation :</p>\n<ul>\n<li>Restez calme;</li>\n<li>N\u2019empruntez pas les ascenseurs;</li>\n<li>\u00c9vacuez l\u2019immeuble par la sortie la plus proche et la plus s\u00e9curitaire;</li>\n<li>Abstenez-vous d\u2019utiliser vos appareils mobiles en descendant l\u2019escalier;</li>\n<li>\u00c9vitez d\u2019apporter des aliments ou des boissons dans les cages d\u2019escalier;</li>\n<li>Demeurez \u00e0 une distance s\u00e9curitaire de l\u2019immeuble \u00e0 l\u2019un des points de rassemblement d\u00e9sign\u00e9s;</li>\n<li>Ne bloquez pas le passage aux v\u00e9hicules et aux \u00e9quipes d\u2019urgence;</li>\n<li>Attendez de recevoir d\u2019autres instructions des Services de s\u00e9curit\u00e9 et des agents de l\u2019EUEI.\u00a0</li>\n</ul>\n<p>Si vous avez le temps, assurez-vous qu\u2019il n\u2019y a pas de renseignements classifi\u00e9s \u00e0 la vue ou non prot\u00e9g\u00e9s dans votre bureau. N\u2019apportez que les effets personnels dont vous avez besoin (sac \u00e0 main, portefeuille, cl\u00e9s, m\u00e9dicaments et manteau) au cas o\u00f9 la rentr\u00e9e dans l\u2019immeuble serait restreinte, retard\u00e9e ou interdite par les autorit\u00e9s.</p>\n<p>Toute circulation non urgente sera redirig\u00e9e ou bloqu\u00e9e. Par cons\u00e9quent, ne tentez pas de sortir du stationnement dans un v\u00e9hicule.</p>\n<h2><strong>Instructions suppl\u00e9mentaires en raison de la COVID-19</strong></h2>\n<p>\nComme les proc\u00e9dures normalis\u00e9es \u00e9voluent continuellement en raison des pr\u00e9cautions prises dans le cadre de la COVID-19, nous devons aussi adapter nos proc\u00e9dures. Aussi, il faudra pr\u00e9voir des mesures et un \u00e9quipement suppl\u00e9mentaires pour les agents de l\u2019EUIE et pour les employ\u00e9s :</p>\n<ul>\n<li>\n\tPortez votre masque lorsque vous \u00e9vacuez l\u2019immeuble. Vous pourriez aussi porter des gants pour plus de pr\u00e9cautions.</li>\n<li>Bien que l\u2019\u00e9loignement physique soit une \u00e9tape essentielle pour \u00e9viter de contracter la COVID, en cas d\u2019urgence, l\u2019\u00e9vacuation imm\u00e9diate de l\u2019immeuble est prioritaire et il pourrait \u00eatre impossible de rester \u00e0 deux m\u00e8tres de vos coll\u00e8gues. C\u2019est pourquoi le port du masque est essentiel lors d\u2019une \u00e9vacuation. Veillez donc \u00e0 <strong>sortir</strong> de l\u2019immeuble en toute s\u00e9curit\u00e9 par les cages d\u2019escalier.</li>\n</ul>\n<p>Apr\u00e8s votre arriv\u00e9e \u00e0 l\u2019ext\u00e9rieur, dirigez-vous vers un point de rassemblement et reprenez vos distances. Ne vous serrez pas les uns contre les autres au point de rassemblement. Il y a suffisamment d\u2019espace pour maintenir l\u2019\u00e9loignement tout en \u00e9tant \u00e0 une distance s\u00e9curitaire de l\u2019immeuble.</p>\n<p>Si vous voulez plus de renseignements, si vous avez des questions ou pr\u00e9occupations ou si vous souhaitez vous joindre \u00e0 l\u2019EUEI, veuillez envoyer un courriel \u00e0 <a href=\"mailto:aafc.nhcapbeet-cacpaeeui.aac@canada.ca\">aafc.nhcapbeet-cacpaeeui.aac@canada.ca</a>.</p>\n\t\t"
    },
    "breadcrumb": {
        "en": "NCR - Reminders for Safe Evacuation of NHCAP",
        "fr": "RCN - Rappels pour l'\u00e9vacuation s\u00e9curitaire du CACPA"
    },
    "news": {
        "date_posted": {
            "en": "2020-09-24",
            "fr": "2020-09-24"
        },
        "to": {
            "en": "NCR only",
            "fr": "RCN seulement"
        },
        "by": {
            "en": "Departmental Security Services, Corporate Management Branch",
            "fr": "Services de s\u00e9curit\u00e9 minist\u00e9riels, Direction g\u00e9n\u00e9rale de la gestion int\u00e9gr\u00e9e"
        }
    }
}