{
    "dcr_id": "1600794865086",
    "lang": "en",
    "title": {
        "en": "Reminder - Scheduled Maintenance of ISB Services - October 1-4",
        "fr": "Rappel - Entretien pr\u00e9vu des services de la DGSI - Du 1 au 4 octobre"
    },
    "modified": "2020-09-30 00:00:00.0",
    "issued": "2020-09-24 00:00:00.0",
    "type_name": "intra-intra/news-nouv",
    "node_id": "1279030006975",
    "layout_name": null,
    "dc_date_created": "2020-09-23",
    "breadcrumb_label": "",
    "meta": {
        "issued": {
            "en": "2020-09-24",
            "fr": "2020-09-24"
        },
        "modified": {
            "en": "2020-09-30",
            "fr": "2020-09-30"
        },
        "format": {
            "en": "gcformat",
            "fr": "gcformat"
        },
        "title": {
            "en": "Reminder - Scheduled Maintenance of ISB Services - October 1-4",
            "fr": "Rappel - Entretien pr\u00e9vu des services de la DGSI - Du 1 au 4 octobre"
        },
        "subject": {
            "en": "communications",
            "fr": "communications"
        },
        "description": {
            "en": "Please be advised that preventative maintenance of ISB services will be performed between Thursday, October 1, and Sunday, October 4.",
            "fr": "Veuillez noter qu\u2019un entretien pr\u00e9ventif des services de la DGSI aura lieu entre le jeudi 1 et le dimanche 4 octobre."
        },
        "language": {
            "en": "eng",
            "fr": "fra"
        },
        "audience": {
            "en": "gcaudience",
            "fr": "gcaudience"
        },
        "creator": {
            "en": "Agriculture and Agri-Food Canada",
            "fr": "Agriculture et Agroalimentaire Canada"
        },
        "spatial": {
            "en": "gcregions",
            "fr": "gcregions"
        },
        "service": {
            "en": "AAFC_AgriSource",
            "fr": "AAC_AgriSource"
        },
        "accessRights": {
            "en": "3",
            "fr": "3"
        }
    },
    "body": {
        "en": "<br>\n<br>\n<p>Please be advised that preventative maintenance of ISB services will be performed between Thursday, October 1, and Sunday, October 4.<br>\n<br>\nThe following downtime is part of a management plan to upgrade our infrastructure systems. These measures are performed regularly to improve performance and to ensure that the department does not experience any outages that would affect employees and the delivery of our services.</p>\n<p>Consequently, the following services may not be available during the following periods:<br>\n<br>\n<strong>Thursday, October 1 \u2013 8:00\u00a0- 8:30 p.m. (ET)</strong></p>\n<ul>\n<li>AAFC Online</li>\n</ul>\n<p><strong>Friday, </strong><strong>October 2 \u2013 8:15 p.m. until Sunday, October 4 - 6:00 p.m. (ET)</strong></p>\n<ul>\n<li>Knowledge Workspace\n\t\n<ul style=\"list-style-type: disc;\">\n<li>Blueprint 2020 Blog</li>\n<li>Blueprint 2020 Process Improvement (Lean)</li>\n<li>Blueprint 2020 Dragons\u2019 Den</li>\n<li>Market Access Support System (MISB-MASS)</li>\n<li>Proposal Submission System (STB-PSS)</li>\n</ul>\n</li>\n</ul>\n<p>Should you have any questions or concerns, please do not hesitate to contact IT Centre TI.</p>\n<p><br>\n<br>\n<strong>IT Centre TI</strong><br>\nTelephone: 1-855-545-4411<br>\n<a href=\"http://myitcentreti-monitcentreti/\">My IT Centre TI</a></p>\n<p><img src=\"https://intranet.agr.gc.ca/resources/prod/news/images/ITCentreTI2.png\" class=\"center-block\"></p>\n\n\t\t",
        "fr": "<br>\n<br>\n<p>Veuillez noter qu\u2019un entretien pr\u00e9ventif des services de la DGSI aura lieu entre le jeudi 1 et le dimanche 4 octobre.<br>\n<br>\nLes interruptions suivantes sont pr\u00e9vues dans le cadre d\u2019un plan de gestion visant la mise \u00e0 niveau de nos syst\u00e8mes d\u2019infrastructure. Ces mesures sont prises r\u00e9guli\u00e8rement afin d\u2019am\u00e9liorer le rendement et d\u2019\u00e9viter que le Minist\u00e8re subisse des pannes qui pourraient nuire aux employ\u00e9s et \u00e0 la prestation de nos services.<br>\n<br>\nPar cons\u00e9quent, les services indiqu\u00e9s ci-dessous pourraient ne pas \u00eatre accessibles pendant les p\u00e9riodes indiqu\u00e9es :<br>\n<br>\n<strong>Le jeudi 1er octobre, de 20 h \u00e0 20 h 30 (HE)</strong></p>\n<ul>\n<li>AAC en direct</li>\n</ul>\n<p><strong>Du vendredi 2 octobre \u00e0 20 h 15 au dimanche 4 octobre \u00e0 18 h (HE)</strong></p>\n<ul>\n<li>Espace de travail du savoir\n\t\n<ul style=\"list-style-type: disc;\">\n<li>Blogue d\u2019Objectif 2020</li>\n<li>Am\u00e9lioration des processus d\u2019Objectif 2020 (all\u00e9g\u00e9)</li>\n<li>Objectif 2020 : Dans l\u2019oeil du dragon</li>\n<li>Syst\u00e8me de soutien de l\u2019acc\u00e8s aux march\u00e9s (SSAM-DGSIM)</li>\n<li>Syst\u00e8me de pr\u00e9sentation de propositions (SPP-DGST)</li>\n</ul>\n</li>\n</ul>\n<p>Si vous avez des questions ou des pr\u00e9occupations \u00e0 ce sujet, n\u2019h\u00e9sitez pas \u00e0 communiquer avec le IT Centre TI.</p>\n<p><br>\n<br>\n<strong>IT Centre TI</strong><br>\nT\u00e9l\u00e9phone : 1-855-545-4411<br>\n<a href=\"http://myitcentreti-monitcentreti/\">Mon IT Centre TI</a></p>\n<p><img src=\"https://intranet.agr.gc.ca/resources/prod/news/images/ITCentreTI2.png\" class=\"center-block\"></p>\n\t\t"
    },
    "breadcrumb": {
        "en": "Reminder - Scheduled Maintenance of ISB Services - October 1-4",
        "fr": "Rappel - Entretien pr\u00e9vu des services de la DGSI - Du 1 au 4 octobre"
    },
    "news": {
        "date_posted": {
            "en": "2020-09-24",
            "fr": "2020-09-24"
        },
        "to": {
            "en": "All staff",
            "fr": "Tous les employ\u00e9s"
        },
        "by": {
            "en": "IT Centre TI",
            "fr": "IT Centre TI"
        }
    }
}