{
    "dcr_id": "1600789820432",
    "lang": "en",
    "title": {
        "en": "Celebrating Gender Equality Week",
        "fr": "C\u00e9l\u00e9brer la Semaine de l'\u00e9galit\u00e9 des sexes"
    },
    "modified": "2020-09-23 00:00:00.0",
    "issued": "2020-09-23 00:00:00.0",
    "type_name": "intra-intra/news-nouv",
    "node_id": "1279030006975",
    "layout_name": null,
    "dc_date_created": "2020-09-23",
    "breadcrumb_label": "",
    "meta": {
        "issued": {
            "en": "2020-09-23",
            "fr": "2020-09-23"
        },
        "modified": {
            "en": "2020-09-23",
            "fr": "2020-09-23"
        },
        "format": {
            "en": "gcformat",
            "fr": "gcformat"
        },
        "title": {
            "en": "Celebrating Gender Equality Week",
            "fr": "C\u00e9l\u00e9brer la Semaine de l'\u00e9galit\u00e9 des sexes"
        },
        "subject": {
            "en": "communications",
            "fr": "communications"
        },
        "description": {
            "en": "This week, Canada is celebrating its third annual Gender Equality Week.",
            "fr": "Cette semaine, le Canada c\u00e9l\u00e8bre sa troisi\u00e8me Semaine de l'\u00e9galit\u00e9 des sexes."
        },
        "language": {
            "en": "eng",
            "fr": "fra"
        },
        "audience": {
            "en": "gcaudience",
            "fr": "gcaudience"
        },
        "creator": {
            "en": "Agriculture and Agri-Food Canada",
            "fr": "Agriculture et Agroalimentaire Canada"
        },
        "spatial": {
            "en": "gcregions",
            "fr": "gcregions"
        },
        "service": {
            "en": "AAFC_AgriSource",
            "fr": "AAC_AgriSource"
        },
        "accessRights": {
            "en": "3",
            "fr": "3"
        }
    },
    "body": {
        "en": "<br>\n<br>\n<p>This week, Canada is celebrating its third annual <a href=\"https://cfc-swc.gc.ca/commemoration/gew-ses/index-en.html?utm_source=wage_home&amp;utm_medium=feature&amp;utm_content=GEW2020&amp;utm_campaign=wage-en\">Gender Equality Week</a>. Passed in 2018, the <em>Gender Equality Week Act </em>identifies this week as an opportunity to raise awareness of the important contributions women and gender-diverse communities have made to the growth, development, character, and identity of Canada. Let\u2019s take some time to celebrate the significant achievements and accomplishments we\u2019ve made in advancing gender equality, and to reconfirm our commitment to addressing persistent gender-equality gaps in our country.</p>\n<p>This year, Gender Equality Week coincides with the 25th anniversary of the Beijing Declaration and Platform for Action, which sought to promote and protect all human rights and the fundamental freedoms of all women. With this milestone in mind, the theme for this year\u2019s Gender Equality Week is #<strong>BecauseOfYou</strong>. This hashtag reflects the hard work of so many people, here in Canada and around the world, who are working to advance gender equality in their communities and to ensure that the commitments made 25 years ago become a reality.</p>\n<p>This week at AAFC, we are celebrating the contributions of trailblazers, activists, and advocates who are finding powerful ways to advance gender equality in governments, boardrooms, families, and communities across the country. Let\u2019s be inclusive and proud of our culture at AAFC, where everyone is encouraged to be themselves.</p>\n<p>Join us this week and tell us a story about someone you know who has been a great advocate in advancing gender equality in your community at #BecauseOfYou #GCAggie.</p>\n<p>Thank you for supporting this year\u2019s Gender Equality Week campaign!</p>\n<p>\u00a0</p>\n<p><strong>Christine Walker and Michel Lessard<br></strong>AAFC Diversity and Inclusion Co-Champions</p>\n<p><img src=\"https://intranet.agr.gc.ca/resources/prod/news/images/GenderEqualityWeek2020.jpg\" class=\"center-block\"></p>\n\n\t\t",
        "fr": "<br>\n<br>\n<p>Cette semaine, le Canada c\u00e9l\u00e8bre sa troisi\u00e8me <a href=\"https://cfc-swc.gc.ca/commemoration/gew-ses/index-fr.html?utm_source=wage_home&amp;utm_medium=feature&amp;utm_content=GEW2020&amp;utm_campaign=wage-en\">Semaine de l\u2019\u00e9galit\u00e9 des sexes</a>. Adopt\u00e9e en 2018, la <em>Loi sur la Semaine de l\u2019\u00e9galit\u00e9 des sexes</em> fait de cette semaine une occasion de sensibiliser la population aux contributions importantes que les femmes et les communaut\u00e9s diversifi\u00e9es sur le plan du genre ont apport\u00e9es \u00e0 la croissance, au d\u00e9veloppement, au caract\u00e8re et \u00e0 l\u2019identit\u00e9 du Canada. Prenons un peu de temps pour c\u00e9l\u00e9brer les r\u00e9alisations et les succ\u00e8s importants que nous avons obtenus dans la promotion de l\u2019\u00e9galit\u00e9 des genres et pour reconfirmer notre engagement \u00e0 combler les \u00e9carts qui persistent dans notre pays \u00e0 cet \u00e9gard.</p>\n<p>Cette ann\u00e9e, la Semaine de l\u2019\u00e9galit\u00e9 des sexes co\u00efncide avec le 25e anniversaire de la D\u00e9claration et du Programme d\u2019action de Beijing, qui visaient \u00e0 promouvoir et \u00e0 prot\u00e9ger tous les droits humains et les libert\u00e9s fondamentales de toutes les femmes. Inspir\u00e9 de cette cible, le th\u00e8me de la Semaine de l\u2019\u00e9galit\u00e9 des sexes de cette ann\u00e9e est #<strong>Gr\u00e2ce\u00c0Vous</strong>. Ce mot-clic refl\u00e8te le travail acharn\u00e9 de tant de personnes, ici au Canada et dans le monde entier, qui s\u2019efforcent de faire progresser l\u2019\u00e9galit\u00e9 des sexes dans leurs communaut\u00e9s et de faire en sorte que les engagements pris il y a 25 ans deviennent r\u00e9alit\u00e9.</p>\n<p>Cette semaine \u00e0 AAC, nous c\u00e9l\u00e9brons les contributions des pionniers et des militants qui trouvent des moyens efficaces de faire progresser l\u2019\u00e9galit\u00e9 des sexes au sein des gouvernements, des conseils d\u2019administration, des familles et des communaut\u00e9s dans tout le pays. Soyons inclusifs et fiers de notre culture \u00e0 AAC, o\u00f9 chacun est encourag\u00e9 \u00e0 \u00eatre lui-m\u00eame.</p>\n<p>Joignez-vous \u00e0 nous cette semaine et racontez-nous l\u2019histoire d\u2019une personne que vous connaissez qui a \u00e9t\u00e9 un grand d\u00e9fenseur de l\u2019\u00e9galit\u00e9 des sexes dans votre communaut\u00e9 \u00e0 #Gr\u00e2ce\u00c0Vous #AgromaneGC.</p>\n<p>Nous vous remercions de soutenir la campagne men\u00e9e cette ann\u00e9e dans le cadre de la Semaine de l\u2019\u00e9galit\u00e9 des sexes!</p>\n<p>\u00a0</p>\n<p><strong>Christine Walker et Michel Lessard<br></strong>Co-champions de la diversit\u00e9 et de l\u2019inclusion d\u2019AAC</p>\n<p><img src=\"https://intranet.agr.gc.ca/resources/prod/news/images/GenderEqualityWeek2020.jpg\" class=\"center-block\"></p>\n\t\t"
    },
    "breadcrumb": {
        "en": "Celebrating Gender Equality Week",
        "fr": "C\u00e9l\u00e9brer la Semaine de l'\u00e9galit\u00e9 des sexes"
    },
    "news": {
        "date_posted": {
            "en": "2020-09-22",
            "fr": "2020-09-22"
        },
        "to": {
            "en": "All staff",
            "fr": "Tous les employ\u00e9s"
        },
        "by": {
            "en": "Christine Walker and Michel Lessard, AAFC Diversity and Inclusion Co-Champions",
            "fr": "Christine Walker et Michel Lessard, Co-champions de la diversit\u00e9 et de l\u2019inclusion d\u2019AAC"
        }
    }
}