{
    "dcr_id": "1600194228058",
    "lang": "en",
    "title": {
        "en": "This Month in Pay - New Issue Now Available",
        "fr": "Bulletin Mensuel sur la Paye - Nouveau num\u00e9ro maintenant disponible"
    },
    "modified": "2020-09-17 00:00:00.0",
    "issued": "2020-09-17 00:00:00.0",
    "type_name": "intra-intra/news-nouv",
    "node_id": "1279030006975",
    "layout_name": null,
    "dc_date_created": "2020-09-15",
    "breadcrumb_label": "",
    "meta": {
        "issued": {
            "en": "2020-09-17",
            "fr": "2020-09-17"
        },
        "modified": {
            "en": "2020-09-17",
            "fr": "2020-09-17"
        },
        "format": {
            "en": "gcformat",
            "fr": "gcformat"
        },
        "title": {
            "en": "This Month in Pay - New Issue Now Available",
            "fr": "Bulletin Mensuel sur la Paye - Nouveau num\u00e9ro maintenant disponible"
        },
        "subject": {
            "en": "communications",
            "fr": "communications"
        },
        "description": {
            "en": "In the September issue...",
            "fr": "Dans le num\u00e9ro de septembre :"
        },
        "language": {
            "en": "eng",
            "fr": "fra"
        },
        "audience": {
            "en": "gcaudience",
            "fr": "gcaudience"
        },
        "creator": {
            "en": "Agriculture and Agri-Food Canada",
            "fr": "Agriculture et Agroalimentaire Canada"
        },
        "spatial": {
            "en": "gcregions",
            "fr": "gcregions"
        },
        "service": {
            "en": "AAFC_AgriSource",
            "fr": "AAC_AgriSource"
        },
        "accessRights": {
            "en": "3",
            "fr": "3"
        }
    },
    "body": {
        "en": "<br>\n<br>\n<p>In the <a href=\"https://intranet.agr.gc.ca/agrisource/eng/human-resources/pay-benefits-and-phoenix/this-month-in-pay?id=1574773026999\">September\u00a0issue</a>:</p>\n<ul>\n<li><strong>Was your pay higher this month? </strong>Find out why.</li>\n<li><strong>Ready for retirement</strong> \u2013 This video series will take out the guesswork, regardless of where you are in your career.</li>\n<li><strong>Your employment in black and white </strong>\u2013 Proving your earnings has never been easier.</li>\n<li><strong>Our family is growing </strong>\u2013 Keep these two things in mind when planning a maternity or parental leave.</li>\n<li><strong>New stub design breaks down your pay</strong> \u2013 The new MyGCPay stub is coming.</li>\n<li><strong>Pay system changes on the horizon </strong>\u2013 PSPC plans to resolve more AAFC pay cases and speed up processing times, and we\u2019re keeping watch.</li>\n</ul>\n<p><img src=\"https://intranet.agr.gc.ca/resources/prod/news/images/PayBulletin-EN.png\" class=\"center-block\"></p>\n<ul>\n</ul>\n\n\t\t",
        "fr": "<br>\n<br>\n<p>Dans le <a href=\"https://intranet.agr.gc.ca/agrisource/fra/ressources-humaines/remuneration-avantages-sociaux-et-phenix/bulletin-mensuel-sur-la-paye?id=1574773026999\">num\u00e9ro de septembre</a>\u00a0:</p>\n<ul>\n<li><strong>Votre paye est-elle plus \u00e9lev\u00e9e ce mois-ci? </strong>\u2013 D\u00e9couvrez pourquoi.</li>\n<li><strong>Pr\u00eat pour la retraite </strong>\u2013 Gr\u00e2ce \u00e0 cette vid\u00e9o, ne vous perdez plus en conjectures, peu importe o\u00f9 vous en \u00eates dans votre carri\u00e8re.</li>\n<li><strong>Votre emploi noir sur blanc </strong>\u2013 Jamais il n\u2019aura \u00e9t\u00e9 aussi facile de prouver vos revenus.</li>\n<li><strong>Notre famille s\u2019agrandit</strong> \u2013 Deux choses \u00e0 ne pas oublier lorsque vous planifiez un cong\u00e9 de maternit\u00e9 ou un cong\u00e9 parental.</li>\n<li><strong>Ventilation de votre paye selon le nouveau talon de paye</strong> \u2013 Le nouveau talon de paye s\u2019en vient dans MaPayeGC.</li>\n<li><strong>Changements au syst\u00e8me de la paye \u00e0 l\u2019horizon </strong>\u2013 SPAC pr\u00e9voit r\u00e9gler plus de cas li\u00e9s \u00e0 la paye \u00e0 AAC et acc\u00e9l\u00e9rer les d\u00e9lais de traitement, et nous surveillons la situation.</li>\n</ul>\n<p><img src=\"https://intranet.agr.gc.ca/resources/prod/news/images/PayBulletin-FR.png\" class=\"center-block\"></p>\n<ul>\n</ul>\n\t\t"
    },
    "breadcrumb": {
        "en": "This Month in Pay - New Issue Now Available",
        "fr": "Bulletin Mensuel sur la Paye - Nouveau num\u00e9ro maintenant disponible"
    },
    "news": {
        "date_posted": {
            "en": "2020-09-17",
            "fr": "2020-09-17"
        },
        "to": {
            "en": "All staff",
            "fr": "Tous les employ\u00e9s"
        },
        "by": {
            "en": "Corporate Management Branch",
            "fr": "Direction g\u00e9n\u00e9rale de la gestion int\u00e9gr\u00e9e"
        }
    }
}