{
    "dcr_id": "1600710764161",
    "lang": "en",
    "title": {
        "en": "2020-2021 Employee and Executive Performance Agreements",
        "fr": "Ententes de rendement des employ\u00e9s et des cadres sup\u00e9rieurs pour l'exercice 2020-2021"
    },
    "modified": "2020-09-24 00:00:00.0",
    "issued": "2020-09-24 00:00:00.0",
    "type_name": "intra-intra/news-nouv",
    "node_id": "1279030006975",
    "layout_name": null,
    "dc_date_created": "2020-09-21",
    "breadcrumb_label": "",
    "meta": {
        "issued": {
            "en": "2020-09-24",
            "fr": "2020-09-24"
        },
        "modified": {
            "en": "2020-09-24",
            "fr": "2020-09-24"
        },
        "format": {
            "en": "gcformat",
            "fr": "gcformat"
        },
        "title": {
            "en": "2020-2021 Employee and Executive Performance Agreements",
            "fr": "Ententes de rendement des employ\u00e9s et des cadres sup\u00e9rieurs pour l'exercice 2020-2021"
        },
        "subject": {
            "en": "communications",
            "fr": "communications"
        },
        "description": {
            "en": "The deadline to complete Beginning-Year and Mid-Year PMAs has been extended to October 31, 2020.",
            "fr": "La date limite pour remplir les ententes de rendement de d\u00e9but d'exercice et de mi-exercice a \u00e9t\u00e9 repouss\u00e9e au 31 octobre 2020."
        },
        "language": {
            "en": "eng",
            "fr": "fra"
        },
        "audience": {
            "en": "gcaudience",
            "fr": "gcaudience"
        },
        "creator": {
            "en": "Agriculture and Agri-Food Canada",
            "fr": "Agriculture et Agroalimentaire Canada"
        },
        "spatial": {
            "en": "gcregions",
            "fr": "gcregions"
        },
        "service": {
            "en": "AAFC_AgriSource",
            "fr": "AAC_AgriSource"
        },
        "accessRights": {
            "en": "3",
            "fr": "3"
        }
    },
    "body": {
        "en": "<br>\n<br>\n<p>The deadline to complete Beginning-Year and Mid-Year PMAs has been extended to <b>October 31, 2020.</b></p>\n<p>We recommend managers hold conversations with their employees that cover the Beginning and Mid-Year phases and complete both within the Public Service Performance Management Application or Executive Talent Management System (ETMS).</p>\n<p>During these unique circumstances, managers should focus on Corporate Commitments and one to two individual commitments, based on the functional community and area of work. Comments should be kept at a high level.</p>\n<p>Communications on EX Performance Pay will be sent shortly.</p>\n<p>Should you need assistance to complete\u00a0 either of these activities, or if you need\u00a0 obtain completion reports for your direct reports, please contact Executive Services (<a href=\"mailto:aafc.egs-sgd.aac@canada.ca\">aafc.egs-sgd.aac@canada.ca</a>) or <a href=\"mailto:aafc.performance-rendement.aac@canada.ca\">aafc.performance-rendement.aac@canada.ca</a>.</p>\n\n\t\t",
        "fr": "<br>\n<br>\n<p>La date limite pour remplir les ententes de rendement de d\u00e9but d\u2019exercice et de mi-exercice a \u00e9t\u00e9 repouss\u00e9e au <b>31 octobre 2020</b>.</p>\n<p>Nous recommandons aux gestionnaires de tenir des conversations sur les ententes de rendement de d\u00e9but d\u2019exercice et de mi-exercice avec leurs employ\u00e9s et de remplir les ententes dans l\u2019application Gestion du rendement de la fonction publique ou le Syst\u00e8me de la gestion des talents des cadres sup\u00e9rieurs (SGTCS).</p>\n<p>Dans ces situations particuli\u00e8res, les gestionnaires doivent mettre l\u2019accent sur les engagements minist\u00e9riels et sur un ou deux engagements personnels en tenant compte de la collectivit\u00e9 fonctionnelle et du domaine de travail. Les commentaires doivent demeurer g\u00e9n\u00e9raux.</p>\n<p>Des avis concernant la r\u00e9mun\u00e9ration au rendement des cadres sup\u00e9rieurs (EX) seront envoy\u00e9s sous peu.</p>\n<p>Si vous avez besoin d\u2019aide pour effectuer l\u2019une ou l\u2019autre de ces activit\u00e9s ou souhaitez obtenir des rapports d\u2019ach\u00e8vement pour vos subalternes directs, veuillez envoyer un courriel \u00e0 Services aux ex\u00e9cutifs \u00e0\u00a0<a href=\"mailto:aafc.egs-sgd.aac@canada.ca\">aafc.egs-sgd.aac@canada.ca</a>\u00a0ou <a href=\"mailto:aafc.performance-rendement.aac@canada.ca\">aafc.performance-rendement.aac@canada.ca</a>.</p>\n<p>\u00a0</p>\n<p><br><br></p>\n<p>\n<br><br></p>\n\t\t"
    },
    "breadcrumb": {
        "en": "2020-2021 Employee and Executive Performance Agreements",
        "fr": "Ententes de rendement des employ\u00e9s et des cadres sup\u00e9rieurs pour l'exercice 2020-2021"
    },
    "news": {
        "date_posted": {
            "en": "2020-09-24",
            "fr": "2020-09-24"
        },
        "to": {
            "en": "All staff",
            "fr": "Tous les employ\u00e9s"
        },
        "by": {
            "en": "Human Resources, Corporate Management Branch",
            "fr": "Ressources humaines, Direction g\u00e9n\u00e9rale de la gestion int\u00e9gr\u00e9e"
        }
    }
}