{
    "dcr_id": "1600707673174",
    "lang": "en",
    "title": {
        "en": "Registration is Now Open for the Second Annual AAFC Bioinformatics Conference and Workshop (Virtual Event) ",
        "fr": "Inscription ouverte pour participer \u00e0 la deuxi\u00e8me \u00e9dition de la conf\u00e9rence et des ateliers annuels sur la bioinformatique d\u2019AAC (\u00e9v\u00e9nement virtuel) "
    },
    "modified": "2020-09-24 00:00:00.0",
    "issued": "2020-09-24 00:00:00.0",
    "type_name": "intra-intra/news-nouv",
    "node_id": "1279030006975",
    "layout_name": null,
    "dc_date_created": "2020-09-21",
    "breadcrumb_label": "Registration is Now Open for the Second Annual AAFC Bioinformatics Conference and Workshop (Virtual",
    "meta": {
        "issued": {
            "en": "2020-09-24",
            "fr": "2020-09-24"
        },
        "modified": {
            "en": "2020-09-24",
            "fr": "2020-09-24"
        },
        "format": {
            "en": "gcformat",
            "fr": "gcformat"
        },
        "title": {
            "en": "Registration is Now Open for the Second Annual AAFC Bioinformatics Conference and Workshop (Virtual Event) ",
            "fr": "Inscription ouverte pour participer \u00e0 la deuxi\u00e8me \u00e9dition de la conf\u00e9rence et des ateliers annuels sur la bioinformatique d\u2019AAC (\u00e9v\u00e9nement virtuel) "
        },
        "subject": {
            "en": "communications",
            "fr": "communications"
        },
        "description": {
            "en": "The AAFC Bioinformatics Research Support Network (BRSN) will be hosting its Second Annual Bioinformatics Conference and Workshop on Wednesday October 28 and Thursday October 29, 2020.",
            "fr": "Le r\u00e9seau de soutien \u00e0 la recherche en bioinformatique (RSRB) d'AAC tiendra la deuxi\u00e8me \u00e9dition de la conf\u00e9rence et des ateliers annuels sur la bioinformatique le mercredi 28 octobre et le jeudi 29 octobre 2020."
        },
        "language": {
            "en": "eng",
            "fr": "fra"
        },
        "audience": {
            "en": "gcaudience",
            "fr": "gcaudience"
        },
        "creator": {
            "en": "Agriculture and Agri-Food Canada",
            "fr": "Agriculture et Agroalimentaire Canada"
        },
        "spatial": {
            "en": "gcregions",
            "fr": "gcregions"
        },
        "service": {
            "en": "AAFC_AgriSource",
            "fr": "AAC_AgriSource"
        },
        "accessRights": {
            "en": "3",
            "fr": "3"
        }
    },
    "body": {
        "en": "<br>\n<br>\n<p>The AAFC Bioinformatics Research Support Network (BRSN) will be hosting its Second Annual Bioinformatics Conference and Workshop on Wednesday October 28 and Thursday October 29, 2020.</p>\n<p>This virtual, two-day event will be featuring keynote speakers, oral presentations and virtual hands-on training workshops. Topics include:</p>\n<ul>\n<li>current and proposed infrastructure to support bioinformatics research within AAFC</li>\n<li>bioinformatics initiatives at AAFC</li>\n<li>research highlights on the application of bioinformatics in agricultural research: deep learning sequences analysis, large genome assembly, boosting genomic selection accuracy, etc.</li>\n<li>hands-on introductory and advanced workshop sessions on Biocluster, Linux, R, amplicon sequencing data analysis, RNA-seq data analysis using nf-core pipeline, etc.</li>\n</ul>\n<h2>\n<strong>Event information</strong></h2>\n<p>\n<strong>Date</strong>: October 28-29, 2020<br><strong>Cost: </strong> Free for all AAFC employees (staff and students)<br><strong>Registration</strong>: <a href=\"https://forms.office.com/Pages/ResponsePage.aspx?id=sYupnVcYw0yHUZpJ410kzcJIdRw2z6RCgtX9LSPC4mFUQjU5UDI2TVM3SDRTOEExM0VRMjEzUkc2Ri4u\">Click link to registration form</a> <br><strong>Conference page</strong>: <a href=\"https://www.gcpedia.gc.ca/wiki/BioinfoConf2020\">BioInfoConf2020</a></p>\n<p>\nLive attendance is encouraged, but some recorded sessions may be made available for later viewing.</p>\n<p>For further information, email: <a href=\"mailto:aafc.bioinfosupport.aac@canada.ca\">aafc.bioinfosupport.aac@canada.ca</a>.</p>\n<ul>\n</ul>\n<p>\u00a0</p>\n\n\t\t",
        "fr": "<br>\n<br>\n<p>Le r\u00e9seau de soutien \u00e0 la recherche en bioinformatique (RSRB) d\u2019AAC tiendra la deuxi\u00e8me \u00e9dition de la conf\u00e9rence et des ateliers annuels sur la bioinformatique le mercredi 28 octobre et le jeudi 29 octobre 2020.</p>\n<p>Cet \u00e9v\u00e9nement virtuel de deux jours pr\u00e9voit des conf\u00e9renciers invit\u00e9s, des pr\u00e9sentations orales et des ateliers de formation pratique virtuels. Sujets trait\u00e9s :</p>\n<ul>\n<li>Infrastructure actuelle et propos\u00e9e pour appuyer la recherche en bioinformatique au sein d\u2019AAC</li>\n<li>Initiatives en bioinformatique \u00e0 AAC</li>\n<li>Aper\u00e7u de la recherche sur l\u2019application de la bioinformatique en recherche agricole : apprentissage approfondi, analyse de la s\u00e9quence, assemblage d\u2019un grand g\u00e9nome, renforcement de l\u2019exactitude de la s\u00e9lection g\u00e9nomique, etc.</li>\n<li>Ateliers de base et ateliers avanc\u00e9s pratiques sur Biocluster, Linux, R, analyse des donn\u00e9es de s\u00e9quen\u00e7age d\u2019amplicons, analyse des donn\u00e9es de s\u00e9quen\u00e7age de l\u2019ARN \u00e0 l\u2019aide des pipelines de nf-core, etc.</li>\n</ul>\n<h2>\n<strong>Renseignements sur l\u2019\u00e9v\u00e9nement </strong></h2>\n<p>\n<strong>Date</strong> : Les 28 et 29 octobre 2020<br><strong>Frais : </strong>Offert gratuitement \u00e0 tous les employ\u00e9s d\u2019AAC (employ\u00e9s et \u00e9tudiants)<br><strong>Inscription :</strong> <a href=\"https://forms.office.com/Pages/ResponsePage.aspx?id=sYupnVcYw0yHUZpJ410kzcJIdRw2z6RCgtX9LSPC4mFUQjU5UDI2TVM3SDRTOEExM0VRMjEzUkc2Ri4u\">Cliquer sur le lien pour acc\u00e9der au formulaire d\u2019inscription</a>\u00a0<br><strong>Page de la conf\u00e9rence </strong>: <a href=\"https://www.gcpedia.gc.ca/wiki/BioinfoConf2020?setlang=fr&amp;uselang=fr\">BioInfoConf2020</a></p>\n<p>\nVous \u00eates invit\u00e9s \u00e0 participer en personne, mais certaines s\u00e9ances enregistr\u00e9es pourraient \u00eatre rendues disponibles pour \u00eatre visionn\u00e9es plus tard.</p>\n<p>\nPour de plus amples renseignements, veuillez \u00e9crire \u00e0 l\u2019adresse suivante : <a href=\"mailto:aafc.bioinfosupport.aac@canada.ca\">aafc.bioinfosupport.aac@canada.ca</a>.</p>\n<p>\u00a0</p>\n<ul>\n</ul>\n<p>\u00a0</p>\n\t\t"
    },
    "breadcrumb": {
        "en": "Registration is Now Open for the Second Annual AAFC Bioinformatics Conference and Workshop (Virtual",
        "fr": "Inscription ouverte pour participer \u00e0 la deuxi\u00e8me \u00e9dition de la conf\u00e9rence et des ateliers annuels sur la bioinformatique d\u2019AAC (\u00e9v\u00e9nement virtuel)"
    },
    "news": {
        "date_posted": {
            "en": "2020-09-24",
            "fr": "2020-09-24"
        },
        "to": {
            "en": "All staff",
            "fr": "Tous les employ\u00e9s"
        },
        "by": {
            "en": "Fran\u00e7ois Eudes, Director RDT",
            "fr": "Fran\u00e7ois Eudes, directeur RDT"
        }
    }
}