{
    "dcr_id": "1600184252900",
    "lang": "en",
    "title": {
        "en": "AAFC Week of Plant Health",
        "fr": "Semaine de la protection des v\u00e9g\u00e9taux d'AAC"
    },
    "modified": "2020-09-17 00:00:00.0",
    "issued": "2020-09-17 00:00:00.0",
    "type_name": "intra-intra/news-nouv",
    "node_id": "1279030006975",
    "layout_name": null,
    "dc_date_created": "2020-09-15",
    "breadcrumb_label": "",
    "meta": {
        "issued": {
            "en": "2020-09-17",
            "fr": "2020-09-17"
        },
        "modified": {
            "en": "2020-09-17",
            "fr": "2020-09-17"
        },
        "format": {
            "en": "gcformat",
            "fr": "gcformat"
        },
        "title": {
            "en": "AAFC Week of Plant Health",
            "fr": "Semaine de la protection des v\u00e9g\u00e9taux d'AAC"
        },
        "subject": {
            "en": "communications",
            "fr": "communications"
        },
        "description": {
            "en": "Join us on MS Teams for the first ever AAFC Week of Plant Health!",
            "fr": "Joignez-vous \u00e0 nous sur MS Teams pour la toute premi\u00e8re semaine de la protection des v\u00e9g\u00e9taux d'AAC!"
        },
        "language": {
            "en": "eng",
            "fr": "fra"
        },
        "audience": {
            "en": "gcaudience",
            "fr": "gcaudience"
        },
        "creator": {
            "en": "Agriculture and Agri-Food Canada",
            "fr": "Agriculture et Agroalimentaire Canada"
        },
        "spatial": {
            "en": "gcregions",
            "fr": "gcregions"
        },
        "service": {
            "en": "AAFC_AgriSource",
            "fr": "AAC_AgriSource"
        },
        "accessRights": {
            "en": "3",
            "fr": "3"
        }
    },
    "body": {
        "en": "<br>\n<br>\n<p>Plants are the foundation of life on earth. Did you know that:</p>\n<ul>\n<li>Plants produce 98 percent of the oxygen we breathe, and more than 80 percent of the food we eat.</li>\n<li>For nearly half of the earth\u2019s population, plants are a primary source of income and support economic development. Humans use them to make clothes, shelter, medicines, and many other things that are essential to our lives. A threat to plant health is also a threat to the health and prosperity of people across the globe.</li>\n<li>In Canada, the agricultural sector is responsible for 1 in 8 jobs.</li>\n</ul>\n<p>Join us on MS Teams for the first ever AAFC Week of Plant Health! Each day, from September 21 to 25, 2020, we will have different experts talking about how their work adds to the Government of Canada\u2019s achievements in plant health science and policy.</p>\n<ul>\n<li>Monday, Sept. 21, 12:00 to 1:00 ET:<strong> Plant Health in a Changing World</strong> - Donald Boucher, Dr. Thomas Fetch. (Opening remarks by Dr. Gilles Saindon.) <a target=\"_blank\" href=\"https://teams.microsoft.com/l/meetup-join/19%3ameeting_ZmQ1MDUyZjEtNjAzYS00ZjFhLTk0ZmUtODVhNmQ1OTJkMTdk%40thread.v2/0?context=%7b%22Tid%22%3a%229da98bb1-1857-4cc3-8751-9a49e35d24cd%22%2c%22Oid%22%3a%2287ad2d0b-e2e1-4778-9e87-e2f7179685ac%22%7d\">Join Microsoft Teams Meeting</a></li>\n<li>Tuesday, Sept. 22, 12:00 to 12:45 ET:<strong> Biovigilance</strong> - Dr. Odile Carisse, Dr. Mamadou L. Fall. (Opening remarks by Dr. Benoit Girard.) <a target=\"_blank\" href=\"https://teams.microsoft.com/l/meetup-join/19%3ameeting_NGU3Y2M1NjUtMGU4Ni00NDBjLTllYzItMDU4Zjg1OTE1ZjZi%40thread.v2/0?context=%7b%22Tid%22%3a%229da98bb1-1857-4cc3-8751-9a49e35d24cd%22%2c%22Oid%22%3a%2287ad2d0b-e2e1-4778-9e87-e2f7179685ac%22%7d\">Join Microsoft Teams Meeting</a> </li>\n<li>Wednesday, Sept. 23, 12:00 to 12:45 ET:<strong> Battling Pests from Near and Far</strong> - Dr. Marcos Alvarez, Dr. Meghan Vankosky. (Opening remarks by Dr. Michele Marcotte.) <a target=\"_blank\" href=\"https://teams.microsoft.com/l/meetup-join/19%3ameeting_YzIxMTUyMjgtMGRmNi00NTMzLWI0NWUtNDA5NTQ3MDk4Mjlh%40thread.v2/0?context=%7b%22Tid%22%3a%229da98bb1-1857-4cc3-8751-9a49e35d24cd%22%2c%22Oid%22%3a%2287ad2d0b-e2e1-4778-9e87-e2f7179685ac%22%7d\">Join Microsoft Teams Meeting</a> </li>\n<li>Thursday, Sept. 24, 12:00 to 12:45 ET:<strong> International Science Collaboration in Plant Health</strong> - Dr. Ian Campbell, Dr. Jos\u00e9 \u00darbez Torres. (Opening remarks by Alana Yuill.) <a target=\"_blank\" href=\"https://teams.microsoft.com/l/meetup-join/19%3ameeting_MmY5NDlkZGUtYjdmNC00MjlhLWJmN2QtZTI4YzA3NGFmMWY3%40thread.v2/0?context=%7b%22Tid%22%3a%229da98bb1-1857-4cc3-8751-9a49e35d24cd%22%2c%22Oid%22%3a%2287ad2d0b-e2e1-4778-9e87-e2f7179685ac%22%7d\">Join Microsoft Teams Meeting</a> </li>\n<li>Friday, Sept. 25, 12:00 to 1:00 ET:<strong> Panel Discussion: The Future of Plant Health</strong> \u2013 Dr. Pierre Bilodeau (CFIA \u2013 opening remarks), Dr. Colin Hiebert, Dr. Tyler Wist, Dr. Loren Matheson (CFIA), Dr. Moses Iziomon, Dr. \u00c9tienne Lepage. (Closing remarks by Dr. Liz Foster.) <a target=\"_blank\" href=\"https://teams.microsoft.com/l/meetup-join/19%3ameeting_Yjc2OTVkOGUtZjYzMy00MjI4LTg2M2ItNzI2MzI3Mzc3NWJj%40thread.v2/0?context=%7b%22Tid%22%3a%229da98bb1-1857-4cc3-8751-9a49e35d24cd%22%2c%22Oid%22%3a%2287ad2d0b-e2e1-4778-9e87-e2f7179685ac%22%7d\">Join Microsoft Teams Meeting</a></li>\n</ul>\n<p>There will be an opportunity for questions and answers at the end of every virtual session. The last day will feature a panel and more opportunities for interactive discussion.</p>\n<p>Please feel free to spread the word to your colleagues at AAFC and the Canadian Food Inspection Agency (CFIA). We hope to see you there!</p>\n\n\t\t",
        "fr": "<br>\n<br>\n<p>Les plantes constituent le fondement de la vie sur Terre. Saviez-vous que . . .</p>\n<ul>\n<li>Les v\u00e9g\u00e9taux produisent 98 pour cent de l\u2019oxyg\u00e8ne que nous respirons, et plus de 80 % des aliments que nous mangeons.</li>\n<li>Pour pr\u00e8s de la moiti\u00e9 de la population mondiale, les v\u00e9g\u00e9taux sont une source primaire de revenus et appuient le d\u00e9veloppement \u00e9conomique. Pour les humains, ils servent de v\u00eatements, d\u2019abri et de rem\u00e8des, en plus de nombreux autres \u00e9l\u00e9ments essentiels \u00e0 nos vies. Une menace pour les v\u00e9g\u00e9taux repr\u00e9sente \u00e9galement une menace pour la sant\u00e9 et la prosp\u00e9rit\u00e9 des gens du monde entier.</li>\n<li>Au Canada, 1 emploi sur 8 provient du secteur agricole.</li>\n</ul>\n<p>Joignez-vous \u00e0 nous sur MS Teams pour la toute premi\u00e8re semaine de la protection des v\u00e9g\u00e9taux d\u2019AAC! Chaque jour, du 21 au 25 septembre 2020, diff\u00e9rents experts viendront nous parler de la fa\u00e7on dont leurs travaux s\u2019ajoutent aux r\u00e9alisations du gouvernement du Canada en mati\u00e8re de science et de strat\u00e9gie de protection des v\u00e9g\u00e9taux.</p>\n<ul>\n<li>Le lundi 21 septembre 2020, de 12 h \u00e0 13 h (HAE) :<strong> La protection des v\u00e9g\u00e9taux dans un monde en constante \u00e9volution</strong> - Donald Boucher, Thomas Fetch (Ph.D.) (Mot d\u2019ouverture de Gilles Saindon [Ph.D.]) <a href=\"https://teams.microsoft.com/l/meetup-join/19%3ameeting_ZmQ1MDUyZjEtNjAzYS00ZjFhLTk0ZmUtODVhNmQ1OTJkMTdk%40thread.v2/0?context=%7b%22Tid%22%3a%229da98bb1-1857-4cc3-8751-9a49e35d24cd%22%2c%22Oid%22%3a%2287ad2d0b-e2e1-4778-9e87-e2f7179685ac%22%7d\">Se joindre \u00e0 la r\u00e9union Microsoft Teams</a> </li>\n<li>Le mardi 22 septembre 2020, de 12 h \u00e0 12 h 45 (HAE) :<strong> Biovigilance</strong> - Odile Carisse (Ph.D.), Mamadou L. Fall (Ph.D.) (Mot d\u2019ouverture de Benoit Girard [Ph.D.]) <a href=\"https://teams.microsoft.com/l/meetup-join/19%3ameeting_NGU3Y2M1NjUtMGU4Ni00NDBjLTllYzItMDU4Zjg1OTE1ZjZi%40thread.v2/0?context=%7b%22Tid%22%3a%229da98bb1-1857-4cc3-8751-9a49e35d24cd%22%2c%22Oid%22%3a%2287ad2d0b-e2e1-4778-9e87-e2f7179685ac%22%7d\">Se joindre \u00e0 la r\u00e9union Microsoft Teams</a> </li>\n<li>Le mercredi 23 septembre 2020, de 12 h \u00e0 12 h 45 (HAE) :<strong> La lutte antiparasitaire de pr\u00e8s ou de loin</strong> - Marcos Alvarez (Ph.D.), Meghan Vankosky (Ph.D.) (Mot d\u2019ouverture de Mich\u00e8le Marcotte [Ph.D.]) <a href=\"https://teams.microsoft.com/l/meetup-join/19%3ameeting_YzIxMTUyMjgtMGRmNi00NTMzLWI0NWUtNDA5NTQ3MDk4Mjlh%40thread.v2/0?context=%7b%22Tid%22%3a%229da98bb1-1857-4cc3-8751-9a49e35d24cd%22%2c%22Oid%22%3a%2287ad2d0b-e2e1-4778-9e87-e2f7179685ac%22%7d\">Se joindre \u00e0 la r\u00e9union Microsoft Teams</a> </li>\n<li>Le jeudi 24 septembre 2020, de 12 h \u00e0 12 h 45 (HAE) :<strong> Collaboration scientifique \u00e0 l\u2019\u00e9chelle internationale sur la protection des v\u00e9g\u00e9taux</strong> - Ian Campbell (Ph.D.), Jos\u00e9 \u00darbez Torres (Ph.D.) (Mot d\u2019ouverture d\u2019Alana Yuill) <a href=\"https://teams.microsoft.com/l/meetup-join/19%3ameeting_MmY5NDlkZGUtYjdmNC00MjlhLWJmN2QtZTI4YzA3NGFmMWY3%40thread.v2/0?context=%7b%22Tid%22%3a%229da98bb1-1857-4cc3-8751-9a49e35d24cd%22%2c%22Oid%22%3a%2287ad2d0b-e2e1-4778-9e87-e2f7179685ac%22%7d\">Se joindre \u00e0 la r\u00e9union Microsoft Teams</a> </li>\n<li>Le vendredi 25 septembre 2020, de 12 h \u00e0 13 h (HAE) :<strong> Discussion de groupe : L\u2019avenir de la protection des v\u00e9g\u00e9taux </strong>\u2013 Pierre Bilodeau (Ph.D.) (ACIA \u2013 mot d\u2019ouverture), Colin Hiebert (Ph.D.), Tyler Wist (Ph.D.), Loren Matheson (Ph.D.)(ACIA), Moses Iziomon (Ph.D.), \u00c9tienne Lepage (Ph.D.) (Mot de cl\u00f4ture de Liz Foster [Ph.D.]) <a href=\"https://teams.microsoft.com/l/meetup-join/19%3ameeting_Yjc2OTVkOGUtZjYzMy00MjI4LTg2M2ItNzI2MzI3Mzc3NWJj%40thread.v2/0?context=%7b%22Tid%22%3a%229da98bb1-1857-4cc3-8751-9a49e35d24cd%22%2c%22Oid%22%3a%2287ad2d0b-e2e1-4778-9e87-e2f7179685ac%22%7d\">Se joindre \u00e0 la r\u00e9union Microsoft Teams</a> </li>\n</ul>\n<p>Chaque s\u00e9ance virtuelle sera suivie d\u2019une p\u00e9riode de questions. Le dernier jour comprendra une s\u00e9ance de groupe, ainsi que de plus amples possibilit\u00e9s de discussion interactive.</p>\n<p>N\u2019h\u00e9sitez pas \u00e0 parler de ces s\u00e9ances \u00e0 vos coll\u00e8gues d\u2019AAC et de l\u2019Agence canadienne d\u2019inspection des aliments (ACIA). Au plaisir de vous y voir!</p>\n\t\t"
    },
    "breadcrumb": {
        "en": "AAFC Week of Plant Health",
        "fr": "Semaine de la protection des v\u00e9g\u00e9taux d'AAC"
    },
    "news": {
        "date_posted": {
            "en": "2020-09-17",
            "fr": "2020-09-17"
        },
        "to": {
            "en": "All staff",
            "fr": "Tous les employ\u00e9s"
        },
        "by": {
            "en": "Science and Technology Branch",
            "fr": "La Direction g\u00e9n\u00e9rale des sciences et de la technologie"
        }
    }
}