{
    "dcr_id": "1601917941641",
    "lang": "en",
    "title": {
        "en": "Scheduled Maintenance of ISB Services - October 8 and 14",
        "fr": "Entretien pr\u00e9vu des services de la DGSI - 8 et 14 octobre"
    },
    "modified": "2020-10-08 00:00:00.0",
    "issued": "2020-10-07 00:00:00.0",
    "type_name": "intra-intra/news-nouv",
    "node_id": "1279030006975",
    "layout_name": null,
    "dc_date_created": "2020-10-05",
    "breadcrumb_label": "",
    "meta": {
        "issued": {
            "en": "2020-10-07",
            "fr": "2020-10-07"
        },
        "modified": {
            "en": "2020-10-08",
            "fr": "2020-10-08"
        },
        "format": {
            "en": "gcformat",
            "fr": "gcformat"
        },
        "title": {
            "en": "Scheduled Maintenance of ISB Services - October 8 and 14",
            "fr": "Entretien pr\u00e9vu des services de la DGSI - 8 et 14 octobre"
        },
        "subject": {
            "en": "communications",
            "fr": "communications"
        },
        "description": {
            "en": "Please be advised that preventative maintenance of ISB services will be performed between Thursday, October 8, and Wednesday, October 14.",
            "fr": "Veuillez prendre note qu\u2019un entretien pr\u00e9ventif des services de la DGSI aura lieu entre le jeudi 8 et le mercredi 14 octobre."
        },
        "language": {
            "en": "eng",
            "fr": "fra"
        },
        "audience": {
            "en": "gcaudience",
            "fr": "gcaudience"
        },
        "creator": {
            "en": "Agriculture and Agri-Food Canada",
            "fr": "Agriculture et Agroalimentaire Canada"
        },
        "spatial": {
            "en": "gcregions",
            "fr": "gcregions"
        },
        "service": {
            "en": "AAFC_AgriSource",
            "fr": "AAC_AgriSource"
        },
        "accessRights": {
            "en": "3",
            "fr": "3"
        }
    },
    "body": {
        "en": "<br>\n<br>\n<p>Please be advised that preventative maintenance of ISB services will be performed between Thursday, October 8, and Wednesday, October 14.<br>\n<br>\nThe following downtime is part of a management plan to upgrade our infrastructure systems. These measures are performed regularly to improve performance and to ensure that the department does not experience any outages that would affect employees and the delivery of our services.<br>\n<br>\nConsequently, the following services may not be available during the following periods:</p>\n<p><strong>Thursday, October 8 \u2013 7:00 - 7:30 p.m. (ET)</strong></p>\n<ul>\n<li>AAFC Online</li>\n</ul>\n<p><strong>Wednesday, </strong><strong>October 14 \u2013 8:00 -11:00 p.m. (ET)</strong></p>\n<ul>\n<li>AgriApps</li>\n</ul>\n<p>Should you have any questions or concerns, please do not hesitate to contact IT Centre TI.</p>\n<p>\u00a0</p>\n<p><strong>IT Centre TI</strong><br>\nTelephone: 1-855-545-4411<br>\n<a href=\"http://myitcentreti-monitcentreti/\">My IT Centre TI</a></p>\n<p><img src=\"https://intranet.agr.gc.ca/resources/prod/news/images/ITCentreTI2.png\" class=\"center-block\"></p>\n\n\t\t",
        "fr": "<br>\n<br>\n<p>Veuillez prendre note qu\u2019un entretien pr\u00e9ventif des services de la DGSI aura lieu entre le jeudi 8 et le mercredi 14 octobre.</p>\n<p>L\u2019interruption suivante fait partie d\u2019un plan de gestion pour mettre \u00e0 niveau nos syst\u00e8mes d\u2019infrastructure. Ces mesures sont prises r\u00e9guli\u00e8rement afin d\u2019am\u00e9liorer le rendement et d\u2019\u00e9viter que le Minist\u00e8re subisse des pannes qui pourraient nuire aux employ\u00e9s et \u00e0 la prestation de nos services.<br>\n<br>\nPar cons\u00e9quent, les services indiqu\u00e9s ci-dessous pourraient ne pas \u00eatre accessibles pendant les p\u00e9riodes indiqu\u00e9es :</p>\n<p><strong>Jeudi 1 octobre, de 19 h \u00e0 19 h 30 (HE)</strong></p>\n<ul>\n<li>AAC en direct</li>\n</ul>\n<p><strong>Mercredi 14 octobre, de 20 h \u00e0 23 h (HE)</strong></p>\n<ul>\n<li>AgriApps</li>\n</ul>\n<p>Si vous avez des questions ou des pr\u00e9occupations \u00e0 ce sujet, n\u2019h\u00e9sitez pas \u00e0 communiquer avec le IT Centre TI.</p>\n<p>\u00a0</p>\n<p><strong>IT Centre TI</strong><br>\nT\u00e9l\u00e9phone : 1-855-545-4411<br>\n<a href=\"http://myitcentreti-monitcentreti/\">Mon IT Centre TI</a></p>\n<p><img src=\"https://intranet.agr.gc.ca/resources/prod/news/images/ITCentreTI2.png\" class=\"center-block\"></p>\n<p>\u00a0</p>\n\t\t"
    },
    "breadcrumb": {
        "en": "Scheduled Maintenance of ISB Services - October 8 and 14",
        "fr": "Entretien pr\u00e9vu des services de la DGSI - 8 et 14 octobre"
    },
    "news": {
        "date_posted": {
            "en": "2020-10-08",
            "fr": "2020-10-08"
        },
        "to": {
            "en": "All staff",
            "fr": "Tous les employ\u00e9s"
        },
        "by": {
            "en": "IT Centre TI",
            "fr": "IT Centre TI"
        }
    }
}