{
    "dcr_id": "1601481523653",
    "lang": "en",
    "title": {
        "en": "Your Opportunity to Have a Conversation with the Deputy Minister - October 14",
        "fr": "Voici votre chance d'avoir une conversation avec le sous-ministre - 14 octobre"
    },
    "modified": "2020-09-30 00:00:00.0",
    "issued": "2020-09-30 00:00:00.0",
    "type_name": "intra-intra/news-nouv",
    "node_id": "1279030006975",
    "layout_name": null,
    "dc_date_created": "2020-09-30",
    "breadcrumb_label": "",
    "meta": {
        "issued": {
            "en": "2020-09-30",
            "fr": "2020-09-30"
        },
        "modified": {
            "en": "2020-09-30",
            "fr": "2020-09-30"
        },
        "format": {
            "en": "gcformat",
            "fr": "gcformat"
        },
        "title": {
            "en": "Your Opportunity to Have a Conversation with the Deputy Minister - October 14",
            "fr": "Voici votre chance d'avoir une conversation avec le sous-ministre - 14 octobre"
        },
        "subject": {
            "en": "communications",
            "fr": "communications"
        },
        "description": {
            "en": "Our series of Conversations with the Deputies continues, and this time we are looking for AAFC students from the NCR and the regions to participate!",
            "fr": "Notre s\u00e9rie de conversations avec les sous-ministres se poursuit"
        },
        "language": {
            "en": "eng",
            "fr": "fra"
        },
        "audience": {
            "en": "gcaudience",
            "fr": "gcaudience"
        },
        "creator": {
            "en": "Agriculture and Agri-Food Canada",
            "fr": "Agriculture et Agroalimentaire Canada"
        },
        "spatial": {
            "en": "gcregions",
            "fr": "gcregions"
        },
        "service": {
            "en": "AAFC_AgriSource",
            "fr": "AAC_AgriSource"
        },
        "accessRights": {
            "en": "3",
            "fr": "3"
        }
    },
    "body": {
        "en": "<br>\n<br>\n<p>Our series of <em>Conversations with the Deputies</em> continues, and this time we are looking for AAFC students from the NCR and the regions to participate!</p>\n<p>These one-hour sessions are an opportunity for students from all corners of the department to meet face-to-face with our Deputy Ministers in an informal setting. Come and join in an open discussion with the Deputy Ministers where you will share your experiences and learn about your fellow students\u2019 work experiences. Students attending will be working from various branches to enable a learning experience for everyone.</p>\n<p>The next session will take place on <strong>Wednesday, October 14, from 1:00 to 2:00 p.m.<strong> (ET) </strong></strong>with the Deputy Minister, Chris Forbes, and will specifically focus on the students' experience working at AAFC.</p>\n<p>If you are a student and wish to attend, please submit your name, title and branch to <a href=\"mailto:aafc.dmcommunications-communicationssm.aac@canada.ca\">aafc.dmcommunications-communicationssm.aac@canada.ca</a> by <strong>October 8</strong>. Further details will be provided to participants through a meeting scheduler.</p>\n<p><img src=\"https://intranet.agr.gc.ca/resources/prod/news/images/SPROUTbanner2019.png\" class=\"center-block\" alt=\"\"></p>\n<p>\u00a0</p>\n\n\t\t",
        "fr": "<br>\n<br>\n<p>Notre s\u00e9rie de conversations avec les sous-ministres se poursuit. Cette fois-ci, nous lan\u00e7ons une invitation aux \u00e9tudiants d\u2019AAC dans la RCN et les r\u00e9gions.</p>\n<p>Ces s\u00e9ances d\u2019une heure offrent \u00e0 des \u00e9tudiants de tous les secteurs d\u2019activit\u00e9 du Minist\u00e8re l\u2019occasion de rencontrer notre sous-ministre dans un cadre informel. Venez prendre part \u00e0 une discussion ouverte avec le sous-ministre, o\u00f9 vous pourrez parler de votre exp\u00e9rience de travail avec d\u2019autres \u00e9tudiants. L\u2019id\u00e9e est de faire participer des \u00e9tudiants de diff\u00e9rentes directions g\u00e9n\u00e9rales aux m\u00eames s\u00e9ances afin d\u2019optimiser l\u2019apprentissage de chacun.</p>\n<p>La prochaine s\u00e9ance aura lieu le <strong>mercredi 14 octobre 2020, de 13 h \u00e0 14 h<strong> (HE)</strong></strong>. Elle se tiendra en compagnie du sous-ministre Chris Forbes et portera particuli\u00e8rement sur l\u2019exp\u00e9rience de travail des \u00e9tudiants \u00e0 AAC.</p>\n<p>Si vous \u00eates un \u00e9tudiant et que vous souhaitez participer \u00e0 la s\u00e9ance, veuillez envoyer un courriel indiquant votre nom, le titre de votre poste et le nom de votre direction g\u00e9n\u00e9rale \u00e0 <a href=\"mailto:aafc.dmcommunications-communicationssm.aac@canada.ca\">aafc.dmcommunications-communicationssm.aac@canada.ca</a> d\u2019ici<strong> le\u00a08 octobre</strong>. D\u2019autres pr\u00e9cisions seront fournies aux participants dans la convocation \u00e0 la r\u00e9union.</p>\n<p><img src=\"https://intranet.agr.gc.ca/resources/prod/news/images/SPROUTbanner2019.png\" class=\"center-block\"></p>\n\t\t"
    },
    "breadcrumb": {
        "en": "Your Opportunity to Have a Conversation with the Deputy Minister - October 14",
        "fr": "Voici votre chance d'avoir une conversation avec le sous-ministre - 14 octobre"
    },
    "news": {
        "date_posted": {
            "en": "2020-10-01",
            "fr": "2020-10-01"
        },
        "to": {
            "en": "All staff",
            "fr": "Tous les employ\u00e9s"
        },
        "by": {
            "en": "Student Panel of Representatives for Orientation, Unity, and Training",
            "fr": "Programme de l'orientation, de l'unit\u00e9 et de la sensibilisation des stagiaires et \u00e9tudiants"
        }
    }
}