{
    "dcr_id": "1601562653753",
    "lang": "en",
    "title": {
        "en": "October is Healthy Workplace Month",
        "fr": "Octobre est le Mois de la sant\u00e9 au travail"
    },
    "modified": "2020-10-01 00:00:00.0",
    "issued": "2020-10-01 00:00:00.0",
    "type_name": "intra-intra/news-nouv",
    "node_id": "1279030006975",
    "layout_name": null,
    "dc_date_created": "2020-10-01",
    "breadcrumb_label": "",
    "meta": {
        "issued": {
            "en": "2020-10-01",
            "fr": "2020-10-01"
        },
        "modified": {
            "en": "2020-10-01",
            "fr": "2020-10-01"
        },
        "format": {
            "en": "gcformat",
            "fr": "gcformat"
        },
        "title": {
            "en": "October is Healthy Workplace Month",
            "fr": "Octobre est le Mois de la sant\u00e9 au travail"
        },
        "subject": {
            "en": "communications",
            "fr": "communications"
        },
        "description": {
            "en": "October is Canada\u2019s Healthy Workplace Month, which is an opportunity for AAFC and all employers to promote wellness and occupational health and safety.",
            "fr": "Octobre est le Mois de la sant\u00e9 au travail au Canada, l'occasion pour AAC et ses employ\u00e9s de promouvoir le mieux-\u00eatre ainsi que la sant\u00e9 et la s\u00e9curit\u00e9 au travail."
        },
        "language": {
            "en": "eng",
            "fr": "fra"
        },
        "audience": {
            "en": "gcaudience",
            "fr": "gcaudience"
        },
        "creator": {
            "en": "Agriculture and Agri-Food Canada",
            "fr": "Agriculture et Agroalimentaire Canada"
        },
        "spatial": {
            "en": "gcregions",
            "fr": "gcregions"
        },
        "service": {
            "en": "AAFC_AgriSource",
            "fr": "AAC_AgriSource"
        },
        "accessRights": {
            "en": "3",
            "fr": "3"
        }
    },
    "body": {
        "en": "<br>\n<br>\n<p>October is Canada\u2019s Healthy Workplace Month, which is an opportunity for AAFC and all employers to promote wellness and occupational health and safety. This month, we also mark Mental Illness Awareness Week (October 4 to 10) and World Mental Health Day (October 10).</p>\n<p>While a healthy workplace and good mental wellness is something we strive to promote all year, October is a month to celebrate our successes and look for new ways we can all contribute and improve over the coming year.</p>\n<p>Our lives have changed significantly over the past seven months. Maintaining connections \u2013 with loved ones, friends and colleagues \u2013 has perhaps never been so important. Reach out to your manager if you need support at work and remember to take care of yourself while taking care of others.</p>\n<h2><strong>How you can participate</strong></h2>\n<p>You can make a positive change by getting together virtually with your colleagues and take the <a href=\"https://healthyworkplacemonth.ca/take-the-healthy-workplace-challenge/\">Healthy Workplace Challenge</a>. The goal is simple: encourage your team to<strong> </strong><strong>participate in an activity</strong> that will make the workplace healthier and safer.</p>\n<p>There is an exciting and free virtual kick-off event you can attend:</p>\n<p><strong>F.A.C.E. Mental Illness Head-on: Stories of Courage, Hope and Resilience (Canada School of Public Service event)</strong></p>\n<p>Two\u00a0public servants will share their personal stories of courage, hope, and resilience in facing mental illness, and how the skills they\u2019ve learned in recovery help them manage their mental health during COVID\u201119.</p>\n<ul>\n<li><strong>Date and time:</strong> Monday, October 5 | 1:30 to 3:00 p.m. (ET)</li>\n<li><strong>Language:</strong> Bilingual, with interpretation in both official languages</li>\n<li><strong>Registration:</strong> <a href=\"https://www.csps-efpc.gc.ca/events/face-mental-illness/index-eng.aspx\">Webcast</a></li>\n</ul>\n<h2><strong>Learn more</strong></h2>\n<p>Visit the <a href=\"https://collab.agr.gc.ca/co/aafcwe-beaac/Lists/Calendar/calendar.aspx\">Workplace Wellness event calendar on Knowledge Workspace</a> for more health and wellness events throughout October.</p>\n<p>Check out the <a href=\"https://multimedia.agr.gc.ca/COVID-19/mental_health-eng.html\">mental health support page</a>, which features resources and tools available to employees.</p>\n<p>AAFC\u2019s <a href=\"https://intranet.agr.gc.ca/agrisource/eng/branches-and-offices/office-of-the-ombudsperson?id=1566410288815\">Workplace Well-Being Ombudsperson</a> (accessible only on the AAFC network) provides a safe environment where employees at all levels can raise, discuss and address work-related issues without fear of reprisal.</p>\n<p>And don\u2019t forget to complete the second <a href=\"https://agr.survey-sondage.ca/f/s.aspx?s=80fe8eb8-0d57-45b5-979e-9eb0509de34d\">Check-In Survey</a> by October 8 to let us know how we can best support your mental health and wellbeing.</p>\n<p>\u00a0</p>\n<p><strong>Mary Dila and Jane McDonald<br></strong>AAFC Wellness Co-Champions</p>\n\n\t\t",
        "fr": "<br>\n<br>\n<p>Octobre est le Mois de la sant\u00e9 au travail au Canada, l\u2019occasion pour AAC et ses employ\u00e9s de promouvoir le mieux-\u00eatre ainsi que la sant\u00e9 et la s\u00e9curit\u00e9 au travail. Ce mois-ci, nous soulignons \u00e9galement la Semaine de sensibilisation aux maladies mentales (du 4 au 10 octobre) et la Journ\u00e9e mondiale de la sant\u00e9 mentale (10 octobre).</p>\n<p>M\u00eame si nous nous effor\u00e7ons de promouvoir un milieu de travail sain et le mieux-\u00eatre mental tout au long de l\u2019ann\u00e9e, octobre est le mois pendant lequel nous c\u00e9l\u00e9brons nos succ\u00e8s et cherchons de nouvelles fa\u00e7ons d\u2019apporter notre contribution et d\u2019am\u00e9liorer les choses au cours de l\u2019ann\u00e9e \u00e0 venir.</p>\n<p>Nos vies ont beaucoup chang\u00e9 au cours des sept derniers mois. Il n\u2019a peut-\u00eatre jamais \u00e9t\u00e9 aussi important de maintenir des liens \u2013 avec ses proches, ses amis et ses coll\u00e8gues. Si vous ressentez le besoin d\u2019obtenir du soutien au travail, communiquez avec votre sup\u00e9rieur, et n\u2019oubliez pas de prendre soin de vous, et pas seulement des autres.</p>\n<h2><strong>Comment participer</strong></h2>\n<p>Vous pouvez faire un changement positif en vous r\u00e9unissant avec vos coll\u00e8gues de fa\u00e7on virtuelle pour relever le <a href=\"https://healthyworkplacemonth.ca/relevez-le-defi-du-milieu-de-travail-sain/?lang=fr\">d\u00e9fi du milieu de travail sain</a>. L\u2019objectif est simple : encourager votre \u00e9quipe \u00e0 <b>participer \u00e0 une activit\u00e9</b> qui rendra le milieu de travail plus sain et s\u00e9curitaire.</p>\n<p>Vous pouvez prendre part \u00e0 une activit\u00e9 virtuelle de lancement int\u00e9ressante et gratuite :</p>\n<p><strong>Faire F.A.C.E. \u00e0 la maladie mentale : Histoires de courage, d\u2019espoir et de r\u00e9silience (activit\u00e9s de l\u2019\u00c9cole de la fonction publique du Canada)</strong></p>\n<p>Deux fonctionnaires vous livreront des t\u00e9moignages de courage, d\u2019espoir et de r\u00e9silience face \u00e0 la maladie mentale. Ils vous expliqueront aussi comment les comp\u00e9tences acquises lors de leur convalescence les aident \u00e0 veiller sur leur sant\u00e9 mentale pendant la pand\u00e9mie de COVID-19.</p>\n<ul>\n<li><strong>Date et heure :</strong> Le lundi 5 octobre | De 13 h 30 \u00e0 15 h (HE)</li>\n<li><strong>Langue :</strong> Bilingue avec interpr\u00e9tation dans les deux langues officielles</li>\n<li><strong>Inscription :</strong> <a href=\"https://www.csps-efpc.gc.ca/events/face-mental-illness/index-fra.aspx\">Web\u00e9mission</a></li>\n</ul>\n<h2><strong>Pour en savoir plus</strong></h2>\n<p>Consultez le <a href=\"https://collab.agr.gc.ca/co/aafcwe-beaac/Lists/Calendar/calendar.aspx\">calendrier du mieux-\u00eatre dans l\u2019Espace de travail du savoir</a> pour en savoir plus sur les activit\u00e9s li\u00e9es \u00e0 la sant\u00e9 et au mieux-\u00eatre du mois d\u2019octobre.</p>\n<p>Consultez la <a href=\"https://multimedia.agr.gc.ca/COVID-19/mental_health-fra.html\">page Soutien en mati\u00e8re de sant\u00e9 mentale</a>, qui pr\u00e9sente les ressources et les outils mis \u00e0 la disposition des employ\u00e9s.</p>\n<p>Le r\u00f4le de <a href=\"https://intranet.agr.gc.ca/agrisource/fra/directions-generales-et-bureaux/bureau-de-lombudsman?id=1566410288815\">l\u2019ombudsman du mieux-\u00eatre en milieu de travail</a> (accessible uniquement sur le r\u00e9seau d\u2019AAC) \u00e0 AAC est d\u2019offrir un environnement s\u00e9curitaire o\u00f9 tous les employ\u00e9s, de tous les \u00e9chelons, peuvent soulever et aborder des questions li\u00e9es au travail, et en discuter, sans crainte de repr\u00e9sailles.</p>\n<p>N\u2019oubliez pas de r\u00e9pondre au deuxi\u00e8me <a href=\"https://agr.survey-sondage.ca/f/s.aspx?s=80fe8eb8-0d57-45b5-979e-9eb0509de34d&amp;lang=FR\">Sondage sur la sant\u00e9 mentale aupr\u00e8s des employ\u00e9s d\u2019AAC</a> d\u2019ici le 8 octobre pour nous permettre d\u2019en apprendre plus sur la meilleure fa\u00e7on de favoriser votre sant\u00e9 mentale et votre mieux-\u00eatre.</p>\n<p>\u00a0</p>\n<p><strong>Mary Dila et Jane McDonald<br></strong>Cochampionnes du mieux-\u00eatre \u00e0 AAC</p>\n\t\t"
    },
    "breadcrumb": {
        "en": "October is Healthy Workplace Month",
        "fr": "Octobre est le Mois de la sant\u00e9 au travail"
    },
    "news": {
        "date_posted": {
            "en": "2020-10-01",
            "fr": "2020-10-01"
        },
        "to": {
            "en": "All staff",
            "fr": "Tous les employ\u00e9s"
        },
        "by": {
            "en": "Mary Dila and Jane McDonald, AAFC Wellness Co-Champions",
            "fr": "Mary Dila et Jane McDonald, Cochampionnes du mieux-\u00eatre \u00e0 AAC"
        }
    }
}