{
    "dcr_id": "1601496311316",
    "lang": "en",
    "title": {
        "en": "Canada Marks Right to Know Week",
        "fr": "Le Canada souligne la Semaine du droit \u00e0 l\u2019information"
    },
    "modified": "2020-10-01 00:00:00.0",
    "issued": "2020-09-30 00:00:00.0",
    "type_name": "intra-intra/news-nouv",
    "node_id": "1279030006975",
    "layout_name": null,
    "dc_date_created": "2020-09-30",
    "breadcrumb_label": "",
    "meta": {
        "issued": {
            "en": "2020-09-30",
            "fr": "2020-09-30"
        },
        "modified": {
            "en": "2020-10-01",
            "fr": "2020-10-01"
        },
        "format": {
            "en": "gcformat",
            "fr": "gcformat"
        },
        "title": {
            "en": "Canada Marks Right to Know Week",
            "fr": "Le Canada souligne la Semaine du droit \u00e0 l\u2019information"
        },
        "subject": {
            "en": "communications",
            "fr": "communications"
        },
        "description": {
            "en": "Since 2002, every year, on September 28, the Right to Know Day is celebrated around the world to raise awareness of an individual's right to access government information, while promoting freedom of information as essential to both democracy and good governance.",
            "fr": "Depuis 2002, la Journ\u00e9e du droit \u00e0 l'information est c\u00e9l\u00e9br\u00e9e annuellement le 28 septembre \u00e0 travers le monde afin de sensibiliser les citoyens \u00e0 leur droit d'acc\u00e9der \u00e0 l'information d\u00e9tenue par les institutions gouvernementales, et de promouvoir la libert\u00e9 d'information comme fondement de la d\u00e9mocratie et de la bonne gouvernance."
        },
        "language": {
            "en": "eng",
            "fr": "fra"
        },
        "audience": {
            "en": "gcaudience",
            "fr": "gcaudience"
        },
        "creator": {
            "en": "Agriculture and Agri-Food Canada",
            "fr": "Agriculture et Agroalimentaire Canada"
        },
        "spatial": {
            "en": "gcregions",
            "fr": "gcregions"
        },
        "service": {
            "en": "AAFC_AgriSource",
            "fr": "AAC_AgriSource"
        },
        "accessRights": {
            "en": "3",
            "fr": "3"
        }
    },
    "body": {
        "en": "<br>\n<br>\n<p>Canada marks Right to Know Week, which this year is celebrated from September 28 to October 4.</p>\n<p>Since 2002, every year, on September 28, the Right to Know Day is celebrated around the world to raise awareness of an individual\u2019s right to access government information, while promoting freedom of information as essential to both democracy and good governance.</p>\n<p>In Canada, Right to Know Day has been extended to a week of celebrations. For more information about this week of events, visit the <a href=\"https://www.oic-ci.gc.ca/rtk-dai/\">Information Commissioner of Canada's website</a>.</p>\n<p>Speaking of access to information, on June 18, 2020, the Treasury Board of Secretariat (TBS) has announced that the government will be undertaking a review of the <em>Access to Information Act (ATIA)</em> one year following the amendments introduced in Bill C-58. In preparation for the consultation process that TBS intends to launch in the coming week, the ATIP Office will initiate discussions within AAFC to seek a wide range of views from internal stakeholders. Stay tuned for more details about that important initiative.</p>\n<p>Finally, the ATIP Office wishes to take this opportunity to invite all staff interested to learn more about the <em>ATIA</em> and its obligations to consult our training calendar, which can be found on our <a href=\"https://collab.agr.gc.ca/co/aips-saiprp/SitePages/Home.aspx\">Knowledge Workspace</a> site. We will be happy to host you at one of our information sessions.</p>\n<p><img src=\"https://intranet.agr.gc.ca/resources/prod/news/images/droit-info-logo-EN.png\" class=\"center-block\"></p>\n\n\t\t",
        "fr": "<br>\n<br>\n<p>Le Canada souligne la Semaine du droit \u00e0 l\u2019information, qui est c\u00e9l\u00e9br\u00e9e cette ann\u00e9e du 28 septembre au 4 octobre.</p>\n<p>Depuis 2002, la Journ\u00e9e du droit \u00e0 l\u2019information est c\u00e9l\u00e9br\u00e9e annuellement le 28 septembre \u00e0 travers le monde afin de sensibiliser les citoyens \u00e0 leur droit d\u2019acc\u00e9der \u00e0 l\u2019information d\u00e9tenue par les institutions gouvernementales, et de promouvoir la libert\u00e9 d\u2019information comme fondement de la d\u00e9mocratie et de la bonne gouvernance.</p>\n<p>Au Canada, la Journ\u00e9e du droit \u00e0 l\u2019information s\u2019est \u00e9tendue \u00e0 une semaine de c\u00e9l\u00e9brations. Pour de plus amples renseignements au sujet de cette semaine d'activit\u00e9s, visitez <a href=\"https://www.oic-ci.gc.ca/dai-rtk/\">le site web de la Commissaire \u00e0 l'information du Canada</a>. </p>\n<p>Parlant d'acc\u00e8s \u00e0 l'information, le 18 juin 2020, le Secr\u00e9tariat du Conseil du Tr\u00e9sor (SCT) a annonc\u00e9 que le gouvernement entreprendra une r\u00e9vision de la <em>Loi sur l\u2019acc\u00e8s \u00e0 l\u2019information</em> <em>(LAI)</em> un an apr\u00e8s la pr\u00e9sentation de modifications dans le projet de loi C-58. \u00c0 titre de pr\u00e9paration au processus de consultation que le SCT entend lancer au cours de la prochaine semaine, le Bureau de l'AIPRP tiendra des discussions au sein d'AAC dans le but de recueillir un large \u00e9ventail d'id\u00e9es et opinions de la part de divers intervenants internes. Plus de d\u00e9tails concernant cette importante initiative seront bient\u00f4t disponibles.</p>\n<p>En terminant, le Bureau de l'AIPRP aimerait profiter de l'occasion pour inviter tous les employ\u00e9s int\u00e9ress\u00e9s \u00e0 en apprendre davantage sur la <em>LAI</em> et ses obligations \u00e0 consulter notre calendrier de formation qui se trouve sur notre site de <a href=\"https://collab.agr.gc.ca/co/aips-saiprp/SitePages/Home.aspx\">l'Espace de travail du savoir</a>. Il nous fera plaisir de vous accueillir \u00e0 l'une de nos s\u00e9ances d'information.</p>\n<p><img src=\"https://intranet.agr.gc.ca/resources/prod/news/images/droit-info-logo-FR.png\" class=\"center-block\"></p>\n\t\t"
    },
    "breadcrumb": {
        "en": "Canada Marks Right to Know Week",
        "fr": "Le Canada souligne la Semaine du droit \u00e0 l'information"
    },
    "news": {
        "date_posted": {
            "en": "2020-10-01",
            "fr": "2020-10-01"
        },
        "to": {
            "en": "All staff",
            "fr": "Tous les employ\u00e9s"
        },
        "by": {
            "en": "The ATIP Office",
            "fr": "Le Bureau de l'AIPRP"
        }
    }
}