{
    "dcr_id": "1602103427986",
    "lang": "en",
    "title": {
        "en": "This Week in The Harvest - GCWCC Stories: You Never Know - AAFC Employee Grateful for Community Supports ",
        "fr": "Au menu de La Moisson cette semaine - Histoires de la CCMTGC : Rien n'est certain \u2013 Une employ\u00e9e d'AAC est reconnaissante \u00e0 l'endroit des services de soutien communautaire "
    },
    "modified": "2020-10-07 00:00:00.0",
    "issued": "2020-10-07 00:00:00.0",
    "type_name": "intra-intra/news-nouv",
    "node_id": "1279030006975",
    "layout_name": null,
    "dc_date_created": "2020-10-07",
    "breadcrumb_label": "",
    "meta": {
        "issued": {
            "en": "2020-10-07",
            "fr": "2020-10-07"
        },
        "modified": {
            "en": "2020-10-07",
            "fr": "2020-10-07"
        },
        "format": {
            "en": "gcformat",
            "fr": "gcformat"
        },
        "title": {
            "en": "This Week in The Harvest - GCWCC Stories: You Never Know - AAFC Employee Grateful for Community Supports ",
            "fr": "Au menu de La Moisson cette semaine - Histoires de la CCMTGC : Rien n'est certain \u2013 Une employ\u00e9e d'AAC est reconnaissante \u00e0 l'endroit des services de soutien communautaire "
        },
        "subject": {
            "en": "communications",
            "fr": "communications"
        },
        "description": {
            "en": "In case you missed it, here's what's new in<em> The Harvest: AAFC\u2019s Online Magazine</em> this week.",
            "fr": "Au cas o\u00f9 vous l'auriez manqu\u00e9, voici le menu que la section <em>La Moisson : le magazine en ligne d\u2019AAC</em> vous offre cette semaine"
        },
        "language": {
            "en": "eng",
            "fr": "fra"
        },
        "audience": {
            "en": "gcaudience",
            "fr": "gcaudience"
        },
        "creator": {
            "en": "Agriculture and Agri-Food Canada",
            "fr": "Agriculture et Agroalimentaire Canada"
        },
        "spatial": {
            "en": "gcregions",
            "fr": "gcregions"
        },
        "service": {
            "en": "AAFC_AgriSource",
            "fr": "AAC_AgriSource"
        },
        "accessRights": {
            "en": "3",
            "fr": "3"
        }
    },
    "body": {
        "en": "<br>\n<br>\n<p>In case you missed it, here\u2019s what\u2019s new in <a href=\"https://collab.agr.gc.ca/apps/harvest-moisson\"><em>The Harvest</em><em>: AAFC\u2019s Online Magazine</em></a> this week:</p>\n<p><strong>Feature story:</strong> <a href=\"https://collab.agr.gc.ca/apps/harvest-moisson/\">GCWCC Stories: You Never Know - AAFC Employee Grateful for Community Supports</a> - Since the time she was a student, AAFC employee Gaea Guruprasad has contributed to the Government of Canada Workplace Charitable Campaign (GCWCC). Even at that young age, Gaea appreciated the importance of supporting the United Way and the many community organizations and initiatives they fund. Now the Director General for Application and Knowledge Services with Information Systems Branch, Gaea says little did she anticipate that one day, she would be the beneficiary of funds raised by GCWCC.</p>\n<p><strong>Quiz</strong><strong>: </strong><a href=\"https://collab.agr.gc.ca/apps/harvest-moisson/\">How many registered charities take part in the Government of Canada Workplace Charitable Campaign?</a></p>\n<p><strong>Feature photo:</strong> <a href=\"https://collab.agr.gc.ca/apps/harvest-moisson/gallery/Lists/Posts/Post.aspx?ID=423\">Admiring the Sunset</a>, by Sandi Beaudette, Science and Technology Branch, Brandon, Manitoba.</p>\n<p><strong>Did you know?</strong> <a href=\"https://collab.agr.gc.ca/apps/harvest-moisson/Pages/didyouknow.aspx\">When you make a donation through the GCWCC you can control exactly how it\u2019s allocated.</a> For example, you can direct part of your pledge to help people with health problems, or for children with special needs. You can even allocate your pledge to a specific charitable organization anywhere in Canada!</p>\n<p>You can get involved by posting a comment or \u201cliking\u201d an article. You can also check out what your colleagues are liking and saying.</p>\n<p>Should you have story ideas, scenic or artistic agriculture-related photos, or interesting facts, please share them with us by clicking on \u201cContribute\u201d in the top menu bar.</p>\n<p><img src=\"https://intranet.agr.gc.ca/resources/prod/news/images/Harvest-Gaea.gif\" class=\"center-block\"></p>\n\n\t\t",
        "fr": "<br>\n<br>\n<p>Au cas o\u00f9 vous l\u2019auriez manqu\u00e9, voici le menu que la section <a href=\"https://collab.agr.gc.ca/apps/harvest-moisson\"><em>La Moisson</em></a><em> : le magazine en ligne d\u2019AAC</em> vous offre cette semaine :</p>\n<p><strong>Article vedette :</strong> <a href=\"https://collab.agr.gc.ca/apps/harvest-moisson/\">Histoires de la CCMTGC : Rien n\u2019est certain \u2013 Une employ\u00e9e d\u2019AAC est reconnaissante \u00e0 l\u2019endroit des services de soutien communautaire </a> - Depuis l\u2019\u00e9poque o\u00f9 elle \u00e9tait \u00e9tudiante, l\u2019employ\u00e9e d\u2019AAC Gaea Guruprasad a contribu\u00e9 \u00e0 la Campagne de charit\u00e9 en milieu de travail du gouvernement du Canada (CCMTGC). M\u00eame tr\u00e8s jeune, Gaea comprenait l\u2019importance d\u2019appuyer l\u2019organisme Centraide et les nombreuses organisations et initiatives communautaires qu\u2019il finance. Maintenant directrice g\u00e9n\u00e9rale des Services des applications et du savoir de la Direction g\u00e9n\u00e9rale des syst\u00e8mes d\u2019information, Gaea affirme qu\u2019elle n\u2019aurait jamais cru \u00eatre un jour b\u00e9n\u00e9ficiaire des fonds recueillis par la CCMTGC.</p>\n<p><strong>Jeu-questionnaire : </strong><a href=\"https://collab.agr.gc.ca/apps/harvest-moisson/\">Combien d\u2019organismes de charit\u00e9 enregistr\u00e9s participent \u00e0 la Campagne de charit\u00e9 en milieu de travail du gouvernement du Canada?</a></p>\n<p><strong>Photo vedette :</strong> <a href=\"https://collab.agr.gc.ca/apps/harvest-moisson/gallery/Lists/Posts/Post.aspx?ID=423\">En admiration devant le coucher de soleil</a>, <em>par </em><em>Sandi Beaudette, Direction g\u00e9n\u00e9rale des sciences et de la technologie, Brandon (Manitoba).</em></p>\n<p><strong>Le saviez-vous?</strong> <a href=\"https://collab.agr.gc.ca/apps/harvest-moisson/Pages/didyouknow.aspx\">Lorsque vous faites un don par l\u2019interm\u00e9diaire de la CCMTGC, vous pouvez contr\u00f4ler exactement comment il est distribu\u00e9.</a> Par exemple, vous pouvez consacrer une partie de votre don \u00e0 l\u2019aide aux personnes ayant des probl\u00e8mes de sant\u00e9 ou aux enfants ayant des besoins particuliers. Vous pouvez m\u00eame attribuer votre don \u00e0 un organisme de bienfaisance particulier n\u2019importe o\u00f9 au Canada!</p>\n<p>Vous pouvez participer en affichant des commentaires ou en utilisant la fonction \u00ab J\u2019aime \u00bb ou \u00ab Partager \u00bb pour exprimer votre appr\u00e9ciation d\u2019un article. Vous pouvez aussi aller voir ce que vos coll\u00e8gues aiment et ont \u00e0 dire.</p>\n<p><img src=\"https://intranet.agr.gc.ca/resources/prod/news/images/Harvest-Gaea.gif\" class=\"center-block\"></p>\n\t\t"
    },
    "breadcrumb": {
        "en": "This Week in The Harvest - GCWCC Stories: You Never Know - AAFC Employee Grateful for Community Supports",
        "fr": "Au menu de La Moisson cette semaine - Histoires de la CCMTGC : Rien n'est certain \u2013 Une employ\u00e9e..."
    },
    "news": {
        "date_posted": {
            "en": "2020-10-08",
            "fr": "2020-10-08"
        },
        "to": {
            "en": "All staff",
            "fr": "Tous les employ\u00e9s"
        },
        "by": {
            "en": "Corporate Communications, Public Affairs Branch",
            "fr": "Communications minist\u00e9rielles, Direction g\u00e9n\u00e9rale des affaires publiques"
        }
    }
}