{
    "dcr_id": "1556048364598",
    "urlEn": [
        "https://intranet.agr.gc.ca/resources/prod/news/images/road.png"
    ],
    "urlFr": [
        "https://intranet.agr.gc.ca/resources/prod/news/images/road.png"
    ]
}