{
    "dcr_id": "1553286336912",
    "urlEn": [
        "https://intranet.agr.gc.ca/resources/prod/news/images/HarvestGloryoftheSnow.png"
    ],
    "urlFr": [
        "https://intranet.agr.gc.ca/resources/prod/news/images/HarvestGloryoftheSnow.png"
    ]
}