{
    "dcr_id": "1571160371969",
    "urlEn": [
        "https://intranet.agr.gc.ca/resources/prod/pdf/corp_comm_marketing/cue_am_10_2019-eng.pdf"
    ],
    "urlFr": [
        "https://intranet.agr.gc.ca/resources/prod/pdf/corp_comm_marketing/cue_am_10_2019-fra.pdf"
    ]
}