{
    "dcr_id": "1567006417736",
    "urlEn": [
        "https://intranet.agr.gc.ca/resources/prod/news/images/HealthyWorkplace.png"
    ],
    "urlFr": [
        "https://intranet.agr.gc.ca/resources/prod/news/images/HealthyWorkplace.png"
    ]
}