{
    "dcr_id": "1516898661262",
    "urlEn": [
        "https://intranet.agr.gc.ca/resources/prod/news/images/DMandGreenhouse.png"
    ],
    "urlFr": [
        "https://intranet.agr.gc.ca/resources/prod/news/images/DMandGreenhouse.png"
    ]
}