{
    "dcr_id": "1525097724500",
    "urlEn": [
        "https://intranet.agr.gc.ca/resources/prod/news/images/pheonix2-eng.png"
    ],
    "urlFr": [
        "https://intranet.agr.gc.ca/resources/prod/news/images/pheonix2-fra.png"
    ]
}