{
    "dcr_id": "1565120163397",
    "urlEn": [
        "https://intranet.agr.gc.ca/resources/prod/news/images/Harvest-Greenhouse.png"
    ],
    "urlFr": [
        "https://intranet.agr.gc.ca/resources/prod/news/images/Harvest-Greenhouse.png"
    ]
}