{
    "dcr_id": "1578499595386",
    "urlEn": [
        "https://intranet.agr.gc.ca/resources/prod/news/images/Harvest-translators.png"
    ],
    "urlFr": [
        "https://intranet.agr.gc.ca/resources/prod/news/images/Harvest-translators.png"
    ]
}