{
    "dcr_id": "1363704631840",
    "urlEn": [
        "https://intranet.agr.gc.ca/resources/prod/pdf/hrb_dgrh/cmb_hrd_csd_aafc_managers_guide_student_rates_of_pay-eng.pdf"
    ],
    "urlFr": [
        "https://intranet.agr.gc.ca/resources/prod/pdf/hrb_dgrh/cmb_hrd_csd_aafc_managers_guide_student_rates_of_pay-fra.pdf"
    ]
}