{
    "dcr_id": "1539796586150",
    "urlEn": [
        "https://intranet.agr.gc.ca/resources/prod/news/images/PABCupcakeStars2018-EN.png",
        "https://intranet.agr.gc.ca/resources/prod/news/images/GCWCC12018-EN.png"
    ],
    "urlFr": [
        "https://intranet.agr.gc.ca/resources/prod/news/images/PABCupcakeStars2018-FR.png",
        "https://intranet.agr.gc.ca/resources/prod/news/images/GCWCC12018-FR.png"
    ]
}