{
    "dcr_id": "1562080808058",
    "urlEn": [
        "https://intranet.agr.gc.ca/resources/prod/news/images/GSDINLogo.png"
    ],
    "urlFr": [
        "https://intranet.agr.gc.ca/resources/prod/news/images/GSDINLogo.png"
    ]
}