{
    "dcr_id": "1527019378435",
    "urlEn": [
        "https://intranet.agr.gc.ca/resources/prod/news/images/ISBRemoteAccess.png"
    ],
    "urlFr": [
        "https://intranet.agr.gc.ca/resources/prod/news/images/ISBRemoteAccess.png"
    ]
}