{
    "dcr_id": "1547042504001",
    "urlEn": [
        "https://intranet.agr.gc.ca/resources/prod/news/images/WinterWalk.png"
    ],
    "urlFr": [
        "https://intranet.agr.gc.ca/resources/prod/news/images/WinterWalk.png"
    ]
}