{
    "dcr_id": "1559074812912",
    "urlEn": [
        "https://intranet.agr.gc.ca/resources/prod/news/images/CEF_interpretation_site.png"
    ],
    "urlFr": [
        "https://intranet.agr.gc.ca/resources/prod/news/images/CEF_interpretation_site.png"
    ]
}