{
    "dcr_id": "1489076537015",
    "urlEn": [
        "https://intranet.agr.gc.ca/resources/prod/pdf/ccb_dgcc/hrb_wrd_ve_aafc_values_and_ethics_code-eng.pdf",
        "https://intranet.agr.gc.ca/resources/prod/images/ccb_dgcc/the_department/dept.jpg"
    ],
    "urlFr": [
        "https://intranet.agr.gc.ca/resources/prod/pdf/ccb_dgcc/hrb_wrd_ve_aafc_values_and_ethics_code-fra.pdf",
        "https://intranet.agr.gc.ca/resources/prod/images/ccb_dgcc/the_department/dept.jpg"
    ]
}