{
    "dcr_id": "1515521906872",
    "urlEn": [
        "https://intranet.agr.gc.ca/resources/prod/news/images/HarvestTakeKidstoWork.png"
    ],
    "urlFr": [
        "https://intranet.agr.gc.ca/resources/prod/news/images/HarvestTakeKidstoWork.png"
    ]
}