{
    "dcr_id": "1536070088989",
    "urlEn": [
        "https://intranet.agr.gc.ca/resources/prod/news/images/PSES2018-EN.png"
    ],
    "urlFr": [
        "https://intranet.agr.gc.ca/resources/prod/news/images/PSES2018-FR.png"
    ]
}