{
    "dcr_id": "1331646100387",
    "urlEn": [
        "https://intranet.agr.gc.ca/resources/prod/doc/cmb_dggi/policies_guidelines/revenue_accts_receivables_deferred_revenue-eng.doc",
        "https://intranet.agr.gc.ca/resources/prod/doc/cmb_dggi/policies_guidelines/collection_comptes_overdue_accts-eng.doc",
        "https://intranet.agr.gc.ca/resources/prod/doc/cmb_dggi/policies_guidelines/deletions_debts_radiation_creances-eng.doc",
        "https://intranet.agr.gc.ca/resources/prod/doc/cmb_dggi/policies_guidelines/deletion_debts_prev_vers_radiation_creances-eng.doc",
        "https://intranet.agr.gc.ca/resources/prod/doc/cmb_dggi/policies_guidelines/private_collection_agenc_recouv_privees-eng.doc",
        "https://intranet.agr.gc.ca/resources/prod/doc/cmb_dggi/policies_guidelines/receipts_accts_receiv_encaisse_compt_debite-eng.doc",
        "https://intranet.agr.gc.ca/resources/prod/doc/cmb_dggi/policies_guidelines/policy_acctg_specified_purp_accts-eng.doc",
        "https://intranet.agr.gc.ca/resources/prod/doc/cmb_dggi/policies_guidelines/cust_accts_cr_eval_creat_comp_clnts2018-eng.doc",
        "https://intranet.agr.gc.ca/resources/prod/doc/cmb_dggi/policies_guidelines/matl_rec_creat_proc_creat_fiche_article2018-eng.doc",
        "https://intranet.agr.gc.ca/resources/prod/doc/cmb_dggi/policies_guidelines/procedure_sales_vente_contract_contrats2018-eng.doc",
        "https://intranet.agr.gc.ca/resources/prod/doc/cmb_dggi/policies_guidelines/sales_order_creat_proc_cmds_clients2018-eng.doc",
        "https://intranet.agr.gc.ca/resources/prod/doc/cmb_dggi/policies_guidelines/bdpp_ppdf_billing_facturation2018-eng.doc",
        "https://intranet.agr.gc.ca/resources/prod/doc/cmb_dggi/policies_guidelines/dfrd_pedfrm_deposit_funds_fonds2018-eng.doc",
        "https://intranet.agr.gc.ca/resources/prod/doc/cmb_dggi/policies_guidelines/cparou_prcrcs_collection_process2018-eng.doc",
        "https://intranet.agr.gc.ca/resources/prod/doc/cmb_dggi/policies_guidelines/annexes/annex3_credit_grid_evaluation2018-eng.doc",
        "https://intranet.agr.gc.ca/resources/prod/xls/cmb_dggi/policies_guidelines/annexes/annex4_list_materials-eng.xls",
        "https://intranet.agr.gc.ca/resources/prod/pdf/cmb_dggi/policies_guidelines/annexes/annex5_creation_material_master_rec-eng.pdf",
        "https://intranet.agr.gc.ca/resources/prod/pdf/cmb_dggi/policies_guidelines/annexes/annex6_request_billing-eng.pdf",
        "https://intranet.agr.gc.ca/resources/prod/pdf/cmb_dggi/policies_guidelines/annexes/annex7_requisition_payment-eng.pdf",
        "https://intranet.agr.gc.ca/resources/prod/doc/cmb_dggi/policies_guidelines/annexes/annex8_list_doc_types_saturn-eng.doc",
        "https://intranet.agr.gc.ca/resources/prod/pdf/cmb_dggi/policies_guidelines/annexes/annex9_invoice-eng.pdf",
        "https://intranet.agr.gc.ca/resources/prod/pdf/cmb_dggi/policies_guidelines/annexes/annex11_daily_cash_sales_registry-eng.pdf",
        "https://intranet.agr.gc.ca/resources/prod/pdf/cmb_dggi/policies_guidelines/annexes/annex12_statement_account-eng.pdf",
        "https://intranet.agr.gc.ca/resources/prod/pdf/cmb_dggi/policies_guidelines/annexes/annex13_accts_receivable_1st_dunning-eng.pdf",
        "https://intranet.agr.gc.ca/resources/prod/doc/cmb_dggi/policies_guidelines/annexes/annex14_accts_receivable_1st_notice-eng.doc",
        "https://intranet.agr.gc.ca/resources/prod/pdf/cmb_dggi/policies_guidelines/annexes/annex15_accts_receivable_final_dunning-eng.pdf",
        "https://intranet.agr.gc.ca/resources/prod/doc/cmb_dggi/policies_guidelines/annexes/annex16_accts_receivable_final_notice-eng.doc",
        "https://intranet.agr.gc.ca/resources/prod/doc/cmb_dggi/policies_guidelines/annexes/annex17_accts_receivable_final_collect_notice-eng.doc",
        "https://intranet.agr.gc.ca/resources/prod/doc/cmb_dggi/policies_guidelines/annexes/annex18_royalty_first_notice-eng.doc",
        "https://intranet.agr.gc.ca/resources/prod/doc/cmb_dggi/policies_guidelines/annexes/annex19_royalty_final_notice_oipc-eng.doc",
        "https://intranet.agr.gc.ca/resources/prod/doc/cmb_dggi/policies_guidelines/annexes/annex20_royalty_final_notice_collaborator-eng.doc",
        "https://intranet.agr.gc.ca/resources/prod/doc/cmb_dggi/policies_guidelines/annexes/annex21_spa_first_notice_center-eng.doc",
        "https://intranet.agr.gc.ca/resources/prod/doc/cmb_dggi/policies_guidelines/annexes/annex22_spa_final_notice_research_mgr-eng.doc",
        "https://intranet.agr.gc.ca/resources/prod/doc/cmb_dggi/policies_guidelines/annexes/annex23_spa_first_notice_collaborator-eng.doc",
        "https://intranet.agr.gc.ca/resources/prod/doc/cmb_dggi/policies_guidelines/annexes/annex24_financial_coding-eng.doc",
        "https://intranet.agr.gc.ca/resources/prod/doc/cmb_dggi/policies_guidelines/annexes/annex25_sales_receipt_dep_proc_tarp-eng.doc",
        "https://intranet.agr.gc.ca/resources/prod/pdf/cmb_dggi/policies_guidelines/annexes/annex26_tarp_process-eng.pdf",
        "https://intranet.agr.gc.ca/resources/prod/doc/cmb_dggi/policies_guidelines/tarp_lexicon_lexique_pcd-eng.doc",
        "https://intranet.agr.gc.ca/resources/prod/xls/cmb_dggi/policies_guidelines/cs_rspa-eng.xls",
        "https://intranet.agr.gc.ca/resources/prod/xls/cmb_dggi/policies_guidelines/cs_rnvr-eng.xls",
        "https://intranet.agr.gc.ca/resources/prod/doc/cmb_dggi/policies_guidelines/modif_sched_pay-eng.doc",
        "https://intranet.agr.gc.ca/resources/prod/doc/cmb_dggi/policies_guidelines/dep_pub_fnds-eng.doc",
        "https://intranet.agr.gc.ca/resources/prod/doc/cmb_dggi/policies_guidelines/cont_bill_plan1-eng.doc",
        "https://intranet.agr.gc.ca/resources/prod/doc/cmb_dggi/policies_guidelines/rqst_pay_coll-eng.doc",
        "https://intranet.agr.gc.ca/resources/prod/doc/cmb_dggi/policies_guidelines/sales_dist_rep-eng.doc",
        "https://intranet.agr.gc.ca/resources/prod/doc/cmb_dggi/policies_guidelines/red_rate_gst-eng.doc",
        "https://intranet.agr.gc.ca/resources/prod/doc/cmb_dggi/policies_guidelines/nvr_bill-eng.doc",
        "https://intranet.agr.gc.ca/resources/prod/doc/cmb_dggi/policies_guidelines/sales_dist_mod-eng.doc",
        "https://intranet.agr.gc.ca/resources/prod/doc/cmb_dggi/policies_guidelines/nvr_tarp-eng.doc",
        "https://intranet.agr.gc.ca/resources/prod/doc/cmb_dggi/policies_guidelines/cust_acc_cred_eval-eng.doc",
        "https://intranet.agr.gc.ca/resources/prod/doc/cmb_dggi/policies_guidelines/red_rate_gst2-eng.doc",
        "https://intranet.agr.gc.ca/resources/prod/doc/cmb_dggi/policies_guidelines/disp_crown_assets-eng.doc",
        "https://intranet.agr.gc.ca/resources/prod/doc/cmb_dggi/policies_guidelines/rep_royal_cont-eng.doc",
        "https://intranet.agr.gc.ca/resources/prod/doc/cmb_dggi/policies_guidelines/royal_rec_proc_tarp-eng.doc",
        "https://intranet.agr.gc.ca/resources/prod/doc/cmb_dggi/policies_guidelines/add_infos_feat1-eng.doc",
        "https://intranet.agr.gc.ca/resources/prod/doc/cmb_dggi/policies_guidelines/add_infos_feat2-eng.doc",
        "https://intranet.agr.gc.ca/resources/prod/doc/cmb_dggi/policies_guidelines/gains_loss_exchange-eng.doc",
        "https://intranet.agr.gc.ca/resources/prod/doc/cmb_dggi/policies_guidelines/ar_procedures_accounts_receivable-eng.doc"
    ],
    "urlFr": [
        "https://intranet.agr.gc.ca/resources/prod/doc/cmb_dggi/policies_guidelines/private_collection_agenc_recouv_privees-fra.doc",
        "https://intranet.agr.gc.ca/resources/prod/doc/cmb_dggi/policies_guidelines/receipts_accts_receiv_encaisse_compt_debite-fra.doc",
        "https://intranet.agr.gc.ca/resources/prod/doc/cmb_dggi/policies_guidelines/deletions_debts_radiation_creances-fra.doc",
        "https://intranet.agr.gc.ca/resources/prod/doc/cmb_dggi/policies_guidelines/deletion_debts_prev_vers_radiation_creances-fra.doc",
        "https://intranet.agr.gc.ca/resources/prod/doc/cmb_dggi/policies_guidelines/collection_comptes_debiteurs_rev-fra.doc",
        "https://intranet.agr.gc.ca/resources/prod/doc/cmb_dggi/policies_guidelines/revenus_comptes_debiteurs_revenus_reportes-fra.doc",
        "https://intranet.agr.gc.ca/resources/prod/doc/cmb_dggi/policies_guidelines/politique_comptabilite_compt_fins_determ-fra.doc",
        "https://intranet.agr.gc.ca/resources/prod/doc/cmb_dggi/policies_guidelines/cust_accts_cr_eval_creat_comp_clnts2018-fra.doc",
        "https://intranet.agr.gc.ca/resources/prod/doc/cmb_dggi/policies_guidelines/matl_rec_creat_proc_creat_fiche_article2018-fra.doc",
        "https://intranet.agr.gc.ca/resources/prod/doc/cmb_dggi/policies_guidelines/procedure_sales_vente_contract_contrats2018-fra.doc",
        "https://intranet.agr.gc.ca/resources/prod/doc/cmb_dggi/policies_guidelines/sales_order_creat_proc_cmds_clients2018-fra.doc",
        "https://intranet.agr.gc.ca/resources/prod/doc/cmb_dggi/policies_guidelines/bdpp_ppdf_billing_facturation2018-fra.doc",
        "https://intranet.agr.gc.ca/resources/prod/doc/cmb_dggi/policies_guidelines/dfrd_pedfrm_deposit_funds_fonds2018-fra.doc",
        "https://intranet.agr.gc.ca/resources/prod/doc/cmb_dggi/policies_guidelines/cparou_prcrcs_collection_process2018-fra.doc",
        "https://intranet.agr.gc.ca/resources/prod/doc/cmb_dggi/policies_guidelines/annexes/annex3_credit_grid_evaluation2018-fra.doc",
        "https://intranet.agr.gc.ca/resources/prod/xls/cmb_dggi/policies_guidelines/annexes/annex4_liste_articles-fra.xls",
        "https://intranet.agr.gc.ca/resources/prod/pdf/cmb_dggi/policies_guidelines/annexes/annex5_creation_material_master_rec-eng.pdf",
        "https://intranet.agr.gc.ca/resources/prod/pdf/cmb_dggi/policies_guidelines/annexes/annex6_demande_facturation-fra.pdf",
        "https://intranet.agr.gc.ca/resources/prod/pdf/cmb_dggi/policies_guidelines/annexes/annex7_demande_paiement-fra.pdf",
        "https://intranet.agr.gc.ca/resources/prod/doc/cmb_dggi/policies_guidelines/annexes/annex8_liste_types_docs_sys_saturne-fra.doc",
        "https://intranet.agr.gc.ca/resources/prod/pdf/cmb_dggi/policies_guidelines/annexes/annex9_facture-fra.pdf",
        "https://intranet.agr.gc.ca/resources/prod/pdf/cmb_dggi/policies_guidelines/annexes/annex11_registre_ventes_comptant_quoti-fra.pdf",
        "https://intranet.agr.gc.ca/resources/prod/pdf/cmb_dggi/policies_guidelines/annexes/annex12_etat_compte-fra.pdf",
        "https://intranet.agr.gc.ca/resources/prod/pdf/cmb_dggi/policies_guidelines/annexes/annex13_compte_recevoir_1er_rappel-fra.pdf",
        "https://intranet.agr.gc.ca/resources/prod/doc/cmb_dggi/policies_guidelines/annexes/annex14_compte_recevoir_1er_avis-fra.doc",
        "https://intranet.agr.gc.ca/resources/prod/pdf/cmb_dggi/policies_guidelines/annexes/annex15_compte_recevoir_dernier_rappel-fra.pdf",
        "https://intranet.agr.gc.ca/resources/prod/doc/cmb_dggi/policies_guidelines/annexes/annex16_compte_recevoir_dernier_avis-fra.doc",
        "https://intranet.agr.gc.ca/resources/prod/doc/cmb_dggi/policies_guidelines/annexes/annex17_compte_recevoir_dernier_avis_recouvre-fra.doc",
        "https://intranet.agr.gc.ca/resources/prod/doc/cmb_dggi/policies_guidelines/annexes/annex18_redevances_premier_avis-fra.doc",
        "https://intranet.agr.gc.ca/resources/prod/doc/cmb_dggi/policies_guidelines/annexes/annex19_redevances_dernier_avis_bpic-fra.doc",
        "https://intranet.agr.gc.ca/resources/prod/doc/cmb_dggi/policies_guidelines/annexes/annex20_dernier_avis_collaborateur-fra.doc",
        "https://intranet.agr.gc.ca/resources/prod/doc/cmb_dggi/policies_guidelines/annexes/annex21_cfd_premier_avis_centre-fra.doc",
        "https://intranet.agr.gc.ca/resources/prod/doc/cmb_dggi/policies_guidelines/annexes/annex22_dernier_avis_directeur_recherche-fra.doc",
        "https://intranet.agr.gc.ca/resources/prod/doc/cmb_dggi/policies_guidelines/annexes/annex23_cfd_dernier_avis_collaborateur-fra.doc",
        "https://intranet.agr.gc.ca/resources/prod/doc/cmb_dggi/policies_guidelines/annexes/annex24_codage_financier-fra.doc",
        "https://intranet.agr.gc.ca/resources/prod/pdf/cmb_dggi/policies_guidelines/annexes/annex25_ventes_collecte_paie_depots_pcd-fra.pdf",
        "https://intranet.agr.gc.ca/resources/prod/pdf/cmb_dggi/policies_guidelines/annexes/annex26_processus_comptes_debiteurs_pcd-fra.pdf",
        "https://intranet.agr.gc.ca/resources/prod/doc/cmb_dggi/policies_guidelines/tarp_lexicon_lexique_pcd-fra.doc",
        "https://intranet.agr.gc.ca/resources/prod/xls/cmb_dggi/policies_guidelines/cs_rspa-fra.xls",
        "https://intranet.agr.gc.ca/resources/prod/xls/cmb_dggi/policies_guidelines/cs_rnvr-fra.xls",
        "https://intranet.agr.gc.ca/resources/prod/doc/cmb_dggi/policies_guidelines/modif_sched_pay-fra.doc",
        "https://intranet.agr.gc.ca/resources/prod/doc/cmb_dggi/policies_guidelines/dep_pub_fnds-fra.doc",
        "https://intranet.agr.gc.ca/resources/prod/doc/cmb_dggi/policies_guidelines/cont_bill_plan1-fra.doc",
        "https://intranet.agr.gc.ca/resources/prod/doc/cmb_dggi/policies_guidelines/rqst_pay_coll-fra.doc",
        "https://intranet.agr.gc.ca/resources/prod/doc/cmb_dggi/policies_guidelines/sales_dist_rep-fra.doc",
        "https://intranet.agr.gc.ca/resources/prod/doc/cmb_dggi/policies_guidelines/red_rate_gst-fra.doc",
        "https://intranet.agr.gc.ca/resources/prod/doc/cmb_dggi/policies_guidelines/nvr_bill-fra.doc",
        "https://intranet.agr.gc.ca/resources/prod/doc/cmb_dggi/policies_guidelines/sales_dist_mod-fra.doc",
        "https://intranet.agr.gc.ca/resources/prod/doc/cmb_dggi/policies_guidelines/nvr_tarp-fra.doc",
        "https://intranet.agr.gc.ca/resources/prod/doc/cmb_dggi/policies_guidelines/cust_acc_cred_eval-fra.doc",
        "https://intranet.agr.gc.ca/resources/prod/doc/cmb_dggi/policies_guidelines/red_rate_gst2-fra.doc",
        "https://intranet.agr.gc.ca/resources/prod/doc/cmb_dggi/policies_guidelines/disp_crown_assets-fra.doc",
        "https://intranet.agr.gc.ca/resources/prod/doc/cmb_dggi/policies_guidelines/rep_royal_cont-fra.doc",
        "https://intranet.agr.gc.ca/resources/prod/doc/cmb_dggi/policies_guidelines/royal_rec_proc_tarp-fra.doc",
        "https://intranet.agr.gc.ca/resources/prod/doc/cmb_dggi/policies_guidelines/add_infos_feat1-fra.doc",
        "https://intranet.agr.gc.ca/resources/prod/doc/cmb_dggi/policies_guidelines/add_infos_feat2-fra.doc",
        "https://intranet.agr.gc.ca/resources/prod/doc/cmb_dggi/policies_guidelines/gains_loss_exchange-fra.doc",
        "https://intranet.agr.gc.ca/resources/prod/doc/cmb_dggi/policies_guidelines/ar_procedures_comptes_debiteurs-fra.doc"
    ]
}