{
    "dcr_id": "1496925878286",
    "urlEn": [
        "https://intranet.agr.gc.ca/resources/prod/pdf/hrb_dgrh/aafc_2017_departmental_awards_prix_du_ministere-bilingual.pdf",
        "http://intranet.agr.gc.ca/media/1718V-002/1718V-002-video-846x476-eng.mp4",
        "http://intranet.agr.gc.ca/media/1718V-002/1718V-002-captions-eng.xml",
        "https://intranet.agr.gc.ca/resources/prod/doc/hrb_dgrh/awards_recognition/1718V-002_gold_harvest_moisson_dor_transcript-eng.docx",
        "http://intranet.agr.gc.ca/media/1718V-002/1718V-002-video-846x476-eng.mp4",
        "http://intranet.agr.gc.ca/media/1718V-002/1718V-002-video-846x476-eng.wmv",
        "https://intranet.agr.gc.ca/resources/prod/images/hrb_dgrh/awards_recog/c_h_r-medals.jpg",
        "https://intranet.agr.gc.ca/resources/prod/images/hrb_dgrh/awards_recog/depawards_prixministere2017-eng.jpg",
        "https://intranet.agr.gc.ca/resources/prod/images/hrb_dgrh/awards_recog/dep_awards_prix_ministere-01.jpg",
        "https://intranet.agr.gc.ca/resources/prod/images/hrb_dgrh/awards_recog/dep_awards_prix_ministere-02.jpg",
        "https://intranet.agr.gc.ca/resources/prod/images/hrb_dgrh/awards_recog/dep_awards_prix_ministere-03.jpg",
        "http://intranet.agr.gc.ca/media/1718V-002/1718V-002-thumbnail-846x476-eng.png"
    ],
    "urlFr": [
        "https://intranet.agr.gc.ca/resources/prod/pdf/hrb_dgrh/aafc_2017_departmental_awards_prix_du_ministere-bilingual.pdf",
        "http://intranet.agr.gc.ca/media/1718V-002/1718V-002-video-846x476-fra.mp4",
        "http://intranet.agr.gc.ca/media/1718V-002/1718V-002-captions-fra.xml",
        "https://intranet.agr.gc.ca/resources/prod/doc/hrb_dgrh/awards_recognition/1718V-002_gold_harvest_moisson_dor_transcript-fra.docx",
        "http://intranet.agr.gc.ca/media/1718V-002/1718V-002-video-846x476-fra.mp4",
        "http://intranet.agr.gc.ca/media/1718V-002/1718V-002-video-846x476-fra.wmv",
        "https://intranet.agr.gc.ca/resources/prod/images/hrb_dgrh/awards_recog/c_h_r-medals.jpg",
        "https://intranet.agr.gc.ca/resources/prod/images/hrb_dgrh/awards_recog/depawards_prixministere2017-fra.jpg",
        "https://intranet.agr.gc.ca/resources/prod/images/hrb_dgrh/awards_recog/dep_awards_prix_ministere-01.jpg",
        "https://intranet.agr.gc.ca/resources/prod/images/hrb_dgrh/awards_recog/dep_awards_prix_ministere-02.jpg",
        "https://intranet.agr.gc.ca/resources/prod/images/hrb_dgrh/awards_recog/dep_awards_prix_ministere-03.jpg",
        "http://intranet.agr.gc.ca/media/1718V-002/1718V-002-thumbnail-846x476-fra.png"
    ]
}