{
    "dcr_id": "1405954296651",
    "urlEn": [
        "https://intranet.agr.gc.ca/resources/prod/doc/ccb_dgcc/hrb_csd_interchange_canada-eng.doc",
        "https://intranet.agr.gc.ca/resources/prod/pdf/ccb_dgcc/hrb_wrd_ve_aafc_values_and_ethics_code-eng.pdf"
    ],
    "urlFr": [
        "https://intranet.agr.gc.ca/resources/prod/doc/ccb_dgcc/hrb_csd_interchange_canada-fra.doc",
        "https://intranet.agr.gc.ca/resources/prod/pdf/ccb_dgcc/hrb_wrd_ve_aafc_values_and_ethics_code-fra.pdf"
    ]
}