{
    "dcr_id": "1573576891137",
    "urlEn": [
        "https://intranet.agr.gc.ca/resources/prod/news/images/svitlana1.png",
        "https://intranet.agr.gc.ca/resources/prod/news/images/GCWCC2019-EN.png"
    ],
    "urlFr": [
        "https://intranet.agr.gc.ca/resources/prod/news/images/svitlana1.png",
        "https://intranet.agr.gc.ca/resources/prod/news/images/GCWCC2019-FR.png"
    ]
}