{
    "dcr_id": "1332272579937",
    "urlEn": [
        "https://intranet.agr.gc.ca/resources/prod/doc/cmb_dggi/policies_guidelines/1998_99_gating_sampling-eng.doc",
        "https://intranet.agr.gc.ca/resources/prod/doc/cmb_dggi/policies_guidelines/bulletin_plan_sampling-eng.doc",
        "https://intranet.agr.gc.ca/resources/prod/doc/cmb_dggi/policies_guidelines/eap_accounting_policies-eng.doc",
        "https://intranet.agr.gc.ca/resources/prod/doc/cmb_dggi/policies_guidelines/foreign_currency_transact_devises_etrangeres-eng.doc",
        "https://intranet.agr.gc.ca/resources/prod/doc/cmb_dggi/policies_guidelines/prepaid_expenses-eng.doc",
        "https://intranet.agr.gc.ca/resources/prod/doc/cmb_dggi/policies_guidelines/1332272579937_section_article_34_certificat_attest1-eng.doc",
        "https://intranet.agr.gc.ca/resources/prod/doc/cmb_dggi/policies_guidelines/priorit_foreign_pay_paie_priorit_devises-eng.doc",
        "https://intranet.agr.gc.ca/resources/prod/doc/cmb_dggi/policies_guidelines/procedures_electronic_funds_transfer_external_recipients-eng.doc",
        "https://intranet.agr.gc.ca/resources/prod/doc/cmb_dggi/policies_guidelines/direct_deposit_proc_depot_direct_02-15-eng.doc",
        "https://intranet.agr.gc.ca/resources/prod/doc/cmb_dggi/policies_guidelines/temp_help_aide-eng.doc",
        "https://intranet.agr.gc.ca/resources/prod/doc/cmb_dggi/policies_guidelines/automatic_payment-eng.doc",
        "https://intranet.agr.gc.ca/resources/prod/doc/cmb_dggi/cmb_frms_fptp_guide_for_recording_travel_costs_as_part_of_contract-eng.docx"
    ],
    "urlFr": [
        "https://intranet.agr.gc.ca/resources/prod/doc/cmb_dggi/policies_guidelines/1998_99_selection_echantillonnage-fra.doc",
        "https://intranet.agr.gc.ca/resources/prod/doc/cmb_dggi/policies_guidelines/bulletin_plan_echantillonnage-fra.doc",
        "https://intranet.agr.gc.ca/resources/prod/doc/cmb_dggi/policies_guidelines/eap_charges_crediteurs-fra.doc",
        "https://intranet.agr.gc.ca/resources/prod/doc/cmb_dggi/policies_guidelines/foreign_currency_transact_devises_etrangeres-fra.doc",
        "https://intranet.agr.gc.ca/resources/prod/doc/cmb_dggi/policies_guidelines/prepaid_expenses-fra.doc",
        "https://intranet.agr.gc.ca/resources/prod/doc/cmb_dggi/policies_guidelines/1332272579937_section_article_34_certificat_attest1-fra.doc",
        "https://intranet.agr.gc.ca/resources/prod/doc/cmb_dggi/policies_guidelines/priorit_foreign_pay_paie_priorit_devises-fra.doc",
        "https://intranet.agr.gc.ca/resources/prod/doc/cmb_dggi/policies_guidelines/procedures_electronic_funds_transfer_external_recipients-fra.doc",
        "https://intranet.agr.gc.ca/resources/prod/doc/cmb_dggi/policies_guidelines/direct_deposit_proc_depot_direct_02-15-fra.doc",
        "https://intranet.agr.gc.ca/resources/prod/doc/cmb_dggi/policies_guidelines/temp_help_aide-fra.doc",
        "https://intranet.agr.gc.ca/resources/prod/doc/cmb_dggi/policies_guidelines/automatic_payment-fra.doc",
        "https://intranet.agr.gc.ca/resources/prod/doc/cmb_dggi/cmb_frms_fptp_guide_for_recording_travel_costs_as_part_of_contract-fra.docx"
    ]
}