{
    "dcr_id": "1562693935862",
    "urlEn": [
        "https://intranet.agr.gc.ca/resources/prod/news/images/Harvest-Richardson.png"
    ],
    "urlFr": [
        "https://intranet.agr.gc.ca/resources/prod/news/images/Harvest-Richardson.png"
    ]
}