{
    "dcr_id": "1288022170815",
    "urlEn": [
        "https://intranet.agr.gc.ca/resources/prod/doc/contacts.doc",
        "https://intranet.agr.gc.ca/resources/prod/doc/cmb-numcc_minutes-eng.pdf",
        "https://intranet.agr.gc.ca/resources/prod/doc/cmb-numcc_minutes_jun7-eng.pdf",
        "https://intranet.agr.gc.ca/resources/prod/doc/hrucc_minutes_sept272018b_eng.pdf",
        "https://intranet.agr.gc.ca/resources/prod/doc/hrucc_minutes_may252018b_eng.pdf",
        "https://intranet.agr.gc.ca/resources/prod/doc/contacts.doc",
        "https://intranet.agr.gc.ca/resources/prod/doc/contacts.doc",
        "https://intranet.agr.gc.ca/resources/prod/doc/contacts.doc"
    ],
    "urlFr": [
        "https://intranet.agr.gc.ca/resources/prod/doc/contacts.doc",
        "https://intranet.agr.gc.ca/resources/prod/doc/cmb-numcc_minutes-fra.pdf",
        "https://intranet.agr.gc.ca/resources/prod/doc/cmb-numcc_minutes_jun7-fra.pdf",
        "https://intranet.agr.gc.ca/resources/prod/doc/hrucc_minutes_sept272018b_fra.pdf",
        "https://intranet.agr.gc.ca/resources/prod/doc/hrucc_minutes_may252018b_fra.pdf",
        "https://intranet.agr.gc.ca/resources/prod/doc/contacts.doc",
        "https://intranet.agr.gc.ca/resources/prod/doc/contacts.doc",
        "https://intranet.agr.gc.ca/resources/prod/doc/contacts.doc"
    ]
}