{
    "dcr_id": "1569959386877",
    "urlEn": [
        "https://intranet.agr.gc.ca/resources/prod/news/images/Harvest-FallowfieldRoad.png"
    ],
    "urlFr": [
        "https://intranet.agr.gc.ca/resources/prod/news/images/Harvest-FallowfieldRoad.png"
    ]
}