{
    "dcr_id": "1556732852612",
    "urlEn": [
        "https://intranet.agr.gc.ca/resources/prod/news/images/HarvestSteveCui.png"
    ],
    "urlFr": [
        "https://intranet.agr.gc.ca/resources/prod/news/images/HarvestSteveCui.png"
    ]
}