{
    "dcr_id": "1521561836729",
    "urlEn": [
        "https://intranet.agr.gc.ca/resources/prod/news/images/HarvestBeetle.png"
    ],
    "urlFr": [
        "https://intranet.agr.gc.ca/resources/prod/news/images/HarvestBeetle.png"
    ]
}