{
    "dcr_id": "1536172510489",
    "urlEn": [
        "https://intranet.agr.gc.ca/resources/prod/pdf/pses/pses_people_strategy_july_2018-eng.pdf",
        "https://intranet.agr.gc.ca/resources/prod/images/pses/pses_people_strategy-eng.jpg"
    ],
    "urlFr": [
        "https://intranet.agr.gc.ca/resources/prod/pdf/pses/pses_people_strategy_july_2018_v2-fra.pdf",
        "https://intranet.agr.gc.ca/resources/prod/images/pses/pses_people_strategy-fra.jpg"
    ]
}