{
    "dcr_id": "1523897490911",
    "urlEn": [
        "https://intranet.agr.gc.ca/resources/prod/news/images/WindowsLogo.png"
    ],
    "urlFr": [
        "https://intranet.agr.gc.ca/resources/prod/news/images/WindowsLogo.png"
    ]
}