{
    "dcr_id": "1551199821360",
    "urlEn": [
        "https://intranet.agr.gc.ca/resources/prod/news/images/RVF20191.png"
    ],
    "urlFr": [
        "https://intranet.agr.gc.ca/resources/prod/news/images/RVF20191.png"
    ]
}