{
    "dcr_id": "1556300569752",
    "urlEn": [
        "https://intranet.agr.gc.ca/resources/prod/news/images/Scientist2019.png"
    ],
    "urlFr": [
        "https://intranet.agr.gc.ca/resources/prod/news/images/Scientist2019.png"
    ]
}