{
    "dcr_id": "1292849191397",
    "urlEn": [
        "https://intranet.agr.gc.ca/resources/prod/images/dm_corner/our_team/dm_forbes_06062017.jpg",
        "https://intranet.agr.gc.ca/resources/prod/images/dm_corner/our_team/adm_gibbons_bio.jpg"
    ],
    "urlFr": [
        "https://intranet.agr.gc.ca/resources/prod/images/dm_corner/our_team/dm_forbes_06062017.jpg",
        "https://intranet.agr.gc.ca/resources/prod/images/dm_corner/our_team/adm_gibbons_bio.jpg"
    ]
}