{
    "dcr_id": "1525184550587",
    "urlEn": [
        "https://intranet.agr.gc.ca/resources/prod/news/images/HarvestBringAGirlToSTEM.png"
    ],
    "urlFr": [
        "https://intranet.agr.gc.ca/resources/prod/news/images/HarvestBringAGirlToSTEM.png"
    ]
}