{
    "dcr_id": "1403270568846",
    "urlEn": [
        "https://intranet.agr.gc.ca/resources/prod/pdf/hrb_dgrh/aafc_deputy_ministers_instrument_of_hr_authorities-eng.pdf",
        "https://intranet.agr.gc.ca/resources/prod/doc/hrb_dgrh/agr372_managers_role_in_the_appointment_process_psea-eng.docx",
        "https://intranet.agr.gc.ca/resources/prod/doc/hrb_dgrh/agr385_manager_training_on_informal_discussion_in_the_appointment_process-eng.docx"
    ],
    "urlFr": [
        "https://intranet.agr.gc.ca/resources/prod/pdf/hrb_dgrh/aafc_deputy_ministers_instrument_of_hr_authorities-fra.pdf",
        "https://intranet.agr.gc.ca/resources/prod/doc/hrb_dgrh/agr372_managers_role_in_the_appointment_process_psea-fra.docx",
        "https://intranet.agr.gc.ca/resources/prod/doc/hrb_dgrh/agr385_manager_training_on_informal_discussion_in_the_appointment_process-fra.docx"
    ]
}