{
    "dcr_id": "1573138170817",
    "urlEn": [
        "https://intranet.agr.gc.ca/resources/prod/images/cmb_dggi/idling-eng.jpg"
    ],
    "urlFr": [
        "https://intranet.agr.gc.ca/resources/prod/images/cmb_dggi/idling-fra.jpg"
    ]
}