{
    "dcr_id": "1526999198564",
    "urlEn": [
        "https://intranet.agr.gc.ca/resources/prod/news/images/AsianHeritageMonth-DrYuxiaLi.png"
    ],
    "urlFr": [
        "https://intranet.agr.gc.ca/resources/prod/news/images/AsianHeritageMonth-DrYuxiaLi.png"
    ]
}