{
    "dcr_id": "1323352755182",
    "urlEn": [
        "https://intranet.agr.gc.ca/resources/prod/pdf/information_system/m3000-user-guide_eng.pdf"
    ],
    "urlFr": [
        "https://intranet.agr.gc.ca/resources/prod/pdf/information_system/m3000-guide-de-utilisateur_fra.pdf"
    ]
}