{
    "dcr_id": "1563479982319",
    "urlEn": [
        "https://intranet.agr.gc.ca/resources/prod/images/hrb_dgrh/p_soft_4more-eng.jpg",
        "https://intranet.agr.gc.ca/resources/prod/images/hrb_dgrh/p_soft_emp_summ-eng.jpg",
        "https://intranet.agr.gc.ca/resources/prod/images/hrb_dgrh/p_soft_emp_summ_adjust-eng.jpg",
        "https://intranet.agr.gc.ca/resources/prod/images/hrb_dgrh/p_soft_emp_summ_bal-eng.jpg",
        "https://intranet.agr.gc.ca/resources/prod/images/hrb_dgrh/p_soft_emp_summ_bal_adj-eng.jpg"
    ],
    "urlFr": [
        "https://intranet.agr.gc.ca/resources/prod/images/hrb_dgrh/p_soft_4more-fra.jpg",
        "https://intranet.agr.gc.ca/resources/prod/images/hrb_dgrh/p_soft_emp_summ-fra.jpg",
        "https://intranet.agr.gc.ca/resources/prod/images/hrb_dgrh/p_soft_emp_summ_adjust-fra.jpg",
        "https://intranet.agr.gc.ca/resources/prod/images/hrb_dgrh/p_soft_emp_summ_bal-fra.jpg",
        "https://intranet.agr.gc.ca/resources/prod/images/hrb_dgrh/p_soft_emp_summ_bal_adj-fra.jpg"
    ]
}