{
    "dcr_id": "1576270102539",
    "urlEn": [
        "https://intranet.agr.gc.ca/resources/prod/news/images/MapleLeafProperty.png"
    ],
    "urlFr": [
        "https://intranet.agr.gc.ca/resources/prod/news/images/MapleLeafProperty.png"
    ]
}