{
    "dcr_id": "1580747063978",
    "urlEn": [
        "https://intranet.agr.gc.ca/resources/prod/news/images/IndigenousNetworkCircleBanner-EN.png"
    ],
    "urlFr": [
        "https://intranet.agr.gc.ca/resources/prod/news/images/IndigenousNetworkCircle-FR.png"
    ]
}