{
    "dcr_id": "1523032434484",
    "urlEn": [
        "https://intranet.agr.gc.ca/resources/prod/news/images/YouthPolicy-EN.png"
    ],
    "urlFr": [
        "https://intranet.agr.gc.ca/resources/prod/news/images/YouthPolicy-FR.png"
    ]
}