{
    "dcr_id": "1556811346693",
    "urlEn": [
        "https://intranet.agr.gc.ca/resources/prod/news/images/DataVisualization2019.png"
    ],
    "urlFr": [
        "https://intranet.agr.gc.ca/resources/prod/news/images/DataVisualization2019.png"
    ]
}