{
    "dcr_id": "1288028994039",
    "urlEn": [
        "https://intranet.agr.gc.ca/resources/prod/pdf/hrb_dgrh/pay_resources-eng.pdf"
    ],
    "urlFr": [
        "https://intranet.agr.gc.ca/resources/prod/pdf/hrb_dgrh/pay_resources-fra.pdf"
    ]
}