{
    "dcr_id": "1548176111219",
    "urlEn": [
        "https://intranet.agr.gc.ca/resources/prod/news/images/Persons%20With%20Disabilities%20Network%20Banner-EN.png"
    ],
    "urlFr": [
        "https://intranet.agr.gc.ca/resources/prod/news/images/Persons%20With%20Disabilities%20Network%20Banner-FR.png"
    ]
}