{
    "dcr_id": "1379963087691",
    "urlEn": [
        "https://intranet.agr.gc.ca/resources/prod/images/hrb_dgrh/java_popup-eng.jpg"
    ],
    "urlFr": [
        "https://intranet.agr.gc.ca/resources/prod/images/hrb_dgrh/java_popup-fra.jpg"
    ]
}