{
    "dcr_id": "1287488781808",
    "urlEn": [
        "https://intranet.agr.gc.ca/resources/prod/images/programs_branch/programs_branch2.jpg"
    ],
    "urlFr": [
        "https://intranet.agr.gc.ca/resources/prod/images/programs_branch/programs_branch2.jpg"
    ]
}