{
    "dcr_id": "1545160633420",
    "urlEn": [
        "https://intranet.agr.gc.ca/resources/prod/news/images/Wifi.png"
    ],
    "urlFr": [
        "https://intranet.agr.gc.ca/resources/prod/news/images/Wifi.png"
    ]
}