{
    "dcr_id": "1528200893826",
    "urlEn": [
        "https://intranet.agr.gc.ca/resources/prod/news/images/YPN-SPROUT-EN.png",
        "https://intranet.agr.gc.ca/resources/prod/news/images/NPSW-EN.png"
    ],
    "urlFr": [
        "https://intranet.agr.gc.ca/resources/prod/news/images/YPN-SPROUT-FR.png",
        "https://intranet.agr.gc.ca/resources/prod/news/images/NPSW-FR.png"
    ]
}