{
    "dcr_id": "1527514313190",
    "urlEn": [
        "https://intranet.agr.gc.ca/resources/prod/news/images/AsianHeritageMonth-DrThinMeiwChoo.png"
    ],
    "urlFr": [
        "https://intranet.agr.gc.ca/resources/prod/news/images/AsianHeritageMonth-DrThinMeiwChoo.png"
    ]
}