{
    "dcr_id": "1575991670583",
    "urlEn": [
        "https://intranet.agr.gc.ca/resources/prod/news/images/StayHome.png"
    ],
    "urlFr": [
        "https://intranet.agr.gc.ca/resources/prod/news/images/StayHome.png"
    ]
}