{
    "dcr_id": "1534863714417",
    "urlEn": [
        "https://intranet.agr.gc.ca/resources/prod/news/images/HarvestSproutFarmTour2018.png"
    ],
    "urlFr": [
        "https://intranet.agr.gc.ca/resources/prod/news/images/HarvestSproutFarmTour2018.png"
    ]
}