{
    "dcr_id": "1569338620304",
    "urlEn": [
        "https://intranet.agr.gc.ca/resources/prod/news/images/LibraryMonth2019-EN.png"
    ],
    "urlFr": [
        "https://intranet.agr.gc.ca/resources/prod/news/images/LibraryMonth2019-FR.png"
    ]
}