{
    "dcr_id": "1542728797841",
    "urlEn": [
        "https://intranet.agr.gc.ca/resources/prod/news/images/GBV2018-EN.png"
    ],
    "urlFr": [
        "https://intranet.agr.gc.ca/resources/prod/news/images/GBV2018-FR.png"
    ]
}