{
    "dcr_id": "1287491853497",
    "urlEn": [
        "http://intranet.agr.gc.ca/resources/prod/pdf/hrb_dgrh/awards_recognition/inverted_pyramid_text-eng.pdf",
        "https://intranet.agr.gc.ca/resources/prod/pdf/hrb_dgrh/awards_recognition/cert_rec.pdf",
        "https://intranet.agr.gc.ca/resources/prod/pdf/hrb_dgrh/awards_recognition/cert_rec_student-eng.pdf",
        "https://intranet.agr.gc.ca/resources/prod/pdf/hrb_dgrh/awards_recognition/appreci_o_gram_with_inst-eng.pdf",
        "https://intranet.agr.gc.ca/resources/prod/pdf/hrb_dgrh/awards_recognition/cert_rec.pdf",
        "https://intranet.agr.gc.ca/resources/prod/pdf/hrb_dgrh/awards_recognition/cert_rec_student-eng.pdf",
        "https://intranet.agr.gc.ca/resources/prod/pdf/hrb_dgrh/awards_recognition/appreci_o_gram_with_inst-eng.pdf",
        "https://intranet.agr.gc.ca/resources/prod/pdf/hrb_dgrh/awards_recognition/appreci_o_gram-eng.pdf",
        "https://intranet.agr.gc.ca/resources/prod/pdf/hrb_dgrh/awards_recognition/diversity_inclusion_cert_1-eng.pdf",
        "https://intranet.agr.gc.ca/resources/prod/pdf/hrb_dgrh/awards_recognition/diversity_inclusion_cert_2-eng.pdf",
        "https://intranet.agr.gc.ca/resources/prod/pdf/hrb_dgrh/awards_recognition/cert_instant_award_prix.pdf",
        "https://intranet.agr.gc.ca/resources/prod/pdf/hrb_dgrh/awards_recognition/cert_instant_award_student-eng.pdf",
        "https://intranet.agr.gc.ca/resources/prod/doc/hrb_dgrh/hr_gold_harvest_awards_sample_rationale_and_endorsement-eng.doc",
        "https://intranet.agr.gc.ca/resources/prod/doc/hrb_dgrh/hrb_ldol_oedr_departmental_awards_past_recipients-eng.docx",
        "http://intranet.agr.gc.ca/resources/prod/pdf/hrb_dgrh/awards_recognition/inverted_pyramid_mini_text-eng.jpg"
    ],
    "urlFr": [
        "http://intranet.agr.gc.ca/resources/prod/pdf/hrb_dgrh/awards_recognition/inverted_pyramid_text-fra.pdf",
        "https://intranet.agr.gc.ca/resources/prod/pdf/hrb_dgrh/awards_recognition/cert_rec.pdf",
        "https://intranet.agr.gc.ca/resources/prod/pdf/hrb_dgrh/awards_recognition/cert_rec_student-fra.pdf",
        "https://intranet.agr.gc.ca/resources/prod/pdf/hrb_dgrh/awards_recognition/appreci_o_gram_with_inst-fra.pdf",
        "https://intranet.agr.gc.ca/resources/prod/pdf/hrb_dgrh/awards_recognition/cert_rec.pdf",
        "https://intranet.agr.gc.ca/resources/prod/pdf/hrb_dgrh/awards_recognition/cert_rec_student-fra.pdf",
        "https://intranet.agr.gc.ca/resources/prod/pdf/hrb_dgrh/awards_recognition/appreci_o_gram_with_inst-fra.pdf",
        "https://intranet.agr.gc.ca/resources/prod/pdf/hrb_dgrh/awards_recognition/appreci_o_gram-fra.pdf",
        "https://intranet.agr.gc.ca/resources/prod/pdf/hrb_dgrh/awards_recognition/diversity_inclusion_cert_1-fra.pdf",
        "https://intranet.agr.gc.ca/resources/prod/pdf/hrb_dgrh/awards_recognition/diversity_inclusion_cert_2-fra.pdf",
        "https://intranet.agr.gc.ca/resources/prod/pdf/hrb_dgrh/awards_recognition/cert_instant_award_prix.pdf",
        "https://intranet.agr.gc.ca/resources/prod/pdf/hrb_dgrh/awards_recognition/cert_instant_award_student-fra.pdf",
        "https://intranet.agr.gc.ca/resources/prod/doc/hrb_dgrh/hr_gold_harvest_awards_sample_rationale_and_endorsement-fra.doc",
        "https://intranet.agr.gc.ca/resources/prod/doc/hrb_dgrh/hrb_ldol_oedr_departmental_awards_past_recipients-fra.docx",
        "http://intranet.agr.gc.ca/resources/prod/pdf/hrb_dgrh/awards_recognition/inverted_pyramid_mini_text-fra.jpg"
    ]
}