{
    "dcr_id": "1567512556143",
    "urlEn": [
        "https://intranet.agr.gc.ca/resources/prod/doc/hrb_dgrh/phoenix_pay_pods_feb-eng.docx",
        "https://intranet.agr.gc.ca/resources/prod/doc/hrb_dgrh/phoenix_pay_pods_mar-eng.docx",
        "https://intranet.agr.gc.ca/resources/prod/doc/hrb_dgrh/phoenix_pay_pods_apr-eng.docx",
        "https://intranet.agr.gc.ca/resources/prod/doc/hrb_dgrh/phoenix_pay_pods_jun-eng.docx",
        "https://intranet.agr.gc.ca/resources/prod/doc/hrb_dgrh/phoenix_pay_pods_jul-eng.docx"
    ],
    "urlFr": [
        "https://intranet.agr.gc.ca/resources/prod/doc/hrb_dgrh/phoenix_pay_pods_feb-fra.docx",
        "https://intranet.agr.gc.ca/resources/prod/doc/hrb_dgrh/phoenix_pay_pods_mar-fra.docx",
        "https://intranet.agr.gc.ca/resources/prod/doc/hrb_dgrh/phoenix_pay_pods_apr-fra.docx",
        "https://intranet.agr.gc.ca/resources/prod/doc/hrb_dgrh/phoenix_pay_pods_jun-fra.docx",
        "https://intranet.agr.gc.ca/resources/prod/doc/hrb_dgrh/phoenix_pay_pods_jul-fra.docx"
    ]
}