{
    "dcr_id": "1571665342778",
    "urlEn": [
        "https://intranet.agr.gc.ca/resources/prod/news/images/MentalHealthAwarenessWeek.png"
    ],
    "urlFr": [
        "https://intranet.agr.gc.ca/resources/prod/news/images/MentalHealthAwarenessWeek.png"
    ]
}