{
    "dcr_id": "1538162973344",
    "urlEn": [
        "https://intranet.agr.gc.ca/resources/prod/news/images/VisbleMinoritiesNetwork-EN.png"
    ],
    "urlFr": [
        "https://intranet.agr.gc.ca/resources/prod/news/images/VisbleMinoritiesNetwork-FR.png"
    ]
}