{
    "dcr_id": "1533654600199",
    "urlEn": [
        "https://intranet.agr.gc.ca/resources/prod/news/images/HarvestDrought.png"
    ],
    "urlFr": [
        "https://intranet.agr.gc.ca/resources/prod/news/images/HarvestDrought.png"
    ]
}