{
    "dcr_id": "1559674417119",
    "urlEn": [
        "https://intranet.agr.gc.ca/resources/prod/news/images/DepartmentalAwards2019-EN.png"
    ],
    "urlFr": [
        "https://intranet.agr.gc.ca/resources/prod/news/images/DepartmentalAwards2019-FR.png"
    ]
}