{
    "dcr_id": "1581095166508",
    "urlEn": [
        "https://intranet.agr.gc.ca/resources/prod/doc/hrb_dgrh/phoenix_pay_pods_feb-eng.docx",
        "https://intranet.agr.gc.ca/resources/prod/doc/hrb_dgrh/phoenix_pay_pods_mar-eng.docx",
        "https://intranet.agr.gc.ca/resources/prod/doc/hrb_dgrh/phoenix_pay_pods_apr-eng.docx",
        "https://intranet.agr.gc.ca/resources/prod/doc/hrb_dgrh/phoenix_pay_pods_jun-eng.docx",
        "https://intranet.agr.gc.ca/resources/prod/doc/hrb_dgrh/phoenix_pay_pods_jul-eng.docx"
    ],
    "urlFr": [
        "https://intranet.agr.gc.ca/resources/prod/doc/hrb_dgrh/phoenix_pay_pods_feb-eng.docx",
        "https://intranet.agr.gc.ca/resources/prod/doc/hrb_dgrh/phoenix_pay_pods_mar-eng.docx",
        "https://intranet.agr.gc.ca/resources/prod/doc/hrb_dgrh/phoenix_pay_pods_apr-eng.docx",
        "https://intranet.agr.gc.ca/resources/prod/doc/hrb_dgrh/phoenix_pay_pods_jun-eng.docx",
        "https://intranet.agr.gc.ca/resources/prod/doc/hrb_dgrh/phoenix_pay_pods_jul-eng.docx"
    ]
}