{
    "dcr_id": "1353534043229",
    "urlEn": [
        "https://intranet.agr.gc.ca/resources/prod/images/organizational_structure/saindon-eng.jpg"
    ],
    "urlFr": [
        "https://intranet.agr.gc.ca/resources/prod/images/organizational_structure/saindon-fra.jpg"
    ]
}