{
    "dcr_id": "1599585106007",
    "urlEn": [
        "https://intranet.agr.gc.ca/resources/prod/news/images/PwDNBanner2019-EN.png"
    ],
    "urlFr": [
        "https://intranet.agr.gc.ca/resources/prod/news/images/PwDNBanner2019-FR.png"
    ]
}