{
    "dcr_id": "1560978446270",
    "urlEn": [
        "https://intranet.agr.gc.ca/resources/prod/news/images/GSDIN1-EN.png"
    ],
    "urlFr": [
        "https://intranet.agr.gc.ca/resources/prod/news/images/GSDIN1-FR.png"
    ]
}