{
    "dcr_id": "1581004714253",
    "urlEn": [
        "https://intranet.agr.gc.ca/resources/prod/news/images/CUE-EN.png"
    ],
    "urlFr": [
        "https://intranet.agr.gc.ca/resources/prod/news/images/CUE-FR.png"
    ]
}