{
    "dcr_id": "1538506735434",
    "urlEn": [
        "https://intranet.agr.gc.ca/resources/prod/news/images/GCWCC12018-EN.png",
        "https://intranet.agr.gc.ca/resources/prod/news/images/YPN-EN.png"
    ],
    "urlFr": [
        "https://intranet.agr.gc.ca/resources/prod/news/images/GCWCC12018-FR.png",
        "https://intranet.agr.gc.ca/resources/prod/news/images/YPN-FR.png"
    ]
}