{
    "dcr_id": "1520361611604",
    "urlEn": [
        "https://intranet.agr.gc.ca/resources/prod/news/images/OHSLogoEN.png"
    ],
    "urlFr": [
        "https://intranet.agr.gc.ca/resources/prod/news/images/OHSLogoFR.png"
    ]
}