{
    "dcr_id": "1523372161173",
    "urlEn": [
        "https://intranet.agr.gc.ca/resources/prod/news/images/HarvestDM2.png"
    ],
    "urlFr": [
        "https://intranet.agr.gc.ca/resources/prod/news/images/HarvestDM2.png"
    ]
}