{
    "dcr_id": "1553622048894",
    "urlEn": [
        "https://intranet.agr.gc.ca/resources/prod/news/images/HarvestRRUM.png"
    ],
    "urlFr": [
        "https://intranet.agr.gc.ca/resources/prod/news/images/HarvestRRUM.png"
    ]
}