{
    "dcr_id": "1546888638302",
    "urlEn": [
        "https://intranet.agr.gc.ca/resources/prod/news/images/ManagersCommunity-EN3.png"
    ],
    "urlFr": [
        "https://intranet.agr.gc.ca/resources/prod/news/images/ManagersCommunity-FR3.png"
    ]
}