{
    "dcr_id": "1574800219105",
    "urlEn": [
        "https://intranet.agr.gc.ca/resources/prod/news/images/YPN-SPROUT-EN.png"
    ],
    "urlFr": [
        "https://intranet.agr.gc.ca/resources/prod/news/images/YPN-SPROUT-FR.png"
    ]
}