{
    "dcr_id": "1564070603010",
    "urlEn": [
        "https://intranet.agr.gc.ca/resources/prod/news/images/SPROUT-EN.png"
    ],
    "urlFr": [
        "https://intranet.agr.gc.ca/resources/prod/news/images/SPROUT-FR.png"
    ]
}