{
    "dcr_id": "1554222834833",
    "urlEn": [
        "https://intranet.agr.gc.ca/resources/prod/news/images/HarvestCranberries.png"
    ],
    "urlFr": [
        "https://intranet.agr.gc.ca/resources/prod/news/images/HarvestCranberries.png"
    ]
}