{
    "dcr_id": "1524588417741",
    "urlEn": [
        "https://intranet.agr.gc.ca/resources/prod/news/images/BiketoWork-EN.png"
    ],
    "urlFr": [
        "https://intranet.agr.gc.ca/resources/prod/news/images/BiketoWork-FR.png"
    ]
}