{
    "dcr_id": "1530026575038",
    "urlEn": [
        "https://intranet.agr.gc.ca/resources/prod/news/images/ConversationDM-EN.png"
    ],
    "urlFr": [
        "https://intranet.agr.gc.ca/resources/prod/news/images/ConversationDM-FR.png"
    ]
}