{
    "dcr_id": "1549485260562",
    "urlEn": [
        "https://intranet.agr.gc.ca/resources/prod/news/images/ValuesEthics2019-EN.png"
    ],
    "urlFr": [
        "https://intranet.agr.gc.ca/resources/prod/news/images/ValuesEthics2019-FR.png"
    ]
}