{
    "dcr_id": "1601389651468",
    "urlEn": [
        "https://intranet.agr.gc.ca/resources/prod/news/images/WomenInScience-EN2019.png"
    ],
    "urlFr": [
        "https://intranet.agr.gc.ca/resources/prod/news/images/WomenInScience-FR2019.png"
    ]
}