{
    "dcr_id": "1525781918352",
    "urlEn": [
        "https://intranet.agr.gc.ca/resources/prod/news/images/DiversityandInclusivenessBanner.png"
    ],
    "urlFr": [
        "https://intranet.agr.gc.ca/resources/prod/news/images/DiversityandInclusivenessBanner.png"
    ]
}