{
    "dcr_id": "1569962977400",
    "urlEn": [
        "https://intranet.agr.gc.ca/resources/prod/news/images/Harvest-Timecapsule.png"
    ],
    "urlFr": [
        "https://intranet.agr.gc.ca/resources/prod/news/images/Harvest-Timecapsule.png"
    ]
}