{
    "dcr_id": "1564611839298",
    "urlEn": [
        "https://intranet.agr.gc.ca/resources/prod/news/images/SurplusStore-EN.png"
    ],
    "urlFr": [
        "https://intranet.agr.gc.ca/resources/prod/news/images/Surplus-Store-FR.png"
    ]
}