{
    "dcr_id": "1517318176404",
    "urlEn": [
        "https://intranet.agr.gc.ca/resources/prod/news/images/SecurityAwareness2018.png"
    ],
    "urlFr": [
        "https://intranet.agr.gc.ca/resources/prod/news/images/SecurityAwareness2018.png"
    ]
}