{
    "dcr_id": "1572031549341",
    "urlEn": [
        "https://intranet.agr.gc.ca/resources/prod/news/images/GoldHarvestAwards2019-EN.png"
    ],
    "urlFr": [
        "https://intranet.agr.gc.ca/resources/prod/news/images/GoldHarvestAwards2019-FR.png"
    ]
}