{
    "dcr_id": "1287771173431",
    "urlEn": [
        "https://intranet.agr.gc.ca/resources/prod/pdf/hrb_dgrh/ee_self_id_questionnaire-eng.pdf",
        "https://intranet.agr.gc.ca/resources/prod/doc/hrb_dgrh/ee_self_id_faq-eng.docx"
    ],
    "urlFr": [
        "https://intranet.agr.gc.ca/resources/prod/pdf/hrb_dgrh/ee_self_id_questionnaire-fra.pdf",
        "https://intranet.agr.gc.ca/resources/prod/doc/hrb_dgrh/ee_self_id_faq-fra.docx"
    ]
}