{
    "dcr_id": "1537198660033",
    "urlEn": [
        "https://intranet.agr.gc.ca/resources/prod/news/images/FoodPolicyWhatWeHeard-EN1.png"
    ],
    "urlFr": [
        "https://intranet.agr.gc.ca/resources/prod/news/images/FoodPolicyWhatWeHeard-FR1.png"
    ]
}