{
    "dcr_id": "1564401803643",
    "urlEn": [
        "https://intranet.agr.gc.ca/resources/prod/news/images/clean-desk.png"
    ],
    "urlFr": [
        "https://intranet.agr.gc.ca/resources/prod/news/images/clean-desk.png"
    ]
}