{
    "dcr_id": "1340725625099",
    "urlEn": [
        "https://intranet.agr.gc.ca/resources/prod/pdf/cmb_dggi/res/esc_floor_etage-eng.pdf",
        "https://intranet.agr.gc.ca/resources/prod/pdf/cmb_dggi/res/esc_nhcap_ncacpa-eng.pdf",
        "https://intranet.agr.gc.ca/resources/prod/pdf/cmb_dggi/res/esc_park_stationnement-eng.pdf",
        "https://intranet.agr.gc.ca/resources/prod/pdf/cmb_dggi/res/esc_recycling_recyclage-eng.pdf"
    ],
    "urlFr": [
        "https://intranet.agr.gc.ca/resources/prod/pdf/cmb_dggi/res/esc_floor_etage-fra.pdf",
        "https://intranet.agr.gc.ca/resources/prod/pdf/cmb_dggi/res/esc_nhcap_ncacpa-fra.pdf",
        "https://intranet.agr.gc.ca/resources/prod/pdf/cmb_dggi/res/esc_park_stationnement-fra.pdf",
        "https://intranet.agr.gc.ca/resources/prod/pdf/cmb_dggi/res/esc_recycling_recyclage-fra.pdf"
    ]
}