{
    "dcr_id": "1553019338738",
    "urlEn": [
        "https://intranet.agr.gc.ca/resources/prod/news/images/Window-Cleaning.png"
    ],
    "urlFr": [
        "https://intranet.agr.gc.ca/resources/prod/news/images/Window-Cleaning.png"
    ]
}