{
    "dcr_id": "1530023526740",
    "urlEn": [
        "https://intranet.agr.gc.ca/resources/prod/news/images/HarvestTanabeMural.png"
    ],
    "urlFr": [
        "https://intranet.agr.gc.ca/resources/prod/news/images/HarvestTanabeMural.png"
    ]
}