{
    "dcr_id": "1581346817379",
    "urlEn": [
        "https://intranet.agr.gc.ca/resources/prod/news/images/beyond2020-eng.png"
    ],
    "urlFr": [
        "https://intranet.agr.gc.ca/resources/prod/news/images/beyond2020-fra.png"
    ]
}