{
    "dcr_id": "1536079194913",
    "urlEn": [
        "https://intranet.agr.gc.ca/resources/prod/news/images/OECD-OCDE.png"
    ],
    "urlFr": [
        "https://intranet.agr.gc.ca/resources/prod/news/images/OECD-OCDE.png"
    ]
}