{
    "dcr_id": "1306858603505",
    "urlEn": [
        "https://intranet.agr.gc.ca/resources/prod/images/corp_comm_marketing/agri-images_login_en.jpg"
    ],
    "urlFr": [
        "https://intranet.agr.gc.ca/resources/prod/images/corp_comm_marketing/agri-images_login_fr.jpg"
    ]
}