{
    "dcr_id": "1518815999321",
    "urlEn": [
        "https://intranet.agr.gc.ca/resources/prod/news/images/WinterHazards.png"
    ],
    "urlFr": [
        "https://intranet.agr.gc.ca/resources/prod/news/images/WinterHazards.png"
    ]
}