{
    "dcr_id": "1524580041745",
    "urlEn": [
        "https://intranet.agr.gc.ca/resources/prod/news/images/HarvestJerseyDay.png"
    ],
    "urlFr": [
        "https://intranet.agr.gc.ca/resources/prod/news/images/HarvestJerseyDay.png"
    ]
}