{
    "dcr_id": "1574172258075",
    "urlEn": [
        "https://intranet.agr.gc.ca/resources/prod/news/images/bravo.png"
    ],
    "urlFr": [
        "https://intranet.agr.gc.ca/resources/prod/news/images/bravo.png"
    ]
}