{
    "dcr_id": "1558537831597",
    "urlEn": [
        "https://intranet.agr.gc.ca/resources/prod/news/images/HarvestJosephKim.png"
    ],
    "urlFr": [
        "https://intranet.agr.gc.ca/resources/prod/news/images/HarvestJosephKim.png"
    ]
}