{
    "dcr_id": "1329403260606",
    "urlEn": [
        "https://intranet.agr.gc.ca/resources/prod/images/hrb_dgrh/pdap_pppa/karen_hodgson-eng.docx",
        "https://intranet.agr.gc.ca/resources/prod/pdf/hrb_dgrh/ec03_assessment-eng.pdf",
        "https://intranet.agr.gc.ca/resources/prod/pdf/hrb_dgrh/ec04_assessment-eng.pdf",
        "https://intranet.agr.gc.ca/resources/prod/pdf/hrb_dgrh/ec-05_assessment-eng.pdf",
        "https://intranet.agr.gc.ca/resources/prod/pdf/hrb_dgrh/justification_letter-eng.pdf",
        "https://intranet.agr.gc.ca/resources/prod/images/hrb_dgrh/pdap_pppa/karen_hodgson.jpg",
        "https://intranet.agr.gc.ca/resources/prod/images/hrb_dgrh/pdap_pppa/adam_arsenault-eng.jpg"
    ],
    "urlFr": [
        "https://intranet.agr.gc.ca/resources/prod/images/hrb_dgrh/pdap_pppa/karen_hodgson-fra.docx",
        "https://intranet.agr.gc.ca/resources/prod/pdf/hrb_dgrh/ec03_assessment-fra.pdf",
        "https://intranet.agr.gc.ca/resources/prod/pdf/hrb_dgrh/ec04_assessment-fra.pdf",
        "https://intranet.agr.gc.ca/resources/prod/pdf/hrb_dgrh/ec-05_assessment-fra.pdf",
        "https://intranet.agr.gc.ca/resources/prod/pdf/hrb_dgrh/justification_letter-fra.pdf",
        "https://intranet.agr.gc.ca/resources/prod/images/hrb_dgrh/pdap_pppa/karen_hodgson.jpg",
        "https://intranet.agr.gc.ca/resources/prod/images/hrb_dgrh/pdap_pppa/adam_arsenault-fra.jpg"
    ]
}