{
    "dcr_id": "1544813506890",
    "urlEn": [
        "https://intranet.agr.gc.ca/resources/prod/news/images/LetsTalkAccessibility-EN.png"
    ],
    "urlFr": [
        "https://intranet.agr.gc.ca/resources/prod/news/images/LetsTalkAccessibility-FR.png"
    ]
}