{
    "dcr_id": "1559059158657",
    "urlEn": [
        "https://intranet.agr.gc.ca/resources/prod/news/images/GrowDiversityInclusion-EN2.png"
    ],
    "urlFr": [
        "https://intranet.agr.gc.ca/resources/prod/news/images/GrowDiversityInclusion-FR2.png"
    ]
}