{
    "dcr_id": "1553013272458",
    "urlEn": [
        "https://intranet.agr.gc.ca/resources/prod/news/images/HarvestMinisterBibeau.png"
    ],
    "urlFr": [
        "https://intranet.agr.gc.ca/resources/prod/news/images/HarvestMinisterBibeau.png"
    ]
}