{
    "dcr_id": "1327094721708",
    "urlEn": [
        "https://intranet.agr.gc.ca/resources/prod/pdf/pab_dgap/privacy_impact_assessment_directive-eng.pdf",
        "https://intranet.agr.gc.ca/resources/prod/pdf/pab_dgap/privacy_protocol-eng.pdf",
        "https://intranet.agr.gc.ca/resources/prod/doc/pab_dgap/social_insurance_number_directive-eng.docx",
        "https://intranet.agr.gc.ca/resources/prod/doc/pab_dgap/aafc_privacy_management_framework-eng.doc",
        "https://intranet.agr.gc.ca/resources/prod/pdf/pab_dgap/aafc_privacy_breach_response_plan-eng.pdf",
        "https://intranet.agr.gc.ca/resources/prod/pdf/pab_dgap/aafc_privacy_breach_checklist-eng.pdf",
        "https://intranet.agr.gc.ca/resources/prod/doc/pab_dgap/new_policy_privacy_protection-eng.docx",
        "https://intranet.agr.gc.ca/resources/prod/doc/pab_dgap/policy_access_information-eng.docx",
        "https://intranet.agr.gc.ca/resources/prod/pdf/ccb_dgcc/atip/2017_2018_annual_rpt_atip-eng.pdf",
        "https://intranet.agr.gc.ca/resources/prod/pdf/ccb_dgcc/atip/2017-2018_annual_rpt_privacy_act-eng.pdf",
        "https://intranet.agr.gc.ca/resources/prod/pdf/ccb_dgcc/atip/2016_2017_annual_rpt_atip-eng.pdf",
        "https://intranet.agr.gc.ca/resources/prod/pdf/ccb_dgcc/atip/2016-2017_annual_rpt_privacy_act-eng.pdf",
        "https://intranet.agr.gc.ca/resources/prod/pdf/ccb_dgcc/atip/2015_2016_annual_rpt_atip-eng.pdf",
        "https://intranet.agr.gc.ca/resources/prod/pdf/ccb_dgcc/atip/2015-2016_annual_rpt_privacy_act-eng.pdf"
    ],
    "urlFr": [
        "https://intranet.agr.gc.ca/resources/prod/pdf/pab_dgap/privacy_impact_assessment_directive-fra.pdf",
        "https://intranet.agr.gc.ca/resources/prod/pdf/pab_dgap/privacy_protocol-fra.pdf",
        "https://intranet.agr.gc.ca/resources/prod/doc/pab_dgap/social_insurance_number_directive-fra.docx",
        "https://intranet.agr.gc.ca/resources/prod/doc/pab_dgap/aafc_privacy_management_framework-fra.doc",
        "https://intranet.agr.gc.ca/resources/prod/pdf/pab_dgap/aafc_privacy_breach_response_plan-fra.pdf",
        "https://intranet.agr.gc.ca/resources/prod/pdf/pab_dgap/aafc_privacy_breach_checklist-fra.pdf",
        "https://intranet.agr.gc.ca/resources/prod/doc/pab_dgap/new_policy_privacy_protection-fra.docx",
        "https://intranet.agr.gc.ca/resources/prod/doc/pab_dgap/policy_access_information-fra.docx",
        "https://intranet.agr.gc.ca/resources/prod/pdf/ccb_dgcc/atip/2017_2018_annual_rpt_atip-fra.pdf",
        "https://intranet.agr.gc.ca/resources/prod/pdf/ccb_dgcc/atip/2017-2018_annual_rpt_privacy_act-fra.pdf",
        "https://intranet.agr.gc.ca/resources/prod/pdf/ccb_dgcc/atip/2016_2017_annual_rpt_atip-fra.pdf",
        "https://intranet.agr.gc.ca/resources/prod/pdf/ccb_dgcc/atip/2016-2017_annual_rpt_privacy_act-fra.pdf",
        "https://intranet.agr.gc.ca/resources/prod/pdf/ccb_dgcc/atip/2015_2016_annual_rpt_atip-fra.pdf",
        "https://intranet.agr.gc.ca/resources/prod/pdf/ccb_dgcc/atip/2015-2016_annual_rpt_privacy_act-fra.pdf"
    ]
}