{
    "dcr_id": "1537976493137",
    "urlEn": [
        "https://intranet.agr.gc.ca/resources/prod/news/images/MTOReport2018.png"
    ],
    "urlFr": [
        "https://intranet.agr.gc.ca/resources/prod/news/images/MTOReport2018.png"
    ]
}