{
    "dcr_id": "1525188893374",
    "urlEn": [
        "https://intranet.agr.gc.ca/resources/prod/news/images/InternalAuditAwarenessMonth-EN.png"
    ],
    "urlFr": [
        "https://intranet.agr.gc.ca/resources/prod/news/images/InternalAuditAwarenessMonth-FR.png"
    ]
}