{
    "dcr_id": "1569880032256",
    "urlEn": [
        "https://intranet.agr.gc.ca/resources/prod/news/images/TakeOurKidstoWork22018.png"
    ],
    "urlFr": [
        "https://intranet.agr.gc.ca/resources/prod/news/images/TakeOurKidstoWork22018.png"
    ]
}