{
    "dcr_id": "1539094623611",
    "urlEn": [
        "https://intranet.agr.gc.ca/resources/prod/news/images/HarvestBiogenius.png"
    ],
    "urlFr": [
        "https://intranet.agr.gc.ca/resources/prod/news/images/HarvestBiogenius.png"
    ]
}