{
    "dcr_id": "1538483055698",
    "urlEn": [
        "https://intranet.agr.gc.ca/resources/prod/news/images/PABCupcakeStars2018-EN.png",
        "https://intranet.agr.gc.ca/resources/prod/news/images/GCWCC2018-EN.png"
    ],
    "urlFr": [
        "https://intranet.agr.gc.ca/resources/prod/news/images/PABCupcakeStars2018-FR.png",
        "https://intranet.agr.gc.ca/resources/prod/news/images/GCWCC2018-FR.png"
    ]
}