{
    "dcr_id": "1530890655039",
    "urlEn": [
        "https://intranet.agr.gc.ca/resources/prod/news/images/NHCAP.png"
    ],
    "urlFr": [
        "https://intranet.agr.gc.ca/resources/prod/news/images/NHCAP.png"
    ]
}