{
    "dcr_id": "1331664486009",
    "urlEn": [
        "https://intranet.agr.gc.ca/resources/prod/images/employee_engagement/GGO/Green-Procurement_icone.jpg"
    ],
    "urlFr": [
        "https://intranet.agr.gc.ca/resources/prod/images/employee_engagement/GGO/Green-Procurement_icone.jpg"
    ]
}