{
    "dcr_id": "1521222869888",
    "urlEn": [
        "https://intranet.agr.gc.ca/resources/prod/news/images/Agri-infoWinter-EN.png"
    ],
    "urlFr": [
        "https://intranet.agr.gc.ca/resources/prod/news/images/Agri-infoWinter-FR.png"
    ]
}