{
    "dcr_id": "1571156108926",
    "urlEn": [
        "https://intranet.agr.gc.ca/resources/prod/news/images/samsung-update-EN.png"
    ],
    "urlFr": [
        "https://intranet.agr.gc.ca/resources/prod/news/images/samsung-update-FR.png"
    ]
}