{
    "dcr_id": "1574200264693",
    "urlEn": [
        "https://intranet.agr.gc.ca/resources/prod/news/images/IDPD2019-EN.png"
    ],
    "urlFr": [
        "https://intranet.agr.gc.ca/resources/prod/news/images/IDPD2019-FR.png"
    ]
}