{
    "dcr_id": "1331843158386",
    "urlEn": [
        "https://intranet.agr.gc.ca/resources/prod/xls/hrb_dgrh/cmb_hrd_lr_excluded_positions.xlsx"
    ],
    "urlFr": [
        "https://intranet.agr.gc.ca/resources/prod/xls/hrb_dgrh/cmb_hrd_lr_excluded_positions.xlsx"
    ]
}