{
    "dcr_id": "1601498957583",
    "urlEn": [
        "https://intranet.agr.gc.ca/resources/prod/news/images/GCWCC2020-EN.png"
    ],
    "urlFr": [
        "https://intranet.agr.gc.ca/resources/prod/news/images/GCWCC2020-FR.png"
    ]
}