{
    "dcr_id": "1516201304368",
    "urlEn": [
        "https://intranet.agr.gc.ca/resources/prod/news/images/phishing1.png"
    ],
    "urlFr": [
        "https://intranet.agr.gc.ca/resources/prod/news/images/phishing1.png"
    ]
}