{
    "dcr_id": "1535563230409",
    "urlEn": [
        "https://intranet.agr.gc.ca/resources/prod/news/images/DepartmentalSecurity.png"
    ],
    "urlFr": [
        "https://intranet.agr.gc.ca/resources/prod/news/images/DepartmentalSecurity.png"
    ]
}