{
    "dcr_id": "1529928631828",
    "urlEn": [
        "https://intranet.agr.gc.ca/resources/prod/news/images/Agri-infoNewsletterIssue2012-EN.png"
    ],
    "urlFr": [
        "https://intranet.agr.gc.ca/resources/prod/news/images/Agri-infoNewsletterIssue2012-FR.png"
    ]
}