{
    "dcr_id": "1355244864119",
    "urlEn": [
        "https://intranet.agr.gc.ca/resources/prod/pdf/human_resources/cmb_hrd_wwp_mental_health_handbook-eng.pdf",
        "https://intranet.agr.gc.ca/resources/prod/doc/human_resources/ohs_promoting_scent_free_workplace_toolkit-eng.docx",
        "https://intranet.agr.gc.ca/resources/prod/doc/human_resources/ohs_workplace_violence_prevention_policy_and_guideline-eng.docx",
        "https://intranet.agr.gc.ca/resources/prod/pdf/human_resources/cmb_hrd_wwp_managers_guide_mental_health_in_the_workplace-eng.pdf",
        "https://intranet.agr.gc.ca/resources/prod/pdf/human_resources/cmb_hrd_wwp_mental_health_handbook-eng.pdf",
        "https://intranet.agr.gc.ca/resources/prod/doc/human_resources/cmb_hrd_vecr_dta_workplace_accommodation_guidelines-2014-eng.docx"
    ],
    "urlFr": [
        "https://intranet.agr.gc.ca/resources/prod/pdf/human_resources/cmb_hrd_wwp_sante_mentale-fra.pdf",
        "https://intranet.agr.gc.ca/resources/prod/doc/human_resources/sst_boite_outils_pour_la_promotion_d'un_milieu_sans_parfum.docx",
        "https://intranet.agr.gc.ca/resources/prod/doc/human_resources/sst_politique_de_prevention_de_la_violence_dans_le_lieu_de_travail.docx",
        "https://intranet.agr.gc.ca/resources/prod/pdf/human_resources/cmb_hrd_wwp_guide_gestionnaire_sante_mentale_en_milieu_de_travail-fra.pdf",
        "https://intranet.agr.gc.ca/resources/prod/pdf/human_resources/cmb_hrd_wwp_sante_mentale-fra.pdf",
        "https://intranet.agr.gc.ca/resources/prod/doc/human_resources/cmb_hrd_vecr_dta_workplace_accommodation_guidelines-2014-eng.docx"
    ]
}