{
    "dcr_id": "1576007030543",
    "urlEn": [
        "http://intranet.agr.gc.ca/resources/prod/pdf/corp_comm_marketing/cue_am_12_2019v2-eng.pdf",
        "https://intranet.agr.gc.ca/resources/prod/pdf/human_ressources/2020_pay-calendar-eng.pdf"
    ],
    "urlFr": [
        "http://intranet.agr.gc.ca/resources/prod/pdf/corp_comm_marketing/cue_am_12_2019v2-fra.pdf",
        "https://intranet.agr.gc.ca/resources/prod/pdf/human_ressources/2020_pay-calendar-fra.pdf"
    ]
}