{
    "dcr_id": "1455110670510",
    "urlEn": [
        "https://intranet.agr.gc.ca/resources/prod/images/stb_dgst/1455110670510_image1-eng.jpg"
    ],
    "urlFr": [
        "https://intranet.agr.gc.ca/resources/prod/images/stb_dgst/1455110670510_image1-fra.jpg"
    ]
}