{
    "dcr_id": "1452885922802",
    "urlEn": [
        "https://intranet.agr.gc.ca/resources/prod/pdf/departmental_branch_priorities/sap-coe-course-cat-2018-eng.pdf"
    ],
    "urlFr": [
        "https://intranet.agr.gc.ca/resources/prod/pdf/departmental_branch_priorities/sap-coe-course-cat-2018-fra.pdf"
    ]
}