{
    "dcr_id": "1524070672044",
    "urlEn": [
        "http://intranet.agr.gc.ca/resources/prod/pdf/cmb_dggi/aafc_departmental_results_framework-eng.pdf",
        "http://intranet.agr.gc.ca/resources/prod/pdf/cmb_dggi/aafc_program_inventory-eng.pdf"
    ],
    "urlFr": [
        "http://intranet.agr.gc.ca/resources/prod/pdf/cmb_dggi/cadre_ministeriel_des_resultats_d'aac-fra.pdf",
        "http://intranet.agr.gc.ca/resources/prod/pdf/cmb_dggi/inventaire_de_programmes_d'aac-fra.pdf"
    ]
}