{
    "dcr_id": "1556627452721",
    "urlEn": [
        "https://intranet.agr.gc.ca/resources/prod/news/images/VisbleMinoritiesNetwork-EN2019.png"
    ],
    "urlFr": [
        "https://intranet.agr.gc.ca/resources/prod/news/images/VisbleMinoritiesNetwork-FR2019.png"
    ]
}