{
    "dcr_id": "1517845285871",
    "urlEn": [
        "https://intranet.agr.gc.ca/resources/prod/news/images/CIOCAwards.png"
    ],
    "urlFr": [
        "https://intranet.agr.gc.ca/resources/prod/news/images/CIOCAwards.png"
    ]
}