{
    "dcr_id": "1517334140487",
    "urlEn": [
        "https://intranet.agr.gc.ca/resources/prod/news/images/TravelHelpdesk.png"
    ],
    "urlFr": [
        "https://intranet.agr.gc.ca/resources/prod/news/images/TravelHelpdesk.png"
    ]
}