{
    "dcr_id": "1563547611668",
    "urlEn": [
        "https://intranet.agr.gc.ca/resources/prod/news/images/Agri-Info-Summer-2019-EN.png"
    ],
    "urlFr": [
        "https://intranet.agr.gc.ca/resources/prod/news/images/Agri-Info-Summer-2019-FR.png"
    ]
}