{
    "dcr_id": "1513876706075",
    "urlEn": [
        "https://intranet.agr.gc.ca/resources/prod/images/dmo_bsm/card-carte-2017.jpg"
    ],
    "urlFr": [
        "https://intranet.agr.gc.ca/resources/prod/images/dmo_bsm/card-carte-2017.jpg"
    ]
}