{
    "dcr_id": "1537965954634",
    "urlEn": [
        "https://intranet.agr.gc.ca/resources/prod/news/images/HealthyWorkplaceMonth2018-EN.png"
    ],
    "urlFr": [
        "https://intranet.agr.gc.ca/resources/prod/news/images/HealthyWorkplaceMonth2018-FR.png"
    ]
}