{
    "dcr_id": "1517233850058",
    "urlEn": [
        "https://intranet.agr.gc.ca/resources/prod/news/images/CdnAgDay-EN.png"
    ],
    "urlFr": [
        "https://intranet.agr.gc.ca/resources/prod/news/images/CdnAgDay-FR.png"
    ]
}