{
    "dcr_id": "1538402341760",
    "urlEn": [
        "https://intranet.agr.gc.ca/resources/prod/news/images/GCWCCTalentShow-EN.png"
    ],
    "urlFr": [
        "https://intranet.agr.gc.ca/resources/prod/news/images/GCWCCTalentShow-FR.png"
    ]
}