{
    "dcr_id": "1524165785871",
    "urlEn": [
        "https://intranet.agr.gc.ca/resources/prod/news/images/WinnerDayofPink.png"
    ],
    "urlFr": [
        "https://intranet.agr.gc.ca/resources/prod/news/images/WinnerDayofPink-FR.png"
    ]
}