{
    "dcr_id": "1527002681052",
    "urlEn": [
        "https://intranet.agr.gc.ca/resources/prod/news/images/NAAW-en.png"
    ],
    "urlFr": [
        "https://intranet.agr.gc.ca/resources/prod/news/images/NAAW-fr.png"
    ]
}