{
    "dcr_id": "1519738443850",
    "urlEn": [
        "https://intranet.agr.gc.ca/resources/prod/news/images/GCWCCpizza.png"
    ],
    "urlFr": [
        "https://intranet.agr.gc.ca/resources/prod/news/images/GCWCCpizza.png"
    ]
}