{
    "dcr_id": "1580230349825",
    "urlEn": [
        "https://intranet.agr.gc.ca/resources/prod/news/images/EmployeeOrientation.png"
    ],
    "urlFr": [
        "https://intranet.agr.gc.ca/resources/prod/news/images/EmployeeOrientation.png"
    ]
}