{
    "dcr_id": "1527087935821",
    "urlEn": [
        "https://intranet.agr.gc.ca/resources/prod/news/images/CSAJeremy-Hansen.png"
    ],
    "urlFr": [
        "https://intranet.agr.gc.ca/resources/prod/news/images/CSAJeremy-Hansen.png"
    ]
}