{
    "dcr_id": "1569002758672",
    "urlEn": [
        "https://intranet.agr.gc.ca/resources/prod/news/images/ITCentreTI2.png"
    ],
    "urlFr": [
        "https://intranet.agr.gc.ca/resources/prod/news/images/ITCentreTI2.png"
    ]
}