{
    "dcr_id": "1548941535143",
    "urlEn": [
        "https://intranet.agr.gc.ca/resources/prod/news/images/NPSW-EN.png"
    ],
    "urlFr": [
        "https://intranet.agr.gc.ca/resources/prod/news/images/NPSW-FR.png"
    ]
}