{
    "dcr_id": "1571156885024",
    "urlEn": [
        "https://intranet.agr.gc.ca/resources/prod/news/images/Idling-logo.png"
    ],
    "urlFr": [
        "https://intranet.agr.gc.ca/resources/prod/news/images/Idling-logo.png"
    ]
}