{
    "dcr_id": "1526405784452",
    "urlEn": [
        "http://intranet.agr.gc.ca/resources/prod/pdf/cmb_dggi/ctec_cec_malicious_guide_malveillants-eng.pdf",
        "https://intranet.agr.gc.ca/resources/prod/news/images/Ransomware.png"
    ],
    "urlFr": [
        "http://intranet.agr.gc.ca/resources/prod/pdf/isb_dgsi/email/cec_guide_malveillants-fra.pdf",
        "https://intranet.agr.gc.ca/resources/prod/news/images/Ransomware.png"
    ]
}