{
    "dcr_id": "1287771393959",
    "urlEn": [
        "https://intranet.agr.gc.ca/resources/prod/images/spb-dgps/strategic_policy_branch2.jpg"
    ],
    "urlFr": [
        "https://intranet.agr.gc.ca/resources/prod/images/spb-dgps/strategic_policy_branch2.jpg"
    ]
}