{
    "dcr_id": "1539092498953",
    "urlEn": [
        "https://intranet.agr.gc.ca/resources/prod/news/images/GCWCCAll-StarSports2.png",
        "https://intranet.agr.gc.ca/resources/prod/news/images/GCWCC2018-EN.png"
    ],
    "urlFr": [
        "https://intranet.agr.gc.ca/resources/prod/news/images/GCWCCAll-StarSports2.png",
        "https://intranet.agr.gc.ca/resources/prod/news/images/GCWCC2018-FR.png"
    ]
}