{
    "dcr_id": "1537298109817",
    "urlEn": [
        "https://intranet.agr.gc.ca/resources/prod/news/images/Mid-YearReview2018-EN.png"
    ],
    "urlFr": [
        "https://intranet.agr.gc.ca/resources/prod/news/images/Mid-YearReview2018-FR.png"
    ]
}