{
    "dcr_id": "1538498763981",
    "urlEn": [
        "https://intranet.agr.gc.ca/resources/prod/news/images/DiversityNetworks7.png"
    ],
    "urlFr": [
        "https://intranet.agr.gc.ca/resources/prod/news/images/DiversityNetworks7.png"
    ]
}