{
    "dcr_id": "1557849639566",
    "urlEn": [
        "https://intranet.agr.gc.ca/resources/prod/news/images/CALbanner-EN.png"
    ],
    "urlFr": [
        "https://intranet.agr.gc.ca/resources/prod/news/images/CALbanniere-FR.png"
    ]
}