{
    "dcr_id": "1288027396522",
    "urlEn": [
        "https://intranet.agr.gc.ca/resources/prod/images/hrb_dgrh/irs_sri/irs-eng.jpg"
    ],
    "urlFr": [
        "https://intranet.agr.gc.ca/resources/prod/images/hrb_dgrh/irs_sri/irs-fra.jpg"
    ]
}