{
    "dcr_id": "1580248309346",
    "urlEn": [
        "https://intranet.agr.gc.ca/resources/prod/news/images/Harvest-SOResearchers.png"
    ],
    "urlFr": [
        "https://intranet.agr.gc.ca/resources/prod/news/images/Harvest-SOResearchers.png"
    ]
}