{
    "dcr_id": "1532537034294",
    "urlEn": [
        "https://intranet.agr.gc.ca/resources/prod/news/images/DMReginaOutreachJuly2018.png"
    ],
    "urlFr": [
        "https://intranet.agr.gc.ca/resources/prod/news/images/DMReginaOutreachJuly2018.png"
    ]
}