{
    "dcr_id": "1544543876127",
    "urlEn": [
        "https://intranet.agr.gc.ca/resources/prod/news/images/HarvestBiotechRace.png"
    ],
    "urlFr": [
        "https://intranet.agr.gc.ca/resources/prod/news/images/HarvestBiotechRace.png"
    ]
}