{
    "dcr_id": "1580311375758",
    "urlEn": [
        "https://intranet.agr.gc.ca/resources/prod/news/images/VandE-2020-EN.jpg"
    ],
    "urlFr": [
        "https://intranet.agr.gc.ca/resources/prod/news/images/VandE-2020-FR.jpg"
    ]
}