{
    "dcr_id": "1557847847007",
    "urlEn": [
        "https://intranet.agr.gc.ca/resources/prod/news/images/David_Suzuki_and_bike.png"
    ],
    "urlFr": [
        "https://intranet.agr.gc.ca/resources/prod/news/images/David_Suzuki_and_bike.png"
    ]
}