{
    "dcr_id": "1329770591728",
    "urlEn": [
        "https://intranet.agr.gc.ca/resources/prod/xls/hrb_dgrh/cmb_hrd_lr_excluded_positions.xlsx"
    ],
    "urlFr": [
        "https://intranet.agr.gc.ca/resources/prod/xls/hrb_dgrh/cmb_hrd_lr_excluded_positions.xlsx"
    ]
}