{
    "dcr_id": "1578499057152",
    "urlEn": [
        "https://intranet.agr.gc.ca/resources/prod/news/images/RDCInfographicCoverENG.png"
    ],
    "urlFr": [
        "https://intranet.agr.gc.ca/resources/prod/news/images/RDCInfographicCoverFR.png"
    ]
}