{
    "dcr_id": "1548778175474",
    "urlEn": [
        "https://intranet.agr.gc.ca/resources/prod/news/images/SecurityAwarenessWeek2019-EN.png"
    ],
    "urlFr": [
        "https://intranet.agr.gc.ca/resources/prod/news/images/SecurityAwarenessWeek2019-FR.png"
    ]
}