{
    "dcr_id": "1398462855583",
    "urlEn": [
        "https://intranet.agr.gc.ca/resources/prod/images/organizational_structure/jane_taylor_2018-eng.jpg"
    ],
    "urlFr": [
        "https://intranet.agr.gc.ca/resources/prod/images/organizational_structure/jane_taylor_2018-fra.jpg"
    ]
}