{
    "dcr_id": "1536766349567",
    "urlEn": [
        "https://intranet.agr.gc.ca/resources/prod/news/images/GCWCCFarmFit-EN.png",
        "https://intranet.agr.gc.ca/resources/prod/news/images/FarmFitChallenge2018-EN.png"
    ],
    "urlFr": [
        "https://intranet.agr.gc.ca/resources/prod/news/images/GCWCCFarmFit-FR.png",
        "https://intranet.agr.gc.ca/resources/prod/news/images/FarmFitChallenge2018-FR.png"
    ]
}