{
    "dcr_id": "1566311779635",
    "urlEn": [
        "https://intranet.agr.gc.ca/resources/prod/news/images/Harvest-Carine.png"
    ],
    "urlFr": [
        "https://intranet.agr.gc.ca/resources/prod/news/images/Harvest-Carine.png"
    ]
}