{
    "dcr_id": "1583161712115",
    "urlEn": [
        "https://intranet.agr.gc.ca/resources/prod/news/images/YPN-EN-1.png"
    ],
    "urlFr": [
        "https://intranet.agr.gc.ca/resources/prod/news/images/YPN-FR-1.png"
    ]
}