{
    "dcr_id": "1281451045644",
    "lang": "fr",
    "title": "<NULL>",
    "modified": "<NULL>",
    "issued": "2010-09-03 00:00:00.0",
    "type_name": "intra-intra/widg-widg",
    "node_id": "<NULL>",
    "layout_name": null,
    "created": "2017-03-30 12:57:29.0",
    "updated": "2017-03-30 12:57:29.0"
}