{
    "dcr_id": "1296074428862",
    "lang": "en",
    "title": {
        "en": "<NULL>",
        "fr": "<NULL>"
    },
    "modified": "<NULL>",
    "issued": "2011-01-27 00:00:00.0",
    "type_name": "intra-intra/widg-widg",
    "node_id": "<NULL>",
    "layout_name": null,
    "created": "2020-01-10 17:18:41.0",
    "updated": "2020-01-10 17:18:41.0"
}