{
    "dcr_id": "1306426125729",
    "lang": "en",
    "title": {
        "en": "<NULL>",
        "fr": "<NULL>"
    },
    "modified": "<NULL>",
    "issued": "2011-10-01 00:00:00.0",
    "type_name": "intra-intra/widg-widg",
    "node_id": "<NULL>",
    "layout_name": null,
    "created": "2017-07-27 17:13:28.0",
    "updated": "2017-07-27 17:13:28.0"
}