{
    "dcr_id": "1516201304368",
    "lang": "en",
    "type_name": "intra-intra/news-nouv",
    "approvalsadvisor": "stela.susic@canada.ca",
    "approvalsdirector": "Jean-Francois.Savard@agr.gc.ca",
    "submitername": "stela susic",
    "submiteremail": "stela.susic@canada.ca",
    "submiterphoneNumber": "613-773-3519",
    "issued": "2018-01-18",
    "translateReqNumber": "null"
}