{
    "dcr_id": "1516801541186",
    "lang": "en",
    "type_name": "intra-intra/news-nouv",
    "approvalsadvisor": "janet.dowell@agr.gc.ca",
    "approvalsdirector": "lynden.hillier@agr.gc.ca",
    "submitername": "Mercedes Jorge",
    "submiteremail": "mercedes.jorge@agr.gc.ca",
    "submiterphoneNumber": "613-773-3508",
    "issued": "2018-01-25",
    "translateReqNumber": "null"
}