{
    "dcr_id": "1517952028838",
    "lang": "en",
    "type_name": "intra-intra/news-nouv",
    "approvalsadvisor": "janet.dowell@agr.gc.ca",
    "approvalsdirector": "scott.aughey@canada.ca",
    "submitername": "Mercedes Jorge",
    "submiteremail": "mercedes.jorge@agr.gc.ca",
    "submiterphoneNumber": "613-773-3508",
    "issued": "2018-02-08",
    "translateReqNumber": "null"
}