{
    "dcr_id": "1517933043149",
    "lang": "en",
    "type_name": "intra-intra/news-nouv",
    "approvalsadvisor": "Stela.Susic@canada.ca",
    "approvalsdirector": "jeff.lamirande@canada.ca",
    "submitername": "Marilyn Render",
    "submiteremail": "marilyn.render@canada.ca",
    "submiterphoneNumber": "613-773-2581",
    "issued": "2018-02-08",
    "translateReqNumber": "null"
}