{
    "dcr_id": "1517507740571",
    "lang": "en",
    "type_name": "intra-intra/news-nouv",
    "approvalsadvisor": "ricky.lee@agr.gc.ca",
    "approvalsdirector": "Jane.Taylor@agr.gc.ca",
    "submitername": "Jenna Mainville",
    "submiteremail": "jenna.mainville@agr.gc.ca",
    "submiterphoneNumber": "613-773-0471",
    "issued": "2018-02-08",
    "translateReqNumber": "null"
}