{
    "dcr_id": "1519669780221",
    "lang": "en",
    "type_name": "intra-intra/news-nouv",
    "approvalsadvisor": "ricky.lee@canada.ca",
    "approvalsdirector": "brian.mccarthy@agr.gc.ca",
    "submitername": "Alina Cipcigan",
    "submiteremail": "alina.cipcigan@canada.ca",
    "submiterphoneNumber": "613-773-1973",
    "issued": "2018-03-01",
    "translateReqNumber": "null"
}