{
    "dcr_id": "1519159275716",
    "lang": "en",
    "type_name": "intra-intra/news-nouv",
    "approvalsadvisor": "ricky.lee@canada.ca",
    "approvalsdirector": "scott.aughey@canada.ca",
    "submitername": "Patricia Gagne",
    "submiteremail": "patricia.gagne@canada.ca",
    "submiterphoneNumber": "613-773-0337",
    "issued": "2018-02-22",
    "translateReqNumber": "null"
}