{
    "dcr_id": "1520000600735",
    "lang": "en",
    "type_name": "intra-intra/news-nouv",
    "approvalsadvisor": "stela.susic@canada.ca",
    "approvalsdirector": "karim.bechane@canada.ca",
    "submitername": "Denis Guitard",
    "submiteremail": "denis.guitard@canada.ca",
    "submiterphoneNumber": "506-961-4236",
    "issued": "2018-03-07",
    "translateReqNumber": "null"
}