{
    "dcr_id": "1522163875762",
    "lang": "en",
    "type_name": "intra-intra/news-nouv",
    "approvalsadvisor": "Justine.walker2@canada.ca",
    "approvalsdirector": "jean-francois.savard@agr.gc.ca",
    "submitername": "Carmen Miron",
    "submiteremail": "carmen.miron@agr.gc.ca",
    "submiterphoneNumber": "613-773-1481",
    "issued": "2018-03-29",
    "translateReqNumber": "null"
}