{
    "dcr_id": "1523377201989",
    "lang": "en",
    "type_name": "intra-intra/news-nouv",
    "approvalsadvisor": "ricky.lee@canada.ca",
    "approvalsdirector": "lynden.hillier@agr.gc.ca",
    "submitername": "Lynn Bertrand",
    "submiteremail": "lynn.bertrand2@agr.gc.ca",
    "submiterphoneNumber": "613-773-1281",
    "issued": "2018-04-12",
    "translateReqNumber": "null"
}