{
    "dcr_id": "1523989574308",
    "lang": "en",
    "type_name": "intra-intra/news-nouv",
    "approvalsadvisor": "stela.susic@canada.ca",
    "approvalsdirector": "shelley.monlezun@canada.ca",
    "submitername": "Shannon Fraser",
    "submiteremail": "shannon.fraser@agr.gc.ca",
    "submiterphoneNumber": "613-773-1574",
    "issued": "2018-04-19",
    "translateReqNumber": "null"
}