{
    "dcr_id": "1524856322078",
    "lang": "en",
    "type_name": "intra-intra/news-nouv",
    "approvalsadvisor": "anna.maystruk3@canada.ca",
    "approvalsdirector": "Lynden.Hillier@agr.gc.ca",
    "submitername": "Imad El-kadri",
    "submiteremail": "imad.el-kadri@agr.gc.ca",
    "submiterphoneNumber": "613-773-2935",
    "issued": "2018-05-03",
    "translateReqNumber": "n/a"
}