{
    "dcr_id": "1527601194807",
    "lang": "en",
    "type_name": "intra-intra/news-nouv",
    "approvalsadvisor": "Stela.Susic@canada.ca",
    "approvalsdirector": "Leigh.Bain@canada.ca",
    "submitername": "Lisa Picard",
    "submiteremail": "Lisa.Picard@canada.ca",
    "submiterphoneNumber": "613-773-0395",
    "issued": "2018-05-30",
    "translateReqNumber": "n/a"
}