{
    "dcr_id": "1527767875325",
    "lang": "en",
    "type_name": "intra-intra/news-nouv",
    "approvalsadvisor": "stela.susic@canada.ca",
    "approvalsdirector": "Karim.bechane@canada.ca",
    "submitername": "Fodie Maguiraga",
    "submiteremail": "fodie.maguiraga@canada.ca",
    "submiterphoneNumber": "613-773-0523",
    "issued": "2018-06-05",
    "translateReqNumber": "n/a"
}