{
    "dcr_id": "1528143247769",
    "lang": "en",
    "type_name": "intra-intra/news-nouv",
    "approvalsadvisor": "natalie.ekholm@canada.ca",
    "approvalsdirector": "bruce.radburn@agr.gc.ca",
    "submitername": "Bruce Radburn",
    "submiteremail": "bruce.radburn@agr.gc.ca",
    "submiterphoneNumber": "613-773-2572",
    "issued": "2018-06-07",
    "translateReqNumber": "n/a"
}