{
    "dcr_id": "1528818475483",
    "lang": "en",
    "type_name": "intra-intra/news-nouv",
    "approvalsadvisor": "stela.susic@agr.gc.ca",
    "approvalsdirector": "Ling.lee@agr.gc.ca",
    "submitername": "Seana Collins",
    "submiteremail": "seana.collins@agr.gc.ca",
    "submiterphoneNumber": "902-365-8466",
    "issued": "2018-06-14",
    "translateReqNumber": "n/a"
}