{
    "dcr_id": "1528147680612",
    "lang": "en",
    "type_name": "intra-intra/news-nouv",
    "approvalsadvisor": "ricky.lee@canada.ca",
    "approvalsdirector": "jane.taylor@agr.gc.ca",
    "submitername": "Lydia Lipic",
    "submiteremail": "lydia.lipic@agr.gc.ca",
    "submiterphoneNumber": "204-926-9623",
    "issued": "2018-06-07",
    "translateReqNumber": "n/a"
}