{
    "dcr_id": "1533055098395",
    "lang": "en",
    "type_name": "intra-intra/news-nouv",
    "approvalsadvisor": "kylee.mackay@canada.ca",
    "approvalsdirector": "bernard.cantin@agr.gc.ca",
    "submitername": "Preethi Ledchumykanthan",
    "submiteremail": "preethi.ledchumykanthan@canada.ca",
    "submiterphoneNumber": "613-773-0826",
    "issued": "2018-08-01",
    "translateReqNumber": "AAFC-180730-40"
}