{
    "dcr_id": "1535656820184",
    "lang": "en",
    "type_name": "intra-intra/news-nouv",
    "approvalsadvisor": "samer.younes@canada.ca",
    "approvalsdirector": "alejandro.demaio-sukic@canada.ca",
    "submitername": "Douglas Ruby",
    "submiteremail": "douglas.ruby@agr.gc.ca",
    "submiterphoneNumber": "613-773-1343",
    "issued": "2018-09-06",
    "translateReqNumber": "AAFC-180827-24"
}