{
    "dcr_id": "1536091674995",
    "lang": "en",
    "type_name": "intra-intra/news-nouv",
    "approvalsadvisor": "natalie.ekholm@agr.gc.ca",
    "approvalsdirector": "nathalie.durand@agr.gc.ca",
    "submitername": "Austin Mowat",
    "submiteremail": "austin.mowat@agr.gc.ca",
    "submiterphoneNumber": "613-773-2317",
    "issued": "2018-09-06",
    "translateReqNumber": "N/A"
}