{
    "dcr_id": "1538402341760",
    "lang": "en",
    "type_name": "intra-intra/news-nouv",
    "approvalsadvisor": "jeff.wright@canada.ca",
    "approvalsdirector": "Marie-Noelle.Desrochers@canada.ca",
    "submitername": "Jasmine Labelle",
    "submiteremail": "jasmine.labelle@canada.ca",
    "submiterphoneNumber": "613-773-0964",
    "issued": "2018-10-04",
    "translateReqNumber": "N/A"
}