{
    "dcr_id": "1538073465294",
    "lang": "en",
    "type_name": "intra-intra/news-nouv",
    "approvalsadvisor": "natalie.ekholm@canada.ca",
    "approvalsdirector": "denna.dougan@canada.ca",
    "submitername": "Guy Marier",
    "submiteremail": "guy.marier@canada.ca",
    "submiterphoneNumber": "613-773-0841",
    "issued": "2018-10-04",
    "translateReqNumber": "180920-3"
}