{
    "dcr_id": "1538429546059",
    "lang": "en",
    "type_name": "intra-intra/news-nouv",
    "approvalsadvisor": "ricky.lee@canada.ca",
    "approvalsdirector": "lucille.lacelle@canada.ca",
    "submitername": "Deb O'Neil",
    "submiteremail": "deborah.oneil@canada.ca",
    "submiterphoneNumber": "613-773-2762",
    "issued": "2018-10-04",
    "translateReqNumber": "AAFC-180919-26"
}