{
    "dcr_id": "1538165099987",
    "lang": "en",
    "type_name": "intra-intra/news-nouv",
    "approvalsadvisor": "emily.dipaolo@canada.ca",
    "approvalsdirector": "emily.dipaolo@canada.ca",
    "submitername": "Justine Walker",
    "submiteremail": "justine.walker2@canada.ca",
    "submiterphoneNumber": "613-773-0443",
    "issued": "2018-09-28",
    "translateReqNumber": "n/a"
}