{
    "dcr_id": "1539190790721",
    "lang": "en",
    "type_name": "intra-intra/news-nouv",
    "approvalsadvisor": "stella.susic@canada.ca",
    "approvalsdirector": "Jacint.boucher@canada.ca",
    "submitername": "Marc Ouellet",
    "submiteremail": "marc.ouellet3@canada.ca",
    "submiterphoneNumber": "506-777-3744",
    "issued": "2018-10-18",
    "translateReqNumber": "AAFC-180928-19"
}