{
    "dcr_id": "1539707304973",
    "lang": "en",
    "type_name": "intra-intra/news-nouv",
    "approvalsadvisor": "stela.susic@canada.ca",
    "approvalsdirector": "ling.lee@canada.ca",
    "submitername": "Seana Collins",
    "submiteremail": "seana.collins@canada.ca",
    "submiterphoneNumber": "902-365-8466",
    "issued": "2018-10-18",
    "translateReqNumber": "AAFC-18101515"
}