{
    "dcr_id": "1539792841864",
    "lang": "en",
    "type_name": "intra-intra/news-nouv",
    "approvalsadvisor": "natalie.ekholm@canada.ca",
    "approvalsdirector": "jane.taylor@canada.ca",
    "submitername": "Julie Desroches",
    "submiteremail": "julie.desroches@canada.ca",
    "submiterphoneNumber": "613-773-3511",
    "issued": "2018-10-18",
    "translateReqNumber": "N/A"
}