{
    "dcr_id": "1540918453902",
    "lang": "en",
    "type_name": "intra-intra/news-nouv",
    "approvalsadvisor": "Roman.Zakaluzny2@canada.ca",
    "approvalsdirector": "Marie-Noelle.desrochers@canada.ca",
    "submitername": "Roman Zakaluzny",
    "submiteremail": "roman.zakaluzny2@canada.ca",
    "submiterphoneNumber": "613-773-2779",
    "issued": "2018-11-01",
    "translateReqNumber": "Request: AAFC-181030-15"
}