{
    "dcr_id": "1541612837940",
    "lang": "en",
    "type_name": "intra-intra/news-nouv",
    "approvalsadvisor": "jason.ramey@canada.ca",
    "approvalsdirector": "silvia.wadasinghe@canada.ca",
    "submitername": "justine walker",
    "submiteremail": "justine.walker2@canada.ca",
    "submiterphoneNumber": "613-773-0443",
    "issued": "2018-11-08",
    "translateReqNumber": "181102-22"
}