{
    "dcr_id": "1542804124212",
    "lang": "en",
    "type_name": "intra-intra/news-nouv",
    "approvalsadvisor": "natalie.ekholm@canada.ca",
    "approvalsdirector": "Jean-Francois.Savard@agr.gc.ca",
    "submitername": "Guy Marier",
    "submiteremail": "guy.marier@canada.ca",
    "submiterphoneNumber": "613-773-0841",
    "issued": "2018-11-22",
    "translateReqNumber": "181120-2"
}