{
    "dcr_id": "1542822852469",
    "lang": "en",
    "type_name": "intra-intra/news-nouv",
    "approvalsadvisor": "Cathy.sleeth@canada.ca",
    "approvalsdirector": "Scott.Aughey@canada.ca",
    "submitername": "Lynn Bertarnd",
    "submiteremail": "lynn.bertrand@canada.ca",
    "submiterphoneNumber": "613-773-1281",
    "issued": "2018-11-22",
    "translateReqNumber": "AAFC181120-53"
}