{
    "dcr_id": "1542737802363",
    "lang": "en",
    "type_name": "intra-intra/news-nouv",
    "approvalsadvisor": "Jeff.wright@canada.ca",
    "approvalsdirector": "shelley.monlezun@canada.ca",
    "submitername": "Rachel Croswell",
    "submiteremail": "rachel.croswell2@canada.ca",
    "submiterphoneNumber": "613-773-0144",
    "issued": "2018-11-22",
    "translateReqNumber": "n/a"
}