{
    "dcr_id": "1542228800732",
    "lang": "en",
    "type_name": "intra-intra/news-nouv",
    "approvalsadvisor": "Natalie.Ekholm@canada.ca",
    "approvalsdirector": "kimberly.saunders@canada.ca",
    "submitername": "Corrie Boyce",
    "submiteremail": "corrie.boyce@canada.ca",
    "submiterphoneNumber": "613-773-3481",
    "issued": "2018-11-22",
    "translateReqNumber": "AAFC-181109-16"
}