{
    "dcr_id": "1542644132308",
    "lang": "en",
    "type_name": "intra-intra/news-nouv",
    "approvalsadvisor": "Cathy.Sleeth@canada.ca",
    "approvalsdirector": "Scott.Aughey@canada.ca",
    "submitername": "Lynn Bertrand",
    "submiteremail": "lynn.bertrand@canada.ca",
    "submiterphoneNumber": "613-773-1281",
    "issued": "2018-11-22",
    "translateReqNumber": "AAFC-181115-21"
}