{
    "dcr_id": "1542726165877",
    "lang": "en",
    "type_name": "intra-intra/news-nouv",
    "approvalsadvisor": "Stela.susic@canada.ca",
    "approvalsdirector": "ron.gerold@canada.ca",
    "submitername": "Erin Scullion",
    "submiteremail": "erin.scullion@canada.ca",
    "submiterphoneNumber": "613-773-1562",
    "issued": "2018-11-22",
    "translateReqNumber": "AAFC-181119-49."
}