{
    "dcr_id": "1546547349732",
    "lang": "en",
    "type_name": "intra-intra/news-nouv",
    "approvalsadvisor": "jason.ramey@canada.ca",
    "approvalsdirector": "silvia.wadasinghe@canada.ca",
    "submitername": "Justine Walker",
    "submiteremail": "justine.walker2@canada.ca",
    "submiterphoneNumber": "613-773-0443",
    "issued": "2019-01-10",
    "translateReqNumber": "181227-9"
}