{
    "dcr_id": "1547647542891",
    "lang": "en",
    "type_name": "intra-intra/news-nouv",
    "approvalsadvisor": "cathy.sleeth@agr.gc.ca",
    "approvalsdirector": "Scott.aughey@canada.ca",
    "submitername": "scott aughey",
    "submiteremail": "scott.aughey@canada.ca",
    "submiterphoneNumber": "613-773-2380",
    "issued": "2019-01-17",
    "translateReqNumber": "0000"
}