{
    "dcr_id": "1548783999443",
    "lang": "en",
    "type_name": "intra-intra/news-nouv",
    "approvalsadvisor": "jason.ramey@canada.ca",
    "approvalsdirector": "jason.ramey@canada.ca",
    "submitername": "justine walker",
    "submiteremail": "justine.walker2@canada.ca",
    "submiterphoneNumber": "613-773-0443",
    "issued": "2019-01-31",
    "translateReqNumber": "n/a"
}