{
    "dcr_id": "1548173567014",
    "lang": "en",
    "type_name": "intra-intra/news-nouv",
    "approvalsadvisor": "cathy.sleeth@canada.ca",
    "approvalsdirector": "andrew.goldstein@canada.ca",
    "submitername": "Ricky Lee",
    "submiteremail": "ricky.lee@canada.ca",
    "submiterphoneNumber": "613-773-2629",
    "issued": "2019-01-24",
    "translateReqNumber": "Supplied"
}