{
    "dcr_id": "1549391118909",
    "lang": "en",
    "type_name": "intra-intra/news-nouv",
    "approvalsadvisor": "natalie.ekholm@canada.ca",
    "approvalsdirector": "stela.susic@canada.ca",
    "submitername": "Natalie Ekholm",
    "submiteremail": "natalie.ekholm@canada.ca",
    "submiterphoneNumber": "613-773-2746",
    "issued": "2019-02-07",
    "translateReqNumber": "N/A"
}