{
    "dcr_id": "1551813967874",
    "lang": "en",
    "type_name": "intra-intra/news-nouv",
    "approvalsadvisor": "irina.andritoiu@canada.ca",
    "approvalsdirector": "carole.bidal@canada.ca",
    "submitername": "Irina Andritoiu",
    "submiteremail": "irina.andritoiu@canada.ca",
    "submiterphoneNumber": "613-773-2785",
    "issued": "2019-03-07",
    "translateReqNumber": "AAFC-190225-10"
}