{
    "dcr_id": "1551199574663",
    "lang": "en",
    "type_name": "intra-intra/news-nouv",
    "approvalsadvisor": "kathleen.kelly@canada.ca",
    "approvalsdirector": "scott.aughey@canada.ca",
    "submitername": "Kathleen Kelly",
    "submiteremail": "kathleen.kelly@canada.ca",
    "submiterphoneNumber": "613-850-6221",
    "issued": "2019-02-28",
    "translateReqNumber": "AAFC-190226-4"
}