{
    "dcr_id": "1553787162017",
    "lang": "en",
    "type_name": "intra-intra/news-nouv",
    "approvalsadvisor": "irina.andritoiu@canada.ca",
    "approvalsdirector": "jane.taylor@canada.ca",
    "submitername": "Lydia Lipic",
    "submiteremail": "lydia.lipic@canada.ca",
    "submiterphoneNumber": "204-926-9623",
    "issued": "2019-04-04",
    "translateReqNumber": "190325-30"
}