{
    "dcr_id": "1554395643666",
    "lang": "en",
    "type_name": "intra-intra/news-nouv",
    "approvalsadvisor": "stela.susic@canada.ca",
    "approvalsdirector": "jacint.boucher@canada.ca",
    "submitername": "Marc Ouellet",
    "submiteremail": "marc.ouellet3@canada.ca",
    "submiterphoneNumber": "506-777-3744",
    "issued": "2019-04-11",
    "translateReqNumber": "n/a"
}