{
    "dcr_id": "1555337487325",
    "lang": "en",
    "type_name": "intra-intra/news-nouv",
    "approvalsadvisor": "joy.moskovic@canada.ca",
    "approvalsdirector": "Elise.Legendre@canada.ca",
    "submitername": "Shannon Fraser",
    "submiteremail": "shannon.fraser@canada.ca",
    "submiterphoneNumber": "613-773-1574",
    "issued": "2019-04-18",
    "translateReqNumber": "AAFC-190411-39"
}