{
    "dcr_id": "1556740855158",
    "lang": "en",
    "type_name": "intra-intra/news-nouv",
    "approvalsadvisor": "andrea.cameron@canada.ca",
    "approvalsdirector": "sonia.forget@canada.ca",
    "submitername": "Andrea Cameron",
    "submiteremail": "andrea.cameron@canada.ca",
    "submiterphoneNumber": "613-773-0653",
    "issued": "2019-05-01",
    "translateReqNumber": "AAFC-190430-25"
}