{
    "dcr_id": "1557849639566",
    "lang": "en",
    "type_name": "intra-intra/news-nouv",
    "approvalsadvisor": "stela.susic@canada.ca",
    "approvalsdirector": "tania.costanzo@canada.ca",
    "submitername": "susan.young3@canada.ca",
    "submiteremail": "pierre.dicampo@canada.ca",
    "submiterphoneNumber": "613-759-1807",
    "issued": "2019-05-16",
    "translateReqNumber": "190514-3"
}