{
    "dcr_id": "1559042548311",
    "lang": "en",
    "type_name": "intra-intra/news-nouv",
    "approvalsadvisor": "joy.moskovic@canada.ca",
    "approvalsdirector": "steven.jurgutis@canada.ca",
    "submitername": "Sylvain Lemieux",
    "submiteremail": "sylvain.lemieux@canada.ca",
    "submiterphoneNumber": "613-773-1645",
    "issued": "2019-05-30",
    "translateReqNumber": "190517-32"
}