{
    "dcr_id": "1559931373498",
    "lang": "en",
    "type_name": "intra-intra/news-nouv",
    "approvalsadvisor": "andrea.cameron@canada.ca",
    "approvalsdirector": "jill.hull2@canada.ca",
    "submitername": "Andrea Cameron",
    "submiteremail": "andrea.cameron@canada.ca",
    "submiterphoneNumber": "613-773-0653",
    "issued": "2019-06-13",
    "translateReqNumber": "AAFC-190607-17"
}