{
    "dcr_id": "1559671092505",
    "lang": "en",
    "type_name": "intra-intra/news-nouv",
    "approvalsadvisor": "Joy.moskovic@canada.ca",
    "approvalsdirector": "Anne.Lacombe@canada.ca",
    "submitername": "Jennifer",
    "submiteremail": "Jennifer.Mclaurin@canada.ca",
    "submiterphoneNumber": "613-316-9115",
    "issued": "2019-06-04",
    "translateReqNumber": "190604-10"
}