{
    "dcr_id": "1560187318610",
    "lang": "en",
    "type_name": "intra-intra/news-nouv",
    "approvalsadvisor": "andrea.cameron@canada.ca",
    "approvalsdirector": "nina.hamad@canada.ca",
    "submitername": "Emma Finch",
    "submiteremail": "emma.finch@canada.ca",
    "submiterphoneNumber": "613-773-3263",
    "issued": "2019-06-10",
    "translateReqNumber": "AAFC-190528-41   "
}