{
    "dcr_id": "1563852363734",
    "lang": "en",
    "type_name": "intra-intra/news-nouv",
    "approvalsadvisor": "krisandra.reid@canada.ca",
    "approvalsdirector": "francois.eudes@canada.ca",
    "submitername": "Arun Kommadath",
    "submiteremail": "arun.kommadath@canada.ca",
    "submiterphoneNumber": "403-304-9807",
    "issued": "2019-07-25",
    "translateReqNumber": "AAFC-190718-32"
}