{
    "dcr_id": "1564767553680",
    "lang": "en",
    "type_name": "intra-intra/news-nouv",
    "approvalsadvisor": "andrea.cameron@canada.ca",
    "approvalsdirector": "alec.nicholls@canada.ca",
    "submitername": "Andrea Cameron",
    "submiteremail": "andrea.cameron@canada.ca",
    "submiterphoneNumber": "613-773-0653",
    "issued": "2019-08-02",
    "translateReqNumber": "190802-10"
}