{
    "dcr_id": "1566914809657",
    "lang": "en",
    "type_name": "intra-intra/news-nouv",
    "approvalsadvisor": "andrea.cameron@canada.ca",
    "approvalsdirector": "jill.hull2@canada.ca",
    "submitername": "Sierra Picard",
    "submiteremail": "sierra.picard@canada.ca",
    "submiterphoneNumber": "613-773-2700",
    "issued": "2019-08-29",
    "translateReqNumber": "AAFC-190823-23"
}