{
    "dcr_id": "1568056316669",
    "lang": "en",
    "type_name": "intra-intra/news-nouv",
    "approvalsadvisor": "joy.moskovic@canada.ca",
    "approvalsdirector": "steven.jurgutis@canada.ca",
    "submitername": "Sylvain Lemieux",
    "submiteremail": "sylvain.lemieux@canada.ca",
    "submiterphoneNumber": "343-549-3756",
    "issued": "2019-09-12",
    "translateReqNumber": "190909-13"
}