{
    "dcr_id": "1568735171746",
    "lang": "en",
    "type_name": "intra-intra/news-nouv",
    "approvalsadvisor": "stela.susic@canada.ca",
    "approvalsdirector": "tania.costanzo@canada.ca",
    "submitername": "Susan Young",
    "submiteremail": "susan.young3@canada.ca",
    "submiterphoneNumber": "613-759-1807",
    "issued": "2019-09-19",
    "translateReqNumber": "AAFC-190913-18"
}