{
    "dcr_id": "1569352231789",
    "lang": "en",
    "type_name": "intra-intra/news-nouv",
    "approvalsadvisor": "stela.susic@canada.ca",
    "approvalsdirector": "jacint.boucher@canada.ca",
    "submitername": "Diderot jason",
    "submiteremail": "diderot.jason@canada.ca",
    "submiterphoneNumber": "613-773-2826",
    "issued": "2019-09-25",
    "translateReqNumber": "AAFC-190920-3"
}