{
    "dcr_id": "1570476445159",
    "lang": "en",
    "type_name": "intra-intra/news-nouv",
    "approvalsadvisor": "emily.dipaolo@canada.ca",
    "approvalsdirector": "alec.nicholls@canada.ca",
    "submitername": "kathryn hunt",
    "submiteremail": "kathryn.hunt@canada.ca",
    "submiterphoneNumber": "613-773-2262",
    "issued": "2019-10-10",
    "translateReqNumber": "n/a"
}