{
    "dcr_id": "1570816871537",
    "lang": "en",
    "type_name": "intra-intra/news-nouv",
    "approvalsadvisor": "stela.susic@canada.ca",
    "approvalsdirector": "gaea.guruprasad@canada.ca",
    "submitername": "Susan Young",
    "submiteremail": "susan.young3@canada.ca",
    "submiterphoneNumber": "613-759-1807",
    "issued": "2019-10-17",
    "translateReqNumber": "AAFC- 191008-17"
}