{
    "dcr_id": "1571152464002",
    "lang": "en",
    "type_name": "intra-intra/news-nouv",
    "approvalsadvisor": "justine.walker2@canada.ca",
    "approvalsdirector": "chritine.okrainec@canada.ca",
    "submitername": "Irena Farova",
    "submiteremail": "irena.farova@canada.ca",
    "submiterphoneNumber": "204-955-6130",
    "issued": "2019-10-15",
    "translateReqNumber": "No number received."
}