{
    "dcr_id": "1573662098053",
    "lang": "en",
    "type_name": "intra-intra/news-nouv",
    "approvalsadvisor": "natalie.ekholm@canada.ca",
    "approvalsdirector": "andrew.goldstein@canada.ca",
    "submitername": "Alexanne Drouin",
    "submiteremail": "Alexanne.Drouin@canada.ca",
    "submiterphoneNumber": "613-773-3443",
    "issued": "2019-11-14",
    "translateReqNumber": "180522-1"
}