{
    "dcr_id": "1573661775017",
    "lang": "en",
    "type_name": "intra-intra/news-nouv",
    "approvalsadvisor": "stela.susic@canada.ca",
    "approvalsdirector": "jacint.boucher@canada.ca",
    "submitername": "marlo khoury",
    "submiteremail": "marlo.khoury@canada.ca",
    "submiterphoneNumber": "613-773-1638",
    "issued": "2019-11-14",
    "translateReqNumber": "AAFC-191029-3"
}