{
    "dcr_id": "1574172258075",
    "lang": "en",
    "type_name": "intra-intra/news-nouv",
    "approvalsadvisor": "Julie.plamondon@canada.ca",
    "approvalsdirector": "Lucille.Lacelle@canada.ca",
    "submitername": "Megan Dybka",
    "submiteremail": "megan.dybka@canada.ca",
    "submiterphoneNumber": "613-773-1941",
    "issued": "2019-11-21",
    "translateReqNumber": "copied text from a previous document provided by translation: AAFC-190628-2"
}