{
    "dcr_id": "1574172505005",
    "lang": "en",
    "type_name": "intra-intra/news-nouv",
    "approvalsadvisor": "natalie.ekholm@canada.ca",
    "approvalsdirector": "Daryl.nearing@canada.ca",
    "submitername": "lesleigh smith",
    "submiteremail": "lesleigh.smith@canada.ca",
    "submiterphoneNumber": "613-773-2885",
    "issued": "2019-11-21",
    "translateReqNumber": "n/a the only change was translated by Talent organizers"
}