{
    "dcr_id": "1575406045626",
    "lang": "en",
    "type_name": "intra-intra/news-nouv",
    "approvalsadvisor": "Justine.walker2@canada.ca",
    "approvalsdirector": "nina.hamad@canada.ca",
    "submitername": "Amy Lin",
    "submiteremail": "amy.lin@canada.ca",
    "submiterphoneNumber": "613-773-2785",
    "issued": "2019-12-03",
    "translateReqNumber": "See Justine for translation number."
}