{
    "dcr_id": "1575297094774",
    "lang": "en",
    "type_name": "intra-intra/news-nouv",
    "approvalsadvisor": "stela.susic@canada.ca",
    "approvalsdirector": "jacint.boucher@canada.ca",
    "submitername": "Marlo Khoury",
    "submiteremail": "marlo.khoury@canada.ca",
    "submiterphoneNumber": "613-773-1638",
    "issued": "2019-12-05",
    "translateReqNumber": "AAFC-191125-23"
}