{
    "dcr_id": "1575379740472",
    "lang": "en",
    "type_name": "intra-intra/news-nouv",
    "approvalsadvisor": "justine.walker2@canada.ca",
    "approvalsdirector": "karen.durnford-mcintosh@canada.ca",
    "submitername": "Channel Villeneuve",
    "submiteremail": "channel.villeneuve2@canada.ca",
    "submiterphoneNumber": "613-773-2749",
    "issued": "2019-12-05",
    "translateReqNumber": "AAFC-191202-28"
}