{
    "dcr_id": "1576267142126",
    "lang": "en",
    "type_name": "intra-intra/news-nouv",
    "approvalsadvisor": "stela.susic@canada.ca",
    "approvalsdirector": "jacint.boucher@canada.ca",
    "submitername": "stela",
    "submiteremail": "stela.susic@canada.ca",
    "submiterphoneNumber": "613-773-3519",
    "issued": "2019-12-19",
    "translateReqNumber": "n/a (re-running last year's article)"
}