{
    "dcr_id": "1577808732778",
    "lang": "en",
    "type_name": "intra-intra/news-nouv",
    "approvalsadvisor": "justine.walker2@canada.ca",
    "approvalsdirector": "michel.lessard@canada.ca",
    "submitername": "Qamer Hameed",
    "submiteremail": "qamer.hameed@canada.ca",
    "submiterphoneNumber": "613-773-2934",
    "issued": "2020-01-02",
    "translateReqNumber": "AAFC-191231-8"
}