{
    "dcr_id": "1578946210637",
    "lang": "en",
    "type_name": "intra-intra/news-nouv",
    "approvalsadvisor": "stela.susic@canada.ca",
    "approvalsdirector": "jacint.boucher@canada.ca",
    "submitername": "Kristen Dempsey",
    "submiteremail": "kristen.dempsey@canada.ca",
    "submiterphoneNumber": "613-773-1347",
    "issued": "2020-01-16",
    "translateReqNumber": "AAFC-200107-16"
}