{
    "dcr_id": "1579626698237",
    "lang": "en",
    "type_name": "intra-intra/news-nouv",
    "approvalsadvisor": "shelly.donaldson2@canada.ca",
    "approvalsdirector": "daniel.champoux@canada.ca",
    "submitername": "Jonathan Vermeire",
    "submiteremail": "jonathan.vermeire2@canada.ca",
    "submiterphoneNumber": "613-773-3402",
    "issued": "2020-01-21",
    "translateReqNumber": "AAFC-200113-23"
}