{
    "dcr_id": "1580749008238",
    "lang": "en",
    "type_name": "intra-intra/news-nouv",
    "approvalsadvisor": "stela.susic@canada.ca",
    "approvalsdirector": "jacint.boucher@canada.ca",
    "submitername": "Carey Born",
    "submiteremail": "carey.born@canada.ca",
    "submiterphoneNumber": "613-773-0107",
    "issued": "2020-02-06",
    "translateReqNumber": "AAFC-200127-25"
}