{
    "dcr_id": "1580146552786",
    "lang": "en",
    "type_name": "intra-intra/news-nouv",
    "approvalsadvisor": "Shelley.Donaldson2@canada.ca",
    "approvalsdirector": "Kimberly.Saunders@canada.ca",
    "submitername": "Eileen Rankin",
    "submiteremail": "Eileen.Rankin@canada.ca",
    "submiterphoneNumber": "613-773-2804",
    "issued": "2020-01-30",
    "translateReqNumber": "AAFC-200121-41"
}