{
    "dcr_id": "1580227354952",
    "lang": "en",
    "type_name": "intra-intra/news-nouv",
    "approvalsadvisor": "amy.lin@canada.ca",
    "approvalsdirector": "christine.walker2@canada.ca",
    "submitername": "Justyn El-Bouchi",
    "submiteremail": "justyn.el-bouchi@canada.ca",
    "submiterphoneNumber": "613-773-1205",
    "issued": "2020-01-30",
    "translateReqNumber": "200117-32"
}