{
    "dcr_id": "1581958783506",
    "lang": "en",
    "type_name": "intra-intra/news-nouv",
    "approvalsadvisor": "randi.saunders@canada.ca",
    "approvalsdirector": "scott.aughey@canada.ca",
    "submitername": "Cassandra Pelley",
    "submiteremail": "cassandra.pelley@canada.ca",
    "submiterphoneNumber": "613-773-3457",
    "issued": "2020-02-20",
    "translateReqNumber": "200213-25"
}