{
    "dcr_id": "1582644451851",
    "lang": "en",
    "type_name": "intra-intra/news-nouv",
    "approvalsadvisor": "stela.susic@canada.ca",
    "approvalsdirector": "angela.murphy@canada.ca",
    "submitername": "Apolline Mukandanga",
    "submiteremail": "apolline.mukandanga@canada.ca",
    "submiterphoneNumber": "613-773-2208",
    "issued": "2020-02-27",
    "translateReqNumber": "200218-25"
}