{
    "dcr_id": "1590434618542",
    "lang": "en",
    "type_name": "intra-intra/news-nouv",
    "approvalsadvisor": "Justine.Walker2@canada.ca",
    "approvalsdirector": "Jacint.boucher@canada.ca",
    "submitername": "Carey Born",
    "submiteremail": "carey.born@canada.ca",
    "submiterphoneNumber": "613-897-6073",
    "issued": "2020-05-28",
    "translateReqNumber": "AAFC-200519"
}