{
    "dcr_id": "1602275164365",
    "lang": "en",
    "type_name": "intra-intra/news-nouv",
    "approvalsadvisor": "kenny.bernard@canada.ca",
    "approvalsdirector": "sonia.forget@canada.ca",
    "submitername": "Kenny Bernard",
    "submiteremail": "kenny.bernard@canada.ca",
    "submiterphoneNumber": "613-773-3094",
    "issued": "2020-10-15",
    "translateReqNumber": "201008-024"
}