{
    "dcr_id": "1603821478221",
    "lang": "en",
    "type_name": "intra-intra/news-nouv",
    "approvalsadvisor": "sonia.forget@canada.ca",
    "approvalsdirector": "carla.stcroix@canada.ca",
    "submitername": "Tonya Temple",
    "submiteremail": "tonya.temple@canada.ca",
    "submiterphoneNumber": "613-773-0652",
    "issued": "2020-10-29",
    "translateReqNumber": "201026-035"
}