{
    "dcr_id": "1603809984038",
    "lang": "en",
    "type_name": "intra-intra/news-nouv",
    "approvalsadvisor": "eileen.rankin@canada.ca",
    "approvalsdirector": "andrew.goldstein@canada.ca",
    "submitername": "Kim Skarnulis",
    "submiteremail": "kim.skarnulis@canada.ca",
    "submiterphoneNumber": "613-325-5519",
    "issued": "2020-10-29",
    "translateReqNumber": "Translated last year"
}