{
    "dcr_id": "1603122381676",
    "lang": "en",
    "type_name": "intra-intra/news-nouv",
    "approvalsadvisor": "justine.walker2@canada.ca",
    "approvalsdirector": "jancint.boucher@canada.ca",
    "submitername": "Carey Born",
    "submiteremail": "carey.born@canada.ca",
    "submiterphoneNumber": "613-897-6073",
    "issued": "2020-10-22",
    "translateReqNumber": "None"
}