{
    "dcr_id": "1603999428093",
    "lang": "en",
    "type_name": "intra-intra/news-nouv",
    "approvalsadvisor": "justine.walker2@canada.ca",
    "approvalsdirector": "Vidya.ShankarNarayan@canada.ca",
    "submitername": "justine walker",
    "submiteremail": "justine.walker2@canada.ca",
    "submiterphoneNumber": "613-773-0443",
    "issued": "2020-10-29",
    "translateReqNumber": "AAFC-201028-034 "
}