{
    "dcr_id": "1474480017239",
    "lang": "en",
    "title": {
        "en": "NCR - Reminder - GCWCC 50/50 Draws - Win up to $1,000 and More",
        "fr": "RCN - Rappel - Les tirages 50/50 de la CCMTGC - Gagnez jusqu'à 1 000 $ et plus"
    },
    "modified": "2016-10-06 00:00:00.0",
    "issued": "2016-09-22 00:00:00.0",
    "type_name": "intra-intra/news-nouv",
    "node_id": "1279030006975",
    "layout_name": "1 column",
    "created": "2017-03-31 15:46:45.0",
    "updated": "2017-03-31 15:46:45.0"
}