{
    "dcr_id": "1514902675461",
    "lang": "en",
    "type_name": "intra-intra/news-nouv",
    "created": "2018-01-04 00:00:00.0",
    "expirydate": "2018-01-25 00:00:00.0",
    "news_category_type_id": "1308334182981"
}