{
    "dcr_id": "1519159275716",
    "lang": "en",
    "type_name": "intra-intra/news-nouv",
    "created": "2018-02-22 00:00:00.0",
    "expirydate": "2018-03-12 00:00:00.0",
    "news_category_type_id": "1308334182981"
}