{
    "dcr_id": "1519143477106",
    "lang": "en",
    "type_name": "intra-intra/news-nouv",
    "created": "2018-02-22 00:00:00.0",
    "expirydate": "2018-03-01 00:00:00.0",
    "news_category_type_id": "1308325693175"
}