{
    "dcr_id": "1521650807560",
    "lang": "en",
    "type_name": "intra-intra/news-nouv",
    "created": "2018-03-21 00:00:00.0",
    "expirydate": "2018-03-25 00:00:00.0",
    "news_category_type_id": "1308334182982"
}