{
    "dcr_id": "1521835541494",
    "lang": "en",
    "type_name": "intra-intra/news-nouv",
    "created": "2018-03-29 00:00:00.0",
    "expirydate": "2018-04-05 00:00:00.0",
    "news_category_type_id": "1308325693175"
}