{
    "dcr_id": "1522097717415",
    "lang": "en",
    "type_name": "intra-intra/news-nouv",
    "created": "2018-03-28 00:00:00.0",
    "expirydate": "2018-04-07 00:00:00.0",
    "news_category_type_id": "1308325693175"
}