{
    "dcr_id": "1525448627163",
    "lang": "en",
    "type_name": "intra-intra/news-nouv",
    "created": "2018-05-08 00:00:00.0",
    "expirydate": "2018-06-02 00:00:00.0",
    "news_category_type_id": "1508942999198"
}