{
    "dcr_id": "1525189669805",
    "lang": "en",
    "type_name": "intra-intra/news-nouv",
    "created": "2018-05-02 00:00:00.0",
    "expirydate": "2018-05-16 00:00:00.0",
    "news_category_type_id": "1308334182981"
}