{
    "dcr_id": "1527624096698",
    "lang": "en",
    "type_name": "intra-intra/news-nouv",
    "created": "2018-05-31 00:00:00.0",
    "expirydate": "2018-07-05 00:00:00.0",
    "news_category_type_id": "1308325693175"
}