{
    "dcr_id": "1528400358634",
    "lang": "en",
    "type_name": "intra-intra/news-nouv",
    "created": "2018-06-13 00:00:00.0",
    "expirydate": "2018-06-20 00:00:00.0",
    "news_category_type_id": "1308334182982"
}