{
    "dcr_id": "1532367447923",
    "lang": "en",
    "type_name": "intra-intra/news-nouv",
    "created": "2018-07-24 00:00:00.0",
    "expirydate": "2018-08-02 00:00:00.0",
    "news_category_type_id": "1308334182981"
}