{
    "dcr_id": "1536781476732",
    "lang": "en",
    "type_name": "intra-intra/news-nouv",
    "created": "2018-09-13 00:00:00.0",
    "expirydate": "2018-09-26 00:00:00.0",
    "news_category_type_id": "1308334182981"
}