{
    "dcr_id": "1537284133364",
    "lang": "en",
    "type_name": "intra-intra/news-nouv",
    "created": "2018-09-20 00:00:00.0",
    "expirydate": "2018-09-27 00:00:00.0",
    "news_category_type_id": "1308325693175"
}