{
    "dcr_id": "1538483055698",
    "lang": "en",
    "type_name": "intra-intra/news-nouv",
    "created": "2018-10-04 00:00:00.0",
    "expirydate": "2018-10-15 00:00:00.0",
    "news_category_type_id": "1379951494338"
}