{
    "dcr_id": "1540925819764",
    "lang": "en",
    "type_name": "intra-intra/news-nouv",
    "created": "2018-11-01 00:00:00.0",
    "expirydate": "2018-11-14 00:00:00.0",
    "news_category_type_id": "1308334182981"
}