{
    "dcr_id": "1541448491049",
    "lang": "en",
    "type_name": "intra-intra/news-nouv",
    "created": "2018-11-06 00:00:00.0",
    "expirydate": "2018-11-11 00:00:00.0",
    "news_category_type_id": "1308334182982"
}