{
    "dcr_id": "1542125016299",
    "lang": "en",
    "type_name": "intra-intra/news-nouv",
    "created": "2018-11-15 00:00:00.0",
    "expirydate": "2018-11-27 00:00:00.0",
    "news_category_type_id": "1308334182981"
}