{
    "dcr_id": "1542228800732",
    "lang": "en",
    "type_name": "intra-intra/news-nouv",
    "created": "2018-11-22 00:00:00.0",
    "expirydate": "2018-12-05 00:00:00.0",
    "news_category_type_id": "1308334182981"
}