{
    "dcr_id": "1542726174462",
    "lang": "en",
    "type_name": "intra-intra/news-nouv",
    "created": "2018-11-22 00:00:00.0",
    "expirydate": "2018-11-29 00:00:00.0",
    "news_category_type_id": "1308325693175"
}