{
    "dcr_id": "1543860528908",
    "lang": "en",
    "type_name": "intra-intra/news-nouv",
    "created": "2018-12-05 00:00:00.0",
    "expirydate": "2018-12-17 00:00:00.0",
    "news_category_type_id": "1308334182982"
}