{
    "dcr_id": "1544012005741",
    "lang": "en",
    "type_name": "intra-intra/news-nouv",
    "created": "2018-12-06 00:00:00.0",
    "expirydate": "2018-12-13 00:00:00.0",
    "news_category_type_id": "1508942999196"
}