{
    "dcr_id": "1548778175474",
    "lang": "en",
    "type_name": "intra-intra/news-nouv",
    "created": "2019-01-30 00:00:00.0",
    "expirydate": "2019-02-07 00:00:00.0",
    "news_category_type_id": "1308334182981"
}