{
    "dcr_id": "1551811039098",
    "lang": "en",
    "type_name": "intra-intra/news-nouv",
    "created": "2019-03-07 00:00:00.0",
    "expirydate": "2019-03-14 00:00:00.0",
    "news_category_type_id": "1308325693175"
}