{
    "dcr_id": "1552674941423",
    "lang": "en",
    "type_name": "intra-intra/news-nouv",
    "created": "2019-03-19 00:00:00.0",
    "expirydate": "2019-03-30 00:00:00.0",
    "news_category_type_id": "1308334182981"
}