{
    "dcr_id": "1555356342881",
    "lang": "en",
    "type_name": "intra-intra/news-nouv",
    "created": "2019-04-15 00:00:00.0",
    "expirydate": "2019-04-25 00:00:00.0",
    "news_category_type_id": "1308334182981"
}