{
    "dcr_id": "1555430002251",
    "lang": "en",
    "type_name": "intra-intra/news-nouv",
    "created": "2019-04-18 00:00:00.0",
    "expirydate": "2019-04-25 00:00:00.0",
    "news_category_type_id": "1308325693175"
}