{
    "dcr_id": "1560268042448",
    "lang": "en",
    "type_name": "intra-intra/news-nouv",
    "created": "2019-06-12 00:00:00.0",
    "expirydate": "2019-06-21 00:00:00.0",
    "news_category_type_id": "1308334182981"
}