{
    "dcr_id": "1563994606448",
    "lang": "en",
    "type_name": "intra-intra/news-nouv",
    "created": "2019-07-25 00:00:00.0",
    "expirydate": "2019-08-01 00:00:00.0",
    "news_category_type_id": "1508942999196"
}