{
    "dcr_id": "1567449891739",
    "lang": "en",
    "type_name": "intra-intra/news-nouv",
    "created": "2019-09-05 00:00:00.0",
    "expirydate": "2019-09-12 00:00:00.0",
    "news_category_type_id": "1379951494338"
}