{
    "dcr_id": "1568206809251",
    "lang": "en",
    "type_name": "intra-intra/news-nouv",
    "created": "2019-09-12 00:00:00.0",
    "expirydate": "2019-09-19 00:00:00.0",
    "news_category_type_id": "1508942999196"
}