{
    "dcr_id": "1574286115154",
    "lang": "en",
    "type_name": "intra-intra/news-nouv",
    "created": "2019-11-20 00:00:00.0",
    "expirydate": "2019-11-28 00:00:00.0",
    "news_category_type_id": "1308334182983"
}