{
    "dcr_id": "1575662862953",
    "lang": "en",
    "type_name": "intra-intra/news-nouv",
    "created": "2019-12-12 00:00:00.0",
    "expirydate": "2020-02-01 00:00:00.0",
    "news_category_type_id": "1379951494338"
}