{
    "dcr_id": "1575490641305",
    "lang": "en",
    "type_name": "intra-intra/news-nouv",
    "created": "2019-12-05 00:00:00.0",
    "expirydate": "2020-01-16 00:00:00.0",
    "news_category_type_id": "1308325693175"
}