{
    "dcr_id": "1576771563145",
    "lang": "en",
    "type_name": "intra-intra/news-nouv",
    "created": "2019-12-19 00:00:00.0",
    "expirydate": "2019-12-26 00:00:00.0",
    "news_category_type_id": "1308334182983"
}