{
    "dcr_id": "1581350914399",
    "lang": "en",
    "type_name": "intra-intra/news-nouv",
    "created": "2020-02-13 00:00:00.0",
    "expirydate": "2020-02-27 00:00:00.0",
    "news_category_type_id": "1308334182982"
}