{
    "dcr_id": "1582658703187",
    "lang": "en",
    "type_name": "intra-intra/news-nouv",
    "created": "2020-02-27 00:00:00.0",
    "expirydate": "2020-03-05 00:00:00.0",
    "news_category_type_id": "1308325693175"
}