{
    "dcr_id": "1584732131438",
    "lang": "en",
    "type_name": "intra-intra/news-nouv",
    "created": "2020-03-20 00:00:00.0",
    "expirydate": "2020-05-11 00:00:00.0",
    "news_category_type_id": "1308325693175"
}