{
    "dcr_id": "1591887264605",
    "lang": "en",
    "type_name": "intra-intra/news-nouv",
    "created": "2020-06-11 00:00:00.0",
    "expirydate": "2020-06-25 00:00:00.0",
    "news_category_type_id": "1308334182981"
}