{
    "dcr_id": "1594138268251",
    "lang": "en",
    "type_name": "intra-intra/news-nouv",
    "created": "2020-07-07 00:00:00.0",
    "expirydate": "2020-07-16 00:00:00.0",
    "news_category_type_id": "1508942999196"
}