{
    "dcr_id": "1600707673174",
    "lang": "en",
    "type_name": "intra-intra/news-nouv",
    "created": "2020-09-24 00:00:00.0",
    "expirydate": "2020-10-01 00:00:00.0",
    "news_category_type_id": "1308334182981"
}