{
    "dcr_id": "1601483831382",
    "lang": "en",
    "type_name": "intra-intra/news-nouv",
    "created": "2020-10-01 00:00:00.0",
    "expirydate": "2020-10-08 00:00:00.0",
    "news_category_type_id": "1308325693175"
}