{
    "dcr_id": "1602700841685",
    "lang": "en",
    "title": {
        "en": "Policy Analyst",
        "fr": "Analyste de politiques"
    },
    "modified": "2020-10-29 00:00:00.0",
    "issued": "2020-10-15 00:00:00.0",
    "type_name": "intra-intra/empl-empl",
    "node_id": "1279029955397",
    "layout_name": null,
    "dc_date_created": "2020-10-15",
    "breadcrumb_label": "",
    "trigger_date": "2020-10-29 10:51:18.0",
    "meta": {
        "issued": {
            "en": "2020-10-15",
            "fr": "2020-10-15"
        },
        "modified": {
            "en": "2020-10-29",
            "fr": "2020-10-29"
        },
        "format": {
            "en": "gcformat",
            "fr": "gcformat"
        },
        "title": {
            "en": "Policy Analyst",
            "fr": "Analyste de politiques"
        },
        "subject": {
            "en": "staffing",
            "fr": "dotation en personnel"
        },
        "language": {
            "en": "eng",
            "fr": "fra"
        },
        "audience": {
            "en": "gcaudience",
            "fr": "gcaudience"
        },
        "type": {
            "en": "notice",
            "fr": "avis"
        },
        "creator": {
            "en": "Agriculture and Agri-Food Canada",
            "fr": "Agriculture et Agroalimentaire Canada"
        },
        "spatial": {
            "en": "gcregions",
            "fr": "gcregions"
        },
        "service": {
            "en": "AAFC_AgriSource",
            "fr": "AAC_AgriSource"
        },
        "accessRights": {
            "en": "3",
            "fr": "3"
        }
    },
    "body": {
        "en": "\n<p><strong>\u00a0</strong></p>\n<p><strong>Are you looking for a new challenge? </strong></p>\n<p>The Portfolio Coordination Secretariat is looking for a dynamic team member to join their team, working on policy files impacting a number of issues and interests related to AAFC portfolio partners: Canada Agricultural Review Tribunal, Canadian Dairy Commission, Canadian Grain Commission, Farm Credit Canada, Farm Products Council of Canada and the Canadian Food Inspection Agency.</p>\n<p>\u00a0</p>\n<p>You would be working on corporate plans, treasury board submissions along with other memos and policy reports for central agencies, the Deputy Minister and the Minister.</p>\n<p>\u00a0</p>\n<p><strong>This role would be exciting for someone who would enjoy:</strong></p>\n<ul>\n<li>\n<p>Liaising with AAFC\u2019s portfolio partners to promote policy coordination and building consistency in the activities and reporting within the AAFC portfolio.</p>\n</li>\n<li>\n<p>Expanding your work network by participating in working groups and collaborating with key players in other branches within AAFC.</p>\n</li>\n<li>\n<p>Following a broad range of policy issues and trends.</p>\n</li>\n<li>\n<p>Applying and analysing economic or sociological principles, practices, techniques, tools and/or methods.</p>\n</li>\n</ul>\n<p>\u00a0</p>\n<p>Candidates should be willing to work overtime occasionally, sometimes with short notice.</p>\n<p>Informal interviews may be conducted to assess the depth and breadth of your experience.</p>\n<p>\u00a0</p>\n<p><strong>Expression of interest:</strong></p>\n<p>Please send your resume and a cover letter to Ryan Wilkes (ryan.wilkes@canada.ca) by November 12, 2020. Your cover letter must clearly indicate your substantive group and level and how you feel you would be an asset to this team.</p>\n<p>Please also include contact information for a supervisor/manager and a peer reference.</p>\n<p>\u00a0</p>\n<p><strong>Notes: </strong></p>\n<ul>\n<li>This opportunity is an assignment at level</li>\n<li>Your cover letter will be used to assess your communication and writing skills.</li>\n<li>Communication for this process will be sent via email.</li>\n<li>Candidates must have their manager\u2019s approval prior to applying to an assignment opportunity.</li>\n<li>This process will not be used to establish a pool of qualified candidates</li>\n<li>Deployments cannot change the tenure of an employee (i.e: term to indeterminate) or constitute a promotion.</li>\n</ul>\n<p>\u00a0</p>\n",
        "fr": "\n<p><strong>\u00a0</strong></p>\n<p><strong>\u00cates-vous \u00e0 la recherche de nouveaux d\u00e9fis?</strong></p>\n<p>Le Secr\u00e9tariat de la coordination du portefeuille est \u00e0 la recherche d\u2019un employ\u00e9</p>\n<p>dynamique pour joindre leur \u00e9quipe, qui travaillera sur des dossiers politiques qui ont un impact sur de nombreux enjeux et d\u2019int\u00e9r\u00eats reli\u00e9s aux partenaires de portefeuille d\u2019AAC :Commission de r\u00e9vision agricole du Canada, Commission canadienne du lait, Commission canadienne des grains, Financement agricole Canada, Conseil des produits agricoles du Canada ainsi que l\u2019Agence canadienne d'inspection des aliments.</p>\n<p>Vous travaillerez sur des plans minist\u00e9riels, des pr\u00e9sentations au Conseil du Tr\u00e9sor, ainsi que des notes de service et des rapports strat\u00e9giques \u00e0 l\u2019intention des organismes centraux, du sous-ministre et du ministre.</p>\n<p>\u00a0</p>\n<p><strong>Ce r\u00f4le serait id\u00e9al pour une personne qui aime :</strong></p>\n<ul>\n<li>\n<p>Faire la liaison avec les partenaires de portefeuille d\u2019AAC afin de promouvoir la coordination des politiques ainsi que la coh\u00e9rence des activit\u00e9s et de la production de rapports avec le portefeuille d\u2019AAC.</p>\n</li>\n<li>\n<p>Augmenter son r\u00e9seau de travail en participant dans des groupes de travail et collaborer avec des intervenants cl\u00e9s dans les autres directions g\u00e9n\u00e9rales d\u2019AAC.</p>\n</li>\n<li>\n<p>Suivre divers enjeux et tendances politiques.</p>\n</li>\n<li>\n<p>Appliquer et analyser des principes \u00e9conomiques ou sociologiques, des pratiques, des techniques, des outils et/ou des m\u00e9thodes.</p>\n<p>\u00a0</p>\n</li>\n</ul>\n<p>Les candidats doivent \u00eatre dispos\u00e9s \u00e0 faire des heures suppl\u00e9mentaires \u00e0 l\u2019occasion, parfois \u00e0 court pr\u00e9avis.</p>\n<p>Une entrevue informelle pourrait \u00eatre effectu\u00e9e pour \u00e9valuer l\u2019\u00e9tendue et la richesse de votre \u2019exp\u00e9rience.</p>\n<p>\u00a0</p>\n<p><strong>L\u2019expression d\u2019int\u00e9r\u00eat :</strong></p>\n<p>Veuillez envoyer votre r\u00e9sum\u00e9 et une lettre de pr\u00e9sentation \u00e0 Ryan Wilkes (ryan.wilkes@canada.ca) par le 12 novembre 2020. Votre lettre de pr\u00e9sentation doit indiquer clairement votre groupe et niveau de votre poste d\u2019attache et expliquer comment vous seriez un atout pour l\u2019\u00e9quipe.</p>\n<p>Veuillez aussi nous fournir les coordonn\u00e9es d\u2019un superviseur et d\u2019un pair, \u00e0 titre de r\u00e9f\u00e9rence.</p>\n<p>\u00a0</p>\n<p><strong>Remarques: </strong></p>\n<ul>\n<li>\n<p>Cette opportunit\u00e9 est une affectation \u00e0 niveau.</p>\n</li>\n</ul>\n<ul>\n<li>\n<p>Votre lettre d\u2019accompagnement sera utilis\u00e9e pour \u00e9valuer vos comp\u00e9tences en communication et en r\u00e9daction.</p>\n</li>\n<li>\n<p>Les communications relatives au processus de s\u00e9lection se feront par courriel.</p>\n</li>\n<li>\n<p>Les candidats doivent obtenir l\u2019approbation de leur gestionnaire avant de soumettre leur candidature pour une possibilit\u00e9 d\u2019affectation.</p>\n</li>\n<li>\n<p>Ce processus ne sera pas utilis\u00e9 pour \u00e9tablir un bassin de candidats qualifi\u00e9s</p>\n</li>\n<li>Les mutations ne peuvent modifier le mandat d\u2019un employ\u00e9 (p. ex. : dur\u00e9e d\u00e9termin\u00e9e \u00e0 dur\u00e9e ind\u00e9termin\u00e9e) ou constituer une promotion.</li>\n</ul>\n<p>\u00a0</p>\n\n"
    },
    "breadcrumb": {
        "en": "Policy Analyst",
        "fr": "Analyste de politiques"
    },
    "empl": {
        "type": {
            "en": "Assignment",
            "fr": "Affectation"
        },
        "classification": {
            "en": "EC-5, EC-4, EC-3",
            "fr": "EC-5, EC-4, EC-3"
        },
        "branch": {
            "en": "Deputy Minister's Office",
            "fr": "Bureau du sous-ministre"
        },
        "locations": {
            "en": "Ottawa, Ontario",
            "fr": "Ottawa (Ontario)"
        },
        "date_closing": {
            "en": "2020-11-12",
            "fr": "2020-11-12"
        },
        "open_to": {
            "en": "Employees of Agriculture and Agri-Food Canada (AAFC) at the EC-03, EC-04 or EC-05 level",
            "fr": "Employ\u00e9s d'Agriculture et Agroalimentaire Canada (AAC) de niveaux EC-03, EC-04 ou EC-05"
        },
        "name": {
            "en": "Ryan Wilkes",
            "fr": "Ryan Wilkes"
        },
        "email": {
            "en": "ryan.wilkes@canada.ca",
            "fr": "ryan.wilkes@canada.ca"
        }
    }
}