{
    "dcr_id": "1602854902839",
    "lang": "en",
    "title": {
        "en": "Red Meat Analyst",
        "fr": "Analyste des march\u00e9s - viande rouge"
    },
    "modified": "2020-10-16 00:00:00.0",
    "issued": "2020-10-16 00:00:00.0",
    "type_name": "intra-intra/empl-empl",
    "node_id": "1279029955397",
    "layout_name": null,
    "dc_date_created": "2020-10-16",
    "breadcrumb_label": "",
    "trigger_date": "2020-10-16 14:06:59.0",
    "meta": {
        "issued": {
            "en": "2020-10-16",
            "fr": "2020-10-16"
        },
        "modified": {
            "en": "2020-10-16",
            "fr": "2020-10-16"
        },
        "format": {
            "en": "gcformat",
            "fr": "gcformat"
        },
        "title": {
            "en": "Red Meat Analyst",
            "fr": "Analyste des march\u00e9s - viande rouge"
        },
        "subject": {
            "en": "staffing",
            "fr": "dotation en personnel"
        },
        "language": {
            "en": "eng",
            "fr": "fra"
        },
        "audience": {
            "en": "gcaudience",
            "fr": "gcaudience"
        },
        "type": {
            "en": "notice",
            "fr": "avis"
        },
        "creator": {
            "en": "Agriculture and Agri-Food Canada",
            "fr": "Agriculture et Agroalimentaire Canada"
        },
        "spatial": {
            "en": "gcregions",
            "fr": "gcregions"
        },
        "service": {
            "en": "AAFC_AgriSource",
            "fr": "AAC_AgriSource"
        },
        "accessRights": {
            "en": "3",
            "fr": "3"
        }
    },
    "body": {
        "en": "\n<p><strong>\u00a0</strong></p>\n<p><strong>About the opportunity:</strong></p>\n<p>Tenure: 1 year</p>\n<p>\u00a0</p>\n<p>Due to the current environment surrounding COVID-19, this opportunity requires remote work.</p>\n<p>\u00a0</p>\n<p>With the Animal Industry Division, the Red Meat Analyst can expect to:</p>\n<ul>\n<li>\n<p>Analyze complex data and identify trends, issues and opportunities.</p>\n</li>\n<li>\n<p>Collaborate on the analysis of market trends and other issues affecting animal sectors to ensure effective stakeholder engagement.</p>\n</li>\n<li>\n<p>Develop, prepare, or contribute to briefing notes, ministerial correspondence and/or scenario notes.</p>\n</li>\n<li>\n<p>Participate in departmental/inter-departmental and/or industry meetings.</p>\n</li>\n<li>\n<p>Develop sectoral expertise related to the animal industries.</p>\n</li>\n<li>\n<p>Collaborate with key stakeholders in addressing issues that impact the animal sectors.</p>\n</li>\n</ul>\n<p><strong>\u00a0</strong></p>\n<p><strong>***In order to be considered, your application must clearly explain how you meet the following essential qualifications: linguistic requirement, education, experiences, and knowledge.***</strong></p>\n<p><strong>***Analytical thinking and writing competencies will be assessed using your response for the knowledge merit criterion***</strong></p>\n<p><strong>***If you possess any asset qualifications listed in the statement of merit, please ensure to clearly explain how you meet the asset qualifications.***</strong></p>\n<p><strong>***Asset qualifications may be invoked at any stage of this opportunity.***</strong></p>\n<p><strong>***An assignment opportunity may be given preference.***</strong></p>\n<p><strong>***Submissions must be provided by the closing date to Cathy Istead at cathy.istead@canada.ca***</strong></p>\n<p><strong>\u00a0</strong></p>\n<p><strong>Statement of Merit Criteria:</strong></p>\n<p><strong>\u00a0</strong></p>\n<p><strong>Essential Qualifications</strong></p>\n<p><strong>\u00a0</strong></p>\n<p><strong>Linguistic Requirement: </strong>English Essential</p>\n<p><strong>\u00a0</strong></p>\n<p><strong>Education: </strong>Graduation with a bachelor\u2019s degree from a recognized university with acceptable specialization in agriculture, economics, commerce, food science or a related science OR an acceptable combination of education, training and/or experience.</p>\n<p><strong>\u00a0</strong></p>\n<p><strong>Experience: </strong></p>\n<p>(*Recent is defined by having been acquired within the last twelve (12) months; **Significant is defined as breadth and richness of experience that would normally be associated to the performance of duties over a period of at least six (6) months.)</p>\n<p>Recent* and significant** experience in agriculture data and sector analysis.</p>\n<p>Recent* and significant** experience searching for and extracting information from established databases or data systems to develop and prepare analysis.</p>\n<p>Experience in using Excel, and Tableau or Cognos or Power BI, for Data visualization.</p>\n<p><strong>\u00a0</strong></p>\n<p><strong>Knowledge</strong> : Knowledge of the Canadian livestock and/or red meat industry. If you possess this knowledge, demonstrate it by picking one sector in the livestock or red meat industry (e.g. cattle, beef, hogs, pork, sheep/lamb, bison, goats) and develop three charts in Microsoft Excel or PowerPoint that illustrate three different market trends in that sector. Additionally, explain in writing (2 pages) using Microsoft Word how these trends impact the economic contribution of the specific sector.</p>\n<p><strong>\u00a0</strong></p>\n<p><strong>Competencies: </strong></p>\n<p>Analytical Thinking</p>\n<p>Writing</p>\n<p>Relationship Building</p>\n<p><strong>\u00a0</strong></p>\n<p><strong>Asset Qualifications: </strong></p>\n<p>Graduation with a degree from a recognized university in agriculture, economics, commerce or business.</p>\n<p>Experience in using Oracle (database) and Cognos (software).</p>\n<p>Experience with on farm animal production.</p>\n<p><strong>\u00a0</strong></p>\n<p><strong>Operational Requirements:</strong></p>\n<p>Ability and willingness to work overtime</p>\n<p>Ability and willingness to travel</p>\n<p><strong>\u00a0</strong></p>\n<p><strong>Conditions of Employment:</strong></p>\n<p>Reliability and Security: Reliability Status</p>\n<p>\u00a0</p>\n",
        "fr": "\n<p><strong>\u00a0</strong></p>\n<p><strong>\u00c0 propos de l'opportunit\u00e9 :</strong></p>\n<p>Dur\u00e9e de l'opportunit\u00e9 : une ann\u00e9e</p>\n<p>\u00a0</p>\n<p>En raison de la situation actuelle de la COVID-19, cette opportunit\u00e9 requiert le t\u00e9l\u00e9travail.</p>\n<p><br>\u00c0 la Division de l'industrie animale, les fonctions d\u2019un(e) analyste des march\u00e9s englobent un large \u00e9ventail de responsabilit\u00e9s, notamment :</p>\n<ul>\n<li>\n<p>Examen des donn\u00e9es complexes et identification des tendances, des probl\u00e8mes et des opportunit\u00e9s.</p>\n</li>\n<li>\n<p>Collaboration \u00e0 l'analyse des tendances du march\u00e9 et d'autres enjeux affectant le secteur des animaux pour assurer un engagement efficace des parties prenantes.</p>\n</li>\n<li>\n<p>\u00c9laboration, pr\u00e9paration ou contribution aux notes d\u2019information, \u00e0 la correspondance minist\u00e9rielle et/ou aux notes de sc\u00e9nario.</p>\n</li>\n<li>\n<p>Participation aux r\u00e9unions minist\u00e9rielles / interminist\u00e9rielles et / ou industrielles.</p>\n</li>\n<li>\n<p>Acquisition d\u2019une expertise sectorielle li\u00e9e aux industries animales.</p>\n</li>\n<li>\n<p>Collaboration avec les principaux intervenants pour r\u00e9soudre les probl\u00e8mes qui ont une incidence sur les secteurs animaux.</p>\n</li>\n</ul>\n<p><strong>\u00a0</strong></p>\n<p><strong>***Pour que votre candidature soit prise en consid\u00e9ration, vous devez clairement expliquer comment vous remplissez les qualifications essentielles suivantes : exigences linguistiques, \u00e9tudes, exp\u00e9riences et connaissances.***</strong></p>\n<p><strong>***Les comp\u00e9tences en mati\u00e8re de r\u00e9flexion analytique et en communication \u00e9crite seront \u00e9valu\u00e9es sur la base de votre r\u00e9ponse aux crit\u00e8res de m\u00e9rite en mati\u00e8re de connaissances***</strong></p>\n<p><strong>***Si vous poss\u00e9dez des qualifications \u00e9num\u00e9r\u00e9es dans l'\u00e9nonc\u00e9 des crit\u00e8res de m\u00e9rite qui constituent un atout, veuillez-vous assurer d'expliquer clairement comment vous r\u00e9pondez \u00e0 ces qualifications constituant un atout.***</strong></p>\n<p><strong>***Les qualifications qui constituent un atout peuvent \u00eatre invoqu\u00e9es \u00e0 tout moment de cette opportunit\u00e9.***</strong></p>\n<p><strong>***Une affectation peut \u00eatre privil\u00e9gi\u00e9e***</strong></p>\n<p><strong>***Les candidatures doivent \u00eatre envoy\u00e9es avant la date limite \u00e0 Cathy Istead \u00e0 cathy.istead@canada.ca***</strong></p>\n<p><strong>\u00a0</strong></p>\n<p><strong>\u00c9nonc\u00e9 des crit\u00e8res de m\u00e9rite:</strong></p>\n<p><strong>\u00a0</strong></p>\n<p><strong>Qualifications essentielles</strong></p>\n<p><strong>\u00a0</strong></p>\n<p><strong>Exigences linguistiques: </strong>anglais essentiel</p>\n<p><strong>\u00a0</strong></p>\n<p><strong>Etudes: </strong>Dipl\u00f4me d\u2019une universit\u00e9 reconnue avec une sp\u00e9cialisation acceptable en agriculture, \u00e9conomie, commerce, science alimentaire ou une science connexe OU une combinaison acceptable d'\u00e9ducation, de formation et/ou d'exp\u00e9rience.</p>\n<p><strong>\u00a0</strong></p>\n<p><strong>Exp\u00e9rience: </strong></p>\n<p>(* Par \u00ab exp\u00e9rience r\u00e9cente \u00bb, on entend une exp\u00e9rience acquise au cours des douze (12) derniers mois. On entend par \u00ab\u2009exp\u00e9rience appr\u00e9ciable\u2009\u00bb une exp\u00e9rience dont la richesse et l\u2019\u00e9tendue sont habituellement acquises gr\u00e2ce \u00e0 l\u2019exercice de ces fonctions pendant au moins six (6) mois.)</p>\n<p>Exp\u00e9rience r\u00e9cente* et appr\u00e9ciable** dans le domaine des donn\u00e9es et de l'analyse sectorielle de l'agriculture.</p>\n<p>Exp\u00e9rience r\u00e9cente* et appr\u00e9ciable** de la recherche et de l\u2019extraction de donn\u00e9es provenant de bases ou des syst\u00e8mes de donn\u00e9es \u00e9tablis afin d\u2019\u00e9laborer et de pr\u00e9parer des analyses.</p>\n<p>Exp\u00e9rience de l\u2019utilisation d\u2019Excel, et de Tableau ou de Cognos ou de Power BI, pour la visualisation des donn\u00e9es.</p>\n<p><strong>\u00a0</strong></p>\n<p><strong>Connaissances</strong> : Connaissance de l'industrie canadienne du b\u00e9tail et/ou de la viande rouge. Si vous poss\u00e9dez ces connaissances, d\u00e9montrez-les en choisissant un secteur de l'industrie du b\u00e9tail ou de la viande rouge (par exemple, bovins, b\u0153uf, porc, produit de porc, mouton/agneau, bison, ch\u00e8vre) et \u00e9laborez trois graphiques en format Microsoft Excel ou PowerPoint qui illustrent trois tendances de march\u00e9 diff\u00e9rentes dans ce secteur. En outre, expliquez par \u00e9crit (2 pages) en format Word de Microsoft quel est l\u2019impact de ces tendances sur la contribution \u00e9conomique de ce secteur sp\u00e9cifique.</p>\n<p><strong>\u00a0</strong></p>\n<p><strong>Comp\u00e9tences:</strong></p>\n<p>La r\u00e9flexion analytique</p>\n<p>La communication \u00e9crite</p>\n<p>\u00c9tablissement de relations</p>\n<p><strong>\u00a0</strong></p>\n<p><strong>Qualifications constituant un atout:</strong></p>\n<p>Dipl\u00f4me d\u2019une universit\u00e9 reconnue en agriculture, en \u00e9conomie, en commerce ou en affaires.</p>\n<p>Exp\u00e9rience de l\u2019utilisation d\u2019Oracle (base de donn\u00e9es) et de Cognos (logiciel).</p>\n<p>Exp\u00e9rience en mati\u00e8re de production animale \u00e0 la ferme.</p>\n<p><strong>\u00a0</strong></p>\n<p><strong>Exigences op\u00e9rationnelles:</strong></p>\n<p>Capacit\u00e9 de faire des heures suppl\u00e9mentaires et \u00eatre en mesure de le faire.</p>\n<p>Consentir \u00e0 voyager et \u00eatre en mesure de le faire.</p>\n<p><strong>\u00a0</strong></p>\n<p><strong>Conditions d'emploi:</strong></p>\n<p>Fiabilit\u00e9 et s\u00e9curit\u00e9 : Cote de fiabilit\u00e9.</p>\n<p>\u00a0</p>\n\n"
    },
    "breadcrumb": {
        "en": "Red Meat Analyst",
        "fr": "Analyste des march\u00e9s - viande rouge"
    },
    "empl": {
        "type": {
            "en": "Assignment, Acting",
            "fr": "Affectation, Int\u00e9rimaire"
        },
        "classification": {
            "en": "CO-1 and equivalent",
            "fr": "CO-1 et \u00e9quivalent"
        },
        "branch": {
            "en": "Market and Industry Services Branch",
            "fr": "Direction g\u00e9n\u00e9rale des services \u00e0 l'industrie et aux march\u00e9s"
        },
        "locations": {
            "en": "Ottawa, Ontario",
            "fr": "Ottawa, Ontario"
        },
        "date_closing": {
            "en": "2020-10-30",
            "fr": "2020-10-30"
        },
        "open_to": {
            "en": "All Agriculture and Agri-Food Canada (AAFC) Employees",
            "fr": "Employ\u00e9(e)s d'Agriculture et Agroalimentaire Canada (AAC)"
        },
        "name": {
            "en": "Cathy Istead",
            "fr": "Cathy Istead"
        },
        "email": {
            "en": "cathy.istead@canada.ca",
            "fr": "cathy.istead@canada.ca"
        }
    }
}