{
    "dcr_id": "1603123014982",
    "lang": "en",
    "title": {
        "en": "Policy Analyst, Senior Policy Analyst ",
        "fr": "Postes d\u2019analyste des politiques et d\u2019analyste principal des politiques"
    },
    "modified": "2020-10-23 00:00:00.0",
    "issued": "2020-10-20 00:00:00.0",
    "type_name": "intra-intra/empl-empl",
    "node_id": "1279029955397",
    "layout_name": null,
    "dc_date_created": "2020-10-19",
    "breadcrumb_label": "",
    "trigger_date": "2020-10-23 08:16:27.0",
    "meta": {
        "issued": {
            "en": "2020-10-20",
            "fr": "2020-10-20"
        },
        "modified": {
            "en": "2020-10-23",
            "fr": "2020-10-23"
        },
        "format": {
            "en": "gcformat",
            "fr": "gcformat"
        },
        "title": {
            "en": "Policy Analyst, Senior Policy Analyst ",
            "fr": "Postes d\u2019analyste des politiques et d\u2019analyste principal des politiques"
        },
        "subject": {
            "en": "staffing",
            "fr": "dotation en personnel"
        },
        "language": {
            "en": "eng",
            "fr": "fra"
        },
        "audience": {
            "en": "gcaudience",
            "fr": "gcaudience"
        },
        "type": {
            "en": "notice",
            "fr": "avis"
        },
        "creator": {
            "en": "Agriculture and Agri-Food Canada",
            "fr": "Agriculture et Agroalimentaire Canada"
        },
        "spatial": {
            "en": "gcregions",
            "fr": "gcregions"
        },
        "service": {
            "en": "AAFC_AgriSource",
            "fr": "AAC_AgriSource"
        },
        "accessRights": {
            "en": "3",
            "fr": "3"
        }
    },
    "body": {
        "en": "\n<div>\n<div><strong>\u00a0</strong></div>\nThe next policy framework (NPF), successor to CAP (2018-2023), is set to enter its first phase of development during the 2020-2021 Fiscal Year. Strategic Policy Branch (SPB) in collaboration with other Branches is <strong>looking for indeterminate employees interested in joining a dynamic core team of policy analysts that will formally support the development of policy priorities leading up to the NPF </strong>Policy Statement in 2021, followed by bilateral negotiations for the NPF.</div>\n<div>\u00a0</div>\n<div>We are looking for employees at the EC-05 and EC-06 level - but will consider candidates from various groups and levels who meet the requirements and competencies sought.</div>\n<div>\u00a0</div>\n<div>The work of the team will <strong>require strong writing, analytical, teamwork and collaboration skills to conduct policy and programs analysis, work with AAFC subject matter experts and communicate with Provinces and Territories, other government departments or stakeholders</strong>. Occasional travel (TBD, respecting COVID protocols) and overtime on short notice may also be required. Strong bilingual language skills would be an asset.</div>\n<div><strong>\u00a0</strong></div>\n<div><strong>Applications</strong></div>\n<div>If you are interested in working on the NPF Team, send a short (maximum two pages) cover note and your curriculum vitae (C.V.) to express formal interest to Erin Fernandez.</div>\n<div>Your cover letter should clearly outline why you are interested, what you would bring to the team and why you would be a good fit.</div>\n<div>C.Vs must clearly identify:</div>\n<ul>\n<li>Your tenure (e.g. term or indeterminate)</li>\n<li>Your substantive group and level</li>\n</ul>\n<div>\u00a0</div>\n",
        "fr": "\n<div>\n<div><strong>\u00a0</strong></div>\nLe prochain cadre strat\u00e9gique (PCS), successeur du Partenariat canadien pour l\u2019agriculture (2018-2023), entrera dans sa premi\u00e8re phase de d\u00e9veloppement au cours de l\u2019ann\u00e9e fiscale 2020-2021. La Direction g\u00e9n\u00e9rale des politiques strat\u00e9giques (DGPS), en collaboration avec d\u2019autres directions g\u00e9n\u00e9rales, est \u00e0 la <strong>recherche d\u2019employ\u00e9es et employ\u00e9s ind\u00e9termin\u00e9s int\u00e9ress\u00e9s \u00e0 rejoindre une \u00e9quipe dynamique d\u2019analystes de politiques qui soutiendra le d\u00e9veloppement des priorit\u00e9s politiques</strong> menant \u00e0 l\u2019\u00e9nonc\u00e9 de politique du PCS en 2021, puis aux n\u00e9gociations bilat\u00e9rales pour le PCS.</div>\n<div>\u00a0</div>\n<div>Nous recherchons des employ\u00e9es et employ\u00e9s de niveau EC-05, EC-06 et CO-02 \u2013 mais nous consid\u00e9rerons des candidates et candidats de divers groupes et niveaux qui r\u00e9pondent aux exigences et aux comp\u00e9tences recherch\u00e9es.</div>\n<div>\u00a0</div>\n<div>Le travail dont sera en charge l\u2019\u00e9quipe exigera de <strong>tr\u00e8s bonnes capacit\u00e9 de r\u00e9daction, d\u2019analyse, de travail en \u00e9quipe et de collaboration, et ce, afin de mener \u00e0 bien l\u2019analyse des politiques et des programmes, de travailler avec les expertes et experts d\u2019AAC et de communiquer avec les provinces et territoires, les autres minist\u00e8res ou les parties intervenants.</strong> Des d\u00e9placements occasionnels (\u00e0 d\u00e9terminer, en respectant les protocoles de la COVID-19) et des heures suppl\u00e9mentaires sur court pr\u00e9avis peuvent \u00e9galement \u00eatre requis. Des comp\u00e9tences linguistiques bilingues constituent un atout.</div>\n<div><strong>\u00a0</strong></div>\n<div><strong>Candidatures</strong></div>\n<div></div>\n<div>Si travailler dans l\u2019\u00e9quipe du PCS vous int\u00e9resse, envoyez une courte lettre de pr\u00e9sentation (deux pages maximum) et votre curriculum vitae (C.V.) pour formellement exprimer votre int\u00e9r\u00eat \u00e0 Erin Fernandez.</div>\n<div></div>\n<div>Votre lettre de pr\u00e9sentation doit clairement indiquer la nature de votre int\u00e9r\u00eat, ce que vous pourriez contribuer \u00e0 l\u2019\u00e9quipe et ce pourquoi vous \u00eates une candidate ou un candidat id\u00e9al pour ce poste.</div>\n<div></div>\n<div>Les C.V. doivent clairement indiquer :</div>\n<ul>\n<li>Votre p\u00e9riode d\u2019emploi (p. ex., p\u00e9riode d\u00e9termin\u00e9e ou ind\u00e9termin\u00e9e)</li>\n<li>Voter groupe et niveau de titularisation</li>\n</ul>\n<div>\u00a0</div>\n\n"
    },
    "breadcrumb": {
        "en": "Policy Analyst, Senior Policy Analyst",
        "fr": "Postes d\u2019analyste des politiques et d\u2019analyste principal des politiques"
    },
    "empl": {
        "type": {
            "en": "Assignment",
            "fr": "Affectation"
        },
        "classification": {
            "en": "EC-6, EC-5 and equivalent",
            "fr": "EC-6, EC-5 et \u00e9quivalent"
        },
        "branch": {
            "en": "Strategic Policy Branch",
            "fr": "Direction g\u00e9n\u00e9rale des politiques strat\u00e9giques"
        },
        "locations": {
            "en": "National Capital Region",
            "fr": "R\u00e9gion de la capitale nationale"
        },
        "date_closing": {
            "en": "2020-11-02",
            "fr": "2020-11-02"
        },
        "open_to": {
            "en": "AAFC employees at the EC-05/EC-06 group and level",
            "fr": "Employ\u00e9s d\u2019AAC occupant un poste de groupe et niveau EC-05/EC-06"
        },
        "name": {
            "en": "Erin Fernandez",
            "fr": "Erin Fernandez"
        },
        "email": {
            "en": "erin.fernandez@canada.ca",
            "fr": "erin.fernandez@canada.ca"
        }
    }
}