{
    "dcr_id": "1603133633337",
    "lang": "en",
    "title": {
        "en": "Director, Corporate Planning and Human Resources Analytics",
        "fr": "Directeur/Directrice, Planification et analyse en ressources humaines"
    },
    "modified": "2020-10-20 00:00:00.0",
    "issued": "2020-10-20 00:00:00.0",
    "type_name": "intra-intra/empl-empl",
    "node_id": "1279029955397",
    "layout_name": null,
    "dc_date_created": "2020-10-20",
    "breadcrumb_label": "",
    "trigger_date": "2020-10-20 10:00:29.0",
    "meta": {
        "issued": {
            "en": "2020-10-20",
            "fr": "2020-10-20"
        },
        "modified": {
            "en": "2020-10-20",
            "fr": "2020-10-20"
        },
        "format": {
            "en": "gcformat",
            "fr": "gcformat"
        },
        "title": {
            "en": "Director, Corporate Planning and Human Resources Analytics",
            "fr": "Directeur/Directrice, Planification et analyse en ressources humaines"
        },
        "subject": {
            "en": "staffing",
            "fr": "dotation en personnel"
        },
        "language": {
            "en": "eng",
            "fr": "fra"
        },
        "audience": {
            "en": "gcaudience",
            "fr": "gcaudience"
        },
        "type": {
            "en": "notice",
            "fr": "avis"
        },
        "creator": {
            "en": "Agriculture and Agri-Food Canada",
            "fr": "Agriculture et Agroalimentaire Canada"
        },
        "spatial": {
            "en": "gcregions",
            "fr": "gcregions"
        },
        "service": {
            "en": "AAFC_AgriSource",
            "fr": "AAC_AgriSource"
        },
        "accessRights": {
            "en": "3",
            "fr": "3"
        }
    },
    "body": {
        "en": "\n<p>\u00a0</p>\n<p>Are you looking for a new challenge? If so, we have a great opportunity for you!</p>\n<p>CMB is looking for a motivated employee interested in a 6 month acting or assignment opportunity (possibility of extension), at the EX-01 level, to take on the duties of Director, Corporate Planning and Human Resources Analytics in the Human Resources Directorate.</p>\n<p>\u00a0</p>\n<p><strong>Duties:</strong></p>\n<ul>\n<li>providing advice, analysis and recommendations to senior management on complex human resource (HR) issues;</li>\n<li>developing, leading and implementing strategies, programs, initiatives or policies related to HR;</li>\n<li>developing and maintaining productive client relations and strategic partnerships with stakeholders;</li>\n<li>managing financial and human resources.</li>\n</ul>\n<p>\u00a0</p>\n<p><strong>The ideal candidate will: </strong></p>\n<ul>\n<li>have a secret clearance or be able to obtain one;</li>\n<li>welcome challenges and deal comfortably with complex issues;</li>\n<li>possess good judgement and strategic thinking;</li>\n<li>work well under pressure;</li>\n<li>be able and willing to work overtime;</li>\n</ul>\n<h3><strong><br>Organizational Needs</strong></h3>\n<p>In support of achieving a diversified workforce, consideration may be given to candidates self-identifying as belonging to one of the following Employment Equity groups: Aboriginal peoples, Persons with a Disability; Visible Minorities, Women.</p>\n<p>\u00a0</p>\n<p><strong>Applications:</strong></p>\n<p>If you are interested in being considered for this new challenge, please send a cover letter and resume demonstrating how you meet the experience and why you are interested in this opportunity.</p>\n<p>Interested applicants are encouraged to forward their cover letter and resume to Catherine Deacon at catherine.deacon@canada,ca by\u00a0November 2, 2020.</p>\n<p>If you have any questions or would like more information, please contact Catherine by e-mail.</p>\n<p>\u00a0</p>\n<p><strong>Notes:</strong></p>\n<ul>\n<li>\n<p>This process will not be used to establish a pool of qualified candidates</p>\n</li>\n<li>\n<p>Communication for this process will be sent via email.</p>\n</li>\n</ul>\n<p>\u00a0</p>\n<ul>\n</ul>\n",
        "fr": "\n<p>\u00a0</p>\n<p>\u00cates\u2011vous \u00e0 la recherche d\u2019un nouveau d\u00e9fi? Si oui, nous avons une excellente occasion pour vous !</p>\n<p>DGGI est \u00e0 la recherche d\u2019un employ\u00e9 motiv\u00e9 qui serait int\u00e9ress\u00e9 \u00e0 une possibilit\u00e9 d\u2019int\u00e9rim ou d\u2019affectation au niveau EX-01 pour 6 mois (possibilit\u00e9 de prolongation) pour assumer les fonctions de Directeur/Directrice, Planification et analyse en ressources humaines dans la Direction des ressources humaines.</p>\n<p>\u00a0</p>\n<p><strong>T\u00e2ches :</strong></p>\n<ul>\n<li>\n<p>la prestation de conseils, d\u2019analyses et de recommandations aux cadres sup\u00e9rieurs sur des questions de ressources humaines (RH) complexes ;</p>\n</li>\n<li>\n<p>d\u00e9velopper, mener et mettre en \u0153uvre des strat\u00e9gies, programmes, initiatives ou politiques RH ;</p>\n</li>\n<li>\n<p>d\u00e9velopper et maintenir des relations productives avec la client\u00e8le, ainsi que des partenariats strat\u00e9giques avec les parties prenantes ; gestion de ressources financi\u00e8res et humaines.</p>\n</li>\n</ul>\n<p>\u00a0</p>\n<p><strong>Le candidat id\u00e9al/la candidate id\u00e9ale :</strong></p>\n<ul>\n<li>\n<p>aurait une cote de s\u00e9curit\u00e9 de niveau secr\u00e8te ou \u00eatre en mesure de l\u2019obtenir ;</p>\n</li>\n<li>\n<p>accueille favorablement les d\u00e9fis et traite avec aisance les questions complexes ;</p>\n</li>\n<li>\n<p>fait preuve d\u2019un bon jugement et de r\u00e9flexion strat\u00e9gique ;</p>\n</li>\n<li>\n<p>travaille bien sous pression ;</p>\n</li>\n<li>\n<p>est apte et dispos\u00e9 \u00e0 faire des heures suppl\u00e9mentaires.</p>\n</li>\n</ul>\n<p>\u00a0</p>\n<p><strong>Besoins de l'organisation</strong></p>\n<p>Pour diversifier l\u2019effectif, on pourra examiner la candidature des personnes qui s\u2019identifient comme appartenant \u00e0 des groupes vis\u00e9s par l\u2019\u00e9quit\u00e9 en mati\u00e8re d\u2019emploi, soit les autochtones, les personnes handicap\u00e9es, les membres des minorit\u00e9s visibles et les femmes.</p>\n<p>\u00a0</p>\n<p><strong>Application :</strong></p>\n<p>Si vous souhaitez que votre candidature soit examin\u00e9e aux fins de ce nouveau d\u00e9fi, veuillez envoyer une lettre de pr\u00e9sentation et un curriculum vitae d\u00e9montrant en quoi vous r\u00e9pondez aux crit\u00e8res relatifs \u00e0 l\u2019exp\u00e9rience et pourquoi vous vous int\u00e9ressez \u00e0 cette possibilit\u00e9.</p>\n<p>Les candidats int\u00e9ress\u00e9s sont invit\u00e9s \u00e0 envoyer leur curriculum vitae et une lettre de pr\u00e9sentation \u00e0 Catherine Deacon \u00e0 catherine.deacon@canada.ca par\u00a0le\u00a02 novembre 2020.</p>\n<p>Si vous avez des questions ou si vous souhaitez obtenir de plus amples renseignements, veuillez communiquer avec Catherine par courriel.</p>\n<p>\u00a0</p>\n<p><strong>Remarques</strong></p>\n<ul>\n<li>\n<p>Ce processus ne sera pas utilis\u00e9 pour \u00e9tablir un bassin de candidats qualifi\u00e9s.</p>\n</li>\n<li>\n<p>Communication pour cet appel d\u2019int\u00e9r\u00eat sera envoy\u00e9 par courriel.</p>\n</li>\n</ul>\n<p>\u00a0</p>\n<ul>\n</ul>\n\n"
    },
    "breadcrumb": {
        "en": "Director, Corporate Planning and Human Resources Analytics",
        "fr": "Directeur/Directrice, Planification et analyse en ressources humaines"
    },
    "empl": {
        "type": {
            "en": "Assignment, Acting",
            "fr": "Affectation, Int\u00e9rimaire"
        },
        "classification": {
            "en": "EX-1",
            "fr": "EX-1"
        },
        "branch": {
            "en": "Corporate Management Branch",
            "fr": "Gestion int\u00e9gr\u00e9e"
        },
        "locations": {
            "en": "National Capital Region",
            "fr": "R\u00e9gion de la capitale nationale"
        },
        "date_closing": {
            "en": "2020-11-02",
            "fr": "2020-11-02"
        },
        "open_to": {
            "en": "Employees of AAFC at the EX-01, EX-01 equivalent and EX minus one group and level",
            "fr": "Employ\u00e9s d\u2019AAC du groupe et niveau EX-01, \u00e9quivalents EX-01 et EX moins un"
        },
        "name": {
            "en": "Catherine Deacon",
            "fr": "Catherine Deacon"
        },
        "email": {
            "en": "catherine.deacon@canada.ca",
            "fr": "catherine.deacon@canada.ca"
        }
    }
}