{
    "dcr_id": "1515608669854",
    "lang": "en",
    "type_name": "empl-empl",
    "staffadvisor": "patrycja.henderson@canada.ca",
    "submitername": "Thea Clark",
    "submiteremail": "thea.clark@agr.gc.ca",
    "contactname": "Thea Clark",
    "contactemail": "thea.clark@agr.gc.ca",
    "contactphonenumber": "613-773-2290",
    "issued": "2018-01-12",
    "": ""
}