{
    "dcr_id": "1516630291235",
    "lang": "en",
    "type_name": "empl-empl",
    "staffadvisor": "Amanda.chaiban@agr.gc.ca",
    "submitername": "Marc Gervais",
    "submiteremail": "marc.gervais@agr.gc.ca",
    "contactname": "Marc Gervais",
    "contactemail": "Marc.gervais@agr.gc.ca",
    "contactphonenumber": "613-773-1527",
    "issued": "2018-01-23",
    "": ""
}