{
    "dcr_id": "1519748996479",
    "lang": "en",
    "type_name": "empl-empl",
    "staffadvisor": "patrycja.henderson@canada.ca",
    "submitername": "Préscille Lebrun",
    "submiteremail": "prescille.lebrun@agr.gc.ca",
    "contactname": "Thea Clark",
    "contactemail": "thea.clark@agr.gc.ca",
    "contactphonenumber": "613-773-2290",
    "issued": "2018-03-15",
    "": ""
}