{
    "dcr_id": "1520361507596",
    "lang": "en",
    "type_name": "empl-empl",
    "staffadvisor": "Roberta.Battisti-Valle@agr.gc.ca",
    "submitername": "Ryan McCullough",
    "submiteremail": "ryan.mccullough@agr.gc.ca",
    "contactname": "Suzie Da Costa",
    "contactemail": "suzie.dacosta@agr.gc.ca",
    "contactphonenumber": "613-773-2136",
    "issued": "2018-03-21",
    "": ""
}