{
    "dcr_id": "1521470463832",
    "lang": "en",
    "type_name": "empl-empl",
    "staffadvisor": "Amanda.Dent@AGR.GC.CA",
    "submitername": "Karim Bechane",
    "submiteremail": "Karim.Bechane@canada.ca",
    "contactname": "Pamela Woods",
    "contactemail": "pamela.woods2@canada.ca",
    "contactphonenumber": "613-491-2911",
    "issued": "2018-03-28",
    "": ""
}