{
    "dcr_id": "1525455091788",
    "lang": "en",
    "type_name": "empl-empl",
    "staffadvisor": "marie-noelle.dethier@agr.gc.ca",
    "submitername": "Jarett Goodwin",
    "submiteremail": "jarett.goodwin@agr.gc.ca",
    "contactname": "Jarett Goodwin",
    "contactemail": "jarett.goodwin@agr.gc.ca",
    "contactphonenumber": "613-773-2928",
    "issued": "2018-05-07",
    "": ""
}