{
    "dcr_id": "1527250163251",
    "lang": "en",
    "type_name": "empl-empl",
    "staffadvisor": "Roberta.Battisti-Valle@agr.gc.ca",
    "submitername": "Suzie Da Costa",
    "submiteremail": "suzie.dacosta@agr.gc.ca",
    "contactname": "Suzie Da Costa",
    "contactemail": "suzie.dacosta@agr.gc.ca",
    "contactphonenumber": "613-773-2136",
    "issued": "2018-05-31",
    "": ""
}