{
    "dcr_id": "1530197343338",
    "lang": "en",
    "type_name": "empl-empl",
    "staffadvisor": "patrycja.henderson@canada.ca",
    "submitername": "Julie Levert",
    "submiteremail": "julie.levert@canada.ca",
    "contactname": "Thea Clark",
    "contactemail": "thea.clark@agr.gc.ca",
    "contactphonenumber": "613-773-2290",
    "issued": "2018-07-20",
    "": ""
}