{
    "dcr_id": "1530121908970",
    "lang": "en",
    "type_name": "empl-empl",
    "staffadvisor": "amanda.chaiban@agr.gc.ca",
    "submitername": "Amanda Chaiban",
    "submiteremail": "amanda.chaiban@agr.gc.ca",
    "contactname": "Amanda Chaiban",
    "contactemail": "amanda.chaiban@agr.gc.ca",
    "contactphonenumber": "613-773-3039",
    "issued": "2018-06-27",
    "": ""
}