{
    "dcr_id": "1531160107500",
    "lang": "en",
    "type_name": "empl-empl",
    "staffadvisor": "patrycja.henderson@canada.ca",
    "submitername": "julie.levert@canada.ca",
    "submiteremail": "julie.levert@canada.ca",
    "contactname": "Julie Levert",
    "contactemail": "julie.levert@canada.ca",
    "contactphonenumber": "613-773-8032",
    "issued": "2018-07-20",
    "": ""
}