{
    "dcr_id": "1536601894275",
    "lang": "en",
    "type_name": "empl-empl",
    "staffadvisor": "natalie.guimond@canada.ca",
    "submitername": "Natalie Guimond",
    "submiteremail": "natalie.guimond@canada.ca",
    "contactname": "France St-Laurent",
    "contactemail": "france.st-laurent@canada.ca",
    "contactphonenumber": "613-773-1058",
    "issued": "2018-09-11",
    "": ""
}