{
    "dcr_id": "1537303742047",
    "lang": "en",
    "type_name": "empl-empl",
    "staffadvisor": "amanda.chaiban@canada.ca",
    "submitername": "Bonnie Fung",
    "submiteremail": "bonnie.fung@canada.ca",
    "contactname": "Bonnie Fung",
    "contactemail": "bonnie.fung@canada.ca",
    "contactphonenumber": "613-773-1664",
    "issued": "2018-09-20",
    "": ""
}