{
    "dcr_id": "1538510428560",
    "lang": "en",
    "type_name": "empl-empl",
    "staffadvisor": "patrycja.henderson@canada.ca",
    "submitername": "Cathy Gauthier",
    "submiteremail": "cathy.gauthier@canada.ca",
    "contactname": "Nathalie Parent",
    "contactemail": "nathalie.parent@canada.ca",
    "contactphonenumber": "613-773-2068",
    "issued": "2018-10-03",
    "": ""
}