{
    "dcr_id": "1541180101069",
    "lang": "en",
    "type_name": "empl-empl",
    "staffadvisor": "catherine.deacon@canada.ca",
    "submitername": "France St-Laurent",
    "submiteremail": "france.st-laurent@canada.ca",
    "contactname": "Catherine Deacon",
    "contactemail": "catherine.deacon@canada.ca",
    "contactphonenumber": "613-773-3485",
    "issued": "2018-11-02",
    "": ""
}