{
    "dcr_id": "1545229546258",
    "lang": "en",
    "type_name": "empl-empl",
    "staffadvisor": "christian.guertin@canada.ca",
    "submitername": "Julie Levert",
    "submiteremail": "julie.levert@canada.ca",
    "contactname": "Thea Clark",
    "contactemail": "thea.clark@canada.ca",
    "contactphonenumber": "613-773-2290",
    "issued": "2019-01-02",
    "": ""
}