{
    "dcr_id": "1547752046047",
    "lang": "en",
    "type_name": "empl-empl",
    "staffadvisor": "carole-anne.cusson2@canada.ca",
    "submitername": "Julie.Levert@canada.ca",
    "submiteremail": "Julie.Levert@canada.ca",
    "contactname": "Julie Levert",
    "contactemail": "julie.levert@canada.ca",
    "contactphonenumber": "613-773-2807",
    "issued": "2019-01-18",
    "": ""
}