{
    "dcr_id": "1547592307292",
    "lang": "en",
    "type_name": "empl-empl",
    "staffadvisor": "christiane.langisboudreau@canada.ca",
    "submitername": "Anne-Christine Poulin",
    "submiteremail": "anne-christine.poulin2@canada.ca",
    "contactname": "Amy Harrison",
    "contactemail": "amy.harrison@canada.ca",
    "contactphonenumber": "613-773-1783",
    "issued": "2019-01-17",
    "": ""
}