{
    "dcr_id": "1553626670792",
    "lang": "en",
    "type_name": "empl-empl",
    "staffadvisor": "natalie.guimond@canada.ca",
    "submitername": "France St-Laurent",
    "submiteremail": "france.st-laurent@canada.ca",
    "contactname": "Lisa Purdy",
    "contactemail": "lisa.purdy2@canada.ca",
    "contactphonenumber": "613-773-1057",
    "issued": "2019-04-03",
    "": ""
}