{
    "dcr_id": "1554320988575",
    "lang": "en",
    "type_name": "empl-empl",
    "staffadvisor": "kelly.mcnaughton2@canada.ca",
    "submitername": "Michael Boulet",
    "submiteremail": "Michael.Boulet@canada.ca",
    "contactname": "Michael Boulet",
    "contactemail": "Michael.Boulet@canada.ca",
    "contactphonenumber": "613-773-0578",
    "issued": "2019-04-04",
    "": ""
}