{
    "dcr_id": "1554238025387",
    "lang": "en",
    "type_name": "empl-empl",
    "staffadvisor": "genevieve.smith@agr.gc.ca",
    "submitername": "Genevieve Smith",
    "submiteremail": "genevieve.smith@canada.ca",
    "contactname": "Genevieve Smith",
    "contactemail": "genevieve.smith@canada.ca",
    "contactphonenumber": "613-773-3100",
    "issued": "2019-04-03",
    "": ""
}