{
    "dcr_id": "1556301513315",
    "lang": "en",
    "type_name": "empl-empl",
    "staffadvisor": "chantal.desbiens@canada.ca",
    "submitername": "Nadia Gagnon",
    "submiteremail": "nadia.gagnon@canada.ca",
    "contactname": "Nadia Gagnon",
    "contactemail": "nadia.gagnon@canada.ca",
    "contactphonenumber": "613-773-2229",
    "issued": "2019-04-26",
    "": ""
}