{
    "dcr_id": "1558725929689",
    "lang": "en",
    "type_name": "empl-empl",
    "staffadvisor": "dawn.mcEwen@canada.ca",
    "submitername": "Penny O'Shaughnessy",
    "submiteremail": "penny.oshaughnessy@canada.ca",
    "contactname": "Penny O'Shaughnessy",
    "contactemail": "penny.oshaughnessy@canada.ca",
    "contactphonenumber": "226-217-8015",
    "issued": "2019-06-05",
    "": ""
}