{
    "dcr_id": "1559147337576",
    "lang": "en",
    "type_name": "empl-empl",
    "staffadvisor": "mardi.pleskach@canada.ca",
    "submitername": "Susan Langevin",
    "submiteremail": "susan.langevin@canada.ca",
    "contactname": "Suzie Da Costa",
    "contactemail": "suzie.dacosta@canada.ca",
    "contactphonenumber": "613-773-2136",
    "issued": "2019-05-30",
    "": ""
}