{
    "dcr_id": "1569861722236",
    "lang": "en",
    "type_name": "empl-empl",
    "staffadvisor": "suzie.dacosta@canada.ca",
    "submitername": "Pascale Boulerice",
    "submiteremail": "pascale.boulerice@canada.ca",
    "contactname": "Suzie Da Costa",
    "contactemail": "suzie.dacosta@canada.ca",
    "contactphonenumber": "613-773-2136",
    "issued": "2019-10-07",
    "": ""
}