{
    "dcr_id": "1570472268880",
    "lang": "en",
    "type_name": "empl-empl",
    "staffadvisor": "chantal.desbiens@canada.ca",
    "submitername": "Nawal Benzaid",
    "submiteremail": "nawal.benzaid@canada.ca",
    "contactname": "Nawal Benzaid",
    "contactemail": "nawal.benzaid@canada.ca",
    "contactphonenumber": "514-315-6168",
    "issued": "2019-10-09",
    "": ""
}