{
    "dcr_id": "1570467589870",
    "lang": "en",
    "type_name": "empl-empl",
    "staffadvisor": "amanda.dent@canada.ca",
    "submitername": "Christina Quiney",
    "submiteremail": "christina.quiney@canada.ca",
    "contactname": "Christina Quiney",
    "contactemail": "christina.quiney@canada.ca",
    "contactphonenumber": "604-292-5851",
    "issued": "2019-10-08",
    "": ""
}