{
    "dcr_id": "1570651919350",
    "lang": "en",
    "type_name": "empl-empl",
    "staffadvisor": "Chantal.gravelle@canada.ca",
    "submitername": "Tania Gardner",
    "submiteremail": "aafc.fcd-dcf.aac@canada.ca",
    "contactname": "Tania Gardner",
    "contactemail": "tania.gardner2@canada.ca",
    "contactphonenumber": "613-773-2570",
    "issued": "2019-10-10",
    "": ""
}