{
    "dcr_id": "1571762996169",
    "lang": "en",
    "type_name": "empl-empl",
    "staffadvisor": "amanda.chaiban@canada.ca",
    "submitername": "Alexander Meunier",
    "submiteremail": "alexander.meunier@canada.ca",
    "contactname": "Alexander Meunier",
    "contactemail": "alexander.meunier@canada.ca",
    "contactphonenumber": "613-773-0650",
    "issued": "2019-10-23",
    "": ""
}