{
    "dcr_id": "1571952687790",
    "lang": "en",
    "type_name": "empl-empl",
    "staffadvisor": "michelle.lavergne@canada.ca",
    "submitername": "Anne Kennedy",
    "submiteremail": "anne.kennedy@canada.ca",
    "contactname": "Anne Kennedy",
    "contactemail": "anne.kennedy@canada.ca",
    "contactphonenumber": "613-773-0166",
    "issued": "2019-10-31",
    "": ""
}