{
    "dcr_id": "1571422288828",
    "lang": "en",
    "type_name": "empl-empl",
    "staffadvisor": "chantal.gravelle@canada.ca",
    "submitername": "Carol Warner",
    "submiteremail": "carol.warner@canada.ca",
    "contactname": "Carol Warner",
    "contactemail": "carol.warner@canada.ca",
    "contactphonenumber": "613-773-1331",
    "issued": "2019-10-21",
    "": ""
}