{
    "dcr_id": "1574195023765",
    "lang": "en",
    "type_name": "empl-empl",
    "staffadvisor": "jocelyn.cousineau@canada.ca",
    "submitername": "Monique Rose",
    "submiteremail": "monique.rose@canada.ca",
    "contactname": "Monique Rose",
    "contactemail": "monique.rose@canada.ca",
    "contactphonenumber": "613-773-1416",
    "issued": "2019-11-20",
    "": ""
}