{
    "dcr_id": "1574200288436",
    "lang": "en",
    "type_name": "empl-empl",
    "staffadvisor": "chantal.desbiens@canada.ca",
    "submitername": "Anne-Christine Poulin",
    "submiteremail": "anne-christine.poulin@canada.ca",
    "contactname": "Anne-Christine Poulin",
    "contactemail": "anne-christine.poulin@canada.ca",
    "contactphonenumber": "613-773-3561",
    "issued": "2019-11-20",
    "": ""
}