{
    "dcr_id": "1575910166662",
    "lang": "en",
    "type_name": "empl-empl",
    "staffadvisor": "natalie.guimond@canada.ca",
    "submitername": "Ryan Wilkes",
    "submiteremail": "ryan.wilkes@canada.ca",
    "contactname": "Ryan Wilkes",
    "contactemail": "ryan.wilkes@canada.ca",
    "contactphonenumber": "613-773-1846",
    "issued": "2019-12-10",
    "": ""
}