{
    "dcr_id": "1576515516678",
    "lang": "en",
    "type_name": "empl-empl",
    "staffadvisor": "amanda.dent@canada.ca",
    "submitername": "Ryan Holm",
    "submiteremail": "ryan.holm@canada.ca",
    "contactname": "Ryan Holm",
    "contactemail": "ryan.holm@canada.ca",
    "contactphonenumber": "204-259-5148",
    "issued": "2019-12-16",
    "": ""
}