{
    "dcr_id": "1578675399821",
    "lang": "en",
    "type_name": "empl-empl",
    "staffadvisor": "Amanda.chaiban@canada.ca",
    "submitername": "Marjorie Hercule Gateau",
    "submiteremail": "marjorie.hercule@canada.ca",
    "contactname": "Marjorie Hercule Gateau",
    "contactemail": "marjorie.hercule@canada.ca",
    "contactphonenumber": "613-773-3597",
    "issued": "2020-01-31",
    "": ""
}