{
    "dcr_id": "1580154550943",
    "lang": "en",
    "type_name": "empl-empl",
    "staffadvisor": "yasna.sarwar@canada.ca",
    "submitername": "Pascale Boulerice",
    "submiteremail": "pascale.boulerice@canada.ca",
    "contactname": "Mariam El Dali",
    "contactemail": "mariam.eldali@canada.ca",
    "contactphonenumber": "613-773-0224",
    "issued": "2020-01-28",
    "": ""
}