{
    "dcr_id": "1580499638205",
    "lang": "en",
    "type_name": "empl-empl",
    "staffadvisor": "chantal.desbiens@canada.ca",
    "submitername": "Amrane Boumghar",
    "submiteremail": "amrane.boumghar@canada.ca",
    "contactname": "Amrane Boumghar",
    "contactemail": "amrane.boumghar@canada.ca",
    "contactphonenumber": "613-773-0337",
    "issued": "2020-02-06",
    "": ""
}