{
    "dcr_id": "1587394995417",
    "lang": "en",
    "type_name": "empl-empl",
    "staffadvisor": "christiane.langisboudreau@canada.ca",
    "submitername": "Ranjana Sharma",
    "submiteremail": "ranjana.sharma@canada.ca",
    "contactname": "Christiane Langis Boudreau",
    "contactemail": "christiane.langisboudreau@canada.ca",
    "contactphonenumber": "506-866-9939",
    "issued": "2020-04-24",
    "": ""
}