{
    "dcr_id": "1590696250165",
    "lang": "en",
    "type_name": "empl-empl",
    "staffadvisor": "yasna.sarwar@canada.ca",
    "submitername": "Kate Maslen",
    "submiteremail": "kate.maslen@canada.ca",
    "contactname": "Suzie Da Costa",
    "contactemail": "suzie.dacosta@canada.ca",
    "contactphonenumber": "613-790-2309",
    "issued": "2020-05-29",
    "": ""
}