{
    "dcr_id": "1602626366656",
    "lang": "en",
    "type_name": "empl-empl",
    "staffadvisor": "adriana.azzi3@canada.ca",
    "submitername": "Jessy El-Choueiry",
    "submiteremail": "jessy.el-choueiry@canada.ca",
    "contactname": "Nadia Gagnon",
    "contactemail": "nadia.gagnon@canada.ca",
    "contactphonenumber": "613-773-2229",
    "issued": "2020-10-14"
}