{
    "dcr_id": "1515093580658",
    "lang": "en",
    "type_name": "empl-empl",
    "staffadvisor": "amanda.dent@agr.gc.ca",
    "submitername": "Christopher Lenko",
    "submiteremail": "christopher.lenko@canada.ca",
    "contactname": "Christopher Lenko",
    "contactemail": "christopher.lenko@canada.ca",
    "contactphonenumber": "613-773-2421",
    "issued": "2018-01-05"
}