{
    "dcr_id": "1516634859753",
    "lang": "en",
    "type_name": "empl-empl",
    "staffadvisor": "patrycja.henderson@canada.ca",
    "submitername": "Ashley Lemieux",
    "submiteremail": "ashley.lemieux@canada.ca",
    "contactname": "Ashley Lemieux",
    "contactemail": "ashley.lemieux@canada.ca",
    "contactphonenumber": "613-773-1900",
    "issued": "2018-01-25"
}