{
    "dcr_id": "1516294951881",
    "lang": "en",
    "type_name": "empl-empl",
    "staffadvisor": "carolyn.lavoie@agr.gc.ca",
    "submitername": "AAFC Collaborative Staffing / Dotation Collaborative AAC",
    "submiteremail": "aafc.collabresourcing-ressourcementcollab.aac@agr.gc.ca",
    "contactname": "Carolyn Lavoie",
    "contactemail": "carolyn.lavoie@agr.gc.ca",
    "contactphonenumber": "613-773-0862",
    "issued": "2018-01-25"
}