{
    "dcr_id": "1518714123038",
    "lang": "en",
    "type_name": "empl-empl",
    "staffadvisor": "Amanda.chaiban@agr.gc.ca",
    "submitername": "Marc Gervais",
    "submiteremail": "marc.gervais@agr.gc.ca",
    "contactname": "Marc Gervais",
    "contactemail": "marc.gervais@agr.gc.ca",
    "contactphonenumber": "613-773-1527",
    "issued": "2018-02-21"
}