{
    "dcr_id": "1519847781250",
    "lang": "en",
    "type_name": "empl-empl",
    "staffadvisor": "carol.ryckenboerbarsalou@canada.ca",
    "submitername": "Aysha Johnson",
    "submiteremail": "aysha.johnson@canada.ca",
    "contactname": "Aysha Johnson",
    "contactemail": "aysha.johnson@canada.ca",
    "contactphonenumber": "613-773-2915",
    "issued": "2018-03-01"
}