{
    "dcr_id": "1521808101067",
    "lang": "en",
    "type_name": "empl-empl",
    "staffadvisor": "patrycja.henderson@canada.ca",
    "submitername": "Thea Clark",
    "submiteremail": "thea.clark@agr.gc.ca",
    "contactname": "Thea Clark",
    "contactemail": "thea.clark@agr.gc.ca",
    "contactphonenumber": "613-773-2290",
    "issued": "2018-03-29"
}