{
    "dcr_id": "1523889490093",
    "lang": "en",
    "type_name": "empl-empl",
    "staffadvisor": "amanda.chaiban@agr.gc.ca",
    "submitername": "Monique Rose",
    "submiteremail": "monique.rose@canada.ca",
    "contactname": "Nathalie Desrochers",
    "contactemail": "nathalie.desrochers@agr.gc.ca",
    "contactphonenumber": "613-773-1589",
    "issued": "2018-04-17"
}