{
    "dcr_id": "1527878605042",
    "lang": "en",
    "type_name": "empl-empl",
    "staffadvisor": "marie-noelle.dethier@agr.gc.ca",
    "submitername": "Marco Valicenti",
    "submiteremail": "marco.valicenti@canada.ca",
    "contactname": "Eric Snow",
    "contactemail": "eric.snow@canada.ca",
    "contactphonenumber": "613-773-2721",
    "issued": "2018-06-08"
}