{
    "dcr_id": "1527621543707",
    "lang": "en",
    "type_name": "empl-empl",
    "staffadvisor": "Amanda.Dent@AGR.GC.CA",
    "submitername": "Pina Guidoccio",
    "submiteremail": "pina.guidoccio@canada.ca",
    "contactname": "Pina Guidoccio",
    "contactemail": "pina.guidoccio@canada.ca",
    "contactphonenumber": "613-773-1394",
    "issued": "2018-05-30"
}