{
    "dcr_id": "1533220557240",
    "lang": "en",
    "type_name": "empl-empl",
    "staffadvisor": "carol.ryckenboerbarsalou@canada.ca",
    "submitername": "Kyle Abonasara",
    "submiteremail": "Kyle.Abonasara@canada.ca",
    "contactname": "Pierre Pérusse",
    "contactemail": "Pierre.Perusse@canada.ca",
    "contactphonenumber": "613-773-2991",
    "issued": "2018-08-17"
}