{
    "dcr_id": "1534953765119",
    "lang": "en",
    "type_name": "empl-empl",
    "staffadvisor": "Amanda.Dent@AGR.GC.CA",
    "submitername": "Danick Cyr",
    "submiteremail": "Danick.cyr@agr.gc.ca",
    "contactname": "Danick Cyr",
    "contactemail": "Danick.Cyr@agr.gc.ca",
    "contactphonenumber": "613-773-2180",
    "issued": "2018-08-31"
}