{
    "dcr_id": "1536598449736",
    "lang": "en",
    "type_name": "empl-empl",
    "staffadvisor": "christiane.langisboudreau@canada.ca",
    "submitername": "Cathy Istead",
    "submiteremail": "cathy.istead@canada.ca",
    "contactname": "Christiane Langis Boudreau",
    "contactemail": "christiane.langisboudreau@canada.ca",
    "contactphonenumber": "506-777-6083",
    "issued": "2018-09-24"
}