{
    "dcr_id": "1542640388486",
    "lang": "en",
    "type_name": "empl-empl",
    "staffadvisor": "christiane.langisboudreau@canada.ca",
    "submitername": "Michael Ash",
    "submiteremail": "michael.ash@canada.ca",
    "contactname": "Michael Ash",
    "contactemail": "michael.ash@canada.ca",
    "contactphonenumber": "613-773-2258",
    "issued": "2018-11-21"
}