{
    "dcr_id": "1543240914263",
    "lang": "en",
    "type_name": "empl-empl",
    "staffadvisor": "patrycja.henderson@canada.ca",
    "submitername": "Katrina Vermeeren",
    "submiteremail": "katrina.vermeeren2@canada.ca",
    "contactname": "Veronique Ouellette",
    "contactemail": "Veronique.Ouellette@canada.ca",
    "contactphonenumber": "613-773-1470",
    "issued": "2018-11-27"
}