{
    "dcr_id": "1552679321672",
    "lang": "en",
    "type_name": "empl-empl",
    "staffadvisor": "aislinn.bell@canada.ca",
    "submitername": "Bill Edwardson",
    "submiteremail": "william.edwardson@canada.ca",
    "contactname": "Bill Edwardson",
    "contactemail": "william.edwardson@canada.ca",
    "contactphonenumber": "613-759-1589",
    "issued": "2019-03-21"
}