{
    "dcr_id": "1553108657684",
    "lang": "en",
    "type_name": "empl-empl",
    "staffadvisor": "chantal.gravelle@canada.ca",
    "submitername": "Nathalie Corbeil",
    "submiteremail": "nathalie.corbeil@canada.ca",
    "contactname": "Nathalie Corbeil",
    "contactemail": "nathalie.corbeil@canada.ca",
    "contactphonenumber": "613-773-1832",
    "issued": "2019-03-21"
}