{
    "dcr_id": "1554755020340",
    "lang": "en",
    "type_name": "empl-empl",
    "staffadvisor": "kelly.mcnaughton2@canada.ca",
    "submitername": "Tanya Katsoulis",
    "submiteremail": "tanya.katsoulis@canada.ca",
    "contactname": "Tanya Katsoulis",
    "contactemail": "tanya.katsoulis@canada.ca",
    "contactphonenumber": "613-773-0426",
    "issued": "2019-04-09"
}