{
    "dcr_id": "1557843369397",
    "lang": "en",
    "type_name": "empl-empl",
    "staffadvisor": "minh-ha.le2@canada.ca",
    "submitername": "Tania Gardner",
    "submiteremail": "tania.gardner2@canada.ca",
    "contactname": "Tania Gardner",
    "contactemail": "tania.gardner2@canada.ca",
    "contactphonenumber": "613-773-2570",
    "issued": "2019-05-14"
}