{
    "dcr_id": "1558545717337",
    "lang": "en",
    "type_name": "empl-empl",
    "staffadvisor": "chantal.gravelle@canada.ca",
    "submitername": "Kathryn Jarrett",
    "submiteremail": "kathryn.jarrett@canada.ca",
    "contactname": "Kathryn Jarrett",
    "contactemail": "kathryn.jarrett@canada.ca",
    "contactphonenumber": "613-773-0979",
    "issued": "2019-05-22"
}