{
    "dcr_id": "1563380293309",
    "lang": "en",
    "type_name": "empl-empl",
    "staffadvisor": "mardi.pleskach@canada.ca",
    "submitername": "Julie Desroches",
    "submiteremail": "julie.desroches@canada.ca",
    "contactname": "Mariam El Dali",
    "contactemail": "mariam.eldali@canada.ca",
    "contactphonenumber": "613-773-0224",
    "issued": "2019-07-31"
}