{
    "dcr_id": "1564165546301",
    "lang": "en",
    "type_name": "empl-empl",
    "staffadvisor": "mardi.pleskach@canada.ca",
    "submitername": "Julie Desroches",
    "submiteremail": "julie.desroches@canada.ca",
    "contactname": "Veronique Ouellette",
    "contactemail": "Veronique.Ouellette@canada.ca",
    "contactphonenumber": "613-773-1470",
    "issued": "2019-07-30"
}