{
    "dcr_id": "1567188479374",
    "lang": "en",
    "type_name": "empl-empl",
    "staffadvisor": "mardi.pleskach@canada.ca",
    "submitername": "Yves Christian",
    "submiteremail": "yves.christian2@canada.ca",
    "contactname": "Mariam El Dali",
    "contactemail": "mariam.eldali@canada.ca",
    "contactphonenumber": "613-773-0224",
    "issued": "2019-10-21"
}