{
    "dcr_id": "1574428512687",
    "lang": "en",
    "type_name": "empl-empl",
    "staffadvisor": "natalie.guimond@canada.ca",
    "submitername": "Sophie Bédard",
    "submiteremail": "sophie.bedard@canada.ca",
    "contactname": "Natalie Guimond",
    "contactemail": "natalie.guimond@canada.ca",
    "contactphonenumber": "613-773-2843",
    "issued": "2019-11-28"
}