{
    "dcr_id": "1574872204408",
    "lang": "en",
    "type_name": "empl-empl",
    "staffadvisor": "chantal.desbiens@canada.ca",
    "submitername": "Emily Silk",
    "submiteremail": "emily.silk@canada.ca",
    "contactname": "Chantal Desbiens",
    "contactemail": "chantal.desbiens@canada.ca",
    "contactphonenumber": "613-773-2686",
    "issued": "2019-11-27"
}