{
    "dcr_id": "1580746796921",
    "lang": "en",
    "type_name": "empl-empl",
    "staffadvisor": "amanda.dent@canada.ca",
    "submitername": "Nina Hamad",
    "submiteremail": "nina.hamad@canada.ca",
    "contactname": "Nina Hamad",
    "contactemail": "nina.hamad@canada.ca",
    "contactphonenumber": "613-773-2664",
    "issued": "2020-02-04"
}