{
    "dcr_id": "1583349899271",
    "lang": "en",
    "type_name": "empl-empl",
    "staffadvisor": "alicia.couture@canada.ca",
    "submitername": "Luella Graham",
    "submiteremail": "luella.graham@canada.ca",
    "contactname": "Luella Graham",
    "contactemail": "luella.graham@canada.ca",
    "contactphonenumber": "506-460-4382",
    "issued": "2020-03-05"
}