{
    "dcr_id": "1591106724824",
    "lang": "en",
    "type_name": "empl-empl",
    "staffadvisor": "yasna.sarwar@canada.ca",
    "submitername": "Shannon Church",
    "submiteremail": "shannon.church@canada.ca",
    "contactname": "Suzie Da Costa",
    "contactemail": "suzie.dacosta@canada.ca",
    "contactphonenumber": "613-790-2309",
    "issued": "2020-06-03"
}