{
    "dcr_id": "1593453407703",
    "lang": "en",
    "type_name": "empl-empl",
    "staffadvisor": "terrence.dabere@canada.ca",
    "submitername": "Amrane Boumghar",
    "submiteremail": "Amrane.Boumghar@canada.ca",
    "contactname": "Amrane Boumghar",
    "contactemail": "Amrane.Boumghar@canada.ca",
    "contactphonenumber": "613-773-3037",
    "issued": "2020-06-30"
}