{
    "dcr_id": "1594401762372",
    "lang": "en",
    "type_name": "empl-empl",
    "staffadvisor": "michelle.lavergne@canada.ca",
    "submitername": "Rachelle Tanguay",
    "submiteremail": "rachelle.tanguay@canada.ca",
    "contactname": "Rachelle Tanguay",
    "contactemail": "Rachelle.tanguay@canada.ca",
    "contactphonenumber": "613-793-3175",
    "issued": "2020-07-13"
}