{
    "dcr_id": "1603311765323",
    "lang": "en",
    "title": {
        "en": "This Week in The Harvest \u2013 Vicky\u2019s Daily News",
        "fr": "Au menu de La Moisson cette semaine \u2013 La Gazette de Vicky"
    },
    "modified": "2020-10-22 00:00:00.0",
    "issued": "2020-10-22 00:00:00.0",
    "type_name": "intra-intra/news-nouv",
    "node_id": "1279030006975",
    "layout_name": null,
    "dc_date_created": "2020-10-21",
    "breadcrumb_label": "This Week in The Harvest - Vicky's Daily News",
    "trigger_date": "2020-10-22 09:37:19.0",
    "meta": {
        "issued": {
            "en": "2020-10-22",
            "fr": "2020-10-22"
        },
        "modified": {
            "en": "2020-10-22",
            "fr": "2020-10-22"
        },
        "format": {
            "en": "gcformat",
            "fr": "gcformat"
        },
        "title": {
            "en": "This Week in The Harvest \u2013 Vicky\u2019s Daily News",
            "fr": "Au menu de La Moisson cette semaine \u2013 La Gazette de Vicky"
        },
        "subject": {
            "en": "communications",
            "fr": "communications"
        },
        "description": {
            "en": "In case you missed it, here's what's new in <em>The Harvest: AAFC's Online Magazine</em> this week.",
            "fr": "Au cas o\u00f9 vous l'auriez manqu\u00e9, voici le menu que la section <em>La Moisson : le magazine en ligne d'AAC</em> vous offre cette semaine."
        },
        "language": {
            "en": "eng",
            "fr": "fra"
        },
        "audience": {
            "en": "gcaudience",
            "fr": "gcaudience"
        },
        "creator": {
            "en": "Agriculture and Agri-Food Canada",
            "fr": "Agriculture et Agroalimentaire Canada"
        },
        "spatial": {
            "en": "gcregions",
            "fr": "gcregions"
        },
        "service": {
            "en": "AAFC_AgriSource",
            "fr": "AAC_AgriSource"
        },
        "accessRights": {
            "en": "3",
            "fr": "3"
        }
    },
    "body": {
        "en": "<br>\n<br>\n<p>In case you missed it, here\u2019s what\u2019s new in <a href=\"https://collab.agr.gc.ca/apps/harvest-moisson\"><em>The Harvest</em><em>: AAFC\u2019s Online Magazine</em></a> this week:</p>\n<p><strong>Feature story:</strong> <a href=\"https://collab.agr.gc.ca/apps/harvest-moisson/\">Vicky\u2019s Daily News</a> - In mid-March, when all departmental offices were closed with just a few hours\u2019 notice, the various teams had to quickly find effective ways to contact their members. Official communications tools were not available to everyone, questions were unanswered, and ties with colleagues were crumbling. However, there were numerous innovations.</p>\n<p><strong>Poll</strong><strong>: </strong><a href=\"https://collab.agr.gc.ca/apps/harvest-moisson/\">What is your favourite hot beverage to keep you warm in the fall?</a></p>\n<p><strong>Feature photo:</strong> <a href=\"https://collab.agr.gc.ca/apps/harvest-moisson/gallery/Lists/Posts/Post.aspx?ID=427\">Hungry Squirrel</a>, by Chris Loszinski, Science and Technology Branch, Saskatoon, Saskatchewan.</p>\n<p><strong>Did you know?</strong> <a href=\"https://collab.agr.gc.ca/apps/harvest-moisson/Pages/didyouknow.aspx\">Considering the average carbon footprint of chicken around the world, Canadian chicken has one of the lowest carbon footprints of all</a>: 62 per cent of the Canadian chicken sector\u2019s total energy use comes from renewable sources, with chicken feed accounting for the bulk of renewable energy consumption.</p>\n<p>You can get involved by posting a comment or \u201cliking\u201d an article. You can also check out what your colleagues are liking and saying.</p>\n<p>Should you have story ideas, scenic or artistic agriculture-related photos, or interesting facts, please share them with us by clicking on \u201cContribute\u201d in the top menu bar.</p>\n<p><img src=\"https://intranet.agr.gc.ca/resources/prod/news/images/Harvest-Vicky.jpg\" class=\"center-block\"></p>\n\n\t\t",
        "fr": "<br>\n<br>\n<p>Au cas o\u00f9 vous l\u2019auriez manqu\u00e9, voici le menu que la section <a href=\"https://collab.agr.gc.ca/apps/harvest-moisson\"><em>La Moisson</em><em> : le magazine en ligne d\u2019AAC</em></a> vous offre cette semaine :</p>\n<p><strong>Article vedette :</strong> <a href=\"https://collab.agr.gc.ca/apps/harvest-moisson/\">La Gazette de Vicky</a> - \u00c0 la mi-mars, quand tous les bureaux du minist\u00e8re ont \u00e9t\u00e9 ferm\u00e9s \u00e0 quelques heures d\u2019avis, les diff\u00e9rentes \u00e9quipes ont d\u00fb trouver rapidement des moyens efficaces de contacter leurs membres. Les outils de communications officiels n\u2019\u00e9taient pas disponibles pour tous, les questions \u00e9taient sans r\u00e9ponses, les liens avec les coll\u00e8gues s\u2019effritaient. Mais les innovations ont \u00e9t\u00e9 nombreuses.</p>\n<p><strong>Sondage : </strong><a href=\"https://collab.agr.gc.ca/apps/harvest-moisson/\">Quelle est votre boisson chaude pr\u00e9f\u00e9r\u00e9e en automne?</a></p>\n<p><strong>Photo vedette :</strong> <a href=\"https://collab.agr.gc.ca/apps/harvest-moisson/gallery/Lists/Posts/Post.aspx?ID=427\">\u00c9cureuil affam\u00e9</a>, par Chris Loszinski, Direction g\u00e9n\u00e9rale des sciences et de la technologie, Saskatoon (Saskatchewan).</p>\n<p><strong>Le saviez-vous?</strong> <a href=\"https://collab.agr.gc.ca/apps/harvest-moisson/Pages/didyouknow.aspx\">Comparativement \u00e0 l\u2019empreinte carbone moyenne du poulet dans le monde, le poulet canadien a l\u2019une des empreintes carbone les plus faibles</a> : 62 pour cent de la consommation totale d\u2019\u00e9nergie du secteur canadien du poulet provient de sources renouvelables, les aliments pour les poulets repr\u00e9sentant la majeure partie de la consommation d\u2019\u00e9nergie renouvelable.</p>\n<p>Vous pouvez participer en affichant des commentaires ou en utilisant la fonction \u00ab J\u2019aime \u00bb ou \u00ab Partager \u00bb pour exprimer votre appr\u00e9ciation d\u2019un article. Vous pouvez aussi aller voir ce que vos coll\u00e8gues aiment et ont \u00e0 dire.</p>\n<p>Si vous avez des id\u00e9es d\u2019articles, des photos de paysages ou \u00e0 caract\u00e8re artistique li\u00e9es \u00e0 l\u2019agriculture ou encore des faits int\u00e9ressants, veuillez nous en faire part en cliquant sur \u00ab Collaborer \u00bb dans la barre de menu en haut de la page.</p>\n<p><img src=\"https://intranet.agr.gc.ca/resources/prod/news/images/Harvest-Vicky.jpg\" class=\"center-block\"></p>\n\t\t"
    },
    "breadcrumb": {
        "en": "This Week in The Harvest - Vicky's Daily News",
        "fr": "Au menu de La Moisson cette semaine \u2013 La Gazette de Vicky"
    },
    "news": {
        "date_posted": {
            "en": "2020-10-22",
            "fr": "2020-10-22"
        },
        "to": {
            "en": "All staff",
            "fr": "Tous les employ\u00e9s"
        },
        "by": {
            "en": "Corporate Communications, Public Affairs Branch",
            "fr": "Communications minist\u00e9rielles, Direction g\u00e9n\u00e9rale des affaires publiques"
        }
    }
}