{
    "dcr_id": "1603724066678",
    "lang": "en",
    "title": {
        "en": "Halloween Costume Party",
        "fr": "F\u00eate costum\u00e9e terrifiante pour l\u2019Halloween"
    },
    "modified": "2020-10-28 00:00:00.0",
    "issued": "2020-10-28 00:00:00.0",
    "type_name": "intra-intra/news-nouv",
    "node_id": "1279030006975",
    "layout_name": null,
    "dc_date_created": "2020-10-26",
    "breadcrumb_label": "",
    "trigger_date": "2020-10-28 16:17:18.0",
    "meta": {
        "issued": {
            "en": "2020-10-28",
            "fr": "2020-10-28"
        },
        "modified": {
            "en": "2020-10-28",
            "fr": "2020-10-28"
        },
        "format": {
            "en": "gcformat",
            "fr": "gcformat"
        },
        "title": {
            "en": "Halloween Costume Party",
            "fr": "F\u00eate costum\u00e9e terrifiante pour l\u2019Halloween"
        },
        "subject": {
            "en": "communications",
            "fr": "communications"
        },
        "description": {
            "en": "You are in-BITE-d to a spooky virtual Halloween Costume Party on Microsoft Teams on Friday, October 30 from 2:00 to 3:00 p.m.",
            "fr": "Nous BOUH! invitons \u00e0 une f\u00eate costum\u00e9e terrifiante pour l'Halloween, le vendredi 30 octobre, de 14 h \u00e0 15 h, sur Microsoft Teams."
        },
        "language": {
            "en": "eng",
            "fr": "fra"
        },
        "audience": {
            "en": "gcaudience",
            "fr": "gcaudience"
        },
        "creator": {
            "en": "Agriculture and Agri-Food Canada",
            "fr": "Agriculture et Agroalimentaire Canada"
        },
        "spatial": {
            "en": "gcregions",
            "fr": "gcregions"
        },
        "service": {
            "en": "AAFC_AgriSource",
            "fr": "AAC_AgriSource"
        },
        "accessRights": {
            "en": "3",
            "fr": "3"
        }
    },
    "body": {
        "en": "<br>\n<br>\n<p>You are in-BITE-d to a spooky virtual Halloween Costume Party on Microsoft Teams on Friday, October 30 from 2:00\u00a0to 3:00 p.m.</p>\n<p>All Hallow's Eve enthusiasts please join us for some frightful entertainment. Participants can get dressed up and/or display their favorite scary movie, haunted house, graveyard, jack o\u2019lantern, full moon, or spider web backgrounds on their Microsoft Teams window. People who are not in costume are welcomed to join too and vote for their favorite costumes/backgrounds. There will also be a hair-raising playlist to keep the party going - including the Monster Mash, Ghostbusters, and the Exorcist theme songs.\n</p>\n<p>Our own ghoulish Two Headed Freds may join and you can vote for the costumes and background you like the most in between songs on the event\u2019s chat. Bragging rights are up for grabs for those who have the best costumes and backgrounds in the categories of funniest, scariest, and most creative!</p>\n<p>Bring your own vampire blood for refreshment!</p>\n<p>This event is designed to raise awareness of the GCWCC, and to encourage AAFC staff to make any pledge to any charitable organization that they can, to help the less fortunate.\u00a0Click here to <a href=\"https://uwco.ca/servlet/eAndar.article/237?language=en&amp;SA=6959563\">make an ePledge</a> and change a life!</p>\n<p><img src=\"https://intranet.agr.gc.ca/resources/prod/news/images/GCWCC2019-EN.png\" class=\"center-block\"></p>\n\n\t\t",
        "fr": "<br>\n<br>\n<p>Nous BOUH! invitons \u00e0 une f\u00eate costum\u00e9e terrifiante pour l\u2019Halloween, le vendredi 30 octobre, de 14 h \u00e0 15 h, sur Microsoft Teams.</p>\n<p>Amoureux de l\u2019Halloween, joignez-vous \u00e0 nous pour une f\u00eate \u00e0 donner la chair de poule! Les participants peuvent se costumer ou encore utiliser une image de leur film d\u2019horreur favori, d\u2019une maison hant\u00e9e, d\u2019un cimeti\u00e8re, d\u2019une citrouille d\u2019Halloween, d\u2019une pleine lune, d\u2019une toile d\u2019araign\u00e9e, etc., comme arri\u00e8re-plan sur Microsoft Teams. Les employ\u00e9s non costum\u00e9s sont \u00e9galement invit\u00e9s \u00e0 participer et \u00e0 voter pour leur costume/arri\u00e8re-plan favori. De la musique \u00e0 faire glacer le sang rythmera la f\u00eate, y compris les chansons th\u00e8mes de Monster Mash, SOS Fant\u00f4mes et L\u2019Exorciste.</p>\n<p>Nos Fred \u00e0 deux t\u00eates pourraient aussi \u00eatre de la partie! Vous pourrez voter pour les costumes et les arri\u00e8re\u2011plans que vous aimez entre deux chansons dans le fil de discussion de l\u2019\u00e9v\u00e9nement. Qui aura le droit de se vanter d\u2019avoir le costume ou l\u2019arri\u00e8re-plan le plus dr\u00f4le, le plus \u00e9peurant ou le plus cr\u00e9atif?</p>\n<p>N\u2019oubliez pas votre sang de vampire pour vous rafra\u00eechir!</p>\n<p>L\u2019\u00e9v\u00e9nement est organis\u00e9 pour mieux faire conna\u00eetre la CCMTGC et encourager le personnel d\u2019AAC \u00e0 faire un don \u00e0 un organisme de bienfaisance de leur choix pour aider les moins fortun\u00e9s. Cliquez ici pour <a href=\"https://uwco.ca/servlet/eAndar.article/243?language=fr&amp;SA=6959563\">donner </a>et changer la vie de quelqu\u2019un!</p>\n<p><img src=\"https://intranet.agr.gc.ca/resources/prod/news/images/GCWCC2019-FR.png\" class=\"center-block\"></p>\n<p>\u00a0</p>\n\t\t"
    },
    "breadcrumb": {
        "en": "Halloween Costume Party",
        "fr": "F\u00eate costum\u00e9e terrifiante pour l'Halloween"
    },
    "news": {
        "date_posted": {
            "en": "2020-10-29",
            "fr": "2020-10-29"
        },
        "to": {
            "en": "All staff",
            "fr": "Tous les employ\u00e9s"
        },
        "by": {
            "en": "GCWCC Core Team",
            "fr": "\u00c9quipe de base de la CCMTGC"
        }
    }
}