{
    "dcr_id": "1603214776034",
    "lang": "en",
    "title": {
        "en": "Coming to a Screen Near You \u2013 A New Background When Logging In at AAFC",
        "fr": "Bient\u00f4t \u00e0 votre \u00e9cran \u2013 un nouvel arri\u00e8re-plan pour l\u2019ouverture de session \u00e0 AAC "
    },
    "modified": "2020-10-22 00:00:00.0",
    "issued": "2020-10-22 00:00:00.0",
    "type_name": "intra-intra/news-nouv",
    "node_id": "1279030006975",
    "layout_name": null,
    "dc_date_created": "2020-10-21",
    "breadcrumb_label": "Coming to a Screen Near You - A New Background When Logging In at AAFC",
    "trigger_date": "2020-10-22 12:09:30.0",
    "meta": {
        "issued": {
            "en": "2020-10-22",
            "fr": "2020-10-22"
        },
        "modified": {
            "en": "2020-10-22",
            "fr": "2020-10-22"
        },
        "format": {
            "en": "gcformat",
            "fr": "gcformat"
        },
        "title": {
            "en": "Coming to a Screen Near You \u2013 A New Background When Logging In at AAFC",
            "fr": "Bient\u00f4t \u00e0 votre \u00e9cran \u2013 un nouvel arri\u00e8re-plan pour l\u2019ouverture de session \u00e0 AAC "
        },
        "subject": {
            "en": "communications",
            "fr": "communications"
        },
        "description": {
            "en": "The Public Affairs Branch (PAB) is excited to introduce a new communications tool: customizable backgrounds for the Windows 10 login screen (CTRL+ALT+DEL) or \"lockscreen\" on AAFC computers.",
            "fr": "La Direction g\u00e9n\u00e9rale des affaires publiques (DGAP) est heureuse de vous pr\u00e9senter un nouvel outil de communication : un arri\u00e8re-plan personnalisable pour l'\u00e9cran d'ouverture de session de Windows 10 (CTRL+ALT+DEL) ou \u00ab l\u2019\u00e9cran de verrouillage \u00bb sur les ordinateurs d'AAC."
        },
        "language": {
            "en": "eng",
            "fr": "fra"
        },
        "audience": {
            "en": "gcaudience",
            "fr": "gcaudience"
        },
        "creator": {
            "en": "Agriculture and Agri-Food Canada",
            "fr": "Agriculture et Agroalimentaire Canada"
        },
        "spatial": {
            "en": "gcregions",
            "fr": "gcregions"
        },
        "service": {
            "en": "AAFC_AgriSource",
            "fr": "AAC_AgriSource"
        },
        "accessRights": {
            "en": "3",
            "fr": "3"
        }
    },
    "body": {
        "en": "<br>\n<br>\n<p><img src=\"https://intranet.agr.gc.ca/resources/prod/news/images/LockScreen2.jpg\" class=\"pull-right mrgn-lft-md\" alt=\"\">The Public Affairs Branch (PAB) is excited to introduce a new communications tool: customizable backgrounds for the Windows 10 login screen (CTRL+ALT+DEL) or \u201clockscreen\u201d on AAFC computers.</p>\n<p>\nThe new lockscreens will help to promote important information about AAFC initiatives, and will serve to complement news published in <a href=\"http://intranet.agr.gc.ca/agrisource/eng?id=1311865754938\">news@work</a>, <a href=\"https://intranet.agr.gc.ca/agrisource/eng/branches-and-offices/public-affairs-branch/corporate-communications/cue-a-quick-reference-tool?id=1597838893251\">CUE</a> or <a href=\"http://intranet.agr.gc.ca/agrisource/eng?id=1287261736402\">AgriSource</a>.</p>\n<p>\nYou\u2019ll notice the new lockscreen appear in the coming days. These will change about once a week. Your login information remains the same, only the background visual you see will be different.</p>\n<p>\nThis tool is part of our ongoing efforts to continuously improve internal communications at AAFC. If you have any questions or feedback, please send to Corporate Communications (<a href=\"mailto:aafc.corporatecommunications-communicationsministerielles.aac@canada.ca\">aafc.corporatecommunications-communicationsministerielles.aac@canada.ca</a>).</p>\n<p>\u00a0</p>\n\n\t\t",
        "fr": "<br>\n<br>\n<p><img src=\"https://intranet.agr.gc.ca/resources/prod/news/images/LockScreen2.jpg\" class=\"pull-right mrgn-lft-md\" alt=\"\">La Direction g\u00e9n\u00e9rale des affaires publiques (DGAP) est heureuse de vous pr\u00e9senter un nouvel outil de communication : un arri\u00e8re-plan personnalisable pour l\u2019\u00e9cran d\u2019ouverture de session de Windows 10 (CTRL+ALT+DEL) ou \u00ab l\u2019\u00e9cran de verrouillage \u00bb sur les ordinateurs d\u2019AAC.</p>\n<p>Les nouveaux \u00e9crans de verrouillage aideront \u00e0 communiquer de l\u2019information importante sur les initiatives d\u2019AAC et serviront \u00e0 compl\u00e9ter les nouvelles publi\u00e9es dans les <a href=\"https://intranet.agr.gc.ca/agrisource/fra?id=1311865754938\">nouvelles@l'ouvrage</a>, <a href=\"https://intranet.agr.gc.ca/agrisource/fra/directions-generales-et-bureaux/direction-generale-des-affaires-publiques/communications-ministerielles/aide-memoire-outil-de-reference-rapide?id=1597838893251\">l'AIDE-M\u00c9MOIRE</a> et <a href=\"https://intranet.agr.gc.ca/agrisource/fra?id=1287261736402\">AgriSource</a>.</p>\n<p>Vous verrez le nouvel \u00e9cran de verrouillage s\u2019afficher dans les prochains jours. Cet \u00e9cran sera modifi\u00e9 une fois par semaine environ. Vos renseignements pour l\u2019ouverture de session ne changent pas, seul l\u2019arri\u00e8re-plan sera diff\u00e9rent.</p>\n<p>La cr\u00e9ation de cet outil fait partie des efforts d\u00e9ploy\u00e9s pour am\u00e9liorer constamment les communications \u00e0 AAC. Si vous avez des questions ou des commentaires \u00e0 ce sujet, veuillez les envoyer par courriel aux Communications minist\u00e9rielles (<a href=\"mailto:aafc.corporatecommunications-communicationsministerielles.aac@canada.ca\">aafc.corporatecommunications-communicationsministerielles.aac@canada.ca</a>).</p>\n\t\t"
    },
    "breadcrumb": {
        "en": "Coming to a Screen Near You - A New Background When Logging In at AAFC",
        "fr": "Bient\u00f4t \u00e0 votre \u00e9cran - un nouvel arri\u00e8re-plan pour l'ouverture de session \u00e0 AAC"
    },
    "news": {
        "date_posted": {
            "en": "2020-10-20",
            "fr": "2020-10-20"
        },
        "to": {
            "en": "All staff",
            "fr": "Tous les employ\u00e9s"
        },
        "by": {
            "en": "Public Affairs Branch",
            "fr": "Direction g\u00e9n\u00e9rale des affaires publiques"
        }
    }
}