{
    "dcr_id": "1602705535894",
    "lang": "en",
    "title": {
        "en": "This Week in The Harvest - GCWCC Stories: Harrow RDC Makes an Impact!",
        "fr": "Au menu de La Moisson cette semaine - Histoires de la CCMTGC : le CRD de Harrow a une r\u00e9elle influence!"
    },
    "modified": "2020-10-15 00:00:00.0",
    "issued": "2020-10-15 00:00:00.0",
    "type_name": "intra-intra/news-nouv",
    "node_id": "1279030006975",
    "layout_name": null,
    "dc_date_created": "2020-10-15",
    "breadcrumb_label": "",
    "meta": {
        "issued": {
            "en": "2020-10-15",
            "fr": "2020-10-15"
        },
        "modified": {
            "en": "2020-10-15",
            "fr": "2020-10-15"
        },
        "format": {
            "en": "gcformat",
            "fr": "gcformat"
        },
        "title": {
            "en": "This Week in The Harvest - GCWCC Stories: Harrow RDC Makes an Impact!",
            "fr": "Au menu de La Moisson cette semaine - Histoires de la CCMTGC : le CRD de Harrow a une r\u00e9elle influence!"
        },
        "subject": {
            "en": "communications",
            "fr": "communications"
        },
        "description": {
            "en": "In case you missed it, here's what's new in <em>The Harvest: AAFC\u2019s Online Magazine</em> this week.",
            "fr": "Au cas o\u00f9 vous l'auriez manqu\u00e9, voici le menu que la section <em>La Moisson : le magazine en ligne d\u2019AAC</em> vous offre cette semaine."
        },
        "language": {
            "en": "eng",
            "fr": "fra"
        },
        "audience": {
            "en": "gcaudience",
            "fr": "gcaudience"
        },
        "creator": {
            "en": "Agriculture and Agri-Food Canada",
            "fr": "Agriculture et Agroalimentaire Canada"
        },
        "spatial": {
            "en": "gcregions",
            "fr": "gcregions"
        },
        "service": {
            "en": "AAFC_AgriSource",
            "fr": "AAC_AgriSource"
        },
        "accessRights": {
            "en": "3",
            "fr": "3"
        }
    },
    "body": {
        "en": "<br>\n<br>\n<p>In case you missed it, here\u2019s what\u2019s new in <a href=\"https://collab.agr.gc.ca/apps/harvest-moisson\"><em>The Harvest</em><em>: AAFC\u2019s Online Magazine</em></a> this week:</p>\n<p><strong>Feature story:</strong> <a href=\"https://collab.agr.gc.ca/apps/harvest-moisson/\">GCWCC Stories: Harrow RDC Makes an Impact!</a> - When it comes to giving, the staff at the Harrow Research and Development Centre (Harrow RDC) have come up with some creative ways to get people involved in the annual Government of Canada Workplace Charitable Campaign (GCWCC). And in the process, they also have a lot of fun!</p>\n<p><strong>Poll</strong><strong>: </strong><a href=\"https://collab.agr.gc.ca/apps/harvest-moisson/\">What is your favourite hot beverage to keep you warm in the fall?</a></p>\n<p><strong>Feature photo:</strong> <a href=\"https://collab.agr.gc.ca/apps/harvest-moisson/gallery/Lists/Posts/Post.aspx?ID=426\">Wild Thing</a>, by Meghan Burke, Public Affairs Branch, Guelph, Ontario</p>\n<p><strong>Did you know?</strong> <a href=\"https://collab.agr.gc.ca/apps/harvest-moisson/Pages/didyouknow.aspx\">One in five people in Canada will experience a mental health issue or illness in any given year.</a> The stigma around mental health is one of the biggest obstacles for anyone suffering from mental illness.</p>\n<p>You can get involved by posting a comment or \u201cliking\u201d an article. You can also check out what your colleagues are liking and saying.</p>\n<p>Should you have story ideas, scenic or artistic agriculture-related photos, or interesting facts, please share them with us by clicking on \u201cContribute\u201d in the top menu bar.</p>\n<p><img src=\"https://intranet.agr.gc.ca/resources/prod/news/images/Harvest-pumpkins.png\" class=\"center-block\"></p>\n\n\t\t",
        "fr": "<br>\n<br>\n<p>Au cas o\u00f9 vous l\u2019auriez manqu\u00e9, voici le menu que la section <a href=\"https://collab.agr.gc.ca/apps/harvest-moisson\"><em>La Moisson</em><em> : le magazine en ligne d\u2019AAC</em> </a>vous offre cette semaine :</p>\n<p><strong>Article vedette :</strong> <a href=\"https://collab.agr.gc.ca/apps/harvest-moisson/\">Histoires de la CCMTGC : le CRD de Harrow a une r\u00e9elle influence!</a> - Lorsqu\u2019il est question de donner, le personnel du Centre de recherche et de d\u00e9veloppement (CRD) de Harrow trouve des fa\u00e7ons originales de faire participer les gens \u00e0 la Campagne de charit\u00e9 en milieu de travail du gouvernement du Canada (CCMTGC). Et en cours de route, ils s\u2019amusent beaucoup!</p>\n<p><strong>Sondage : </strong><a href=\"https://collab.agr.gc.ca/apps/harvest-moisson/\">Quelle est votre boisson chaude pr\u00e9f\u00e9r\u00e9e en automne?</a></p>\n<p><strong>Photo vedette :</strong> <a href=\"https://collab.agr.gc.ca/apps/harvest-moisson/gallery/Lists/Posts/Post.aspx?ID=426\">Cr\u00e9ature sauvage</a>, par Meghan Burke, Direction g\u00e9n\u00e9rale des affaires publiques, Guelph (Ontario).</p>\n<p><strong>Le saviez-vous?</strong> <a href=\"https://collab.agr.gc.ca/apps/harvest-moisson/Pages/didyouknow.aspx\">Un Canadien sur cinq souffre d\u2019un probl\u00e8me de sant\u00e9 mentale ou d\u2019une maladie mentale au cours d\u2019une ann\u00e9e donn\u00e9e</a>. Les pr\u00e9jug\u00e9s entourant la maladie mentale sont l\u2019un des plus grands obstacles pour les personnes atteintes.</p>\n<p>Vous pouvez participer en affichant des commentaires ou en utilisant la fonction \u00ab J\u2019aime \u00bb ou \u00ab Partager \u00bb pour exprimer votre appr\u00e9ciation d\u2019un article. Vous pouvez aussi aller voir ce que vos coll\u00e8gues aiment et ont \u00e0 dire.</p>\n<p>Si vous avez des id\u00e9es d\u2019articles, des photos de paysages ou \u00e0 caract\u00e8re artistique li\u00e9es \u00e0 l\u2019agriculture ou encore des faits int\u00e9ressants, veuillez nous en faire part en cliquant sur \u00ab Collaborer \u00bb dans la barre de menu en haut de la page.</p>\n<p><img src=\"https://intranet.agr.gc.ca/resources/prod/news/images/Harvest-pumpkins.png\" class=\"center-block\"></p>\n<p>\u00a0</p>\n\t\t"
    },
    "breadcrumb": {
        "en": "This Week in The Harvest - GCWCC Stories: Harrow RDC Makes an Impact!",
        "fr": "Au menu de La Moisson cette semaine - Histoires de la CCMTGC : le CRD de Harrow a une r\u00e9elle influen"
    },
    "news": {
        "date_posted": {
            "en": "2020-10-15",
            "fr": "2020-10-15"
        },
        "to": {
            "en": "All staff",
            "fr": "Tous les employ\u00e9s"
        },
        "by": {
            "en": "Corporate Communications, Public Affairs Branch",
            "fr": "Communications minist\u00e9rielles, Direction g\u00e9n\u00e9rale des affaires publiques"
        }
    }
}