{
    "dcr_id": "1602275164365",
    "lang": "en",
    "title": {
        "en": "Online Auction",
        "fr": "Vente aux ench\u00e8res "
    },
    "modified": "2020-10-15 00:00:00.0",
    "issued": "2020-10-15 00:00:00.0",
    "type_name": "intra-intra/news-nouv",
    "node_id": "1279030006975",
    "layout_name": null,
    "dc_date_created": "2020-10-15",
    "breadcrumb_label": "",
    "meta": {
        "issued": {
            "en": "2020-10-15",
            "fr": "2020-10-15"
        },
        "modified": {
            "en": "2020-10-15",
            "fr": "2020-10-15"
        },
        "format": {
            "en": "gcformat",
            "fr": "gcformat"
        },
        "title": {
            "en": "Online Auction",
            "fr": "Vente aux ench\u00e8res "
        },
        "subject": {
            "en": "communications",
            "fr": "communications"
        },
        "description": {
            "en": "Going once! Going twice! SOLD\u2026 on joining the GCWCC Online Auction!",
            "fr": "Une fois, deux fois, ADJUG\u00c9! Nous lan\u00e7ons une vente aux ench\u00e8res en ligne qui offrira diverses exp\u00e9riences dans le but de recueillir des fonds pour la CCMTGC."
        },
        "language": {
            "en": "eng",
            "fr": "fra"
        },
        "audience": {
            "en": "gcaudience",
            "fr": "gcaudience"
        },
        "creator": {
            "en": "Agriculture and Agri-Food Canada",
            "fr": "Agriculture et Agroalimentaire Canada"
        },
        "spatial": {
            "en": "gcregions",
            "fr": "gcregions"
        },
        "service": {
            "en": "AAFC_AgriSource",
            "fr": "AAC_AgriSource"
        },
        "accessRights": {
            "en": "3",
            "fr": "3"
        }
    },
    "body": {
        "en": "<br>\n<br>\n<p>Going once! Going twice! SOLD\u2026 on joining the GCWCC Online Auction! We are launching an online auction that features a variety of different experiences to raise money for a good cause. Whether you bid for time with executives, fiddle lessons, or covid face masks, your donation will stay in your community and help those in need. If you have an item that you would like to auction off then please email <a href=\"mailto:jill.magnussen@canada.ca\">jill.magnussen@canada.ca</a>. </p>\n<p>The bidding is now open and will be live until October 29. The winner will be emailed and payment will be collected through ARTEZ \u2013 United Way\u2019s fundraising platform. Visit the <a href=\"https://collab.agr.gc.ca/co/gcwcc-support-ccmtgc/SitePages/Silent%20Auction.aspx\">Silent Auction</a> page on Knowledge Workspace for the complete list of items. Good luck!</p>\n<p><img src=\"https://intranet.agr.gc.ca/resources/prod/news/images/GCWCC2019-EN.png\" class=\"center-block\" alt=\"\"></p>\n\n\t\t",
        "fr": "<br>\n<br>\n<p>Une fois, deux fois, ADJUG\u00c9! Nous lan\u00e7ons une vente aux ench\u00e8res en ligne qui offrira diverses exp\u00e9riences dans le but de recueillir des fonds pour la CCMTGC. Que vous cherchiez \u00e0 obtenir du temps libre en compagnie de cadres sup\u00e9rieurs, des le\u00e7ons de violon ou encore des masques de protection contre la COVID, votre don restera dans votre communaut\u00e9 et aidera des personnes dans le besoin. Si vous avez un article \u00e0 mettre aux ench\u00e8res, veuillez envoyer un courriel \u00e0 <a href=\"mailto:jill.magnussen@canada.ca\">jill.magnussen@canada.ca</a>. </p>\n<p>Les ench\u00e8res sont maintenant ouvertes et le resteront jusqu\u2019au 29 octobre. Le gagnant sera avis\u00e9 par courriel et le paiement sera per\u00e7u par l\u2019interm\u00e9diaire d\u2019ARTEZ, la plateforme de collecte de fonds de Centraide. Consultez la page <a href=\"https://collab.agr.gc.ca/co/gcwcc-support-ccmtgc/SitePages/Silent%20Auction.aspx\">Vente aux ench\u00e8res</a> dans l'Espace du travail du savoir pour avoir acc\u00e8s \u00e0 la liste compl\u00e8te des articles. Bonne chance!</p>\n<p>\n<img src=\"https://intranet.agr.gc.ca/resources/prod/news/images/GCWCC2019-FR.png\" class=\"center-block\"></p>\n\t\t"
    },
    "breadcrumb": {
        "en": "Online Auction",
        "fr": "Vente aux ench\u00e8res"
    },
    "news": {
        "date_posted": {
            "en": "2020-10-15",
            "fr": "2020-10-15"
        },
        "to": {
            "en": "All staff",
            "fr": "Tous les employ\u00e9s"
        },
        "by": {
            "en": "GCWCC Core Team",
            "fr": "\u00c9quipe de base de la CCMTGC"
        }
    }
}