{
    "dcr_id": "1603122381676",
    "lang": "en",
    "title": {
        "en": "Scheduled Maintenance of ISB Services (AgriDoc) - October 23",
        "fr": "Entretien pr\u00e9vu des services de la DGSI (AgriDoc) \u2013 23 octobre"
    },
    "modified": "2020-10-22 00:00:00.0",
    "issued": "2020-10-22 00:00:00.0",
    "type_name": "intra-intra/news-nouv",
    "node_id": "1279030006975",
    "layout_name": null,
    "dc_date_created": "2020-10-22",
    "breadcrumb_label": "",
    "meta": {
        "issued": {
            "en": "2020-10-22",
            "fr": "2020-10-22"
        },
        "modified": {
            "en": "2020-10-22",
            "fr": "2020-10-22"
        },
        "format": {
            "en": "gcformat",
            "fr": "gcformat"
        },
        "title": {
            "en": "Scheduled Maintenance of ISB Services (AgriDoc) - October 23",
            "fr": "Entretien pr\u00e9vu des services de la DGSI (AgriDoc) \u2013 23 octobre"
        },
        "subject": {
            "en": "communications",
            "fr": "communications"
        },
        "description": {
            "en": "Please be advised that preventative maintenance of ISB services will be performed on Friday, October 23.",
            "fr": "Veuillez noter qu'un entretien pr\u00e9ventif des services de la DGSI aura lieu entre le vendredi 23 octobre."
        },
        "language": {
            "en": "eng",
            "fr": "fra"
        },
        "audience": {
            "en": "gcaudience",
            "fr": "gcaudience"
        },
        "creator": {
            "en": "Agriculture and Agri-Food Canada",
            "fr": "Agriculture et Agroalimentaire Canada"
        },
        "spatial": {
            "en": "gcregions",
            "fr": "gcregions"
        },
        "service": {
            "en": "AAFC_AgriSource",
            "fr": "AAC_AgriSource"
        },
        "accessRights": {
            "en": "3",
            "fr": "3"
        }
    },
    "body": {
        "en": "<br>\n<br>\n<p>Please be advised that preventative maintenance of ISB services will be performed on Friday, October 23.<br>\n<br>\nThe following downtime is part of a management plan to upgrade our infrastructure systems. These measures are performed regularly to improve performance and to ensure that the department does not experience any outages that would affect employees and the delivery of our services.<br>\n<br>\nConsequently, the following service may not be available during this period:<br>\n<br>\n<strong>Friday, </strong><strong>October 23 \u2013 8:00 p.m. until 10:00 p.m. (ET)</strong></p>\n<ul>\n<li>AgriDoc</li>\n</ul>\n<p>Should you have any questions or concerns, please do not hesitate to contact IT Centre TI.</p>\n<p><br>\n<br>\n<strong>IT Centre TI</strong><br>\nTelephone: 1-855-545-4411<br>\n<a href=\"http://myitcentreti-monitcentreti/\">My IT Centre TI</a></p>\n<p><img src=\"https://intranet.agr.gc.ca/resources/prod/news/images/ITCentreTI2.png\" class=\"center-block\"></p>\n\n\t\t",
        "fr": "<br>\n<br>\n<p>Veuillez noter qu\u2019un entretien pr\u00e9ventif des services de la DGSI aura lieu entre le vendredi 23 octobre.<br>\n<br>\nLes interruptions suivantes sont pr\u00e9vues dans le cadre d\u2019un plan de gestion visant la mise \u00e0 niveau de nos syst\u00e8mes d\u2019infrastructure. Ces mesures sont prises r\u00e9guli\u00e8rement afin d\u2019am\u00e9liorer le rendement et d\u2019\u00e9viter que le Minist\u00e8re subisse des pannes qui pourraient nuire aux employ\u00e9s et \u00e0 la prestation de nos services.<br>\n<br>\nPar cons\u00e9quent, le service suivant pourrait ne pas \u00eatre accessible pendant la p\u00e9riode indiqu\u00e9e :<br>\n<br>\n<strong>Vendredi 23 octobre, de 20 h \u00e0 22 h (HE)</strong></p>\n<ul>\n<li>AgriDoc</li>\n</ul>\n<p>Si vous avez des questions ou des pr\u00e9occupations \u00e0 ce sujet, n\u2019h\u00e9sitez pas \u00e0 communiquer avec IT Centre TI.</p>\n<p><br>\n<br>\n<strong>IT Centre TI</strong><br>\nT\u00e9l\u00e9phone : 1-855-545-4411<br>\n<a href=\"http://myitcentreti-monitcentreti/\">Mon IT Centre TI</a></p>\n<p><img src=\"https://intranet.agr.gc.ca/resources/prod/news/images/ITCentreTI2.png\" class=\"center-block\"></p>\n\t\t"
    },
    "breadcrumb": {
        "en": "Scheduled Maintenance of ISB Services (AgriDoc) - October 23",
        "fr": "Entretien pr\u00e9vu des services de la DGSI (AgriDoc) - 23 octobre"
    },
    "news": {
        "date_posted": {
            "en": "2020-10-22",
            "fr": "2020-10-22"
        },
        "to": {
            "en": "All staff",
            "fr": "Tous les employ\u00e9s"
        },
        "by": {
            "en": "IT Centre TI",
            "fr": "IT Centre TI"
        }
    }
}