{
    "has_dcr_id": true,
    "node_id": "1279030460334",
    "parent_node_id": "1279029900850",
    "dcr_id": "1287488991969",
    "landingPageUrl": {
        "en": "1287488991969",
        "fr": "1287488991969"
    },
    "title": {
        "en": "null",
        "fr": "null"
    },
    "breadcrumb": {
        "en": "Information Systems Branch",
        "fr": "Direction g\u00e9n\u00e9rale des syst\u00e8mes d'information"
    },
    "type": "find_people",
    "meta": {
        "issued": {
            "en": "2010-11-12",
            "fr": "2010-11-12"
        },
        "modified": {
            "en": "2020-09-01",
            "fr": "2020-09-01"
        },
        "format": {
            "en": "gcformat",
            "fr": "gcformat"
        },
        "title": {
            "en": "Information Systems Branch",
            "fr": "Direction g\u00e9n\u00e9rale des syst\u00e8mes d'information"
        },
        "subject": {
            "en": "communications;library services",
            "fr": "communications;services de la biblioth\u00e8que"
        },
        "description": {
            "en": "The Information Systems Branch (ISB) supports the department's delivery of agriculture programs by designing, developing and maintaining the information-based and knowledge-based systems used to connect staff, producers, and the public with agriculture information and knowledge resources.",
            "fr": "La Direction g\u00e9n\u00e9rale des syst\u00e8mes d'information (DGSI) soutient l'ex\u00e9cution des programmes agricoles du minist\u00e8re avec la conception, le d\u00e9veloppement et la mise \u00e0 jour des syst\u00e8mes d'information utilis\u00e9s pour relier le personnel, les producteurs et le grand public \u00e0 l'information sur l'agriculture et aux ressources en mati\u00e8re de connaissances."
        },
        "language": {
            "en": "eng",
            "fr": "fra"
        },
        "keywords": {
            "en": "Access to Information and Privacy (ATIP), Canadian Agriculture Library, Information Management Program, Records Management Services",
            "fr": "Acc\u00e8s \u00e0 l'information et protection des renseignements personnels; Biblioth\u00e8que canadienne de l'agriculture; Programme de gestion de l'information; Services de gestion de dossiers"
        },
        "audience": {
            "en": "gcaudience",
            "fr": "gcaudience"
        },
        "type": {
            "en": "organizational description",
            "fr": "description de l'organisation"
        },
        "creator": {
            "en": "Agriculture and Agri-Food Canada",
            "fr": "Agriculture et Agroalimentaire Canada"
        },
        "spatial": {
            "en": "gcregions",
            "fr": "gcregions"
        },
        "service": {
            "en": "AAFC_AgriSource",
            "fr": "AAC_AgriSource"
        },
        "accessRights": {
            "en": "3",
            "fr": "3"
        }
    },
    "body": {
        "en": "<section>\n\t\t\t  \n<div class=\"row\">\n  <div class=\"col-md-3 pull-right\">\n <img src=\"https://intranet.agr.gc.ca/resources/prod/images/isb_dgsi/information_systems_branch2.jpg\" alt=\"\" class=\"img-responsive mrgn-bttm-md\">\n <section class=\"panel panel-primary\">\n   <header class=\"panel-heading\">\n  <h2 class=\"panel-title\">Most requested</h2>\n   </header>\n   <div class=\"panel-body\">\n  <ul class=\"list-unstyled lst-spcd\">\n    <li>\n   <a href=\"https://ms-collab.agr.gc.ca/personal/uptonhe/assurancemaps/Shared%20Documents/2016-2017%20Branch%20Plans%20including%20Corporate%20Risks/ISB%202016-17%20Branch%20Plan%20(ENGLISH).pdf\">2016-2017 Branch Plan (PDF)</a> <span class=\"hidden\">AGR 5547862</span></li> \n    <li><a href=\"https://intranet.agr.gc.ca/agrisource/AgriDoc.do?id=102222724&amp;lang=eng\" target=\"_blank\">2015-2016 Branch Year-end Achievements (PDF)</a></li>\n    <li><a href=\"?id=1583937919000#isb\">Branch Executive organizational chart</a></li>\n  </ul>\n   </div>\n </section>\n <section class=\"panel panel-primary\">\n   <header class=\"panel-heading\">\n  <h2 class=\"panel-title\">Contact us</h2>\n   </header>\n   <div class=\"panel-body\"> <a href=\"http://directinfo.agr.gc.ca/directInfo/eng/index.php?fuseaction=agriInfo.orgUnit&amp;dn=OU=ISB-DGSI,OU=AAFC-AAC,O=GC,C=CA\" title=\"DirectInfo\">Information Systems Branch structure and staff (DirectInfo)</a> </div>\n </section>\n  </div>\n  <div class=\"col-md-9 pull-left\">\n <p>The  Information Systems Branch supports Agriculture and Agri-Food Canada (AAFC)'s  delivery of agriculture programs by designing, developing and maintaining the  information-based and knowledge-based systems used to connect staff, producers,  and the public with agriculture information and knowledge resources.</p>\n <section class=\"alert alert-info mrgn-tp-sm pull-left\">\n   <h2>IT Centre TI</h2>\n   <div class=\"col-md-12 mrgn-bttm-0\">\n  <div class=\"col-md-5 small\">\n    <h3>How to Access</h3>\n    <p class=\"mrgn-tp-0\"><a href=\"?id=1313593700518\">Technical support</a></p>\n    <p><a href=\"mailto:Service@itcentreti.collaboration.gc.ca\">Service@itcentreti.collaboration.gc.ca</a></p>\n    <p>1-855-545-4411<br>\n   Canada and International Toll-free</p>\n  </div>\n  <div class=\"col-md-3 mrgn-bttm-md small\">\n    <h3>Hours of Service</h3>\n    <p>Monday to Friday<br>\n   6:00\u00a0a.m. to 8:00\u00a0p.m. Eastern Standard Time (EST)</p>\n  </div>\n  <div class=\"col-md-4 mrgn-bttm-sm small\">\n    <h3>IT\u00a0Centre\u00a0TI Kiosk (National  Capital Region)</h3>\n    <p>National Headquarters of the Canadian Agriculture Portfolio (NHCAP), T5-1-323<br>\n   Hours of Service: 8:00\u00a0a.m. to 5:00\u00a0p.m.\u00a0EST on regular business days</p>\n  </div>\n   </div>\n </section>\n <h2>Services and information</h2>\n <div class=\"row\">\n   <section class=\"col-md-6\">\n  <h3 class=\"h5\"><a href=\"display-afficher.do?id=1326485346294&amp;lang=eng\">Standards, Architecture, and Security</a></h3>\n  <p class=\"mrgn-tp-0\"> Responsible for creating and maintaining a  secure and uniform architecture for AAFC's Information Management and  Information Technology (IM/IT) infrastructure. </p>\n   </section>\n   <section class=\"col-md-6\">\n  <h3 class=\"h5\"><a href=\"https://fsl-bsf.scitech.gc.ca/eng/intranet/home/\">Canadian Agriculture Library</a></h3>\n  <p class=\"mrgn-tp-0\"> Access resources and specialized databases from Agriculture and Agri-Food Canada as well as those from six other federal science libraries.</p>\n   </section>\n </div>\n <div class=\"row\">\n   <section class=\"col-md-6\">\n  <h3 class=\"h5\"><a href=\"display-afficher.do?id=1363178456231&amp;lang=eng\">Information Management Program</a></h3>\n  <p class=\"mrgn-tp-0\"> Provides a framework for managing data,  information resources, and information technology investment. </p>\n   </section>\n   <section class=\"col-md-6\">\n  <h3 class=\"h5\"><a href=\"display-afficher.do?id=1327517198373&amp;lang=eng\">Records Management Services</a></h3>\n  <p class=\"mrgn-tp-0\"> Provides advisory services in support of  departmental business and regulatory requirements for records management. </p>\n   </section>\n </div>\n <div class=\"row\">\n   <section class=\"col-md-6\">\n  <h3 class=\"h5\"><a href=\"?id=1313604051647#a\">Client Self-Service</a></h3>\n  <p class=\"mrgn-tp-0\"> AgriClient, DirectInfo, Listserv, etc. </p>\n   </section>\n   <section class=\"col-md-6\">\n  <h3 class=\"h5\"><a href=\"?id=1313604051647#b\">Communicating, Meeting and Collaboration</a></h3>\n  <p class=\"mrgn-tp-0\"> DirectInfo, Instant Messaging, Knowledge  Workspace, Listserv, Mobile devices, Web Publishing, etc. </p>\n   </section>\n </div>\n <div class=\"row\">\n   <section class=\"col-md-6\">\n  <h3 class=\"h5\"><a href=\"?id=1313604051647#c\">Corporate Applications</a></h3>\n  <p class=\"mrgn-tp-0\"> ECMS, Enterprise Management Information System, PeopleSoft, SAP </p>\n   </section>\n   <section class=\"col-md-6\">\n  <h3 class=\"h5\"><a href=\"?id=1313604051647#d\">Information Management</a></h3>\n  <p class=\"mrgn-tp-0\"> Access to Information and Privacy, AgriDoc, National Capital Region (NCR) Mail Services,  etc. </p>\n   </section>\n </div>\n <div class=\"row\">\n   <section class=\"col-md-6\">\n  <h3 class=\"h5\"><a href=\"?id=1313604051647#ra\">Remote Access</a></h3>\n  <p class=\"mrgn-tp-0\"> AgriApps, myKEY, Secure Remote Access Service </p>\n   </section>\n   <section class=\"col-md-6\">\n  <h3 class=\"h5\"><a href=\"?id=1313604051647#g\">Telecommunications (Shared Services Canada)</a></h3>\n  <p class=\"mrgn-tp-0\"> Processes, roles and responsibilities </p>\n   </section>\n </div>\n <div class=\"row\">\n   <section class=\"col-md-6\">\n  <h3 class=\"h5\"><a href=\"?id=1313604051647#e\">Training</a></h3>\n  <p class=\"mrgn-tp-0\"> AgriDocs, TRECS </p>\n   </section>\n   <section class=\"col-md-6\">\n  <h3 class=\"h5\"><a href=\"?id=1287431560148\">Polices and Guidelines</a></h3>\n  <p class=\"mrgn-tp-0\"> Protect the Department's information assets and  technology from unauthorized access or disclosure, and to shield the  organization and employees from legal liability. </p>\n   </section>\n </div>\n  </div>\n</div>\n\t\t</section>",
        "fr": "<section>\n\t\t\t  \n<div class=\"row\">\n<div class=\"col-md-3 pull-right\">\n  <img src=\"https://intranet.agr.gc.ca/resources/prod/images/isb_dgsi/information_systems_branch2.jpg\" alt=\"\" class=\"img-responsive mrgn-bttm-md\">\n  <section class=\"panel panel-primary\">\n    <header class=\"panel-heading\">\n      <h2 class=\"panel-title\">Les plus populaires</h2>\n    </header>\n    <div class=\"panel-body\">\n      <ul class=\"list-unstyled lst-spcd\">\n        <li><a href=\"https://collab.agr.gc.ca/co/isb-sp_dgsi-ps/Documents/ISB%20Planning,%20Reporting%20and%20Risk/2016-17/ISB%202016-17%20Branch%20Plan%20(FRENCH).pdf\">Plan de la Direction g\u00e9n\u00e9rale pour 2016-2017 (PDF)</a> <span class=\"hidden\">AGR 5547863</span></li>\n        <li><a href=\"https://intranet.agr.gc.ca/agrisource/AgriDoc.do?id=102222750&amp;lang=fra\" target=\"_blank\">R\u00e9alisations de fin d'exercice de la Direction g\u00e9n\u00e9rale pour 2015-2016 (PDF)</a></li>\n        <li><a href=\"?id=1583937919000#dgsi\">Organigramme de la haute direction de la Direction g\u00e9n\u00e9rale</a></li>\n      </ul>\n    </div>\n  </section>\n  \n  <section class=\"panel panel-primary\">\n    <header class=\"panel-heading\">\n      <h2 class=\"panel-title\">Contactez-nous</h2>\n    </header>\n    <div class=\"panel-body\"> <a href=\"http://directinfo.agr.gc.ca/directInfo/fra/index.php?fuseaction=agriInfo.orgUnit&amp;dn=OU=ISB-DGSI,OU=AAFC-AAC,O=GC,C=CA\" title=\"DirectInfo\">Structure et personnel de la Direction g\u00e9n\u00e9rale des  syst\u00e8mes d'information (DirectInfo)</a></div>\n  </section>\n</div>\n\n<div class=\"col-md-9 pull-left\">\n  <p>La Direction g\u00e9n\u00e9rale des syst\u00e8mes d'information  (DGSI) soutient l'ex\u00e9cution des programmes agricoles du Minist\u00e8re en concevant,  \u00e9laborant et mettant \u00e0 jour des syst\u00e8mes d'information utilis\u00e9s pour lier le  personnel, les producteurs et le grand public \u00e0 l'information sur l'agriculture  et aux ressources en mati\u00e8re de connaissances.</p>\n  \n  <section class=\"alert alert-info mrgn-tp-sm pull-left\">\n    <h2>IT Centre TI</h2>\n    <div class=\"col-md-12 mrgn-bttm-0\">\n      <div class=\"col-md-5 small\">\n        <h3>Comment y acc\u00e9der</h3>\n        <p class=\"mrgn-tp-0\"><a href=\"?id=1313593700518\">Soutien technique</a></p>\n        <p><a href=\"mailto:Service@itcentreti.collaboration.gc.ca\">Service@itcentreti.collaboration.gc.ca</a></p>\n        <p>1-855-545-4411<br>\n          Sans frais au Canada et \u00e0 l'\u00e9tranger</p>\n      </div>\n      <div class=\"col-md-3 mrgn-bttm-md small\">\n        <h3>Heures de service</h3>\n        <p>Du lundi au vendredi<br>\n          De 6 h \u00e0 20 h, heure normale de l'Est (HNE)</p>\n      </div>\n      <div class=\"col-md-4 mrgn-bttm-sm small\">\n        <h3>Guichet IT Centre TI (R\u00e9gion de la capitale nationale)</h3>\n        <p>Complexe de l'administration centrale du portefeuille de l'Agriculture (CACPA), T5-1-323<br>\n          Heures de service du guichet : 8 h \u00e0 17 h HNE (journ\u00e9e de travail normale)</p>\n      </div>\n    </div>\n  </section>\n  \n  <h2>Services et renseignements</h2>\n  <div class=\"row\">\n    <section class=\"col-md-6\">\n      <h3 class=\"h5\"><a href=\"?id=1313604051647#ad\">Acc\u00e8s \u00e0 distance</a></h3>\n      <p class=\"mrgn-tp-0\"> AgriApps,  MaCl\u00e9, Service d'acc\u00e8s \u00e0 distance s\u00e9curis\u00e9</p>\n    </section>\n    <section class=\"col-md-6\">\n      <h3 class=\"h5\"><a href=\"?id=1313604051647#e\">Applications  minist\u00e9rielles</a></h3>\n      <p class=\"mrgn-tp-0\"> SGCHD,\u00a0Syst\u00e8me  d'information de la gestion Enterprise, PeopleSoft, SAP </p>\n    </section>\n    </div>\n    <div class=\"row\">\n      <section class=\"col-md-6\">\n        <h3 class=\"h5\"><a href=\"https://fsl-bsf.scitech.gc.ca/fra/intranet/accueil/\">Biblioth\u00e8que  canadienne de l'agriculture</a></h3>\n        <p class=\"mrgn-tp-0\"> Acc\u00e9dez aux ressources et aux bases de donn\u00e9es sp\u00e9cialis\u00e9es d'Agriculture et agroalimentaire Canada ainsi qu'\u00e0 toutes les ressources de six autres biblioth\u00e8ques scientifiques f\u00e9d\u00e9rales.</p>\n      </section>\n      <section class=\"col-md-6\">\n        <h3 class=\"h5\"><a href=\"?id=1313604051647#a\">Communications,  r\u00e9unions et collaboration</a></h3>\n        <p class=\"mrgn-tp-0\"> DirectInfo, messagerie  instantan\u00e9e, Espace de travail du savoir, liste de diffusion, appareils mobiles,  publication Web, etc.</p>\n      </section>\n    </div>\n    <div class=\"row\">\n      <section class=\"col-md-6\">\n        <h3 class=\"h5\"><a href=\"?id=1313604051647#b\">Formation</a></h3>\n        <p class=\"mrgn-tp-0\"> AgriDOC, SSRCHD</p>\n      </section>\n      <section class=\"col-md-6\">\n        <h3 class=\"h5\"><a href=\"?id=1313604051647#c\">Gestion de  l'information</a></h3>\n        <p class=\"mrgn-tp-0\"> Acc\u00e8s \u00e0 l'information et  protection des renseignements personnels, AgriDOC,\u00a0Services de courrier de  la r\u00e9gion de la capitale nationale (RCN), etc. </p>\n      </section>\n    </div>\n    <div class=\"row\">\n      <section class=\"col-md-6\">\n        <h3 class=\"h5\"><a href=\"?id=1326485346294\">Normes, architecture et s\u00e9curit\u00e9</a></h3>\n        <p class=\"mrgn-tp-0\"> Cr\u00e9er et maintenir une  architecture uniforme et s\u00e9curis\u00e9e pour l'infrastructure de la gestion de  l'information et de la technologie de l'information (GI-TI) d'AAC. </p>\n      </section>\n      <section class=\"col-md-6\">\n        <h3 class=\"h5\"><a href=\"?id=1313604051647#d\">Libre-service  pour les clients</a></h3>\n        <p class=\"mrgn-tp-0\"> AgriClient, DirectInfo, liste  de diffusion, etc. </p>\n      </section>\n    </div>\n    <div class=\"row\">\n      <section class=\"col-md-6\">\n        <h3 class=\"h5\"><a href=\"?id=1287431560148\">Politiques et lignes directrices</a> \n        </h3>\n        <p class=\"mrgn-tp-0\"> Prot\u00e9ger les ressources  d'information et la technologie du Minist\u00e8re contre l'acc\u00e8s ou la divulgation  non autoris\u00e9s, et prot\u00e9ger l'organisation et les employ\u00e9s contre d'\u00e9ventuelles  poursuites. </p>\n      </section>\n      <section class=\"col-md-6\">\n        <h3 class=\"h5\"><a href=\"?id=1363178456231\">Programme de gestion de l'information</a></h3>\n        <p class=\"mrgn-tp-0\"> Fournir un cadre pour la  gestion de donn\u00e9es, des ressources d'information et des investissements en  technologie de l'information.</p>\n      </section>\n    </div>\n    <div class=\"row\">\n      <section class=\"col-md-6\">\n        <h3 class=\"h5\"><a href=\"?id=1327517198373\">Services de gestion de dossiers</a></h3>\n        <p class=\"mrgn-tp-0\"> Fournir des services consultatifs \u00e0 l'appui des exigences op\u00e9rationnelles  et r\u00e9glementaires du Minist\u00e8re concernant la gestion de dossiers.</p>\n      </section>\n      <section class=\"col-md-6\">\n        <h3 class=\"h5\"><a href=\"?id=1313604051647#ff\">T\u00e9l\u00e9communications  (Services partag\u00e9s Canada)</a></h3>\n        <p class=\"mrgn-tp-0\"> Processus, r\u00f4les et  responsabilit\u00e9s </p>\n      </section>\n    </div>\n    </div>\n    </div>\n\t\t</section>"
    }
}