{
    "has_dcr_id": true,
    "node_id": "1279030343272",
    "parent_node_id": "1279029900850",
    "dcr_id": "1287488508793",
    "landingPageUrl": {
        "en": "1287488508793",
        "fr": "1287488508793"
    },
    "title": {
        "en": "null",
        "fr": "null"
    },
    "breadcrumb": {
        "en": "Corporate Management Branch",
        "fr": "Direction g\u00e9n\u00e9rale de la gestion int\u00e9gr\u00e9e"
    },
    "type": "find_people",
    "meta": {
        "issued": {
            "en": "2010-11-09",
            "fr": "2010-11-09"
        },
        "modified": {
            "en": "2020-08-07",
            "fr": "2020-08-07"
        },
        "format": {
            "en": "gcformat",
            "fr": "gcformat"
        },
        "title": {
            "en": "Corporate Management Branch",
            "fr": "Direction g\u00e9n\u00e9rale de la gestion int\u00e9gr\u00e9e"
        },
        "subject": {
            "en": "finance;property management;security",
            "fr": "finances;gestion des biens;s\u00e9curit\u00e9"
        },
        "description": {
            "en": "The Corporate Management Branch (CMB) helps the department achieve strategic outcomes and priorities while exercising sound stewardship of its resources. This ensures the department can meet operational requirements and deliver quality programs and services to Canadians.",
            "fr": "La Direction g\u00e9n\u00e9rale de la gestion int\u00e9gr\u00e9e (DGGI) aide le minist\u00e8re \u00e0 atteindre ses objectifs strat\u00e9giques tout en g\u00e9rant de mani\u00e8re efficace ses ressources. Ainsi, le minist\u00e8re peut satisfaire ses exigences op\u00e9rationnelles et offrir aux Canadiens des programmes et des services de qualit\u00e9."
        },
        "language": {
            "en": "eng",
            "fr": "fra"
        },
        "keywords": {
            "en": "organizational structure",
            "fr": "structure organisationnelle"
        },
        "audience": {
            "en": "gcaudience",
            "fr": "gcaudience"
        },
        "type": {
            "en": "organizational description",
            "fr": "description de l'organisation"
        },
        "creator": {
            "en": "Agriculture and Agri-Food Canada",
            "fr": "Agriculture et Agroalimentaire Canada"
        },
        "spatial": {
            "en": "gcregions",
            "fr": "gcregions"
        },
        "service": {
            "en": "AAFC_AgriSource",
            "fr": "AAC_AgriSource"
        },
        "accessRights": {
            "en": "3",
            "fr": "3"
        }
    },
    "body": {
        "en": "<section>\n\t\t\t  \n\n \n\n<div class=\"row\">\n  <div class=\"col-md-3 pull-right\">\n  <img src=\"https://intranet.agr.gc.ca/resources/prod/images/cmb_dggi/corporate_management_branch2.jpg\" class=\"mrgn-bttm-md img-responsive\" alt=\"\">\n <section class=\"panel panel-primary\">\n   <header class=\"panel-heading\">\n  <h2 class=\"panel-title\">Most requested</h2>\n   </header>\n   <div class=\"panel-body\">\n  <ul class=\"list-unstyled lst-spcd\">\n    <li><a href=\"https://intranet.agr.gc.ca/agrisource/AgriDoc.do?id=2852256&amp;lang=eng\" target=\"_blank\">Planning and Reporting Calendar (PDF)</a></li>\n    <li><a href=\"https://intranet.agr.gc.ca/agrisource/AgriDoc.do?id=100399087&amp;lang=eng\" target=\"_blank\">Branch Executive organizational chart (PDF)</a></li>\n    </ul>\n   </div>\n </section>\n <section class=\"panel panel-primary\">\n   <header class=\"panel-heading\">\n  <h2 class=\"panel-title\">Contact us</h2>\n   </header>\n   <div class=\"panel-body\"><a href=\"http://directinfo.agr.gc.ca/cgi-bin/x500_OrgUnitDet?lang=0&amp;DN=OU=CMB-DGGI,OU=AAFC-AAC,O=GC,C=CA\" title=\"DirectInfo\">Corporate Management Branch structure and staff (DirectInfo)</a> </div>\n </section>\n  </div>\n\n  <div class=\"col-md-9 pull-left\">\n <p>The Corporate Management Branch (CMB) helps the Department achieve strategic outcomes and priorities while exercising sound stewardship of its resources. This ensures the Department can meet operational requirements and deliver quality programs and services to Canadians.</p>\n\n<h2>Services and information</h2>\n\n\n<div class=\"row\">\n<section class=\"col-md-6\">\n  <h3 class=\"h5\"><a href=\"display-afficher.do?id=1287499252293&amp;lang=eng\">Asset Management and Capital Planning Directorate</a></h3><p class=\"mrgn-tp-0\">\nEnsures sound management of department assets in  order to meet operational requirements and deliver on priorities.</p>\n</section>\n\n<section class=\"col-md-6\">\n  <h3 class=\"h5\"><a href=\"display-afficher.do?id=1287498451322&amp;lang=eng\">Finance and Resource Management Services Directorate</a></h3><p class=\"mrgn-tp-0\">\n  Responsible for sound management, stewardship and policy and program decision-making through the provision of timely, robust and relevant financial information, services and advice.</p>\n</section>\n</div>\n\n<div class=\"row\">\n<section class=\"col-md-6\">\n  <h3 class=\"h5\"><a href=\"display-afficher.do?id=1287759034537&amp;lang=eng\">Human Resources Directorate</a></h3><p class=\"mrgn-tp-0\">\n  Provides Human Resources management policies, programs and services that support the objectives of the department's policy framework and business results.</p>\n</section>\n<section class=\"col-md-6\">\n  <h3 class=\"h5\"><a href=\"display-afficher.do?id=1287498938199&amp;lang=eng\">Strategic Management Directorate</a></h3><p class=\"mrgn-tp-0\">\n  Provides department-wide advice, information and services in support of the Department's management accountability framework, corporate planning and reporting, and integrated risk and opportunity management.</p>\n</section>\n</div>\n\n\n<div class=\"row\">\n\n<section class=\"col-md-6\">\n  <h3 class=\"h5\"><a href=\"?id=1287487950140\">Canadian Pari-Mutuel Agency</a></h3><p class=\"mrgn-tp-0\">\n  Regulates and supervises pari-mutuel betting on horse racing at racetracks across Canada, reports to the Assistant Deputy Minister, CMB.</p>\n</section>\n<section class=\"col-md-6\">  <h3 class=\"h5\"><a href=\"display-afficher.do?id=1287431560148&amp;lang=eng\">Polices and Guidelines</a></h3>\n<p class=\"mrgn-tp-0\">\nCMB's policies and guidelines on Asset Management and Capital Planning and Finance and Resource Management.\n</p></section>\n\n</div>\n\n\n<div class=\"row\">\n<section class=\"col-md-6\">\n  <h3 class=\"h5\"><a href=\"display-afficher.do?id=1320429524077&amp;lang=eng\">Services</a></h3>\n  <p class=\"mrgn-tp-0\">\nCMB's services for Asset Management and Capital Planning, Finance and Resource Management, Security, Strategic Management and Training.</p>\n</section>\n</div>\n</div>\n</div>\n\t\t</section>",
        "fr": "<section>\n\t\t\t   \n\n<div class=\"row\">\n  <div class=\"col-md-3 pull-right\">\n    <img src=\"https://intranet.agr.gc.ca/resources/prod/images/cmb_dggi/corporate_management_branch2.jpg\" class=\"mrgn-bttm-md img-responsive\" alt=\"\">\n    <section class=\"panel panel-primary\">\n      <header class=\"panel-heading\">\n  <h2 class=\"panel-title\">Les plus populaires</h2>\n      </header>\n      <div class=\"panel-body\">\n  <ul class=\"list-unstyled lst-spcd\">\n       <li><a href=\"https://intranet.agr.gc.ca/agrisource/AgriDoc.do?id=2852254&amp;lang=fra\" target=\"_blank\">Calendrier de la planification et des rapports (PDF)</a></li>\n       <li><a href=\"https://intranet.agr.gc.ca/agrisource/AgriDoc.do?id=100398950&amp;lang=fra\" target=\"_blank\">Organigramme de la Direction g\u00e9n\u00e9rale de la gestion int\u00e9gr\u00e9e (PDF)</a></li>\n  </ul>\n</div>\n    </section>\n    <section class=\"panel panel-primary\">\n      <header class=\"panel-heading\">\n  <h2 class=\"panel-title\">Contactez-nous</h2>\n      </header>\n      <div class=\"panel-body\">\n  <p><a href=\"http://directinfo.agr.gc.ca/directInfo/fra/index.php?fuseaction=agriInfo.orgUnit&amp;dn=OU=CMB-DGGI,OU=AAFC-AAC,O=GC,C=CA\" title=\"DirectInfo\">Structure et personnel de la Direction g\u00e9n\u00e9rale de la gestion int\u00e9gr\u00e9e (DirectInfo)</a></p>\n      </div>\n    </section>\n  </div>\n\n  <div class=\"col-md-9 pull-left\">\n    <p>La Direction g\u00e9n\u00e9rale de la gestion int\u00e9gr\u00e9e (DGGI) aide le Minist\u00e8re \u00e0 atteindre des r\u00e9sultats strat\u00e9giques et \u00e0 respecter ses priorit\u00e9s tout en exer\u00e7ant une saine gestion de ses ressources. Le Minist\u00e8re peut ainsi r\u00e9pondre \u00e0 ses besoins op\u00e9rationnels et offrir des programmes et des services de qualit\u00e9 aux Canadiens.</p>\n\n<h2>Services et renseignements</h2>\n\n\n<div class=\"row\">\n<section class=\"col-md-6\">\n  <h3 class=\"h5\"><a href=\"display-afficher.do?id=1287499252293&amp;lang=fra\">Direction de la gestion des biens et  planification des immobilisations</a></h3>\n  \n <p class=\"mrgn-tp-0\">Elle assure la saine  gestion des biens du Minist\u00e8re afin de respecter les exigences op\u00e9rationnelles  et les priorit\u00e9s.</p>\n</section>\n\n<section class=\"col-md-6\">\n <h3 class=\"h5\"><a href=\"display-afficher.do?id=1287498451322&amp;lang=fra\">Direction des services des finances  et de la gestion des ressources</a></h3>\n \n <p class=\"mrgn-tp-0\">Elle a pour t\u00e2che d'assurer  une bonne gestion, une intendance saine et des d\u00e9cisions \u00e9clair\u00e9es concernant  les politiques et les programmes en fournissant des renseignements, des  services et des conseils financiers utiles, solides et opportuns.</p>\n</section>\n</div>\n\n<div class=\"row\">\n<section class=\"col-md-6\">\n <h3 class=\"h5\"><a href=\"display-afficher.do?id=1287759034537&amp;lang=fra\">Direction  des ressources humaines</a></h3>\n \n <p class=\"mrgn-tp-0\">Elle fournit des services,  des programmes et des politiques de gestion des ressources humaines \u00e0 l'appui  des objectifs du cadre strat\u00e9gique et des r\u00e9sultats op\u00e9rationnels du Minist\u00e8re.</p>\n</section>\n\n<section class=\"col-md-6\">\n <h3 class=\"h5\"><a href=\"display-afficher.do?id=1287498938199&amp;lang=fra\">Direction  de la gestion strat\u00e9gique</a></h3>\n \n <p class=\"mrgn-tp-0\">Elle  fournit des conseils, de l'information et des services \u00e0 l'\u00e9chelle du Minist\u00e8re  afin de soutenir le cadre de responsabilisation de gestion, la planification et  les rapports minist\u00e9riels ainsi que la gestion int\u00e9gr\u00e9e des risques et des  possibilit\u00e9s. </p></section>\n</div>\n\n\n<div class=\"row\">\n\n<section class=\"col-md-6\">\n <h3 class=\"h5\"><a href=\"display-afficher.do?id=1287487950140&amp;lang=fra\">Agence canadienne du pari mutuel</a></h3>\n \n <p class=\"mrgn-tp-0\">Elle r\u00e9glemente et supervise  les paris mutuels sur les courses de chevaux ayant lieu dans les hippodromes  partout au Canada. De plus, elle rel\u00e8ve du sous-ministre adjoint, DGGI.</p>\n</section>\n\n<section class=\"col-md-6\">  \n <h3 class=\"h5\"><a href=\"display-afficher.do?id=1287431560148&amp;lang=fra\">Politiques et lignes  directrices</a></h3>\n \n <p class=\"mrgn-tp-0\">Politiques et lignes  directrices de la DGGI sur la gestion des biens et la planification des  immobilisations ainsi que sur la gestion des finances et des ressources.</p></section>\n\n</div>\n\n\n<div class=\"row\">\n<section class=\"col-md-6\">\n <h3 class=\"h5\"><a href=\"display-afficher.do?id=1320429524077&amp;lang=fra\">Services</a></h3>\n \n <p class=\"mrgn-tp-0\">Services  de la DGGI en mati\u00e8re de gestion des biens et de planification des  immobilisations, de gestion des finances et des ressources, de s\u00e9curit\u00e9, de  gestion strat\u00e9gique et de formation.</p></section>\n</div>\n\n</div>\n</div>\n\t\t</section>"
    }
}