{
    "has_dcr_id": true,
    "node_id": "1279029750897",
    "parent_node_id": "1279029750897",
    "dcr_id": "1287261736402",
    "landingPageUrl": {
        "en": "1287261736402",
        "fr": "1287261736402"
    },
    "parent_dcr_id": "1287261736402",
    "breadcrumb": {
        "en": "Home",
        "fr": "Accueil"
    },
    "node_title": {
        "en": "null",
        "fr": "null"
    },
    "title": {
        "en": "Home",
        "fr": "Accueil"
    },
    "type": "Home",
    "meta": {
        "issued": {
            "en": "2010-11-02",
            "fr": "2010-11-02"
        },
        "modified": {
            "en": "2020-10-09",
            "fr": "2020-10-09"
        },
        "format": {
            "en": "gcformat",
            "fr": "gcformat"
        },
        "title": {
            "en": "AgriSource - Home page",
            "fr": "AgriSource - Page d'accueil"
        },
        "subject": {
            "en": "Government on-line;Web publishing",
            "fr": "Gouvernement en direct;Publication sur le Web"
        },
        "description": {
            "en": "AgriSource is the Department's intranet site. It is a comprehensive source for AAFC corporate news, information, tools and services. It helps support our Team-based way of working as one Department and helps us to deliver on our business outcomes through better access to information and services.",
            "fr": "AgriSource est le site intranet du Minist\u00e8re. Il s'agit d'une source compl\u00e8te de nouvelles, d'information, d'outils et de services minist\u00e9riels. Gr\u00e2ce \u00e0 un meilleur acc\u00e8s \u00e0 l'information et aux services, ce site contribue \u00e0 appuyer notre fa\u00e7on de travailler en \u00e9quipe en tant que minist\u00e8re unifi\u00e9 et il nous aide \u00e0 obtenir les r\u00e9sultats op\u00e9rationnels attendus."
        },
        "language": {
            "en": "eng",
            "fr": "fra"
        },
        "keywords": {
            "en": "Service Notices, Events, Employment Opportunities",
            "fr": "Avis, \u00c9v\u00e9nements, Possibilit\u00e9s d\u2019emploi"
        },
        "audience": {
            "en": "gcaudience",
            "fr": "gcaudience"
        },
        "type": {
            "en": "Resource list",
            "fr": "liste de r\u00e9f\u00e9rence"
        },
        "creator": {
            "en": "Agriculture and Agri-Food Canada",
            "fr": "Agriculture et Agroalimentaire Canada"
        },
        "spatial": {
            "en": "gcregions",
            "fr": "gcregions"
        },
        "service": {
            "en": "AAFC_AgriSource",
            "fr": "AAC_AgriSource"
        },
        "accessRights": {
            "en": "3",
            "fr": "3"
        }
    },
    "body": {
        "en": "<section>\n\t\t\t  \n\n<section>\n<div class=\"row\">\n<div class=\"col-md-9\">\n\n<aside>\n<div class=\"row\">\n<h2 class=\"wb-inv\">Featured</h2>\n<div class=\"wb-tabs carousel-s2 show-thumbs playing slow\">\n<ul role=\"tablist\">\n\n\n<li class=\"col-sm-2 active\"><a href=\"#tab1\" title=\"Tab 1: Disability Employment Awareness Month\"><img src=\"https://intranet.agr.gc.ca/resources/prod/images/home_page/carousel/disability_employment_awareness-en.jpg\" alt=\"Disability Employment Awareness Month\"> </a></li>\n\n<li class=\"col-sm-2\"><a href=\"#tab2\" title=\"Tab 2: Information for employees on easing COVID-19 restrictions\"><img src=\"https://intranet.agr.gc.ca/resources/prod/images/home_page/carousel/23901_covid_newlook_sm-eng.jpg\" alt=\"Charting the way forward together\"></a></li>\n\n<li class=\"col-sm-2\"><a href=\"#tab3\" title=\"Tab 3: Give now\"><img src=\"https://intranet.agr.gc.ca/resources/prod/images/home_page/carousel/gcwcc_agrisource-eng.jpg\" alt=\"GCWCC - Cultivating our spirit of sharing\"></a></li>\n</ul>\n\n<div class=\"tabpanels\">\n\n\n\n<div role=\"tabpanel\" id=\"tab1\" class=\"in fade\">\n<a href=\"https://intranet.agr.gc.ca/agrisource/eng/newswork/october-is-disability-employment-awareness-month?id=1601996657285\">\n<figure>\n<img src=\"https://intranet.agr.gc.ca/resources/prod/images/home_page/carousel/disability_employment_awareness-en.jpg\" alt=\"Disability Employment Awareness Month\">\n<figcaption>\n<p>Disability Employment Awareness Month</p>\n</figcaption>\n</figure>\n</a>\n</div>\n\n\n<div role=\"tabpanel\" id=\"tab2\" class=\"out fade\">\n<a href=\"https://multimedia.agr.gc.ca/COVID-19/index-eng.html\">\n<figure>\n<img src=\"https://intranet.agr.gc.ca/resources/prod/images/home_page/carousel/23901_covid_newlook_sm-eng.jpg\" alt=\"Charting the way forward together\">\n<figcaption>\n<p>Information for employees during the COVID-19 pandemic</p>\n</figcaption>\n</figure>\n</a>\n</div>\n\n<div role=\"tabpanel\" id=\"tab3\" class=\"out fade\">\n<a href=\"https://www.canada.ca/en/campaign/charitable/give-now.html\">\n<figure>\n<img src=\"https://intranet.agr.gc.ca/resources/prod/images/home_page/carousel/gcwcc_agrisource-eng.jpg\" alt=\"GCWCC - Cultivating our spirit of sharing\">\n<figcaption>\n<p>Give now</p>\n</figcaption>\n</figure>\n</a>\n</div>\n\n\n</div>\n</div>\n</div>\n</aside>  \n\n\n\n\n<h2>Services and information</h2>\n<p>Get quick, easy access to services and information for Agriculture and Agri-Food Canada (AAFC) employees.</p>\n<div class=\"row\">\n<section class=\"col-md-4\">\n<h3 class=\"h5\"><a href=\"?id=1309887212500\">Employment opportunities</a></h3>\n<p>Acting, assignment, deployment opportunities</p>\n</section>\n\n<section class=\"col-md-4\">\n<h3 class=\"h5\"><a href=\"?id=1288026680821\">PeopleSoft</a></h3>\n<p>Leave, personal information, learning and development</p>\n</section>\n\n<section class=\"col-md-4\">\n<h3 class=\"h5\"><a href=\"?id=1511367056518\">Pay, benefits and Phoenix</a></h3>\n<p>Get help with your pay, learn about your pension and benefits, access Phoenix tools and training for employees and managers.</p> \n</section>\n</div>\n\n<div class=\"row\">\n<section class=\"col-md-4\">\n<h3 class=\"h5\"><a href=\"?id=1287674550306\">Performance management</a></h3>\n<p>Performance agreement, mid-year review, year-end assessment, action plan, talent management</p>\n</section>\n\n<section class=\"col-md-4\">\n<h3 class=\"h5\"><a href=\"https://fsl-bsf.scitech.gc.ca/eng/intranet/home/\">Canadian Agriculture Library</a></h3>\n<p>Journal articles, books, e-books,  specialized databases, federal science libraries</p>\n</section>\n\n<section class=\"col-md-4\">\n<h3 class=\"h5\"><a href=\"?id=1314719697163\">Travel</a></h3>\n<p>Business travel, travel costs, approvals, prepare for travel, expense reports</p>\n</section>\n</div>\n\n\n<div class=\"row\">\n<section class=\"col-md-4\">\n<h3 class=\"h5\"><a href=\"?id=1306503292350\">Learning and development</a></h3>\n<p>Training, Canada School of Public Service learning products and courses, informal learning activities</p>  \n</section>\n\n<section class=\"col-md-4\">\n<h3 class=\"h5\"><a href=\"?id=1298922166577\">Translation and revision services</a></h3>\n<p>Translation, revision, editing, proofreading, linguistic services planning and linguistic advice</p>   \n</section>\n\n<section class=\"col-md-4\">\n<h3 class=\"h5\"><a href=\"?id=1321562720661\">Occupational health and safety</a></h3>\n<p>Accident reporting, legislation and directives, governance, training, hazard prevention, policies, guidelines and tools, forms</p>   \n</section>\n</div>\n\n<div class=\"row\">\n<section class=\"col-md-4\">\n<h3 class=\"h5\"><a href=\"?id=1313593700518\">IT support</a></h3>\n<p>IT services and support, information management issues</p>   \n</section>\n\n<section class=\"col-md-4\">\n<h3 class=\"h5\"><a href=\"?id=1329492520008\">Staffing</a></h3>\n<p>Staffing actions, programs, guidelines, positions</p>   \n</section>\n\n\n<section class=\"col-md-4\">\n<h3 class=\"h5\"><a href=\"https://forms-formulaires.agr.gc.ca/home.cfm?lang=eng&amp;category=5\">Forms catalogue</a></h3>\n<p>Forms alphabetically and by number, title and category</p>   \n</section>\n</div>\n\n\n\n<!--section class=\"col-md-4\">\n<h3 class=\"h5\"><a href=\"?id=1311865754938\">news@work</a></h3>\n<p>Read articles on new government and departmental initiatives.</p>\n</section-->\n\n\n</div>\n\n<div class=\"col-md-3\">\n\n<section>\n<h3>Find a colleague</h3>\n<form class=\"form-inline\" name=\"qsForm\" action=\"http://directinfo.agr.gc.ca/directInfo/eng/index.php\" target=\"_self\" method=\"get\">\n<input type=\"hidden\" name=\"qsType\" value=\"qsEmp\">\n<input type=\"text\" name=\"qsBox\" value=\"\" class=\"form-control\" placeholder=\"Search Directinfo\">\n<input type=\"hidden\" name=\"fuseaction\" value=\"agriInfo.qSearchResults\">\n<button type=\"submit\" name=\"qsBtn\" class=\"btn btn-primary btn-small\"><span class=\"glyphicon glyphicon-search\"></span><span class=\"wb-inv\">Search</span></button>\n</form>\n<!--<a href=\"http://geds20-sage20.ssc-spc.gc.ca/en/GEDS20/?pgid=002\">Search Government Electronic Directory Services (GEDS)</a>-->\n</section>\n\n\n<div class=\"clear\"></div>\n\n <div class=\"row\">\n<section class=\"followus mrgn-tp-md mrgn-lft-md mrgn-rght-md\">\n<h3 class=\"wb-inv\">AAFC Social media</h3>\n   <h2>Follow:</h2> \n   <ul> \n    <li><a href=\"https://www.facebook.com/CanadianAgriculture/\" class=\"facebook gl-follow\" rel=\"external\"> <span class=\"wb-inv\">Facebook</span></a></li> \n    <li><a href=\"https://twitter.com/AAFC_Canada\" class=\"twitter gl-follow\" rel=\"external\"> <span class=\"wb-inv\">Twitter</span></a></li> \n    \n    <li><a href=\"https://www.linkedin.com/company/aafc-aac/?viewAsMember=true\" class=\"linkedin gl-follow\" rel=\"external\"><span class=\"wb-inv\">LinkedIn</span></a></li>    \n    \n    <li><a href=\"https://www.youtube.com/user/AgricultureCanadaEng\" class=\"youtube gl-follow\" rel=\"external\"><span class=\"wb-inv\">YouTube</span></a></li> \n   </ul> \n  </section> \n</div>\n\n\n<section> \n<h3 class=\"mrgn-tp-sm\"><a href=\"?id=1311865754938\">news@work</a></h3>\n\n<!--ul class=\"mrgn-tp-md mrgn-lft-0 mrgn-rght-md list-unstyled lst-spcd\"-->\n\n\n</section>\n\n<!--\n<section>\n<h3>AAFC Tweets</h3>\n<div class=\"wb-twitter\">\n                       <a class=\"twitter-timeline\" data-height=\"500\" href=\"https://twitter.com/ChrisWForbes/lists/aafc-and-deputy-minister\">Tweets by AAFC_Canada</a> <script async src=\"https://platform.twitter.com/widgets.js\" charset=\"utf-8\"></script> \n          </div>\n          </section>\n-->\n\n<!--\n<section>\n<h3>AAFC and DM Tweets</h3>\n<div class=\"wb-twitter\">\n                       <a class=\"twitter-timeline\"  data-height=\"500\" href=\"https://twitter.com/ChrisWForbes/lists/aafc-and-dm-forbes\" data-widget-id=\"956197676168687618\">Tweets about from:aafc_canada+OR+from:chriswforbes</a>\n            <script>!function(d,s,id){var js,fjs=d.getElementsByTagName(s)[0],p=/^http:/.test(d.location)?'http':'https';if(!d.getElementById(id)){js=d.createElement(s);js.id=id;js.src=p+\"://platform.twitter.com/widgets.js\";fjs.parentNode.insertBefore(js,fjs);}}(document,\"script\",\"twitter-wjs\");</script>\n          </div>\n          </section>\n-->\n\n\n</div>\n</div>\n\n<h2 class=\"mrgn-tp-lg\">Features</h2>\n\n<div class=\"row\">\n<div class=\"col-md-3\">\n<a href=\"http://intranet.agr.gc.ca/agrisource/eng/our-department/deputy-ministers-corner?id=1288789122212\">\n<h3 class=\"h5\">Deputy Ministers' Corner</h3>\n<img src=\"https://intranet.agr.gc.ca/resources/prod/images/home_page/deputy_min_corner_banner_2019.jpg\" class=\"img-responsive\" alt=\"\">\n</a>\n<p>Visit the Deputy Ministers' Corner for important resources and to keep up to date with the DMs' messages</p>\n</div>\n\n<div class=\"col-md-3\">\n<a href=\"http://intranet.agr.gc.ca/agrisource/eng?id=1511367056518\">\n<h3 class=\"h5\">Pay, benefits, and Phoenix</h3>\n<img src=\"https://intranet.agr.gc.ca/resources/prod/images/home_page/feature_images/phoenix_focus_on-eng.jpg\" class=\"img-responsive\" alt=\"Phoenix pay system\">\n</a>\n<p>Information on pay and benefits including troubleshooting the Phoenix Pay System.</p>\n</div>\n\n\n<div class=\"col-md-3\">\n<a href=\"http://intranet.agr.gc.ca/agrisource/eng/branches-and-offices/office-of-the-ombudsperson?id=1566410288815\">\n<h3 class=\"h5\">Office of the Workplace Well-Being Ombudsperson</h3>\n<img src=\"https://intranet.agr.gc.ca/resources/prod/images/home_page/feature_images/janetaylor-eng.jpg\" class=\"img-responsive\" alt=\"Workplace Well-Being Ombudsperson, Jane Taylor\"></a>\n<p>Learn more about AAFC's Office of the Workplace Well-Being Ombudsperson</p>\n</div>\n\n<div class=\"col-md-3\">\n<a href=\"http://intranet.agr.gc.ca/agrisource/eng?id=1578918214392\">\n<h3 class=\"h5\">Public Service Renewal</h3>\n<img src=\"https://intranet.agr.gc.ca/resources/prod/images/home_page/feature_images/2020a-eng.jpg\" class=\"img-responsive\" alt=\"Beyond 2020: Agile, Inclusive, Equipped.\"></a>\n<p>Be part of the change you want to see. Beyond2020 is about how we work and how our everyday actions can make a difference.</p>\n</div>\n\n\n</div>\n\n</section>\n\t\t</section>",
        "fr": "<section>\n\t\t\t  \n\n<section>\n<div class=\"row\">\n<div class=\"col-md-9\">\n\n<aside>\n<div class=\"row\">\n<h2 class=\"wb-inv\">Promotions</h2>\n<div class=\"wb-tabs carousel-s2 show-thumbs playing slow\">\n\n<ul role=\"tablist\">\n\n<li class=\"col-sm-2 active\"><a href=\"#tab1\" title=\"Onglet 1 : Mois de la sensibilisation \u00e0 l'emploi des personnes handicap\u00e9es\"><img src=\"https://multimedia.agr.gc.ca/pack/img/disability_employment_awareness-fr.jpg\" alt=\"Mois de la sensibilisation \u00e0 l'emploi des personnes handicap\u00e9es\"></a></li>\n\n<li class=\"col-sm-2\"><a href=\"#tab2\" title=\"Onglet 2 : Renseignements \u00e0 l'intention des employ\u00e9s sur l'assouplissement des restrictions li\u00e9es \u00e0 la COVID-19\"><img src=\"https://multimedia.agr.gc.ca/pack/img/23901_covid_newlook_sm-fra.jpg\" alt=\"Tra\u00e7ons ensemble la voie \u00e0 suivre\"></a></li>\n\n<li class=\"col-sm-2\"><a href=\"#tab3\" title=\"Onglet 3 : Donnez aujourd'hui\"><img src=\"https://intranet.agr.gc.ca/resources/prod/images/home_page/carousel/gcwcc_agrisource-fra.jpg\" alt=\"CCMTGC - Cultivons l'esprit de g\u00e9n\u00e9rosit\u00e9\"></a></li>\n</ul>\n\n<div class=\"tabpanels\">\n\n<div role=\"tabpanel\" id=\"tab1\" class=\"in fade\">\n<a href=\"https://intranet.agr.gc.ca/agrisource/fra/nouvelleslouvrage/octobre-est-le-mois-de-la-sensibilisation-a-lemploi-des-personnes-handicapees?id=1601996657285\">\n<figure>\n<img src=\"https://multimedia.agr.gc.ca/pack/img/disability_employment_awareness-fr.jpg\" alt=\"Mois de la sensibilisation \u00e0 l'emploi des personnes handicap\u00e9es\">\n<figcaption>\n<p>Mois de la sensibilisation \u00e0 l'emploi des personnes handicap\u00e9es</p>\n</figcaption>\n</figure>\n</a>\n</div> \n\n\n<div role=\"tabpanel\" id=\"tab2\" class=\"out fade\">\n<a href=\"https://multimedia.agr.gc.ca/COVID-19/index-fra.html\">\n<figure>\n<img src=\"https://multimedia.agr.gc.ca/pack/img/23901_covid_newlook_sm-fra.jpg\" alt=\"Tra\u00e7ons ensemble la voie \u00e0 suivre\">\n<figcaption>\n<p>Information \u00e0 l'intention des employ\u00e9s pendant la pand\u00e9mie de COVID-19</p>\n</figcaption>\n</figure>\n</a>\n</div> \n\n<div role=\"tabpanel\" id=\"tab3\" class=\"out fade\">\n<a href=\"https://www.canada.ca/fr/campagne/charite/donnez-aujourdhui.html\">\n<figure>\n<img src=\"https://intranet.agr.gc.ca/resources/prod/images/home_page/carousel/gcwcc_agrisource-fra.jpg\" alt=\"CCMTGC - Cultivons l'esprit de g\u00e9n\u00e9rosit\u00e9\">\n<figcaption>\n<p>Donnez aujourd'hui</p>\n</figcaption>\n</figure>\n</a>\n</div>\n\n</div>\n</div>\n</div>\n\n</aside>\n\n\n<h2>Services et renseignements</h2>\n<p>Acc\u00e9dez rapidement et facilement aux services et aux renseignements visant les employ\u00e9s d'Agriculture et Agroalimentaire Canada (AAC).</p>\n<div class=\"row\">\n<section class=\"col-md-4\">\n<h3 class=\"h5\"><a href=\"?id=1309887212500\">Possibilit\u00e9s d'emploi</a></h3>\n<p>Possibilit\u00e9s de nomination int\u00e9rimaire, d'affectation ou de mutation</p>\n</section>\n\n<section class=\"col-md-4\">\n<h3 class=\"h5\"><a href=\"?id=1288026680821\">PeopleSoft</a></h3>\n\n<p>Cong\u00e9s, renseignements personnels, apprentissage et perfectionnement</p>  \n</section>\n\n<section class=\"col-md-4\">\n<h3 class=\"h5\"><a href=\"?id=1511367056518\">R\u00e9mun\u00e9ration, avantages sociaux, et Ph\u00e9nix</a></h3>\n<p>Centre des services de paye de la fonction publique, syst\u00e8me de paye Ph\u00e9nix, avantages sociaux, coordonn\u00e9es, paiement des heures et des services suppl\u00e9mentaires</p> \n</section>\n</div>\n\n<div class=\"row\">\n<section class=\"col-md-4\">\n<h3 class=\"h5\"><a href=\"?id=1287674550306\">Gestion du rendement</a></h3>\n<p>Entente de rendement, examen de mi-exercice, \u00e9valuation de fin d'exercice, plan d'action, gestion des talents</p>\n</section>\n\n<section class=\"col-md-4\">\n<h3 class=\"h5\"><a href=\"https://fsl-bsf.scitech.gc.ca/fra/intranet/accueil/\">Biblioth\u00e8que canadienne de l'agriculture</a></h3>\n<p>Articles de revue, livres, livres \u00e9lectroniques, bases de donn\u00e9es sp\u00e9cialis\u00e9es, Biblioth\u00e8que scientifique f\u00e9d\u00e9rale</p>\n</section>\n\n<section class=\"col-md-4\">\n<h3 class=\"h5\"><a href=\"?id=1314719697163\">Voyages</a></h3>\n<p>Voyages en service command\u00e9, frais de voyage, approbations, pr\u00e9paratifs de voyage, rapports de d\u00e9penses</p>\n</section>\n</div>\n\n<div class=\"row\">\n<section class=\"col-md-4\">\n<h3 class=\"h5\"><a href=\"?id=1306503292350\">Apprentissage et perfectionnement professionnel</a></h3>\n<p>Formation, cours et produits d'apprentissage de l'\u00c9cole de la fonction publique du Canada, activit\u00e9s d'apprentissage informelles</p>  \n</section>\n\n<section class=\"col-md-4\">\n<h3 class=\"h5\"><a href=\"?id=1298922166577\">Services de traduction et de r\u00e9vision</a></h3>\n<p>Traduction, r\u00e9vision bilingue, r\u00e9vision unilingue, correction d'\u00e9preuves, planification des besoins en services linguistiques, conseils linguistiques</p>  \n</section>\n\n<section class=\"col-md-4\">\n<h3 class=\"h5\"><a href=\"?id=1321562720661\">Sant\u00e9 et s\u00e9curit\u00e9 au travail</a></h3>\n<p>Signalement des accidents, lois, r\u00e8glements et directives, gouvernance, formation, pr\u00e9vention des risques, politiques, lignes directrices et outils, formulaires</p>  \n</section>\n</div>\n\n<div class=\"row\">\n<section class=\"col-md-4\">\n<h3 class=\"h5\"><a href=\"?id=1313593700518\">Soutien de la TI</a></h3>\n<p>Services et soutien en mati\u00e8re de TI, questions de gestion de l'information</p>   \n</section>\n\n<section class=\"col-md-4\">\n<h3 class=\"h5\"><a href=\"?id=1329492520008\">Dotation</a></h3>\n<p>Mesures, programmes et guides de dotation, postes</p>   \n</section>\n\n<section class=\"col-md-4\">\n<h3 class=\"h5\"><a href=\"https://forms-formulaires.agr.gc.ca/home.cfm?lang=fr&amp;category=5\">Catalogue des formulaires</a></h3>\n<p>Formulaires class\u00e9s par ordre alphab\u00e9tique et par num\u00e9ro, titre et cat\u00e9gorie</p>   \n</section>\n</div>\n\n\n\n\n<!--section class=\"col-md-4\">\n<h3 class=\"h5\"><a href=\"?id=1311865754938\">nouvelles@l'ouvrage</a></h3>\n<p>Lisez des articles sur les nouvelles initiatives du gouvernement et du Minist&egrave;re.</p>\n</section-->\n\n\n</div>\n\n<div class=\"col-md-3\">\n\n<section>\n<h3>Trouver un coll\u00e8gue</h3>\n<form class=\"form-inline\" name=\"qsForm\" action=\"http://directinfo.agr.gc.ca/directInfo/fra/index.php\" target=\"_self\" method=\"get\">\n<input type=\"hidden\" name=\"qsType\" value=\"qsEmp\">\n<input type=\"text\" name=\"qsBox\" value=\"\" class=\"form-control\" placeholder=\"Recherche Directinfo\">\n<input type=\"hidden\" name=\"fuseaction\" value=\"agriInfo.qSearchResults\">\n<button type=\"submit\" name=\"qsBtn\" class=\"btn btn-primary btn-small\"><span class=\"glyphicon-search glyphicon\"></span><span class=\"wb-inv\">Rechercher</span></button>\n</form>\n<!--<a href=\"http://geds20-sage20.ssc-spc.gc.ca/en/GEDS20/?pgid=002\">Search Government Electronic Directory Services (GEDS)</a>-->\n</section>\n\n\n\n<div class=\"clear\"></div>\n\n<div class=\"row\">\n<section class=\"followus mrgn-tp-md mrgn-lft-md mrgn-rght-md\">\n<h3 class=\"wb-inv\">M\u00e9dias sociaux \u00e0 AAC</h3>\n   <h2>Suivez :</h2> \n   <ul> \n    <li><a href=\"https://www.facebook.com/AgricultureCanadienne\" class=\"facebook gl-follow\" rel=\"external\"> <span class=\"wb-inv\">Facebook</span></a></li> \n    <li><a href=\"https://twitter.com/AAC_Canada\" class=\"twitter gl-follow\" rel=\"external\"> <span class=\"wb-inv\">Twitter</span></a></li> \n    \n    <li><a href=\"https://www.linkedin.com/company/aafc-aac/?viewAsMember=true\" class=\"linkedin gl-follow\" rel=\"external\"><span class=\"wb-inv\">LinkedIn</span></a></li>\n    \n    <li><a href=\"https://www.youtube.com/user/AgricultureCanadaFra\" class=\"youtube gl-follow\" rel=\"external\"><span class=\"wb-inv\">YouTube</span></a></li> \n\n\n   </ul> \n  </section> \n</div>\n\n<section> \n\n<h3 class=\"mrgn-tp-sm\"><a href=\"?id=1311865754938\">nouvelles@l'ouvrage</a></h3>\n\n<!--ul class=\"mrgn-tp-md mrgn-lft-0 mrgn-rght-md list-unstyled lst-spcd\"-->\n\n</section>\n\n<!--\n<section>\n<h3>Gazouillis d'AAC</h3>\n<div class=\"wb-twitter\">\n<a class=\"twitter-timeline\" data-height=\"650\" href=\"https://twitter.com/ChrisWForbes/lists/aac-et-sous-ministre\">Gazouillis d'AAC</a> <script async src=\"https://platform.twitter.com/widgets.js\" charset=\"utf-8\"></script> \n        </div>\n</section>\n-->\n<!--\n<section>\n<h3>Gazouillis d'AAC et du sous-ministre</h3>\n<div class=\"wb-twitter\">\n            <a class=\"twitter-timeline\"  data-height=\"650\" href=\"https://twitter.com/ChrisWForbes/lists/aac-et-sm-forbes\" data-widget-id=\"956198528224825344\">Tweets about from:aac_canada+OR+from:chriswforbes</a>\n            <script>!function(d,s,id){var js,fjs=d.getElementsByTagName(s)[0],p=/^http:/.test(d.location)?'http':'https';if(!d.getElementById(id)){js=d.createElement(s);js.id=id;js.src=p+\"://platform.twitter.com/widgets.js\";fjs.parentNode.insertBefore(js,fjs);}}(document,\"script\",\"twitter-wjs\");</script>\n        </div>\n</section>\n-->\n\n</div>\n</div>\n\n<h2 class=\"mrgn-tp-lg\">En vedette</h2>\n\n<div class=\"row\">\n\n<div class=\"col-md-3\">\n<a href=\"http://intranet.agr.gc.ca/agrisource/fra/le-ministere/coin-des-sous-ministres?id=1288789122212\">\n<h3 class=\"h5\">Coin des sous-ministres</h3>\n<img src=\"https://intranet.agr.gc.ca/resources/prod/images/home_page/deputy_min_corner_banner_2019.jpg\" class=\"img-responsive\" alt=\"\">\n</a>\n<p>Rendez-vous dans le Coin des sous-ministres pour consulter d'importantes ressources et lire les derniers messages des sous-ministres</p>\n\n</div>\n\n<div class=\"col-md-3\">\n<a href=\"http://intranet.agr.gc.ca/agrisource/fra?id=1511367056518\">\n<h3 class=\"h5\">R\u00e9mun\u00e9ration, avantages sociaux et Ph\u00e9nix</h3>\n<img src=\"https://intranet.agr.gc.ca/resources/prod/images/home_page/feature_images/phoenix_focus_on-fra.jpg\" class=\"img-responsive\" alt=\"Ph\u00e9nix - syst\u00e8me de paye\"></a>\n<p>Renseignements sur la r\u00e9mun\u00e9ration et les avantages sociaux, ainsi que des conseils portant sur le d\u00e9pannage concernant la paye.</p>\n</div>\n\n<div class=\"col-md-3\">\n<a href=\"http://intranet.agr.gc.ca/agrisource/fra/directions-generales-et-bureaux/bureau-de-lombudsman?id=1566410288815\">\n<h3 class=\"h5\">L'ombudsman \u00e0 AAC</h3>\n<img src=\"https://intranet.agr.gc.ca/resources/prod/images/home_page/feature_images/janetaylor-fra.jpg\" class=\"img-responsive\" alt=\"Ombudsman du bien-\u00eatre en milieu de travail, Jane Taylor\"></a>\n<p>Apprendre davantage sur l'ombudsman \u00e0 AAC.</p>\n</div>\n\n<div class=\"col-md-3\">\n<a href=\"http://intranet.agr.gc.ca/agrisource/fra?id=1578918214392\">\n<h3 class=\"h5\">Renouvellement de la fonction publique</h3>\n<img src=\"https://intranet.agr.gc.ca/resources/prod/images/home_page/feature_images/2020a-fra.jpg\" class=\"img-responsive\" alt=\"Au-del\u00e0 de 2020 : Agile, Inclusive, Outill\u00e9e.\"></a>\n\n<p>Aidez AAC \u00e0 se projeter Au-del\u00e0 de 2020. Notre fa\u00e7on de travailler et nos actions quotidiennes peuvent changer les choses.</p>\n</div>\n</div>\n\n</section>\n\t\t</section>"
    }
}