{
    "has_dcr_id": true,
    "node_id": "1279565444868",
    "parent_node_id": "1279029750897",
    "dcr_id": "1000000000000",
    "landingPageUrl": {
        "en": "1000000000000",
        "fr": "1000000000000"
    },
    "parent_dcr_id": "1287261736402",
    "breadcrumb": {
        "en": "Main Menu",
        "fr": "Menu principal"
    },
    "body": {
        "en": "Empty",
        "fr": "Empty"
    },
    "node_title": {
        "en": "null",
        "fr": "null"
    },
    "title": {
        "en": "Main Menu",
        "fr": "Menu principal"
    },
    "meta": {
        "issued": {
            "en": "2020-10-16",
            "fr": "2020-10-16"
        },
        "modified": {
            "en": "2020-10-16",
            "fr": "2020-10-16"
        },
        "format": {
            "en": "gcformat",
            "fr": "gcformat"
        },
        "title": {
            "en": "Main, delete this record",
            "fr": "Main fr , delete this record"
        },
        "language": {
            "en": "eng",
            "fr": "fra"
        },
        "audience": {
            "en": "gcaudience",
            "fr": "gcaudience"
        },
        "creator": {
            "en": "Agriculture and Agri-Food Canada",
            "fr": "Agriculture et Agroalimentaire Canada"
        },
        "spatial": {
            "en": "gcregions",
            "fr": "gcregions"
        },
        "service": {
            "en": "AAFC_AgriSource",
            "fr": "AAC_AgriSource"
        },
        "accessRights": {
            "en": "3",
            "fr": "3"
        }
    },
    "type": "Main"
}
