{
    "has_dcr_id": true,
    "node_id": "1279035822100",
    "parent_node_id": "1279029955397",
    "dcr_id": "1288031788259",
    "landingPageUrl": {
        "en": "1288031788259",
        "fr": "1288031788259"
    },
    "title": {
        "en": "null",
        "fr": "null"
    },
    "breadcrumb": {
        "en": "Official Languages",
        "fr": "Langues officielles"
    },
    "type": "hr",
    "meta": {
        "issued": {
            "en": "2010-11-16",
            "fr": "2010-11-16"
        },
        "modified": {
            "en": "2020-09-15",
            "fr": "2020-09-15"
        },
        "format": {
            "en": "gcformat",
            "fr": "gcformat"
        },
        "title": {
            "en": "Official Languages",
            "fr": "Langues officielles"
        },
        "subject": {
            "en": "Learning;Official languages;Organizational goals",
            "fr": "Apprentissage;Langues officielles;Objectifs organisationnels"
        },
        "description": {
            "en": "This section provides information on the Official Languages Program, and on the strategies and available tools that promote increased bilingualism.",
            "fr": "Cette section du site a pour but de vous informer sur le Programme des Langues officielles, sur les strat\u00e9gies du minist\u00e8re pour accro\u00eetre le bilinguisme et sur les outils disponibles en mati\u00e8re de langues officielles."
        },
        "language": {
            "en": "eng",
            "fr": "fra"
        },
        "keywords": {
            "en": "bilingualism, Language Training, linguistic duality, Second Language Testing",
            "fr": "bilinguisme, Formation linguistique, dualit\u00e9 linguistique, \u00e9valuation de langue seconde"
        },
        "audience": {
            "en": "gcaudience",
            "fr": "gcaudience"
        },
        "type": {
            "en": "Fact sheet;Resource list",
            "fr": "Accord;Fiche de renseignements;Liste de r\u00e9f\u00e9rence"
        },
        "creator": {
            "en": "Agriculture and Agri-Food Canada",
            "fr": "Agriculture et Agroalimentaire Canada"
        },
        "spatial": {
            "en": "gcregions",
            "fr": "gcregions"
        },
        "service": {
            "en": "AAFC_AgriSource",
            "fr": "AAC_AgriSource"
        },
        "accessRights": {
            "en": "3",
            "fr": "3"
        }
    },
    "body": {
        "en": "\n\t\t\t  \n\n<p>It is up to each of us to ensure that Agriculture and Agri-Food Canada (AAFC) meets its OL objectives. To support us in making OL an integral part of AAFC's culture, values and service delivery, the Corporate Management Branch (CMB) developed <a href=\"https://intranet.agr.gc.ca/resources/prod/doc/hrb_dgrh/aafc_official_languages_accountability_framework-eng.docx\">Agriculture and Agri-Food Canada's Official Languages Accountability Framework (Word)</a>.</p>\n\n<ul>\n<li><b>Official Languages Policies and Guidelines</b>\n<ul>\n<li class=\"mrgn-tp-md\"><a href=\"http://laws-lois.justice.gc.ca/eng/acts/o-3.01/\"><cite>Official Languages Act</cite></a></li>\n<li><a href=\"http://www.tbs-sct.gc.ca/pol/doc-eng.aspx?id=26160\">Treasury Board Policy on Official Languages</a></li>\n<li><a href=\"http://www.tbs-sct.gc.ca/pol/doc-eng.aspx?id=26168\">Directive on Official Languages for People Management</a></li>\n<li><a href=\"http://www.tbs-sct.gc.ca/pol/doc-eng.aspx?id=26164\">Directive on Official Languages for Communications and Services</a></li>\n<li><a href=\"https://intranet.agr.gc.ca/resources/prod/doc/hrb_dgrh/aafc_guidelines_on_official_languages-eng.docx\">Agriculture and Agri-Food Canada Guidelines on Official Languages and Language of Supervision (Word)</a></li>\n</ul>\n</li>\n<li class=\"mrgn-tp-md\"><b>Non-Imperative Staffing</b>\n<ul>\n<li class=\"mrgn-tp-md\"><a href=\"https://intranet.agr.gc.ca/resources/prod/doc/hrb_dgrh/hrb_ol_non_imperative_staffing_non_ex_positions-eng.doc\">How do I Get Approval to Staff on a Non-imperative Basis? (Word)</a></li>\n<li><a href=\"https://forms-formulaires.agr.gc.ca/form_search.cfm?search_option=form_number&amp;search_para=6344&amp;search_mode=main&amp;lang=eng&amp;menupos=1.1&amp;CFID=77427&amp;CFTOKEN=96b16141e62c1cc9-1B7450A8-9CC4-565C-9BB7F7947B396C95\">Non-imperative Staffing Approval Form for Non-EX Positions (PDF)</a></li>\n<li><a href=\"https://intranet.agr.gc.ca/resources/prod/doc/hrb_dgrh/administrative_measures_form-eng.doc\">Administrative Measures Form (Word)</a></li>\n<li><a href=\"https://intranet.agr.gc.ca/resources/prod/pdf/hrb_dgrh/statement_of_agreement_to_become_bilingual-eng.pdf\">Statement of Agreement to Become Bilingual (PDF)</a></li>\n</ul>\n</li>\n<li class=\"mrgn-tp-md\"><b>Language Training and Second Language Testing</b>\n<ul>\n<li class=\"mrgn-tp-md\"><a href=\"https://intranet.agr.gc.ca/resources/prod/doc/hrb_dgrh/second_language_training_guide-eng.docx\">Second Language Training Guide (Word)</a></li>\n<li><a href=\"http://www.njc-cnm.gc.ca/directive/index.php?did=1&amp;lang=eng\">Bilingual Bonus Directive</a></li>\n</ul>\n</li>\n<li class=\"mrgn-tp-md\"><b>Official Languages Tools</b>\n<ul>\n<li class=\"mrgn-tp-md\"><a href=\"https://intranet.agr.gc.ca/resources/prod/doc/hrb_dgrh/ol_wfa_considerations_for_managers-eng.doc\">Official Languages and Workforce Adjustment - Considerations for Managers (Word)</a></li>\n<li><a href=\"https://intranet.agr.gc.ca/resources/prod/doc/hrb_dgrh/aafc_ol_program_performance_measurement_and_evaluation_framework-eng.docx\">Agriculture and Agri-Food Canada's Official Languages Program Performance Measurement and Evaluation Framework (Word)</a></li>\n<li><a href=\"https://intranet.agr.gc.ca/resources/prod/doc/hrb_dgrh/considering_ol_when_reviewing_spending_decisions-eng.doc\">Considering Official Languages When Reviewing Spending Decisions (Word)</a></li>\n<li><a href=\"https://intranet.agr.gc.ca/resources/prod/doc/hrb_dgrh/guide_to_ol_in_performance_agreements-eng.doc\">Guide to Official Languages in Performance Agreements (Word)</a></li>\n<li><a href=\"display-afficher.do?id=1348150623429&amp;lang=eng\">Determining a Position's Language Requirements</a></li>\n<li><a href=\"http://www.tbs-sct.gc.ca/lp-pl/index.aspx?Lang=EN\">Determining the Linguistic Profile of Bilingual Positions</a></li>\n<li><a href=\"https://intranet.agr.gc.ca/resources/prod/doc/hrb_dgrh/aafc_bilingual_points_of_service-eng.docx\">Agriculture and Agri-Food Canada's Bilingual Points of Service (Word)</a></li> \n<li><a href=\"https://intranet.agr.gc.ca/resources/prod/doc/hrb_dgrh/active_offer_public_service_and_official_languages-eng.doc\">Tools for Active Offer (Word)</a>\n  <ul>\n  <li class=\"mrgn-tp-md\"><a href=\"https://intranet.agr.gc.ca/resources/prod/doc/hrb_dgrh/key_phrases_for_service_on_the_phone_or_in_person-eng.docx\">Key phrases for service on the phone or in person (Word)</a></li>\n  <li><a href=\"https://intranet.agr.gc.ca/resources/prod/doc/hrb_dgrh/bilingual_messages_template-eng.doc\">Bilingual messages (Word)</a></li>\n  <li><a href=\"https://intranet.agr.gc.ca/resources/prod/doc/hrb_dgrh/ol_checklist-eng.doc\">Check list (Word)</a></li>\n  </ul>\n</li>\n<li class=\"mrgn-tp-md\"><a href=\"https://intranet.agr.gc.ca/resources/prod/ppt/hrb_dgrh/official_languages_training_deck_for_managers-eng.ppt\">Official languages presentation for managers (PowerPoint)</a></li>\n<li><a href=\"display-afficher.do?id=1330524855017&amp;lang=eng\">Methodology to promote bilingual meetings</a></li>\n<li><a href=\"http://www.noslangues-ourlanguages.gc.ca/index-eng.php\">Language Portal of Canada</a></li>\n<li><a href=\"https://intranet.agr.gc.ca/resources/prod/pdf/hrb_dgrh/poster_fsl_learning_tool.pdf\">Poster\u00a0- \"Merci de m'aider \u00e0 pratiquer mon fran\u00e7ais\" (PDF)</a></li>\n<li><a href=\"https://intranet.agr.gc.ca/resources/prod/doc/hrb_dgrh/apprentice_logo-bilingue.docx\">Logo to insert into your emails to colleagues \u00ab\u00a0Apprentice \u2013 I am writing in my second language\u00a0\u00bb (Word)</a></li>\n</ul>\n</li>\n<li class=\"mrgn-tp-md\"><b>Other Resources</b>\n<ul>\n<li class=\"mrgn-tp-md\"><a href=\"http://www.ocol-clo.gc.ca/html/index_e.php\">Office of the Commissioner of Official Languages</a></li>\n<li><a href=\"http://www.tbs-sct.gc.ca/chro-dprh/olo-eng.asp\">Treasury Board of Canada Secretariat/Official Languages</a></li>\n</ul>\n</li>\n\n</ul>\n\n<h2>Contact Us</h2>\n\n<p>Email: <a href=\"mailto:aafc.officiallanguages-languesofficielles.aac@canada.ca\">aafc.officiallanguages-languesofficielles.aac@canada.ca</a>.</p>\n\t\t",
        "fr": "\n\t\t\t  \n\n<p>Il incombe \u00e0 chacun de nous de veiller \u00e0 ce qu'Agriculture et Agroalimentaire Canada (AAC) atteigne ses objectifs en mati\u00e8re de LO. Pour nous aider \u00e0 ce que les LO fassent partie int\u00e9grantes de nos valeurs, de notre culture et de notre prestation de services, la Direction g\u00e9n\u00e9rale de la gestion int\u00e9gr\u00e9e (DGGI) a \u00e9labor\u00e9 le <a href=\"https://intranet.agr.gc.ca/resources/prod/doc/hrb_dgrh/aafc_official_languages_accountability_framework-fra.docx\">Cadre de responsabilisation en mati\u00e8re de langues officielles d'Agriculture et Agroalimentaire Canada (Word)</a>.</p>\n\n<ul>\n  <li><b>Politiques et lignes directrices portant sur les langues officielles</b>\n<ul>\n<li class=\"mrgn-tp-md\"><a href=\"http://laws-lois.justice.gc.ca/fra/lois/o-3.01/\"><cite>Loi sur les langues officielles</cite></a></li>\n<li><a href=\"http://www.tbs-sct.gc.ca/pol/doc-fra.aspx?id=26160\">Politique sur les langues officielles du Conseil du Tr\u00e9sor</a></li>\n<li><a href=\"http://www.tbs-sct.gc.ca/pol/doc-fra.aspx?id=26168\">Directive sur les langues officielles pour la gestion des personnes</a></li>\n<li><a href=\"http://www.tbs-sct.gc.ca/pol/doc-fra.aspx?id=26164\">Directive sur les langues officielles pour les communications et services</a></li>\n<li><a href=\"https://intranet.agr.gc.ca/resources/prod/doc/hrb_dgrh/aafc_guidelines_on_official_languages-fra.docx\">Lignes directrices d'Agriculture et Agroalimentaire Canada en mati\u00e8re de langues officielles et de langue de supervision (Word)</a></li>\n</ul>\n</li>\n<li class=\"mrgn-tp-md\"><b>Dotation non imp\u00e9rative</b>\n<ul>\n<li class=\"mrgn-tp-md\"><a href=\"https://intranet.agr.gc.ca/resources/prod/doc/hrb_dgrh/hrb_ol_dotation_non_imperative-fra.doc\">Comment obtenir une approbation pour embaucher quelqu'un de fa\u00e7on non imp\u00e9rative? (Word)</a></li>\n<li><a href=\"https://intranet.agr.gc.ca/resources/prod/pdf/hrb_dgrh/declaration_de_l'engagement_de_devenir_bilingue-fra.pdf\">D\u00e9claration de l'engagement de devenir bilingue (PDF)</a></li>\n  <li><a href=\"https://intranet.agr.gc.ca/resources/prod/doc/hrb_dgrh/administrative_measures_form-fra.docx\">Formulaire pour mesures administratives (Word)</a></li>\n<li><a href=\"https://forms-formulaires.agr.gc.ca/form_search.cfm?&amp;menupos=1%2E1&amp;POS=1&amp;CFID=77427&amp;CFTOKEN=96b16141e62c1cc9%2D1B7450A8%2D9CC4%2D565C%2D9BB7F7947B396C95&amp;search_para=6344&amp;search_mode=main&amp;search_option=form%5Fnumber&amp;lang=fr\">Formulaire d'approbation pour la dotation non imp\u00e9rative pour les postes n'appartenant pas au groupe EX (PDF)</a></li>\n</ul>\n</li>\n<li class=\"mrgn-tp-md\"><b>Formation linguistique et \u00e9valuation de langue seconde</b>\n<ul>\n<li class=\"mrgn-tp-md\"><a href=\"https://intranet.agr.gc.ca/resources/prod/doc/hrb_dgrh/guide_sur_la_formation_en_langue_seconde-fra.docx\">Guide de formation en langue seconde (Word)</a></li>\n<li><a href=\"http://www.njc-cnm.gc.ca/directive/bbd-dpb/index-fra.php\">Directive sur la prime de bilinguisme</a></li>\n</ul>\n</li><li class=\"mrgn-tp-md\"><b>Outils des langues officielles</b>\n<ul>\n<li class=\"mrgn-tp-md\"><a href=\"https://intranet.agr.gc.ca/resources/prod/doc/hrb_dgrh/lo_re_considerations_pour_les_gestionnaires-fra.doc\">Les langues officielles et le r\u00e9am\u00e9nagement des effectifs \u2013 Consid\u00e9rations pour les gestionnaires (Word)</a></li>\n<li><a href=\"https://intranet.agr.gc.ca/resources/prod/doc/hrb_dgrh/cadre_de_mesure_et_d'evaluation_du_rendement_du_programme_des_langues_officielles_aac-fra.docx\">Cadre de mesure et d'\u00e9valuation du Programme des langues officielles d'Agriculture et Agroalimentaire Canada (Word)</a></li>\n<li><a href=\"https://intranet.agr.gc.ca/resources/prod/doc/hrb_dgrh/consideration_des_lo_dans_lexamen_des_decisions_concernant_les_depenses-fra.doc\">Consid\u00e9ration des langues officielles dans l'examen des d\u00e9cisions concernant les d\u00e9penses (Word)</a></li>\n<li><a href=\"https://intranet.agr.gc.ca/resources/prod/doc/hrb_dgrh/guide_sur_les_langues_officielles_dans_les_ententes_de_rendement-fra.doc\">Guide sur les langues officielles dans les ententes de rendement (Word)</a></li>\n<li><a href=\"https://intranet.agr.gc.ca/resources/prod/doc/hrb_dgrh/points_de_service_bilingues_aac-fra.docx\">Points de service bilingues d'Agriculture et Agroalimentaire Canada (Word)</a></li>\n<li><a href=\"https://intranet.agr.gc.ca/resources/prod/doc/hrb_dgrh/active_offer_public_service_and_official_languages-fra.docx\">Trousse d'outils pour l'offre active (Word)</a>\n<ul>\n<li class=\"mrgn-tp-md\"><a href=\"https://intranet.agr.gc.ca/resources/prod/doc/hrb_dgrh/key_phrases_for_service_on_the_phone_or_in_person-fra.docx\">Phrases cl\u00e9s pour le service au t\u00e9l\u00e9phone et en personne (Word)</a></li>\n<li><a href=\"https://intranet.agr.gc.ca/resources/prod/doc/hrb_dgrh/messages_bilingues-fra.doc\">Messages bilingues (Word)</a></li>\n<li><a href=\"https://intranet.agr.gc.ca/resources/prod/doc/hrb_dgrh/ol_checklist-fra.doc\">Liste de v\u00e9rification (Word)</a></li>\n</ul>\n</li>\n<li class=\"mrgn-tp-md\"><a href=\"https://intranet.agr.gc.ca/resources/prod/ppt/hrb_dgrh/presentation_des_langues_officielles_pour_les_gestionnaires-fra.ppt\">Pr\u00e9sentation des langues officielles pour les gestionnaires (PowerPoint)</a></li>      \n<li><a href=\"http://www.tbs-sct.gc.ca/lp-pl/index.aspx?Lang=FR\">D\u00e9terminer le profil linguistique des postes bilingues</a></li>\n<li><a href=\"display-afficher.do?id=1348150623429&amp;lang=fra\">\u00c9tablir les exigences linguistiques d'un poste</a></li>\n<li><a href=\"display-afficher.do?id=1330524855017&amp;lang=fra\">M\u00e9thodologie pour promouvoir les r\u00e9unions bilingues</a></li>\n<li><a href=\"http://www.noslangues-ourlanguages.gc.ca/index-fra.php\">Portail linguistique du Canada</a></li>\n<li><a href=\"https://intranet.agr.gc.ca/resources/prod/pdf/hrb_dgrh/poster_esl_learning_tool.pdf\">Affiche\u00a0- \u00ab\u00a0Thank you for helping me practice my English\u00a0\u00bb (PDF)</a></li>\n<li><a href=\"https://intranet.agr.gc.ca/resources/prod/doc/hrb_dgrh/apprentice_logo-bilingue.docx\">Logo \u00e0 ins\u00e9rer aux courriels entre coll\u00e8gues \u00ab\u00a0Apprenti - J'\u00e9cris dans ma langue seconde\u00a0\u00bb (Word)</a></li>\n</ul>\n</li>\n<li class=\"mrgn-tp-md\"><b>Autres ressources</b>\n<ul>\n<li class=\"mrgn-tp-md\"><a href=\"http://www.ocol-clo.gc.ca/html/index_f.php\">Commissariat aux langues officielles</a></li>\n<li><a href=\"http://www.tbs-sct.gc.ca/chro-dprh/olo-fra.asp\">Secr\u00e9tariat du Conseil du Tr\u00e9sor du Canada / Langues officielles</a></li>\n</ul>\n</li>\n</ul>\n\n<h2>Communiquez avec nous</h2>\n\n<p>Courriel\u00a0: <a href=\"mailto:aafc.officiallanguages-languesofficielles.aac@canada.ca\">aafc.officiallanguages-languesofficielles.aac@canada.ca</a>.</p>\n\t\t"
    }
}