{
    "has_dcr_id": true,
    "node_id": "1279035929319",
    "parent_node_id": "1279029955397",
    "dcr_id": "1288027875377",
    "landingPageUrl": {
        "en": "1288027875377",
        "fr": "1288027875377"
    },
    "title": {
        "en": "null",
        "fr": "null"
    },
    "breadcrumb": {
        "en": "Workplace Relations",
        "fr": "Relations en milieu de travail"
    },
    "type": "hr",
    "meta": {
        "issued": {
            "en": "2010-11-16",
            "fr": "2010-11-16"
        },
        "modified": {
            "en": "2020-10-02",
            "fr": "2020-10-02"
        },
        "format": {
            "en": "gcformat",
            "fr": "gcformat"
        },
        "title": {
            "en": "Workplace Relations",
            "fr": "Relations en milieu de travail"
        },
        "subject": {
            "en": "Conflict;Grievance procedures;Harassment;Values",
            "fr": "Conflit;Proc\u00e9dures de r\u00e8glement ;Harc\u00e8lement;Valeurs"
        },
        "description": {
            "en": "Workplace Relations is dedicated to promoting a healthy workplace for all AAFC employees by providing expert guidance and services to assist employees and managers with issues they may face on the job from difficult conversations, minor disputes, grievances, prevention and resolution of harassment, and ethical and conflict of interest issues.",
            "fr": "Le service des relations en milieu de travail se consacre \u00e0 promouvoir un milieu de travail sain pour tous les employ\u00e9s du minist\u00e8re en offrant des conseils et des services sp\u00e9cialis\u00e9s pour aider employ\u00e9s et gestionnaires \u00e0 r\u00e9gler les probl\u00e8mes susceptibles de survenir dans le cadre de leurs fonctions : conversations ardues, diff\u00e9rends mineurs, griefs, pr\u00e9vention et r\u00e8glement du harc\u00e8lement, \u00e9thique et conflits d'int\u00e9r\u00eats."
        },
        "language": {
            "en": "eng",
            "fr": "fra"
        },
        "keywords": {
            "en": "Resolution Services, team interventions",
            "fr": "services de m\u00e9diation, interventions professionnelles d\u2019\u00e9quipe"
        },
        "audience": {
            "en": "gcaudience",
            "fr": "gcaudience"
        },
        "type": {
            "en": "Fact sheet",
            "fr": "Fiche de renseignements"
        },
        "creator": {
            "en": "Agriculture and Agri-Food Canada",
            "fr": "Agriculture et Agroalimentaire Canada"
        },
        "spatial": {
            "en": "gcregions",
            "fr": "gcregions"
        },
        "service": {
            "en": "AAFC_AgriSource",
            "fr": "AAC_AgriSource"
        },
        "accessRights": {
            "en": "3",
            "fr": "3"
        }
    },
    "body": {
        "en": "\n\t\t\t  \n\n<p>Employee well\u2013being is a key priority at Agriculture and Agri\u2013Food Canada (AAFC). Workplace Relations is dedicated to promoting a healthy workplace for all AAFC employees by providing expert guidance and services to assist employees and managers with issues they may face on the job from difficult conversations, minor disputes, grievances, prevention and resolution of harassment, and ethical and conflict of interest issues.</p>\n\n  <h2>Issue Prevention and Resolution</h2>\n  <p><a href=\"?id=1299083757960\">Options and Solutions for Issue Resolution</a> is a guide that can direct you to the appropriate Agriculture and Agri-Food Canada Issue Resolution Network resource to provide you with options for resolving issues in the workplace.</p>\n  <p><a href=\"https://intranet.agr.gc.ca/agrisource/AgriDoc.do?id=2939465&amp;lang=eng\" target=\"_blank\">AAFC's Restoring the Workplace Following A Harassment Complaint Process: A Guide for All Employees (Word)</a> is a tool that aims to provide all managers and employees with the skills, resources and knowledge to contribute to workplace healing.</p>\n\n\n<h2>Preventing and Managing Conflict</h2>\n  <p><a href=\"?id=1288027396522\">Informal Conflict Management Services</a> (ICMS) offers:</p>\n  <ul>\n    <li><b>Information and consultation</b> on addressing workplace conflict</li>\n    <li><b>Mediation and facilitation</b> to negotiate mutually agreeable solutions</li>\n    <li><b>Confidential, one-on-one conflict coaching</b> to resolve disputes and prevent future conflicts</li>\n    <li><b>Workplace conflict assessments</b> to identify personal and team issues</li>\n    <li>Professional <b>team interventions</b> to bring about positive changes</li>\n    <li><b>Training</b> on preventing and resolving conflict in your workplace</li>\n</ul>\n\n\n  <h2>Collective Agreements and Harassment</h2>\n  <p><a href=\"?id=1288022170815\">Labour Relations</a> (LR) offers:</p>\n  <ul>\n    <li><b>Interpretation </b>and <b>advice on</b> collective agreements</li>\n    <li><b>Updates</b> on the collective bargaining negotiations</li>\n    <li><b>Information</b> on National Joint Council, Public Service Labour Relations and Employment Board, and related organizations</li>\n    <li><b>Prevention and resolution </b>of harassment</li>\n    <li><b>Links</b> to various Human Resources policies and guidelines</li>\n  </ul>\n\n\n  <h2>Values and Ethics and Conflict of Interest</h2>\n  <p><a href=\"?id=1288015767856\">The Values and Ethics Policy Centre</a> (VEPC) offers:</p>\n  <ul>\n    <li><b>Advice</b> on <b>Conflict of Interest and Post-Employment </b></li>\n    <li><b>Guidance </b>on conflict of interest process</li>\n    <li><b>Information</b> on political activities</li>\n    <li><b>Assistance</b> with matters related to the Values and Ethics Code for the Public Service</li>\n  </ul>\n  <p>The <a href=\"?id=1287673689033\">Employee and Family Assistance Program</a> offers a wide range of confidential support services to  assist employees and their families with resolving personal everyday  challenges, complex issues and everything in-between\u2014work, health and life.</p>\n\n\n\t\t",
        "fr": "\n\t\t\t  \n<p>Le bien\u2013\u00eatre des employ\u00e9s est une grande priorit\u00e9 \u00e0 Agriculture et Agroalimentaire Canada. Le service des relations en milieu de travail se consacre \u00e0 promouvoir un milieu de travail sain pour tous les employ\u00e9s du minist\u00e8re en offrant des conseils et des services sp\u00e9cialis\u00e9s pour aider employ\u00e9s et gestionnaires \u00e0 r\u00e9gler les probl\u00e8mes susceptibles de survenir dans le cadre de leurs fonctions\u00a0: conversations ardues, diff\u00e9rends mineurs, griefs, pr\u00e9vention et r\u00e8glement du harc\u00e8lement, \u00e9thique et conflits d'int\u00e9r\u00eats.</p>\n\n  <h2>Pr\u00e9vention et r\u00e9solution de probl\u00e8mes</h2>\n  <p><a href=\"display-afficher.do?id=1299083757960&amp;lang=fra\">Options et solutions pour la r\u00e9solution des probl\u00e8mes</a> est un guide qui peut vous diriger vers une ressource du R\u00e9seau de soutien \u00e0 la r\u00e9solution des probl\u00e8mes d'Agriculture et Agroalimentaire Canada, qui vous fournira des options afin de r\u00e9soudre les probl\u00e8mes en milieu de travail.</p>\n  <p><a href=\"https://intranet.agr.gc.ca/agrisource/AgriDoc.do?id=3062850&amp;lang=fra\" target=\"_blank\">Guide pour tous les employ\u00e9s d'AAC sur le r\u00e9tablissement du milieu de travail \u00e0 la suite d'une plainte de harc\u00e8lement (Word)</a> est un outil qui a pour but de donner \u00e0 l'ensemble des gestionnaires et des employ\u00e9s les comp\u00e9tences, les ressources et les connaissances n\u00e9cessaires pour contribuer \u00e0 l'apaisement d'un milieu de travail.</p>\n\n\n<h2>Pr\u00e9venir et g\u00e9rer les conflits</h2>\n  <p>L'<a href=\"display-afficher.do?id=1288027396522&amp;lang=fra\">\u00e9quipe des services informels de gestion des conflits</a> (SIGC) offrent\u00a0:</p>\n  <ul>\n    <li><b>de l'information et des services de consultation</b> sur la gestion des conflits en milieu de travail;</li>\n    <li><b>des services de m\u00e9diation et de facilitation</b> pour n\u00e9gocier des solutions acceptables pour toutes les parties;</li>\n    <li><b>des services d'encadrement confidentiels et individuels</b> dans le but de r\u00e9soudre les diff\u00e9rends et de pr\u00e9venir des conflits futurs;</li>\n    <li><b>l'\u00e9valuation des conflits en milieu de travail</b> pour cerner les probl\u00e8mes individuels et d'\u00e9quipe;</li>\n    <li><b>des interventions professionnelles d'\u00e9quipe </b>visant \u00e0 apporter des changements positifs;</li>\n    <li><b>de la formation </b>sur la pr\u00e9vention et la r\u00e9solution des conflits en milieu de travail.</li>\n</ul>\n\n\n  <h2>Conventions collectives et harc\u00e8lement</h2>\n  <p>L'\u00e9quipe des <a href=\"display-afficher.do?id=1288022170815&amp;lang=fra\">relations de travail</a> offre\u00a0:</p>\n  <ul>\n    <li><b>des services d'interpr\u00e9tation</b> et <b>des conseils</b> sur les conventions collectives;</li>\n    <li><b>des renseignements \u00e0 jour</b> sur la n\u00e9gociation des conventions collectives;</li>\n    <li><b>de l'information </b>sur le Conseil national mixte, la Commission des relations de travail et de l'emploi dans la fonction publique et d'autres organisations connexes;</li>\n    <li><b>des services de pr\u00e9vention et de r\u00e8glement</b> du harc\u00e8lement;</li>\n    <li><b>des liens </b>vers diverses politiques et directives du service des ressources humaines.</li>\n  </ul>\n\n\n  <h2>Valeurs et \u00e9thique et conflits d'int\u00e9r\u00eats</h2>\n  <p>Le <a href=\"display-afficher.do?id=1288015767856&amp;lang=fra\">Centre de la politique sur les valeurs et l'\u00e9thique</a> offre\u00a0:</p>\n  <ul>\n    <li><b>des conseils</b> sur <b>les conflits d'int\u00e9r\u00eats et l'apr\u00e8s\u2013mandat</b>;</li>\n    <li><b>de l'orientation</b> sur le processus de gestion des conflits d'int\u00e9r\u00eats;</li>\n    <li><b>de l'information</b> sur les activit\u00e9s politiques;</li>\n    <li><b>de l'aide</b> pour la gestion des dossiers li\u00e9s au Code de valeurs et d'\u00e9thique de la fonction publique.</li>\n  </ul>\n  <p>Le <a href=\"display-afficher.do?id=1287673689033&amp;lang=fra\">Programme d'aide aux employ\u00e9s et \u00e0 la famille</a> offre une vaste gamme de services  confidentiels pouvant aider les employ\u00e9s et leur famille \u00e0 faire face aux d\u00e9fis  personnels quotidiens, aux questions complexes, et \u00e0 tout ce qu'il y a entre  les deux \u2013 travail, sant\u00e9 et vie.</p>\n\n\n\t\t"
    }
}