{
    "has_dcr_id": true,
    "node_id": "1285342872241",
    "parent_node_id": "1279029869959",
    "dcr_id": "1288789122212",
    "landingPageUrl": {
        "en": "1288789122212",
        "fr": "1288789122212"
    },
    "title": {
        "en": "null",
        "fr": "null"
    },
    "breadcrumb": {
        "en": "Deputy Ministers' Corner",
        "fr": "Coin des sous-ministres"
    },
    "type": "our_dept",
    "node_title": {
        "fr": "null"
    },
    "meta": {
        "issued": {
            "en": "2010-11-12",
            "fr": "2010-11-12"
        },
        "modified": {
            "en": "2020-09-10",
            "fr": "2020-09-10"
        },
        "format": {
            "en": "gcformat",
            "fr": "gcformat"
        },
        "title": {
            "en": "Deputy Ministers' Corner",
            "fr": "Coin des sous-ministres"
        },
        "subject": {
            "en": "access to information;communications",
            "fr": "acc\u00e8s \u00e0 l'information;communications"
        },
        "description": {
            "en": "With so much change and so much work, staying informed about the priorities, policies and programs we are delivering this year and beyond can be a challenge.",
            "fr": "Tant de changements et tant de travail font qu'il peut \u00eatre difficile de se tenir au courant des priorit\u00e9s, des politiques et des programmes en vigueur cette ann\u00e9e et au cours des ann\u00e9es \u00e0 venir."
        },
        "language": {
            "en": "eng",
            "fr": "fra"
        },
        "keywords": {
            "en": "departmental and branch priorities, Integrated Business and Human Resources Plan (IBHRP), AgriCulture",
            "fr": "priorit\u00e9s du Minist\u00e8re et des directions g\u00e9n\u00e9rales, Plan int\u00e9gr\u00e9 des activit\u00e9s et des ressources humaines (PIARH), AgriCulture"
        },
        "audience": {
            "en": "gcaudience",
            "fr": "gcaudience"
        },
        "type": {
            "en": "resource list",
            "fr": "liste de r\u00e9f\u00e9rence"
        },
        "creator": {
            "en": "Agriculture and Agri-Food Canada",
            "fr": "Agriculture et Agroalimentaire Canada"
        },
        "spatial": {
            "en": "gcregions",
            "fr": "gcregions"
        },
        "service": {
            "en": "AAFC_AgriSource",
            "fr": "AAC_AgriSource"
        },
        "accessRights": {
            "en": "3",
            "fr": "3"
        }
    },
    "body": {
        "en": "<section>\n\t\t\t   \n\n\n  \n  <div class=\"row\">\n\t<div class=\"col-md-3 pull-right\">\n\n    <div class=\"row\">\n  <div class=\"col-md-6 mrgn-rght-0\">\n       <figure class=\"text-center\">\n       <img src=\"https://intranet.agr.gc.ca/resources/prod/images/dm_corner/our_team/minister_corner_chris_forbes_2019.jpg\" alt=\"\" class=\"text-center img-responsive\">\n       <figcaption class=\"small\"><b>Deputy Minister<br>Chris Forbes</b></figcaption>\n</figure>\n</div>\n  <div class=\"col-md-6 mrgn-rght-0\">\n       <figure class=\"text-center\">\n       <img src=\"https://intranet.agr.gc.ca/resources/prod/images/dm_corner/our_team/adm_annette_gibbons_2019.jpg\" alt=\"\" class=\"text-center img-responsive\">\n       <figcaption class=\"small\"><b>Associate Deputy Minister<br>Annette Gibbons</b></figcaption>\n       </figure>\n  </div>\n   </div>\n\n<section class=\"panel panel-primary\">\n      <header class=\"panel-heading\">\n        <h2 class=\"panel-title\">Videos</h2>\n      </header>\n      <div class=\"panel-body\">\n        <ul class=\"lst-spcd\">\n<li><a href=\"?id=1599140235665\">Returning to the workplace safely</a></li>        \n<li><a href=\"?id=1523383917601\">Let's Talk: Connecting with Employees</a></li>\n        </ul>\n      </div>\n    </section>\n\n<section class=\"panel panel-primary\">\n      <header class=\"panel-heading\">\n        <h2 class=\"panel-title\">Most requested</h2>\n      </header>\n      <div class=\"panel-body\">\n        <ul class=\"list-unstyled lst-spcd\">\n        <li><a href=\"http://www.agr.gc.ca/eng/?id=1510839111270\">Public Service Renewal Results for Agriculture and Agri-Food Canada</a></li>\n          <li><a href=\"?id=1287433335737\">2019-2020 Priorities</a></li>\n        </ul>\n      </div>\n    </section>\n    \n    <section class=\"panel panel-primary\">\n      <header class=\"panel-heading\">\n        <h2 class=\"panel-title\">Contact us</h2>\n      </header>\n      <div class=\"panel-body\">\n        Feedback to your Deputy Ministers: <a href=\"mailto:aafc.dmcommunications-communicationssm.aac@canada.ca%0A\">aafc.dmcommunications-communicationssm.aac<br>@canada.ca</a>\n      </div>\n    </section>\n\n </div>\n  \n<div class=\"mrgn-lft-0 mrgn-rght-0 col-md-9\">\n    <p>Stay in touch with the latest information on the work you are contributing to. We encourage you to read and use these resources.</p>\n\n\n<h2>Services and information</h2>\n\n<div class=\"row\">\n<section class=\"col-md-6\">\n<h3 class=\"h5\"><a href=\"?id=1292849191397\">Our Team</a></h3>\n<p>Learn about the Deputy Ministers' team.</p>\n</section>\n\n<section class=\"col-md-6\">\n<h3 class=\"h5\"><a href=\"?id=1294860228763\">Deputy Ministers' Messages</a></h3>\n<p>View current and historical messages</p>\n</section>\n</div>\n\n<div class=\"row\">\n\n\n<section class=\"col-md-6\">\n<h3 class=\"h5\"><a href=\"https://collab.agr.gc.ca/apps/harvest-moisson\">The Harvest</a></h3>\n<p>Our online magazine! A good way to find out what your colleagues are doing across the country.</p>  \n</section>\n\n\n<section class=\"col-md-6\">\n<h3 class=\"h5\"><a href=\"?id=1311865754938\">news@work</a></h3>\n<p>Weekly interactive online bulletin where you can read about your colleagues' success stories, comment on articles and stay on-top of departmental initiatives.</p> \n</section>\n</div>\n\n \n    <section class=\"alert alert-info mrgn-tp-lg\">\n      <h3>Conversation with the Deputies</h3>\n      <p>We want to hear from you! Be part of these one-hour sessions taking place in an informal setting and engage in the conversation. Sign up now at <a href=\"mailto:aafc.dmcommunications-communicationssm.aac@canada.ca\">aafc.dmcommunications-communicationssm.aac@canada.ca</a>.</p>      \n    </section>\n\n</div>\n</div>\n\n\n\t\t</section>",
        "fr": "<section>\n\t\t\t   \n\n\n  \n  <div class=\"row\">\n\t<div class=\"col-md-3 pull-right\">\n\n    <div class=\"row\">\n  <div class=\"col-md-6 mrgn-rght-0\">\n       <figure class=\"text-center\">\n       <img src=\"https://intranet.agr.gc.ca/resources/prod/images/dm_corner/our_team/minister_corner_chris_forbes_2019.jpg\" alt=\"\" class=\"text-center img-responsive\">\n       <figcaption class=\"small\"><b>Sous-ministre<br>Chris Forbes</b></figcaption>\n</figure>\n</div>\n  <div class=\"col-md-6 mrgn-rght-0\">\n       <figure class=\"text-center\">\n       <img src=\"https://intranet.agr.gc.ca/resources/prod/images/dm_corner/our_team/adm_annette_gibbons_2019.jpg\" alt=\"\" class=\"text-center img-responsive\">\n       <figcaption class=\"small\"><b>Sous-ministre d\u00e9l\u00e9gu\u00e9e<br>Annette Gibbons</b></figcaption>\n       </figure>\n  </div>\n   </div>\n\n<section class=\"panel panel-primary\">\n      <header class=\"panel-heading\">\n        <h2 class=\"panel-title\">Vid\u00e9os</h2>\n      </header>\n      <div class=\"panel-body\">\n        <ul class=\"lst-spcd\">\n        <li><a href=\"?id=1599140235665\">Un retour au bureau en toute s\u00e9curit\u00e9</a></li>\n               <li><a href=\"?id=1523383917601\">Prendre le pouls des employ\u00e9s d'AAC\u00a0: parlons-en</a></li>\n        </ul>\n      </div>\n    </section>\n  \n\n        <section class=\"panel panel-primary\">\n      <header class=\"panel-heading\">\n        <h2 class=\"panel-title\">Les plus populaires</h2>\n      </header>\n      <div class=\"panel-body\">\n        <ul class=\"list-unstyled lst-spcd\">\n        <li><a href=\"http://www.agr.gc.ca/fra/?id=1510839111270\">R\u00e9sultats du renouvellement de la fonction publique de l'Agriculture et Agroalimentaire Canada</a></li>\n          <li><a href=\"?id=1287433335737\">Priorit\u00e9s de 2019-2020</a></li>          \n        </ul>\n      </div>\n    </section>\n    <section class=\"panel panel-primary\">\n      <header class=\"panel-heading\">\n        <h2 class=\"panel-title\">Contactez-nous</h2>\n      </header>\n      <div class=\"panel-body\">\n        Commentaires pour les sous-ministres : <a href=\"mailto:aafc.dmcommunications-communicationssm.aac@canada.ca\">aafc.dmcommunications-communicationssm.aac<br>@canada.ca</a>\n      </div>\n    </section>\n\n </div>\n  \n  <div class=\"mrgn-lft-0 mrgn-rght-0 col-md-9\">\n    <p>Demeurez au fait des r\u00e9sultats de votre travail.  Nous vous invitons \u00e0 lire et \u00e0 utiliser les ressources fournies sur la pr\u00e9sente  page.</p>\n\n<h2>Services et renseignements</h2>\n<div class=\"row\">\n<section class=\"col-md-6\">\n<h3 class=\"h5\"><a href=\"?id=1292849191397\">Notre \u00e9quipe</a></h3>\n<p>Conna\u00eetre l'\u00e9quipe des sous-ministres.</p>\n</section>\n\n<section class=\"col-md-6\">\n<h3 class=\"h5\"><a href=\"?id=1294860228763\">Messages des sous-ministres</a></h3>\n<p>Messages  r\u00e9cents et archiv\u00e9s.</p>\n</section>\n</div>\n\n<div class=\"row\">\n\n\n<section class=\"col-md-6\">\n<h3 class=\"h5\"><a href=\"https://collab.agr.gc.ca/apps/harvest-moisson\">La Moisson</a></h3>\n<p>Notre  magazine en ligne! Une bonne source pour savoir ce que font vos coll\u00e8gues d'un  bout \u00e0 l'autre du pays.</p>  \n</section>\n\n<section class=\"col-md-6\">\n<h3 class=\"h5\"><a href=\"?id=1311865754938\">nouvelles@l'ouvrage</a></h3>\n<p>Bulletin hebdomadaire en ligne interactif vous informant des r\u00e9ussites de vos coll\u00e8gues  et des initiatives minist\u00e9rielles et vous permettant de commenter des articles.</p> \n</section>\n</div>\n\n\n    <section class=\"alert alert-info mrgn-tp-lg\">\n      <h3>Conversation avec les sous-ministres</h3>\n      <p>Nous voulons conna\u00eetre votre opinion. Participez  \u00e0 ces s\u00e9ances informelles d'une heure pour parler avec les sous-ministres. Inscrivez-vous d\u00e8s maintenant en \u00e9crivant au <a href=\"mailto:aafc.dmcommunications-communicationssm.aac@canada.ca\">aafc.dmcommunications-communicationssm.aac@canada.ca</a>.</p>      \n    </section>\n\n\n </div>\n</div>\n\t\t</section>"
    }
}