{
    "has_dcr_id": true,
    "node_id": "1292442160799",
    "parent_node_id": "1285342872241",
    "dcr_id": "1292849191397",
    "landingPageUrl": {
        "en": "1292849191397",
        "fr": "1292849191397"
    },
    "parent_dcr_id": "1288789122212",
    "breadcrumb": {
        "en": "Our Team",
        "fr": "Notre \u00e9quipe"
    },
    "node_title": {
        "en": "null",
        "fr": "null"
    },
    "title": {
        "en": "Our Team",
        "fr": "Notre \u00e9quipe"
    },
    "type": "our_dept",
    "meta": {
        "issued": {
            "en": "2011-01-10",
            "fr": "2011-01-10"
        },
        "modified": {
            "en": "2020-09-15",
            "fr": "2020-09-15"
        },
        "format": {
            "en": "gcformat",
            "fr": "gcformat"
        },
        "title": {
            "en": "Our Team",
            "fr": "Notre \u00e9quipe"
        },
        "subject": {
            "en": "staffing;strategic management;executive and intergovernmental services",
            "fr": "dotation en personnel;gestion strat\u00e9gique ;services \u00e0 la haute direction et intergouvernementales"
        },
        "description": {
            "en": "The Deputy Minister is the principal advisor to the Minister and ensures that policy development and advice reflect the needs of the government and the portfolio. The Associate Deputy Minister assumes certain responsibilities on behalf of the Deputy Minister and supports her on several important files. Within the Deputy Minister's Office are the Corporate Secretariat including Parliamentary Relations and the Portfolio Coordination Secretariat.",
            "fr": "La sous-ministre est la conseill\u00e8re principale du ministre; \u00e0 ce titre, elle s'assure que les politiques \u00e9labor\u00e9es et les conseils dispens\u00e9s r\u00e9pondent aux besoins du gouvernement et du portefeuille. Le sous-ministre d\u00e9l\u00e9gu\u00e9 assume quant \u00e0 lui certaines responsabilit\u00e9s au nom de la sous-ministre et l'\u00e9paule dans plusieurs dossiers importants. Le bureau de la sous-ministre est compos\u00e9 du Secr\u00e9tariat du minist\u00e8re qui inclut l'\u00e9quipe des relations parlementaires et le Secr\u00e9tariat de la coordination du portefeuille."
        },
        "language": {
            "en": "eng",
            "fr": "fra"
        },
        "keywords": {
            "en": "Deputy Minister, Associate Deputy Minister, Corporate Secretary, Senior Policy Advisor, Manager, Parliamentary Relations Office",
            "fr": "sous-ministre, sous-ministre d\u00e9l\u00e9gu\u00e9, secr\u00e9taire g\u00e9n\u00e9ral, conseill\u00e8re principale, gestionnaire"
        },
        "audience": {
            "en": "gcaudience",
            "fr": "gcaudience"
        },
        "type": {
            "en": "organizational description",
            "fr": "description de l'organisation;r\u00e9sum\u00e9"
        },
        "creator": {
            "en": "Agriculture and Agri-Food Canada",
            "fr": "Agriculture et Agroalimentaire Canada"
        },
        "spatial": {
            "en": "gcregions",
            "fr": "gcregions"
        },
        "service": {
            "en": "AAFC_AgriSource",
            "fr": "AAC_AgriSource"
        },
        "accessRights": {
            "en": "3",
            "fr": "3"
        }
    },
    "body": {
        "en": "\n\t\t\t  \n<p>The Deputy Minister, Chris Forbes, is the principal advisor to the Minister and ensures that policy development and advice reflect the needs of the government and the portfolio.  Within the Deputy Minister's Office are the Corporate Secretariat including Parliamentary Relations and the Portfolio Coordination Secretariat.</p>\n\n<nav>\n<p><a href=\"#ChrisForbes\">Chris Forbes</a>, Deputy Minister<br>\n<a href=\"#AnnetteGibbons\">Annette Gibbons</a>, Associate Deputy Minister<br>\n<a href=\"#KatherineMacDonald\">Katherine MacDonald</a>, Corporate Secretary<br>\n<a href=\"#ClaireMullen\">Claire Mullen</a>, Senior Policy Advisor, Deputy Minister's Office<br>\n<a href=\"#BonnieFung\">Bonnie Fung</a>, Senior Policy Advisor, Associate Deputy Minister's Office<br>\n<a href=\"#SophieBedard\">Sophie B\u00e9dard</a>, Director, Parliamentary Relations Office and Portfolio Coordination Secretariat</p>\n</nav>\n\n<!-- Remove divs once content is added. Divs are in place to correct spacing issue -->\n<div class=\"row\">\n<div class=\"col-12-md mrgn-lft-md\">\n<h2 id=\"ChrisForbes\">Chris Forbes, Deputy Minister</h2>\n<img src=\"https://intranet.agr.gc.ca/resources/prod/images/dm_corner/our_team/dm_forbes_06062017.jpg\" class=\"pull-right mrgn-rght-md mrgn-lft-md\" alt=\"\">\n\n<p>On May 29, 2017, Chris Forbes was appointed Deputy Minister of Agriculture and Agri-Food Canada (AAFC).</p> \n\n<p>Prior to returning to AAFC, Mr. Forbes served as Associate Deputy Minister of the Department of Finance from November 2016 to May 2017. He was Associate Deputy Minister of Agriculture and Agri-Food Canada from January 2015 to November 2016. From May 2013 to January 2015, Mr. Forbes was Assistant Deputy Minister, Strategic Policy Branch and Regional Directors General Offices at Environment Canada. From November 2010 to May 2013, he was Assistant Deputy Minister, Federal-Provincial Relations and Social Policy Branch at the Department of Finance.</p> \n\n<p>Mr. Forbes joined the federal government in 2000, and has held several senior positions in the areas of policy development, economic analysis and regulations and managed a range of regional programs. He has also worked for the Government of the Northwest Territories and the Toronto Dominion Bank. Mr. Forbes holds a Masters in Economics from McGill University.</p>\n\n</div></div>\n\n<div class=\"row\">\n<div class=\"col-12-md mrgn-lft-md\">\n<h2 id=\"AnnetteGibbons\">Annette Gibbons, Associate Deputy Minister</h2>\n<img src=\"https://intranet.agr.gc.ca/resources/prod/images/dm_corner/our_team/adm_gibbons_bio.jpg\" class=\"pull-right mrgn-rght-md mrgn-lft-md\" alt=\"\">\n\n<p>On  October 29, 2018, Annette Gibbons assumed the role of Associate Deputy Minister  at Agriculture and Agri-Food Canada (AAFC).</p>\n\n<p>Before  joining AAFC, Annette served as Assistant Secretary to the Cabinet, Foreign  Direct Investment, Privy Council Office (PCO), and Special Advisor, Senior  Personnel Secretariat at PCO from 2017 to 2018.</p>\n\n<p>Annette  also held the position of Assistant Secretary, Social and Cultural Sector at  the Treasury Board of Canada Secretariat (2014-2017); Assistant Deputy  Minister, Major Projects Management Office at Natural Resources Canada  (2013-2014); and Director General, Surface Transportation Policy at Transport  Canada (2009-2013).</p>\n\n<p>From  2003 to 2009, Annette held several senior positions at Canadian Heritage  including Associate Director General, Cultural Industries (2006-2009).</p>\n\n<p>Annette  holds a Masters of Business Administration degree from the University of Ottawa  and a Masters of Arts in Public Administration from Carleton University.</p>\n</div></div>\n\n\n<h2 id=\"KatherineMacDonald\">Katherine MacDonald, Corporate Secretary</h2>\n\n<p>Katherine MacDonald is Corporate Secretary at Agriculture and Agri-Food Canada. She has worked in various executive roles at AAFC since 2008 in Market and Industry Services and Strategic Policy Branches. She has been with the department since 2005 and worked previously for the Canada Revenue Agency. She attended Carleton University and has a Bachelor of Journalism. She lives and works in Ottawa. See <a href=\"http://directinfo.agr.gc.ca/directInfo/eng/index.php?fuseaction=agriInfo.empView&amp;dn=cn=MacDonald%5C2C%20Katherine%20(macdonaldkat),OU=CS-SM,OU=DMO-BSM,OU=AAFC-AAC,o=gc,c=ca\">Katherine MacDonald</a>\u2019s contact information in the employee directory.</p>\n\n<h2 id=\"ClaireMullen\">Claire Mullen, Senior Policy Advisor</h2>\n\n<p>Provides timely advice to the Deputy Minister on emerging policy issues and is the key contact in the Deputy Minister's Office (DMO) for inquiries with respect to these issues. Accompanies and assists the Deputy Minister at all meetings. Liaises with the Minister's Office and senior personnel within the Department. In addition, reviews, assesses and prioritizes all documentation on behalf of the Deputy Minister. See <a href=\"http://directinfo.agr.gc.ca/directInfo/eng/index.php?fuseaction=agriInfo.empView&amp;dn=cn=Mullen%5C2C%20Claire%20(mullenc),ou=PRPCS-RPSCP,OU=CS-SM,OU=DMO-BSM,OU=AAFC-AAC,o=gc,c=ca\" title=\"DirectInfo\">Claire Mullen</a>'s contact information in the employee directory.</p>\n\n<h2 id=\"BonnieFung\">Bonnie Fung, Senior Policy Advisor</h2>\n\n<p>Provides timely advice to the Associate Deputy  Minister on emerging policy issues and is the key contact in the Associate  Deputy Minister's Office (ADMO) for inquiries with respect to these issues.  Accompanies and assists the Associate Deputy Minister at all meetings. Liaises  with the Minister's Office and senior personnel within the Department. In  addition, reviews, assesses and prioritizes all documentation on behalf of the  Associate Deputy Minister. See <a href=\"http://directinfo.agr.gc.ca/directInfo/eng/index.php?fuseaction=agriInfo.empView&amp;dn=cn=Fung%5C2C%20Bonnie%20(fungb),OU=DMO-BSM,OU=AAFC-AAC,o=gc,c=ca\" title=\"DirectInfo\">Bonnie Fung</a>'s contact information in the employee directory.</p>\n\n<h2 id=\"SophieBedard\">Sophie B\u00e9dard, Director, Parliamentary Relations Office and Portfolio Coordination Secretariat</h2>\n\n<p>The Parliamentary Relations Office and Portfolio Coordination Secretariat act as liaison between Parliament, the Minister's Office, and the Department and agencies on all issues that impact directly or indirectly on the work of the Portfolio. The office coordinates Question Period notes, monitors Parliamentary committees and private members business, and manages the progress of Portfolio legislation through Parliament. The Portfolio Coordination Secretariat manages the processes related to Governor in Council and ministerial appointments and ensures effective coordination of portfolio-wide approaches to the management of policy and issues across all Agriculture and Agri-food portfolio organizations while supporting the Deputy Minister in his role as the principal policy advisor for the Minister. See <a href=\"http://directinfo.agr.gc.ca/directInfo/eng/index.php?fuseaction=agriInfo.empView&amp;dn=cn=Bedard%5C2C%20Sophie%20(bedardso),ou=PRPCS-RPSCP,OU=CS-SM,OU=DMO-BSM,OU=AAFC-AAC,o=gc,c=ca\" title=\"DirectInfo\">Sophie B\u00e9dard</a>'s contact information in the employee directory.</p>\n\t\t",
        "fr": "\n\t\t\t  \n<p>Le sous-ministre Chris Forbes est le conseiller principal du ministre; \u00e0 ce titre, il s'assure que les politiques \u00e9labor\u00e9es et les conseils dispens\u00e9s r\u00e9pondent aux besoins du gouvernement et du portefeuille.  Le bureau du sous-ministre est compos\u00e9 du Secr\u00e9tariat du minist\u00e8re qui inclut l'\u00e9quipe des relations parlementaires et le Secr\u00e9tariat de la coordination du portefeuille.</p>\n<nav>\n<p><a href=\"#ChrisForbes\">Chris Forbes</a>, sous-ministre<br>\n<a href=\"#AnnetteGibbons\">Annette Gibbons</a>, sous-ministre d\u00e9l\u00e9gu\u00e9e<br>\n<a href=\"#KatherineMacDonald\">Katherine MacDonald</a>, secr\u00e9taire g\u00e9n\u00e9rale<br>\n<a href=\"#ClaireMullen\">Claire Mullen</a>, conseill\u00e8re principale, Politiques, Bureau du sous-ministre<br>\n<a href=\"#BonnieFung\">Bonnie Fung</a>, conseill\u00e8re principale, Politiques, Bureau de la sous-ministre d\u00e9l\u00e9gu\u00e9e<br>\n<a href=\"#SophieBedard\">Sophie B\u00e9dard</a>, directrice, Bureau des relations parlementaires et Secr\u00e9tariat de la coordination du portefeuille</p>\n</nav>\n\n<!-- Remove divs once content is added. Divs are in place to correct spacing issue -->\n<div class=\"row\">\n<div class=\"col-12-md mrgn-lft-md\">\n<h2 id=\"ChrisForbes\">Chris Forbes, sous-ministre</h2>\n<img src=\"https://intranet.agr.gc.ca/resources/prod/images/dm_corner/our_team/dm_forbes_06062017.jpg\" class=\"pull-right mrgn-rght-md mrgn-lft-md\" alt=\"\">\n\n<p>Chris Forbes a \u00e9t\u00e9 nomm\u00e9 au poste de sous-ministre d\u2019Agriculture et Agroalimentaire Canada (AAC) le 29 mai 2017.</p>\n\n<p>Avant son retour \u00e0 AAC, M. Forbes a exerc\u00e9 les fonctions de sous-ministre d\u00e9l\u00e9gu\u00e9 au minist\u00e8re des Finances de novembre 2016 \u00e0 mai 2017. Il avait auparavant \u00e9t\u00e9 sous-ministre d\u00e9l\u00e9gu\u00e9 d\u2019Agriculture et Agroalimentaire Canada de janvier 2015 \u00e0 novembre 2016. Au cours de la p\u00e9riode de mai 2013 \u00e0 janvier 2015, M. Forbes a occup\u00e9 le poste de sous-ministre adjoint responsable de la Direction g\u00e9n\u00e9rale des politiques strat\u00e9giques et des bureaux des directeurs g\u00e9n\u00e9raux r\u00e9gionaux d\u2019Environnement Canada. De novembre 2010 \u00e0 mai 2013, il a \u00e9t\u00e9 sous-ministre adjoint \u00e0 la Direction des relations f\u00e9d\u00e9rales provinciales et de la politique sociale du minist\u00e8re des Finances.</p>\n\n<p>M. Forbes est entr\u00e9 au service du gouvernement f\u00e9d\u00e9ral en 2000. Il a occup\u00e9 plusieurs postes de direction dans les domaines de l\u2019\u00e9laboration des politiques, de l\u2019analyse \u00e9conomique et de la r\u00e9glementation et g\u00e9r\u00e9 divers programmes r\u00e9gionaux. Il a aussi travaill\u00e9 pour le gouvernement des Territoires du Nord-Ouest et la banque Toronto Dominion. M. Forbes est titulaire d\u2019une ma\u00eetrise en \u00e9conomie de l\u2019Universit\u00e9 McGill.</p>\n\n\n</div></div>\n\n<div class=\"row\">\n<div class=\"col-12-md mrgn-lft-md\">\n<h2 id=\"AnnetteGibbons\">Annette Gibbons, Sous-ministre d\u00e9l\u00e9gu\u00e9e</h2>\n<img src=\"https://intranet.agr.gc.ca/resources/prod/images/dm_corner/our_team/adm_gibbons_bio.jpg\" class=\"pull-right mrgn-rght-md mrgn-lft-md\" alt=\"\">\n\n<p>Annette Gibbons est devenue sous-ministre  d\u00e9l\u00e9gu\u00e9e d\u2019Agriculture et Agroalimentaire Canada (AAC) le 29 octobre 2018.</p>\n\n<p>Avant de se joindre \u00e0 AAC, Annette a exerc\u00e9 les  fonctions de secr\u00e9taire adjointe du Cabinet (Investissement direct \u00e9tranger) au  Bureau du Conseil priv\u00e9 (BCP) et celles de conseill\u00e8re sp\u00e9ciale au Secr\u00e9tariat  du personnel sup\u00e9rieur du BCP de 2017 \u00e0 2018.</p>\n\n<p>Annette a \u00e9galement exerc\u00e9 les fonctions de  secr\u00e9taire adjointe, Secteur des programmes sociaux et culturels, au  Secr\u00e9tariat du Conseil du Tr\u00e9sor du Canada (2014 \u00e0 2017), de sous-ministre  adjointe, Bureau de gestion des grands projets, \u00e0 Ressources naturelles Canada  (2013 et 2014) et de directrice g\u00e9n\u00e9rale, Politique des transports terrestres,  \u00e0 Transports Canada (2009 \u00e0 2013).</p>\n\n<p>De 2003 \u00e0 2009, Annette a occup\u00e9 plusieurs  postes sup\u00e9rieurs au minist\u00e8re du Patrimoine canadien, notamment celui de  directrice g\u00e9n\u00e9rale associ\u00e9e, Industries culturelles (2006 \u00e0 2009).</p>\n\n<p>Annette est titulaire d\u2019une ma\u00eetrise en  administration des affaires de l\u2019Universit\u00e9 d\u2019Ottawa et d\u2019une ma\u00eetrise \u00e8s arts  en administration publique de l\u2019Universit\u00e9 Carleton.</p>\n</div></div>\n\n<h2 id=\"KatherineMacDonald\">Katherine MacDonald, secr\u00e9taire g\u00e9n\u00e9rale</h2>\n\n<p>Katherine MacDonald est secr\u00e9taire g\u00e9n\u00e9rale \u00e0 Agriculture et Agroalimentaire Canada. Depuis 2008, elle a occup\u00e9 divers postes de direction \u00e0 la Direction g\u00e9n\u00e9rale des services \u00e0 l\u2019industrie et aux march\u00e9s et \u00e0 la Direction g\u00e9n\u00e9rale des politiques strat\u00e9giques d\u2019AAC. Elle est arriv\u00e9e au Minist\u00e8re en 2005 et travaillait auparavant \u00e0 l\u2019Agence du revenu du Canada. Elle a obtenu un baccalaur\u00e9at en journalisme de l\u2019Universit\u00e9 Carleton. Elle r\u00e9side et travaille \u00e0 Ottawa. Consultez les coordonn\u00e9es de <a href=\"http://directinfo.agr.gc.ca/directInfo/fra/index.php?fuseaction=agriInfo.empView&amp;dn=cn=MacDonald%5C2C%20Katherine%20(macdonaldkat),OU=CS-SM,OU=DMO-BSM,OU=AAFC-AAC,o=gc,c=ca\">Katherine MacDonald</a> dans le r\u00e9pertoire des employ\u00e9s.</p>\n\n<h2 id=\"ClaireMullen\">Claire Mullen, conseill\u00e8re principale, Politiques</h2>\n\n<p>Prodigue des conseils, en temps opportun, au sous-ministre sur de nouvelles questions strat\u00e9giques et agit \u00e0 titre de personne-ressource dans le Bureau du sous-ministre (BSM) pour toute demande relative \u00e0 ces questions. Accompagne le sous-ministre \u00e0 toutes les r\u00e9unions et lui pr\u00eate main-forte. Assure le lien avec le Cabinet du ministre et la haute direction du Minist\u00e8re. De plus, examine, \u00e9value et classe par ordre de priorit\u00e9 tout document pour le sous-ministre. Consultez les coordonn\u00e9es de <a href=\"http://directinfo.agr.gc.ca/directInfo/fra/index.php?fuseaction=agriInfo.empView&amp;dn=cn=Mullen%5C2C%20Claire%20(mullenc),ou=PRPCS-RPSCP,OU=CS-SM,OU=DMO-BSM,OU=AAFC-AAC,o=gc,c=ca\" title=\"DirectInfo\">Claire Mullen</a> dans le r\u00e9pertoire des employ\u00e9s.</p>\n\n<h2 id=\"BonnieFung\">Bonnie Fung, conseill\u00e8re principale, Politiques</h2>\n\n<p>Prodigue des conseils, en temps opportun, \u00e0 la sous-ministre d\u00e9l\u00e9gu\u00e9e sur de nouvelles questions strat\u00e9giques et agit \u00e0 titre  de personne-ressource dans le Bureau de la sous-ministre d\u00e9l\u00e9gu\u00e9e (BSMD) pour toute  demande relative \u00e0 ces questions. Accompagne la sous-ministre d\u00e9l\u00e9gu\u00e9e \u00e0 toutes  les r\u00e9unions et lui pr\u00eate main-forte. Assure le lien avec le Cabinet du  ministre et la haute direction du Minist\u00e8re. De plus, examine, \u00e9value et classe  par ordre de priorit\u00e9 tout document pour la sous-ministre d\u00e9l\u00e9gu\u00e9e. Consultez  les coordonn\u00e9es de <a href=\"http://directinfo.agr.gc.ca/directInfo/fra/index.php?fuseaction=agriInfo.empView&amp;dn=cn=Fung%5C2C%20Bonnie%20(fungb),OU=DMO-BSM,OU=AAFC-AAC,o=gc,c=ca\" title=\"DirectInfo\">Bonnie Fung</a> dans le r\u00e9pertoire des employ\u00e9s.</p>\n\n<h2 id=\"SophieBedard\">Sophie B\u00e9dard, directrice, Bureau des relations parlementaires et Secr\u00e9tariat de la coordination du portefeuille</h2>\n\n<p>Le Bureau des relations parlementaires et le Secr\u00e9tariat de la coordination du portefeuille jouent le r\u00f4le d'agent de liaison entre le Parlement, le Cabinet du ministre et le Minist\u00e8re et ses organismes \u00e0 l'\u00e9gard de tous les dossiers qui ont une incidence directe ou indirecte sur le travail du Portefeuille. Le Bureau coordonne la pr\u00e9paration des notes pour la p\u00e9riode des questions, surveille les travaux des comit\u00e9s parlementaires et les initiatives parlementaires (affaires \u00e9manant des d\u00e9put\u00e9s) et suit la progression des projets de loi du Portefeuille au Parlement. Le Secr\u00e9tariat, quant \u00e0 lui, g\u00e8re les processus li\u00e9s aux d\u00e9crets de nomination et aux affectations minist\u00e9rielles, assure la coordination efficace des approches globales de la gestion des politiques et des enjeux pour toutes les organisations du Portefeuille de l'agriculture et de l'agroalimentaire et appuie le sous-ministre dans son r\u00f4le de conseiller politique principal du ministre. Voir les coordonn\u00e9es de <a href=\"http://directinfo.agr.gc.ca/directInfo/fra/index.php?fuseaction=agriInfo.empView&amp;dn=cn=Bedard%5C2C%20Sophie%20(bedardso),ou=PRPCS-RPSCP,OU=CS-SM,OU=DMO-BSM,OU=AAFC-AAC,o=gc,c=ca\" title=\"DirectInfo\">Sophie B\u00e9dard</a> dans le r\u00e9pertoire des employ\u00e9s.</p>\n\t\t"
    }
}