{
    "has_dcr_id": true,
    "node_id": "1313611985108",
    "parent_node_id": "1279030317647",
    "dcr_id": "1308685719458",
    "landingPageUrl": {
        "en": "1308685719458",
        "fr": "1308685719458"
    },
    "parent_dcr_id": "1287487121135",
    "breadcrumb": {
        "en": "Communications Advisors",
        "fr": "Conseillers en communications"
    },
    "node_title": {
        "en": "null",
        "fr": "null"
    },
    "title": {
        "en": "Communications Advisors",
        "fr": "Conseillers en communications"
    },
    "type": "find_people",
    "meta": {
        "issued": {
            "en": "2011-06-27",
            "fr": "2011-06-27"
        },
        "modified": {
            "en": "2017-08-18",
            "fr": "2017-08-18"
        },
        "format": {
            "en": "gcformat",
            "fr": "gcformat"
        },
        "title": {
            "en": "Communications Advisors ",
            "fr": "Conseillers en communications "
        },
        "subject": {
            "en": "communications",
            "fr": "communications"
        },
        "description": {
            "en": "Communications Advisors provide strategic communications advice and services to the Minister's Office, Senior Executives and Agriculture and Agri-Food Canada (AAFC) Branch clients.",
            "fr": "Les Conseillers en communications prodiguent des conseils et assurent des services de communications strat\u00e9giques au cabinet du ministre, aux cadres sup\u00e9rieurs et aux clients de la Direction g\u00e9n\u00e9rale d'Agriculture et Agroalimentaire Canada (AAC)."
        },
        "language": {
            "en": "eng",
            "fr": "fra"
        },
        "audience": {
            "en": "gcaudience",
            "fr": "gcaudience"
        },
        "type": {
            "en": "fact sheet",
            "fr": "fiche de renseignements"
        },
        "creator": {
            "en": "Agriculture and Agri-Food Canada",
            "fr": "Agriculture et Agroalimentaire Canada"
        },
        "spatial": {
            "en": "gcregions",
            "fr": "gcregions"
        },
        "service": {
            "en": "AAFC_AgriSource",
            "fr": "AAC_AgriSource"
        },
        "accessRights": {
            "en": "3",
            "fr": "3"
        }
    },
    "body": {
        "en": "\n\t\t\t  \n<p>Communications Advisors provide strategic communications advice and services to the Minister's Office, Senior Executives and Agriculture and Agri-Food Canada (AAFC) Branch clients.</p>\n<p>We have Communications Managers and Advisors who directly support each AAFC Branch, Region and Board.</p>\n<p>Our Communications Managers and Advisors:</p>\n<ul>\n<li>Develop and implement communications strategies and make recommendations on how to proactively communicate the department's programs, policies, services, and initiatives through events and other activities;</li>\n<li>Produce and coordinate approvals for news releases, backgrounders, and other strategic communications products for their clients;</li>\n<li>Provide advice on issues management and assist and coordinate the development of reactive communications products such as media lines; and</li>\n<li>Can put you in touch with experts in other areas of the Public Affairs Branch to further address your communications needs.</li>\n</ul>\n\n<h2>Contacts</h2>\n<ul>\n<li><a title=\"DirectInfo\" href=\"http://directinfo.agr.gc.ca/directInfo/eng/index.php?fuseaction=agriInfo.orgUnit&amp;dn=OU=EFSNBRM-ESAPLGRE,OU=SMC-CSM,OU=SPAC-PSCC,OU=CCB-DGCC,OU=AAFC-AAC,o=gc,c=ca\">Programs</a></li>\n<li><a title=\"DirectInfo\" href=\"http://directinfo/cgi-bin/x500_OrgUnitDet?lang=0&amp;DN=OU=CCT-ECM,OU=O,OU=CS-SC,OU=CCB-DGCC,OU=AAFC-AAC,O=GC,C=CA\">Corporate Communications</a></li>\n<li><a href=\"http://directinfo.agr.gc.ca/directInfo/eng/index.php?fuseaction=agriInfo.orgUnit&amp;dn=ou=GF-CA,OU=SMC-CSM,OU=SPAC-PSCC,OU=CCB-DGCC,OU=AAFC-AAC,o=gc,c=ca\">Strategic Policy and Reports to Parliament</a></li>\n<li><a title=\"DirectInfo\" href=\"http://directinfo/cgi-bin/x500_OrgUnitDet?lang=0&amp;DN=OU=ITM-ICM,OU=SMC-CSM,OU=SPAC-PSCC,OU=CCB-DGCC,OU=AAFC-AAC,O=GC,C=CA\">International (Trade and Markets)</a></li>\n<li><a title=\"DirectInfo\" href=\"http://directinfo/cgi-bin/x500_OrgUnitDet?lang=0&amp;DN=OU=MS-SM,OU=SMC-CSM,OU=SPAC-PSCC,OU=CCB-DGCC,OU=AAFC-AAC,O=GC,C=CA\">Ministerial Services</a></li>\n<li><a title=\"DirectInfo\" href=\"http://directinfo/cgi-bin/x500_OrgUnitDet?lang=0&amp;DN=OU=RI-IR,OU=SMC-CSM,OU=SPAC-PSCC,OU=CCB-DGCC,OU=AAFC-AAC,O=GC,C=CA\">Science and Technology</a></li>\n<li><a title=\"DirectInfo\" href=\"http://directinfo.agr.gc.ca/directInfo/eng/index.php?fuseaction=agriInfo.orgUnit&amp;dn=ou=WS-SR,OU=SPAC-PSCC,OU=CCB-DGCC,OU=AAFC-AAC,o=gc,c=ca\">Writing Services</a></li>\n</ul>\n<p>See <a href=\"display-afficher.do?id=1298664211412&amp;lang=eng\">Regional Network</a> for the contact information of regional communications advisors.</p>\n\n\n\t\t",
        "fr": "\n\t\t\t  \n<p>Les Conseillers en communications prodiguent des conseils et assurent des services de communications strat\u00e9giques au cabinet du ministre, aux cadres sup\u00e9rieurs et aux clients de la Direction g\u00e9n\u00e9rale d'Agriculture et Agroalimentaire Canada (AAC).</p>\n<p>Les gestionnaires et les conseillers en communications appuient directement chaque \u00e9quipe d'AAC, chaque r\u00e9gion et chaque conseil.</p>\n<p>Nos gestionnaires et nos conseillers en communications\u00a0:</p>\n<ul>\n<li>\u00e9laborent et mettent en \u0153uvre des strat\u00e9gies de communications et recommandent des fa\u00e7ons proactives pour annoncer les programmes, les politiques, les services et les initiatives du Minist\u00e8re par le biais d'\u00e9v\u00e9nements et d'autres activit\u00e9s;</li>\n<li>produisent des communiqu\u00e9s, des documents d'information et d'autres produits de communications strat\u00e9giques destin\u00e9s \u00e0 leurs clients, et coordonnent leur approbation;</li>\n<li>prodiguent des conseils sur la gestion des dossiers et appuient et coordonnent l'\u00e9laboration des produits de communication r\u00e9actifs, comme les infocapsules;</li>\n<li>peuvent vous mettre en contact avec des sp\u00e9cialistes de la Direction g\u00e9n\u00e9rale des affaires publiques qui sauront r\u00e9pondre \u00e0 vos besoins en mati\u00e8re de communications.</li>\n</ul>\n\n<h2>Personnes-ressources</h2>\n<ul>\n<li><a title=\"DirectInfo\" href=\"http://directinfo.agr.gc.ca/directInfo/fra/index.php?fuseaction=agriInfo.orgUnit&amp;dn=OU=EFSNBRM-ESAPLGRE,OU=SMC-CSM,OU=SPAC-PSCC,OU=CCB-DGCC,OU=AAFC-AAC,o=gc,c=ca\">Programmes</a></li>\n<li><a title=\"DirectInfo\" href=\"http://directinfo/cgi-bin/x500_OrgUnitDet?lang=1&amp;DN=OU=CCT-ECM,OU=O,OU=CS-SC,OU=CCB-DGCC,OU=AAFC-AAC,O=GC,C=CA\">Communications minist\u00e9rielles</a></li>\n<li><a href=\"http://directinfo.agr.gc.ca/directInfo/fra/index.php?fuseaction=agriInfo.orgUnit&amp;dn=ou=GF-CA,OU=SMC-CSM,OU=SPAC-PSCC,OU=CCB-DGCC,OU=AAFC-AAC,o=gc,c=ca\">Politiques strat\u00e9giques et rapports</a></li>\n<li><a title=\"DirectInfo\" href=\"http://directinfo/cgi-bin/x500_OrgUnitDet?lang=1&amp;DN=OU=ITM-ICM,OU=SMC-CSM,OU=SPAC-PSCC,OU=CCB-DGCC,OU=AAFC-AAC,O=GC,C=CA\">International (commerce et march\u00e9s)</a></li>\n<li><a title=\"DirectInfo\" href=\"http://directinfo.agr.gc.ca/directInfo/fra/index.php?fuseaction=agriInfo.orgUnit&amp;dn=ou=WS-SR,OU=SPAC-PSCC,OU=CCB-DGCC,OU=AAFC-AAC,o=gc,c=ca\">Services de r\u00e9daction</a></li>\n<li><a title=\"DirectInfo\" href=\"http://directinfo/cgi-bin/x500_OrgUnitDet?lang=1&amp;DN=OU=MS-SM,OU=SMC-CSM,OU=SPAC-PSCC,OU=CCB-DGCC,OU=AAFC-AAC,O=GC,C=CA\">Services minist\u00e9riels</a></li>\n<li><a title=\"DirectInfo\" href=\"http://directinfo/cgi-bin/x500_OrgUnitDet?lang=1&amp;DN=OU=RI-IR,OU=SMC-CSM,OU=SPAC-PSCC,OU=CCB-DGCC,OU=AAFC-AAC,O=GC,C=CA\">Sciences et technologies</a></li>\n</ul>\n<p>Consultez la section <a href=\"display-afficher.do?id=1298664211412&amp;lang=fra\">R\u00e9seau r\u00e9gional</a> pour obtenir les coordonn\u00e9es des conseillers en communications r\u00e9gionaux.</p>\n\n\t\t"
    }
}