{
    "has_dcr_id": true,
    "node_id": "1374858613407",
    "parent_node_id": "1335898166625",
    "dcr_id": "1374758958748",
    "landingPageUrl": {
        "en": "1374758958748",
        "fr": "1374758958748"
    },
    "parent_dcr_id": "1335897764188",
    "breadcrumb": {
        "en": "Operations",
        "fr": "Op\u00e9rations"
    },
    "node_title": {
        "en": "null",
        "fr": "null"
    },
    "title": {
        "en": "Operations",
        "fr": "Op\u00e9rations"
    },
    "type": "find_people",
    "meta": {
        "issued": {
            "en": "2013-07-26",
            "fr": "2013-07-26"
        },
        "modified": {
            "en": "2016-12-14",
            "fr": "2016-12-14"
        },
        "format": {
            "en": "gcformat",
            "fr": "gcformat"
        },
        "title": {
            "en": "Operations",
            "fr": "Op\u00e9rations"
        },
        "subject": {
            "en": "occupational health and safety;security;travel",
            "fr": "sant\u00e9 et s\u00e9curit\u00e9 au travail;s\u00e9curit\u00e9;voyage"
        },
        "description": {
            "en": "Science and Technology Branch - Operations -STB Travel, Work Safety and Security Programs",
            "fr": "Direction g\u00e9n\u00e9rale des sciences et de la technologie - Op\u00e9rations - Voyages, Programmes de sant\u00e9 et de s\u00e9curit\u00e9 au travail"
        },
        "language": {
            "en": "eng",
            "fr": "fra"
        },
        "audience": {
            "en": "gcaudience",
            "fr": "gcaudience"
        },
        "type": {
            "en": "resource list",
            "fr": "liste de r\u00e9f\u00e9rence"
        },
        "creator": {
            "en": "Agriculture and Agri-Food Canada",
            "fr": "Agriculture et Agroalimentaire Canada"
        },
        "spatial": {
            "en": "gcregions",
            "fr": "gcregions"
        },
        "service": {
            "en": "AAFC_AgriSource",
            "fr": "AAC_AgriSource"
        },
        "accessRights": {
            "en": "3",
            "fr": "3"
        }
    },
    "body": {
        "en": "\n\t\t\t  \n\n<h2>Travel</h2>\n\n<p>The travel guidelines implemented by the Treasury Board on October\u00a03, 2012 have had significant impacts on how staff travel and conduct business in the branch. This site below provides Science and Technology Branch (STB) staff with useful information for domestic and international travel.</p>\n\n<p><a href=\"https://collab.agr.gc.ca/br-dg/stb-dgst/SitePages/Travel%20Reference%20-%20R%C3%A9f%C3%A9rences%20de%20voyages.aspx\">Science and Technology Branch Travel Reference Page</a></p>\n\n\n\n<h2>Work Safety and Security Programs</h2>\n\n<p>Agriculture and Agri-Food Canada is committed to protecting workers' health and safety on the job. Preventing work-related illness and injury is an important job at any workplace, particularly in our research centres. Explore this section for safety programs that our branch follows in the workplace.</p>\n\n<ul>\n      <li><a href=\"display-afficher.do?id=1320241655630&amp;lang=eng\">Containment, Biosafety and Biosecurity Program</a></li>\n      <li><a href=\"display-afficher.do?id=1321562720661&amp;lang=eng\">Occupational Health and Safety</a></li>\n      <li><a href=\"display-afficher.do?id=1305140719456&amp;lang=eng\">National Radiation Safety Program</a></li>\n</ul>\n\n\t\t",
        "fr": "\n\t\t\t  \n\n<h2>Voyages</h2>\n\n<p>Les lignes directrices du Conseil du Tr\u00e9sor qui sont entr\u00e9es en vigueur le 3\u00a0octobre 2012 ont boulevers\u00e9 consid\u00e9rablement les habitudes de voyage et de travail du personnel de la Direction g\u00e9n\u00e9rale des sciences et de la technologie (DGST). Vous trouverez au site ci-dessous des renseignements utiles pour vos voyages au pays et \u00e0 l'\u00e9tranger.</p>\n\n<p><a href=\"https://collab.agr.gc.ca/br-dg/stb-dgst/SitePages/Travel%20Reference%20-%20R%c3%a9f%c3%a9rences%20de%20voyages.aspx\">Documents de r\u00e9f\u00e9rence pour les voyages de la Direction g\u00e9n\u00e9rale des sciences et de la technologie</a></p>\n\n\n<h2>Programmes de sant\u00e9 et de s\u00e9curit\u00e9 au travail</h2>\n\n<p>Agriculture et Agroalimentaire Canada est d\u00e9termin\u00e9 \u00e0 prot\u00e9ger la sant\u00e9 et la s\u00e9curit\u00e9 de ses employ\u00e9s en milieu de travail. La pr\u00e9vention des maladies et des blessures li\u00e9es au travail est un travail important dans tous les lieux de travail, particuli\u00e8rement dans les centres de recherche. La pr\u00e9sente section contient des renseignements au sujet des programmes de s\u00e9curit\u00e9 mis en oeuvre au sein de notre direction g\u00e9n\u00e9rale.</p>\n\n<ul>\n      <li><a href=\"display-afficher.do?id=1320241655630&amp;lang=fra\">Programme de confinement, de bios\u00e9curit\u00e9 et de s\u00e9curit\u00e9 biologique</a></li>\n      <li><a href=\"display-afficher.do?id=1321562720661&amp;lang=fra\">Sant\u00e9 et s\u00e9curit\u00e9 au travail</a></li>\n      <li><a href=\"display-afficher.do?id=1305140719456&amp;lang=fra\">Programme national de radioprotection</a></li>\n</ul>\n\n\n\t\t"
    }
}