{
    "has_dcr_id": true,
    "node_id": "1374858560263",
    "parent_node_id": "1335898166625",
    "dcr_id": "1374757065913",
    "landingPageUrl": {
        "en": "1374757065913",
        "fr": "1374757065913"
    },
    "parent_dcr_id": "1335897764188",
    "breadcrumb": {
        "en": "Governance",
        "fr": "Gouvernance"
    },
    "node_title": {
        "en": "null",
        "fr": "null"
    },
    "title": {
        "en": "Governance",
        "fr": "Gouvernance"
    },
    "type": "find_people",
    "meta": {
        "issued": {
            "en": "2013-07-26",
            "fr": "2013-07-26"
        },
        "modified": {
            "en": "2020-02-10",
            "fr": "2020-02-10"
        },
        "format": {
            "en": "gcformat",
            "fr": "gcformat"
        },
        "title": {
            "en": "Governance",
            "fr": "Gouvernance"
        },
        "subject": {
            "en": "communications",
            "fr": "communications"
        },
        "description": {
            "en": "Science and Technology Branch - Governance",
            "fr": "Direction g\u00e9n\u00e9rale des sciences et de la technologie - Gouvernance"
        },
        "language": {
            "en": "eng",
            "fr": "fra"
        },
        "audience": {
            "en": "gcaudience",
            "fr": "gcaudience"
        },
        "type": {
            "en": "resource list",
            "fr": "liste de r\u00e9f\u00e9rence"
        },
        "creator": {
            "en": "Agriculture and Agri-Food Canada",
            "fr": "Agriculture et Agroalimentaire Canada"
        },
        "spatial": {
            "en": "gcregions",
            "fr": "gcregions"
        },
        "service": {
            "en": "AAFC_AgriSource",
            "fr": "AAC_AgriSource"
        },
        "accessRights": {
            "en": "3",
            "fr": "3"
        }
    },
    "body": {
        "en": "\n\t\t\t  \n\n<p>Governance, as defined by the Office of the Comptroller General, is the combination of processes and structures used to inform, direct, manage and monitor the activities of an organization towards the achievement of its objectives. The Science and Technology Branch  (STB) governance structure sets the Branch\u2019s decision-making framework and helps to achieve our sector science strategies outcomes, as well as strengthening the integration of science into our policies and programs.</p>\n\n<p>Learn more about the <a href=\"https://collab.agr.gc.ca/co/stbgov_goudgst/SitePages/Home.aspx\">Science and Technology Branch   governance structure</a> and committees in Knowledge Workspace.</p>\n\n<p><a href=\"?id=1545396786033\">Agriculture and Agri-Food Canada Science Integrity Policy</a></p>\n\t\t",
        "fr": "\n\t\t\t  \n\n<p>Le Bureau du contr\u00f4leur g\u00e9n\u00e9ral d\u00e9finit la gouvernance comme la combinaison de processus et de structures mis en \u0153uvre pour informer, diriger, g\u00e9rer et surveiller les activit\u00e9s d'une organisation en vue d'atteindre ses objectifs. La structure de gouvernance de la Direction g\u00e9n\u00e9rale des sciences et de la technologie (DGST) \u00e9tablit le cadre d\u00e9cisionnel de la Direction g\u00e9n\u00e9rale. Elle permet d'atteindre les r\u00e9sultats pr\u00e9vus dans nos strat\u00e9gies scientifiques sectorielles et de renforcer l'int\u00e9gration des sciences dans nos politiques et programmes.</p> \n\n<p>Renseignez vous sur la <a href=\"https://collab.agr.gc.ca/co/stbgov_goudgst/SitePages/Home.aspx\">structure de gouvernance</a> de la DGST et les comit\u00e9s de l'espace de travail du savoir.</p>\n\n<p><a href=\"?id=1545396786033\">Politique sur l'int\u00e9grit\u00e9 scientifique d'Agriculture et Agroalimentaire Canada</a></p>\n\t\t"
    }
}