{
    "has_dcr_id": true,
    "node_id": "1403608840340",
    "parent_node_id": "1279035844850",
    "dcr_id": "1314023138326",
    "landingPageUrl": {
        "en": "1314023138326",
        "fr": "1314023138326"
    },
    "parent_dcr_id": "1287776331844",
    "breadcrumb": {
        "en": "Human Resources Planning",
        "fr": "Planification des ressources humaines"
    },
    "node_title": {
        "en": "null",
        "fr": "null"
    },
    "title": {
        "en": "Human Resources Planning",
        "fr": "Planification des ressources humaines"
    },
    "type": "hr",
    "meta": {
        "issued": {
            "en": "2011-08-30",
            "fr": "2011-08-30"
        },
        "modified": {
            "en": "2020-09-21",
            "fr": "2020-09-21"
        },
        "format": {
            "en": "gcformat",
            "fr": "gcformat"
        },
        "title": {
            "en": "Human Resources Planning  ",
            "fr": "Planification des ressources humaines "
        },
        "subject": {
            "en": "planning",
            "fr": "planification"
        },
        "description": {
            "en": "Human Resources (HR) Planning helps to link human resource management to an organization's overall strategic and operational plans.",
            "fr": "La planification des ressources humaines (RH) aide \u00e0 lier la gestion des RH aux plans strat\u00e9giques et op\u00e9rationnels d'une organisation."
        },
        "language": {
            "en": "eng",
            "fr": "fra"
        },
        "audience": {
            "en": "gcaudience",
            "fr": "gcaudience"
        },
        "type": {
            "en": "fact sheet",
            "fr": "fiche de renseignements"
        },
        "creator": {
            "en": "Agriculture and Agri-Food Canada",
            "fr": "Agriculture et Agroalimentaire Canada"
        },
        "spatial": {
            "en": "gcregions",
            "fr": "gcregions"
        },
        "service": {
            "en": "AAFC_AgriSource",
            "fr": "AAC_AgriSource"
        },
        "accessRights": {
            "en": "3",
            "fr": "3"
        }
    },
    "body": {
        "en": "\n\t\t\t  \n\n<p>Human Resources (HR) Planning links human resource management to the organization's overall strategic and operational plans.</p> \n\n<h2>Agriculture and Agri-Food Canada's Business Plan</h2>\n\n<p>Agriculture and Agri-Food Canada (AAFC)'s <a href=\"https://intranet.agr.gc.ca/agrisource/AgriDoc.do?id=100272495&amp;lang=eng\" target=\"_blank\">2014-2017 Business Plan (PDF)</a> tells the story of who we are as a Department, where we are going and how we will get there.  This multi-year plan builds upon last year's Integrated Business and Human Resources Plan. It will guide the Department toward achieving our priorities for the next three years.</p>\n\n<h2>Corporate Human Resources management strategies</h2>\n\n<ul>\n <li><a href=\"https://intranet.agr.gc.ca/agrisource/AgriDoc.do?id=4505717&amp;lang=eng\" target=\"_blank\">Agriculture and Agri-Food Canada's Staffing and Recruitment Strategy 2014-2017 (PowerPoint)</a>\n  <ul>\n   <li><a href=\"https://intranet.agr.gc.ca/agrisource/AgriDoc.do?id=100012284&amp;lang=eng\" target=\"_blank\">Activities and Key Initiatives (Excel)</a></li>\n  </ul>\n </li>\n <li><a href=\"display-afficher.do?id=1287753591773&amp;lang=eng\">2014-2017 Employment Equity and Inclusiveness Action Plan</a></li> \n</ul>\n\n<h2>Guidance documents for Human Resources planning</h2>\n\n<ul class=\"list-unstyled mrgn-lft-lg\">\n<li class=\"mrgn-bttm-md\"><a href=\"https://intranet.agr.gc.ca/agrisource/AgriDoc.do?id=3381690&amp;lang=eng\" target=\"_blank\">Branch Human Resources Planning Preparation Guide (Word)</a><br>\nBranch specific plans are optional, although some branches may want to articulate in more detail their approach and strategies to people management.  The template provides an outline with detailed guidance on the type of information and key considerations that should be included in a human resources plan.</li>\n\n<li class=\"mrgn-bttm-md\"><a href=\"https://intranet.agr.gc.ca/agrisource/AgriDoc.do?id=3476539&amp;lang=eng\" target=\"_blank\">Integrated Human Resources Planning Framework (PDF)</a><br>\nThis framework illustrates AAFC's integrated HR Planning process and provides a structured methodology for managing strategic and operational HR management gaps and risks across the Department.</li> \n\n<li class=\"mrgn-bttm-md\"><a href=\"https://intranet.agr.gc.ca/agrisource/AgriDoc.do?id=3223560&amp;lang=eng\" target=\"_blank\">Monitor, Measure, Adjust and Report Progress (Word)</a><br>\nThis guide provides guidance on development and implementation of a measurement and monitoring framework in support of an organization's Human Resources Plan.</li>\n</ul> \n\n<h2>Demographic reports and useful links</h2>\n\n<ul>\n <li><a href=\"https://intranet.agr.gc.ca/agrisource/AgriDoc.do?id=100317988&amp;lang=eng\" target=\"_blank\">Annual Demographic Report - March 31, 2013 (PDF)</a></li>\n <li><a href=\"http://www.agr.gc.ca/eng/about-us/planning-and-reporting/reports-on-plans-and-priorities/?id=1174061891718\">Agriculture and Agri-Food Canada's Reports on Plans and Priorities</a></li> \n <li><a href=\"display-afficher.do?id=1287498938199&amp;lang=eng\">Strategic Management Directorate</a></li>\n</ul> \n\n<h2>Contact us</h2>\n\n<p>Questions? Email <a href=\"mailto:aafc.hrplanning-planificationdesrh.aac@canada.ca\">aafc.hrplanning-planificationdesrh.aac@canada.ca</a>.</p>\n\t\t",
        "fr": "\n\t\t\t  \n\n<p>La planification des ressources humaines (RH) relie la gestion des ressources humaines aux plans strat\u00e9giques et op\u00e9rationnels globaux de l'organisation.</p> \n\n<h2>Plan d'activit\u00e9s d'Agriculture et Agroalimentaire Canada</h2>\n\n<p>Le <a href=\"https://intranet.agr.gc.ca/agrisource/AgriDoc.do?id=100272599&amp;lang=fra\" target=\"_blank\">Plan d'activit\u00e9s pour la p\u00e9riode 2014-2017 (PDF)</a> d'Agriculture et Agroalimentaire Canada (AAC) raconte notre histoire, c'est-\u00e0-dire qui nous sommes, o\u00f9 nous allons et comment nous y parviendrons.  Ce plan pluriannuel se fonde sur le Plan int\u00e9gr\u00e9 des activit\u00e9s et des ressources humaines de l'ann\u00e9e derni\u00e8re. Il guidera le Minist\u00e8re dans la r\u00e9alisation de ses priorit\u00e9s au cours des trois prochaines ann\u00e9es.</p>\n\n<h2>Strat\u00e9gies minist\u00e9rielles de gestion des ressources humaines</h2>\n\n<ul>\n <li><a href=\"https://intranet.agr.gc.ca/agrisource/AgriDoc.do?id=100387159&amp;lang=fra\" target=\"_blank\">Strat\u00e9gie de dotation et de recrutement d'Agriculture et Agroalimentaire Canada 2014-2017 (PowerPoint)</a>\n  <ul>\n   <li><a href=\"https://intranet.agr.gc.ca/agrisource/AgriDoc.do?id=100387182&amp;lang=fra\" target=\"_blank\">Activit\u00e9 et initiatives principal (Excel)</a></li>\n  </ul>\n </li>\n <li><a href=\"display-afficher.do?id=1287753591773&amp;lang=fra\">Plan d'action sur l'\u00e9quit\u00e9 en mati\u00e8re d'emploi et l'inclusivit\u00e9 2014-2017</a></li> \n</ul>\n\n<h2>Documents d'orientation pour la planification des ressources humaines</h2>\n\n<ul class=\"list-unstyled mrgn-lft-lg\">\n<li class=\"mrgn-bttm-md\"><a href=\"https://intranet.agr.gc.ca/agrisource/AgriDoc.do?id=3504386&amp;lang=fra\" target=\"_blank\">Guide de pr\u00e9paration du plan des ressources humaines des directions g\u00e9n\u00e9rales (Word)</a><br>\nBien que certaines directions g\u00e9n\u00e9rales puissent vouloir \u00e9noncer de fa\u00e7on plus d\u00e9taill\u00e9e leur approche et leurs strat\u00e9gies de gestion des personnes, les plans propres aux directions g\u00e9n\u00e9rales sont facultatifs.  Le mod\u00e8le offre une orientation d\u00e9taill\u00e9e sur le type d'information et les principales consid\u00e9rations qu'un plan des ressources humaines devrait contenir.</li>\n\n<li class=\"mrgn-bttm-md\"><a href=\"https://intranet.agr.gc.ca/agrisource/AgriDoc.do?id=3536563&amp;lang=fra\" target=\"_blank\">Cadre int\u00e9gr\u00e9 de planification des ressources humaines (PDF)</a><br>\nCe cadre illustre le processus int\u00e9gr\u00e9 de planification des ressources humaines d'AAC et pr\u00e9sente une m\u00e9thode structur\u00e9e pour g\u00e9rer les \u00e9carts et les risques strat\u00e9giques et op\u00e9rationnels en mati\u00e8re de gestion des RH \u00e0 l'\u00e9chelle du Minist\u00e8re.</li> \n\n<li class=\"mrgn-bttm-md\"><a href=\"https://intranet.agr.gc.ca/agrisource/AgriDoc.do?id=3675344&amp;lang=fra\" target=\"_blank\">Surveillance, mesure, ajustement et rapport des progr\u00e8s (Word)</a><br>\nCe guide offre une orientation sur l'\u00e9laboration et la mise en \u0153uvre d'un cadre d'\u00e9valuation et de surveillance \u00e0 l'appui d'un plan des ressources humaines de l'organisation.</li>\n</ul> \n\n<h2>Rapports d\u00e9mographiques et liens utiles</h2>\n\n<ul>\n <li><a href=\"https://intranet.agr.gc.ca/agrisource/AgriDoc.do?id=100317980&amp;lang=fra\" target=\"_blank\">Rapport annuel sur l'effectif - le 31 mars, 2013 (PDF)</a></li>\n <li><a href=\"http://www.agr.gc.ca/fra/a-propos-de-nous/planification-et-rapports/rapports-sur-les-plans-et-les-priorites/?id=1174061891718\">Rapports sur les plans et les priorit\u00e9s d'Agriculture et Agroalimentaire Canada </a></li> \n <li><a href=\"display-afficher.do?id=1287498938199&amp;lang=fra\">Direction de la gestion strat\u00e9gique</a></li>\n</ul> \n\n<h2>Contactez-nous</h2>\n\n<p>Des questions? Envoyez un courriel \u00e0 <a href=\"mailto:aafc.hrplanning-planificationdesrh.aac@canada.ca\">aafc.hrplanning-planificationdesrh.aac@canada.ca</a>.</p>\n\t\t"
    }
}