{
    "has_dcr_id": true,
    "node_id": "1403608853390",
    "parent_node_id": "1279035844850",
    "dcr_id": "1403616174239",
    "landingPageUrl": {
        "en": "1403616174239",
        "fr": "1403616174239"
    },
    "parent_dcr_id": "1287776331844",
    "breadcrumb": {
        "en": "Organizational Charts",
        "fr": "Organigrammes"
    },
    "node_title": {
        "en": "null",
        "fr": "null"
    },
    "title": {
        "en": "Organizational Charts",
        "fr": "Organigrammes"
    },
    "type": "hr",
    "meta": {
        "issued": {
            "en": "2014-07-15",
            "fr": "2014-07-15"
        },
        "modified": {
            "en": "2018-12-17",
            "fr": "2018-12-17"
        },
        "format": {
            "en": "gcformat",
            "fr": "gcformat"
        },
        "title": {
            "en": "Organizational Charts",
            "fr": "Organigrammes"
        },
        "subject": {
            "en": "classification",
            "fr": "classification"
        },
        "description": {
            "en": "Managers may request an official organizational chart of their work unit. The organizational chart will be obtained using the information found in PeopleSoft.",
            "fr": "Les gestionnaires peuvent demander un organigramme officiel de leur unit\u00e9 de travail. L'organigramme sera obtenu \u00e0 l'aide de l'information qui se trouve dans PeopleSoft."
        },
        "language": {
            "en": "eng",
            "fr": "fra"
        },
        "keywords": {
            "en": "organizational chart, Position Management",
            "fr": "organigramme officiel, Gestion des postes"
        },
        "audience": {
            "en": "gcaudience",
            "fr": "gcaudience"
        },
        "type": {
            "en": "guide",
            "fr": "guide"
        },
        "creator": {
            "en": "Agriculture and Agri-Food Canada",
            "fr": "Agriculture et Agroalimentaire Canada"
        },
        "spatial": {
            "en": "gcregions",
            "fr": "gcregions"
        },
        "service": {
            "en": "AAFC_AgriSource",
            "fr": "AAC_AgriSource"
        },
        "accessRights": {
            "en": "3",
            "fr": "3"
        }
    },
    "body": {
        "en": "\n\t\t\t  \n\n<p>Managers may request an official organizational chart of their work unit. The organizational chart will be obtained using the information found in PeopleSoft.</p> \n\n<p>To make changes to your organizational chart, please refer to the <a href=\"display-afficher.do?id=1403705014347&amp;lang=eng\">Position Management</a> web page.</p>\n\n<h2>Process</h2>\n\n<p>Complete the <a href=\"http://hri-irh.agr.gc.ca:8080/forms/F030-1.aspx?lang=eng\">Request Organizational Chart</a> form.</p>\n \n<p>Email <a href=\"mailto:aafc.classification.aac@canada.ca\">aafc.classification.aac@canada.ca</a> with any questions or contact your <a href=\"https://intranet.agr.gc.ca/agrisource/AgriDoc.do?id=100084657&amp;lang=eng\" target=\"_blank\">Classification Advisor (Word)</a>.</p> \n\n<h2>Service standard</h2>\n\n<p>5 working days</p>\n\n<p><strong>Note:</strong> Specific timelines can be provided after initial discussions with your <a href=\"https://intranet.agr.gc.ca/agrisource/AgriDoc.do?id=100084657&amp;lang=eng\" target=\"_blank\">Classification Advisor (Word)</a>.</p>\n\n<h2>Contact us</h2>\n\n<p>Questions? We can help. Contact any member of the Classification team (see <a href=\"https://intranet.agr.gc.ca/agrisource/AgriDoc.do?id=100084657&amp;lang=eng\" target=\"_blank\">Classification Advisor (Word)</a>)  or email <a href=\"mailto:aafc.classification.aac@canada.ca\">aafc.classification.aac@canada.ca</a>.</p>\n\t\t",
        "fr": "\n\t\t\t  \n\n<p>Les gestionnaires peuvent demander un organigramme officiel de leur unit\u00e9 de travail. L'organigramme sera obtenu \u00e0 l'aide de l'information qui se trouve dans PeopleSoft.</p> \n\n<p>Si vous souhaitez apporter des modifications \u00e0 votre organigramme, veuillez consulter la page Web <a href=\"display-afficher.do?id=1403705014347&amp;lang=fra\">Gestion des postes</a>.</p>\n\n<h2>Processus</h2>\n\n<p>Remplir le formulaire de <a href=\"http://hri-irh.agr.gc.ca:8080/forms/F030-1.aspx?lang=fra\">Demander un organigramme</a>.</p>\n \n<p>Pour toute question, communiquer avec la <a href=\"mailto:aafc.classification.aac@canada.ca\">aafc.classification.aac@canada.ca</a> par courriel ou consultez votre <a href=\"https://intranet.agr.gc.ca/agrisource/AgriDoc.do?id=100084657&amp;lang=fra\" target=\"_blank\">conseiller en classification (Word)</a>.</p> \n\n<h2>Norme de service</h2>\n\n<p>5 jours ouvrables</p>\n\n<p><strong>Remarque\u00a0:</strong> Des calendriers pr\u00e9cis peuvent \u00eatre \u00e9tablis apr\u00e8s les discussions initiales avec votre <a href=\"https://intranet.agr.gc.ca/agrisource/AgriDoc.do?id=100084657&amp;lang=fra\" target=\"_blank\">conseiller en classification (Word)</a>.</p>\n\n<h2>Contactez-nous</h2>\n\n<p>Des questions? Nous pouvons vous aider. Contactez un membre de l'\u00e9quipe de classification  (voir la liste <a href=\"https://intranet.agr.gc.ca/agrisource/AgriDoc.do?id=100084657&amp;lang=fra\" target=\"_blank\">conseiller en classification (Word)</a>) ou envoyez un courriel \u00e0 <a href=\"mailto:aafc.classification.aac@canada.ca\">aafc.classification.aac@canada.ca</a>.</p>\n\t\t"
    }
}