{
    "has_dcr_id": true,
    "node_id": "1480694666448",
    "parent_node_id": "1360855134888",
    "dcr_id": "1329329597106",
    "landingPageUrl": {
        "en": "1329329597106",
        "fr": "1329329597106"
    },
    "parent_dcr_id": "1327327273159",
    "breadcrumb": {
        "en": "Exit Survey Program",
        "fr": "Programme de sondage de d\u00e9part"
    },
    "node_title": {
        "en": "null",
        "fr": "null"
    },
    "title": {
        "en": "Exit Survey Program",
        "fr": "Programme de sondage de d\u00e9part"
    },
    "type": "hr",
    "meta": {
        "issued": {
            "en": "2012-02-17",
            "fr": "2012-02-17"
        },
        "modified": {
            "en": "2017-01-23",
            "fr": "2017-01-23"
        },
        "format": {
            "en": "gcformat",
            "fr": "gcformat"
        },
        "title": {
            "en": "Exit Survey Program",
            "fr": "Programme de sondage de d\u00e9part"
        },
        "subject": {
            "en": "staffing",
            "fr": "dotation en personnel"
        },
        "description": {
            "en": "The Exit Survey Program at Agriculture and Agri-Food Canada is currently under review and is expected to be revamped in the near future. Until the process is finished and the new product is available, the existing policy, guidelines and questionnaire remain in effect.",
            "fr": "Le Programme de sondage de d\u00e9part d'Agriculture et Agroalimentaire Canada est soumis \u00e0 un examen pour \u00eatre remani\u00e9. Jusqu'\u00e0 ce que ce processus soit termin\u00e9 et que le nouveau programme soit offert, la politique et les lignes directrices actuelles demeureront en vigueur, et nous continuerons \u00e0 nous servir du questionnaire actuel."
        },
        "language": {
            "en": "eng",
            "fr": "fra"
        },
        "keywords": {
            "en": "exit interviews, surveys",
            "fr": "sondage, entrevue de d\u00e9part"
        },
        "audience": {
            "en": "gcaudience",
            "fr": "gcaudience"
        },
        "type": {
            "en": "resource list",
            "fr": "liste de r\u00e9f\u00e9rence"
        },
        "creator": {
            "en": "Agriculture and Agri-Food Canada",
            "fr": "Agriculture et Agroalimentaire Canada"
        },
        "spatial": {
            "en": "gcregions",
            "fr": "gcregions"
        },
        "service": {
            "en": "AAFC_AgriSource",
            "fr": "AAC_AgriSource"
        },
        "accessRights": {
            "en": "3",
            "fr": "3"
        }
    },
    "body": {
        "en": "\n\t\t\t  \n\n<p>The Exit Survey Program at Agriculture and Agri-Food Canada is currently under review and is expected to be revamped in the near future. Until the process is finished and the new product is available, the existing policy, guidelines and questionnaire remain in effect.</p>\n\n<p>Departing employees are encouraged to complete the existing questionnaire, and/or participate in an Exit interview with their manager.</p>\n\n<ul>       \n<li><a href=\"display-afficher.do?id=1329503536383&amp;lang=eng\">Before You Go</a></li>       \n<li><a href=\"https://forms-formulaires.agr.gc.ca/pdf/A4364-E.pdf\">Questionnaire for Departing Employees (PDF)</a></li>       \n<li><a href=\"https://intranet.agr.gc.ca/agrisource/AgriDoc.do?id=3111430&amp;lang=eng\" target=\"_blank\">Exit Survey Policy</a></li>       \n<li><a href=\"display-afficher.do?id=1329505936049&amp;lang=eng\">Guide to Conducting an Exit Interview</a></li>       \n<li><a href=\"display-afficher.do?id=1329513601852&amp;lang=eng\">Exit Interview Fact Sheet for Departing Employees</a></li>\n</ul>\n\t\t",
        "fr": "\n\t\t\t  \n\n<p>Le Programme de sondage de d\u00e9part d'Agriculture et Agroalimentaire Canada est soumis \u00e0 un examen pour \u00eatre remani\u00e9. Jusqu'\u00e0 ce que ce processus soit termin\u00e9 et que le nouveau programme soit offert, la politique et les lignes directrices actuelles demeureront en vigueur, et nous continuerons \u00e0 nous servir du questionnaire actuel.</p>\n\n<p>Les employ\u00e9s qui quittent le Minist\u00e8re sont invit\u00e9s \u00e0 remplir ce questionnaire et ils sont \u00e9galement invit\u00e9s \u00e0 participer \u00e0 une entrevue de d\u00e9part avec leur gestionnaire.</p>\n<ul>\n      <li><a href=\"display-afficher.do?id=1329503536383&amp;lang=fra\">Avant de partir</a></li>\n      <li><a href=\"https://forms-formulaires.agr.gc.ca/pdf/A4364-F.pdf\">Questionnaire de d\u00e9part (PDF)</a></li>\n      <li><a href=\"https://intranet.agr.gc.ca/agrisource/AgriDoc.do?id=3115140&amp;lang=fra\" target=\"_blank\">Politique sur le sondage de d\u00e9part (Word)</a></li>\n      <li><a href=\"display-afficher.do?id=1329505936049&amp;lang=fra\">Guide pour mener une entrevue de d\u00e9part</a></li>\n      <li><a href=\"display-afficher.do?id=1329513601852&amp;lang=fra\">Feuille de renseignements sur l'entrevue de d\u00e9part \u00e0 l'intention des employ\u00e9s</a></li>\n</ul>\n\t\t"
    }
}