{
    "has_dcr_id": true,
    "node_id": "1484940874128",
    "parent_node_id": "1320677087463",
    "dcr_id": "1314719697163",
    "landingPageUrl": {
        "en": "1314719697163",
        "fr": "1314719697163"
    },
    "parent_dcr_id": "1320429524077",
    "breadcrumb": {
        "en": "Travel",
        "fr": "Voyages"
    },
    "node_title": {
        "en": "null",
        "fr": "null"
    },
    "title": {
        "en": "Travel",
        "fr": "Voyages"
    },
    "type": "find_people",
    "meta": {
        "issued": {
            "en": "2011-09-06",
            "fr": "2011-09-06"
        },
        "modified": {
            "en": "2020-08-18",
            "fr": "2020-08-18"
        },
        "format": {
            "en": "gcformat",
            "fr": "gcformat"
        },
        "title": {
            "en": "Travel",
            "fr": "Voyages"
        },
        "subject": {
            "en": "travel",
            "fr": "voyage"
        },
        "description": {
            "en": "The Travel section provides travellers, travel arrangers, managers and travel administrators with useful tools, tips, travel information, and key links to other related sites. It is organized in line with major steps in the government business travel cycle.",
            "fr": "La section sur les voyages fournit aux voyageurs, aux organisateurs de voyage, aux gestionnaires et aux administrateurs de voyage, des outils, des conseils et des renseignements sur les voyages ainsi que des liens tr\u00e8s utiles \u00e0 d'autres sites connexes. Cette section est dispos\u00e9e de mani\u00e8re \u00e0 correspondre aux principales \u00e9tapes du cycle des voyages en service command\u00e9."
        },
        "language": {
            "en": "eng",
            "fr": "fra"
        },
        "keywords": {
            "en": "NEW Travel Solution, Authorization and Planning for All Travel, Pre-Departure Consideration, International Travel",
            "fr": "NOUVELLE solution de gestion des voyages, Autorisation et planification pour tous les voyages, Consid\u00e9ration avant le d\u00e9part, Voyage international"
        },
        "audience": {
            "en": "gcaudience",
            "fr": "gcaudience"
        },
        "type": {
            "en": "resource list",
            "fr": "liste de r\u00e9f\u00e9rence"
        },
        "creator": {
            "en": "Agriculture and Agri-Food Canada",
            "fr": "Agriculture et Agroalimentaire Canada"
        },
        "spatial": {
            "en": "gcregions",
            "fr": "gcregions"
        },
        "service": {
            "en": "AAFC_AgriSource",
            "fr": "AAC_AgriSource"
        },
        "accessRights": {
            "en": "3",
            "fr": "3"
        }
    },
    "body": {
        "en": "\n\t\t\t  \n\n<p>Within these pages you will find all the information you need for  government business travel. </p>\n\n  <h2>Steps for  Government Business Travel</h2>\n\n<ul class=\"list-unstyled\">\n<li class=\"mrgn-bttm-md\"><a href=\"display-afficher.do?id=1415284129223&amp;lang=eng\">Step 1: Get Set Up for  Government Business Travel</a><br>\n  Information about the Shared Travel Services Portal, training and user guides  for the Portal, and the Government of Canada Individual Designated Travel Card.</li>\n\n<li class=\"mrgn-bttm-md\"><a href=\"display-afficher.do?id=1415286348914&amp;lang=eng\">Step 2: Estimate Your  Travel Costs</a><br>\n  Information about the rules you need to follow in addition to tools and  resources to help you estimate your travel costs.</li>\n  \n<li class=\"mrgn-bttm-md\"><a href=\"display-afficher.do?id=1415290508568&amp;lang=eng\">Step 3: Get Your  Travel Approved</a><br>\n  Information on determining who needs to approve your travel and steps to  follow to get your travel approved.</li>\n  \n<li class=\"mrgn-bttm-md\"><a href=\"display-afficher.do?id=1415296553079&amp;lang=eng\">Step 4: Submit Your Travel  Request</a><br>\n  Steps to follow to submit your travel request.</li>\n  \n<li class=\"mrgn-bttm-md\"><a href=\"display-afficher.do?id=1415297726311&amp;lang=eng\">Step 5: Prepare for Your  Travel</a><br>\n  Information about passports and visas in addition to considerations for  health, insurance, safety and security. </li>\n  \n<li><a href=\"display-afficher.do?id=1415299526499&amp;lang=eng\">Step 6: Submit Your Expense  Report</a><br>\n  Steps to follow to complete and submit your travel expense report for reimbursement once you  return  from your business trip.</li>\n</ul>\n\n<h2>Considerations  When Travelling (Useful links)</h2>\n\n<ul>\n  <li><a href=\"display-afficher.do?id=1415286348914&amp;lang=eng#acc\">Accommodations</a></li>\n  <li><a href=\"display-afficher.do?id=1375889042416&amp;lang=eng\">Defensive  Security Briefing</a></li>\n  <li><a href=\"https://intranet.agr.gc.ca/agrisource/AgriDoc.do?id=4502752&amp;lang=eng\" target=\"_blank\">Approval Decision Tree \u2013 Travel, Hospitality, Conference and Events (Excel)</a></li>\n  <li><a href=\"display-afficher.do?id=1415297726311&amp;lang=eng#in\">Insurance</a></li>\n  <li><a href=\"display-afficher.do?id=1415286348914&amp;lang=eng#mi\">Meals and Incidentals</a></li>\n  <li><a href=\"https://isuite6.hrgworldwide.com/gcportal/en-ca/sts.aspx\">Shared  Travel Services Portal</a></li>\n  <li><a href=\"display-afficher.do?id=1415297726311&amp;lang=eng#passvisa\">Passports and Visas</a></li>\n  <li><a href=\"display-afficher.do?id=1415297726311&amp;lang=eng#sec\">Security \u2013 personnel and assets</a></li>\n  <li><a href=\"display-afficher.do?id=1405954163788&amp;lang=eng\">Third Party Funded Travel</a></li>\n  <li><a href=\"display-afficher.do?id=1415284129223&amp;lang=eng#tug\">Training for Shared Travel Services Portal</a></li>\n  <li><a href=\"display-afficher.do?id=1415286348914&amp;lang=eng#transport\">Transportation</a></li>\n  <li><a href=\"display-afficher.do?id=1415284129223&amp;lang=eng#idtc\">Travel Card</a></li>\n  <li><a href=\"display-afficher.do?id=1415284129223&amp;lang=eng#ctin\">Traveller Identification Number</a> (TIN)</li>\n  <li><a href=\"display-afficher.do?id=1323362921857&amp;lang=eng\">Foreign Travel - Notice to Travellers</a></li>\n</ul>\n\n<h2>Shared Travel Services System \u2013 Cheat sheets</h2>\n\n<ul>\n <li><a href=\"https://intranet.agr.gc.ca/resources/prod/doc/cmb_dggi/cmb-frms-fptpd-how-to-set-up-arranger-en.docx\">How to set a travel arranger (Word)</a></li>\n <li><a href=\"https://intranet.agr.gc.ca/resources/prod/doc/cmb_dggi/cmb-frms-fptpd-how-to-create-a-travel-request_fin-en.docx\">How to create a travel request (Word)</a></li>\n <li><a href=\"https://intranet.agr.gc.ca/resources/prod/doc/cmb_dggi/cmb-frms-fptpd-how-to-use-obt_fin-en.docx\">How to use the online booking tool (OBT) (Word)</a></li>\n <li><a href=\"https://intranet.agr.gc.ca/resources/prod/doc/cmb_dggi/cmb-frms-fptpd-how-to-get-reimbursed-for-travel-expenses-fin-en.docx\">How to get reimbursed for travel expenses (Word)</a></li>\n <li><a href=\"https://intranet.agr.gc.ca/resources/prod/doc/cmb_dggi/cmb-frms-fptpd-how-to-claim-travel-card-transactions_fin-en.docx\">How to claim travel card transactions (Word)</a></li>\n <li><a href=\"https://intranet.agr.gc.ca/resources/prod/doc/cmb_dggi/guide-to-view-idtc-statements.docx\">Guide to view individual designated travel cards statements (Word)</a></li>\n <li>\n   <a href=\"https://intranet.agr.gc.ca/resources/prod/doc/cmb_dggi/how-to-use-the-manual-booking-form.docx\">How to use the manual booking form (Word)</a></li>\n</ul>\n\n<h2 id=\"baj\">Bulletins and Journals</h2>\n\n<ul>\n  <li><a href=\"https://intranet.agr.gc.ca/resources/prod/pdf/cmb_dggi/managing_and_using_future_travel_credits_with_hrg.pdf\">Managing and using future travel credits with Hogg Robinson Group (PDF)</a></li>\n  <li><a href=\"https://intranet.agr.gc.ca/resources/prod/doc/cmb_dggi/cmb-frms-fptpd-application-of-incumbent-ftc.docx\">Application of incumbent future travel credits (Word)</a></li>\n  <li><a href=\"https://intranet.agr.gc.ca/resources/prod/doc/cmb_dggi/tips_and_tricks_from_the_sts_transition_journal.docx\">Tips and tricks from shared travel services (Word)</a></li>\n  <li><a href=\"https://intranet.agr.gc.ca/resources/prod/doc/cmb_dggi/cmb-frms-fptpd-annual-reminder-on-travel-cards-responsiblities.docx\">Travel card responsibilities (Word)</a></li>\n</ul>\n\n<h2>References</h2>\n\n<h3>Directives</h3>\n\n<h4>National Joint Council</h4>\n\n<ul>\n  <li><a href=\"http://www.njc-cnm.gc.ca/directive/travel-voyage/index-eng.php\">National Joint Council Travel  Directive</a></li>\n</ul>\n\n<h4>Treasury Board of Canada Secretariat</h4>\n\n<ul>\n  <li><a href=\"http://publiservice.tbs-sct.gc.ca/pd-dp/dthe-dfva/index-eng.asp\">Disclosure of Travel and Hospitality Expenses</a></li>\n  <li><a href=\"https://www.tbs-sct.gc.ca/pol/doc-eng.aspx?id=32503\">Directive on Delegation of Spending and Financial Authorities</a></li>\n  <li><a href=\"https://www.tbs-sct.gc.ca/pol/doc-eng.aspx?id=32504\">Directive on Payments and Appendix C: Standard on Travel Cards</a></li>\n  <li><a href=\"http://www.tbs-sct.gc.ca/pol/doc-eng.aspx?id=27228&amp;section=text\">Directive on  Travel, Hospitality, Conference and Event Expenditures</a></li>\n  <li><a href=\"http://publiservice.tbs-sct.gc.ca/pol/doc-eng.aspx?id=12135\">Special Travel Authorities</a></li>\n  <li><a href=\"http://publiservice.tbs-sct.gc.ca/pol/doc-eng.aspx?id=25049\">Values and Ethics Code for the Public Sector</a></li>\n</ul>\n\n<h3>Guides</h3>\n\n<h4>Departmental</h4>\n\n<ul>\n<li><a href=\"https://intranet.agr.gc.ca/agrisource/AgriDoc.do?id=3659041&amp;lang=eng\" target=\"_blank\">AAFC Standards for Travel, Hospitality, Conference and Event Expenditures (Word)</a></li>\n</ul>\n\n<h4>Treasury Board of Canada Secretariat</h4>\n\n<ul>\n<li><a href=\"http://www.tbs-sct.gc.ca/pol/doc-eng.aspx?id=32553\">Guide to Travel, Hospitality, Conference and Event Expenditures</a></li>\n</ul>\n\n<h2>Contact Us</h2>\n\n<p>Have questions? View our <a href=\"https://intranet.agr.gc.ca/agrisource/AgriDoc.do?id=100477471&amp;lang=eng\" target=\"_blank\">list of key contacts at Agriculture and Agri-Food Canada for travel (Word)</a>.</p>\n\t\t",
        "fr": "\n\t\t\t  \n\n<p>Dans les pages qui suivent, vous trouverez toute  l'information dont vous avez besoin sur les voyages en service command\u00e9.</p>\n\n<h2>\u00c9tapes li\u00e9es au voyage en service command\u00e9</h2>\n\n<ul class=\"list-unstyled\">\n<li class=\"mrgn-bttm-md\"><a href=\"display-afficher.do?id=1415284129223&amp;lang=fra\">\u00c9tape\u00a01\u00a0:  Faites votre mise en place pour les voyages en service command\u00e9</a><br>\nInformation sur le Portail des Services de voyage partag\u00e9s, la formation et les guides de l'utilisateur du portail et la carte individuelle de voyage du gouvernement du Canada.</li>\n  \n<li class=\"mrgn-bttm-md\"><a href=\"display-afficher.do?id=1415286348914&amp;lang=fra\">\u00c9tape\u00a02\u00a0:  Estimez vos frais de voyage</a><br>\nInformation sur les r\u00e8gles \u00e0 suivre, les outils et les  ressources qui vous aideront \u00e0 estimer vos frais de voyage.</li>\n  \n<li class=\"mrgn-bttm-md\"><a href=\"display-afficher.do?id=1415290508568&amp;lang=fra\">\u00c9tape\u00a03\u00a0:  Faites approuver votre voyage</a><br>\nInformation sur la fa\u00e7on de d\u00e9terminer les niveaux  d'approbation et les \u00e9tapes \u00e0 suivre pour faire approuver votre voyage.</li>\n  \n<li class=\"mrgn-bttm-md\"><a href=\"display-afficher.do?id=1415296553079&amp;lang=fra\">\u00c9tape\u00a04\u00a0:  Soumettez votre demande de voyage</a><br>\n\u00c9tapes \u00e0 suivre pour soumettre votre demande de  voyage.</li>\n  \n<li class=\"mrgn-bttm-md\"><a href=\"display-afficher.do?id=1415297726311&amp;lang=fra\">\u00c9tape\u00a05\u00a0:  Pr\u00e9parez votre voyage</a><br>\nInformation sur les passeports, les visas, les  consid\u00e9rations relatives \u00e0 la sant\u00e9, les assurances et la s\u00e9curit\u00e9. </li>\n  \n<li><a href=\"display-afficher.do?id=1415299526499&amp;lang=fra\">\u00c9tape\u00a06\u00a0:  Soumettez votre rapport de d\u00e9pense</a><br>\n\u00c9tapes \u00e0 suivre pour remplir et soumettre votre  rapport de d\u00e9penses de voyage \u00e0 votre retour en  vue d'obtenir un remboursement.</li>\n</ul>\n\n<h2>\u00c9l\u00e9ments \u00e0 prendre en consid\u00e9ration lors d'un voyage</h2>\n\n<ul>\n  <li><a href=\"https://intranet.agr.gc.ca/agrisource/AgriDoc.do?id=4502756&amp;lang=fra\" target=\"_blank\">Arbre d\u00e9cisionnel pour l'approbation de voyages, d'accueil, de conf\u00e9rences et d'\u00e9v\u00e9nements (Excel)</a></li>\n  <li><a href=\"display-afficher.do?id=1415297726311&amp;lang=fra#assur\">Assurance</a></li>\n  <li><a href=\"display-afficher.do?id=1415284129223&amp;lang=fra#civ\">Carte de voyage</a></li>\n  <li><a href=\"display-afficher.do?id=1415284129223&amp;lang=fra#fgu\">Formation sur le Portail des Services de voyage  partag\u00e9s</a></li>\n  <li><a href=\"display-afficher.do?id=1415286348914&amp;lang=fra#h\">H\u00e9bergement</a></li>\n  <li><a href=\"display-afficher.do?id=1415284129223&amp;lang=fra#niv\">Num\u00e9ro d'identification du voyageur</a> (NIV)</li>  \n  <li><a href=\"display-afficher.do?id=1415297726311&amp;lang=fra#passvisa\">Passeports et visas</a></li>\n  <li><a href=\"https://isuite6.hrgworldwide.com/gcportal/fr-ca/sts.aspx\">Portail des Services de voyage  partag\u00e9s</a></li>\n  <li><a href=\"display-afficher.do?id=1415286348914&amp;lang=fra#rff\">Repas et faux frais</a></li>\n  <li><a href=\"display-afficher.do?id=1375889042416&amp;lang=fra\">S\u00e9ance d'information sur la s\u00e9curit\u00e9 d\u00e9fensive</a> </li>\n  <li><a href=\"display-afficher.do?id=1415297726311&amp;lang=fra#sec\">S\u00e9curit\u00e9 \u2013 personnel et mat\u00e9riel</a></li>\n  <li><a href=\"display-afficher.do?id=1415286348914&amp;lang=fra#transport\">Transport</a></li>\n  <li><a href=\"display-afficher.do?id=1405954163788&amp;lang=fra\">Voyage financ\u00e9 par un tiers</a></li>\n  <li><a href=\"display-afficher.do?id=1323362921857&amp;lang=fra\">Voyages \u00e0 l'\u00e9tranger - Avis aux voyageurs</a></li>\n</ul>\n\n<h2>Syst\u00e8me des Services de voyage partag\u00e9s \u2013 Aide-m\u00e9moire</h2>\n\n<ul>\n <li><a href=\"https://intranet.agr.gc.ca/resources/prod/doc/cmb_dggi/cmb-frms-fptpd-how-to-set-up-arranger-fr.docx\">Comment mettre en place un organisateur de voyage (Word)</a></li>\n <li><a href=\"https://intranet.agr.gc.ca/resources/prod/doc/cmb_dggi/cmb-frms-fptpd-how-to-create-a-travel-request_fin-fr.docx\">Comment cr\u00e9er une demande de voyage (Word)</a></li>\n <li><a href=\"https://intranet.agr.gc.ca/resources/prod/doc/cmb_dggi/cmb-frms-fptpd-how-to-use-the-obt_fin-fr.docx\">Comment se servir de l'Outil de r\u00e9servation en ligne (OREL) (Word)</a></li>\n <li><a href=\"https://intranet.agr.gc.ca/resources/prod/doc/cmb_dggi/cmb-frms-fptpd-how-to-get-reimbursed-for-travel-expenses-fin-fr.docx\">Comment se faire rembourser les frais de voyage (Word)</a></li>\n <li><a href=\"https://intranet.agr.gc.ca/resources/prod/doc/cmb_dggi/cmb-frms-fptpd-how-to-claim-travel-card-transactions_fin-fr.docx\">Comment r\u00e9clamer des transactions par carte de voyage (Word)</a></li>\n <li><a href=\"https://intranet.agr.gc.ca/resources/prod/doc/cmb_dggi/guide-to-view-idtc-statements-fr.docx\">Guide pour consulter les relev\u00e9s de la carte individuelle de voyage (Word)</a></li>\n <li><a href=\"https://intranet.agr.gc.ca/resources/prod/doc/cmb_dggi/comment_utiliser_le_formulaire_de_demande_de_reservation.docx\">Comment utiliser le formulaire de demande de r\u00e9servation (Word)</a></li>\n</ul>\n\n<h2 id=\"bej\">Bulletins et journaux</h2>\n\n<ul>\n  <li><a href=\"https://intranet.agr.gc.ca/resources/prod/pdf/cmb_dggi/managing_and_using_future_travel_credits_with_hrg-fra.pdf\">G\u00e9rer et utiliser les cr\u00e9dits de voyages ult\u00e9rieurs avec Hogg Robinson Group (PDF)</a></li>\n  <li><a href=\"https://intranet.agr.gc.ca/resources/prod/doc/cmb_dggi/cmb-frms-fptpd-application-des-credits-de-voyage-ftc.docx\">Application des cr\u00e9dits de voyage ult\u00e9rieurs en place (Word)</a></li>\n  <li><a href=\"https://intranet.agr.gc.ca/resources/prod/doc/cmb_dggi/cmb-frms-fptpd-annual-reminder-on-travel-cards-responsiblities-fr.docx\">Des responsabilit\u00e9s relatives aux cartes de voyage (Word)</a></li>\n  <li><a href=\"https://intranet.agr.gc.ca/resources/prod/doc/cmb_dggi/trucs_et_conseils%20_du_journal_de_transition_des_svp.docx\">Trucs et conseils du Journal de transition des Services de voyage partag\u00e9s (Word)</a></li>\n</ul>\n\n<h2>R\u00e9f\u00e9rences</h2>\n\n<h3>Directives</h3>\n\n<h4>Conseil national mixte</h4>\n\n<ul>\n  <li><a href=\"http://www.njc-cnm.gc.ca/directive/index.php?did=10&amp;dlabel=travel-voyage&amp;lang=fra&amp;merge=2&amp;slabel=index\">Directive sur les voyages  du Conseil national mixte</a></li>\n</ul>\n\n<h4>Secr\u00e9tariat du Conseil du Tr\u00e9sor du Canada</h4>\n\n<ul>\n  <li><a href=\"http://www.tbs-sct.gc.ca/pubs_pol/hrpubs/tbm_113/statb-fra.asp\">Autorisations sp\u00e9ciales de voyager</a></li>\n  <li><a href=\"http://www.tbs-sct.gc.ca/pol/doc-fra.aspx?id=25049&amp;section=text\">Code de valeurs et d'\u00e9thique de la fonction  publique</a></li>\n  <li><a href=\"https://www.tbs-sct.gc.ca/pol/doc-fra.aspx?id=32503\">Directive sur la d\u00e9l\u00e9gation des pouvoirs de d\u00e9penser et des pouvoirs financiers</a></li>\n  <li><a href=\"https://www.tbs-sct.gc.ca/pol/doc-fra.aspx?id=32504\">Directive sur les paiements et Annexe C : Norme sur les cartes de voyage</a></li>\n  <li><a href=\"http://www.tbs-sct.gc.ca/pol/doc-fra.aspx?id=27228&amp;section=text\">Directive sur les d\u00e9penses de voyages,  d'accueil, de conf\u00e9rences et d'\u00e9v\u00e9nements</a></li>\n  <li><a href=\"http://publiservice.tbs-sct.gc.ca/pd-dp/dthe-dfva/index-fra.asp\">Divulgation des frais de voyage et d'accueil</a></li>\n</ul>\n\n<h3>Lignes directrices</h3>\n\n<h4>Minist\u00e9rielle</h4>\n\n<ul>\n<li><a href=\"https://intranet.agr.gc.ca/agrisource/AgriDoc.do?id=3659122&amp;lang=fra\" target=\"_blank\">Normes d'AAC sur les d\u00e9penses de voyages, d'accueil, de conf\u00e9rences et d'\u00e9v\u00e9nements (Word)</a></li>\n</ul>\n\n<h4>Secr\u00e9tariat du Conseil du Tr\u00e9sor du Canada</h4>\n\n<ul>\n<li><a href=\"http://www.tbs-sct.gc.ca/pol/doc-fra.aspx?id=32553\">Guide sur les d\u00e9penses de voyages, d'accueil, de conf\u00e9rences et d'\u00e9v\u00e9nements</a></li>\n</ul>\n\n<h2>Contactez-nous</h2>\n\n<p>Vous avez des questions? Consultez la <a href=\"https://intranet.agr.gc.ca/agrisource/AgriDoc.do?id=100477477&amp;lang=fra\" target=\"_blank\">liste de personnes-ressources cl\u00e9s d'Agriculture et Agroalimentaire Canada pour les voyages (Word)</a> afin de savoir \u00e0 qui vous adresser.</p>\n\t\t"
    }
}