{
    "has_dcr_id": true,
    "node_id": "1485266766613",
    "parent_node_id": "1492538502840",
    "dcr_id": "1376586640212",
    "landingPageUrl": {
        "en": "1376586640212",
        "fr": "1376586640212"
    },
    "parent_dcr_id": "1330360312384",
    "breadcrumb": {
        "en": "Security Awareness",
        "fr": "La sensibilisation \u00e0 la s\u00e9curit\u00e9"
    },
    "node_title": {
        "en": "null",
        "fr": "null"
    },
    "title": {
        "en": "Security Awareness",
        "fr": "La sensibilisation \u00e0 la s\u00e9curit\u00e9"
    },
    "type": "find_people",
    "meta": {
        "issued": {
            "en": "2013-08-19",
            "fr": "2013-08-19"
        },
        "modified": {
            "en": "2020-05-06",
            "fr": "2020-02-12"
        },
        "format": {
            "en": "gcformat",
            "fr": "gcformat"
        },
        "title": {
            "en": "Security awareness",
            "fr": "La sensibilisation \u00e0 la s\u00e9curit\u00e9"
        },
        "subject": {
            "en": "training;security",
            "fr": "formation;s\u00e9curit\u00e9"
        },
        "description": {
            "en": "This initiative is directed at decreasing our department's security risks and improving awareness of policies, procedures and processes that are in place to ensure the confidentiality, integrity and availability of our information and the protection of our personnel and assets.",
            "fr": "Cette initiative vise \u00e0 r\u00e9duire les risques pour la s\u00e9curit\u00e9 de notre minist\u00e8re et \u00e0 am\u00e9liorer la connaissance des politiques, proc\u00e9dures et processus qui permettent d'assurer la confidentialit\u00e9, l'int\u00e9grit\u00e9 et la disponibilit\u00e9 de notre information ainsi que la protection de notre personnel et de nos biens."
        },
        "language": {
            "en": "eng",
            "fr": "fra"
        },
        "keywords": {
            "en": "security duties, access privileges",
            "fr": "t\u00e2ches pr\u00e9cises li\u00e9es \u00e0 la s\u00e9curit\u00e9, privil\u00e8ges d'acc\u00e8s"
        },
        "audience": {
            "en": "gcaudience",
            "fr": "gcaudience"
        },
        "type": {
            "en": "resource list",
            "fr": "liste de r\u00e9f\u00e9rence"
        },
        "creator": {
            "en": "Agriculture and Agri-Food Canada",
            "fr": "Agriculture et Agroalimentaire Canada"
        },
        "spatial": {
            "en": "gcregions",
            "fr": "gcregions"
        },
        "service": {
            "en": "AAFC_AgriSource",
            "fr": "AAC_AgriSource"
        },
        "accessRights": {
            "en": "3",
            "fr": "3"
        }
    },
    "body": {
        "en": "\n\t\t\t  \n\n<p>Agriculture and Agri-Food Canada's <a href=\"?id=1325695839878\">security awareness program</a> (AGR-620) is designed to ensure that</p>\n\n<ul>\n       <li>Individuals who have specific security duties receive appropriate, up-to-date training;</li>\n       <li>Individuals are regularly informed and reminded of security matters; and</li>\n       <li>Individuals are briefed prior to commencement of duties or in the update cycle on their responsibilities related to security and on the access privileges and prohibitions attached to their screening level.</li>\n</ul>\n\n<p>The security awareness online training, including the mandatory training (A230) from  the <a href=\"https://idp.csps-efpc.gc.ca/idp/login-en.jsp\">Canada School of Public Service</a> is directed at decreasing our department's security risks and improving awareness of policies, procedures and processes that are in place to ensure the confidentiality, integrity and availability of our information and the protection of our personnel and assets.</p>\n\n<h2>Learning resources</h2>\n\n<h3>Security presentations (not part of the web-based training)</h3>\n\n<ul>\n      <li><a href=\"https://intranet.agr.gc.ca/resources/prod/pdf/cmb_dggi/malicious_email_detection_courriels_malveillants-eng.pdf\">Malicious Email Detection Guide (PDF)</a></li>\n      <li><a href=\"https://intranet.agr.gc.ca/resources/prod/doc/cmb_dggi/oid_bdi-eng.docx\">Office for Internal Disclosure (Word)</a></li>\n      <li><a href=\"https://intranet.agr.gc.ca/resources/prod/doc/cmb_dggi/sec_req_checklist_verification_exigences-eng.docx\">Security Requirements Checklist (Word)</a></li>\n      <li><a href=\"https://intranet.agr.gc.ca/resources/prod/https://collab.agr.gc.ca/co/dss-ssm/Documents/SECURITY%20AWARENESS%20TRAINING/Social%20Media%20at%20AAFC%20-%20EN.PPT\">Social Media (PPT)</a></li>\n      <li><a href=\"https://intranet.agr.gc.ca/resources/prod/ppt/cmb_dggi/identity_fraud-eng.ppt\">Identity Fraud (PPT)</a></li>\n</ul>\n\n<h3>Information sheets</h3>\n\n<ul>\n     <li><a href=\"https://collab.agr.gc.ca/co/dss-ssm/Documents/SECURITY%20AWARENESS%20TRAINING/ABC%20and%20Secret%20-%20EN.docx%20\">ABCs of protected information - guide (Word)</a></li>\n     <li><a href=\"https://intranet.agr.gc.ca/resources/prod/doc/cmb_dggi/sec_req_checklist_verification_exigences-eng.docx\">Security Requirements Checklist (Word)</a></li>\n    <li><a href=\"https://intranet.agr.gc.ca/resources/prod/doc/cmb_dggi/oid_bdi-eng.docx\">Office for Internal Disclosure (Word)</a></li>\n     <li><a href=\"display-afficher.do?id=1325703455461&amp;lang=eng\">Access Control</a></li>\n     <li><a href=\"display-afficher.do?id=1325703893933&amp;lang=eng\">Information Security Part I: Identifying Sensitive Information</a></li>\n     <li><a href=\"display-afficher.do?id=1325704881538&amp;lang=eng\">Information Security Part II: Handling of Sensitive Information</a></li>\n     <li><a href=\"https://collab.agr.gc.ca/co/dss-ssm/Documents/SECURITY%20AWARENESS%20TRAINING/Security%20is%20Everyone's%20Responsability%20pamphlet%20-%20EN.pdf?d=wd3d91fba4c394911b546f5f432958ca1\">Security is Everyone's Responsibility pamphlet (PDF)</a></li>\n     <li><a href=\"https://intranet.agr.gc.ca/resources/prod/images/cmb_dggi/cmb_security_4-eng.jpg\">Permanent dockets - Protected A-B-C (JPG)</a>\n     </li><li><a href=\"https://intranet.agr.gc.ca/resources/prod/images/cmb_dggi/cmb_security_5-eng.jpg\">Temporary dockets - Protected A-B-C (JPG)</a></li>\n</ul>\n\n<h2>Related policies</h2>\n<ul>\n     <li><a href=\"https://collab.agr.gc.ca/co/dss-ssm/Documents/POLICY-DIRECTIVE-STANDARD/Departmental%20Security%20Policy%20-%20EN.pdf?d=wbe37a37553224a578606c90d9b778471\">Departmental Security Policy (Word)</a></li>\n</ul>\n\n<h2>Contact us</h2>\n\n<p>Email: <a href=\"mailto:aafc.securitytraining-securiteformation.aac@canada.ca\">aafc.securitytraining-securiteformation.aac@canada.ca</a></p>\n\t\t",
        "fr": "\n\t\t\t  \n\n<p><a href=\"?id=1325695839878\">Le programme de sensibilisation \u00e0 la s\u00e9curit\u00e9</a> d'Agriculture et Agroalimentaire Canada (AAC) (AGR-620) est con\u00e7u pour s'assurer\u00a0:</p>\n\n<ul>\n    <li>que les personnes ayant des t\u00e2ches pr\u00e9cises li\u00e9es \u00e0 la s\u00e9curit\u00e9 re\u00e7oivent une formation \u00e0 jour appropri\u00e9e;</li>\n    <li>que les personnes sont inform\u00e9es des questions li\u00e9es \u00e0 la s\u00e9curit\u00e9 et qu'on les leur rappelle r\u00e9guli\u00e8rement;</li>\n    <li>que les personnes sont inform\u00e9es avant le d\u00e9but de leurs t\u00e2ches ou au cours du cycle de mise \u00e0 jour de leurs responsabilit\u00e9s li\u00e9es \u00e0 la s\u00e9curit\u00e9 et des interdictions et des privil\u00e8ges d'acc\u00e8s li\u00e9s \u00e0 leur cote de s\u00e9curit\u00e9.</li>\n</ul>\n\n<p>La formation en ligne sur la s\u00e9curit\u00e9 incluant le cours obligatoire (A230) de <a href=\"https://idp.csps-efpc.gc.ca/idp/login-fr.jsp\">l'\u00c9cole de la Fonction Publique du Canada</a> vise \u00e0 r\u00e9duire les risques pour la s\u00e9curit\u00e9 de notre minist\u00e8re et \u00e0 am\u00e9liorer la connaissance des politiques, proc\u00e9dures et processus qui permettent d'assurer la confidentialit\u00e9, l'int\u00e9grit\u00e9 et la disponibilit\u00e9 de notre information ainsi que la protection de notre personnel et de nos biens.</p>\n\n<h2>Ressources d'apprentissage</h2>\n\n<h3>Pr\u00e9sentations sur la s\u00e9curit\u00e9\u00a0: (ne font pas partie de la formation en ligne)</h3>\n\n<ul>\n   <li><a href=\"https://intranet.agr.gc.ca/resources/prod/pdf/cmb_dggi/malicious_email_detection_courriels_malveillants-fra.pdf\">Guide de d\u00e9tection des courriels malveillants (PDF)</a></li>\n   <li><a href=\"https://intranet.agr.gc.ca/resources/prod/doc/cmb_dggi/oid_bdi-fra.docx\">Bureau de la divulgation interne (Word)</a></li>\n   <li><a href=\"https://intranet.agr.gc.ca/resources/prod/doc/cmb_dggi/sec_req_checklist_verification_exigences-fra.docx\">Liste de v\u00e9rification des exigences relatives \u00e0 la s\u00e9curit\u00e9 (Word)</a></li>\n   <li><a href=\"https://collab.agr.gc.ca/co/dss-ssm/Documents/SECURITY%20AWARENESS%20TRAINING/Social%20Media%20at%20AAFC%20-%20FR.PPT\">M\u00e9dia sociaux (PPT)</a></li>\n   <li><a href=\"https://intranet.agr.gc.ca/resources/prod/ppt/cmb_dggi/identity_fraud-eng.ppt\">Fraude d'identit\u00e9 (PPT) (en anglais seulement)</a></li>\n</ul>\n\n<h3>Fiches d'information</h3>\n\n<ul>\n <li><a href=\"https://collab.agr.gc.ca/co/dss-ssm/Documents/SECURITY%20AWARENESS%20TRAINING/ABC%20and%20Secret%20-%20FR.docx\">Les ABC des renseignements prot\u00e9g\u00e9s - guide d'information (Word)</a></li>\n <li><a href=\"https://intranet.agr.gc.ca/resources/prod/doc/cmb_dggi/sec_req_checklist_verification_exigences-fra.docx\">Liste de v\u00e9rification des exigences relatives \u00e0 la s\u00e9curit\u00e9 (Word)</a></li>\n <li><a href=\"https://intranet.agr.gc.ca/resources/prod/doc/cmb_dggi/oid_bdi-fra.docx\">Bureau de la divulgation interne (Word)</a></li>\n   <li><a href=\"display-afficher.do?id=1325703455461&amp;lang=fra\">Contr\u00f4le de l'acc\u00e8s aux lieux</a></li>\n   <li><a href=\"display-afficher.do?id=1325703893933&amp;lang=fra\">S\u00e9curit\u00e9 de l'information, 1<sup>\u00e8re</sup> partie\u00a0: la d\u00e9termination des renseignements sensibles</a></li>\n   <li><a href=\"display-afficher.do?id=1325704881538&amp;lang=fra\">S\u00e9curit\u00e9 de l'information, 2<sup>e</sup> partie\u00a0: la manipulation des renseignements sensibles</a></li>\n   <li><a href=\"https://collab.agr.gc.ca/co/dss-ssm/Documents/SECURITY%20AWARENESS%20TRAINING/Security%20is%20Everyone's%20Responsability%20pamphlet%20-%20FR.pdf?d=w150c9204abbf4b79bd60d062f5503dba\">La s\u00e9curit\u00e9, c'est l'affaire de tout le monde\u00a0- brochure (PDF)</a></li>\n   <li><a href=\"https://intranet.agr.gc.ca/resources/prod/images/cmb_dggi/cmb_security_4-fra.jpg\">Dossiers permanent - Prot\u00e9g\u00e9 A-B-C (JPG)</a></li>\n   <li><a href=\"https://intranet.agr.gc.ca/resources/prod/images/cmb_dggi/cmb_security_5-fra.jpg\">Dossiers temporaire - Prot\u00e9g\u00e9 A-B-C (JPG)</a></li>\n</ul>\n\n<h2>Politiques li\u00e9es</h2>\n\n<ul>\n   <li><a href=\"https://collab.agr.gc.ca/co/dss-ssm/Documents/POLICY-DIRECTIVE-STANDARD/Departmental%20Security%20Policy%20-%20FR.docx\">Politique de s\u00e9curit\u00e9 minist\u00e9rielle (Word)</a></li>\n</ul>\n\n<h2>Communiquez avec nous</h2>\n\n<p>Courriel\u00a0: <a href=\"mailto:aafc.securitytraining-securiteformation.aac@canada.ca\">aafc.securitytraining-securiteformation.aac@canada.ca</a></p>\n\t\t"
    }
}