{
    "has_dcr_id": true,
    "node_id": "1492713445379",
    "parent_node_id": "1320677087463",
    "dcr_id": "1332272579937",
    "landingPageUrl": {
        "en": "1332272579937",
        "fr": "1332272579937"
    },
    "parent_dcr_id": "1320429524077",
    "breadcrumb": {
        "en": "Accounts Payable",
        "fr": "Comptes payables"
    },
    "node_title": {
        "en": "null",
        "fr": "null"
    },
    "title": {
        "en": "Accounts Payable",
        "fr": "Comptes payables"
    },
    "type": "find_people",
    "meta": {
        "issued": {
            "en": "2012-03-26",
            "fr": "2012-03-26"
        },
        "modified": {
            "en": "2020-09-30",
            "fr": "2020-09-30"
        },
        "format": {
            "en": "gcformat",
            "fr": "gcformat"
        },
        "title": {
            "en": "Accounts Payable",
            "fr": "Comptes payables"
        },
        "subject": {
            "en": "finance",
            "fr": "finances"
        },
        "description": {
            "en": "Corporate Management Branch Policies and Guidelines : Accounts Payable",
            "fr": "Direction g\u00e9n\u00e9rale de la gestion int\u00e9gr\u00e9e Politiques et lignes directrices : Comptes payables"
        },
        "language": {
            "en": "eng",
            "fr": "fra"
        },
        "keywords": {
            "en": "Policies, Procedures, Treasury Board of Canada Secretariat Policies, Public Works and Government Services Canada",
            "fr": "Politiques, M\u00e9thodes, Politiques du Secr\u00e9taire du Conseil du Tr\u00e9sor du Canada, Travaux publics et Services gouvernementaux Canada"
        },
        "audience": {
            "en": "gcaudience",
            "fr": "gcaudience"
        },
        "type": {
            "en": "resource list",
            "fr": "liste de r\u00e9f\u00e9rence"
        },
        "creator": {
            "en": "Agriculture and Agri-Food Canada",
            "fr": "Agriculture et Agroalimentaire Canada"
        },
        "spatial": {
            "en": "gcregions",
            "fr": "gcregions"
        },
        "service": {
            "en": "AAFC_AgriSource",
            "fr": "AAC_AgriSource"
        },
        "accessRights": {
            "en": "3",
            "fr": "3"
        }
    },
    "body": {
        "en": "\n\t\t\t  \n\n<h2>Departmental</h2>\n\n<h3>Policies</h3>\n\n<ul>\n <li><a href=\"http://www.tbs-sct.gc.ca/pol/doc-eng.aspx?id=15790\">Directive on Account Verification</a></li>\n <li><a href=\"https://intranet.agr.gc.ca/resources/prod/doc/cmb_dggi/policies_guidelines/1998_99_gating_sampling-eng.doc\">Gating and Sampling (Word)</a>\n <ul>\n <li><a href=\"https://intranet.agr.gc.ca/resources/prod/doc/cmb_dggi/policies_guidelines/bulletin_plan_sampling-eng.doc\">Sampling Plan Bulletin (Word)</a></li>\n </ul>\n </li>\n <li>Accounting Policies\n <ul>\n <li><a href=\"https://intranet.agr.gc.ca/resources/prod/doc/cmb_dggi/policies_guidelines/eap_accounting_policies-eng.doc\">Expenses, Accounts Payable and Accrued Liabilities (Word)</a></li>\n <li><a href=\"https://intranet.agr.gc.ca/resources/prod/doc/cmb_dggi/policies_guidelines/foreign_currency_transact_devises_etrangeres-eng.doc\">Foreign Currency Transactions (Word)</a></li>\n <li><a href=\"https://intranet.agr.gc.ca/resources/prod/doc/cmb_dggi/policies_guidelines/prepaid_expenses-eng.doc\">Prepaid Expenses (Word)</a></li>\n </ul>\n </li>\n</ul>\n\n<h3>Procedures</h3>\n\n<ul>\n <li><a href=\"https://intranet.agr.gc.ca/resources/prod/doc/cmb_dggi/policies_guidelines/1332272579937_section_article_34_certificat_attest1-eng.doc\">What is Section 34? (Word)</a></li>\n <li>Priority payments and payments in foreign currency\n <ul>\n <li><a href=\"https://intranet.agr.gc.ca/resources/prod/doc/cmb_dggi/policies_guidelines/priorit_foreign_pay_paie_priorit_devises-eng.doc\">Instructions for AAFC and CFIA Priority and Foreign Currency Payments (Word)</a></li>\n </ul>\n </li>\n <li>Voice Telecommunications Processing and Verification (Rescinded)*</li>\n <li>Event Plan: Verification and Processing Procedures (Rescinded)** \n <ul>\n <li>Handbook - April 2013 - Processing Procedures for Event Plan transactions (Word)</li>\n </ul>\n </li>\n <li>Travel Claims: Verification and Processing Procedures (Rescinded)**\n <ul>\n <li>Handbook - November 2005 - Verification and Processing Procedures for Travel Claims (Word)</li>\n <li>Bulletin - 2005-11-30 - Changes to Verification and Processing Procedures for Travel Claims (Word)</li>\n </ul>\n </li>\n <li>Departmental Travel Expense Account Payments: Verification and Processing Procedures (Rescinded)** \n <ul>\n <li>Handbook - September 2012 - Verification and Processing Procedures for Departmental Travel Expense Account Payments (Word)</li>\n <li>Bulletin - 2005-05-01 - Automation of Designated Responsibility Centre Travel Account Payments (DRCTA) (Word)<br>\n </li>\n </ul>\n </li>\n <li>Direct Deposit Procedures\n <ul>\n <li>Procedure\u00a0- January 2014\u00a0- <a href=\"https://intranet.agr.gc.ca/resources/prod/doc/cmb_dggi/policies_guidelines/procedures_electronic_funds_transfer_external_recipients-eng.doc\">Procedures for Electronic Funds Transfer to External Recipients (Word)</a></li>\n <li><a href=\"https://forms-formulaires.agr.gc.ca/pdf/A6165-E.pdf\">Recipient Registration and Electronic Payment Request form (AAFC/AAC 6165-E) (PDF)</a></li>\n <li>Procedure\u00a0- February 2015\u00a0- <a href=\"https://intranet.agr.gc.ca/resources/prod/doc/cmb_dggi/policies_guidelines/direct_deposit_proc_depot_direct_02-15-eng.doc\">Direct Deposit Procedures (for employees only) (Word)</a></li>\n <li><a href=\"https://forms-formulaires.agr.gc.ca/pdf/A5019-E.pdf\">SAP Direct Deposit Enrolment Request Form (for employees only) (5019-E) (PDF)</a></li>\n </ul>\n </li>\n <li>Temporary Help Payments: Verification and Processing Procedures\n <ul>\n <li>Handbook\u00a0- April 2013\u00a0- <a href=\"https://intranet.agr.gc.ca/resources/prod/doc/cmb_dggi/policies_guidelines/temp_help_aide-eng.doc\">Verification and Processing Procedures for Temporary Help Payments Handbook (Word)</a>\n </li>\n </ul></li>\n <li>\tVerification and Processing Procedures for Monthly Wireless Telecommunication Payments Handbook (Rescinded)</li>\n <li><a href=\"display-afficher.do?id=1328276152031&amp;lang=eng\">Acquisition Cards: Issuance, Verification and Processing Procedures</a>\n   <ul>\n     <li>Handbook\u00a0- October 2016 - <a href=\"display-afficher.do?id=1312405863550&amp;lang=eng\">Acquisition Card Handbook: Issuance, Verification and Processing Procedures</a></li>\n    </ul>\n </li>\n <li>Interest of Overdue Accounts Payable: Verification and Processing Procedures\n <ul>\n <li><a href=\"https://intranet.agr.gc.ca/resources/prod/doc/cmb_dggi/policies_guidelines/automatic_payment-eng.doc\">Bulletin - 2011-09-22 - Automatic Payment of Interest on Accounts Payable</a></li>\n </ul>\n </li>\n <li><a href=\"https://intranet.agr.gc.ca/resources/prod/doc/cmb_dggi/cmb_frms_fptp_guide_for_recording_travel_costs_as_part_of_contract-eng.docx\">Guide for the Recording of Travel Costs as part of a Contract (Word)</a></li>\n</ul>\n<p>* These expenditures are now the mandate of Shared Services Canada and no longer the responsibility of Agriculture and Agri-Food Canada. If you wish to obtain a copy of the rescinded procedure, please contact <a href=\"http://directinfo.agr.gc.ca/directInfo/eng/index.php?fuseaction=agriInfo.empView&amp;dn=cn=Chan%5C2C%20Anita%20R%20(chanan),ou=EO-BE,ou=VPS-SVT,ou=FPTPD-PFTCD,OU=FRMSD-DSFGR,OU=CMB-DGGI,OU=AAFC-AAC,o=gc,c=ca\">Anita Chan</a>. For any questions regarding Shared Services Canada telecommunications payment procedures, please contact IT Centre TI.</p>\n\n<p>** Rescinded with the implementation of Shared Travel Services. Please refer to our <a href=\"display-afficher.do?id=1314719697163&amp;lang=eng\">Departmental Travel Webpage</a>.</p>\n\n<h2>Treasury Board of Canada Secretariat Policies</h2>\n\n<ul>\n <li><a href=\"http://www.tbs-sct.gc.ca/pol/doc-eng.aspx?id=15790\">Directive on Account Verification</a></li>\n <li><a href=\"http://publiservice.tbs-sct.gc.ca/pol/doc-eng.aspx?id=15784\">Directive on Payment Requisitioning and Cheque Control</a></li>\n</ul>\n\n<h2>Public Works and Government Services Canada</h2>\n\n<ul>\n <li><a href=\"http://www.tpsgc-pwgsc.gc.ca/recgen/txt/taux-rates-eng.html\">Payment on Due Date Interest Rate</a></li>\n</ul>\n\n<h2>Contact Us</h2>\n\n<ul>\n<li>Ontario/Quebec/Atlantic: <a href=\"http://directinfo.agr.gc.ca/directInfo/eng/index.php?fuseaction=agriInfo.empView&amp;dn=CN=Tam%5C2C%20Karen%20(tamk),ou=WO-BO,ou=VPS-SVT,ou=FPTPD-PFTCD,OU=FRMSD-DSFGR,OU=CMB-DGGI,OU=AAFC-AAC,o=gc,c=ca\" title=\"DirectInfo\">Karen Tam</a></li>\n <li>National Capital Region: <a href=\"http://directinfo.agr.gc.ca/directInfo/eng/index.php?fuseaction=agriInfo.empView&amp;dn=CN=Pepe%5C2C%20Jason%20(pepej),ou=NO-BR,ou=VPS-SVT,ou=FPTPD-PFTCD,OU=FRMSD-DSFGR,OU=CMB-DGGI,OU=AAFC-AAC,o=gc,c=ca\" title=\"DirectInfo\">Jason Pepe</a></li>\n <li>Mid West/Pacific: <a href=\"http://directinfo.agr.gc.ca/directInfo/eng/index.php?fuseaction=agriInfo.empView&amp;dn=CN=Danaher%5C2C%20Mark%20(danaherm),ou=WO-BO,ou=VPS-SVT,ou=FPTPD-PFTCD,OU=FRMSD-DSFGR,OU=CMB-DGGI,OU=AAFC-AAC,o=gc,c=ca\" title=\"DirectInfo\">Mark Danaher</a></li>\n <li>Financial Policy Mailbox: <a href=\"mailto:aafc.financialpolicy-politiquefinanciere.aac@canada.ca\">aafc.financialpolicy-politiquefinanciere.aac@canada.ca</a></li>\n</ul>\n\t\t",
        "fr": "\n\t\t\t  \n\n<h2>Politiques et m\u00e9thodes du Minist\u00e8re</h2>\n\n<h3>Politiques</h3>\n\n<ul>\n <li><a href=\"http://www.tbs-sct.gc.ca/pol/doc-fra.aspx?id=15790\">Directive sur la v\u00e9rification des comptes</a></li>\n <li><a href=\"https://intranet.agr.gc.ca/resources/prod/doc/cmb_dggi/policies_guidelines/1998_99_selection_echantillonnage-fra.doc\">S\u00e9lection et \u00e9chantillonnage (Word)</a> \n <ul>\n <li><a href=\"https://intranet.agr.gc.ca/resources/prod/doc/cmb_dggi/policies_guidelines/bulletin_plan_echantillonnage-fra.doc\">Bulletin d'\u00e9chantillonnage (Word)</a></li>\n </ul>\n </li>\n <li>Politiques comptables \n <ul>\n <li><a href=\"https://intranet.agr.gc.ca/resources/prod/doc/cmb_dggi/policies_guidelines/eap_charges_crediteurs-fra.doc\">Les charges, les cr\u00e9diteurs et les charges \u00e0 payer (Word)</a></li>\n <li><a href=\"https://intranet.agr.gc.ca/resources/prod/doc/cmb_dggi/policies_guidelines/foreign_currency_transact_devises_etrangeres-fra.doc\">Op\u00e9rations conclues en devises \u00e9trang\u00e8res (Word)</a></li>\n <li><a href=\"https://intranet.agr.gc.ca/resources/prod/doc/cmb_dggi/policies_guidelines/prepaid_expenses-fra.doc\">D\u00e9penses pay\u00e9es d'avance (Word)</a></li>\n </ul>\n </li>\n</ul>\n\n<h3>M\u00e9thodes</h3>\n\n<ul>\n <li><a href=\"https://intranet.agr.gc.ca/resources/prod/doc/cmb_dggi/policies_guidelines/1332272579937_section_article_34_certificat_attest1-fra.doc\">Qu'est-ce que l'article 34? (Word)</a></li>\n <li>Paiements prioritaires et en devises \u00e9trang\u00e8res \n <ul>\n <li><a href=\"https://intranet.agr.gc.ca/resources/prod/doc/cmb_dggi/policies_guidelines/priorit_foreign_pay_paie_priorit_devises-fra.doc\">Instructions pour AAC et ACIA\u00a0: Paiements prioritaires et en devises \u00e9trang\u00e8res (Word)</a></li>\n </ul>\n </li>\n <li> T\u00e9l\u00e9communication voix - Proc\u00e9dures de v\u00e9rification et de traitement (Annul\u00e9e)*</li>\n <li> Plan d'\u00e9v\u00e8nements : Proc\u00e9dures de v\u00e9rification et traitement (Annul\u00e9e)** \n <ul>\n <li> Manuel - Avril 2013 - Proc\u00e9dures de traitement des transactions du plan d'\u00e9v\u00e8nements (Word)</li>\n </ul>\n </li>\n <li> Demandes de frais de voyage : Proc\u00e9dures de v\u00e9rification et traitement (Annul\u00e9e)** \n <ul>\n <li> Manuel - Novembre 2005 - Proc\u00e9dures de v\u00e9rification et de traitement des demandes de frais de voyage (Word)</li>\n <li> Bulletin - 2005-11-30 - Changements apport\u00e9s aux proc\u00e9dures de v\u00e9rification et de traitement des demandes de frais de voyage (Word)</li>\n </ul>\n </li>\n <li> Paiements des comptes minist\u00e9riels de frais de voyages : Proc\u00e9dures de v\u00e9rification et traitement (Annul\u00e9e)** \n <ul>\n <li>Manuel - Septembre 2012 - Proc\u00e9dure de v\u00e9rification et de traitement des paiements des comptes minist\u00e9riels de frais de voyages (Word)</li>\n <li>Bulletin - 2005-05-01 - Automatisation du paiement des comptes de voyage d\u00e9sign\u00e9s de centre de responsabilit\u00e9 (Word)</li>\n </ul>\n </li>\n <li>Proc\u00e9dures de d\u00e9p\u00f4t direct \n <ul>\n <li>Proc\u00e9dures - Janvier 2014 - \n <a href=\"https://intranet.agr.gc.ca/resources/prod/doc/cmb_dggi/policies_guidelines/procedures_electronic_funds_transfer_external_recipients-fra.doc\">Proc\u00e9dures de transfert \u00e9lectronique de fonds aux b\u00e9n\u00e9ficiaires ext\u00e9rieurs (Word)</a>\n </li>\n <li><a href=\"https://forms-formulaires.agr.gc.ca/pdf/A6165-F.pdf\">Demande d'adh\u00e9sion du b\u00e9n\u00e9ficiaire au paiement \u00e9lectronique (AAC/AAFC 6165-F) (PDF)</a></li>\n <li>Proc\u00e9dures - F\u00e9vrier 2015 - \n <a href=\"https://intranet.agr.gc.ca/resources/prod/doc/cmb_dggi/policies_guidelines/direct_deposit_proc_depot_direct_02-15-fra.doc\">Proc\u00e9dures de d\u00e9p\u00f4t direct (pour employ\u00e9s seulement) (Word)</a>\n </li>\n <li><a href=\"https://forms-formulaires.agr.gc.ca/pdf/A5019-F.pdf\">Demande d'inscription du d\u00e9p\u00f4t direct au moyen de Saturne (pour employ\u00e9s seulement) (A5019-F) (PDF)</a></li>\n </ul>\n </li>\n <li>Paiements d'aide temporaire\u00a0: Proc\u00e9dures de v\u00e9rification et traitement \n <ul>\n <li>Manuel - Avril 2013 - <a href=\"https://intranet.agr.gc.ca/resources/prod/doc/cmb_dggi/policies_guidelines/temp_help_aide-fra.doc\">Proc\u00e9dures de v\u00e9rification et de traitement des paiements d'aide temporaire (Word)</a></li>\n </ul>\n </li>\n <li> Manuel de proc\u00e9dure de v\u00e9rification et traitement des paiements des frais mensuels de t\u00e9l\u00e9communication sans fil (Annul\u00e9e)*</li>\n <li><a href=\"display-afficher.do?id=1328276152031&amp;lang=fra\">Cartes d'achat\u00a0: Proc\u00e9dures d'\u00e9mission, de v\u00e9rification et de traitement</a> \n <ul>\n <li>Manuel - Octobre 2016 - <a href=\"display-afficher.do?id=1312405863550&amp;lang=fra\">Manuel de cartes d'achat\u00a0: Proc\u00e9dures d'\u00e9mission, de v\u00e9rification et de traitement</a></li>\n </ul>\n </li>\n <li>Int\u00e9r\u00eats sur les comptes fournisseurs en souffrance\u00a0: Proc\u00e9dures de v\u00e9rification et traitement \n <ul>\n <li><a href=\"https://intranet.agr.gc.ca/resources/prod/doc/cmb_dggi/policies_guidelines/automatic_payment-fra.doc\">Bulletin - 2011-09-22 - Automatisation du versement des int\u00e9r\u00eats sur les comptes \u00e0 payer (Word)</a></li>\n </ul>\n </li>\n <li><a href=\"https://intranet.agr.gc.ca/resources/prod/doc/cmb_dggi/cmb_frms_fptp_guide_for_recording_travel_costs_as_part_of_contract-fra.docx\">Guide relatif \u00e0 la comptabilisation des frais de d\u00e9placement dans le cadre d'un contrat (Word)</a></li>\n</ul>\n<p>* Ces d\u00e9penses sont maintenant sous le mandat de Services partag\u00e9s Canada et ne sont plus sous la responsabilit\u00e9 d'Agriculture et Agroalimentaire Canada. Si vous souhaitez obtenir une copie de la proc\u00e9dure annul\u00e9e, veuillez contacter <a href=\"http://directinfo.agr.gc.ca/directInfo/fra/index.php?fuseaction=agriInfo.empView&amp;dn=cn=Chan%5C2C%20Anita%20R%20(chanan),ou=EO-BE,ou=VPS-SVT,ou=FPTPD-PFTCD,OU=FRMSD-DSFGR,OU=CMB-DGGI,OU=AAFC-AAC,o=gc,c=ca\">Anita Chan</a>. Pour toutes questions concernant les proc\u00e9dures de paiement de t\u00e9l\u00e9communications de Services partag\u00e9s Canada, veuillez contacter IT Centre TI.</p>\n<p> ** Annul\u00e9e avec l\u2019application de Services de voyage partag\u00e9s. Veuillez r\u00e9f\u00e9rer \u00e0 notre <a href=\"display-afficher.do?id=1314719697163&amp;lang=fra\">page web minist\u00e9rielle sur les voyages</a>.<br>\n</p>\n<h2>Politiques du Secr\u00e9taire du Conseil du Tr\u00e9sor du Canada</h2>\n\n<ul>\n <li><a href=\"http://www.tbs-sct.gc.ca/pol/doc-fra.aspx?id=15790\">Directive sur la v\u00e9rification des comptes</a></li>\n <li><a href=\"http://publiservice.tbs-sct.gc.ca/pol/doc-fra.aspx?id=15784\">Directive sur les demandes de paiement et le contr\u00f4le des ch\u00e8ques</a></li>\n</ul>\n\n<h2>Travaux publics et Services gouvernementaux Canada</h2>\n\n<ul>\n <li><a href=\"http://www.tpsgc-pwgsc.gc.ca/recgen/txt/taux-rates-fra.html\">Paiement \u00e0 la date d'\u00e9ch\u00e9ance (taux d'int\u00e9r\u00eat)</a></li>\n</ul>\n\n<h2>Communiquez avec nous</h2>\n\n<ul>\n <li>Ontario / Qu\u00e9bec / Atlantique\u00a0: <a href=\"http://directinfo.agr.gc.ca/directInfo/fra/index.php?fuseaction=agriInfo.empView&amp;dn=CN=Tam%5C2C%20Karen%20(tamk),ou=WO-BO,ou=VPS-SVT,ou=FPTPD-PFTCD,OU=FRMSD-DSFGR,OU=CMB-DGGI,OU=AAFC-AAC,o=gc,c=ca\" title=\"DirectInfo\">Karen Tam</a></li>\n <li>R\u00e9gion de la capitale nationale\u00a0: <a href=\"http://directinfo.agr.gc.ca/directInfo/fra/index.php?fuseaction=agriInfo.empView&amp;dn=CN=Pepe%5C2C%20Jason%20(pepej),ou=NO-BR,ou=VPS-SVT,ou=FPTPD-PFTCD,OU=FRMSD-DSFGR,OU=CMB-DGGI,OU=AAFC-AAC,o=gc,c=ca\" title=\"DirectInfo\">Jason Pepe</a></li>\n <li>Centre-Ouest / Pacifique\u00a0: <a href=\"http://directinfo.agr.gc.ca/directInfo/fra/index.php?fuseaction=agriInfo.empView&amp;dn=CN=Danaher%5C2C%20Mark%20(danaherm),ou=WO-BO,ou=VPS-SVT,ou=FPTPD-PFTCD,OU=FRMSD-DSFGR,OU=CMB-DGGI,OU=AAFC-AAC,o=gc,c=ca\" title=\"DirectInfo\">Mark Danaher</a></li>\n <li>Envoyer un courriel \u00e0\u00a0: <a href=\"mailto:aafc.financialpolicy-politiquefinanciere.aac@canada.ca\">aafc.financialpolicy-politiquefinanciere.aac@canada.ca</a></li>\n</ul>\n\t\t"
    }
}