{
    "has_dcr_id": true,
    "node_id": "1492538313474",
    "parent_node_id": "1279030343272",
    "dcr_id": "1287498451322",
    "landingPageUrl": {
        "en": "1287498451322",
        "fr": "1287498451322"
    },
    "parent_dcr_id": "1287488508793",
    "breadcrumb": {
        "en": "Finance and Resource Management Services Directorate",
        "fr": "Direction des services des finances et de la gestion des ressources"
    },
    "node_title": {
        "en": "null",
        "fr": "null"
    },
    "title": {
        "en": "Finance and Resource Management Services Directorate",
        "fr": "Direction des services des finances et de la gestion des ressources"
    },
    "type": "find_people",
    "meta": {
        "issued": {
            "en": "2010-11-09",
            "fr": "2010-11-09"
        },
        "modified": {
            "en": "2020-04-27",
            "fr": "2020-04-27"
        },
        "format": {
            "en": "gcformat",
            "fr": "gcformat"
        },
        "title": {
            "en": "Finance and Resource Management Services Directorate",
            "fr": "Direction des services des finances et de la gestion des ressources"
        },
        "subject": {
            "en": "finance",
            "fr": "finances"
        },
        "description": {
            "en": "The Finance and Resource Management Services Directorate is responsible for sound management, stewardship and policy and program decision-making through the provision of timely, robust and relevant financial information, services and advice.",
            "fr": "La Direction des services des finances et de la gestion des ressources est responsable de la saine gestion, de l'administration et des d\u00e9cisions li\u00e9es aux politiques et aux programmes par la prestation d'information, de services et de conseils financiers opportuns, complets et pertinents."
        },
        "language": {
            "en": "eng",
            "fr": "fra"
        },
        "audience": {
            "en": "gcaudience",
            "fr": "gcaudience"
        },
        "type": {
            "en": "organizational description",
            "fr": "description de l'organisation"
        },
        "creator": {
            "en": "Agriculture and Agri-Food Canada",
            "fr": "Agriculture et Agroalimentaire Canada"
        },
        "spatial": {
            "en": "gcregions",
            "fr": "gcregions"
        },
        "service": {
            "en": "AAFC_AgriSource",
            "fr": "AAC_AgriSource"
        },
        "accessRights": {
            "en": "3",
            "fr": "3"
        }
    },
    "body": {
        "en": "<section>\n\t\t\t  \n\n<div class=\"row\">\n  <div class=\"col-md-3 pull-right\">\n    <section class=\"panel panel-primary\">\n      <header class=\"panel-heading\">\n        <h2 class=\"panel-title\">Contact us</h2>\n      </header>\n      <div class=\"panel-body\">\n        <ul class=\"list-unstyled lst-spcd\">\n          <li><a href=\"http://directinfo.agr.gc.ca/directInfo/eng/index.php?fuseaction=agriInfo.orgUnit&amp;dn=OU=FRMSD-DSFGR,OU=CMB-DGGI,OU=AAFC-AAC,O=GC,C=CA\">Finance and Resource Management Services (DirectInfo)</a></li>\n        </ul>\n      </div>\n    </section>\n  </div>\n\t\n  <div class=\"col-md-9 pull-left\">\n\n    <div class=\"row\">\n      <section class=\"col-md-6\">\n        <h3 class=\"h5\"><a href=\"?id=1586279233740\">Finance and Resource Management Division</a></h3>\n        <p class=\"mrgn-tp-0\">Prepare internal and external financial reports, coordinate budgeting exercises, support the development of cabinet documents and provide costing expertise</p>\n      </section>\n      <section class=\"col-md-6\">\n        <h3 class=\"h5\"><a href=\"?id=1586279586583\">Financial Policy and Transaction Processing Division</a></h3>\n        <p class=\"mrgn-tp-0\">Financial, travel and delegation policy advice; accounts payable and other related  transactions</p>\n      </section>\n    </div>\n    \n    <div class=\"row\">\n      <section class=\"col-md-6\">\n        <h3 class=\"h5\"><a href=\"?id=1586280538917\">Financial Services, Systems and Receivables Division</a></h3>\n        <p class=\"mrgn-tp-0\">Financial community services, financial systems and digital transformation, accounts receivable and revenue management</p>\n      </section>\n      <section class=\"col-md-6\">\n        <h3 class=\"h5\"><a href=\"?id=1586280707752\">Financial Management Advisory Division</a></h3>\n        <p class=\"mrgn-tp-0\">Advisory services for branches</p>\n      </section>\n    </div>    \n    \n        <div class=\"row\">\n      <section class=\"col-md-6\">\n        <h3 class=\"h5\"><a href=\"?id=1586280876369\">Financial Controls, Reporting and Attestation Division</a></h3>\n        <p class=\"mrgn-tp-0\">Section 33 financial controls, corporate reporting, attestation</p>\n      </section>\n    </div>   \n\t  \n  </div>\n</div>\n\t\t</section>",
        "fr": "<section>\n\t\t\t  \n\n<div class=\"row\">\n  <div class=\"col-md-3 pull-right\">\n    <section class=\"panel panel-primary\">\n      <header class=\"panel-heading\">\n        <h2 class=\"panel-title\">Contactez-nous</h2>\n      </header>\n      <div class=\"panel-body\">\n        <ul class=\"list-unstyled lst-spcd\">\n          <li><a href=\"http://directinfo.agr.gc.ca/directInfo/fra/index.php?fuseaction=agriInfo.orgUnit&amp;dn=OU=FRMSD-DSFGR,OU=CMB-DGGI,OU=AAFC-AAC,O=GC,C=CA\">Direction des services des finances et de la gestion des ressources (DirectInfo)</a></li>\n        </ul>\n      </div>\n    </section>\n  </div>\n\t\n  <div class=\"col-md-9 pull-left\">\n    <div class=\"row\">\n      <section class=\"col-md-6\">\n        <h3 class=\"h5\"><a href=\"?id=1586279233740\">Division de la gestion des ressources financi\u00e8res</a></h3>\n        <p class=\"mrgn-tp-0\">Pr\u00e9parer des rapports financiers internes et externes, coordonner les exercices de budg\u00e9tisation, appuyer l\u2019\u00e9laboration de documents du Cabinet et fournir une expertise en mati\u00e8re d\u2019\u00e9tablissement des co\u00fbts</p>\n      </section>\n      <section class=\"col-md-6\">\n        <h3 class=\"h5\"><a href=\"?id=1586279586583\">Division de la politique financi\u00e8re et du traitement des comptes</a></h3>\n        <p class=\"mrgn-tp-0\">Conseils sur les politiques en mati\u00e8re de finances, de voyages et de d\u00e9l\u00e9gation; comptes cr\u00e9diteurs et autres transactions connexes</p>\n      </section>\n    </div>\n    \n    <div class=\"row\">\n      <section class=\"col-md-6\">\n        <h3 class=\"h5\"><a href=\"?id=1586280538917\">Division des services et syst\u00e8mes financiers et comptes recevables</a></h3>\n        <p class=\"mrgn-tp-0\">Services \u00e0 la communaut\u00e9 financi\u00e8re, Syst\u00e8mes financiers et transformation num\u00e9rique, et Comptes recevables et gestion des revenus</p>\n      </section>\n      <section class=\"col-md-6\">\n        <h3 class=\"h5\"><a href=\"?id=1586280707752\">Division des services consultatifs en gestion financi\u00e8re </a></h3>\n        <p class=\"mrgn-tp-0\">Services consultatifs pour les directions g\u00e9n\u00e9rales</p>\n      </section>\n    </div>    \n    \n        <div class=\"row\">\n      <section class=\"col-md-6\">\n        <h3 class=\"h5\"><a href=\"?id=1586280876369\">Division des contr\u00f4les financiers, des rapports et de l\u2019attestation</a></h3>\n        <p class=\"mrgn-tp-0\">Contr\u00f4les financiers \u2013 Article 33, Rapports minist\u00e9riels, et attestation</p>\n      </section>\n    </div>   \n\t  \n  </div>\n</div>\n\t\t</section>"
    }
}