{
    "has_dcr_id": true,
    "node_id": "1518009116754",
    "parent_node_id": "1279035911647",
    "dcr_id": "1405693627715",
    "landingPageUrl": {
        "en": "1405693627715",
        "fr": "1405693627715"
    },
    "parent_dcr_id": "1288015767856",
    "breadcrumb": {
        "en": "Conflict of Interest",
        "fr": "Conflits d'int\u00e9r\u00eats"
    },
    "node_title": {
        "en": "null",
        "fr": "null"
    },
    "title": {
        "en": "Conflict of Interest",
        "fr": "Conflits d'int\u00e9r\u00eats"
    },
    "type": "our_dept",
    "meta": {
        "issued": {
            "en": "2014-07-22",
            "fr": "2014-07-22"
        },
        "modified": {
            "en": "2020-08-20",
            "fr": "2020-08-20"
        },
        "format": {
            "en": "gcformat",
            "fr": "gcformat"
        },
        "title": {
            "en": "Conflict of Interest",
            "fr": "Conflits d'int\u00e9r\u00eats"
        },
        "subject": {
            "en": "communications;values and ethics",
            "fr": "communications;valeurs et \u00e9thique"
        },
        "description": {
            "en": "A conflict of interest is a situation in which: your private interests, arrangements or relationships could influence, potentially influence, or be perceived to influence your official duties, decision-making or recommendations; or you use your office for personal gain.",
            "fr": "Un conflit d'int\u00e9r\u00eats est une situation dans laquelle: vos int\u00e9r\u00eats, vos relations ou vos arrangements personnels pourraient avoir une influence r\u00e9elle ou apparente sur l'ex\u00e9cution de vos fonctions officielles, vos prises de d\u00e9cisions ou vos recommandations; vous utilisez votre bureau afin d'obtenir des gains personnels."
        },
        "language": {
            "en": "eng",
            "fr": "fra"
        },
        "keywords": {
            "en": "real, potential, apparent conflict of interest, Values and Ethics Code",
            "fr": "r\u00e9el, potentiel, apparent conflit d'int\u00e9r\u00eats, Code de valeurs et d'\u00e9thique"
        },
        "audience": {
            "en": "gcaudience",
            "fr": "gcaudience"
        },
        "type": {
            "en": "guide",
            "fr": "guide"
        },
        "creator": {
            "en": "Agriculture and Agri-Food Canada",
            "fr": "Agriculture et Agroalimentaire Canada"
        },
        "spatial": {
            "en": "gcregions",
            "fr": "gcregions"
        },
        "service": {
            "en": "AAFC_AgriSource",
            "fr": "AAC_AgriSource"
        },
        "accessRights": {
            "en": "3",
            "fr": "3"
        }
    },
    "body": {
        "en": "\n\t\t\t  \n\n<h2>What is a conflict of interest?</h2>\n\n<p>A conflict of interest is a situation in which:</p>\n\n<ul>\n <li>your private interests, arrangements or relationships could influence, potentially influence, or be perceived to influence your official duties, decision-making or recommendations; <b>or</b></li>\n <li>you use your office for personal gain.</li>\n</ul>\n\n<p>There are three types of conflict of interest:</p>\n\n<ul>\n <li>A <b>real</b> conflict of interest is one that exists at the present time.</li>\n <li>A <b>potential</b> conflict of interest is one that could reasonably be foreseen to exist in the future.</li>\n <li>An <b>apparent</b> conflict of interest is one that could be perceived by a reasonable observer to exist, whether or not it is the case.</li>\n</ul>\n\n<h2>Your responsibilities as a public servant</h2>\n\n<p>You are responsible to ensure that you are in compliance with the <a href=\"https://intranet.agr.gc.ca/resources/prod/pdf/ccb_dgcc/hrb_wrd_ve_aafc_values_and_ethics_code-eng.pdf\">Values and Ethics Code for Agriculture and Agri-Food Canada (PDF)</a>. This includes:</p>\n\n<ul>\n <li>understanding what conflict of interest is;</li>\n <li>making conflict of interest disclosures where appropriate; and</li>\n <li>in conjunction with your management, ensuring that appropriate steps are taken to avoid or end conflict.</li>\n</ul>\n\n<p>Ultimately, adherence to the Values and Ethics Code for Agriculture and Agri-Food Canada (AAFC) is among the conditions of employment at AAFC, even  while on Leave Without Pay (LWOP). Breaches of the Values and Ethics Code for AAFC may be dealt with through disciplinary action, up to and including termination of employment.</p> \n\n<h2 id=\"coi\">How to identify a conflict of interest</h2>\n\n<p>Conflict of interest may be intentional or not. It could include the possibility of conflict between the duties of your job and:</p>\n\n<ul>\n <li>your assets and liabilities (example: owning a farm)</li>\n <li>your outside employment and activities (example: membership on a <a href=\"display-afficher.do?id=1405954579547&amp;lang=eng\">Board of Directors</a>)</li>\n <li>receipt of gifts, hospitality, and other benefits (example: receiving a gift from an AAFC supplier)</li>\n <li>dealing officially with a relative or friend</li>\n</ul> \n\n<p>Outside employment/activities that <b>must</b> be disclosed:</p>\n\n<ul>\n <li>if you have received, directly or indirectly, any benefit or income from contracts with the Government of Canada, including grants or contributions; and</li> \n <li>carrying out farming activities as a hobby or for commercial farming purposes, including activities of the public servant or his or her immediate family members (including immediate family of the public servant's spouse)</li>\n <li>receiving benefits under any grant, contribution, income assistance program, or any other program administered by AAFC, whether as an individual or as part of an organization that applies for or receives benefits.</li>\n</ul> \n\n<p>Prohibited outside employment/activities:</p>\n\n<ul>\n <li>At no time should an employee assist the public on a fee-for-service basis in completing application forms for funding from a program administered by AAFC.</li>\n</ul>\n\n<h2>How to report a conflict of interest</h2>\n\n<p>You should complete a <a href=\"https://forms-formulaires.agr.gc.ca/pdf/A6122-E.pdf\">Conflict of Interest Disclosure Form (PDF)</a> if there is a real, apparent or potential conflict of interest situation or if you need to declare assets, liabilities, or outside activities and employment situations.</p> \n\n<ol>\n <li>Enter your information into all relevant fields on the <a href=\"https://forms-formulaires.agr.gc.ca/pdf/A6122-E.pdf\">Conflict of Interest Disclosure Form (PDF)</a>.</li> \n <li>Complete the form online and submit electronically.  If you do not have access to email, you can print or scan it and mail it to:</li> \n</ol>\n\n<p>Values and Ethics Policy Centre<br>\n1341 Baseline Road<br>\nTower 5, 2<sup>nd</sup> Floor, Room 142<br>\nOttawa, Ontario K1A 0C5 or by email to <a href=\"mailto:aafc.valuesandethics-valeursetethique.aac@canada.ca\">aafc.valuesandethics-valeursetethique.aac@canada.ca</a>.</p>\n\n\n<p><b>Note:</b> Information submitted as part of or further to a conflict of interest disclosure is kept confidential and shared only as needed to complete a conflict of interest assessment or when required by law or policy.</p> \n\n<p>If you are planning to leave the department and/or the public service see <a href=\"display-afficher.do?id=1405953294910&amp;lang=eng\">Post-Employment Measures</a>. All AAFC employees are responsible to minimize the possibility of a conflict of interest between their most recent responsibilities as a public servant and their subsequent employment outside the public service.</p>\n\n<h2>What happens after you submit a Conflict of Interest Disclosure Form?</h2>\n\n<p>Each disclosure is reviewed by a Senior AAFC Values and Ethics Officer. If any additional information is needed related to the situation the Officer may contact the employee and/or their management. The official response to the disclosure will be made by the Assistant Deputy Minister, Corporate Management Branch as Delegated Authority in the form of a letter to the employee.</p> \n\n<h2>Additional information</h2> \n\n<p>For more information about conflict of interest see <a href=\"display-afficher.do?id=1405693710539&amp;lang=eng\">Questions and Answers: Conflicts of Interest</a>.</p>\n\n<h2>Contact us</h2>\n\n<p>For advice and guidance, contact the Values and Ethics Policy Centre by email at <a href=\"mailto:aafc.valuesandethics-valeursetethique.aac@canada.ca\">aafc.valuesandethics-valeursetethique.aac@canada.ca</a> or by phone at 1-866-894-5464 (toll-free).</p>\n\t\t",
        "fr": "\n\t\t\t  \n\n<h2>Qu'est-ce qu'un conflit d'int\u00e9r\u00eats?</h2>\n\n<p>Un conflit d'int\u00e9r\u00eats est une situation dans laquelle\u00a0: </p>\n\n<ul>\n <li>vos int\u00e9r\u00eats, vos relations ou vos arrangements personnels pourraient avoir une influence r\u00e9elle ou apparente sur l'ex\u00e9cution de vos fonctions officielles, vos prises de d\u00e9cisions ou vos recommandations;</li> \n <li>vous utilisez votre bureau afin d'obtenir des gains personnels.</li> \n</ul>\n\n<p>Il y a trois types de conflits d'int\u00e9r\u00eats\u00a0: </p>\n\n<ul>\n <li>Un conflit d'int\u00e9r\u00eats <b>r\u00e9el</b> existe s'il survient au moment pr\u00e9sent;</li> \n <li>Un conflit d'int\u00e9r\u00eats <b>potentiel</b> est une situation qu'il est possible de pr\u00e9voir et qui constituerait un conflit d'int\u00e9r\u00eats;</li> \n <li>Un conflit d'int\u00e9r\u00eats <b>apparent</b> est une situation qui pourrait \u00eatre per\u00e7ue comme telle par une personne raisonnable, que ce soit ou non le cas.</li>\n</ul> \n\n<h2>Vos responsabilit\u00e9s en tant que fonctionnaire</h2>\n\n<p>Vous devez vous assurer d'agir en conformit\u00e9 avec le <a href=\"https://intranet.agr.gc.ca/resources/prod/pdf/ccb_dgcc/hrb_wrd_ve_aafc_values_and_ethics_code-fra.pdf\">Code de valeurs et d'\u00e9thique d'Agriculture et Agroalimentaire Canada (PDF)</a>. Cela inclut\u00a0:</p> \n\n<ul>\n <li>comprendre ce qu'est un conflit d'int\u00e9r\u00eats;</li> \n <li>divulguer des conflits d'int\u00e9r\u00eats, si n\u00e9cessaire;</li> \n <li>avec votre gestionnaire, vous assurer que les \u00e9tapes n\u00e9cessaires sont suivies pour \u00e9viter le conflit ou y mettre fin.</li>\n</ul>\n \n<p>Enfin, le respect au Code de valeurs et d'\u00e9thique d'Agriculture et Agroalimentaire Canada (AAC) fait partie des conditions d'emploi de tous les employ\u00e9s d'AAC, m\u00eame si vous \u00eates en cong\u00e9 sans solde (CSS). Toute infraction au Code peut entra\u00eener des mesures disciplinaires et aller jusqu'au renvoi.</p> \n\n<h2 id=\"cdi\">Comment reconna\u00eetre un conflit d'int\u00e9r\u00eats</h2>\n \n<p>Un conflit d'int\u00e9r\u00eats peut \u00eatre intentionnel ou non. Il peut s'agir d'un conflit entre l'ex\u00e9cution de vos fonctions officielles et\u00a0:</p> \n\n<ul>\n <li>vos biens et vos passifs (exemple\u00a0: poss\u00e9der une ferme);</li> \n <li>vos emplois et activit\u00e9s \u00e0 l'ext\u00e9rieur de la fonction publique (exemple\u00a0: \u00eatre membre d'un  <a href=\"display-afficher.do?id=1405954579547&amp;lang=fra\">Conseils d'administration</a>);</li> \n <li>les cadeaux, les marques d'hospitalit\u00e9s et autres avantages que vous pourriez recevoir (exemple\u00a0: recevoir un cadeau d'un fournisseur d'AAC);</li> \n <li>vos relations de nature officielle avec un membre de votre parent\u00e9 ou un ami.</li> \n</ul>\n\n<p>Vous <b>devez</b> divulguer vos emplois ou vos activit\u00e9s \u00e0 l'ext\u00e9rieur de la fonction publique\u00a0:</p> \n\n<ul>\n <li>si vous avez obtenu, directement ou indirectement, un avantage ou un revenu d\u00e9coulant de contrats avec le gouvernement du Canada, y compris des subventions ou des contributions;</li> \n <li>si vous faites l'exercice de l'agriculture \u00e0 titre de loisir ou \u00e0 des fins commerciales, y compris l'activit\u00e9 exerc\u00e9e par vous-m\u00eame, des membres de votre famille imm\u00e9diate ou des membres de la famille imm\u00e9diate de votre conjoint ou de votre conjointe;</li> \n <li>si vous recevez des avantages dans le cadre d'une subvention, d'une contribution, d'un programme d'aide au revenu ou de tout autre programme administr\u00e9 par AAC, pour votre compte ou au titre de votre participation \u00e0 une organisation qui demande ou re\u00e7oit des avantages.</li>\n</ul> \n\n<p>Emplois ou activit\u00e9s \u00e0 l'ext\u00e9rieur de la fonction publique qui sont interdits\u00a0:</p> \n\n<ul>\n <li>Un employ\u00e9 ne doit jamais aider un membre du public, sur le principe de la r\u00e9mun\u00e9ration des services, \u00e0 remplir des formulaires de demande de financement pour un programme administr\u00e9 par AAC.</li>\n</ul> \n\n<h2>Comment signaler un conflit d'int\u00e9r\u00eats</h2>\n\n<p>S'il existe une situation de conflit d'int\u00e9r\u00eats r\u00e9el, apparent ou potentiel, ou si vous devez d\u00e9clarer des biens, des passifs ou des activit\u00e9s ou des emplois \u00e0 l'ext\u00e9rieur de la fonction publique, vous devez remplir un <a href=\"https://forms-formulaires.agr.gc.ca/pdf/A6122-F.pdf\">formulaire de divulgation de conflits d'int\u00e9r\u00eats (PDF)</a>.</p> \n\n<ol>\n <li>Entrez les renseignements dans tous les champs pertinents du  <a href=\"https://forms-formulaires.agr.gc.ca/pdf/A6122-F.pdf\">formulaire de divulgation de conflits d'int\u00e9r\u00eats (PDF)</a>.</li> \n <li>Remplissez le formulaire en ligne et envoyez-le par voie \u00e9lectronique. Si vous n'avez pas acc\u00e8s \u00e0 un compte de courriel, vous pouvez l'imprimer ou le num\u00e9riser et l'envoyer par courrier \u00e0 l'adresse suivante\u00a0:</li>\n</ol>\n \n<p>Centre de la politique sur les valeurs et l'\u00e9thique <br>\n1341, chemin Baseline<br> \nTour 5, 2<sup>e</sup> \u00e9tage, pi\u00e8ce 142<br> \nOttawa (Ontario) K1A 0C5 ou par courriel \u00e0 <a href=\"mailto:aafc.valuesandethics-valeursetethique.aac@canada.ca\">aafc.valuesandethics-valeursetethique.aac@canada.ca</a>.</p> \n\n<p><b>Remarque\u00a0:</b> Les renseignements soumis dans le cadre d'une divulgation de conflit d'int\u00e9r\u00eats sont gard\u00e9s confidentiels et ne peuvent \u00eatre utilis\u00e9s que pour remplir une \u00e9valuation de conflit d'int\u00e9r\u00eats ou s'ils sont exig\u00e9s en vertu d'une loi ou d'une politique.</p> \n\n<p>Si vous pr\u00e9voyez quitter le Minist\u00e8re ou la fonction publique, consultez  <a href=\"display-afficher.do?id=1405953294910&amp;lang=fra\">Mesures concernant l'apr\u00e8s-mandat</a>. Tous les employ\u00e9s d'AAC ont la responsabilit\u00e9 de r\u00e9duire les risques de se retrouver dans une situation de conflit d'int\u00e9r\u00eats quant \u00e0 leurs derni\u00e8res responsabilit\u00e9s \u00e0 titre de fonctionnaire et \u00e0 l'emploi qu'ils pr\u00e9voient occuper \u00e0 l'ext\u00e9rieur de la fonction publique.</p> \n\n<h2>Qu'arrive-t-il lorsqu'on soumet un formulaire de divulgation de conflit d'int\u00e9r\u00eats ?</h2>\n \n<p>Chaque divulgation est examin\u00e9e par l'agent principal des valeurs et de l'\u00e9thique. L'agent communiquera avec l'employ\u00e9, ou avec son gestionnaire, s'il a besoin de renseignements suppl\u00e9mentaires. Le sous-ministre adjoint de la Direction g\u00e9n\u00e9rale de la gestion int\u00e9gr\u00e9e, \u00e0 titre de d\u00e9tenteur du pouvoir d\u00e9l\u00e9gu\u00e9, interviendra officiellement relativement \u00e0 la divulgation par le biais d'une lettre envoy\u00e9e \u00e0 l'employ\u00e9.</p> \n\n<h2>Renseignements suppl\u00e9mentaires </h2>\n\n<p>Pour des renseignements suppl\u00e9mentaires sur les conflits d'int\u00e9r\u00eats, consultez <a href=\"display-afficher.do?id=1405693710539&amp;lang=fra\">Questions et r\u00e9ponses\u00a0: les conflits d'int\u00e9r\u00eats</a>.</p>\n \n<h2>Communiquez avec nous</h2>\n \n<p>Pour obtenir des conseils ou des directives, communiquez avec le Centre de la politique sur les valeurs et l'\u00e9thique par courriel \u00e0 <a href=\"mailto:aafc.valuesandethics-valeursetethique.aac@canada.ca\">aafc.valuesandethics-valeursetethique.aac@canada.ca</a> ou au num\u00e9ro sans frais suivant\u00a0: 1-866-894-5464.</p> \n\t\t"
    }
}