{
    "has_dcr_id": true,
    "parent_node_id": "1279565444868",
    "node_id": "1522243010679",
    "dcr_id": "1522094988320",
    "landingPageUrl": {
        "en": "1522094988320",
        "fr": "1522094988320"
    },
    "parent_page": {
        "en": "",
        "fr": ""
    },
    "title": {
        "en": "null",
        "fr": "null"
    },
    "breadcrumb": {
        "en": "Find People and Collaborate",
        "fr": "Trouver une personne et collaborer"
    },
    "temptype": "news",
    "meta": {
        "issued": {
            "en": "2018-03-28",
            "fr": "2018-03-28"
        },
        "modified": {
            "en": "2018-03-29",
            "fr": "2018-03-29"
        },
        "format": {
            "en": "gcformat",
            "fr": "gcformat"
        },
        "title": {
            "en": "Find People and Collaborate",
            "fr": "Trouver une personne et collaborer"
        },
        "language": {
            "en": "eng",
            "fr": "fra"
        },
        "audience": {
            "en": "gcaudience",
            "fr": "gcaudience"
        },
        "creator": {
            "en": "Agriculture and Agri-Food Canada",
            "fr": "Agriculture et Agroalimentaire Canada"
        },
        "spatial": {
            "en": "gcregions",
            "fr": "gcregions"
        },
        "service": {
            "en": "AAFC_AgriSource",
            "fr": "AAC_AgriSource"
        },
        "accessRights": {
            "en": "3",
            "fr": "3"
        }
    },
    "body": {
        "en": "<section>\n\t\t\t  \n<div class=\"row\">\n  <div class=\"col-md-3 pull-right\">\n\n    <div class=\"row\">\n  <div class=\"col-md-12 mrgn-rght-0\">\n       <figure>\n       <img src=\"https://intranet.agr.gc.ca/resources/prod/images/AAFCAAC-103057448-v1-feedback-3.jpg\" alt=\"\" class=\"img-responsive\">\n       </figure>\n  </div>\n  </div>\n\n<section>\n<h3>Find a colleague</h3>\n<form class=\"form-inline\" name=\"qsForm\" action=\"http://directinfo.agr.gc.ca/directInfo/eng/index.php\" target=\"_self\" method=\"get\">\n<input type=\"hidden\" name=\"qsType\" value=\"qsEmp\">\n<input type=\"text\" name=\"qsBox\" value=\"\" class=\"form-control\" placeholder=\"Search Directinfo\">\n<input type=\"hidden\" name=\"fuseaction\" value=\"agriInfo.qSearchResults\">\n<button type=\"submit\" name=\"qsBtn\" class=\"btn btn-primary btn-small\"><span class=\"glyphicon glyphicon-search\"></span><span class=\"wb-inv\">Search</span></button>\n</form>\n<!--<a href=\"http://geds20-sage20.ssc-spc.gc.ca/en/GEDS20/?pgid=002\">Search Government Electronic Directory Services (GEDS)</a>-->\n</section>\n</div>\n  \n<div class=\"mrgn-lft-0 mrgn-rght-0 col-md-9\">\n    <p>Find contact information for AAFC and Government of Canada employee\u2019s and engage in a connected and cooperative work place.</p>\n\n\n<h2>Services and information</h2>\n\n<div class=\"row\">\n\n<section class=\"col-md-6\">\n<h3 class=\"h5\"><a href=\"http://directinfo.agr.gc.ca/directInfo/eng/index.php?fuseaction=agriInfo.main&amp;&amp;dn=\">DirectInfo</a></h3>\n<p>Contact information for employees of the Agriculture portfolio: names, phone numbers, e-mail addresses, location information, title, and occupational and subject expertise information.</p>\n</section>\n\n<section class=\"col-md-6\">\n<h3 class=\"h5\"><a href=\"http://geds20-sage20.ssc-spc.gc.ca/en/GEDS20/?pgid=002\">GCdirectory (GEDS)</a></h3>\n<p>Identifying federal public service employees in the workplace.</p>\n</section>\n\n</div>\n\n<div class=\"row\">\n<section class=\"col-md-6\">\n<h3 class=\"h5\"><a href=\"?id=1393612540378\">Knowledge  Workspace</a></h3>\n<p>AAFC tool that integrates a collaboration functionality, document repository, instant messaging, and search feature in a web-based environment.</p>\n</section>\n\n<section class=\"col-md-6\">\n<h3 class=\"h5\"><a href=\"https://gcconnex.gc.ca/login\">GCconnex</a></h3>\n<p>Connecting people and ideas across the federal public service.</p> \n</section>\n\n</div>\n\n<div class=\"row\">\n\n<section class=\"col-md-6\">\n<h3 class=\"h5\"><a href=\"http://www.gcpedia.gc.ca/wiki/?setlang=en\">GCpedia</a></h3>\n<p>Information at your fingertips on the wiki for federal public servants.</p>\n</section>\n\n\n<section class=\"col-md-6\">\n<h3 class=\"h5\"><a href=\"https://gccollab.ca/login\">GCcollab</a></h3>\n<p>A collaborative and networking space open to all Canadian public servants (federal, provincial, territorial and municipal), academics and students, as well as to all Canadians by invitation.</p>  \n</section>\n\n</div>\n</div></div></section>",
        "fr": "<section>\n\t\t\t  \n<div class=\"row\">\n  <div class=\"col-md-3 pull-right\">\n\n    <div class=\"row\">\n  <div class=\"col-md-12 mrgn-rght-0\">\n       <figure>\n       <img src=\"https://intranet.agr.gc.ca/resources/prod/images/AAFCAAC-103057448-v1-feedback-3.jpg\" alt=\"\" class=\"img-responsive\">\n       </figure>\n  </div>\n  </div>\n\n<section>\n<h3>Trouver un coll\u00e8gue</h3>\n<form class=\"form-inline\" name=\"qsForm\" action=\"http://directinfo.agr.gc.ca/directInfo/fra/index.php\" target=\"_self\" method=\"get\">\n<input type=\"hidden\" name=\"qsType\" value=\"qsEmp\">\n<input type=\"text\" name=\"qsBox\" value=\"\" class=\"form-control\" placeholder=\"Recherche Directinfo\">\n<input type=\"hidden\" name=\"fuseaction\" value=\"agriInfo.qSearchResults\">\n<button type=\"submit\" name=\"qsBtn\" class=\"btn btn-primary btn-small\"><span class=\"glyphicon-search glyphicon\"></span><span class=\"wb-inv\">Rechercher</span></button>\n</form>\n<!--<a href=\"http://geds20-sage20.ssc-spc.gc.ca/en/GEDS20/?pgid=002\">Search Government Electronic Directory Services (GEDS)</a>-->\n</section>\n</div>\n  \n<div class=\"mrgn-lft-0 mrgn-rght-0 col-md-9\">\n    <p>Trouver les coordonn\u00e9es des employ\u00e9s d\u2019AAC et du gouvernement du Canada et faites partie d\u2019un milieu de travail branch\u00e9 qui mise sur la collaboration.</p>\n\n\n<h2>Services et renseignements</h2>\n\n<div class=\"row\">\n\n<section class=\"col-md-6\">\n<h3 class=\"h5\"><a href=\"http://directinfo.agr.gc.ca/directInfo/fra/index.php?fuseaction=agriInfo.main&amp;&amp;dn=\">DirectInfo</a></h3>\n<p>Coordonn\u00e9es des employ\u00e9s du portefeuille de l\u2019Agriculture : nom, num\u00e9ro de t\u00e9l\u00e9phone, adresse courriel, renseignements sur le lieu de travail, titre et information sur la profession et sur l\u2019expertise de l\u2019employ\u00e9.</p>\n</section>\n\n<section class=\"col-md-6\">\n<h3 class=\"h5\"><a href=\"http://geds20-sage20.ssc-spc.gc.ca/fr/GCA/?pgid=002\">GCannuaire (SAGE)</a></h3>\n<p>R\u00e9pertoire des fonctionnaires f\u00e9d\u00e9raux dans leur milieu de travail.</p>\n</section>\n</div>\n\n<div class=\"row\">\n\n<section class=\"col-md-6\">\n<h3 class=\"h5\"><a href=\"?id=1393612540378\">Espace de travail du savoir</a></h3>\n<p>Outil d\u2019AAC qui comprend une fonction de collaboration, un d\u00e9p\u00f4t de documents, une messagerie instantan\u00e9e et une fonction de recherche dans un milieu Web.</p>\n</section>\n\n<section class=\"col-md-6\">\n<h3 class=\"h5\"><a href=\"https://gcconnex.gc.ca/login\">GCconnex</a></h3>\n<p>Connecter les gens et les id\u00e9es \u00e0 l\u2019\u00e9chelle de la fonction publique f\u00e9d\u00e9rale.</p> \n</section>\n</div>\n\n<div class=\"row\">\n\n\n<section class=\"col-md-6\">\n<h3 class=\"h5\"><a href=\"http://www.gcpedia.gc.ca/wiki/?setlang=fr&amp;uselang=fr\">GCp\u00e9dia</a></h3>\n<p>L\u2019information au bout des doigts sur le wiki des fonctionnaires f\u00e9d\u00e9raux.</p>\n</section>\n\n\n<section class=\"col-md-6\">\n<h3 class=\"h5\"><a href=\"https://account.gccollab.ca/login/\">GCcollab</a></h3>\n<p>Un espace de collaboration et de r\u00e9seautage ouvert \u00e0 tous les fonctionnaires canadiens (f\u00e9d\u00e9raux, provinciaux, territoriaux et municipaux), aux universitaires et aux \u00e9tudiants ainsi qu\u2019\u00e0 tous les Canadiens sur invitation.</p>  \n</section>\n\n</div>\n</div></div></section>"
    }
}