{
    "has_dcr_id": false,
    "node_id": "1522247481364",
    "parent_node_id": "1522242982779",
    "dcr_id": "https://collab.agr.gc.ca/apps/harvest-moisson",
    "landingPageUrl": {
        "en": "https://collab.agr.gc.ca/apps/harvest-moisson",
        "fr": "https://collab.agr.gc.ca/apps/harvest-moisson"
    },
    "title": {
        "en": "null",
        "fr": "null"
    },
    "breadcrumb": {
        "en": "The Harvest",
        "fr": "La Moisson"
    },
    "type": "news"
}