{
    "has_dcr_id": true,
    "node_id": "1582807643322",
    "parent_node_id": "1279035654038",
    "dcr_id": "1562619427351",
    "landingPageUrl": {
        "en": "1562619427351",
        "fr": "1562619427351"
    },
    "parent_dcr_id": "1287674550306",
    "breadcrumb": {
        "en": "Resources, guides and tools",
        "fr": "Ressources, guides et outils"
    },
    "node_title": {
        "en": "null",
        "fr": "null"
    },
    "title": {
        "en": "Resources, guides and tools",
        "fr": "Ressources, guides et outils"
    },
    "type": "hr",
    "meta": {
        "issued": {
            "en": "2019-07-25",
            "fr": "2019-07-25"
        },
        "modified": {
            "en": "2020-10-05",
            "fr": "2020-10-05"
        },
        "format": {
            "en": "gcformat",
            "fr": "gcformat"
        },
        "title": {
            "en": "Resources, guides and tools",
            "fr": "Ressources, guides et outils"
        },
        "language": {
            "en": "eng",
            "fr": "fra"
        },
        "audience": {
            "en": "gcaudience",
            "fr": "gcaudience"
        },
        "creator": {
            "en": "Agriculture and Agri-Food Canada",
            "fr": "Agriculture et Agroalimentaire Canada"
        },
        "spatial": {
            "en": "gcregions",
            "fr": "gcregions"
        },
        "service": {
            "en": "AAFC_AgriSource",
            "fr": "AAC_AgriSource"
        },
        "accessRights": {
            "en": "3",
            "fr": "3"
        }
    },
    "body": {
        "en": "<section>\n\t\t\t  \n\n<div class=\"row\">\n <div class=\"col-md-3 pull-right\">\n <section class=\"panel panel-primary\">\n <header class=\"panel-heading\">\n <h2 class=\"panel-title\">Most requested</h2>\n </header>\n <div class=\"panel-body\">\n <ul class=\"list-unstyled lst-spcd\">\n <li><a href=\"https://portal-portail.tbs-sct.gc.ca/home-eng.aspx\">Treasury Board Application Portal\u2014PSPM</a></li>\n <li><a href=\"http://intranet.canada.ca/hr-rh/ptm-grt/pm-gr/pspmgex-ggrfpcs-eng.asp\">PSPM user guide for executives and managers/supervisors</a> (GCintranet)</li>\n <li><a href=\"http://intranet.canada.ca/hr-rh/ptm-grt/pm-gr/pspmge-ggrfpe-eng.asp\">PSPM user guide for employees</a> (GCintranet)</li>\n <li><a href=\"display-afficher.do?id=1306503292350&amp;lang=eng\">Learning and development</a></li>\n </ul>\n </div>\n </section>\n </div>\n\n <div class=\"col-md-9 pull-left\">\n\n<p>Resources, guides and tools to help guide managers and employees through the performance management cycle from establishing work objectives in the PSPM application to, having difficult conversations.</p>\n\t\n<h2>Completing the performance management cycle</h2>\n\n<h3>Ongoing feedback throughout the cycle</h3>\n\t\n<ul>\n<li><a href=\"?id=1582733793877\">AAFC Talent Development Framework</a></li>\n <li><a href=\"https://intranet.agr.gc.ca/resources/prod/ppt/hrb_dgrh/hr_egs_epmp_manager_guide_informal_feedback_clc-eng.pptx\">Support employee performance through informal feedback (PowerPoint)</a></li>\n <li><a href=\"http://intranet.canada.ca/hr-rh/ptm-grt/pm-gr/pmc-dgr/support-soutien-eng.asp\">Supporting employees in meeting performance expectations</a> (GCintranet)</li>\n <li><a href=\"http://intranet.canada.ca/hr-rh/ptm-grt/pm-gr/pmc-dgr/convo-eng.asp\">Conversations on progress: Tips for productive discussions</a> (GCintranet)</li>\n<li><a href=\"https://intranet.agr.gc.ca/resources/prod/doc/hrb_dgrh/performance_discussion-eng.docx\">Performance discussion tool (Word)</a></li>\n</ul>\n\n\n<h3>Beginning of year</h3>\n\t\n<ul>\n <li><a href=\"https://intranet.agr.gc.ca/resources/prod/pdf/hrb_dgrh/hr_lltm_ptm_quick_reference_guide_for_pspm_app_account_setup_assessment-eng.pdf\">Registering in the PSPM application and setting up an account (PDF)</a></li>\n <li><a href=\"display-afficher.do?id=1341858121401&amp;lang=eng\">Requesting a myKEY</a></li>\n <li><a href=\"https://intranet.agr.gc.ca/resources/prod/pdf/hrb_dgrh/hr_lltm_ptm_employee_pm_guide_to_establishing_performance_agreement-eng.pdf\">Manager's guide to establishing a performance agreement (PDF)</a></li>\n <li><a href=\"https://intranet.agr.gc.ca/resources/prod/doc/hrb_dgrh/hr_lltm_ptm_employee_pm_performance_agreement_instructions-eng.docx\">Instructions for completing the Public Service performance agreement (Word)</a></li>\n</ul>\n\n<p>See <a href=\"#perform-agree\">the performance agreement</a> for detailed resources related to each section of the performance agreement.</p>\n</div>\n</div>\n\n<h3>Mid-year review</h3>\n\n<ul>\n <li><a href=\"https://intranet.agr.gc.ca/resources/prod/pdf/hrb_dgrh/hr_lltm_ptm_employee_pm_quick_reference_guide_for_mid_year_review_pspm_app-eng.pdf\">Quick reference guide for the mid-year review in the PSPM application (PDF)</a></li>\n <li>Tips for managers: <a href=\"http://intranet.canada.ca/hr-rh/ptm-grt/pm-gr/pmc-dgr/prep-convo-eng.asp\">Preparing for conversations on progress</a> (GCintranet)</li>\n <li><a href=\"http://intranet.canada.ca/hr-rh/ptm-grt/pm-gr/pmc-dgr/esep-aepe-eng.asp\">Employee self-examination on progress</a> (GCintranet)</li>\n <li><a href=\"http://intranet.canada.ca/cdl-dca/ptm-grt/pm-gr/mr-me-eng.asp\">Mid-year review video (Treasury Board Secretariat, duration: 15 minutes)</a> </li>\n</ul>\n\n<h3>Year-end assessment</h3>\n\t\n<ul class=\"list-unstyled\">\n<li><a href=\"https://intranet.agr.gc.ca/resources/prod/pdf/hrb_dgrh/hr_lltm_ptm_employee_pm_quick_reference_guide_for_year_end_assessment_pspm_app-eng.pdf\">Quick reference guide: Year-end assessment in the PSPM application (PDF)</a></li>\n<li><a href=\"https://intranet.agr.gc.ca/resources/prod/pdf/hrb_dgrh/hr_lltm_ptm_employee_pm_guide_to_year-end_performance_assessment-eng.pdf\">Guide to year-end performance assessments (PDF)</a></li>\n<li><a href=\"http://intranet.canada.ca/cdl-dca/ptm-grt/pm-gr/pmc-dgr/ratings-attribution-eng.asp\">Performance ratings</a> (GCintranet)</li>\n<li>Tips for managers: <a href=\"http://intranet.canada.ca/cdl-dca/ptm-grt/pm-gr/pmc-dgr/asses-eval-eng.asp\">Assessing performance and determining employee ratings</a> (GCintranet)</li>\n<li>Tips for employees: <a href=\"http://intranet.canada.ca/cdl-dca/ptm-grt/pm-gr/pmc-dgr/se-ae-eng.asp\">Completing a self-assessment</a> (GCintranet)</li>\n<li><a href=\"https://intranet.agr.gc.ca/resources/prod/pdf/hrb_dgrh/year_end_manager_checklist-eng.pdf\">Year-End Manager Checklist (PDF)</a></li>\n<li><a href=\"https://intranet.agr.gc.ca/resources/prod/pdf/hrb_dgrh/year_end_employee_checklist-eng.pdf\">Year-End Employee Checklist (PDF)</a></li>\n<li><a href=\"http://intranet.canada.ca/cdl-dca/ptm-grt/pm-gr/yr-fe-eng.asp\">Year-End Review Video (GCintranet; duration, 13 minutes)</a></li>\n</ul>\n\n<h2 id=\"perform-agree\">The performance agreement</h2>\n\n<h3>Section\u00a0B: Work objectives</h3>\n\n<ul class=\"list-unstyled\">\n<li><a href=\"https://intranet.agr.gc.ca/resources/prod/ppt/hrb_dgrh/hr_lltm_ptm_employee_pm_deck_mldp-eng.pptx\">Refresher session on rating scales and beginning of assessment (PowerPoint)</a></li>\n<li><a href=\"http://intranet.canada.ca/cdl-dca/ptm-grt/pm-gr/pmc-dgr/smart-eng.asp\">SMART objectives and performance indicators</a> (GCintranet)</li>\n<li><a href=\"http://intranet.canada.ca/cdl-dca/ptm-grt/pm-gr/pmc-dgr/org-priorites-eng.asp\">Organizational priorities</a> (GCintranet)</li>\n<li><a href=\"display-afficher.do?id=1287433335737&amp;lang=eng\">Departmental priorities</a></li>\n<li><a href=\"http://www.agr.gc.ca/eng/about-us/planning-and-reporting/departmental-plans/?id=1174061891718\">Departmental plans</a></li>\n<li><a href=\"https://multimedia.agr.gc.ca/pack/pdf/2020-21_commitments2-eng.pdf\">2020-21 Corporate Commitments for Executives (PDF)</a></li>\n</ul>\n\n<h3>Section\u00a0C: Core competencies</h3>\n\t\n<ul class=\"list-unstyled\">\n<li><a href=\"http://intranet.canada.ca/cdl-dca/ptm-grt/pm-gr/pmc-dgr/comp-eng.asp\">Core competencies</a> and <a href=\"http://intranet.canada.ca/cdl-dca/ptm-grt/pm-gr/pmc-dgr/bi-ic-eng.asp\">behavioural indicators</a> (GCintranet)</li>\n<li><a href=\"http://agrisource1.agr.gc.ca/apps/cirg-gepr/index.cfm?event=showGroupSelectPage&amp;CFID=126745&amp;CFTOKEN=25051318&amp;lang=eng&amp;menupos=1.14\">Competency Profiles</a> </li>\n<li><a href=\"http://agrisource1.agr.gc.ca/apps/cirg-gepr/index.cfm?event=showSAOccupationSelectPage&amp;CFID=126745&amp;CFTOKEN=25051318&amp;lang=eng&amp;menupos=1.13\">Competency Self-Assessment</a> </li>\n<li><a href=\"https://intranet.agr.gc.ca/resources/prod/pdf/hrb_dgrh/aafc_aac_compet_diction-eng.pdf\">Competency Dictionary (PDF)</a></li>\n</ul>\n\n<h3>Section\u00a0D: Learning and development plan</h3>\n\t\n<ul class=\"list-unstyled\">\n<li>AAFC <a href=\"display-afficher.do?id=1306503292350&amp;lang=eng\">Learning and Development</a> </li>\n<li><a href=\"display-afficher.do?id=1287603193878&amp;lang=eng\">Learning and development plan guide for employees</a>\n<ul>\n<li>AAFC mandatory and recommended <a href=\"display-afficher.do?id=1524583364620&amp;lang=eng\">training</a></li>\n\t\n <li><a href=\"https://intranet.agr.gc.ca/resources/prod/doc/hrb_dgrh/learning_development_plan-eng.docx\">Getting the Most Out of Your Learning and Development Plan (Word)</a></li>\n <li><a href=\"https://idp.csps-efpc.gc.ca/idp/Authn/UserPassword\">Canada School of Public Service</a></li>\n</ul>\n</li>\n</ul>\n\n<h3>Section\u00a0F: Action plan</h3>\n\t\n<ul class=\"list-unstyled\">\n<li><a href=\"https://intranet.agr.gc.ca/resources/prod/pdf/hrb_dgrh/hr_lltm_ptm_employee_pm_action_plan_guide-eng.pdf\">Action Plan Guide (PDF)</a></li>\n<li><a href=\"http://intranet.canada.ca/cdl-dca/ptm-grt/pm-gr/pmc-dgr/ap-pa-eng.asp\">Action plans</a> (GCintranet)</li>\n<li><a href=\"https://intranet.agr.gc.ca/resources/prod/doc/hrb_dgrh/hr_lltm_ptm_employee_pm_instructions_for_completing_an_action_plan-eng.docx\">Instructions for completing an action plan (Word)</a></li>\n</ul>\n\n<p><b>Note:</b> Action plans are mandatory for employees who received a rating of Did Not Meet.</p>\n\n<h3>Section\u00a0G: Talent management plan</h3>\n\t\n<ul class=\"list-unstyled\">\n<li><a href=\"https://intranet.agr.gc.ca/resources/prod/pdf/hrb_dgrh/hr_lltm_ptm_employee_pm_talent_management_plan_guide-eng.pdf\">Talent Management Plan guide for managers and employees (PDF)</a></li>\n<li><a href=\"http://intranet.canada.ca/hr-rh/ptm-grt/pm-gr/pmc-dgr/tm-gt-eng.asp\">Talent management plans</a> (GCintranet)</li>\n<li><a href=\"https://intranet.agr.gc.ca/resources/prod/doc/hrb_dgrh/hr_lltm_ptm_employee_pm_instructions_for_completing_a_talent_management_plan-eng.docx\">Instructions for completing a Talent Management Plan (Word)</a></li>\n </ul>\n\t\n <p><b>Note:</b> Talent Management Plans are automatically offered in PSPM to employees who received a rating of Surpassed.</p>\n\n<h3>Section\u00a0H: Career Progression Management Framework</h3>\n\t\n<p><a href=\"https://intranet.agr.gc.ca/resources/prod/pdf/hrb_dgrh/hr_egs_faq_pm_and_seres-eng.pdf\">SE-RES Frequently Asked Questions on the new Directive (PDF)</a></p>\n\n<p><b>Note:</b> Section\u00a0H applies only to the SE-RES group and must be completed in the Public Service Performance Management application. </p>\n\t\n<h3>Section\u00a0I: Probation</h3>\n\t\n<ul class=\"list-unstyled\">\n<li><a href=\"https://intranet.agr.gc.ca/resources/prod/pdf/hrb_dgrh/employees_stage_probation-eng.pdf\">Probation Fact Sheet for Managers (PDF)</a></li>\n<li><a href=\"http://intranet.canada.ca/cdl-dca/ptm-grt/pm-gr/pmc-dgr/prob-stag-eng.asp\">Employees on probation</a> (GCintranet)</li>\n</ul>\n\n<p><b>Note:</b> Managers are responsible for indicating whether an employee is in their probationary period in Section\u00a0A of the performance agreement; this will then populate Section\u00a0I. Managers are responsible for entering probation dates and completing the attestation once an employee has successfully completed the probationary period.</p>\n\t\n<h2>Conflict prevention and resolution </h2>\n\t\n<ul>\n <li><a href=\"http://intranet.canada.ca/cdl-dca/ptm-grt/pm-gr/pmc-dgr/strat-eng.asp\">Strategies for Difficult Conversations</a> (GCintranet)</li>\n <li><a href=\"display-afficher.do?id=1299083757960&amp;lang=eng\">Options and Solutions for Issue Resolution</a></li>\n <li><a href=\"display-afficher.do?id=1288027396522&amp;lang=eng\">Preventing and Resolving Conflict Together</a></li>\n <li><a href=\"display-afficher.do?id=1288022170815&amp;lang=eng\">Promoting and Maintaining Healthy and Respectful Employer-Employee Relationships</a></li>\n <li><a href=\"display-afficher.do?id=1288015767856&amp;lang=eng\">Promoting Values and Ethics at Agriculture and Agri-Food Canada</a></li>\n</ul>\n\t\n<h2>Directives, policies and guidelines on performance management</h2>\n\t\n<ul>\n<li><a href=\"http://www.tbs-sct.gc.ca/pol/doc-eng.aspx?id=27146\">Directive on Performance Management</a> (Treasury Board Secretariat)</li>\n<li><a href=\"http://intranet.canada.ca/cdl-dca/ptm-grt/pm-gr/pmc-dgr/faq-eng.asp\">Frequently asked questions on the directive</a> (GCintranet)</li>\n<li><a href=\"http://www.tbs-sct.gc.ca/psm-fpfm/learning-apprentissage/ptm-grt/pmc-dgr/index-eng.asp\">Performance management program for employees</a> (Treasury Board Secretariat)</li>\n<li><a href=\"https://intranet.agr.gc.ca/resources/prod/pdf/hrb_dgrh/hr_lltm_ptm_review_panel_guidelines-eng.pdf\">Guidelines for Review Panels (PDF)</a></li>\n<li><a href=\"http://www.tbs-sct.gc.ca/pol/doc-eng.aspx?id=14226\">Directive on the Performance Management Program (PMP) for Executives</a> </li>\n<li><a href=\"http://www.tbs-sct.gc.ca/gui/gpmpr-eng.asp\">Guidelines on Performance Management for Certain Senior Excluded or Unrepresented Managers and Specialists</a> (Treasury Board Secretariat)</li>\n<li><a href=\"https://intranet.agr.gc.ca/resources/prod/doc/hrb_dgrh/guide_to_ol_in_performance_agreements-eng.doc\">Guide to Official Languages in Performance Agreements (Word)</a></li>\n</ul>\n\n<h2 id=\"a8\">Managers' quick reference for incomplete performance agreements and administrative closure of performance agreements in Public Service Performance Management<br> - Incomplete performance agreement</h2>\n\t\n<h3>Retirement</h3>\n\n<p>Prepare the performance agreement following the <a href=\"#admin-close\">administrative closure instructions</a> below.</p>\n\n<p>Once complete, email to <a href=\"mailto:AAFC.Performance-Rendement.AAC@canada.ca\">AAFC.Performance-Rendement.AAC@canada.ca</a> to have the agreement administratively closed.</p>\n\n<h3>Extended leave</h3>\n\t\n<p>If the employee's expected return date is after the fiscal year-end (April 1), prepare the performance agreement following the <a href=\"#admin-close\">administrative closure instructions</a> below and then email to <a href=\"mailto:AAFC.Performance-Rendement.AAC@canada.ca\">AAFC.Performance-Rendement.AAC@canada.ca</a> to have the agreement administratively closed.</p>\n\t\n<p>If expected return date is prior to fiscal year end (March 31), there is no further action required: the performance agreement cannot be administratively closed due to the employee's anticipated return during the fiscal year.</p>\n\t\n<h3>Seconded out</h3>\n\t\n<p>You may follow up with the employee to inform them that their beginning of assessment/ mid-year review/ year-end assessment is showing as incomplete and to ask them to complete it with their current employer or it will be counted toward AAFC's total.</p>\n\t\n<h3>Departure from AAFC</h3>\n\t\n<p>If the employee deployed to another department that uses the PSPM App, email <a href=\"mailto:AAFC.Performance-Rendement.AAC@canada.ca\">AAFC.Performance-Rendement.AAC@canada.ca</a> to determine what steps should be taken before the manager releases the employee.</p>\n\t\n<p>If the employee departed for an organization that does not use the PSPM App, prepare the performance agreement following the <a href=\"#admin-close\">administrative closure instructions</a> below and then email <a href=\"mailto:AAFC.Performance-Rendement.AAC@canada.ca\">AAFC.Performance-Rendement.AAC@canada.ca</a> to have the agreement administratively closed.</p>\n\t\n<h3>Incomplete Section\u00a0E</h3>\n\t\n<p>You and the employee should verify that all of the required boxes on the Index page are checked off to complete the performance agreement.</p>\n\t\n<h2 id=\"admin-close\">Administrative closure of performance agreement</h2>\n\t\n<p>An administrative closure can be processed by the PSPM App Administrator in cases where the employee</p>\n\t\n<ul>\n <li>is on extended leave (such as maternity or parental leave, personal leave or education leave)</li>\n <li>has departed from the Core Public Administration (including Interchange out, left for an organization not subject to the Treasury Board Secretariat Directive on Performance Management)</li>\n <li>has departed from the federal government (such as retirement or resignation)</li>\n <li>refuses to sign the performance agreement/assessment (please contact your Labour Relations Advisor to discuss further before requesting for administrative closure).</li>\n</ul>\n\t\n<p>The option to administratively close is activated for the PSPM App Administrator only once the performance agreement is completed up to the point of the employee signature check box. Thus, you must complete the required fields in each section of the performance agreement (use \"N/A\" where appropriate):</p>\n\t\n<ul>\n <li>Section\u00a0A: Click <b>Expand All</b> and complete all required fields.</li>\n <li>Section\u00a0B: Complete all required fields; if you are closing the year-end assessment, select <b>Unable to Assess</b>.</li>\n <li>Section\u00a0C: Complete all required fields. If closing the mid-year review, select <b>on track;</b> if closing the year-end assessment, select <b>Unable to Assess.</b></li>\n <li>Section\u00a0D: Complete all required fields.</li>\n <li>Section\u00a0F, G and H (if applicable): Complete all required fields.</li>\n <li>Section\u00a0E: Check off all of the required boxes under the <b>manager/supervisor</b> heading, and enter the reason for the administrative closure in the <b>Manager/Supervisor</b> comment box provided. Then click <b>Save</b>. Section\u00a0E will remain incomplete since the employee boxes cannot be checked off.</li>\n <li>On your <b>My Employee Performance Agreements</b> page, select the employee's name from the list and verify on the right-hand side that the status of the performance agreement is <b>Signed by Manager/Supervisor</b>. If it is not, go back into the performance agreement to make sure all the required manager/supervisor boxes are checked off.</li>\n <li>Email <a href=\"mailto:AAFC.Performance-Rendement.AAC@canada.ca\">AAFC.Performance-Rendement.AAC@canada.ca</a> to request the administrative closure. Provide the reason so that the administrator can select an appropriate code.</li>\n</ul>\n\t\n<p><b>Note:</b> If you release an employee before they complete their last performance agreement up to the point of the employee signature check off, the performance agreement cannot be closed and will be counted as an incomplete.</p>\n\t\n<p>Questions? Please contact us at <a href=\"mailto:AAFC.Performance-Rendement.AAC@canada.ca\">AAFC.Performance-Rendement.AAC@canada.ca.</a></p>\n\t\t</section>",
        "fr": "<section>\n\t\t\t  \n\n<div class=\"row\">\n <div class=\"col-md-3 pull-right\">\n <section class=\"panel panel-primary\">\n  <header class=\"panel-heading\">\n <h2 class=\"panel-title\">Demandes les plus populaires</h2>\n  </header>\n  <div class=\"panel-body\">\n <ul class=\"list-unstyled lst-spcd\">\n  <li><a href=\"https://portal-portail.tbs-sct.gc.ca/home-fra.aspx\">Portail des applications du SCT-GRFP</a></li>\n  <li><a href=\"http://intranet.canada.ca/hr-rh/ptm-grt/pm-gr/pspmgex-ggrfpcs-fra.asp\">Guide d'utilisation de l'application de GRFP pour les cadres, les gestionnaires et les superviseurs</a> (GCintranet)</li>\n  <li><a href=\"http://intranet.canada.ca/hr-rh/ptm-grt/pm-gr/pspmge-ggrfpe-fra.asp\">Guide d'utilisation de l'application de GRFP pour les employ\u00e9s</a> (GCintranet)</li>\n  <li><a href=\"display-afficher.do?id=1306503292350&amp;lang=fra\">Apprentissage et perfectionnement</a></li>\n </ul>\n  </div>\n </section> \n </div>\n\n <div class=\"col-md-9 pull-left\">\n\n<p>Ressources, guides et outils pour guider les gestionnaires et les employ\u00e9s tout au long du cycle de gestion du rendement, soit de l'\u00e9tablissement des objectifs de travail dans l'application de GRFP jusqu'aux conversations difficiles\u00a0:</p>\n\t \n<h2>Ach\u00e8vement du cycle de gestion du rendement</h2>\n\t \n<h3>R\u00e9troaction continue tout au long du cycle</h3>\n\t \n<ul>\n<li><a href=\"?id=1582733793877\">AAC Cadre de d\u00e9veloppement des talents</a></li>\n <li><a href=\"https://intranet.agr.gc.ca/resources/prod/ppt/hrb_dgrh/hr_egs_epmp_manager_guide_informal_feedback_clc-fra.pptx\">Am\u00e9liorer le rendement avec la r\u00e9troaction informelle (PowerPoint)</a></li>\n <li><a href=\"http://intranet.canada.ca/hr-rh/ptm-grt/pm-gr/pmc-dgr/support-soutien-fra.asp\">Soutenir les employ\u00e9s afin de r\u00e9aliser les attentes du rendement</a> (GCintranet)</li>\n <li><a href=\"http://intranet.canada.ca/hr-rh/ptm-grt/pm-gr/pmc-dgr/convo-fra.asp\">Conversations sur les progr\u00e8s: conseils pour avoir une conversation productive sur le rendement</a> (GCintranet)</li>\n<li><a href=\"https://intranet.agr.gc.ca/resources/prod/doc/hrb_dgrh/performance_discussion-fra.docx\">Outil de discussion sur le rendement (Word)</a></li>\n</ul>\n\n\t \n<h3>D\u00e9but de l'\u00e9valuation</h3>\n\t \n<ul>\n <li><a href=\"https://intranet.agr.gc.ca/resources/prod/pdf/hrb_dgrh/hr_lltm_ptm_quick_reference_guide_for_pspm_app_account_setup_assessment-fra.pdf\">Guide de r\u00e9f\u00e9rence pour la configuration d'un compte dans l'application GRFP (PDF)</a></li>\n <li><a href=\"display-afficher.do?id=1341858121401&amp;lang=fra\">Cr\u00e9ation d'un profil maCL\u00c9</a></li>\n <li><a href=\"https://intranet.agr.gc.ca/resources/prod/pdf/hrb_dgrh/hr_lltm_ptm_employee_pm_guide_to_establishing_performance_agreement-fra.pdf\">Guide sur l'\u00e9tablissement de l'entente de rendement (PDF)</a></li>\n <li><a href=\"https://intranet.agr.gc.ca/resources/prod/doc/hrb_dgrh/hr_lltm_ptm_employee_pm_performance_agreement_instructions-fra.docx\">Instructions pour la pr\u00e9paration de l'Entente de rendement de la fonction publique (Word)</a></li>\n</ul>\n\t \n<p>Voir <a href=\"#entente-rend\">l'entente de rendement</a> pour obtenir des ressources li\u00e9es \u00e0 chaque section de l'entente de rendement.</p>\n</div>\n</div>\n\n<h3>Examen de mi-exercice</h3>\n\n<ul>\n <li><a href=\"https://intranet.agr.gc.ca/resources/prod/pdf/hrb_dgrh/hr_lltm_ptm_employee_pm_quick_reference_guide_for_mid_year_review_pspm_app-fra.pdf\">Guide de r\u00e9f\u00e9rence pour l'examen de mi-exercice dans l'application GRFP (PDF)</a></li>\n <li>Conseils pour les gestionnaires: <a href=\"http://intranet.canada.ca/hr-rh/ptm-grt/pm-gr/pmc-dgr/prep-convo-fra.asp\">Se pr\u00e9parer \u00e0 une conversation sur les progr\u00e8s</a> (GCintranet)</li>\n <li><a href=\"http://intranet.canada.ca/hr-rh/ptm-grt/pm-gr/pmc-dgr/esep-aepe-fra.asp\">Auto-examen des progr\u00e8s des employ\u00e9s</a> (GCintranet)</li>\n <li><a href=\"http://intranet.canada.ca/cdl-dca/ptm-grt/pm-gr/mr-me-fra.asp\">Vid\u00e9o sur l'examen de mi-exercice</a>  (Secr\u00e9tariat du Conseil du Tr\u00e9sor - dur\u00e9e : 16 minutes)</li>\n</ul>\n\n<h3>\u00c9valuation de fin d'exercice</h3>\n\n<ul class=\"list-unstyled\">\n <li><a href=\"https://intranet.agr.gc.ca/resources/prod/pdf/hrb_dgrh/hr_lltm_ptm_employee_pm_quick_reference_guide_for_year_end_assessment_pspm_app-fra.pdf\">Guide de r\u00e9f\u00e9rence \u2013 \u00c9valuation de fin d'exercice dans l'application GRFP (PDF)</a></li>\n <li><a href=\"https://intranet.agr.gc.ca/resources/prod/pdf/hrb_dgrh/hr_lltm_ptm_employee_pm_guide_to_year-end_performance_assessment-fra.pdf\">Guide de l'\u00e9valuation de rendement de fin d'exercice (PDF)</a></li>\n <li><a href=\"http://intranet.canada.ca/hr-rh/ptm-grt/pm-gr/pmc-dgr/se-ae-fra.asp\">Cotes de rendement</a> (GCintranet)</li>\n <li>Conseils pour les gestionnaires\u00a0: <a href=\"http://intranet.canada.ca/cdl-dca/ptm-grt/pm-gr/pmc-dgr/asses-eval-fra.asp\">\u00c9valuation du rendement et d\u00e9termination des cotes des employ\u00e9s</a> (GCintranet)</li>\n <li>Conseils pour les employ\u00e9s\u00a0: <a href=\"http://intranet.canada.ca/hr-rh/ptm-grt/pm-gr/pmc-dgr/se-ae-fra.asp\">Auto-\u00e9valuation de l'employ\u00e9</a> (GCintranet)</li>\n <li><a href=\"https://intranet.agr.gc.ca/resources/prod/pdf/hrb_dgrh/year_end_employee_checklist-fra.pdf\">Liste de v\u00e9rification de fin d'exercice du gestionnaire (PDF)</a></li>\n\t\n <li><a href=\"https://intranet.agr.gc.ca/resources/prod/pdf/hrb_dgrh/year_end_employee_checklist-fra.pdf\">Liste de v\u00e9rification de fin d'exercice de l'employ\u00e9 (PDF)</a></li>\n <li><a href=\"http://intranet.canada.ca/cdl-dca/ptm-grt/pm-gr/yr-fe-fra.asp\">Vid\u00e9o sur l'\u00e9valuation de fin d'exercice (Secr\u00e9tariat du Conseil du Tr\u00e9sor - dur\u00e9e\u00a0: 14\u00a0minutes)</a></li>\n</ul>\n\n<h2 id=\"entente-rend\">L'entente de rendement</h2>\n\n<h3>Section B: Objectifs de travail</h3>\n\n<ul class=\"list-unstyled\">\n<li><a href=\"https://intranet.agr.gc.ca/resources/prod/ppt/hrb_dgrh/hr_lltm_ptm_employee_pm_deck_mldp-fra.pptx\">S\u00e9ance de mise \u00e0 jour sur les \u00e9chelles de cotation et le d\u00e9but de l'\u00e9valuation (PowerPoint)</a></li>\n  <li><a href=\"http://intranet.canada.ca/cdl-dca/ptm-grt/pm-gr/pmc-dgr/smart-fra.asp\">Objectifs \u00ab\u00a0SMART\u00a0\u00bb et les indicateurs de rendement</a> (GCintranet)</li>\n  <li><a href=\"http://intranet.canada.ca/cdl-dca/ptm-grt/pm-gr/pmc-dgr/org-priorites-fra.asp\">Priorit\u00e9s organisationnelles</a> (GCintranet)</li>\n  <li><a href=\"display-afficher.do?id=1287433335737&amp;lang=fra\">Priorit\u00e9s du Minist\u00e8re</a></li>\n<li><a href=\"http://www.agr.gc.ca/fra/a-propos-de-nous/planification-et-rapports/plans-ministeriels/?id=1174061891718\">Plans minist\u00e9riels</a>\n</li>\n<li><a href=\"https://multimedia.agr.gc.ca/pack/pdf/2020-21_commitments-fra.pdf\">Engagements minist\u00e9riels pangouvernementaux 2020-2021 (PDF)</a></li>\n</ul>\n\n<h3>Section C: Comp\u00e9tences essentielles</h3>\n<ul class=\"list-unstyled\">\n<li><a href=\"http://intranet.canada.ca/cdl-dca/ptm-grt/pm-gr/pmc-dgr/comp-fra.asp\">Comp\u00e9tences</a>  (GCintranet) et <a href=\"http://intranet.canada.ca/cdl-dca/ptm-grt/pm-gr/pmc-dgr/bi-ic-fra.asp\">indicateurs comportementaux</a> (GCintranet)</li>\n  <li><a href=\"http://agrisource1.agr.gc.ca/apps/cirg-gepr/index.cfm?event=showGroupSelectPage&amp;CFID=126745&amp;CFTOKEN=25051318&amp;lang=fr&amp;menupos=1.14\">Profils de comp\u00e9tences</a></li>\n  <li><a href=\"http://agrisource1.agr.gc.ca/apps/cirg-gepr/index.cfm?event=showSAOccupationSelectPage&amp;CFID=126745&amp;CFTOKEN=25051318&amp;lang=fr&amp;menupos=1.13\">Auto-\u00e9valuation des comp\u00e9tences</a></li>\t\n<li><a href=\"https://intranet.agr.gc.ca/resources/prod/pdf/hrb_dgrh/aafc_aac_compet_diction-fra.pdf\">Dictionnaire des comp\u00e9tences (PDF)</a></li>\n</ul>\n\n<h3>Section D: Plan d'apprentissage et de perfectionnement </h3>\n<ul class=\"list-unstyled\">\n <li>AAC <a href=\"display-afficher.do?id=1306503292350&amp;lang=fra\">Apprentissage et de perfectionnement</a> </li>\n<li><a href=\"display-afficher.do?id=1287603193878&amp;lang=fra\">Guide pour l'\u00e9laboration d'un plan d'apprentissage et de perfectionnement</a>\n <ul>\n <li><a href=\"display-afficher.do?id=1306503292350&amp;lang=fra\">Apprentissage et perfectionnement</a>\u00a0: formation obligatoires et recommand\u00e9s \u00e0 AAC</li>\n <li><a href=\"https://intranet.agr.gc.ca/resources/prod/doc/hrb_dgrh/learning_development_plan-fra.docx\">Tirer le maximum de votre plan d'apprentissage et de perfectionnement (Word)</a></li>\n <li><a href=\"https://learn-apprendre.csps-efpc.gc.ca/application/fr\">Cours de l'\u00c9cole de la fonction publique du Canada (EFPC)</a> (GCcampus)</li>\n</ul>\n</li>\n</ul>\n\n<h3>Section F: Plan d'action</h3>\n<ul class=\"list-unstyled\">\n <li><a href=\"https://intranet.agr.gc.ca/resources/prod/pdf/hrb_dgrh/hr_lltm_ptm_employee_pm_action_plan_guide-fra.pdf\">Guide pour l'\u00e9laboration d'un plan d'action (PDF)</a></li>\n   <li><a href=\"http://intranet.canada.ca/cdl-dca/ptm-grt/pm-gr/pmc-dgr/ap-pa-fra.asp\">Plans d'action</a> (GCintranet)</li>\n   <li><a href=\"https://intranet.agr.gc.ca/resources/prod/doc/hrb_dgrh/hr_lltm_ptm_employee_pm_instructions_for_completing_an_action_plan-fra.docx\">Instructions pour la pr\u00e9paration d'un plan d'action (Word)</a></li>\n</ul>\n\n<p><strong>Nota:</strong> Les plans d'action sont obligatoires pour les employ\u00e9s qui ont re\u00e7u une cote de n'a pas atteint.</p>\n<h3>Section G: Plan de gestion des talents </h3>\n<ul class=\"list-unstyled\">\n <li><a href=\"https://intranet.agr.gc.ca/resources/prod/pdf/hrb_dgrh/hr_lltm_ptm_employee_pm_talent_management_plan_guide-fra.pdf\">Guide pour l'\u00e9laboration d'un plan de gestion des talents (PDF)</a></li>\n <li><a href=\"http://intranet.canada.ca/cdl-dca/ptm-grt/pm-gr/pmc-dgr/tm-gt-fra.asp\">Plan de gestion des talents</a> (GCintranet)</li>\n <li><a href=\"https://intranet.agr.gc.ca/resources/prod/doc/hrb_dgrh/hr_lltm_ptm_employee_pm_instructions_for_completing_a_talent_management_plan-fra.docx\">Instructions pour la pr\u00e9paration d'un plan de gestion des talents (Word)</a></li>\n </ul>\n <p><strong>Nota:</strong> Les plans de gestion des talents sont automatiquement offerte dans l'application GRFP pour les employ\u00e9s qui ont re\u00e7u une cote de surpass\u00e9.</p>\n\n<h3>Section H: Cadre de gestion de l'avancement</h3>\n<p><a href=\"https://intranet.agr.gc.ca/resources/prod/pdf/hrb_dgrh/hr_egs_faq_pm_and_seres-fra.pdf\">Foire aux questions pour le groupe Recherche scientifique (SERES) (PDF)</a></p>\n<strong>Nota:</strong> La section H ne s'applique qu'au groupe SE-RES et doit \u00eatre remplie dans l'application GRFP.\n\n<h3>Section I: P\u00e9riode de stage</h3>\n<ul class=\"list-unstyled\">\n\t\n <li><a href=\"https://intranet.agr.gc.ca/resources/prod/pdf/hrb_dgrh/employees_stage_probation-fra.pdf\">P\u00e9riode de stage \u2013 Fiche de renseignements du gestionnaire (PDF)</a></li>\n <li><a href=\"http://intranet.canada.ca/cdl-dca/ptm-grt/pm-gr/pmc-dgr/prob-stag-fra.asp\">Employ\u00e9s en p\u00e9riode de stage</a> (GCintranet)</li>\n</ul>\n\n<p><strong>Nota : </strong>Il incombe aux gestionnaires d'indiquer \u00e0 la section A de l'entente de rendement si l'employ\u00e9 est en p\u00e9riode de stage et la section I se remplira ensuite automatiquement. Il incombe aux gestionnaires d'inscrire les dates des stages et de remplir l'attestation une fois que l'employ\u00e9 a termin\u00e9 avec succ\u00e8s son stage.</p>\n<h2>La pr\u00e9vention et la r\u00e9solution des conflits</h2>\n<ul>\n <li><a href=\"http://intranet.canada.ca/hr-rh/ptm-grt/pm-gr/pmc-dgr/strat-fra.asp\">Strat\u00e9gies pour mener des conversations difficiles</a> (GCintranet)</li>\n <li><a href=\"display-afficher.do?id=1299083757960&amp;lang=fra\">Options et solutions pour la r\u00e9solution des probl\u00e8mes</a></li>\n <li><a href=\"display-afficher.do?id=1288027396522&amp;lang=fra\">Pr\u00e9venir et r\u00e9soudre les conflits ensemble</a></li>\n <li><a href=\"display-afficher.do?id=1288022170815&amp;lang=fra\">Promouvoir et maintenir des relations saines et respectueuses entre l'employ\u00e9 et l'employeur</a></li>\n <li><a href=\"display-afficher.do?id=1288015767856&amp;lang=fra\">Promouvoir les valeurs et l'\u00e9thique \u00e0 Agriculture et Agroalimentaire Canada</a></li>\n</ul>\n<h2>Directives, politiques et lignes directives sur la gestion du rendement</h2>\n<ul>\n<li><a href=\"http://www.tbs-sct.gc.ca/pol/doc-fra.aspx?id=27146\">Directive sur la gestion du rendement</a> (Secr\u00e9tariat du Conseil du Tr\u00e9sor)</li>\n  <li><a href=\"http://intranet.canada.ca/cdl-dca/ptm-grt/pm-gr/pmc-dgr/faq-fra.asp\">Foire aux questions sur la directive</a> (GCintranet)</li>\n  <li><a href=\"http://www.tbs-sct.gc.ca/psm-fpfm/learning-apprentissage/ptm-grt/pmc-dgr/index-fra.asp\">Programme de gestion du rendement pour les employ\u00e9s</a> (Secr\u00e9tariat du Conseil du Tr\u00e9sor) </li>\n  <li><a href=\"https://intranet.agr.gc.ca/resources/prod/pdf/hrb_dgrh/hr_lltm_ptm_review_panel_guidelines-fra.pdf\">Comit\u00e9s d'examen de la gestion du rendement (PDF)</a></li>\n  <li><a href=\"http://www.tbs-sct.gc.ca/pol/doc-fra.aspx?id=14226\">Directive sur le Programme de gestion du rendement (PGR) pour les cadres sup\u00e9rieurs</a> (Secr\u00e9tariat du Conseil du Tr\u00e9sor) </li>\n  <li><a href=\"http://www.tbs-sct.gc.ca/gui/gpmpr-fra.asp\">Lignes directrices du Secr\u00e9tariat du Conseil du Tr\u00e9sor sur la gestion du rendement pour certains gestionnaires et sp\u00e9cialistes de niveau sup\u00e9rieur exclus ou non repr\u00e9sent\u00e9s</a></li>\n  <li><a href=\"https://intranet.agr.gc.ca/resources/prod/doc/hrb_dgrh/guide_sur_les_langues_officielles_dans_les_ententes_de_rendement-fra.doc\">Guide sur les langues officielles dans les ententes de rendement (Word)</a></li>\n</ul>\n\n<h2 id=\"a8\">Guide de r\u00e9f\u00e9rence rapide pour les gestionnaires au sujet des parties incompl\u00e8tes de l'entente de rendement et la fermeture administrative dans le Gestion du rendement de la fonction publique <br>Partie incompl\u00e8te de l'entente de rendement</h2>\n\n<h3>Retraite</h3>\n<p>Les gestionnaires pr\u00e9parent l'entente de rendement selon les <a href=\"#admin-close\">instructions de Fermeture administrative de l'entente de rendement</a>.</p>\n<p> Lorsque toutes les \u00e9tapes sont compl\u00e9t\u00e9es, les gestionnaires de ces employ\u00e9s doivent envoyer un courriel \u00e0 l'adresse <a href=\"AAFC.Performance-Rendement.AAC@canada.ca\">AAFC.Performance-Rendement.AAC@canada.ca</a> afin de fermer l'entente administrativement.</p>\n<h3>Cong\u00e9 prolong\u00e9</h3>\n<p>Si le retour est pr\u00e9vu apr\u00e8s la fin de l'ann\u00e9e fiscale (le 1er avril ), les gestionnaires pr\u00e9parent l'entente de rendement selon les <a href=\"#admin-close\">instructions de Fermeture administrative de l'entente de rendement</a> et doivent envoyer un courriel \u00e0 l'adresse <a href=\"mailto:AAFC.Performance-Rendement.AAC@canada.ca\">AAFC.Performance-Rendement.AAC@canada.ca</a> afin de fermer l'entente administrativement.</p>\n<p> Si le retour est pr\u00e9vu avant la fin de l'ann\u00e9e fiscale (le 31 mars), aucune autre mesure n'est requise, car l'entente ne peut \u00eatre ferm\u00e9e que si le retour pr\u00e9vu de l'employ\u00e9 a lieu pendant l'exercice financier. </p>\n<h3>En d\u00e9tachement \u00e0 l'ext\u00e9rieur</h3>\n<p>Les gestionnaires de ces employ\u00e9s devraient effectuer un suivi aupr\u00e8s d'eux, afin de les informer que le d\u00e9but de l'\u00e9valuation, l'examen de mi-exercice ou l'\u00e9valuation de fin d'exercice est incomplet et de leur demander de le compl\u00e9ter avec leur employeur actuel, ou il sera pris en compte dans le total d'AAC.</p>\n<h3>D\u00e9part d'AAC</h3>\n<p>Si un employ\u00e9 est mut\u00e9 \u00e0 un autre minist\u00e8re qui utilise l'application GRFP, le gestionnaire doit envoyer un courriel \u00e0 l'adresse <a href=\"mailto:AAFC.Performance-Rendement.AAC@canada.ca\">AAFC.Performance-Rendement.AAC@canada.ca</a> afin de d\u00e9terminer quelles sont les mesures \u00e0 prendre avant que le gestionnaire retire l'employ\u00e9 de sa liste d'employ\u00e9s dans le syst\u00e8me.</p>\n<p> Si l'employ\u00e9 est parti travailler pour un organisme qui n'utilise pas l'application GRFP, les gestionnaires pr\u00e9parent l'entente de rendement selon les instructions \u00e0 la page 2 du pr\u00e9sent document et doivent envoyer un courriel \u00e0 l'adresse <a href=\"mailto:AAFC.Performance-Rendement.AAC@canada.ca\">AAFC.Performance-Rendement.AAC@canada.ca</a>afin de fermer l'entente de rendement administrativement.</p>\n<h3>Section E incompl\u00e8te</h3>\n<p>Le gestionnaire et l'employ\u00e9 doivent s'assurer que toutes les cases appropri\u00e9es sur la page de l'Index sont coch\u00e9es, afin de bien remplir le formulaire de l'entente de rendement.</p>\n<h2 id=\"admin-close\">Fermeture administrative de l'entente de rendement</h2>\n<p>Une fermeture administrative peut \u00eatre effectu\u00e9e par l'administrateur de l'application GRFP dans les cas o\u00f9 l'employ\u00e9</p>\n<ul>\n <li>est en cong\u00e9 prolong\u00e9 (par exemple un cong\u00e9 de maternit\u00e9 ou un cong\u00e9 parental, un cong\u00e9 personnel, un cong\u00e9 d'\u00e9tudes, etc.);</li>\n <li>a quitt\u00e9 l'administration publique centrale (par exemple en vertu du Programme \u00c9changes Canada, ou il a joint un organisme qui n'est pas soumis \u00e0 la Directive sur la gestion du rendement du Secr\u00e9tariat du Conseil du Tr\u00e9sor);</li>\n <li>a quitt\u00e9 le gouvernement f\u00e9d\u00e9ral (par exemple retraite, d\u00e9mission, etc.);</li>\n <li>a refus\u00e9 de signer le formulaire de l'entente de rendement ou de l'\u00e9valuation du rendement (veuillez communiquer avec votre conseiller en relations du travail afin de discuter de la situation avant de demander une fermeture administrative).</li>\n</ul>\n<p>L'option de fermer l'entente de rendement administrativement n'est activ\u00e9e que par l'administrateur de l'application GRFP, une fois que le formulaire de l'entente de rendement a \u00e9t\u00e9 rempli jusqu'\u00e0 la zone de signature de l'employ\u00e9. Cela signifie que le gestionnaire doit remplir les champs appropri\u00e9s dans chaque section de l'entente de rendement (\u00e9crire \u00ab S.O. \u00bb au besoin) :</p>\n<ul>\n <li>Section A : Cliquer sur <strong>Afficher tout</strong>  et remplir tous les champs requis.</li>\n <li>Section B : Remplir tous les champs requis et choisir l'option <strong>Impossible de proc\u00e9der \u00e0 l'\u00e9valuation</strong> s'il s'agit de fermer l'\u00e9valuation de fin d'exercice.</li>\n <li>Section C : Remplir tous les champs requis et choisir l'option <strong>En voie de r\u00e9pondre aux attentes</strong> s'il s'agit de fermer l'examen de mi-exercice puisque \u00ab S.O. \u00bb n'est pas disponible ou <strong>Impossible de proc\u00e9der \u00e0 l'\u00e9valuation</strong> s'il s'agit de l'\u00e9valuation de fin d'exercice.</li>\n <li>Section D : Remplir tous les champs requis.</li>\n <li>Sections F, G et H (s'il y a lieu) : remplir tous les champs requis.</li>\n <li>Section E : Cocher toutes les cases appropri\u00e9es sous l'en-t\u00eate <strong>gestionnaire/superviseur</strong> et \u00e9crire la raison de la fermeture administrative dans l'espace pr\u00e9vu \u00e0 cette fin, puis <strong>sauvegarder</strong> les donn\u00e9es entr\u00e9es. La section E demeurera incompl\u00e8te puisque les cases se rapportant \u00e0 l'employ\u00e9 ne peuvent pas \u00eatre coch\u00e9es.</li>\n <li>Aller \u00e0 la page <strong>Ententes de rendement de mes employ\u00e9s</strong>, cliquer sur le nom de l'employ\u00e9 dans la liste et v\u00e9rifier dans la colonne de droite que l'\u00e9tat de l'entente de rendement indique <strong>Sign\u00e9 par le gestionnaire ou le superviseur</strong>. Si ce n'est pas le cas, retourner dans l'entente de rendement pour v\u00e9rifier que toutes les cases se rapportant au gestionnaire ou au superviseur sont coch\u00e9es.</li>\n <li>Envoyer un courriel \u00e0 l'adresse <a href=\"mailto:AAFC.Performance-Rendement.AAC@canada.ca\">AAFC.Performance-Rendement.AAC@canada.ca</a> pour demander la fermeture administrative. Ne pas oublier de fournir la raison afin que l'administrateur indique le code appropri\u00e9.</li>\n</ul>\n<p><strong>Remarque\u00a0</strong>: Si l'employ\u00e9 est retir\u00e9 par le gestionnaire de sa liste d'employ\u00e9s avant d'avoir termin\u00e9 de remplir la derni\u00e8re entente de rendement jusqu'\u00e0 la zone de signature de l'employ\u00e9, l'entente de rendement ne peut \u00eatre ferm\u00e9e et sera consid\u00e9r\u00e9e comme incompl\u00e8te.</p>\n<p>Des questions? Veuillez nous joindre \u00e0 l'adresse <a href=\"mailto:AAFC.Performance-Rendement.AAC@canada.ca\">AAFC.Performance-Rendement.AAC@canada.ca</a>. </p>\n\t\t</section>"
    }
}