{
    "dcr_id": "1517840672782",
    "lang": "en",
    "type_name": "empl-empl",
    "staffadvisor": "andre.lavergne@agr.gc.ca",
    "submitername": "AAFC Collaborative Staffing / Dotation Collaborative AAC",
    "submiteremail": "aafc.collabresourcing-ressourcementcollab.aac@agr.gc.ca",
    "contactname": "Karen Gajek",
    "contactemail": "karen.gajek@agr.gc.ca",
    "contactphonenumber": "204-259-5010",
    "issued": "2018-02-08"
}