{
    "dcr_id": "1522849558789",
    "lang": "en",
    "type_name": "empl-empl",
    "staffadvisor": "amanda.chaiban@agr.gc.ca",
    "submitername": "Shelley Manning",
    "submiteremail": "shelley.manning@agr.gc.ca",
    "contactname": "Shelley Manning",
    "contactemail": "shelley.manning@agr.gc.ca",
    "contactphonenumber": "902-896-3651",
    "issued": "2018-04-09"
}