{
    "dcr_id": "1526583572033",
    "lang": "en",
    "type_name": "empl-empl",
    "staffadvisor": "henderson.patrycja@canada.ca",
    "submitername": "Julie Levert",
    "submiteremail": "julie.levert@canada.ca",
    "contactname": "Julie Levert",
    "contactemail": "julie.levert@canada.ca",
    "contactphonenumber": "613-773-2807",
    "issued": "2018-05-22"
}