{
    "dcr_id": "1526412426072",
    "lang": "en",
    "type_name": "empl-empl",
    "staffadvisor": "lisette.dias@agr.gc.ca",
    "submitername": "Tabitha Rich",
    "submiteremail": "tabitha.rich@canada.ca",
    "contactname": "Tabitha Rich",
    "contactemail": "tabitha.rich@canada.ca",
    "contactphonenumber": "613-773-1279",
    "issued": "2018-05-23"
}