{
    "dcr_id": "1527790382949",
    "lang": "en",
    "type_name": "empl-empl",
    "staffadvisor": "amanda.dent@agr.gc.ca",
    "submitername": "Maria Dumitrescu",
    "submiteremail": "maria.dumitrescu@agr.gc.ca",
    "contactname": "Maria Dumitrescu",
    "contactemail": "maria.dumitrescu@agr.gc.ca",
    "contactphonenumber": "613-773-1402",
    "issued": "2018-06-01"
}