{
    "dcr_id": "1527095524599",
    "lang": "en",
    "type_name": "empl-empl",
    "staffadvisor": "Patrycja.henderson@canada.ca",
    "submitername": "Julie Levert",
    "submiteremail": "julie.levert@canada.ca",
    "contactname": "Julie Levert",
    "contactemail": "julie.levert@canada.ca",
    "contactphonenumber": "613-773-2807",
    "issued": "2018-05-24"
}