{
    "dcr_id": "1532523389346",
    "lang": "en",
    "type_name": "empl-empl",
    "staffadvisor": "Patrycja.Hendersen@canada.ca",
    "submitername": "Julie.levert@canada.ca",
    "submiteremail": "Julie.levert@canada.ca",
    "contactname": "Julie.Levert@canada.ca",
    "contactemail": "Julie.Levert@canada.ca",
    "contactphonenumber": "613-773-2807",
    "issued": "2018-07-25"
}