{
    "dcr_id": "1534947987621",
    "lang": "en",
    "type_name": "empl-empl",
    "staffadvisor": "laura.corkum@canada.ca",
    "submitername": "Lucie Malette",
    "submiteremail": "lucie.malette3@canada.ca",
    "contactname": "Rich Manery",
    "contactemail": "richard.manery@canada.ca",
    "contactphonenumber": "613-759-6968",
    "issued": "2018-08-23"
}