{
    "dcr_id": "1535641576405",
    "lang": "en",
    "type_name": "empl-empl",
    "staffadvisor": "Amanda.Chaiban@agr.gc.ca",
    "submitername": "Jean-Francois Lefier",
    "submiteremail": "Jean-Francois.Lefier@agr.gc.ca",
    "contactname": "Mikhael Bourassa",
    "contactemail": "mikhael.bourassa@canada.ca",
    "contactphonenumber": "613-773-3078",
    "issued": "2018-08-31"
}