{
    "dcr_id": "1537282825124",
    "lang": "en",
    "type_name": "empl-empl",
    "staffadvisor": "amanda.dent@canada.ca",
    "submitername": "Dominique Jean-Noel",
    "submiteremail": "Dominique.Jean-Noel@canada.ca",
    "contactname": "Dominique Jean-Noel",
    "contactemail": "Dominique.Jean-Noel@canada.ca",
    "contactphonenumber": "613-773-0354",
    "issued": "2018-09-19"
}