{
    "dcr_id": "1539177540776",
    "lang": "en",
    "type_name": "empl-empl",
    "staffadvisor": "patrycja.henderson@canada.ca",
    "submitername": "john.stevenson@canada.ca",
    "submiteremail": "john.stevenson@canada.ca",
    "contactname": "julie.levert@canada.ca",
    "contactemail": "julie.levert@canada.ca",
    "contactphonenumber": "613-773-2807",
    "issued": "2018-10-10"
}