{
    "dcr_id": "1539889893785",
    "lang": "en",
    "type_name": "empl-empl",
    "staffadvisor": "amanda.dent@canada.ca",
    "submitername": "Wendy Scott-Raymond",
    "submiteremail": "wendy.scott-raymond@canada.ca",
    "contactname": "Wendy Scott-Raymond",
    "contactemail": "wendy.scott-raymond@canada.ca",
    "contactphonenumber": "613-773-0495",
    "issued": "2018-10-22"
}