{
    "dcr_id": "1545411017986",
    "lang": "en",
    "type_name": "empl-empl",
    "staffadvisor": "minh-ha.le2@canada.ca",
    "submitername": "Susan Hayes",
    "submiteremail": "susan.hayes@canada.ca",
    "contactname": "Susan Hayes",
    "contactemail": "susan.hayes@canada.ca",
    "contactphonenumber": "613-773-0709",
    "issued": "2018-12-21"
}