{
    "dcr_id": "1549387536996",
    "lang": "en",
    "type_name": "empl-empl",
    "staffadvisor": "patrycja.henderson@canada.ca",
    "submitername": "Stephanie Bourbonnais",
    "submiteremail": "stephanie.bourbonnais@canada.ca",
    "contactname": "Suzie Da Costa",
    "contactemail": "suzie.dacosta@canada.ca",
    "contactphonenumber": "613-773-2136",
    "issued": "2019-02-08"
}