{
    "dcr_id": "1550092398416",
    "lang": "en",
    "type_name": "empl-empl",
    "staffadvisor": "dawn.mcewen@canada.ca",
    "submitername": "Keith Ball",
    "submiteremail": "keith.ball2@canada.ca",
    "contactname": "Penny O'Shaughnessy",
    "contactemail": "ny.oshaughnessy@canada.ca",
    "contactphonenumber": "226-217-8015",
    "issued": "2019-02-14"
}