{
    "dcr_id": "1557522735836",
    "lang": "en",
    "type_name": "empl-empl",
    "staffadvisor": "adriana.azzi3@canada.ca",
    "submitername": "Glenda Taylor",
    "submiteremail": "glenda.taylor@canada.ca",
    "contactname": "Glenda Taylor",
    "contactemail": "glenda.taylor@canada.ca",
    "contactphonenumber": "613-773-3412",
    "issued": "2019-05-13"
}