{
    "dcr_id": "1557159272510",
    "lang": "en",
    "type_name": "empl-empl",
    "staffadvisor": "chantal.desbiens@canada.ca",
    "submitername": "Grant Woods",
    "submiteremail": "grant.woods@canada.ca",
    "contactname": "Grant Woods",
    "contactemail": "grant.woods@canada.ca",
    "contactphonenumber": "204-259-4237",
    "issued": "2019-05-07"
}