{
    "dcr_id": "1563799383199",
    "lang": "en",
    "type_name": "empl-empl",
    "staffadvisor": "aislinn.bell@canada.ca",
    "submitername": "Sybil Plank",
    "submiteremail": "sybil.plank2@canada.ca",
    "contactname": "Aislinn Bell",
    "contactemail": "aislinn.bell@canada.ca",
    "contactphonenumber": "613-773-0353",
    "issued": "2019-08-15"
}