{
    "dcr_id": "1563452326137",
    "lang": "en",
    "type_name": "empl-empl",
    "staffadvisor": "mardi.pleskach@canada.ca",
    "submitername": "Tabitha Rich",
    "submiteremail": "tabitha.rich@canada.ca",
    "contactname": "Veronique Ouellette",
    "contactemail": "Veronique.Ouellette@canada.ca",
    "contactphonenumber": "613-773-1470",
    "issued": "2019-07-18"
}