{
    "dcr_id": "1563991676736",
    "lang": "en",
    "type_name": "empl-empl",
    "staffadvisor": "aislinn.bell@canada.ca",
    "submitername": "Kyle Abonasara",
    "submiteremail": "kyle.abonasara@canada.ca",
    "contactname": "Kyle Abonasara",
    "contactemail": "kyle.abonasara@canada.ca",
    "contactphonenumber": "613-773-0850",
    "issued": "2019-07-31"
}