{
    "dcr_id": "1564672142940",
    "lang": "en",
    "type_name": "empl-empl",
    "staffadvisor": "dawn.mcewen@canada.ca",
    "submitername": "Jean-Pierre Contant",
    "submiteremail": "jean-pierre.contant@canada.ca",
    "contactname": "Jean-Pierre Contant",
    "contactemail": "jean-pierre.contant@canada.ca",
    "contactphonenumber": "613-773-0881",
    "issued": "2019-08-01"
}