{
    "dcr_id": "1565614054506",
    "lang": "en",
    "type_name": "empl-empl",
    "staffadvisor": "adriana.azzi3@canada.ca",
    "submitername": "Erika Van Neste",
    "submiteremail": "Erika.VanNeste@canada.ca",
    "contactname": "Thea Clark",
    "contactemail": "thea.clark@canada.ca",
    "contactphonenumber": "613-773-2290",
    "issued": "2019-08-16"
}