{
    "dcr_id": "1566824223507",
    "lang": "en",
    "type_name": "empl-empl",
    "staffadvisor": "prescille.lebrun@canada.ca",
    "submitername": "Julie Levert",
    "submiteremail": "julie.levert@canada.ca",
    "contactname": "Julie Levert",
    "contactemail": "julie.levert@canada.ca",
    "contactphonenumber": "613-773-2807",
    "issued": "2019-09-06"
}