{
    "dcr_id": "1566392421024",
    "lang": "en",
    "type_name": "empl-empl",
    "staffadvisor": "jocelyn.cousineau@canada.ca",
    "submitername": "Sybil Plank",
    "submiteremail": "sybil.plank2@canada.ca",
    "contactname": "Jocelyn Cousineau",
    "contactemail": "jocelyn.cousineau@canada.ca",
    "contactphonenumber": "613-773-2878",
    "issued": "2019-08-28"
}