{
    "dcr_id": "1568291937178",
    "lang": "en",
    "type_name": "empl-empl",
    "staffadvisor": "chantal.desbiens@canada.ca",
    "submitername": "Holly McCoubrey",
    "submiteremail": "holly.mccoubrey@canada.ca",
    "contactname": "Holly McCoubrey",
    "contactemail": "holly.mccoubrey@canada.ca",
    "contactphonenumber": "613-773-2373",
    "issued": "2019-09-13"
}