{
    "dcr_id": "1568031965112",
    "lang": "en",
    "type_name": "empl-empl",
    "staffadvisor": "michelle.lavergne@canada.ca",
    "submitername": "Sylvie Millette LeDuc",
    "submiteremail": "sylvie.milletteleduc@canada.ca",
    "contactname": "Shannon Bennett",
    "contactemail": "shannon.bennett@canada.ca",
    "contactphonenumber": "613-773-2735",
    "issued": "2019-09-09"
}