{
    "dcr_id": "1569612821716",
    "lang": "en",
    "type_name": "empl-empl",
    "staffadvisor": "chantal.gravelle@canada.ca",
    "submitername": "Tania Gardner",
    "submiteremail": "aafc.fcd-dcf.aac@canada.ca",
    "contactname": "Tania Gardner",
    "contactemail": "tania.gardner2@canada.ca",
    "contactphonenumber": "613-773-2570",
    "issued": "2019-10-04"
}