{
    "dcr_id": "1570638038451",
    "lang": "en",
    "type_name": "empl-empl",
    "staffadvisor": "adriana.azzi3@canada.ca",
    "submitername": "Julie Levert",
    "submiteremail": "julie.levert@canada.ca",
    "contactname": "Julie Levert",
    "contactemail": "julie.levert@canada.ca",
    "contactphonenumber": "613-773-2807",
    "issued": "2019-10-16"
}