{
    "dcr_id": "1573849020709",
    "lang": "en",
    "type_name": "empl-empl",
    "staffadvisor": "kirk.demay@canada.ca",
    "submitername": "Kirk Demay",
    "submiteremail": "kirk.demay@canada.ca",
    "contactname": "Kirk Demay",
    "contactemail": "kirk.demay@canada.ca",
    "contactphonenumber": "613-759-7958",
    "issued": "2019-11-18"
}