{
    "dcr_id": "1578423684378",
    "lang": "en",
    "type_name": "empl-empl",
    "staffadvisor": "chantal.desbiens@canada.ca",
    "submitername": "Andrea Wenham",
    "submiteremail": "andrea.wenham@canada.ca",
    "contactname": "Andrea Wenham",
    "contactemail": "andrea.wenham@canada.ca",
    "contactphonenumber": "604-348-9401",
    "issued": "2020-01-09"
}