{
    "dcr_id": "1579804704332",
    "lang": "en",
    "type_name": "empl-empl",
    "staffadvisor": "dawn.mcewen@canada.ca",
    "submitername": "Fiona Currie",
    "submiteremail": "fiona.currie@canada.ca",
    "contactname": "Fiona Currie",
    "contactemail": "fiona.currie@canada.ca",
    "contactphonenumber": "613-773-0858",
    "issued": "2020-01-24"
}