{
    "dcr_id": "1584039250844",
    "lang": "en",
    "type_name": "empl-empl",
    "staffadvisor": "lisette.dias@canada.ca",
    "submitername": "Lydia Laurin",
    "submiteremail": "lydia.laurin@canada.ca",
    "contactname": "Lydia Laurin",
    "contactemail": "lydia.laurin@canada.ca",
    "contactphonenumber": "204-259-5845",
    "issued": "2020-03-16"
}