{
    "dcr_id": "1588103171281",
    "lang": "en",
    "type_name": "empl-empl",
    "staffadvisor": "michelle.lavergne@canada.ca",
    "submitername": "Tania Gardner",
    "submiteremail": "aafc.fcd-dcf.aac@canada.ca",
    "contactname": "Tania Gardner",
    "contactemail": "tania.gardner2@canada.ca",
    "contactphonenumber": "613-773-2570",
    "issued": "2020-04-29"
}