{
    "dcr_id": "1591980154232",
    "lang": "en",
    "type_name": "empl-empl",
    "staffadvisor": "yasna.sarwar@canada.ca",
    "submitername": "Maricela Segurasalas",
    "submiteremail": "maricela.segurasalas@canada.ca",
    "contactname": "Suzie Da Costa",
    "contactemail": "suzie.dacosta@canada.ca",
    "contactphonenumber": "613-790-2309",
    "issued": "2020-06-16"
}