{
    "dcr_id": "1595443537657",
    "lang": "en",
    "type_name": "empl-empl",
    "staffadvisor": "emanuel.miulescu3@canada.ca",
    "submitername": "Richard Manery",
    "submiteremail": "richard.manery@canada.ca",
    "contactname": "Emanuel Miulescu",
    "contactemail": "emanuel.miulescu3@canada.ca",
    "contactphonenumber": "819-351-3679",
    "issued": "2020-07-27"
}