{
    "dcr_id": "1597765986576",
    "lang": "en",
    "type_name": "empl-empl",
    "staffadvisor": "adriana.azzi3@canada.ca",
    "submitername": "Arab Sekhi",
    "submiteremail": "arab.sekhi@canada.ca",
    "contactname": "Arab Sekhi",
    "contactemail": "arab.sekhi@canada.ca",
    "contactphonenumber": "613-852-6770",
    "issued": "2020-08-21"
}