{
    "dcr_id": "1287604529418",
    "lang": "fr",
    "title": "<NULL>",
    "modified": "<NULL>",
    "issued": "<NULL>",
    "type_name": "intra-intra/list-list",
    "node_id": "<NULL>",
    "layout_name": null,
    "created": "2017-03-30 12:57:29.0",
    "updated": "2017-03-30 12:57:29.0"
}