{
    "dcr_id": "1306528759720",
    "lang": "en",
    "title": {
        "en": "<NULL>",
        "fr": "<NULL>"
    },
    "modified": "<NULL>",
    "issued": "2011-10-27 00:00:00.0",
    "type_name": "intra-intra/list-list",
    "node_id": "<NULL>",
    "layout_name": null,
    "created": "2020-02-21 13:26:42.0",
    "updated": "2020-02-21 13:26:42.0"
}