{
    "dcr_id": "1317483927383",
    "lang": "en",
    "title": {
        "en": "<NULL>",
        "fr": "<NULL>"
    },
    "modified": "2011-10-01 00:00:00.0",
    "issued": "2011-10-01 00:00:00.0",
    "type_name": "intra-intra/list-list",
    "node_id": "<NULL>",
    "layout_name": null,
    "created": "2011-10-01 17:18:09.0",
    "updated": "2011-10-01 17:18:09.0"
}