{
    "dcr_id": "1317480296077",
    "lang": "en",
    "title": {
        "en": "<NULL>",
        "fr": "<NULL>"
    },
    "modified": "<NULL>",
    "issued": "2011-10-01 00:00:00.0",
    "type_name": "intra-intra/list-list",
    "node_id": "<NULL>",
    "layout_name": null,
    "created": "2017-03-30 12:58:24.0",
    "updated": "2017-03-30 12:58:24.0"
}