{
    "dcr_id": "1342019603715",
    "lang": "en",
    "title": {
        "en": "<NULL>",
        "fr": "<NULL>"
    },
    "modified": "<NULL>",
    "issued": "2012-07-11 00:00:00.0",
    "type_name": "intra-intra/list-list",
    "node_id": "<NULL>",
    "layout_name": null,
    "created": "2017-03-30 12:57:29.0",
    "updated": "2017-03-30 12:57:29.0"
}