{
    "dcr_id": "1516634859753",
    "lang": "en",
    "title": {
        "en": "ECDP Participant (Evaluation Officer)",
        "fr": "Participant au PPEC (agent d\u2019\u00e9valuation)"
    },
    "modified": "2018-01-25 00:00:00.0",
    "issued": "2018-01-25 00:00:00.0",
    "type_name": "intra-intra/empl-empl",
    "node_id": "1279029955397",
    "layout_name": null,
    "dc_date_created": "2018-01-24",
    "breadcrumb_label": "",
    "meta": {
        "issued": {
            "en": "2018-01-25",
            "fr": "2018-01-25"
        },
        "modified": {
            "en": "2018-01-25",
            "fr": "2018-01-25"
        },
        "format": {
            "en": "gcformat",
            "fr": "gcformat"
        },
        "title": {
            "en": "ECDP Participant (Evaluation Officer)",
            "fr": "Participant au PPEC (agent d\u2019\u00e9valuation)"
        },
        "subject": {
            "en": "staffing",
            "fr": "dotation en personnel"
        },
        "language": {
            "en": "eng",
            "fr": "fra"
        },
        "audience": {
            "en": "gcaudience",
            "fr": "gcaudience"
        },
        "type": {
            "en": "notice",
            "fr": "avis"
        },
        "creator": {
            "en": "Agriculture and Agri-Food Canada",
            "fr": "Agriculture et Agroalimentaire Canada"
        },
        "spatial": {
            "en": "gcregions",
            "fr": "gcregions"
        },
        "service": {
            "en": "AAFC_AgriSource",
            "fr": "AAC_AgriSource"
        },
        "accessRights": {
            "en": "3",
            "fr": "3"
        }
    },
    "body": {
        "en": "\n<p>Evaluation Services Division of the Office of Audit and Evaluation is looking for one or two ECDP participants at the EC-03/EC-04 level(s) to join our team for a 6-12 month assignment, with the possibility for an extension. We are a dynamic team that provides key information on the relevance and performance of Departmental programs to senior management. We are looking for bright, self-motivated, program and policy-oriented individuals who want to learn more about program evaluation.</p>\n<p>Working with a Senior Evaluation Manager who oversees multiple evaluation projects, an assignment in Evaluation Services Division can provide ECDP participants with a broad understanding of AAFC\u2019s programs and services.</p>\n<p>As an Evaluation Officer within our Division, you will:</p>\n<ul>\n<li>Gather essential program and policy documents</li>\n<li>Conduct literature scans on current agricultural issues</li>\n<li>Develop strategies to collect data and conduct analyses</li>\n<li>Develop excel spreadsheets on program performance data</li>\n<li>Attend meetings and interviews and transcribe notes</li>\n<li>Work on getting evaluation reports \u201cweb ready\u201d including writing up long descriptions for the visually impaired</li>\n<li>Assist in writing, editing and proof reading portions of technical and draft evaluation reports</li>\n</ul>\n<p>Do you have :</p>\n<p>*strong analytical skills?</p>\n<p>*strong interactive communications skills and writing skills?</p>\n<p>*sound judgement?</p>\n<p>*a go getter personality (Initiative)?</p>\n<p>Knowledge of research methods and bilingualism would be great assets in this role.</p>\n<p>Please note that this advertisement is intended for an assignment at level. An assignment cannot constitute a promotion.</p>\n<p>Interested? Send your resume and a cover letter (max 250 words) explaining why you are interested in this opportunity to Ashley Lemieux (Ashley.lemieux@canada.ca) before the deadline. Your cover letter may be used to assess your communication and writing skills.</p>\n",
        "fr": "\n<p>La Division des services d\u2019\u00e9valuation du Bureau de la v\u00e9rification et de l\u2019\u00e9valuation est \u00e0 la recherche d\u2019un ou deux participants au PPEC au niveau EC-03 ou EC-04 pour une affectation de six \u00e0 douze mois pouvant \u00eatre prolong\u00e9e. Nous sommes une \u00e9quipe dynamique qui fournit de l\u2019information essentielle \u00e0 la haute direction sur la pertinence et le rendement des programmes minist\u00e9riels. Nous sommes \u00e0 la recherche de personnes vives d\u2019esprit ayant un sens d\u2019initiative qui s\u2019int\u00e9ressent aux programmes et aux politiques et souhaitent parfaire leur connaissance de l\u2019\u00e9valuation des programmes.</p>\n<p>Une affectation \u00e0 la Division des services d\u2019\u00e9valuation, o\u00f9 un gestionnaire de l\u2019\u00e9valuation supervise de nombreux projets d\u2019\u00e9valuation, peut donner aux participants du PPEC une meilleure compr\u00e9hension des programmes et des services d\u2019AAC.</p>\n<p>En tant qu\u2019agent d\u2019\u00e9valuation de notre division, vous serez appel\u00e9 \u00e0 :</p>\n<ul>\n<li>Recueillir des documents essentiels sur les programmes et les politiques;</li>\n<li>Effectuer des analyses de la documentation sur des questions d\u2019actualit\u00e9 en agriculture;</li>\n<li>\u00c9tablir des strat\u00e9gies pour la collecte de donn\u00e9es et la r\u00e9alisation d\u2019analyses;</li>\n<li>Cr\u00e9er des feuilles de calcul Excel au moyen de donn\u00e9es sur le rendement des programmes;</li>\n<li>Participer \u00e0 des r\u00e9unions et \u00e0 des entrevues et transcrire des notes;</li>\n<li>Pr\u00e9parer des rapports d\u2019\u00e9valuation en vue de leur publication sur le Web, notamment en r\u00e9digeant de longues descriptions pour les personnes malvoyantes;</li>\n<li>Participer \u00e0 la r\u00e9daction, \u00e0 la r\u00e9vision et \u00e0 la relecture de parties de rapports d\u2019\u00e9valuation techniques ou pr\u00e9liminaires.</li>\n</ul>\n<p>Avez-vous :</p>\n<p>*une bonne capacit\u00e9 d\u2019analyse?</p>\n<p>*de bonnes aptitudes pour la communication interactive et la r\u00e9daction?</p>\n<p>*un bon jugement?</p>\n<p>*le sens d\u2019initiative?</p>\n<p>La connaissance des m\u00e9thodes de recherche et le bilinguisme sont des atouts pour cette affectation.</p>\n<p>Veuillez noter que ce processus donnera lieu \u00e0 une affectation \u00e0 niveau. Une affectation ne constitue pas une promotion.</p>\n<p>Vous \u00eates int\u00e9ress\u00e9? D\u2019ici la date limite, veuillez envoyer \u00e0 Ashley Lemieux (Ashley.lemieux@canada.ca) votre <em>curriculum vitae</em> accompagn\u00e9 d\u2019une lettre de pr\u00e9sentation (250 mots maximum) qui explique pourquoi cette affectation vous int\u00e9resse. Votre lettre de pr\u00e9sentation pourra \u00eatre utilis\u00e9e pour \u00e9valuer vos aptitudes en communication et en r\u00e9daction.</p>\n\n"
    },
    "breadcrumb": {
        "en": "ECDP Participant (Evaluation Officer)",
        "fr": "Participant au PPEC (agent d\u2019\u00e9valuation)"
    },
    "empl": {
        "type": {
            "en": "Assignment",
            "fr": "Affectation"
        },
        "classification": {
            "en": "EC-3, EC-4",
            "fr": "EC-3, EC-4"
        },
        "branch": {
            "en": "Office of Audit and Evaluation",
            "fr": "Bureau de la v\u00e9rification et de l'\u00e9valuation"
        },
        "locations": {
            "en": "Ottawa, Ontario",
            "fr": "Ottawa (Ontario)"
        },
        "date_closing": {
            "en": "2018-02-02",
            "fr": "2018-02-02"
        },
        "open_to": {
            "en": "AAFC ECDP participants in the National Capital Region",
            "fr": "Participants au PPEC d\u2019AAC dans la r\u00e9gion de la capitale nationale"
        },
        "name": {
            "en": "Ashley Lemieux",
            "fr": "Ashley Lemieux"
        },
        "email": {
            "en": "ashley.lemieux@canada.ca",
            "fr": "ashley.lemieux@canada.ca"
        }
    }
}