{
    "dcr_id": "1516129864140",
    "lang": "en",
    "title": {
        "en": "Senior Multilateral Officer",
        "fr": "Agent multilat\u00e9ral principal"
    },
    "modified": "2018-01-17 00:00:00.0",
    "issued": "2018-01-17 00:00:00.0",
    "type_name": "intra-intra/empl-empl",
    "node_id": "1279029955397",
    "layout_name": null,
    "dc_date_created": "2018-01-17",
    "breadcrumb_label": "",
    "meta": {
        "issued": {
            "en": "2018-01-17",
            "fr": "2018-01-17"
        },
        "modified": {
            "en": "2018-01-17",
            "fr": "2018-01-17"
        },
        "format": {
            "en": "gcformat",
            "fr": "gcformat"
        },
        "title": {
            "en": "Senior Multilateral Officer",
            "fr": "Agent multilat\u00e9ral principal"
        },
        "subject": {
            "en": "staffing",
            "fr": "dotation en personnel"
        },
        "language": {
            "en": "eng",
            "fr": "fra"
        },
        "audience": {
            "en": "gcaudience",
            "fr": "gcaudience"
        },
        "type": {
            "en": "notice",
            "fr": "avis"
        },
        "creator": {
            "en": "Agriculture and Agri-Food Canada",
            "fr": "Agriculture et Agroalimentaire Canada"
        },
        "spatial": {
            "en": "gcregions",
            "fr": "gcregions"
        },
        "service": {
            "en": "AAFC_AgriSource",
            "fr": "AAC_AgriSource"
        },
        "accessRights": {
            "en": "3",
            "fr": "3"
        }
    },
    "body": {
        "en": "<p><strong>Description</strong></p>\n<p>The Multilateral Relations unit in the Trade Agreements and Negotiations Directorate is looking for a motivated individual with strong skills in strategic thinking and policy analysis.\u00a0 The successful candidate will help the Department advance the interests of the sector and the Government at multilateral organizations such as the G20, the Food and Agriculture Organization of the United Nations, and others.\u00a0 This opportunity is for an assignment or deployment at level.</p>\n<p>This may be the opportunity you\u2019ve been looking for if you have:</p>\n<ul>\n<li><q><q>An interest in the issues deliberated by multilateral organizations, such as global food security, climate change, or helping countries adopt standards for agri-food trade;</q></q></li>\n<q><q>\n</q></q>\n<li><q><q>Networking skills to work with subject matter experts throughout the Department, Government, and where relevant the private sector and international organizations;</q></q></li>\n<q><q>\n</q></q>\n<li><q><q>Strong skills in strategic thinking, and written and oral communication to prepare briefings for the Minister and other Canadian delegates, and to advocate for Canadian interests at multilateral meetings; and</q></q></li>\n<q><q>\n</q></q>\n<li><q>A focus on results, and in particular helping the Department represent Canada and advance and defend our interests at international meetings of multilateral organizations.</q></li>\n</ul>\n<p>The incumbent\u2019s duties will include conducting policy analysis and preparing briefings to inform Canadian engagement at multilateral organizations.\u00a0 This work will consider a wide variety of subjects including: supporting global food security through agri-food trade; innovative Canadian agricultural practices and products that can inform other countries; and, advancing countries\u2019 adoption of science-based approaches to their agri-food systems at multilateral organizations.\u00a0 Key outputs produced by the successful candidate will be policy analysis and briefings that inform Canadian delegations, projects with other AAFC and GoC units concerning multilateral organizations, such as organizing side events, and advocating and defending Canadian viewsat multilateral meetings.</p>\n<p>Applicants must clearly demonstrate on their cover letter how they meet the following requirements of the position. Resumes will also be used as a source to validate the qualifications.</p>\n<p><strong>Statement of Merit Criteria &amp; Conditions of Employment</strong></p>\n<p><strong>Essential Qualifications:</strong></p>\n<ul>\n<li>Experience participating in multi-disciplinary working groups.</li>\n<li>Experience in actively participating in policy development and/or analysis.</li>\n<li>Experience in preparing and presenting strategic advice and recommendations to senior management.</li>\n</ul>\n<p><strong>Asset Qualifications:</strong></p>\n<ul>\n<li>Knowledge and / or experience concerning international issues in agriculture, such as climate change, science-based standards to regulate agri-food trade, and technical cooperation.\u00a0</li>\n</ul>\n<p><strong>Competencies:</strong></p>\n<ul>\n<li>Analytical skills</li>\n<li>Impact and Influence</li>\n<li>Strategic Thinking</li>\n<li>Creativity and Innovation</li>\n<li>Interactive Communication</li>\n<li>Adaptability</li>\n</ul>\n<p><strong>Language Requirement(s):</strong> English Essential or Bilingual BBB/BBB</p>\n<p><strong>Organizational Needs: </strong>In support of achieving a diversified workforce, consideration may be given to candidates self-identifying as belonging to one of the following Employment Equity groups: Aboriginal peoples, Persons with a Disability; Visible Minorities, Women.</p>\n<p><strong>Conditions of Employment:</strong></p>\n<p>Security Requirement(s): Secret or Reliability</p>\n<p>Ability and willingness to travel internationally and also to work overtime on short notice.</p>\n<p><strong>Applications:</strong> Interested AAFC employees located in the NCR are encouraged to forward their resume and cover letter to <a href=\"mailto:Jason.mcparlan@canada.ca\">Jason.mcparlan@canada.ca</a> by January 26, 2018.</p>\n<p>Resumes must clearly identify your tenure (e.g. term or indeterminate) and your substantive group and level.</p>\n<p><strong>Notes:</strong></p>\n<ul>\n<li>Communication for this process will be sent via email.</li>\n<li>A pool of qualified candidates may be established and may be used to staff similar positions on an assignment or deployment basis.</li>\n<li>Candidates must have their manager\u2019s approval prior to applying to an assignment opportunity.</li>\n<li>Candidates may be assessed through an interview.</li>\n<li>A written exam may be administered.</li>\n<li>Reference checks may be sought.</li>\n</ul>\n<p>\u00a0</p>\n",
        "fr": "<p><strong>Description</strong></p>\n<p>La Section des relations multilat\u00e9rales de la Direction des accords commerciaux et des n\u00e9gociations est \u00e0 la recherche d\u2019une personne motiv\u00e9e qui poss\u00e8de de solides comp\u00e9tences en r\u00e9flexion strat\u00e9gique et en analyse des politiques. Le candidat retenu aidera le Minist\u00e8re \u00e0 promouvoir les int\u00e9r\u00eats du secteur et du gouvernement aupr\u00e8s de diverses organisations multilat\u00e9rales comme le G20 et l\u2019Organisation des Nations Unies pour l\u2019alimentation et l\u2019agriculture. Il s\u2019agit d\u2019une possibilit\u00e9 de mutation ou affectation au m\u00eame niveau.</p>\n<p>Ce poste pourrait vous convenir si vous :</p>\n<ul>\n<li>avez un int\u00e9r\u00eat pour les enjeux d\u00e9battus par les organisations multilat\u00e9rales, notamment la s\u00e9curit\u00e9 alimentaire mondiale, les changements climatiques ou l\u2019aide aux pays pour l\u2019adoption de normes applicables au commerce agroalimentaire;</li>\n<li>avez des comp\u00e9tences en r\u00e9seautage pour travailler avec des experts du Minist\u00e8re et du gouvernement et, le cas \u00e9ch\u00e9ant, des experts du secteur priv\u00e9 et d\u2019organismes internationaux;</li>\n<li>avez de solides comp\u00e9tences en r\u00e9flexion strat\u00e9gique et en communication \u00e9crite et orale pour pr\u00e9parer des s\u00e9ances d\u2019information \u00e0 l\u2019intention du ministre et d\u2019autres d\u00e9l\u00e9gu\u00e9s canadiens et d\u00e9fendre les int\u00e9r\u00eats canadiens \u00e0 des r\u00e9unions multilat\u00e9rales;</li>\n<li>avez \u00e0 coeur de produire des r\u00e9sultats et plus particuli\u00e8rement d\u2019aider le Minist\u00e8re \u00e0 repr\u00e9senter le Canada ainsi qu\u2019\u00e0 promouvoir et \u00e0 d\u00e9fendre nos int\u00e9r\u00eats aux r\u00e9unions internationales des organisations multilat\u00e9rales.</li>\n</ul>\n<p>Le titulaire sera appel\u00e9 \u00e0 analyser des politiques et \u00e0 pr\u00e9parer des s\u00e9ances d\u2019information pour \u00e9clairer l\u2019engagement du Canada aupr\u00e8s des organisations multilat\u00e9rales. Il abordera un large \u00e9ventail de sujets, y compris le soutien de la s\u00e9curit\u00e9 alimentaire mondiale au moyen du commerce agroalimentaire, les pratiques et produits innovateurs du Canada qui peuvent aider d\u2019autres pays et la promotion de l\u2019adoption de syst\u00e8mes agroalimentaires \u00e0 fondement scientifique par les pays aux r\u00e9unions des organisations multilat\u00e9rales. Les principaux livrables du candidat retenu seront l\u2019analyse de politiques et la pr\u00e9paration de s\u00e9ances d\u2019information \u00e0 l\u2019intention des d\u00e9l\u00e9gations canadiennes, la r\u00e9alisation de projets concernant les organisations multilat\u00e9rales avec d\u2019autres unit\u00e9s d\u2019AAC et du gouvernement du Canada, notamment l\u2019organisation d\u2019activit\u00e9s parall\u00e8les, ainsi que la promotion et la d\u00e9fense des positions canadiennes aux r\u00e9unions multilat\u00e9rales.</p>\n<p>Les candidats doivent d\u00e9montrer clairement dans leur lettre de pr\u00e9sentation en quoi ils satisfont aux qualifications ci-dessous. \u00c0 d\u00e9faut d\u2019en faire la preuve, leur candidature pourrait \u00eatre rejet\u00e9e.</p>\n<p><strong>\u00c9nonc\u00e9 des crit\u00e8res de m\u00e9rite et des conditions d\u2019emploi</strong></p>\n<p><strong>Qualifications essentielles</strong></p>\n<ul>\n<li>Exp\u00e9rience de la participation \u00e0 des groupes de travail multidisciplinaires.</li>\n<li>Exp\u00e9rience de la participation active \u00e0 l\u2019\u00e9laboration et/ou \u00e0 l\u2019analyse de politiques.</li>\n<li>Exp\u00e9rience de la pr\u00e9paration et de la pr\u00e9sentation de conseils et de recommandations strat\u00e9giques \u00e0 l\u2019intention de cadres sup\u00e9rieurs.</li>\n</ul>\n<p><strong>Qualifications constituant un atout</strong></p>\n<ul>\n<li>Connaissance et/ou exp\u00e9rience des enjeux internationaux en agriculture, comme les changements climatiques, les normes \u00e0 fondement scientifique pour la r\u00e9glementation du commerce agroalimentaire et la coop\u00e9ration technique.</li>\n</ul>\n<p><strong>Comp\u00e9tences</strong></p>\n<ul>\n<li>R\u00e9flexion analytique</li>\n<li>Impact et influence</li>\n<li>R\u00e9flexion strat\u00e9gique</li>\n<li>Cr\u00e9ativit\u00e9 et innovation</li>\n<li>Communication interactive</li>\n<li>Facult\u00e9 d\u2019adaptation</li>\n</ul>\n<p><strong>Exigences linguistiques :</strong> Anglais essentiel ou bilingue (BBB/BBB).</p>\n<p><strong>Besoins de l\u2019organisation : </strong>Pour les besoins de la diversification de l\u2019effectif, la pr\u00e9f\u00e9rence pourrait \u00eatre accord\u00e9e aux candidants qui auront indiqu\u00e9 leur appartenance \u00e0 l\u2019un des groupes suivants vis\u00e9s par l\u2019\u00e9quit\u00e9 en mati\u00e8re d\u2019emploi : Autochtones, personnes handicap\u00e9es, minorit\u00e9s visibles, femmes.</p>\n<p><strong>Conditions d\u2019emploi</strong></p>\n<p>Exigences de s\u00e9curit\u00e9 : Cote de niveau secret ou cote de fiabilit\u00e9.</p>\n<p>\u00catre apte et dispos\u00e9 \u00e0 voyager \u00e0 l\u2019\u00e9tranger et \u00e0 faire des heures suppl\u00e9mentaires \u00e0 court pr\u00e9avis.</p>\n<p><strong>Demandes :</strong> Les employ\u00e9s d\u2019AAC dans la RCN qui souhaitent poser leur candidature sont invit\u00e9s \u00e0 envoyer leur curriculum vitae et une lettre de pr\u00e9sentation \u00e0 <a href=\"mailto:Jason.mcparlan@canada.ca\">Jason.mcparlan@canada.ca</a> d\u2019ici le 26 janvier, 2018.</p>\n<p>Dans leur curriculum vitae, les candidats doivent indiquer clairement la dur\u00e9e de leur emploi (p. ex. d\u00e9termin\u00e9e ou ind\u00e9termin\u00e9e) ainsi que leur groupe et niveau de titularisation.</p>\n<p><strong>Remarques</strong></p>\n<ul>\n<li>Les communications relatives \u00e0 ce processus seront envoy\u00e9es par courriel.</li>\n<li>Un bassin de candidats qualifi\u00e9s pourrait \u00eatre cr\u00e9\u00e9 et utilis\u00e9 pour doter des postes semblables au moyen d\u2019affectations ou de mutations.</li>\n<li>Les candidats doivent obtenir l\u2019approbation de leur gestionnaire avant de poser leur candidature pour une affectation.</li>\n<li>Les candidats pourraient \u00eatre \u00e9valu\u00e9s au moyen d\u2019une entrevue.</li>\n<li>Les candidats pourraient \u00eatre appel\u00e9s \u00e0 passer un examen \u00e9crit.</li>\n<li>Les r\u00e9f\u00e9rences feront l\u2019objet d\u2019une v\u00e9rification.</li>\n</ul>\n<p>\u00a0</p>\n\n"
    },
    "breadcrumb": {
        "en": "Senior Multilateral Officer",
        "fr": "Agent multilat\u00e9ral principal"
    },
    "empl": {
        "type": {
            "en": "Assignment, Deployment",
            "fr": "Affectation, Mutation"
        },
        "classification": {
            "en": "EC-6, CO-2 and equivalent",
            "fr": "EC-6, CO-2 et \u00e9quivalent"
        },
        "branch": {
            "en": "Market and Industry Services Branch",
            "fr": "Direction g\u00e9n\u00e9rale des services \u00e0 l'industrie et aux march\u00e9s"
        },
        "locations": {
            "en": "Ottawa, NCR.",
            "fr": "Ottawa, RCN."
        },
        "date_closing": {
            "en": "2018-01-26",
            "fr": "2018-01-26"
        },
        "open_to": {
            "en": "AAFC Employees in the NCR",
            "fr": "Employ\u00e9s d\u2019AAC dans la RCN"
        },
        "name": {
            "en": "Daryl Nearing",
            "fr": "Daryl Nearing"
        },
        "email": {
            "en": "daryl.nearing@agr.gc.ca",
            "fr": "daryl.nearing@agr.gc.ca"
        }
    }
}