{
    "dcr_id": "1517518905795",
    "lang": "en",
    "title": {
        "en": "Technical Advisor, Enterprise Architecture",
        "fr": "Conseiller technique, Architecture d'entreprise "
    },
    "modified": "2018-02-05 00:00:00.0",
    "issued": "2018-02-05 00:00:00.0",
    "type_name": "intra-intra/empl-empl",
    "node_id": "1279029955397",
    "layout_name": null,
    "dc_date_created": "2018-02-02",
    "breadcrumb_label": "",
    "meta": {
        "issued": {
            "en": "2018-02-05",
            "fr": "2018-02-05"
        },
        "modified": {
            "en": "2018-02-05",
            "fr": "2018-02-05"
        },
        "format": {
            "en": "gcformat",
            "fr": "gcformat"
        },
        "title": {
            "en": "Technical Advisor, Enterprise Architecture",
            "fr": "Conseiller technique, Architecture d'entreprise "
        },
        "subject": {
            "en": "staffing",
            "fr": "dotation en personnel"
        },
        "language": {
            "en": "eng",
            "fr": "fra"
        },
        "audience": {
            "en": "gcaudience",
            "fr": "gcaudience"
        },
        "type": {
            "en": "notice",
            "fr": "avis"
        },
        "creator": {
            "en": "Agriculture and Agri-Food Canada",
            "fr": "Agriculture et Agroalimentaire Canada"
        },
        "spatial": {
            "en": "gcregions",
            "fr": "gcregions"
        },
        "service": {
            "en": "AAFC_AgriSource",
            "fr": "AAC_AgriSource"
        },
        "accessRights": {
            "en": "3",
            "fr": "3"
        }
    },
    "body": {
        "en": "\n<p><strong>Duties</strong></p>\n<ul>\n<li>Participate in establishing the architectural direction for AAFC\u2019s application and application portfolio through leadership and execution of strategic transformational initiatives to improve AAFC\u2019s IM/IT delivery.</li>\n<li>Participate in governance forums to assess technology alignment to stated goals, and propose alternative technical paths as needed.</li>\n<li>Engage application delivery groups both within and outside of ISB to collaboratively establish and communicate application development/delivery best practices across the department.</li>\n<li>Research, evaluate and recommend technology solutions based on the latest technology trends, application capabilities and best practices.</li>\n<li>Provide subject matter expertise on application architectures to project teams, senior management or departmental committees, in the context of a specific application, with respect to that application\u2019s fit within AAFC and regarding AAFC\u2019s application portfolio</li>\n<li>Maintain and improve the information regarding AAFC\u2019s application portfolio</li>\n<li>Work with other enterprise groups (e.g. IM/IT Standards, Technical Architecture, IM/IT Supply Management) to develop and maintain departmental standards for application development and delivery.</li>\n<li>Drive creation of reference architectures and proofs-of-concept.</li>\n<li>Develop and maintain all relevant architecture documentation while working with other architects.</li>\n</ul>\n<p><strong>Statement of Merit Criteria &amp; Conditions of Employment</strong></p>\n<p><strong>Essential Qualifications</strong></p>\n<p>Education</p>\n<p>Successful completion of two years of an acceptable post-secondary educational program in computer science, information technology, information management or another specialty relevant to the position being staffed.</p>\n<p>NOTE: Indeterminate period incumbents of positions in the CS group on May 10, 1999, who do not possess the education prescribed above, are deemed to meet the minimum education standards based on their education, training and/or experience. They must be accepted as having met the minimum education standard whenever this standard is called for when staffing positions in the CS group.</p>\n<p>Experience(s)</p>\n<ul>\n<li>Significant and recent experience working in an Information Technology environment analyzing requirements and developing and delivering solutions and support</li>\n<li>Experience in leading an IM/IT project OR Playing a lead role in a key aspect of an IM/IT project or activity</li>\n<li>Experience in developing or delivering presentations and briefings</li>\n<li>Experience in working with multi-disciplinary teams building collaborative solutions to resolve client problems.</li>\n</ul>\n<p>Significant experience is defined as 2 years or more. Recent experience is defined as experience acquired within the last 3 years. Clear and specific examples must be provided by candidates in their application to demonstrate the duration and level of experience they are citing. Failure to do so will result in the rejection of the application.</p>\n<p>Knowledge(s)</p>\n<ul>\n<li>Knowledge of Government of Canada policies and guidelines related to IM/IT</li>\n<li>Knowledge of current and emerging trends in IM/IT</li>\n<li>Knowledge of project management principles and methodologies</li>\n</ul>\n<p>Competencies</p>\n<ul>\n<li><em>Adaptability:</em>\u00a0Adapting in order to work effectively under pressure in ambiguous or changing situations, and with diverse individuals and groups.</li>\n<li><em>Initiative:</em>\u00a0Dealing with situations and issues proactively and persistently, seizing opportunities that arise.</li>\n<li><em>Analytical Thinking:</em>\u00a0Analyzing and synthesizing information to understand issues, identify options, and support sound decision making.</li>\n<li><em>Client Focus:</em>\u00a0Providing service excellence to internal and/or external clients.</li>\n<li><em>Team Work:</em>\u00a0Working collaboratively with others to achieve organizational goals.</li>\n</ul>\n<p>Language Requirement(s)</p>\n<ul>\n<li>English Essential</li>\n</ul>\n<p><strong>Asset Qualifications</strong></p>\n<ul>\n<li>A\u00a0degree from a recognized university with acceptable specialization in computer science, information technology, information management or another speciality relevant to the position to be staffed.</li>\n<li>Experience in the development and writing of IM/IT architecture strategies, policies or standards.</li>\n<li>Experience in managing application development projects</li>\n<li>Recent experience in analysing and designing and programming computer applications. Experience in any of the following will be considered relevant: Microsoft .NET C#, J2EE, Cold Fusion, PL/SQL, Advanced Business Application Programming (ABAP) language.</li>\n<li>Knowledge of a System Development Lifecycle (SDLC)</li>\n<li>Knowledge of methodologies used in IT architecture (example: Zachman Framework for Enterprise Architecture, Object Oriented Design Methodologies)</li>\n<li>Knowledge of application development technologies and best practices</li>\n<li>Knowledge of current and emerging industry standard and application architectural trends (e.g. SOA, AJAX)</li>\n<li>Knowledge of application programming techniques, architectures best practices and standards including program and system documentation standards.</li>\n</ul>\n<p>Recent experience is defined as experience acquired within the last 3 years.</p>\n<p><strong>Organizational Needs</strong></p>\n<p>In support of achieving a diversified workforce, consideration may be given to candidates self-identifying as belonging to one of the following Employment Equity groups: Aboriginal peoples, Persons with a Disability; Visible Minorities, Women.</p>\n<p><strong>Conditions of Employment</strong></p>\n<p>Security Requirement(s)</p>\n<ul>\n<li>Secret</li>\n</ul>\n<p>Other conditions of employment: (i.e.: overtime and/or travel)</p>\n<ul>\n<li>Ability and willingness to work overtime</li>\n<li>Ability and willingness to travel</li>\n</ul>\n<p><strong>Applications</strong></p>\n<p>Interested AAFC employees are encouraged to forward their resume and cover letter to Stephen Massey (stephen.massey@agr.gc.ca)</p>\n<p>Resumes must clearly identify:</p>\n<ul>\n<li>Your tenure (e.g. term or indeterminate)</li>\n<li>Your substantive group and level</li>\n</ul>\n<p><strong>Notes</strong></p>\n<ul>\n<li>The Public Service of Canada is committed to developing inclusive, barrier-free selection and appointment processes and work environments. If contacted in relation to this process, please advise the organization's representative of your need for accommodation measures which must be taken to enable you to be assessed in a fair and equitable manner.</li>\n<li>Deployments cannot change the tenure of an employee (i.e: term to indeterminate) or constitute a promotion. </li>\n<li>Communication for this process will be sent via email.</li>\n</ul>\n<p>\u00a0</p>\n",
        "fr": "\n<p><strong>Fonctions</strong></p>\n<ul>\n<li>Participer \u00e0 l\u2019\u00e9tablissement de l\u2019orientation architecturale pour l\u2019application d\u2019AAC et le portefeuille de l\u2019application par la prise de mesures de leadership et l\u2019ex\u00e9cution d\u2019initiatives de transformation strat\u00e9gique en vue d\u2019am\u00e9liorer la prestation des services de GI/TI \u00e0 AAC.</li>\n<li>Participer \u00e0 des forums de gouvernance pour \u00e9valuer l\u2019harmonisation de la technologie avec les objectifs \u00e9nonc\u00e9s et proposer d\u2019autres cheminements techniques, au besoin.</li>\n<li>Obtenir la participation de groupes d\u2019utilisateurs des applications, au sein de la DGSI ou \u00e0 l\u2019ext\u00e9rieur, en vue de collaborer \u00e0 l\u2019\u00e9tablissement et \u00e0 la communication de pratiques exemplaires en mati\u00e8re de d\u00e9veloppement/d\u2019ex\u00e9cution d\u2019applications dans l\u2019ensemble du Minist\u00e8re.</li>\n<li>Effectuer des recherches, proc\u00e9der \u00e0 des \u00e9valuations et recommander des solutions technologiques en fonction des derni\u00e8res tendances \u00e0 cet \u00e9gard, des capacit\u00e9s des applications et des pratiques exemplaires.</li>\n<li>Fournir aux \u00e9quipes de projet, \u00e0 la haute direction ou aux comit\u00e9s minist\u00e9riels une expertise en ce qui a trait aux architectures des applications, dans le contexte d\u2019une application pr\u00e9cise, en tenant compte de la compatibilit\u00e9 de l\u2019application \u00e0 AAC et du portefeuille des applications d\u2019AAC.</li>\n<li>Maintenir et am\u00e9liorer l\u2019information relative au portefeuille des applications d\u2019AAC.</li>\n<li>Collaborer avec d\u2019autres groupes de l\u2019organisation (p. ex. normes relatives \u00e0 la GI/TI, architecture technique, gestion de la prestation des services en mati\u00e8re de TI/GI) en vue d\u2019\u00e9laborer et d\u2019assurer la mise \u00e0 jour des normes minist\u00e9rielles applicables \u00e0 l\u2019\u00e9laboration et \u00e0 l\u2019ex\u00e9cution des applications.</li>\n<li>Diriger la cr\u00e9ation d\u2019architectures de r\u00e9f\u00e9rence et la validation des concepts.</li>\n<li>\u00c9laborer et assurer la mise \u00e0 jour de tous les documents d\u2019architecture pertinents en collaboration avec d\u2019autres architectes.</li>\n</ul>\n<p><strong>\u00c9nonc\u00e9 des crit\u00e8res de m\u00e9rite et conditions d'emploi</strong></p>\n<p><strong>Qualit\u00e9s essentielles</strong></p>\n<p>\u00c9tudes</p>\n<p>Deux ann\u00e9es dans un programme d'\u00e9tudes postsecondaires acceptable en informatique, en technologie de l'information, en gestion de l'information ou dans un autre domaine de sp\u00e9cialisation li\u00e9 au poste \u00e0 doter.</p>\n<p>REMARQUE : Les candidats qui ne poss\u00e8dent pas le niveau d\u2019\u00e9tudes pr\u00e9cit\u00e9, mais qui, au 10 mai 1999, occupaient un poste de dur\u00e9e ind\u00e9termin\u00e9e du groupe CS, sont r\u00e9put\u00e9s satisfaire \u00e0 la norme minimale de scolarit\u00e9 en raison de leurs \u00e9tudes, de leur formation et/ou de leur exp\u00e9rience. On doit donc consid\u00e9rer qu\u2019ils satisfont aux exigences minimales en mati\u00e8re d\u2019\u00e9tudes chaque fois qu\u2019on y fait r\u00e9f\u00e9rence pour la dotation au sein du groupe CS.</p>\n<p>Exp\u00e9rience</p>\n<ul>\n<li>Exp\u00e9rience appr\u00e9ciable r\u00e9cemment acquise dans un milieu de technologie de l'information, plus particuli\u00e8rement dans un environnement d'analyse des besoins ainsi que d'\u00e9laboration et de mise en application de solutions et de mesures de soutien.</li>\n<li>Exp\u00e9rience de la direction d'un projet de GI-TI OU d\u00e9monstration de l'exercice d'un r\u00f4le principal dans un aspect cl\u00e9 d'un projet ou d'une activit\u00e9 de GI/TI.</li>\n<li>Exp\u00e9rience de la pr\u00e9paration et/ou de la pr\u00e9sentation d'expos\u00e9s et de s\u00e9ances d'information.</li>\n<li>Exp\u00e9rience de la collaboration avec des \u00e9quipes multidisciplinaires aux fins de la d\u00e9finition de solutions concert\u00e9es aux probl\u00e8mes des clients.</li>\n</ul>\n<p>On entend par \u00ab exp\u00e9rience appr\u00e9ciable \u00bb une exp\u00e9rience d\u2019au moins deux ans. Par \u00ab exp\u00e9rience r\u00e9cente \u00bb, on entend une exp\u00e9rience acquise au cours des trois derni\u00e8res ann\u00e9es. Dans leur demande, les candidats doivent fournir des exemples clairs et pr\u00e9cis qui permettent de v\u00e9rifier la dur\u00e9e et le niveau de l'exp\u00e9rience dont il est question. Le d\u00e9faut de satisfaire \u00e0 cette exigence entra\u00eenera le rejet de la candidature.</p>\n<p>Connaissances</p>\n<ul>\n<li>Connaissance des politiques et des lignes directrices du gouvernement du Canada en mati\u00e8re de GI/TI.</li>\n<li>Connaissance des tendances actuelles et nouvelles en mati\u00e8re de GI/TI.</li>\n<li>Connaissance des principes et des m\u00e9thodologies applicables \u00e0 la gestion de projet.</li>\n</ul>\n<p>Comp\u00e9tences</p>\n<ul>\n<li><i>Capacit\u00e9 d\u2019adaptation:</i>\u00a0Savoir s\u2019adapter de fa\u00e7on \u00e0 bien travailler sous pression dans des situations ambig\u00fces ou changeantes de m\u00eame qu\u2019avec diff\u00e9rentes personnes et diff\u00e9rents groupes.</li>\n<li><i>Esprit d\u2019initiative:</i> G\u00e9rer les situations et les probl\u00e8mes de fa\u00e7on proactive en faisant preuve de constance, et saisir les occasions qui se pr\u00e9sentent.</li>\n<li><i>Raisonnement analytique:</i> Analyse et synth\u00e8se de l\u2019information afin de comprendre les enjeux, de d\u00e9terminer des options et d\u2019appuyer la prise de d\u00e9cisions judicieuses.</li>\n<li><i>Souci du client:</i> Assurer l\u2019excellence du service aux clients internes et/ou externes.</li>\n<li><i>Esprit d'\u00e9quipe:</i> Collaborer avec d'autres personnes en vue d'atteindre des objectifs organisationnels.</li>\n</ul>\n<p>Exigences linguistiques</p>\n<ul>\n<li>Anglais essentiel</li>\n</ul>\n<p><strong>Qualifications constituant un atout</strong></p>\n<ul>\n<li>Un grade d'un \u00e9stablissement d'enseignement postsecondaire reconnu avec\u00a0acceptable en informatique, en technologie de l'information, en gestion de l'information ou dans un autre domaine de sp\u00e9cialisation li\u00e9 aux fonctions du poste \u00e0 doter.</li>\n<li>Exp\u00e9rience de l'\u00e9laboration et de la r\u00e9daction de strat\u00e9gies, de politiques ou de normes li\u00e9es \u00e0 l'architecture de la GI/TI.</li>\n<li>Exp\u00e9rience de la gestion de projets de d\u00e9veloppement d'applications.</li>\n<li>Exp\u00e9rience r\u00e9cente de l'analyse, de la conception et de la programmation d'applications informatiques. Une exp\u00e9rience de l\u2019utilisation des \u00e9l\u00e9ments suivants sera consid\u00e9r\u00e9e pertinente : Microsoft .NET C#, J2EE, Cold Fusion, PL/SQL, le langage ABAP (programmation avanc\u00e9e des applications administratives).</li>\n<li>Connaissance d'un cycle de d\u00e9veloppement de syst\u00e8mes.</li>\n<li>Connaissance des m\u00e9thodologies utilis\u00e9es en architecture de la TI (p. ex. cadre de Zachman, m\u00e9thodologies de conception orient\u00e9e objet).</li>\n<li>Connaissance des technologies de d\u00e9veloppement d'applications et des pratiques exemplaires connexes.</li>\n<li>Connaissance de la norme de l'industrie et des tendances en mati\u00e8re d'architecture d'application actuelles et nouvelles (p. ex. l'architecture ax\u00e9e sur les services (AAS) et AJAX).</li>\n<li>Connaissance des techniques de programmation des applications, des pratiques exemplaires et des normes en mati\u00e8re d'architecture, notamment des normes de documentation des programmes et des syst\u00e8mes.</li>\n</ul>\n<p>Par \u00ab exp\u00e9rience r\u00e9cente \u00bb, on entend une exp\u00e9rience acquise au cours des trois derni\u00e8res ann\u00e9es.</p>\n<p><strong>Besoins organisationnels</strong></p>\n<p>Pour les besoins de la diversification de l\u2019effectif, une attention particuli\u00e8re pourrait \u00eatre accord\u00e9e aux candidats qui auront indiqu\u00e9 leur appartenance \u00e0 l\u2019un des groupes suivants vis\u00e9s par l\u2019\u00e9quit\u00e9 en mati\u00e8re d\u2019emploi : Autochtones, personnes handicap\u00e9es, membres d\u2019une minorit\u00e9 visible, femmes.</p>\n<p><strong>Conditions d\u2019emploi</strong></p>\n<p>Exigences relatives \u00e0 la s\u00e9curit\u00e9</p>\n<ul>\n<li>Fiabilit\u00e9 approfondie</li>\n</ul>\n<p>Autres conditions d\u2019emploi : (c.-\u00e0-d. heures suppl\u00e9mentaires et/ou voyages)</p>\n<ul>\n<li>Consentir \u00e0 faire des heures suppl\u00e9mentaires et \u00eatre en mesure de le faire.</li>\n<li>Consentir \u00e0 voyager et \u00eatre en mesure de le faire.</li>\n</ul>\n<p><strong>Demande d\u2019emploi</strong></p>\n<p>On invite les employ\u00e9s d'AAC \u00e0 envoyer leur curriculum vitae ainsi qu'une lettre de pr\u00e9sentation \u00e0 Stephen Massey (stephen.massey@agr.gc.ca)</p>\n<p>Dans leur curriculum vitae, les candidats doivent clairement indiquer :</p>\n<ul>\n<li>le type de poste occup\u00e9 (p. ex. dur\u00e9e d\u00e9termin\u00e9e ou ind\u00e9termin\u00e9e);</li>\n<li>leur groupe et niveau de titularisation.</li>\n</ul>\n<p><strong>Remarques</strong></p>\n<ul>\n<li>La fonction publique du Canada s\u2019engage \u00e0 instaurer des processus de s\u00e9lection et de nomination ainsi qu\u2019un milieu de travail inclusifs et exempts d\u2019obstacles. Si l\u2019on communique avec vous au sujet du pr\u00e9sent processus et que des mesures d\u2019adaptation doivent \u00eatre prises pour que vous puissiez \u00eatre \u00e9valu\u00e9 de mani\u00e8re juste et \u00e9quitable, veuillez en informer le repr\u00e9sentant de l\u2019organisation.</li>\n<li>Les mutations ne doivent pas entra\u00eener de modification \u00e0 la dur\u00e9e d\u2019emploi d\u2019un employ\u00e9 (d\u00e9termin\u00e9e ou ind\u00e9termin\u00e9e) ni constituer une promotion. </li>\n<li>Les communications relatives au pr\u00e9sent processus se feront par courriel.</li>\n</ul>\n<p>\u00a0</p>\n\n"
    },
    "breadcrumb": {
        "en": "Technical Advisor, Enterprise Architecture",
        "fr": "Conseiller technique, Architecture d'entreprise"
    },
    "empl": {
        "type": {
            "en": "Assignment, Acting",
            "fr": "Affectation, Int\u00e9rimaire"
        },
        "classification": {
            "en": "CS-3",
            "fr": "CS-3"
        },
        "branch": {
            "en": "Information Systems Branch",
            "fr": "Direction g\u00e9n\u00e9rale des syst\u00e8mes d'information"
        },
        "locations": {
            "en": "All AAFC locations",
            "fr": "Tous les sites d'AAC"
        },
        "date_closing": {
            "en": "2018-02-08",
            "fr": "2018-02-08"
        },
        "open_to": {
            "en": "All AAFC Employees",
            "fr": "Tous les employ\u00e9s d'AAC"
        },
        "name": {
            "en": "Stephen Massey",
            "fr": "Stephen Massey"
        },
        "email": {
            "en": "stephen.massey@agr.gc.ca",
            "fr": "stephen.massey@agr.gc.ca"
        }
    }
}