{
    "dcr_id": "1518017989280",
    "lang": "en",
    "title": {
        "en": "Policy Analyst",
        "fr": "Analyste des politiques"
    },
    "modified": "2018-02-09 00:00:00.0",
    "issued": "2018-02-09 00:00:00.0",
    "type_name": "intra-intra/empl-empl",
    "node_id": "1279029955397",
    "layout_name": null,
    "dc_date_created": "2018-02-08",
    "breadcrumb_label": "",
    "meta": {
        "issued": {
            "en": "2018-02-09",
            "fr": "2018-02-09"
        },
        "modified": {
            "en": "2018-02-09",
            "fr": "2018-02-09"
        },
        "format": {
            "en": "gcformat",
            "fr": "gcformat"
        },
        "title": {
            "en": "Policy Analyst",
            "fr": "Analyste des politiques"
        },
        "subject": {
            "en": "staffing",
            "fr": "dotation en personnel"
        },
        "language": {
            "en": "eng",
            "fr": "fra"
        },
        "audience": {
            "en": "gcaudience",
            "fr": "gcaudience"
        },
        "type": {
            "en": "notice",
            "fr": "avis"
        },
        "creator": {
            "en": "Agriculture and Agri-Food Canada",
            "fr": "Agriculture et Agroalimentaire Canada"
        },
        "spatial": {
            "en": "gcregions",
            "fr": "gcregions"
        },
        "service": {
            "en": "AAFC_AgriSource",
            "fr": "AAC_AgriSource"
        },
        "accessRights": {
            "en": "3",
            "fr": "3"
        }
    },
    "body": {
        "en": "\n<p>Do you want to help support the Agri-Food Economic Strategy Table in charting out what is needed to bolster growth in the sector? Do you want to help expand the range of stakeholders that AAFC engages with? If so, we have an opportunity for you!</p>\n<p>We\u2019re currently looking for an ECDP participant at the EC-02, EC-03 or EC-04 level to join our Division for 6- to 12-month rotational assignment. The Division supports industry engagement efforts and is the lead in AAFC in supporting the <a href=\"http://www.ic.gc.ca/eic/site/098.nsf/eng/home\">Agri-Food Economic Strategy Table</a>, which is a key forum for helping to bolster economic growth in the sector over the next decade. Under the Canadian Agricultural Partnership, we have also been tasked with reaching out to new stakeholders to better inform our policies and programs.</p>\n<p>As a Policy Analyst within our Division, you will:</p>\n<ul>\n<li>Support the development of materials for the Agri-Food Economic Strategy Table, a central plank of the Government of Canada\u2019s innovation and economic agenda;</li>\n<li>Help the Department engage with a greater range of stakeholders, particularly those who are underrepresented in the sector, building off of the Value Chain Roundtable (VCRT) model; and</li>\n<li>Support a revisioning of the Department\u2019s engagement approach with industry.</li>\n</ul>\n<p>Candidates should have strong analytical, communication and writing skills, as well as good judgement and initiative.</p>\n<p>Candidates should be willing to work overtime occasionally. Position is English Essential and requires Reliability Status.</p>\n<p>Interested? Send your resume and a cover letter (maximum 250 words) explaining why you are interested in this opportunity and why you are qualified to <a href=\"mailto:michael.ash@agr.gc.ca\">Michael Ash</a> before the deadline. In your cover letter, please also indicate your current position and level.</p>\n",
        "fr": "\n<p>Souhaitez-vous aider la Table de la strat\u00e9gie \u00e9conomique de l\u2019agroalimentaire \u00e0 d\u00e9crire les \u00e9l\u00e9ments n\u00e9cessaires pour stimuler la croissance dans le secteur? Voulez-vous contribuer \u00e0 l\u2019\u00e9largissement du groupe d\u2019intervenants avec lequel AAC collabore? Si c\u2019est le cas, voici votre chance!</p>\n<p>Nous sommes actuellement \u00e0 la recherche d\u2019un participant au PPEC de groupe et niveau EC-02, EC-03 ou EC-04, qui souhaiterait int\u00e9grer notre Division pour une affectation par rotation de 6 \u00e0 12 mois. La Division appuie les efforts de mobilisation de l\u2019industrie et est responsable, \u00e0 AAC, du soutien \u00e0 la <a href=\"http://www.ic.gc.ca/eic/site/098.nsf/fra/accueil\">Table de la strat\u00e9gie \u00e9conomique agroalimentaire</a>, qui est le forum par excellence pour stimuler la croissance \u00e9conomique du secteur au cours de la prochaine d\u00e9cennie. Dans le cadre du Partenariat canadien pour l\u2019agriculture, on nous a \u00e9galement demand\u00e9 d\u2019\u00e9tablir des contacts avec de nouveaux intervenants afin de mieux orienter nos politiques et nos programmes.</p>\n<p>En tant qu\u2019analyste des politiques de notre Division, vous serez appel\u00e9 \u00e0 faire ce qui suit :</p>\n<ul>\n<li>Participer \u00e0 la pr\u00e9paration de documents pour la Table de la strat\u00e9gie \u00e9conomique de l\u2019agroalimentaire, qui est au c\u0153ur du programme du gouvernement du Canada en mati\u00e8re d\u2019innovation et d\u2019\u00e9conomie;</li>\n<li>Aider le Minist\u00e8re \u00e0 nouer le dialogue avec un plus large \u00e9ventail d\u2019intervenants, en particulier ceux qui sont sous-repr\u00e9sent\u00e9s dans le secteur, en s\u2019appuyant sur le mod\u00e8le des tables rondes sur les cha\u00eenes de valeur;</li>\n<li>Appuyer une r\u00e9vision de la strat\u00e9gie de mobilisation du Minist\u00e8re avec l\u2019industrie.</li>\n</ul>\n<p>Les candidats doivent poss\u00e9der de solides comp\u00e9tences en analyse, en communication et en r\u00e9daction, en plus de faire preuve de jugement et d\u2019esprit d\u2019initiative.</p>\n<p>Les candidats doivent consentir \u00e0 faire des heures suppl\u00e9mentaires \u00e0 l\u2019occasion. Le poste exige une cote de fiabilit\u00e9 ainsi que la ma\u00eetrise de l\u2019anglais.</p>\n<p>Cela vous int\u00e9resse? Envoyez votre curriculum vit\u00e6 et une lettre de pr\u00e9sentation (maximum 250 mots) \u00e0 <a href=\"mailto:michael.ash@agr.gc.ca\">Michael Ash</a>, avant l\u2019\u00e9ch\u00e9ance. Dans la lettre de pr\u00e9sentation, vous devez indiquer pourquoi cette occasion vous int\u00e9resse et en quoi vous \u00eates qualifi\u00e9 pour le poste, en plus de pr\u00e9ciser vos poste et niveau actuels.</p>\n"
    },
    "breadcrumb": {
        "en": "Policy Analyst",
        "fr": "Analyste des politiques"
    },
    "empl": {
        "type": {
            "en": "Assignment",
            "fr": "Affectation"
        },
        "classification": {
            "en": "EC-2, EC-3, EC-4",
            "fr": "EC-2, EC-3, EC-4"
        },
        "branch": {
            "en": "Market and Industry Services Branch",
            "fr": "Direction g\u00e9n\u00e9rale des services \u00e0 l'industrie et aux march\u00e9s"
        },
        "locations": {
            "en": "NCR",
            "fr": "RCN"
        },
        "date_closing": {
            "en": "2018-02-16",
            "fr": "2018-02-16"
        },
        "open_to": {
            "en": "Participants of the EC Development Program at the EC-02/03/04 level(s) working in the National Capita",
            "fr": "Employ\u00e9s du groupe et niveau EC-02, EC-03 ou EC-04 participant au Programme de perfectionnement des EC (PPEC),"
        },
        "name": {
            "en": "Michael Ash",
            "fr": "Michael Ash"
        },
        "email": {
            "en": "michael.ash@agr.gc.ca",
            "fr": "michael.ash@agr.gc.ca"
        }
    }
}