{
    "dcr_id": "1518447201557",
    "lang": "en",
    "title": {
        "en": "Programmer Analyst",
        "fr": "Analyste Programmeur"
    },
    "modified": "2018-02-14 00:00:00.0",
    "issued": "2018-02-14 00:00:00.0",
    "type_name": "intra-intra/empl-empl",
    "node_id": "1279029955397",
    "layout_name": null,
    "dc_date_created": "2018-02-12",
    "breadcrumb_label": "",
    "meta": {
        "issued": {
            "en": "2018-02-14",
            "fr": "2018-02-14"
        },
        "modified": {
            "en": "2018-02-14",
            "fr": "2018-02-14"
        },
        "format": {
            "en": "gcformat",
            "fr": "gcformat"
        },
        "title": {
            "en": "Programmer Analyst",
            "fr": "Analyste Programmeur"
        },
        "subject": {
            "en": "staffing",
            "fr": "dotation en personnel"
        },
        "language": {
            "en": "eng",
            "fr": "fra"
        },
        "audience": {
            "en": "gcaudience",
            "fr": "gcaudience"
        },
        "type": {
            "en": "notice",
            "fr": "avis"
        },
        "creator": {
            "en": "Agriculture and Agri-Food Canada",
            "fr": "Agriculture et Agroalimentaire Canada"
        },
        "spatial": {
            "en": "gcregions",
            "fr": "gcregions"
        },
        "service": {
            "en": "AAFC_AgriSource",
            "fr": "AAC_AgriSource"
        },
        "accessRights": {
            "en": "3",
            "fr": "3"
        }
    },
    "body": {
        "en": "\n<p>Knowledge Workspace Team in ISB is looking for people who is interested in a CS 02 deployment opportunity and/or a CS-02 assignment opportunity with the possibility of an extension.</p>\n<p>As a programmer analyst, you will be working with other team members to:</p>\n<ul>\n<li>Support Knowledge Workspace environments (SharePoint and Skype for Business).</li>\n<li>Maintain and administer SharePoint including creating sites, managing accounts and configuration changes.</li>\n<li>Provide input and guidance to the Learning and Collaboration Services Team.</li>\n<li>Analyse, track, verify, and respond to client requests.</li>\n</ul>\n<p>Key qualifications</p>\n<ul>\n<li>Successful completion of two years of an <a href=\"https://www.canada.ca/en/treasury-board-secretariat/services/staffing/qualification-standards/core.html#acce\">acceptable</a> post-secondary educational program, or a bachelor\u2019s degree from a recognized post-secondary institution, with specialization in Computer Sciences, Computer Engineering or any other field related to the position.</li>\n<li>Experience determining client requirements and providing required services to address them.</li>\n<li>Experience in SharePoint configurations and support.</li>\n<li>Have strong analytical skills.</li>\n<li>A good team player.</li>\n<li>Takes initiative.</li>\n<li>Client service resolving IT problems.</li>\n</ul>\n<p>Please send your resume and a cover letter (no more than a page long) explaining why you are interested in this opportunity to Cindy Chen (<a href=\"mailto:Cindy.Chen@canada.ca\">Cindy.Chen@canada.ca</a>) before the deadline.</p>\n",
        "fr": "\n<p>L\u2019\u00e9quipe de l\u2019Espace de travail du savoir de la DGSI est \u00e0 la recherche de personnes int\u00e9ress\u00e9es par une possibilit\u00e9 de mutation \u00e0 un poste de CS-02 et/ou par une possibilit\u00e9 d\u2019affectation \u00e0 un poste de CS-02 avec possibilit\u00e9 de prolongation.</p>\n<p>\u00c0 titre d\u2019analyste-programmeur, vous travaillerez avec d\u2019autres membres de l\u2019\u00e9quipe \u00e0 la r\u00e9alisation des t\u00e2ches suivantes :</p>\n<ul>\n<li>Soutenir les environnements de l\u2019Espace de travail du savoir (SharePoint et Skype Entreprise).</li>\n<li>Tenir \u00e0 jour et administrer SharePoint, p. ex. cr\u00e9er des sites, g\u00e9rer des comptes et faire des changements de configuration.</li>\n<li>Formuler des commentaires et fournir une orientation \u00e0 l\u2019\u00e9quipe du Service de formation et de collaboration.</li>\n<li>Analyser et v\u00e9rifier les demandes des clients, en faire le suivi et y r\u00e9pondre.</li>\n</ul>\n<p>Principales qualifications</p>\n<ul>\n<li>R\u00e9ussite de deux ann\u00e9es d\u2019un programme acceptable d\u2019\u00e9tudes postsecondaires, ou baccalaur\u00e9at d\u2019un \u00e9tablissement d\u2019enseignement postsecondaire reconnu, avec sp\u00e9cialisation en informatique, en g\u00e9nie informatique ou dans un autre domaine li\u00e9 au poste.</li>\n<li>Exp\u00e9rience de la d\u00e9termination des besoins des clients et de la prestation des services requis pour y r\u00e9pondre.</li>\n<li>Exp\u00e9rience de la configuration et du soutien de SharePoint.</li>\n<li>Avoir de solides comp\u00e9tences en analyse.</li>\n<li>Avoir un bon esprit d\u2019\u00e9quipe.</li>\n<li>Savoir prendre des initiatives.</li>\n<li>Savoir offrir des services \u00e0 la client\u00e8le pour r\u00e9soudre des probl\u00e8mes\u00a0 informatiques.</li>\n</ul>\n<p>Veuillez envoyer votre curriculum vitae et une lettre de pr\u00e9sentation (pas plus d\u2019une page) dans laquelle vous expliquez les raisons de votre int\u00e9r\u00eat \u00e0 Cindy Chen (<a href=\"mailto:Cindy.Chen@canada.ca\">Cindy.Chen@canada.ca</a>) avant la date limite.</p>\n\n"
    },
    "breadcrumb": {
        "en": "Programmer Analyst",
        "fr": "Analyste Programmeur"
    },
    "empl": {
        "type": {
            "en": "Assignment, Deployment, Acting",
            "fr": "Affectation, Mutation, Int\u00e9rimaire"
        },
        "classification": {
            "en": "CS-2",
            "fr": "CS-2"
        },
        "branch": {
            "en": "Information Systems Branch",
            "fr": "Direction g\u00e9n\u00e9rale des syst\u00e8mes d'information"
        },
        "locations": {
            "en": "NCR",
            "fr": "RCN"
        },
        "date_closing": {
            "en": "2018-02-20",
            "fr": "2018-02-20"
        },
        "open_to": {
            "en": "All AAFC Employees",
            "fr": "Tous les employ\u00e9s d'AAC"
        },
        "name": {
            "en": "Cindy Chen",
            "fr": "Cindy Chen"
        },
        "email": {
            "en": "Cindy.Chen@canada.ca",
            "fr": "Cindy.Chen@canada.ca"
        }
    }
}