{
    "dcr_id": "1520361507596",
    "lang": "en",
    "title": {
        "en": "Analyst ",
        "fr": "Analyste"
    },
    "modified": "2018-03-21 00:00:00.0",
    "issued": "2018-03-15 00:00:00.0",
    "type_name": "intra-intra/empl-empl",
    "node_id": "1279029955397",
    "layout_name": null,
    "dc_date_created": "2018-03-15",
    "breadcrumb_label": "",
    "meta": {
        "issued": {
            "en": "2018-03-15",
            "fr": "2018-03-15"
        },
        "modified": {
            "en": "2018-03-21",
            "fr": "2018-03-21"
        },
        "format": {
            "en": "gcformat",
            "fr": "gcformat"
        },
        "title": {
            "en": "Analyst ",
            "fr": "Analyste"
        },
        "subject": {
            "en": "staffing",
            "fr": "dotation en personnel"
        },
        "language": {
            "en": "eng",
            "fr": "fra"
        },
        "audience": {
            "en": "gcaudience",
            "fr": "gcaudience"
        },
        "type": {
            "en": "notice",
            "fr": "avis"
        },
        "creator": {
            "en": "Agriculture and Agri-Food Canada",
            "fr": "Agriculture et Agroalimentaire Canada"
        },
        "spatial": {
            "en": "gcregions",
            "fr": "gcregions"
        },
        "service": {
            "en": "AAFC_AgriSource",
            "fr": "AAC_AgriSource"
        },
        "accessRights": {
            "en": "3",
            "fr": "3"
        }
    },
    "body": {
        "en": "\n<p>Employees of Agriculture and Agri-Food Canada at the EC-02, EC-03, or EC-04 level are invited to express interest in an assignment opportunity in Systems and Data Unit in the Innovation Programs Directorate (IPD), Programs Branch. The anticipated period of the assignment is between 6 and 12 months with the possibility of an extension.</p>\n<p>IPD has recently launched several programs (AgriInnovate &amp; AgriScience) under the Canadian Agricultural Partnership (CAP) and has been working to expand the data and analytical capacity to support these programs. Further, IPD has also been working to enhance our overall systems approach to developing and managing this data. To support this ongoing work, SDU is looking for a junior analyst who has an interest in both developing and analysing data to support the successful deployment of these new programs.</p>\n<p>As an Analyst on our team, you will:</p>\n<ul>\n<li>\n<p>Undertake analyses to support decision-making related to innovation programming;</p>\n</li>\n<li>\n<p>Prepare briefing materials and presentations for Senior Management;</p>\n</li>\n<li>\n<p>Work with partners in the Branch and Department to enhance the data and analytical capacity of the unit;</p>\n</li>\n<li>\n<p>Have the opportunity to contribute to the improvement of existing systems and development of new ones, and;</p>\n</li>\n<li>Develop core EC competencies and an understanding of how AAFC\u2019s programs work</li>\n</ul>\n<p>Candidates should have strong analytical, oral and written communication\u00a0skills as well as possess the competency of\u00a0initiative.</p>\n<p><br>\n<strong>Applications</strong></p>\n<p>Interested AAFC employees located in the NCR are encouraged to forward their cover letter (2 pages maximum) demonstrating how they meet each experience as well as their resume to Ryan McCullough by 23:59 pacific time, March 22, 2018.</p>\n<p>Resumes must clearly identify:</p>\n<ul>\n<li>Your tenure (e.g. term or indeterminate)</li>\n<li>Your substantive group and level</li>\n</ul>\n<p><br>\n<strong>Notes</strong></p>\n<ul>\n<li>This is a 6 to 12 month assignment opportunity starting mid-April 2018 with the possibility of an extension.</li>\n<li>Candidates should be willing and able to work overtime occasionally.</li>\n<li>Candidates must have their manager\u2019s approval prior to applying for this opportunity.</li>\n<li>Communication for this process will be sent via email.</li>\n<li>A pool of qualified candidates may be established and may be used to staff similar positions on an assignment or acting basis.</li>\n<li>Your cover letter may be used to assess your communication and writing skills.</li>\n<li>Candidates may be assessed through an interview.</li>\n<li>Reference checks may be sought.<br>\n\t<br>\n\t\u00a0</li>\n</ul>\n",
        "fr": "\n<p>Les employ\u00e9s d\u2019Agriculture et Agroalimentaire Canada qui occupent un poste EC-02, EC-03 ou EC-04 sont invit\u00e9s \u00e0 faire part de leur int\u00e9r\u00eat pour une possibilit\u00e9 d\u2019affectation \u00e0 l\u2019Unit\u00e9 des syst\u00e8mes et des donn\u00e9es (USD) de la Direction des programmes d\u2019innovation (DPI), Direction g\u00e9n\u00e9rale des programmes. La p\u00e9riode pr\u00e9vue de l\u2019affectation est de 6 \u00e0 12 mois avec possibilit\u00e9 de prolongation.</p>\n<p>La DPI a lanc\u00e9 r\u00e9cemment plusieurs programmes (Agri-innover et Agri-science) dans le cadre du Partenariat canadien pour l\u2019agriculture (PCA) et elle cherche \u00e0 accro\u00eetre sa capacit\u00e9 en mati\u00e8re de donn\u00e9es et d\u2019analyses pour appuyer ces programmes. En outre, la DPI travaille \u00e0 am\u00e9liorer son approche syst\u00e9mique globale pour \u00e9laborer et g\u00e9rer ces donn\u00e9es. L\u2019USD veut recruter un analyste subalterne int\u00e9ress\u00e9 \u00e0 \u00e9laborer et \u00e0 analyser des donn\u00e9es pour appuyer la mise en oeuvre des nouveaux programmes.</p>\n<p>En tant qu\u2019analyste au sein de notre \u00e9quipe, vous :</p>\n<ul>\n<li>\n<p>entreprendrez des analyses pour appuyer la prise de d\u00e9cisions concernant les programmes d\u2019innovation;</p>\n</li>\n<li>\n<p>pr\u00e9parerez des documents d\u2019information et des pr\u00e9sentations pour les cadres sup\u00e9rieurs;</p>\n</li>\n<li>\n<p>travaillerez avec des partenaires de la Direction g\u00e9n\u00e9rale et du Minist\u00e8re pour am\u00e9liorer la capacit\u00e9 en mati\u00e8re de donn\u00e9es et d\u2019analyses de l\u2019USD;</p>\n</li>\n<li>\n<p>aurez l\u2019occasion de contribuer \u00e0 l\u2019am\u00e9lioration des syst\u00e8mes existants et au d\u00e9veloppement de nouveaux syst\u00e8mes;</p>\n</li>\n<li>\n<p>acquerrez les comp\u00e9tences de base des EC et apprendrez comment fonctionnent les programmes d\u2019AAC.</p>\n</li>\n</ul>\n<p>\u00a0</p>\n<p>Les candidats doivent poss\u00e9der de solides comp\u00e9tences analytiques, en communication orale, en r\u00e9daction et poss\u00e9der la comp\u00e9tence d\u00ecnitiative.</p>\n<ul>\n</ul>\n<p><br>\n<strong>Demandes</strong></p>\n<p>Les employ\u00e9s d\u2019AAC dans la RCN qui sont int\u00e9ress\u00e9s sont pri\u00e9s d\u2019envoyer leur curriculum vitae et une lettre de pr\u00e9sentation expliquant en quoi ils satisfont \u00e0 chaque crit\u00e8re d\u2019exp\u00e9rience \u00e0 Ryan McCullough d\u2019ici le\u00a022 mars 2018 \u00e0 23 h 59 (heure du Pacifique).</p>\n<p>Dans leur curriculum vitae, les candidats doivent indiquer clairement :</p>\n<ul>\n<li>leur p\u00e9riode d\u2019affectation (p. ex. dur\u00e9e d\u00e9termin\u00e9e ou ind\u00e9termin\u00e9e);</li>\n<li>le groupe et le niveau de leur poste d\u2019attache.</li>\n</ul>\n<p><br>\n<strong>Remarques</strong></p>\n<ul>\n<li>Il s\u2019agit d\u2019une possibilit\u00e9 d\u2019affectation pour une p\u00e9riode de 6 \u00e0 12 mois \u00e0 compter du mi-avril 2018 avec possibilit\u00e9 de prolongation.</li>\n<li>Les candidats doivent \u00eatre aptes et dispos\u00e9s \u00e0 faire des heures suppl\u00e9mentaires \u00e0 l\u2019occasion.</li>\n<li>Les candidats doivent obtenir l\u2019approbation de leur gestionnaire avant de poser leur candidature pour cette possibilit\u00e9 d\u2019emploi.</li>\n<li>Les communications relatives \u00e0 ce processus se feront par courriel.</li>\n<li>Un bassin de candidats qualifi\u00e9s pourra \u00eatre cr\u00e9\u00e9 et utilis\u00e9 pour doter des postes semblables au moyen d\u2019affectations ou de nominations int\u00e9rimaires.</li>\n<li>Votre lettre de pr\u00e9sentation pourra \u00eatre utilis\u00e9e pour \u00e9valuer vos aptitudes en communication et en r\u00e9daction.</li>\n<li>Les candidats pourront \u00eatre \u00e9valu\u00e9s au moyen d\u2019une entrevue.</li>\n<li>Une v\u00e9rification des r\u00e9f\u00e9rences pourra \u00eatre effectu\u00e9e.<br>\n\t<br>\n\t\u00a0</li>\n</ul>\n\n"
    },
    "breadcrumb": {
        "en": "Analyst",
        "fr": "Analyste"
    },
    "empl": {
        "type": {
            "en": "Assignment",
            "fr": "Affectation"
        },
        "classification": {
            "en": "EC-2, EC-3, EC-4",
            "fr": "EC-2, EC-3, EC-4"
        },
        "branch": {
            "en": "Programs Branch",
            "fr": "Direction g\u00e9n\u00e9rale des programmes"
        },
        "locations": {
            "en": "Ottawa, Ontario (NCR)",
            "fr": "Ottawa, Ontario (RCN)"
        },
        "date_closing": {
            "en": "2018-03-29",
            "fr": "2018-03-29"
        },
        "open_to": {
            "en": "ECDP Participants at the EC-02, EC-03 or EC-04 level within the NCR",
            "fr": "Tous les employ\u00e9s d\u2019AAC dans la RCN (occupent un poste EC-02, EC-03 ou EC-04 )"
        },
        "name": {
            "en": "Ryan McCullough",
            "fr": "Ryan McCullough"
        },
        "email": {
            "en": "ryan.mccullough@agr.gc.ca",
            "fr": "ryan.mccullough@agr.gc.ca"
        }
    }
}