{
    "dcr_id": "1523387037541",
    "lang": "en",
    "title": {
        "en": "Senior Science Policy Advisor",
        "fr": "Conseiller principal/conseill\u00e8re principale en politique scientifique"
    },
    "modified": "2018-04-20 00:00:00.0",
    "issued": "2018-04-11 00:00:00.0",
    "type_name": "intra-intra/empl-empl",
    "node_id": "1279029955397",
    "layout_name": null,
    "dc_date_created": "2018-04-11",
    "breadcrumb_label": "",
    "meta": {
        "issued": {
            "en": "2018-04-11",
            "fr": "2018-04-11"
        },
        "modified": {
            "en": "2018-04-20",
            "fr": "2018-04-20"
        },
        "format": {
            "en": "gcformat",
            "fr": "gcformat"
        },
        "title": {
            "en": "Senior Science Policy Advisor",
            "fr": "Conseiller principal/conseill\u00e8re principale en politique scientifique"
        },
        "subject": {
            "en": "staffing",
            "fr": "dotation en personnel"
        },
        "language": {
            "en": "eng",
            "fr": "fra"
        },
        "audience": {
            "en": "gcaudience",
            "fr": "gcaudience"
        },
        "type": {
            "en": "notice",
            "fr": "avis"
        },
        "creator": {
            "en": "Agriculture and Agri-Food Canada",
            "fr": "Agriculture et Agroalimentaire Canada"
        },
        "spatial": {
            "en": "gcregions",
            "fr": "gcregions"
        },
        "service": {
            "en": "AAFC_AgriSource",
            "fr": "AAC_AgriSource"
        },
        "accessRights": {
            "en": "3",
            "fr": "3"
        }
    },
    "body": {
        "en": "\n<p><strong>Description: </strong></p>\n<p>Are you looking for a new challenge? Are you interested in learning about the other organizations in Agriculture and Agri-Food Canada? If so, we have a great opportunity for you.</p>\n<p>The office of the Director General for the Ontario-Quebec Region is looking for a motivated employee interested in a one-year ASSIGNMENT opportunity at the EC-06 level (or equivalent) to take on the duties of Senior Science Policy Advisor.</p>\n<p>\u00a0</p>\n<p><strong>Duties:</strong><em> </em></p>\n<p>We are looking for individuals with strong analytical thinking, creative, strategic, research and writing skills to work on planning, leading and developing regional and national strategic advice and recommendations on research, development and transfer initiatives that contribute to the identification and implementation of science-related departmental/branch plans and priorities. The work consist of preparing and reviewing briefing materials, and initiating and maintaining effective networks of expertise within Ontario-Quebec Region and across the department and with federal/provincial/ industry stakeholders to provide analysis and relevant advice for senior management. This position reports to the Director General for the Ontario-Quebec Region.</p>\n<p>\u00a0</p>\n<p><strong>Statement of Merit Criteria &amp; Conditions of Employment </strong></p>\n<p><strong>Essential Qualifications</strong> <em>(required)</em></p>\n<p>\u00a0</p>\n<p>Education</p>\n<p>Graduation with a <a href=\"https://www.canada.ca/en/treasury-board-secretariat/services/staffing/qualification-standards/core.html#deg\">degree</a> from a <a href=\"https://www.canada.ca/en/treasury-board-secretariat/services/staffing/qualification-standards/core.html#rpsi\">recognized post-secondary institution</a> with <a href=\"https://www.canada.ca/en/treasury-board-secretariat/services/staffing/qualification-standards/core.html#acce\">acceptable</a> <a href=\"https://www.canada.ca/en/treasury-board-secretariat/services/staffing/qualification-standards/core.html#spec\">specialization</a> in economics, sociology or statistics.*</p>\n<p>*Candidates must always have a degree. The courses for the specialization do not necessarily have to be part of a degree program in the required specialization. The specialization may also be obtained through an acceptable combination of education, training and/or experience.</p>\n<p>\u00a0</p>\n<p>Experience(s) <em>(required)</em></p>\n<p>Experience preparing research and analysis and developing advice, recommendations and policies related to AAFC\u2019s discovery science and innovation agenda</p>\n<p>Experience providing strategic advice and recommendations to senior management on complex science-based policy issues to support decision-making</p>\n<p>Experience in establishing and maintaining a network of expertise with government and non-government stakeholders to facilitate the exchange of information and to support specific positions</p>\n<p>Experience in preparing briefing materials and correspondence (such as backgrounders, scenario notes, briefing notes, presentations) for senior management</p>\n<p>\u00a0</p>\n<p>Knowledge(s) <em>(required)</em></p>\n<p>Knowledge of the Agriculture and Agri-Food Canada organizational structure, mandate, programs, management practices and strategic objectives</p>\n<p>Knowledge of the communication methods, tools and techniques to draft briefing notes and produce other documentation for senior management</p>\n<p>\u00a0</p>\n<p><strong>Competencies </strong></p>\n<p><em>Adaptability</em></p>\n<p><em>Analytical thinking</em></p>\n<p><em>Initiative</em></p>\n<p><em>Interactive Communication</em></p>\n<p><em>Teamwork</em></p>\n<p><em>Writing Skills</em></p>\n<p>\u00a0</p>\n<p>Language Requirement(s): CBC-CBC</p>\n<p>\u00a0</p>\n<p><strong>Asset Qualifications </strong><em>(optional)</em></p>\n<p>Graduation with a <a href=\"https://www.canada.ca/en/treasury-board-secretariat/services/staffing/qualification-standards/core.html#deg\">degree</a> from a <a href=\"https://www.canada.ca/en/treasury-board-secretariat/services/staffing/qualification-standards/core.html#rpsi\">recognized post-secondary institution</a> with <a href=\"https://www.canada.ca/en/treasury-board-secretariat/services/staffing/qualification-standards/core.html#acce\">acceptable</a> <a href=\"https://www.canada.ca/en/treasury-board-secretariat/services/staffing/qualification-standards/core.html#spec\">specialization</a> in natural science or agriculture.</p>\n<p>Knowledge of the theories, principles and practices of science-based policy analysis and development</p>\n<p>Ability to interpret complex science-based technical information and documentation, policies, procedures and program specifications</p>\n<p>Ability to recommend courses of action to senior departmental officials</p>\n<p>\u00a0</p>\n<p><strong>Organizational Needs</strong> <em>(required)</em></p>\n<p>In support of achieving a diversified workforce, consideration may be given to candidates self-identifying as belonging to one of the following Employment Equity groups: Aboriginal peoples, Persons with a Disability; Visible Minorities, Women.</p>\n<p>\u00a0</p>\n<p><strong>Conditions of Employment</strong><strong> </strong></p>\n<p>Security Requirement(s) - Secret</p>\n<p>Ability and willingness to travel</p>\n<p>Abilitity and willingness to work overtime on short notice</p>\n<p>\u00a0</p>\n<p><strong>Applications:</strong></p>\n<p>Interested AAFC employees in Ottawa and AAFC employees within the Ontario-Quebec Region, Science and Technology Branch are encouraged to forward their resume and cover letter to Nathalie Corbeil <em>(<a href=\"mailto:Nathalie.corbeil@canada.ca\">Nathalie.corbeil@canada.ca</a>)</em></p>\n<p>\u00a0</p>\n<p>Resumes must clearly identify:</p>\n<ul>\n<li>\n<p>Your tenure (e.g. term or indeterminate)</p>\n</li>\n</ul>\n<p>Your substantive group and level</p>\n<p>You are required to submit a COVER LETTER that clearly describes how you meet the education, each essential experience, each essential knowledge, each essential competency as well as the asset qualifications. Please use each qualification as a header and provide a concrete example (maximum two paragraphs) that clearly demonstrates how you meet each qualification. You must meet all essential qualifications in order to be considered for the assignment. Resumes may be used as a secondary source to validate the experience described in the cover letter. FAILURE TO CLEARLY DEMONSTRATE HOW YOU MEET THE SCREENING CRITERIA WILL RESULT IN THE REJECTION OF YOUR APPLICATION. CANDIDATES WILL NOT BE SOLICITED FOR INCOMPLETE OR POSSIBLE MISSING INFORMATION.</p>\n<p>\u00a0</p>\n<p><strong>Notes:</strong></p>\n<ul>\n<li>The Public Service of Canada is committed to developing inclusive, barrier-free selection and appointment processes and work environments. If contacted in relation to this process, please advise the organization's representative of your need for accommodation measures which must be taken to enable you to be assessed in a fair and equitable manner.</li>\n<li>\n<p>Communication for this process will be sent via email.</p>\n</li>\n<li>\n<p>Candidate must have manager\u2019s approval prior to applying.</p>\n<p>\u00a0</p>\n</li>\n</ul>\n",
        "fr": "\n<p><strong>Description :</strong></p>\n<p>\u00cates-vous \u00e0 la recherche d\u2019un nouveau d\u00e9fi? Voulez-vous en savoir davantage sur d\u2019autres organisations au sein d\u2019Agriculture et Agroalimentaire Canada? Si tel est le cas, voici une occasion \u00e0 ne pas rater!</p>\n<p>Le bureau du directeur g\u00e9n\u00e9ral de la r\u00e9gion de l\u2019Ontario et du Qu\u00e9bec est \u00e0 la recherche d\u2019une personne motiv\u00e9e qui serait int\u00e9ress\u00e9e par une possibilit\u00e9 d\u2019AFFECTATION d\u2019un an au niveau EC-06 (ou l\u2019\u00e9quivalent) pour assurer les fonctions conseiller principal/conseill\u00e8re principale en politique scientifique.</p>\n<p>\u00a0</p>\n<p><strong>Fonctions</strong><em> </em><strong>:</strong></p>\n<p>Nous sommes \u00e0 la recherche de personnes avec un esprit cr\u00e9atif dot\u00e9es de solides comp\u00e9tences en mati\u00e8re d\u2019analyse, de strat\u00e9gie, de recherche et de r\u00e9daction pour travailler \u00e0 la planification, \u00e0 la direction et \u00e0 l\u2019\u00e9laboration de conseils et de recommandations \u00e0 l\u2019\u00e9chelle r\u00e9gionale et nationale sur la recherche, le d\u00e9veloppement et les initiatives de transfert qui contribuent \u00e0 la d\u00e9termination et la mise en \u0153uvre de plans et de priorit\u00e9s pour le minist\u00e8re et la direction g\u00e9n\u00e9rale. Le travail consiste \u00e0 pr\u00e9parer et r\u00e9viser des documents d\u2019information et \u00e0 \u00e9tablir et maintenir des r\u00e9seaux d\u2019experts efficaces dans la r\u00e9gion du Qu\u00e9bec et de l\u2019Ontario et au sein du minist\u00e8re et avec les intervenants f\u00e9d\u00e9raux, provinciaux et de l\u2019industrie, afin de fournir une analyse et des conseils pertinents pour la haute gestion. Le titulaire du poste rel\u00e8ve du directeur g\u00e9n\u00e9ral de la r\u00e9gion du Qu\u00e9bec et de l\u2019Ontario.</p>\n<p>\u00a0</p>\n<p><strong>\u00c9nonc\u00e9 des crit\u00e8res de m\u00e9rite et conditions d\u2019emploi </strong></p>\n<p><strong>Qualifications essentielles</strong> <em>(obligatoire)</em></p>\n<p>\u00a0</p>\n<p>\u00c9tudes</p>\n<p>Un <a href=\"https://www.canada.ca/fr/secretariat-conseil-tresor/services/dotation/normes-qualification/centrale.html#Dipl\">grade</a> d\u2019un <a href=\"https://www.canada.ca/fr/secretariat-conseil-tresor/services/dotation/normes-qualification/centrale.html#eepr\">\u00e9tablissement d\u2019enseignement postsecondaire reconnu</a> avec <a href=\"https://www.canada.ca/fr/secretariat-conseil-tresor/services/dotation/normes-qualification/centrale.html#spec\">sp\u00e9cialisation</a> <a href=\"https://www.canada.ca/fr/secretariat-conseil-tresor/services/dotation/normes-qualification/centrale.html#acc\">acceptable</a> en \u00e9conomie, en sociologie ou en statistique.*</p>\n<p>*Les candidats doivent obligatoirement d\u00e9tenir un grade. Il n\u2019est pas n\u00e9cessaire que les cours de sp\u00e9cialisation aient \u00e9t\u00e9 suivis dans le cadre d\u2019un programme menant \u00e0 l\u2019obtention d\u2019un dipl\u00f4me dans la sp\u00e9cialisation exig\u00e9e. La sp\u00e9cialisation peut aussi \u00eatre le r\u00e9sultat d\u2019une combinaison acceptable d\u2019\u00e9tudes, de formation et/ou d\u2019exp\u00e9rience.</p>\n<p>\u00a0</p>\n<p><em>Exp\u00e9rience (obligatoire)</em></p>\n<p>Exp\u00e9rience dans la pr\u00e9paration de recherches et d'analyses et de l'\u00e9laboration de conseils, de recommandations et de politiques li\u00e9s au programme de d\u00e9couverte et d'innovation d'AAC</p>\n<p>Exp\u00e9rience dans la prestation de conseils strat\u00e9giques et recommandations \u00e0 la haute direction sur des sujets d\u2019enjeux politiques complexes pour appuyer la prise de d\u00e9cisions</p>\n<p>Exp\u00e9rience de l\u2019\u00e9tablissement et du maintien d\u2019un r\u00e9seau d\u2019experts aupr\u00e8s des intervenants gouvernementaux et non gouvernementaux, afin de favoriser l\u2019\u00e9change d\u2019information et de promouvoir des positions pr\u00e9cises</p>\n<p>Exp\u00e9rience de la pr\u00e9paration de documents d\u2019information et de pi\u00e8ces de correspondance (dont des documents d\u2019information, des notes de sc\u00e9nario, des notes d\u2019information, des pr\u00e9sentations) \u00e0 l\u2019intention de la haute direction</p>\n<p>\u00a0</p>\n<p>Connaissances <em>(obligatoire)</em></p>\n<p>Connaissance de la structure organisationnelle d\u2019Agriculture et Agroalimentaire Canada, de son mandat, ses programmes, ses pratiques de gestion et ses objectifs strat\u00e9giques</p>\n<p>Connaissance des m\u00e9thodes, des outils et des techniques de communication afin de r\u00e9diger des notes d\u2019information et produire d\u2019autres documents \u00e0 l\u2019intention de la haute direction</p>\n<p>\u00a0</p>\n<p><strong>Comp\u00e9tences </strong></p>\n<p><em>Facult\u00e9 d\u2019adaptation</em></p>\n<p><em>R\u00e9flexion analytique</em></p>\n<p><em>Initiative</em></p>\n<p><em>Communication interactive</em></p>\n<p><em>Travail d\u2019\u00e9quipe</em></p>\n<p><em>Aptitudes \u00e0 \u00e9crire</em></p>\n<p>\u00a0</p>\n<p>Exigences linguistiques : CBC-CBC</p>\n<p>\u00a0</p>\n<p><strong>Qualifications constituant un atout</strong> <em>(facultatif)</em></p>\n<p>Un <a href=\"https://www.canada.ca/fr/secretariat-conseil-tresor/services/dotation/normes-qualification/centrale.html#Dipl\">grade</a> d\u2019un <a href=\"https://www.canada.ca/fr/secretariat-conseil-tresor/services/dotation/normes-qualification/centrale.html#eepr\">\u00e9tablissement d\u2019enseignement postsecondaire reconnu</a> avec <a href=\"https://www.canada.ca/fr/secretariat-conseil-tresor/services/dotation/normes-qualification/centrale.html#spec\">sp\u00e9cialisation</a> <a href=\"https://www.canada.ca/fr/secretariat-conseil-tresor/services/dotation/normes-qualification/centrale.html#acc\">acceptable</a> en science naturelle ou en agriculture</p>\n<p>Connaissance des th\u00e9ories, des principes et des pratiques de l'analyse et du d\u00e9veloppement des politiques fond\u00e9es sur la science</p>\n<p>Capacit\u00e9 d'interpr\u00e9ter de l'information et des documents techniques complexes, des politiques, des proc\u00e9dures et des donn\u00e9es techniques de programmes<br>\n<br>\nCapacit\u00e9 de recommander des plans d'action \u00e0 la haute direction du Minist\u00e8re</p>\n<p>\u00a0</p>\n<p><strong>Besoins organisationnels</strong> <em>(requis)</em></p>\n<p>Pour diversifier l\u2019effectif, on pourra examiner la candidature des personnes qui s\u2019identifient comme appartenant \u00e0 un des groupes vis\u00e9s par l\u2019\u00e9quit\u00e9 en mati\u00e8re d\u2019emploi, soit : Autochtones, personnes handicap\u00e9es, membres d\u2019une minorit\u00e9 visible, femmes.</p>\n<p>\u00a0</p>\n<p><strong>Conditions d\u2019emploi</strong><strong> </strong></p>\n<p>Cote de s\u00e9curit\u00e9 requise : Secret</p>\n<p>\u00catre apte et dispos\u00e9 \u00e0 voyager.</p>\n<p>\u00catre apte et dispos\u00e9 de faire des heures suppl\u00e9mentaires \u00e0 court pr\u00e9avis.</p>\n<p>\u00a0</p>\n<p><strong>Demandes :</strong></p>\n<p>Les employ\u00e9s <em>d\u2019AAC \u00e0 Ottawa et les employ\u00e9s d\u2019AAC de la r\u00e9gion du Qu\u00e9bec et de l\u2019Ontario appartenant \u00e0 la Direction g\u00e9n\u00e9rale des sciences et de la technologie sont </em>invit\u00e9s \u00e0 transmettre leur curriculum vit\u00e6 et leur lettre de pr\u00e9sentation \u00e0 Nathalie Corbeil (<a href=\"mailto:Nathalie.corbeil@canada.ca)\">Nathalie.corbeil@canada.ca)</a></p>\n<p>\u00a0</p>\n<p>Dans leur curriculum vit\u00e6, les candidats doivent clairement indiquer :</p>\n<ul>\n<li>\n<p>le type de poste occup\u00e9 (p. ex., dur\u00e9e d\u00e9termin\u00e9e ou ind\u00e9termin\u00e9e);</p>\n</li>\n<li>\n<p>le groupe et le niveau de votre poste d\u2019attache.</p>\n<p>\u00a0</p>\n<p>Vous devez r\u00e9diger une LETTRE DE PR\u00c9SENTATION dans laquelle vous d\u00e9crivez clairement en quoi vous poss\u00e9dez chacune des qualifications essentielles en mati\u00e8re d\u2019\u00e9tudes et d\u2019exp\u00e9rience, chacune des connaissances essentielles, chacune des comp\u00e9tences essentielles, ainsi que les qualifications constituant un atout. Veuillez reprendre chacune des qualifications comme titre de rubrique et fournir un exemple concret (maximum de deux paragraphes) qui d\u00e9montre pr\u00e9cis\u00e9ment en quoi vous r\u00e9pondez \u00e0 chacune des exigences. Vous devez poss\u00e9der toutes les qualifications essentielles pour que votre candidature soit accept\u00e9e. Le curriculum vit\u00e6 pourra \u00eatre utilis\u00e9 comme source d\u2019information secondaire pour valider l\u2019exp\u00e9rience d\u00e9crite dans la lettre de pr\u00e9sentation. LES DEMANDES QUI NE D\u00c9MONTRENT PAS CLAIREMENT LA CONFORMIT\u00c9 AUX CRIT\u00c8RES DE PR\u00c9S\u00c9LECTION NE SERONT PAS RETENUES. NOUS NE COMMUNIQUERONS PAS AVEC LES CANDIDATS POUR OBTENIR LES RENSEIGNEMENTS MANQUANTS OU POUVANT AVOIR \u00c9T\u00c9 OMIS.</p>\n</li>\n</ul>\n<p>\u00a0</p>\n<p><strong>Remarques :</strong></p>\n<ul>\n<li>\n<p>La fonction publique du Canada s\u2019est engag\u00e9e \u00e0 instaurer des processus de s\u00e9lection et de nomination et un milieu de travail inclusif sans obstacle. Si l\u2019on communique avec vous au sujet de ce processus, veuillez faire part au repr\u00e9sentant de l\u2019organisation de vos besoins en mati\u00e8re de mesures d\u2019adaptation afin de vous assurer une \u00e9valuation juste et \u00e9quitable.</p>\n</li>\n<li>\n<p>Les communications relatives au processus de s\u00e9lection se feront par courriel.</p>\n</li>\n<li>\n<p>Les employ\u00e9s doivent avoir l\u2019approbation de leur gestionnaire avant de pr\u00e9senter leur candidature.</p>\n<p>\u00a0</p>\n<p>\u00a0</p>\n<p>\u00a0</p>\n</li>\n</ul>\n\n"
    },
    "breadcrumb": {
        "en": "Senior Science Policy Advisor",
        "fr": "Conseiller principal/conseill\u00e8re principale en politique scientifique"
    },
    "empl": {
        "type": {
            "en": "Assignment",
            "fr": "Affectation"
        },
        "classification": {
            "en": "EC-6 and equivalent",
            "fr": "EC-6 et \u00e9quivalent"
        },
        "branch": {
            "en": "Science and Technology Branch",
            "fr": "Direction g\u00e9n\u00e9rale des sciences et de la technologie"
        },
        "locations": {
            "en": "Ottawa, Ontario",
            "fr": "Ottawa, Ontario"
        },
        "date_closing": {
            "en": "2018-04-20",
            "fr": "2018-04-20"
        },
        "open_to": {
            "en": "AAFC employees in Ottawa and AAFC employees within the Ontario-Quebec Region, Science &amp; Technology Branch",
            "fr": "Employ\u00e9s d\u2019AAC \u00e0 Ottawa et les employ\u00e9s d\u2019AAC de la r\u00e9gion du Qu\u00e9bec et de l\u2019Ontario appartenant \u00e0 la DGST"
        },
        "name": {
            "en": "Nathalie Corbeil",
            "fr": "Nathalie Corbeil"
        },
        "email": {
            "en": "nathalie.corbeil@canada.ca",
            "fr": "nathalie.corbeil@canada.ca"
        }
    }
}