{
    "dcr_id": "1524584125845",
    "lang": "en",
    "title": {
        "en": "Policy Analyst/Economist",
        "fr": "Analyste des politiques/\u00e9conomiste"
    },
    "modified": "2018-04-24 00:00:00.0",
    "issued": "2018-04-24 00:00:00.0",
    "type_name": "intra-intra/empl-empl",
    "node_id": "1279029955397",
    "layout_name": null,
    "dc_date_created": "2018-04-24",
    "breadcrumb_label": "",
    "meta": {
        "issued": {
            "en": "2018-04-24",
            "fr": "2018-04-24"
        },
        "modified": {
            "en": "2018-04-24",
            "fr": "2018-04-24"
        },
        "format": {
            "en": "gcformat",
            "fr": "gcformat"
        },
        "title": {
            "en": "Policy Analyst/Economist",
            "fr": "Analyste des politiques/\u00e9conomiste"
        },
        "subject": {
            "en": "staffing",
            "fr": "dotation en personnel"
        },
        "language": {
            "en": "eng",
            "fr": "fra"
        },
        "audience": {
            "en": "gcaudience",
            "fr": "gcaudience"
        },
        "type": {
            "en": "notice",
            "fr": "avis"
        },
        "creator": {
            "en": "Agriculture and Agri-Food Canada",
            "fr": "Agriculture et Agroalimentaire Canada"
        },
        "spatial": {
            "en": "gcregions",
            "fr": "gcregions"
        },
        "service": {
            "en": "AAFC_AgriSource",
            "fr": "AAC_AgriSource"
        },
        "accessRights": {
            "en": "3",
            "fr": "3"
        }
    },
    "body": {
        "en": "<p><strong>Description</strong></p>\n<p><strong>The International Analysis and Multilateral Engagement (IAME) Group can offer you a one-year assignment opportunity where you can expect to be involved in the following: </strong></p>\n<p><strong>Key Activities:</strong></p>\n<ul>\n<li>\n<p><strong><em>Prepare the Canadian Delegation for OECD meetings: </em></strong>Work with experts across the department to coordinate and prepare background information and speaking points for management/senior management (the Canadian Delegation) representing AAFC at OECD meetings.</p>\n</li>\n<li>\n<p><strong><em>Undertake Trend Analysis</em></strong>: Participate in a cross divisional group monitoring, analyzing and reporting on potential global consumer and market trends that could impact the Canadian agricultural and agri-food sector.</p>\n</li>\n<li>\n<p><strong><em>Provide Advice and Recommendations</em></strong>: Review and research economic and trade data and reports on markets and issues of key interest to the Canadian agriculture and agri-food sector, providing advice and recommendations to senior management.</p>\n</li>\n</ul>\n<p>This position is intended for an assignment at-level as part of the ECDP requirement.</p>\n<p><strong>About IAME:</strong></p>\n<p>The IAME Unit leads the coordination of AAFC\u2019s input into the work of the Organization for Economic Cooperation and Development (OECD), ensuring research and analysis works aligns with the policy priorities and the department and the Government of Canada. The Unit is also responsible for conducting monitoring and analysis on international trends and policy issues affecting the competiveness and sustainability of the agriculture and agi-food sector in Canada.</p>\n<p>Please send your up-to-date resume and a cover letter (maximum 400 words) outlining your experience and why you are interested in this opportunity to Julie Levert (<a href=\"mailto:julie.levert@canada.ca\">julie.levert@canada.ca</a>) by May 11, 2018.</p>\n<p>Resumes must clearly identify:</p>\n<ul>\n<li>Your tenure (e.g. term or indeterminate)</li>\n<li>Your substantive group and level</li>\n</ul>\n<p>\u00a0</p>\n",
        "fr": "<p><strong>Description</strong></p>\n<p><strong>L\u2019Unit\u00e9 de l\u2019analyse internationale et de l\u2019engagement multilat\u00e9ral (UAIEM) peut vous offrir une affectation d\u2019un an dans le cadre de laquelle vous serez appel\u00e9(e) \u00e0 exercer les fonctions ci-apr\u00e8s.</strong></p>\n<p><strong>Activit\u00e9s principales :</strong></p>\n<ul>\n<li>\n<p><strong><em>Pr\u00e9parer la d\u00e9l\u00e9gation canadienne pour les r\u00e9unions de l\u2019OCDE : </em></strong>Collaborer avec des experts du Minist\u00e8re pour coordonner et pr\u00e9parer la documentation et les points de discussion qu\u2019utiliseront les gestionnaires et les cadres sup\u00e9rieurs (la d\u00e9l\u00e9gation canadienne) repr\u00e9sentant AAC aux r\u00e9unions de l\u2019OCDE.</p>\n</li>\n<li>\n<p><strong><em>Entreprendre des analyses des tendances :</em></strong> Participer \u00e0 un groupe interdivisionnaire charg\u00e9 de surveiller et d\u2019analyser les tendances des consommateurs et des march\u00e9s mondiaux qui pourraient avoir une incidence sur le secteur agricole et agroalimentaire et de produire des rapports sur ces tendances.</p>\n</li>\n<li>\n<p><strong><em>Formuler des conseils et des recommandations :</em></strong> Examiner et rechercher des donn\u00e9es \u00e9conomiques et commerciales ainsi que des rapports sur les march\u00e9s et les enjeux d\u2019int\u00e9r\u00eat particulier pour le secteur agricole et agroalimentaire canadien; pr\u00e9senter des conseils et des recommandations \u00e0 des cadres sup\u00e9rieurs.</p>\n</li>\n</ul>\n<p>Il s\u2019agit d\u2019une affectation \u00e0 un poste de m\u00eame niveau dans le cadre du PPEC.</p>\n<p><strong>\u00c0 propos de l\u2019UAIEM :</strong></p>\n<p>L\u2019UAIEM se charge de coordonner la contribution d\u2019AAC aux travaux de l\u2019Organisation de coop\u00e9ration et de d\u00e9veloppement \u00e9conomiques (OCDE), s\u2019assurant ainsi d\u2019harmoniser les travaux de recherche et d\u2019analyse aux priorit\u00e9s strat\u00e9giques du Minist\u00e8re et du gouvernement du Canada. En outre, l\u2019UAIEM surveille les tendances internationales et les questions strat\u00e9giques qui ont une incidence sur la comp\u00e9titivit\u00e9 et la durabilit\u00e9 du secteur agricole et agroalimentaire au Canada.</p>\n<p>Veuillez envoyer une lettre de pr\u00e9sentation (au plus 400 mots) expliquant en quoi vous r\u00e9pondez aux crit\u00e8res de connaissance et d\u2019exp\u00e9rience d\u00e9crits ci-dessus et pourquoi cette possibilit\u00e9 d\u2019emploi vous int\u00e9resse \u00e0 Julie Levert (<a href=\"mailto:julie.levert@canada.ca\">julie.levert@canada.ca</a>) d\u2019ici le 11 mai 2018.</p>\n<p>Dans votre curriculum vitae, vous devez clairement indiquer :</p>\n<ul>\n<li>votre dur\u00e9e d\u2019emploi (p. ex. d\u00e9termin\u00e9e ou ind\u00e9termin\u00e9e);</li>\n<li>le groupe et le niveau de votre poste d\u2019attache.</li>\n</ul>\n<p>\u00a0</p>\n\n"
    },
    "breadcrumb": {
        "en": "Policy Analyst/Economist",
        "fr": "Analyste des politiques/\u00e9conomiste"
    },
    "empl": {
        "type": {
            "en": "Assignment",
            "fr": "Affectation"
        },
        "classification": {
            "en": "EC-2, EC-3, EC-4 and equivalent",
            "fr": "EC-2, EC-3, EC-4 et \u00e9quivalent"
        },
        "branch": {
            "en": "Strategic Policy Branch",
            "fr": "Direction g\u00e9n\u00e9rale des politiques strat\u00e9giques"
        },
        "locations": {
            "en": "National Capital Region",
            "fr": "R\u00e9gion de la capitale nationale"
        },
        "date_closing": {
            "en": "2018-05-11",
            "fr": "2018-05-11"
        },
        "open_to": {
            "en": "EC Development Program participants at the EC-02, EC-03 and EC-04 level",
            "fr": "Participants du programme de perfectionnement EC de niveau EC-02, EC-03 et EC-04"
        },
        "name": {
            "en": "julie.levert@canada.ca",
            "fr": "julie.levert@canada.ca"
        },
        "email": {
            "en": "julie.levert@canada.ca",
            "fr": "julie.levert@canada.ca"
        }
    }
}