{
    "dcr_id": "1527095524599",
    "lang": "en",
    "title": {
        "en": "Grain Monitoring Analyst/Policy Analyst",
        "fr": "Analyste en surveilance du grain, Analyste des politiques"
    },
    "modified": "2018-05-24 00:00:00.0",
    "issued": "2018-05-24 00:00:00.0",
    "type_name": "intra-intra/empl-empl",
    "node_id": "1279029955397",
    "layout_name": null,
    "dc_date_created": "2018-05-23",
    "breadcrumb_label": "",
    "meta": {
        "issued": {
            "en": "2018-05-24",
            "fr": "2018-05-24"
        },
        "modified": {
            "en": "2018-05-24",
            "fr": "2018-05-24"
        },
        "format": {
            "en": "gcformat",
            "fr": "gcformat"
        },
        "title": {
            "en": "Grain Monitoring Analyst/Policy Analyst",
            "fr": "Analyste en surveilance du grain, Analyste des politiques"
        },
        "subject": {
            "en": "staffing",
            "fr": "dotation en personnel"
        },
        "language": {
            "en": "eng",
            "fr": "fra"
        },
        "audience": {
            "en": "gcaudience",
            "fr": "gcaudience"
        },
        "type": {
            "en": "notice",
            "fr": "avis"
        },
        "creator": {
            "en": "Agriculture and Agri-Food Canada",
            "fr": "Agriculture et Agroalimentaire Canada"
        },
        "spatial": {
            "en": "gcregions",
            "fr": "gcregions"
        },
        "service": {
            "en": "AAFC_AgriSource",
            "fr": "AAC_AgriSource"
        },
        "accessRights": {
            "en": "3",
            "fr": "3"
        }
    },
    "body": {
        "en": "<p><strong>Description</strong></p>\n<p>Are you interested in contributing to strategic policy development on key files that support and advance the agriculture and agri-food sector? Are you interested in learning more about how Canadian agricultural products move from farm to markets at home and overseas?</p>\n<p>If so, the Cross Sectoral Issues (CSI) division in the Policy Development and Analysis Directorate of the Strategic Policy Branch has an exciting assignment opportunity for you to consider!</p>\n<p>We are looking for two Agriculture and Agri-Food Canada employees at the EC-02/EC-03/EC-04 level in the EC Development Program to join the team for a 6 to 18 month assignment.</p>\n<p>One position (Grain Monitoring Analyst) would be tasked with conducting regular and ongoing quantitative analysis on the performance of the grain handling and transportation system and managing AAFC\u2019s portion of the Grain Monitoring Program contract. Candidates for this position must be comfortable working with large data sets, be proficient with Microsoft Excel, have strong analytical, communication and writing skills, and be able to work with outside stakeholders (i.e. other government departments and contractors). We would be looking to have this position start early summer 2018.</p>\n<p>The second position (Policy Analyst) would be tasked with producing research and analysis on supply chain and trade related infrastructure issues impacting the agriculture and agri-food sector. Candidates for this position must have strong analytical, research, communication and writing skills, and be able to exercise good judgement and initiative. We would be looking to have this position start by fall 2018.</p>\n<p>Your work within CSI will allow you to gain a better understanding of:</p>\n<ul>\n<li>the functioning of the grain handling and transportation system in Canada, including the operations of key stakeholders such as producers, grain companies, railways and ports;</li>\n<li>key bottlenecks in Canada\u2019s export supply chain for agriculture and agri-food products;</li>\n<li>the supply chains and trade-related infrastructure needs of the agriculture and agri-food sector, including the potential impacts of federal government funding on the sector.</li>\n</ul>\n<p>Candidates should be willing to work overtime and travel occasionally.</p>\n<p>Please note that this advertisement is intended for an assignment at level. An assignment cannot constitute a promotion.</p>\n<p>Interested? Send your resume and a cover letter (max 250 words) explaining why you are interested in this opportunity and what you will bring to our team to Julie Levert (<a href=\"mailto:julie.levert@canada.ca\">julie.levert@canada.ca</a>) before the deadline. Your cover letter will be used to assess your communication and writing skills.</p>\n",
        "fr": "<p><strong>Description</strong></p>\n<p>Vous aimeriez contribuer \u00e0 l\u2019\u00e9laboration de politiques strat\u00e9giques pour des dossiers pivots qui appuient et font progresser le secteur agricole et agroalimentaire? Vous voulez en savoir plus sur la fa\u00e7on dont les produits agricoles canadiens vont de la ferme jusqu\u2019aux diff\u00e9rents march\u00e9s nationaux et mondiaux?</p>\n<p>Ne cherchez plus : la Division des affaires intersectorielles (DAI) de la Direction de l\u2019\u00e9laboration et de l\u2019analyse des politiques, Direction g\u00e9n\u00e9rale des politiques strat\u00e9giques, offre un poste sur mesure pour vous!</p>\n<p>Nous sommes \u00e0 la recherche de deux employ\u00e9s d\u2019Agriculture et Agroalimentaire Canada (AAC) occupant un poste d\u2019EC-02, d\u2019EC-03 ou d\u2019EC-04, qui participent au programme de perfectionnement des EC et qui aimeraient se joindre \u00e0 l\u2019\u00e9quipe pour une affectation de 6 \u00e0 18 mois.</p>\n<p>Le premier poste \u00e0 pourvoir est celui d\u2019analyste en surveillance du grain. La personne retenue m\u00e8nera des analyses quantitatives r\u00e9guli\u00e8res et en continu du rendement du syst\u00e8me de transport et de manutention du grain, en plus de g\u00e9rer les responsabilit\u00e9s d\u2019AAC dans le cadre du Programme de surveillance du grain (d\u00e9finies dans le contrat du m\u00eame nom). Elle devra savoir g\u00e9rer d\u2019importants ensembles de donn\u00e9es, ma\u00eetriser Microsoft Excel, poss\u00e9der d\u2019excellentes comp\u00e9tences analytiques, communicationnelles et r\u00e9dactionnelles, et pouvoir travailler avec des intervenants de l\u2019ext\u00e9rieur (autres contractuels et fonctionnaires d\u2019autres minist\u00e8res). L\u2019affectation commencera au d\u00e9but de l\u2019\u00e9t\u00e9 2018.</p>\n<p>Le deuxi\u00e8me poste \u00e0 pourvoir : analyste des politiques. La personne retenue devra produire des \u00e9tudes et des analyses sur des enjeux infrastructurels relatifs \u00e0 l\u2019industrie et \u00e0 la cha\u00eene d\u2019approvisionnement et qui ont des r\u00e9percussions sur le secteur agricole et agroalimentaire. Elle devra poss\u00e9der d\u2019excellentes comp\u00e9tences en analyse, en recherche, en communication et en r\u00e9daction, savoir faire preuve de jugement et avoir le sens de l\u2019initiative. L\u2019affectation commencera d\u2019ici l\u2019automne 2018.</p>\n<p>Travailler pour la DAI vous aidera \u00e0 mieux comprendre :</p>\n<ul>\n<li>le fonctionnement du syst\u00e8me canadien de manutention et de transport du grain, y compris les op\u00e9rations des intervenants de premier plan (producteurs, entreprises c\u00e9r\u00e9ali\u00e8res, chemins de fer et ports);</li>\n<li>les principaux goulots d\u2019\u00e9tranglement de la cha\u00eene d\u2019approvisionnement canadienne pour l\u2019exportation des produits agricoles et agroalimentaires;</li>\n<li>les besoins infrastructurels du secteur agricole et agroalimentaire en ce qui a trait \u00e0 l\u2019industrie et \u00e0 la cha\u00eene d\u2019approvisionnement, notamment les \u00e9ventuelles r\u00e9percussions du financement du gouvernement f\u00e9d\u00e9ral sur le secteur.</li>\n</ul>\n<p>Les personnes retenues devront voyager et faire des heures suppl\u00e9mentaires \u00e0 l\u2019occasion.</p>\n<p>Notez que ces offres donneront lieu \u00e0 des affectations \u00e0 un poste de m\u00eame niveau. L\u2019affectation ne peut \u00eatre une promotion.</p>\n<p>Partant(e)? Envoyez votre curriculum vit\u00e6 \u00e0 Julie Levert (<a href=\"mailto:julie.levert@canada.ca\">julie.levert@canada.ca</a>), ainsi qu\u2019une lettre de pr\u00e9sentation (250 mots ou moins) expliquant pourquoi le poste vous int\u00e9resse et ce que vous pensez pouvoir apporter \u00e0 l\u2019\u00e9quipe, avant la date de cl\u00f4ture. Votre lettre servira \u00e0 \u00e9valuer vos comp\u00e9tences en r\u00e9daction et en communication.</p>\n\n"
    },
    "breadcrumb": {
        "en": "Grain Monitoring Analyst/Policy Analyst",
        "fr": "Analyste en surveilance du grain, Analyste des politiques"
    },
    "empl": {
        "type": {
            "en": "Assignment",
            "fr": "Affectation"
        },
        "classification": {
            "en": "EC-2, EC-3, EC-4",
            "fr": "EC-2, EC-3, EC-4"
        },
        "branch": {
            "en": "Strategic Policy Branch",
            "fr": "Direction g\u00e9n\u00e9rale des politiques strat\u00e9giques"
        },
        "locations": {
            "en": "National Capital Region and/or Winnipeg (Manitoba)",
            "fr": "R\u00e9gion de la capitale nationale et/ou Winnipeg (Manitoba)"
        },
        "date_closing": {
            "en": "2018-06-01",
            "fr": "2018-06-01"
        },
        "open_to": {
            "en": "AAFC Employees at the EC-02/EC-03/EC-04 level in the EC Development Program",
            "fr": "Employ\u00e9s d'AAC occupant un poste d'EC-02/EC-03 ou EC-04 et qui participent au programme de perfectionnement de"
        },
        "name": {
            "en": "Julie Levert",
            "fr": "Julie Levert"
        },
        "email": {
            "en": "julie.levert@canada.ca",
            "fr": "julie.levert@canada.ca"
        }
    }
}