{
    "dcr_id": "1528394447779",
    "lang": "en",
    "title": {
        "en": "Ministerial Liaison ",
        "fr": "Liaison minist\u00e9rielle"
    },
    "modified": "2018-06-08 00:00:00.0",
    "issued": "2018-06-08 00:00:00.0",
    "type_name": "intra-intra/empl-empl",
    "node_id": "1279029955397",
    "layout_name": null,
    "dc_date_created": "2018-06-07",
    "breadcrumb_label": "",
    "meta": {
        "issued": {
            "en": "2018-06-08",
            "fr": "2018-06-08"
        },
        "modified": {
            "en": "2018-06-08",
            "fr": "2018-06-08"
        },
        "format": {
            "en": "gcformat",
            "fr": "gcformat"
        },
        "title": {
            "en": "Ministerial Liaison ",
            "fr": "Liaison minist\u00e9rielle"
        },
        "subject": {
            "en": "staffing",
            "fr": "dotation en personnel"
        },
        "language": {
            "en": "eng",
            "fr": "fra"
        },
        "audience": {
            "en": "gcaudience",
            "fr": "gcaudience"
        },
        "type": {
            "en": "notice",
            "fr": "avis"
        },
        "creator": {
            "en": "Agriculture and Agri-Food Canada",
            "fr": "Agriculture et Agroalimentaire Canada"
        },
        "spatial": {
            "en": "gcregions",
            "fr": "gcregions"
        },
        "service": {
            "en": "AAFC_AgriSource",
            "fr": "AAC_AgriSource"
        },
        "accessRights": {
            "en": "3",
            "fr": "3"
        }
    },
    "body": {
        "en": "<p><strong>Description</strong></p>\n<p>Looking for a change of pace from your current role at AAFC? The Strategic Planning, Advice, and Coordination (SPAC) directorate in the Public Affairs Branch (PAB) is looking for an energetic, highly-motivated Ministerial Liaison for a seven-month assignment. The position offers a chance to work directly with the Minister\u2019s Office, as well as central agencies (Privy Council Office) and will give you a broad perspective of the department.</p>\n<p>The main duties of the Ministerial Liaison are to:</p>\n<ul>\n<li>Liaise between PAB and the Minister\u2019s office on approvals and planning of departmental and external events/activities involving the Minister or MPs;</li>\n<li>Coordinate communications product approvals through the Department, Minister\u2019s Office and Privy Council Office (PCO) as requested;</li>\n<li>Assist in identifying and planning priorities for the Minister\u2019s communications staff and the PAB strategic communications teams;</li>\n<li>Provide strategic communications advice to the Minister\u2019s Office on communications products and requirements for specific issues, events and announcements.</li>\n</ul>\n<p>The ideal candidate is adaptable, client-focussed and can provide strong, strategic thinking in a dynamic, fast-paced environment. We are seeking an employee at the IS-04 level (and equivalent) but will also consider an employee at the IS-03 level (and equivalent). Employees outside of the IS group are encouraged to apply. Communications experience is an asset but is not required so if you\u2019re up for the challenge, please send your CV to Dominique Richer at <a href=\"mailto:dominique.richer@agr.gc.ca\">dominique.richer@agr.gc.ca</a> by Friday, June 15,\u00a023:59 Pacific Time.\u00a0\u00a0</p>\n<p>\u00a0</p>\n",
        "fr": "<p><strong>Description</strong></p>\n<p>Aspirez-vous \u00e0 un changement de rythme par rapport \u00e0 votre r\u00f4le actuel au sein d\u2019AAC? La Direction de la planification strat\u00e9gique, des conseils et de la coordination de la Direction g\u00e9n\u00e9rale des affaires publiques (DGAP) recherche un agent de liaison minist\u00e9rielle \u00e9nergique et tr\u00e8s motiv\u00e9 pour une affectation de sept mois. Le poste offre l\u2019opportunit\u00e9 de travailler directement avec le Cabinet du ministre et des organismes centraux (Bureau du Conseil priv\u00e9), et d\u2019acqu\u00e9rir \u00e0 une vaste vue d\u2019ensemble du Minist\u00e8re.</p>\n<p>Les principales fonctions de l\u2019agent de liaison minist\u00e9rielle sont les suivantes :</p>\n<ul>\n<li>Assurer la liaison entre la DGAP et le Cabinet du ministre en ce qui a trait \u00e0 la planification et \u00e0 l'approbation des activit\u00e9s et des manifestations minist\u00e9rielles et externes auxquelles participent le ministre ou des d\u00e9put\u00e9s.</li>\n<li>Coordonner les approbations des produits de communication entre le Minist\u00e8re, le Cabinet du ministre et le Bureau du Conseil priv\u00e9, au besoin.</li>\n<li>Aider \u00e0 d\u00e9finir et \u00e0 planifier les priorit\u00e9s du personnel des communications du ministre et des \u00e9quipes de communications strat\u00e9giques de la DGAP.</li>\n<li>Fournir des conseils strat\u00e9giques au Cabinet du ministre sur les produits de communication et les exigences relatives \u00e0 des dossiers, activit\u00e9s et messages particuliers.</li>\n</ul>\n<p>Le candidat id\u00e9al est flexible et ax\u00e9 sur la client\u00e8le, et il a de tr\u00e8s bonnes capacit\u00e9s de r\u00e9flexion strat\u00e9gique dans un environnement dynamique o\u00f9 les activit\u00e9s se d\u00e9roulent \u00e0 un rythme rapide. Nous recherchons un employ\u00e9 de niveau IS-04 (ou l\u2019\u00e9quivalent), mais nous tiendrons aussi compte de la candidature des employ\u00e9s de niveau IS-03 (ou l\u2019\u00e9quivalent). Les employ\u00e9s ne faisant pas partie du groupe IS sont invit\u00e9s \u00e0 postuler. Une exp\u00e9rience en communication constitue un atout, mais n\u2019est pas obligatoire. Si vous \u00eates int\u00e9ress\u00e9 \u00e0 relever le d\u00e9fi, veuillez faire parvenir votre curriculum vitae \u00e0 Dominique Richer (<a href=\"mailto:dominique.richer@agr.gc.ca\">dominique.richer@agr.gc.ca</a>) avant le vendredi, le 15 juin, 23:59 Heure du Pacifique.</p>\n<p>\u00a0</p>\n<p>\u00a0</p>\n<p>\u00a0</p>\n\n"
    },
    "breadcrumb": {
        "en": "Ministerial Liaison",
        "fr": "Liaison minist\u00e9rielle"
    },
    "empl": {
        "type": {
            "en": "Assignment, Acting",
            "fr": "Affectation, Int\u00e9rimaire"
        },
        "classification": {
            "en": "IS-4 and equivalent",
            "fr": "IS-4 et \u00e9quivalent"
        },
        "branch": {
            "en": "Public Affairs Branch",
            "fr": "Direction g\u00e9n\u00e9rale des affaires publiques"
        },
        "locations": {
            "en": "Ottawa, Ontario",
            "fr": "Ottawa (Ontario)"
        },
        "date_closing": {
            "en": "2018-06-15",
            "fr": "2018-06-15"
        },
        "open_to": {
            "en": "Employees at the IS-04 level (or equivalent)",
            "fr": "Employ\u00e9s de niveau IS-04 (ou l\u2019\u00e9quivalent)"
        },
        "name": {
            "en": "Dominique Richer",
            "fr": "Dominique Richer"
        },
        "email": {
            "en": "dominique.richer@agr.gc.ca",
            "fr": "dominique.richer@agr.gc.ca"
        }
    }
}