{
    "dcr_id": "1529426047510",
    "lang": "en",
    "title": {
        "en": "Financial Officer",
        "fr": "Agent(e) Financier(\u00e8re)"
    },
    "modified": "2018-06-20 00:00:00.0",
    "issued": "2018-06-20 00:00:00.0",
    "type_name": "intra-intra/empl-empl",
    "node_id": "1279029955397",
    "layout_name": null,
    "dc_date_created": "2018-06-19",
    "breadcrumb_label": "",
    "meta": {
        "issued": {
            "en": "2018-06-20",
            "fr": "2018-06-20"
        },
        "modified": {
            "en": "2018-06-20",
            "fr": "2018-06-20"
        },
        "format": {
            "en": "gcformat",
            "fr": "gcformat"
        },
        "title": {
            "en": "Financial Officer",
            "fr": "Agent(e) Financier(\u00e8re)"
        },
        "subject": {
            "en": "staffing",
            "fr": "dotation en personnel"
        },
        "language": {
            "en": "eng",
            "fr": "fra"
        },
        "audience": {
            "en": "gcaudience",
            "fr": "gcaudience"
        },
        "type": {
            "en": "notice",
            "fr": "avis"
        },
        "creator": {
            "en": "Agriculture and Agri-Food Canada",
            "fr": "Agriculture et Agroalimentaire Canada"
        },
        "spatial": {
            "en": "gcregions",
            "fr": "gcregions"
        },
        "service": {
            "en": "AAFC_AgriSource",
            "fr": "AAC_AgriSource"
        },
        "accessRights": {
            "en": "3",
            "fr": "3"
        }
    },
    "body": {
        "en": "\n<p>The Accounts Receivable and Revenue Management Section (ARRMS) is responsible for the timely and effective recovery of revenues from the Department Research Centers and of unpaid receivables from producers for defaults under Government guaranteed programs, overpayments under farm income programs, and/or other Crown debts. The unit works with partners, including the debtor producers, producer organizations, program managers, Farm Debt Mediation Service, Justice Canada and any other organization or party involved directly or indirectly with the creation and the collection of debt.</p>\n<p>\u00a0</p>\n<ul>\n<li>\n<p>Create/manage/maintain debts in the SAP financial system.</p>\n</li>\n<li>\n<p>Correspond with employee debtors when they have questions;</p>\n</li>\n<li>\n<p>Coordinate payroll deductions for employee debts with the Pay Centre.</p>\n</li>\n<li>\n<p>Process wire payments.</p>\n</li>\n<li>\n<p>Perform daily clearing of suspense account transactions.</p>\n</li>\n<li>\n<p>Calculate allowances for doubtful accounts at year end and enter transactions in SAP according to Public Sector Accounting Standards.</p>\n</li>\n<li>\n<p>Prepare monthly ARRMS Dashboard report which details AAFC debts managed by ARRMS and collection activities.</p>\n</li>\n<li>\n<p>Review and verify, on a monthly basis, the information presented in the Canadian Dairy Commission (CDC) month end report before Section 34 signature based on the Crown Corporation Lending rate for the specified period, and the age of the debts.</p>\n</li>\n<li>\n<p>Maintain a spreadsheet to track CDC loans and repayments.</p>\n</li>\n<li>\n<p>Conduct monthly monitoring of General Ledger accounts.</p>\n</li>\n<li>\n<p>Assist the Chief, ARRMS in quarterly monitoring of contracts and sales order in SAP.\u00a0</p>\n</li>\n</ul>\n<p>\u00a0</p>\n<p><strong>Statement of Merit Criteria &amp; Conditions of Employment</strong></p>\n<p>\u00a0</p>\n<p><strong>Essential Qualifications</strong></p>\n<p>\u00a0</p>\n<p>Education:</p>\n<ul>\n<li>Graduation with a diploma from a recognized post-secondary institution with specialization in Accounting.\u00a0</li>\n</ul>\n<p>\u00a0</p>\n<p>Experience(s):</p>\n<ul>\n<li>\n<p>Experience in accounting and financial methods and procedures.</p>\n</li>\n<li>\n<p>Experience in the preparation of financial statements or financial reports.</p>\n</li>\n<li>\n<p>Experience in working with word processing, spreadsheet and presentation software, specifically Word, Excel and PowerPoint.</p>\n</li>\n</ul>\n<p>\u00a0</p>\n<p>Knowledge:\u00a0\u00a0\u00a0</p>\n<ul>\n<li>\n<p>Knowledge of Generally Accepted Accounting Principles (GAAP)/International Financial Reporting Standards (IFRS).</p>\n</li>\n<li>\n<p>Knowledge of financial acts, regulations, directives or policies.\u00a0</p>\n</li>\n</ul>\n<p>\u00a0</p>\n<p>\u00a0Competencies:</p>\n<ul>\n<li>\n<p>Interactive communication</p>\n</li>\n<li>\n<p>Analytical thinking</p>\n</li>\n<li>\n<p>Client Focus</p>\n</li>\n<li>\n<p>Teamwork</p>\n</li>\n<li>\n<p>Initiative</p>\n</li>\n<li>\n<p>Writing Skills</p>\n</li>\n</ul>\n<p>\u00a0</p>\n<p>Language Requirement(s):</p>\n<ul>\n<li>\n<p>Bilingual imperative BBB/BBB.</p>\n<p>\u00a0</p>\n</li>\n</ul>\n<h3><strong>Asset Qualifications:\u00a0</strong></h3>\n<ul>\n<li>\n<p>A degree from a recognized post-secondary institution with specialization in accounting, finance, business administration, commerce or economics or eligibility for a recognized professional accounting designation (i.e. CPA,CA, CMA or CGA).</p>\n</li>\n</ul>\n<ul>\n<li>\n<p>Experience in using a financial management system.\u00a0</p>\n</li>\n</ul>\n<p>\u00a0</p>\n<h3><strong>Organizational Needs:</strong></h3>\n<p>In support of achieving a diversified workforce, consideration may be given to candidates self-identifying as belonging to one of the following Employment Equity groups: Aboriginal peoples; Persons with a Disability; Visible Minorities; and Women.</p>\n<p>\u00a0</p>\n<p><strong>Conditions of Employment:\u00a0</strong></p>\n<p>Security Requirement(s): reliability</p>\n<p>\u00a0</p>\n<p><strong>Operational Requirements:</strong></p>\n<ul>\n<li>\n<p>Ability and willingness to work overtime on short notice.\u00a0</p>\n</li>\n</ul>\n<p><strong>\u00a0</strong></p>\n<p><strong>Applications:\u00a0</strong></p>\n<p>Interested AAFC employees in the NCR are encouraged to forward their r\u00e9sum\u00e9 and cover letter to Susan Hayes at <a href=\"mailto:susan.hayes@agr.gc.ca\">susan.hayes@agr.gc.ca</a> by July 6, 2018.\u00a0</p>\n<p>\u00a0</p>\n<p>R\u00e9sum\u00e9s must clearly identify:</p>\n<ul>\n<li>\n<p>Your tenure (e.g. term or indeterminate)</p>\n</li>\n<li>\n<p>Your substantive group and level</p>\n</li>\n</ul>\n<p>\u00a0</p>\n<p><strong>Notes:</strong></p>\n<ul>\n<li>\n<p><strong>The Public Service of Canada is committed to developing inclusive, barrier-free selection and appointment processes and work environments. If contacted in relation to this process, please advise the organization's representative of your need for accommodation measures which must be taken to enable you to be assessed in a fair and equitable manner.</strong></p>\n</li>\n<li>\n<p><strong>Deployments cannot change the tenure of an employee (i.e.: term to indeterminate) or constitute a promotion. </strong></p>\n</li>\n<li>\n<p><strong>Communication for this process will be sent via email.</strong></p>\n</li>\n<li>\n<p>A pool of qualified candidates may be established and may be used to staff similar positions on an acting, assignment or deployment basis.</p>\n</li>\n<li>\n<p>Assessment of applicants will be based on the review of their r\u00e9sum\u00e9, an interview and reference checks.</p>\n</li>\n</ul>\n",
        "fr": "\n<p>La section des Comptes recevables et gestion des revenus (SCRGR) est charg\u00e9e de recouvrer rapidement et efficacement les revenus des centres de recherche du Minist\u00e8re et les cr\u00e9ances non pay\u00e9es des producteurs en d\u00e9faut dans le cadre des programmes de garanties financi\u00e8res du gouvernement, les trop-pay\u00e9s des programmes de soutien du revenu agricole et d\u2019autres dettes envers la Couronne. La SCRGR travaille avec divers partenaires, notamment les producteurs d\u00e9biteurs, les organisations de producteurs, les gestionnaires de programmes, le Service de m\u00e9diation en mati\u00e8re d\u2019endettement agricole, le minist\u00e8re de la Justice et d\u2019autres organisations ou parties directement ou indirectement concern\u00e9es par la cr\u00e9ation et le recouvrement de dettes.</p>\n<p>\u00a0</p>\n<ul>\n<li>\n<p>Cr\u00e9er, g\u00e9rer et maintenir les dettes dans le syst\u00e8me financier SAP.</p>\n</li>\n<li>\n<p>Correspondre avec les employ\u00e9s d\u00e9biteurs lorsqu\u2019ils ont des questions \u00e0 poser.</p>\n</li>\n<li>\n<p>Coordonner les retenues salariales pour le remboursement des dettes des employ\u00e9s avec le Centre des services de paye.</p>\n</li>\n<li>\n<p>Traiter les virements bancaires.</p>\n</li>\n<li>\n<p>Faire le rapprochement quotidien des comptes de suspends.</p>\n</li>\n<li>\n<p>Calculer les provisions pour cr\u00e9ances douteuses et effectuer les transactions n\u00e9cessaires dans SAP, conform\u00e9ment aux normes comptables pour le secteur public.</p>\n</li>\n<li>\n<p>Pr\u00e9parer mensuellement le rapport du tableau de bord de la SCRGR donnant une description d\u00e9taill\u00e9e des cr\u00e9ances d\u2019AAC g\u00e9r\u00e9es par la SCRGR et des activit\u00e9s de recouvrement.</p>\n</li>\n<li>\n<p>Examiner et v\u00e9rifier l\u2019information pr\u00e9sent\u00e9e dans le rapport de fin de mois de la Commission canadienne du lait (CCL) avant la signature aux termes de l\u2019article 34, en tenant compte du taux d\u2019int\u00e9r\u00eat d\u00e9biteur de la soci\u00e9t\u00e9 d\u2019\u00c9tat pour la p\u00e9riode sp\u00e9cifi\u00e9e et de l\u2019\u00e2ge des cr\u00e9ances.</p>\n</li>\n<li>\n<p>Tenir \u00e0 jour une feuille de calcul pour faire le suivi des pr\u00eats de la CCL et des remboursements \u00e0 celle-ci.</p>\n</li>\n<li>\n<p>Effectuer une surveillance mensuelle des comptes du grand livre.</p>\n</li>\n<li>\n<p>Aider le chef de la SCRGR \u00e0 effectuer la surveillance trimestrielle des contrats et des commandes clients dans SAP.</p>\n</li>\n</ul>\n<p>\u00a0</p>\n<p><strong>\u00c9noncer des crit\u00e8res de m\u00e9rite et conditions d\u2019emploi : </strong></p>\n<p>\u00a0</p>\n<p><strong>Qualifications essentielles </strong></p>\n<p>\u00a0</p>\n<p>\u00c9tudes:</p>\n<ul>\n<li>Un dipl\u00f4me coll\u00e9gial d'un \u00e9tablissement d'enseignement post-secondaire reconnu avec sp\u00e9cialisation en comptabilit\u00e9.</li>\n</ul>\n<p>\u00a0</p>\n<p>Exp\u00e9rience(s) :</p>\n<ul>\n<li>\n<p>Exp\u00e9rience des m\u00e9thodes et marches \u00e0 suivre comptables et financi\u00e8res.</p>\n</li>\n<li>\n<p>Exp\u00e9rience de la pr\u00e9paration d'\u00e9tats ou de rapports financiers.</p>\n</li>\n</ul>\n<ul>\n<li>Exp\u00e9rience de l\u2019utilisation des logiciels de traitement de texte, des tableurs et des logiciels de pr\u00e9sentation, tout particuli\u00e8rement Word, Excel et PowerPoint.</li>\n</ul>\n<p>\u00a0</p>\n<p>Connaissance(s) :</p>\n<ul>\n<li>\n<p>Connaissance des principes comptables g\u00e9n\u00e9ralement reconnus (PCGR)/normes internationales d\u2019information financi\u00e8re (IFRS)</p>\n</li>\n<li>\n\tConnaissance des lois, r\u00e8glements, directives ou politiques financi\u00e8res.\u00a0</li>\n</ul>\n<p>\u00a0</p>\n<p>Comp\u00e9tence(s) :</p>\n<ul>\n<li>\n<p>Communication interactive</p>\n</li>\n<li>\n<p>R\u00e9flexion analytique</p>\n</li>\n<li>\n<p>Accent mis sur le client</p>\n</li>\n<li>\n<p>Travail d'\u00e9quipe</p>\n</li>\n<li>\n<p>Initiative</p>\n</li>\n</ul>\n<ul>\n<li>Aptitudes \u00e0 \u00e9crire\u00a0</li>\n</ul>\n<p>\u00a0</p>\n<p>Exigences linguistiques :</p>\n<ul>\n<li>Bilingue imp\u00e9ratif (BBB/BBB).</li>\n</ul>\n<p>\u00a0</p>\n<p><strong>Qualifications constituant un atout :</strong></p>\n<ul>\n<li>\n<p>Un grade d\u2019un <a href=\"http://www.tbs-sct.gc.ca/psm-fpfm/staffing-dotation/rqs-qcr/drqs-dlnq-fra.asp#eepr\">\u00e9tablissement d\u2019enseignement postsecondaire reconnu</a> avec <a href=\"http://www.tbs-sct.gc.ca/psm-fpfm/staffing-dotation/rqs-qcr/drqs-dlnq-fra.asp#spec\">sp\u00e9cialisation</a> en comptabilit\u00e9, en finances, en administration des affaires, en commerce ou en \u00e9conomie ou l\u2019admissibilit\u00e9 \u00e0 un titre de comptable octroy\u00e9 par une association professionnelle reconnue (c.-\u00e0-d. CPA, CA, CMA ou CGA).</p>\n</li>\n<li>Exp\u00e9rience de l'utilisation d\u2019un syst\u00e8me de gestion financi\u00e8re.\u00a0\u00a0</li>\n</ul>\n<p>\u00a0</p>\n<p><strong>Besoins de l'organisation :</strong></p>\n<p>Pour diversifier l\u2019effectif, on pourra examiner la candidature des personnes qui s\u2019identifient comme appartenant \u00e0 des groupes vis\u00e9s par l\u2019\u00e9quit\u00e9 en mati\u00e8re d\u2019emploi : soit les autochtones; les personnes handicap\u00e9es; les membres des minorit\u00e9s visibles; et les femmes.\u00a0</p>\n<p>\u00a0</p>\n<p><strong>Conditions d'emploi :</strong></p>\n<p>Exigences de s\u00e9curit\u00e9(s) : Cote de fiabilit\u00e9\u00a0</p>\n<p>\u00a0</p>\n<p><strong>Exigences op\u00e9rationnelles :</strong></p>\n<ul>\n<li>\u00catre apte et dispos\u00e9 \u00e0 faire des heures suppl\u00e9mentaires \u00e0 bref pr\u00e9avis.</li>\n</ul>\n<p>\u00a0</p>\n<p><strong>Candidatures</strong></p>\n<p>Les employ\u00e9s d\u2019AAC de la RCN int\u00e9ress\u00e9s sont invit\u00e9s \u00e0 envoyer leur curriculum vitae et une lettre d\u2019accompagnement \u00e0 Susan Hayes \u00e0 <a href=\"mailto:susan.hayes@agr.gc.ca\">susan.hayes@agr.gc.ca</a> d\u2019ici le 6 juillet 2018.</p>\n<p>\u00a0</p>\n<p>Les curriculum vitae doivent nettement pr\u00e9ciser :</p>\n<ul>\n<li>\n<p>votre type de poste (p. ex., \u00e0 dur\u00e9e d\u00e9termin\u00e9e ou ind\u00e9termin\u00e9e);</p>\n</li>\n</ul>\n<ul>\n<li>la classification de votre poste d\u2019attache.\u00a0</li>\n</ul>\n<p>\u00a0</p>\n<p><strong>Remarques</strong></p>\n<ul>\n<li>\n<p>La fonction publique du Canada s'est aussi engag\u00e9e \u00e0 instaurer des processus de s\u00e9lection et un milieu de travail inclusifs et exempts d'obstacles. Si l'on communique avec vous au sujet d'une possibilit\u00e9 d'emploi ou pour des examens, veuillez faire part au repr\u00e9sentant du minist\u00e8re, en temps opportun, de vos besoins pour lesquels des mesures d'adaptation doivent \u00eatre prises pour vous permettre une \u00e9valuation juste et \u00e9quitable.</p>\n</li>\n<li>\n<p>Une mutation ne peuvent servir \u00e0 modifier le type de poste d\u2019un employ\u00e9 ou d\u2019une employ\u00e9e (de dur\u00e9e d\u00e9termin\u00e9e \u00e0 dur\u00e9e ind\u00e9termin\u00e9e, etc.) ni constituer une promotion.</p>\n</li>\n<li>\n<p>Les communications relatives au processus de s\u00e9lection se feront par courriel.</p>\n</li>\n<li>\n<p>Un bassin de candidats qualifi\u00e9s pourra \u00eatre cr\u00e9\u00e9 et pourra servir \u00e0 doter des postes semblables sur une base int\u00e9rimaire, d\u2019affectation ou de mutation.<em> </em></p>\n</li>\n<li>\n<p>L'\u00e9valuation des candidats sera bas\u00e9e sur l'examen de leur r\u00e9sum\u00e9, une entrevue et de la v\u00e9rification des r\u00e9f\u00e9rences.</p>\n</li>\n</ul>\n\n"
    },
    "breadcrumb": {
        "en": "Financial Officer",
        "fr": "Agent(e) Financier(\u00e8re)"
    },
    "empl": {
        "type": {
            "en": "Assignment, Deployment, Acting",
            "fr": "Affectation, Mutation, Int\u00e9rimaire"
        },
        "classification": {
            "en": "FI-1 and equivalent",
            "fr": "FI-1 et \u00e9quivalent"
        },
        "branch": {
            "en": "Corporate Management Branch",
            "fr": "Gestion int\u00e9gr\u00e9e"
        },
        "locations": {
            "en": "Ottawa, Ontario",
            "fr": "Ottawa, Ontario"
        },
        "date_closing": {
            "en": "2018-07-06",
            "fr": "2018-07-06"
        },
        "open_to": {
            "en": "All AAFC Employees in the National Capital",
            "fr": "Tous les employ\u00e9s d\u2019AAC dans la r\u00e9gion de la capitale nationale (RCN)"
        },
        "name": {
            "en": "Susan Hayes",
            "fr": "Susan Hayes"
        },
        "email": {
            "en": "susan.hayes@agr.gc.ca",
            "fr": "susan.hayes@agr.gc.ca"
        }
    }
}