{
    "dcr_id": "1530112967900",
    "lang": "en",
    "title": {
        "en": "Senior Policy Advisor",
        "fr": "Conseiller principal/Conseill\u00e8re principale en politiques"
    },
    "modified": "2018-06-27 00:00:00.0",
    "issued": "2018-06-27 00:00:00.0",
    "type_name": "intra-intra/empl-empl",
    "node_id": "1279029955397",
    "layout_name": null,
    "dc_date_created": "2018-06-27",
    "breadcrumb_label": "",
    "meta": {
        "issued": {
            "en": "2018-06-27",
            "fr": "2018-06-27"
        },
        "modified": {
            "en": "2018-06-27",
            "fr": "2018-06-27"
        },
        "format": {
            "en": "gcformat",
            "fr": "gcformat"
        },
        "title": {
            "en": "Senior Policy Advisor",
            "fr": "Conseiller principal/Conseill\u00e8re principale en politiques"
        },
        "subject": {
            "en": "staffing",
            "fr": "dotation en personnel"
        },
        "language": {
            "en": "eng",
            "fr": "fra"
        },
        "audience": {
            "en": "gcaudience",
            "fr": "gcaudience"
        },
        "type": {
            "en": "notice",
            "fr": "avis"
        },
        "creator": {
            "en": "Agriculture and Agri-Food Canada",
            "fr": "Agriculture et Agroalimentaire Canada"
        },
        "spatial": {
            "en": "gcregions",
            "fr": "gcregions"
        },
        "service": {
            "en": "AAFC_AgriSource",
            "fr": "AAC_AgriSource"
        },
        "accessRights": {
            "en": "3",
            "fr": "3"
        }
    },
    "body": {
        "en": "\n<p>RAD is responsible for providing knowledge and expertise to the department on the economic and social trends and challenges that bear on agriculture and agri-food policy development. RAD\u2019s specific role in Strategic Policy Branch, and also in the department, is to provide understanding and interpretation of information and data, as well as analysis from various sources, to support major policy initiatives and a wide range of departmental priorities.</p>\n<p>AAFC staff at the EC-06 level who are interested in a deployment opportunity with RAD, in the Director General\u2019s Office (DGO), should provide a copy of their resume and cover letter to Matthew Cahoon (<a href=\"mailto:matthew.cahoon@agr.gc.ca\">matthew.cahoon@agr.gc.ca</a>), with Joanne Provost (<a href=\"mailto:joanne.provost@agr.gc.ca\">joanne.provost@agr.gc.ca</a>) copied, by end of day, July 6, 2018. The cover letter should clearly explain, in two pages or less, why you think you would be a good candidate for the job and how you could contribute to the directorate. If no qualified candidates are found at level, we will consider acting opportunities.</p>\n<p>The DGO coordinates and directs the work of RAD and provides direct support and advice to the Director General. This assignment will provide an opportunity for candidates to gain experience in the following areas of responsibility:</p>\n<p>\u00a0</p>\n<ul>\n<li>Reviewing material delivered to DGO, ensuring quality and consistency while acting as a challenge function;</li>\n<li>Developing an understanding of the corporate management responsibilities in the directorate and preparing and commenting on corporate management files;</li>\n<li>Serving as a key point of contact between the DG, other RAD management and staff by communicating DG expectations to divisions, and divisions\u2019 perspective back to DGO,</li>\n<li>Serving as a key point of contact between RAD and the Assistant Deputy Minister\u2019s office on key files;</li>\n<li>Participating in directorate and branch management meetings/briefings with senior management and discussions with key external stakeholders;</li>\n<li>Drafting and/or contributing to written and verbal briefings on topics determined to be the key issues of the day and those to which RAD is positioned to add value;</li>\n<li>Keeping track of main projects and proactively managing timelines;</li>\n<li>Advising the DG and contributing to the development of a RAD-wide vision on policy issues; and</li>\n<li>Supporting the Director General, DGO staff and the general management of RAD.</li>\n</ul>\n<p>\u00a0</p>\n<p>This position requires strong overall competencies, with particular emphasis on:</p>\n<ul>\n<li>Well-developed analytical and strategic thinking skills;</li>\n<li>Excellent writing and interactive communication skills;</li>\n<li>A sense of organization and structure;</li>\n<li>Adaptability;</li>\n<li>An ability to work under pressure;</li>\n<li>A capacity to persuade and influence;</li>\n<li>Tact and diplomacy.</li>\n</ul>\n<p>\u00a0</p>\n<p><strong>Conditions of employment</strong></p>\n<ul>\n<li>Secret security clearance;</li>\n<li>Ability and willingness to work overtime on short notice.</li>\n</ul>\n<p>\u00a0</p>\n<p><strong>Covering letters and resumes must clearly identify:</strong></p>\n<ul>\n<li>Your substantive group and level;</li>\n<li>Your security clearance;</li>\n<li>Your language profile.</li>\n</ul>\n<p>\u00a0</p>\n<p>If there are any questions on the position and responsibilities please contact Matthew Cahoon (<a href=\"mailto:matthew.cahoon@agr.gc.ca\">matthew.cahoon@agr.gc.ca</a>)\u00a0for more information.</p>\n<p>\u00a0</p>\n",
        "fr": "\n<p>La DAR est responsable de la transmission de connaissances et d\u2019expertise au minist\u00e8re sur les tendances et les difficult\u00e9s \u00e9conomiques et sociales qui se rapportent \u00e0 l\u2019\u00e9laboration de politiques agricoles et agroalimentaires. Le r\u00f4le sp\u00e9cifique de la RAD au sein de la Direction g\u00e9n\u00e9rale des politiques strat\u00e9giques, ainsi qu\u2019au sein du Minist\u00e8re, est d\u2019assurer la compr\u00e9hension et l\u2019interpr\u00e9tation de l\u2019information et des donn\u00e9es, ainsi que l\u2019analyse de diverses sources, afin d\u2019appuyer les principales initiatives strat\u00e9giques et un large \u00e9ventail de priorit\u00e9s minist\u00e9rielles.\u00a0</p>\n<p>Les employ\u00e9s d\u2019AAC de niveau EC\u201106 qui sont int\u00e9ress\u00e9s par une possibilit\u00e9 de mutation \u00e0 la DAR, au Bureau du directeur g\u00e9n\u00e9ral (BDG), doivent envoyer une copie de leur curriculum vit\u00e6 et une lettre de pr\u00e9sentation \u00e0 Matthew Cahoon (<a href=\"mailto:matthew.cahoon@agr.gc.ca\">matthew.cahoon@agr.gc.ca</a>) et une copie conforme \u00e0 Joanne Provost (<a href=\"mailto:joanne.provost@agr.gc.ca\">joanne.provost@agr.gc.ca</a>) d\u2019ici la fin de la journ\u00e9e du 6 juillet 2018. La lettre de pr\u00e9sentation doit expliquer clairement, en deux pages ou moins, en quoi les candidats estiment \u00eatre qualifi\u00e9s pour ce poste et comment ils pourraient contribuer \u00e0 la Direction. Si nous ne trouvons aucun candidat qualifi\u00e9 \u00e0 ce niveau, nous prendrons en compte des possibilit\u00e9s d\u2019affectation int\u00e9rimaire.</p>\n<p>Le BDG coordonne et dirige les travaux de la DRA et offre un soutien direct ainsi que des conseils au directeur g\u00e9n\u00e9ral. L\u2019affectation offrira aux candidats l\u2019occasion d\u2019acqu\u00e9rir de l\u2019exp\u00e9rience dans les secteurs de responsabilit\u00e9 suivants :</p>\n<p>\u00a0</p>\n<ul>\n<li>Revoir les documents envoy\u00e9s au BDG pour en assurer la qualit\u00e9 et l\u2019uniformit\u00e9, tout en exer\u00e7ant une fonction critique;</li>\n<li>D\u00e9velopper une compr\u00e9hension des responsabilit\u00e9s en mati\u00e8re de gestion organisationnelle dans la Direction, ainsi que pr\u00e9parer les dossiers de gestion organisationnelle et les commenter;</li>\n<li>Agir comme personne\u2011ressource principale entre le DG et les autres gestionnaires et employ\u00e9s de la DRA en communiquant les attentes du DG aux divisions, et inversement les points de vue des divisions au DG;</li>\n<li>Agir comme personne\u2011ressource principale entre la DRA et le Bureau du sous\u2011ministre adjoint au sujet des principaux dossiers;</li>\n<li>Participer aux r\u00e9unions ou aux s\u00e9ances d\u2019information de la Direction et de la Direction g\u00e9n\u00e9rale avec les cadres sup\u00e9rieurs et aux discussions avec les principaux intervenants externes;</li>\n<li>R\u00e9diger des expos\u00e9s et des documents d\u2019information sur les sujets qui ont \u00e9t\u00e9 d\u00e9termin\u00e9s comme \u00e9tant les grandes questions d\u2019actualit\u00e9 et celles pour lesquelles la DRA peut apporter une valeur ajout\u00e9e, et/ou contribuer \u00e0 leur contenu;</li>\n<li>Assurer le suivi des principaux projets et g\u00e9rer les \u00e9ch\u00e9anciers de mani\u00e8re proactive;</li>\n<li>Conseiller le DG et contribuer au d\u00e9veloppement d\u2019une vision \u00e0 l\u2019\u00e9chelle de la DRA sur les questions strat\u00e9giques;</li>\n<li>Offrir du soutien au directeur g\u00e9n\u00e9ral, au personnel du BDG et \u00e0 la gestion g\u00e9n\u00e9rale de la DRA.</li>\n</ul>\n<p>\u00a0</p>\n<p>Le poste exige des comp\u00e9tences g\u00e9n\u00e9rales solides, plus particuli\u00e8rement :\u00a0</p>\n<ul>\n<li>Excellentes comp\u00e9tences en r\u00e9flexion analytique et strat\u00e9gique;</li>\n<li>Excellentes comp\u00e9tences en mati\u00e8re de communication interactive et par \u00e9crit;</li>\n<li>Sens de l\u2019organisation et de la structure;</li>\n<li>Capacit\u00e9 d\u2019adaptation;</li>\n<li>Capacit\u00e9 \u00e0 travailler sous pression;</li>\n<li>Capacit\u00e9 de convaincre et d\u2019influencer;</li>\n<li>Tact et diplomatie.</li>\n</ul>\n<p>\u00a0</p>\n<p><strong>Conditions d\u2019emploi</strong></p>\n<ul>\n<li>Cote de s\u00e9curit\u00e9 de niveau \u00ab Secret \u00bb;</li>\n<li>Consentir \u00e0 faire des heures suppl\u00e9mentaires \u00e0 court pr\u00e9avis et \u00eatre en mesure de le faire.</li>\n</ul>\n<p>\u00a0</p>\n<p><strong>La lettre de pr\u00e9sentation et le curriculum vit\u00e6 doivent indiquer clairement :</strong></p>\n<ul>\n<li>le groupe et le niveau de votre poste d\u2019attache;</li>\n<li>votre cote de s\u00e9curit\u00e9;</li>\n<li>votre profil linguistique.</li>\n</ul>\n<p>\u00a0</p>\n<p>Si vous avez des questions sur le poste et les responsabilit\u00e9s qui s\u2019y rattachent, veuillez communiquer avec Matthew Cahoon (<a href=\"mailto:matthew.cahoon@agr.gc.ca\">matthew.cahoon@agr.gc.ca</a>) pour obtenir de plus amples renseignements.</p>\n<p>\u00a0</p>\n\n"
    },
    "breadcrumb": {
        "en": "Senior Policy Advisor",
        "fr": "Conseiller principal/Conseill\u00e8re principale en politiques"
    },
    "empl": {
        "type": {
            "en": "Deployment",
            "fr": "Mutation"
        },
        "classification": {
            "en": "EC-6",
            "fr": "EC-6"
        },
        "branch": {
            "en": "Strategic Policy Branch",
            "fr": "Direction g\u00e9n\u00e9rale des politiques strat\u00e9giques"
        },
        "locations": {
            "en": "National Capitol Region",
            "fr": "R\u00e9gion de la capitale nationale"
        },
        "date_closing": {
            "en": "2018-07-06",
            "fr": "2018-07-06"
        },
        "open_to": {
            "en": "AAFC employees at the EC-06 level (employees at EC-05 level may be considered for an acting opportunity)",
            "fr": "Employ\u00e9s d\u2019AAC occupant un poste de niveau EC 06 (EC-05 possibilit\u00e9 d'affection int\u00e9rimaire)"
        },
        "name": {
            "en": "Matthew Cahoon",
            "fr": "Matthew Cahoon"
        },
        "email": {
            "en": "matthew.cahoon@agr.gc.ca",
            "fr": "matthew.cahoon@agr.gc.ca"
        }
    }
}