{
    "dcr_id": "1537282825124",
    "lang": "en",
    "title": {
        "en": "IT Manager, Science Solutions",
        "fr": "Gestionnaire TI, Solutions Scientifiques"
    },
    "modified": "2018-09-19 00:00:00.0",
    "issued": "2018-09-19 00:00:00.0",
    "type_name": "intra-intra/empl-empl",
    "node_id": "1279029955397",
    "layout_name": null,
    "dc_date_created": "2018-09-18",
    "breadcrumb_label": "Manager, Science Solutions",
    "meta": {
        "issued": {
            "en": "2018-09-19",
            "fr": "2018-09-19"
        },
        "modified": {
            "en": "2018-09-19",
            "fr": "2018-09-19"
        },
        "format": {
            "en": "gcformat",
            "fr": "gcformat"
        },
        "title": {
            "en": "IT Manager, Science Solutions",
            "fr": "Gestionnaire TI, Solutions Scientifiques"
        },
        "subject": {
            "en": "staffing",
            "fr": "dotation en personnel"
        },
        "language": {
            "en": "eng",
            "fr": "fra"
        },
        "audience": {
            "en": "gcaudience",
            "fr": "gcaudience"
        },
        "type": {
            "en": "notice",
            "fr": "avis"
        },
        "creator": {
            "en": "Agriculture and Agri-Food Canada",
            "fr": "Agriculture et Agroalimentaire Canada"
        },
        "spatial": {
            "en": "gcregions",
            "fr": "gcregions"
        },
        "service": {
            "en": "AAFC_AgriSource",
            "fr": "AAC_AgriSource"
        },
        "accessRights": {
            "en": "3",
            "fr": "3"
        }
    },
    "body": {
        "en": "\n<p>\u00a0</p>\n<p>The Science and Corporate team in ISB is looking for someone who is interested in a CS-04 assignment or deployment opportunity.</p>\n<p>As the Science Solutions manager, you will be responsible for:</p>\n<ul>\n<li>Leading various Cloud pilots to assess new areas such as Machine Learning (ML), Artificial Intelligence (AI), advanced statistical analysis, the 4 V\u2019s of Big Data, etc.\n\t\n<ul style=\"list-style-type: circle;\">\n<li>\u201cPerforming image analysis on satellite imagery to identify soil quality\u201d</li>\n<li>\u201cModeling loan program data and soil quality to identify and predict repayment schedules\u201d</li>\n</ul>\n</li>\n<li>Managing more than a dozen challenging and interesting science client IM/IT projects such as the Science Management Solution (SMS), Germplasm Resources Information Network (GRIN), Market Access Support System (MASS), etc.</li>\n<li>Assisting scientists, during their Letter of Interest (LOI) and research proposals phase, with the elaboration of Opportunity Proposal Forms (OPF), preparation of estimates and by providing them with technical advice and guidance on the Departmental IM/IT Portfolio Management Framework.</li>\n<li>Contribute to the Science committees by:\n\t\n<ul style=\"list-style-type: circle;\">\n<li>Providing updates and bring forward IM/IT concerns.</li>\n<li>Completing the development and leading the execution of the IM/IT Science Action Plan.</li>\n</ul>\n</li>\n</ul>\n<p>\u00a0</p>\n<p>Key qualifications</p>\n<p>\n<br><br></p>\n<ul>\n<li>This is a bilingual position, so we are looking for employees proficient in English and French language at a minimum CBC/CBC level. Should we be unable to fill this position with a bilingual employee, an Assignment at level or Non-Imperative staffing may be considered. </li>\n<li>Successful completion of two years of an <a href=\"https://www.canada.ca/en/treasury-board-secretariat/services/staffing/qualification-standards/core.html#acce\">acceptable</a> post-secondary educational program, or a bachelor\u2019s degree from a recognized post-secondary institution, with specialization in Computer Sciences, Computer Engineering or any other field related to the position.</li>\n<li>Experience determining client requirements and providing required IM/IT services to address them.</li>\n<li>Experience in managing the execution and delivery of IM/IT solutions.</li>\n<li>Has strong analytical skills.</li>\n<li>Builds solid relationships and can effectively lead teams.</li>\n<li>Takes initiative.</li>\n<li>Has strong client service in resolving IT problems.</li>\n</ul>\n<p>\u00a0</p>\n<ul>\n</ul>\n",
        "fr": "\n<p>\u00a0</p>\n<p>L\u2019\u00e9quipe des solutions scientifiques et organisationnelles de la DGSI est \u00e0 la recherche d\u2019une ressource int\u00e9ress\u00e9e \u00e0 une opportunit\u00e9 d\u2019affectation ou de d\u00e9ploiement au niveau CS-04.</p>\n<p>En tant que gestionnaire des solutions scientifiques, la personne sera responsable de:</p>\n<ul>\n<li>Diriger plusieurs projets pilote dans l\u2019infonuagique pour \u00e9valuer de nouveaux domaines tels que l\u2019apprentissage-machine, l\u2019intelligence artificielle, les analyses statistiques avanc\u00e9es, les 4 V\u2019s des m\u00e9gadonn\u00e9es, etc.\n\t\n<ul style=\"list-style-type: circle;\">\n<li>\u201cPerformer l\u2019analyse d\u2019images satellites pour identifier la qualit\u00e9 du sol\u201d</li>\n<li>\u201cMod\u00e9lisation des donn\u00e9es de pr\u00eats de programme et de qualit\u00e9 de sol pour identifier et pr\u00e9dire des c\u00e9dules de paiement\u201d</li>\n</ul>\n</li>\n<li>G\u00e9rer plus d\u2019une douzaine de projets int\u00e9ressants et stimulant en GI/TI pour soutenir le domaine scientifique, tels que le syst\u00e8me de gestion des informations scientifiques (SGIS), les applications pour soutenir le programme de ressources g\u00e9n\u00e9tiques nationales (NGRP), le syst\u00e8me de soutien de l'acc\u00e8s aux march\u00e9s (SSAM), etc.</li>\n<li>Assister les scientifiques et les chercheurs, durant la phase de lettres d\u2019intention et de proposition, \u00e0 \u00e9laborer leur formulaire de proposition d\u2019opportunit\u00e9, pr\u00e9parer les estim\u00e9s et en leur fournissant des avis techniques ainsi que des directives concernant le cadre minist\u00e9riel de gestion du portfolio en GI/TI.</li>\n<li>Contribuer aux comit\u00e9s directeur support \u00e0 la science en :\n\t\n<ul style=\"list-style-type: circle;\">\n<li>Fournissant des mises-\u00e0-jour et en apportant \u00e0 la table de discussion des probl\u00e8mes en GI/TI.</li>\n<li>Compl\u00e9tant le d\u00e9veloppement et dirigeant l\u2019ex\u00e9cution du plan d\u2019action GI/TI scientifique.</li>\n</ul>\n</li>\n</ul>\n<p>Qualifications cl\u00e9s:</p>\n<ul>\n<li>Cette position est bilingue donc nous recherchons des employ\u00e9s qui ma\u00eetrisent l\u2019anglais et le fran\u00e7ais \u00e0 un niveau minimum CBC/CBC.  Si nous sommes dans l\u2019impossibilit\u00e9 de trouver un employ\u00e9 bilingue, une affectation \u00e0 niveau ou une dotation non imp\u00e9rative pourrait \u00eatre consid\u00e9r\u00e9e.</li>\n<li>Deux ann\u00e9es d'un programme <a href=\"https://www.canada.ca/fr/secretariat-conseil-tresor/services/dotation/normes-qualification/centrale.html#cs\">acceptable</a> d'\u00e9tudes postsecondaires ou un baccalaur\u00e9at termin\u00e9 avec succ\u00e8s d\u2019une institution postsecondaire reconnue en science informatique, technologie de l'information, g\u00e9nie informatique ou dans un autre domaine li\u00e9 au poste \u00e0 combler.</li>\n<li>Exp\u00e9rience dans l\u2019\u00e9laborations de besoins des clients et en fournissant des services en GI/TI pour combler leur besoins.</li>\n<li>Exp\u00e9rience en gestion dans l\u2019ex\u00e9cution et la livraison de solutions en GI/TI.</li>\n<li>D\u00e9tient de fortes qualit\u00e9s d\u2019analyse.</li>\n<li>\u00c9tablit des relations solides et peut efficacement diriger des \u00e9quipes.</li>\n<li>Prends des initiatives.</li>\n<li>A un fort sens de service \u00e0 la client\u00e8le pour r\u00e9soudre des probl\u00e8mes en GI/TI.</li>\n</ul>\n<p>\u00a0</p>\n<ul>\n</ul>\n\n"
    },
    "breadcrumb": {
        "en": "Manager, Science Solutions",
        "fr": "Gestionnaire, Solutions Scientifiques"
    },
    "empl": {
        "type": {
            "en": "Assignment, Deployment",
            "fr": "Affectation, Mutation"
        },
        "classification": {
            "en": "CS-4",
            "fr": "CS-4"
        },
        "branch": {
            "en": "Information Systems Branch",
            "fr": "Direction g\u00e9n\u00e9rale des syst\u00e8mes d'information"
        },
        "locations": {
            "en": "This position can be staffed at any AAFC location across Canada.",
            "fr": "Ce poste peut \u00eatre affect\u00e9 \u00e0 n'importe quel endroit d'AAC au Canada."
        },
        "date_closing": {
            "en": "2018-09-28",
            "fr": "2018-09-28"
        },
        "open_to": {
            "en": "All AAFC Employees",
            "fr": "Tous les employ\u00e9s d'AAC"
        },
        "name": {
            "en": "Dominique Jean-Noel",
            "fr": "Dominique Jean-Noel"
        },
        "email": {
            "en": "Dominique.Jean-Noel@canada.ca",
            "fr": "Dominique.Jean-Noel@canada.ca"
        }
    }
}