{
    "dcr_id": "1538510428560",
    "lang": "en",
    "title": {
        "en": "Events Planner",
        "fr": "Planificateur d\u2019\u00e9v\u00e8nements"
    },
    "modified": "2018-10-03 00:00:00.0",
    "issued": "2018-10-03 00:00:00.0",
    "type_name": "intra-intra/empl-empl",
    "node_id": "1279029955397",
    "layout_name": null,
    "dc_date_created": "2018-10-03",
    "breadcrumb_label": "",
    "meta": {
        "issued": {
            "en": "2018-10-03",
            "fr": "2018-10-03"
        },
        "modified": {
            "en": "2018-10-03",
            "fr": "2018-10-03"
        },
        "format": {
            "en": "gcformat",
            "fr": "gcformat"
        },
        "title": {
            "en": "Events Planner",
            "fr": "Planificateur d\u2019\u00e9v\u00e8nements"
        },
        "subject": {
            "en": "staffing",
            "fr": "dotation en personnel"
        },
        "language": {
            "en": "eng",
            "fr": "fra"
        },
        "audience": {
            "en": "gcaudience",
            "fr": "gcaudience"
        },
        "type": {
            "en": "notice",
            "fr": "avis"
        },
        "creator": {
            "en": "Agriculture and Agri-Food Canada",
            "fr": "Agriculture et Agroalimentaire Canada"
        },
        "spatial": {
            "en": "gcregions",
            "fr": "gcregions"
        },
        "service": {
            "en": "AAFC_AgriSource",
            "fr": "AAC_AgriSource"
        },
        "accessRights": {
            "en": "3",
            "fr": "3"
        }
    },
    "body": {
        "en": "\n<p><strong>\u00a0</strong></p>\n<p><strong>Duties:</strong><em> </em></p>\n<p>The individual will be responsible for coordinating logistical requirements of high profile meetings and events for senior officials. This will include assisting in the logistics and potential on-site delivery of Federal-Provincial-Territorial meetings at the ADM, DM and Ministerial level. The individual will assist the team in the planning and delivery of the industry-government Value Chain Roundtables. A key role will be in the support of Call for Briefs and the preparation of shells and briefing books in support of outreach undertaken by the Associate, the Deputy Minister and the Minister.</p>\n<p><strong>\u00a0</strong></p>\n<p><strong>Statement of Merit Criteria &amp; Conditions of Employment</strong></p>\n<p><strong>\u00a0</strong></p>\n<p><strong>Essential Qualifications</strong></p>\n<p>\u00a0</p>\n<p><b>Education</b>:</p>\n<ul>\n<li>\n<p>Secondary school diploma or an acceptable combination of education, training and/or experience.</p>\n</li>\n</ul>\n<p>\u00a0</p>\n<p><b>Experience(s):</b></p>\n<ul>\n<li>\n<p>Experience in planning, organizing and coordinating high profile meetings for senior government officials including meetings between industry stakeholders and senior government officials;</p>\n</li>\n<li>\n<p>Experience in providing event management advice to senior government officials.</p>\n</li>\n<li>\n<p>Experience in managing logistics for events, meetings and/or conferences involving Ministers, Deputy Ministers and/or Assistant Deputy Ministers.</p>\n</li>\n<li>\n<p>Experience in managing multiple projects at the same time</p>\n</li>\n</ul>\n<p>\u00a0</p>\n<p><b>Knowledge(s):</b></p>\n<ul>\n<li>\n<p>Knowledge of the logistics requirements of industry meetings or events</p>\n</li>\n<li>\n<p>Knowledge of Government of Canada protocol related to event management.</p>\n</li>\n<li>\n<p>Knowledge of Treasury Board Secretariat guidelines related to contracting and expenditure initiation within the Financial Administration Act.</p>\n</li>\n</ul>\n<p>\u00a0</p>\n<p><b>Competencies:</b></p>\n<ul>\n<li>\n<p>Client Focus</p>\n</li>\n<li>\n<p>Adaptability</p>\n</li>\n<li>\n<p>Planning and Organizing</p>\n</li>\n<li>\n<p>Teamwork</p>\n</li>\n<li>\n<p>Initiative</p>\n</li>\n<li>\n<p>Dependability</p>\n</li>\n<li>\n<p>Writing Skills</p>\n</li>\n<li>\n<p>Interactive Communication</p>\n</li>\n</ul>\n<p>\u00a0</p>\n<p><b>Language Requirement(s):</b></p>\n<ul>\n<li>\n<p>Bilingual Imperative (BBB/BBB)</p>\n</li>\n</ul>\n<p>\u00a0</p>\n<p><strong>Assets Qualifications - </strong>Nil</p>\n<p>\u00a0</p>\n<p><strong>Organizational Needs</strong></p>\n<p>In support of achieving a diversified workforce, consideration may be given to candidates self-identifying as belonging to one of the following Employment Equity groups: Aboriginal peoples, Persons with a Disability; Visible Minorities, Women.</p>\n<p><strong>\u00a0</strong></p>\n<p><strong>Conditions of Employment</strong><strong> </strong></p>\n<p>Security Requirement(s): Secret security clearance; Ability and willingness to work overtime including weekends, with little or no notice. Ability and willingness to travel.<strong> </strong></p>\n<p>\u00a0</p>\n<p><strong>Applications:</strong></p>\n<p>Interested Government of Canada employees are encouraged to forward their resume and cover letter to Cathy Gauthier at cathy.gauthier@canada.ca<em> </em></p>\n<p>\u00a0</p>\n<p>Resumes must clearly identify:</p>\n<ul>\n<li>\n<p>Your tenure (e.g. term or indeterminate)</p>\n</li>\n<li>\n\tYour substantive group and level</li>\n</ul>\n<p>\u00a0</p>\n<p><strong>Notes:</strong></p>\n<ul>\n<li>\n<strong>Deployments cannot change the tenure of an employee (i.e: term to indeterminate) or constitute a promotion. </strong></li>\n<li>\n<p><strong>Communication for this process will be sent via email.</strong></p>\n</li>\n<li>\n<p><strong>A pool of qualified candidates will be established and may be used to staff similar positions on an acting, assignment or deployment basis. </strong></p>\n<p>\u00a0</p>\n</li>\n</ul>\n",
        "fr": "\n<p><strong>\u00a0</strong></p>\n<p><strong>Fonctions</strong><em> </em></p>\n<p>Le titulaire du poste est responsable de la coordination des besoins logistiques de r\u00e9unions et d\u2019activit\u00e9s de haut niveau \u00e0 l\u2019intention de cadres sup\u00e9rieurs. Les t\u00e2ches comprennent l\u2019aide \u00e0 la logistique et \u00e0 la mise en \u0153uvre possible sur place de r\u00e9unions f\u00e9d\u00e9rales-provinciales-territoriales \u00e0 l\u2019\u00e9chelon des SMA, des SM et des ministres. Le titulaire du poste aidera l\u2019\u00e9quipe \u00e0 planifier et \u00e0 mettre en \u0153uvre des r\u00e9unions des Tables rondes sur les cha\u00eenes de valeur industrie-gouvernement. Un de ses principaux r\u00f4les consistera \u00e0 fournir du soutien dans le cadre des appels de notes d\u2019information et de la pr\u00e9paration de cahiers d\u2019information \u00e0 l\u2019appui des activit\u00e9s de sensibilisation entreprises par le sous-ministre adjoint, le sous-ministre et le ministre.</p>\n<p>\u00a0</p>\n<p><strong>\u00c9nonc\u00e9 des crit\u00e8res de m\u00e9rite et conditions d\u2019emplois</strong></p>\n<p><strong>\u00a0</strong></p>\n<p><strong>Qualifications</strong> <strong>essentielles</strong></p>\n<p><strong>\u00a0</strong></p>\n<p><strong>\u00c9tudes</strong></p>\n<ul>\n<li>\n<p>Dipl\u00f4me d\u2019\u00e9tudes secondaires ou combinaison acceptable d\u2019\u00e9tudes, de formation et d\u2019exp\u00e9rience.</p>\n</li>\n</ul>\n<p>\u00a0</p>\n<p><strong>Exp\u00e9rience</strong></p>\n<ul>\n<li>\n<p>Exp\u00e9rience de la planification, de l\u2019organisation et de la coordination de r\u00e9unions de haut niveau pour des hauts fonctionnaires du gouvernement, incluant des r\u00e9unions entre des intervenants de l\u2019industrie et des hauts fonctionnaires du gouvernement.</p>\n</li>\n<li>\n<p>Exp\u00e9rience de conseil en mati\u00e8re de gestion d\u2019\u00e9v\u00e8nements \u00e0 des hauts fonctionnaires f\u00e9d\u00e9raux.</p>\n</li>\n<li>\n<p>Exp\u00e9rience de la gestion de la logistique de projets, d\u2019\u00e9v\u00e8nements sp\u00e9ciaux ou de conf\u00e9rences auxquels participent des sous-ministres adjoints, des sous-ministres ou des ministres.</p>\n</li>\n<li>\n<p>Exp\u00e9rience de la gestion de plusieurs projets en m\u00eame temps.</p>\n</li>\n</ul>\n<p>\u00a0</p>\n<p><strong>Connaissances</strong></p>\n<ul>\n<li>\n<p>Connaissance des exigences relatives \u00e0 la logistique des r\u00e9unions ou des activit\u00e9s auxquelles participent des intervenants de l\u2019industrie.</p>\n</li>\n<li>\n<p>Connaissance des protocoles du gouvernement du Canada en mati\u00e8re de gestion d\u2019\u00e9v\u00e8nements.</p>\n</li>\n<li>\n<p>Connaissance des lignes directrices du Secr\u00e9tariat du Conseil du Tr\u00e9sor sur la passation de march\u00e9s et l\u2019engagement de d\u00e9penses au sens de la <em>Loi sur la gestion des finances publiques</em>.</p>\n</li>\n</ul>\n<p>\u00a0</p>\n<p><strong>Comp\u00e9tences</strong></p>\n<ul>\n<li>\n<p>Souci du service \u00e0 la client\u00e8le</p>\n</li>\n<li>\n<p>Capacit\u00e9 d\u2019adaptation</p>\n</li>\n<li>\n<p>Planification et organisation</p>\n</li>\n<li>\n<p>Esprit d\u2019\u00e9quipe</p>\n</li>\n<li>\n<p>Esprit d\u2019initiative</p>\n</li>\n<li>\n<p>Fiabilit\u00e9</p>\n</li>\n<li>\n<p>Comp\u00e9tences en r\u00e9daction</p>\n</li>\n<li>\n<p>Communication interactive</p>\n</li>\n</ul>\n<p>\u00a0</p>\n<p><strong>Exigences linguistiques</strong> :</p>\n<ul>\n<li>\n<p>bilinguisme imp\u00e9ratif \u00e0 la nomination \u2013 BBB/BBB</p>\n</li>\n</ul>\n<p>\u00a0</p>\n<p><strong>Qualifications constituant un atout \u2013 S.O.</strong></p>\n<p>\u00a0</p>\n<h3><strong>Besoins organisationnels</strong></h3>\n<p>Pour les besoins de la diversification de l\u2019effectif, une attention particuli\u00e8re pourrait \u00eatre accord\u00e9e aux candidats qui auront indiqu\u00e9 leur appartenance \u00e0 l\u2019un des groupes suivants, vis\u00e9s par l\u2019\u00e9quit\u00e9 en mati\u00e8re d\u2019emploi : Autochtones, personnes handicap\u00e9es, membres d\u2019une minorit\u00e9 visible, femmes.</p>\n<p><strong>\u00a0</strong></p>\n<p><strong>Conditions d\u2019emploi</strong></p>\n<p>Exigences en mati\u00e8re de s\u00e9curit\u00e9 : Cote de s\u00e9curit\u00e9 de niveau \u00ab\u2009Secret\u2009\u00bb</p>\n<p>Consentir et \u00eatre apte \u00e0 faire des heures suppl\u00e9mentaires et \u00e0 travailler les fins de semaine avec peu de pr\u00e9avis ou sans pr\u00e9avis.</p>\n<p>Consentir et \u00eatre apte \u00e0 voyager.<strong> </strong></p>\n<p>\u00a0</p>\n<p><strong>Demandes</strong></p>\n<p>Les employ\u00e9s du gouvernement du Canada sont encourag\u00e9s \u00e0 faire parvenir leur curriculum vitae et leur lettre de pr\u00e9sentation \u00e0 Cathy Gauthier \u00e0 l\u2019adresse cathy.gauthier@canada.ca<em> </em></p>\n<p>Dans leur curriculum vit\u00e6, les candidats doivent clairement indiquer :</p>\n<ul>\n<li>\n<p>la dur\u00e9e de leur emploi (p. ex. d\u00e9termin\u00e9e ou ind\u00e9termin\u00e9e);</p>\n</li>\n<li>\n\tleur groupe et niveau de titularisation.</li>\n</ul>\n<p>\u00a0</p>\n<p><strong>Remarques</strong></p>\n<ul>\n<li>\n\t<strong>Les mutations ne doivent pas entra\u00eener de modification \u00e0 la dur\u00e9e d\u2019emploi d\u2019un employ\u00e9 (d\u00e9termin\u00e9e ou ind\u00e9termin\u00e9e) ni constituer une promotion. </strong></li>\n<li>\n<p><strong>Les communications relatives \u00e0 ce processus se feront par courriel.</strong></p>\n</li>\n<li>\n<p><strong>Un bassin de candidats qualifi\u00e9s pourrait \u00eatre \u00e9tabli et utilis\u00e9 pour doter des postes semblables int\u00e9rimaires, temporaires ou permanents. </strong></p>\n<p>\u00a0</p>\n</li>\n</ul>\n\n"
    },
    "breadcrumb": {
        "en": "Events Planner",
        "fr": "Planificateur d\u2019\u00e9v\u00e8nements"
    },
    "empl": {
        "type": {
            "en": "Deployment",
            "fr": "Mutation"
        },
        "classification": {
            "en": "AS-3 and equivalent",
            "fr": "AS-3 et \u00e9quivalent"
        },
        "branch": {
            "en": "Public Affairs Branch",
            "fr": "Direction g\u00e9n\u00e9rale des affaires publiques"
        },
        "locations": {
            "en": "NCR",
            "fr": "RCN"
        },
        "date_closing": {
            "en": "2018-10-11",
            "fr": "2018-10-11"
        },
        "open_to": {
            "en": "Employees of AAFC",
            "fr": "Employ\u00e9s d'AAC"
        },
        "name": {
            "en": "Cathy Gauthier",
            "fr": "Cathy Gauthier"
        },
        "email": {
            "en": "cathy.gauthier@canada.ca",
            "fr": "cathy.gauthier@canada.ca"
        }
    }
}