{
    "dcr_id": "1539177540776",
    "lang": "en",
    "title": {
        "en": "Economist",
        "fr": "\u00c9conomiste"
    },
    "modified": "2018-10-10 00:00:00.0",
    "issued": "2018-10-10 00:00:00.0",
    "type_name": "intra-intra/empl-empl",
    "node_id": "1279029955397",
    "layout_name": null,
    "dc_date_created": "2018-10-10",
    "breadcrumb_label": "",
    "meta": {
        "issued": {
            "en": "2018-10-10",
            "fr": "2018-10-10"
        },
        "modified": {
            "en": "2018-10-10",
            "fr": "2018-10-10"
        },
        "format": {
            "en": "gcformat",
            "fr": "gcformat"
        },
        "title": {
            "en": "Economist",
            "fr": "\u00c9conomiste"
        },
        "subject": {
            "en": "staffing",
            "fr": "dotation en personnel"
        },
        "language": {
            "en": "eng",
            "fr": "fra"
        },
        "audience": {
            "en": "gcaudience",
            "fr": "gcaudience"
        },
        "type": {
            "en": "notice",
            "fr": "avis"
        },
        "creator": {
            "en": "Agriculture and Agri-Food Canada",
            "fr": "Agriculture et Agroalimentaire Canada"
        },
        "spatial": {
            "en": "gcregions",
            "fr": "gcregions"
        },
        "service": {
            "en": "AAFC_AgriSource",
            "fr": "AAC_AgriSource"
        },
        "accessRights": {
            "en": "3",
            "fr": "3"
        }
    },
    "body": {
        "en": "<p><strong>Description</strong></p>\n<p><strong>\u00a0</strong></p>\n<p><strong>The Agri-Food Support, Measurement and Analysis (ASMA) Group offer you a one-year assignment opportunity where you can expect to be involved in the following: </strong></p>\n<p><strong>\u00a0</strong></p>\n<p><strong>Key Activities:</strong></p>\n<ul>\n<li>\n<p><strong><em>Coordinate Measures of Support</em></strong>: Work with colleagues across government and in the provinces to coordinate, analyze and report on government expenditures (GE) and direct payments (DP) to the agriculture and agri-food sector across Canada;</p>\n</li>\n<li>\n<p><strong><em>Conduct Economic Analysis: </em></strong>Conduct statistical analysis of provincial, federal and international support data and prepare economic findings for senior management review.</p>\n</li>\n<li>\n<p><strong><em>International Reporting</em></strong>: Work with colleagues to help coordinate and analyze support data in order to fulfil Canada\u2019s international reporting obligations with multilateral organizations such as the OECD and the WTO;</p>\n</li>\n<li>\n<p><strong><em>Represent ASMA at Meetings</em></strong>: Attend multi-disciplinary, intradepartmental or interdepartmental, and/or FPT meetings. Participate in projects/working groups/studies where there is a requirement to discuss support information and related data requirements;</p>\n</li>\n<li>\n<p><strong><em>Research and Review Information</em></strong>: Conduct literature and media searches and develop summaries and synopses of current and emerging information that pertains to the measures of support to agriculture and agri-food in Canada; and</p>\n</li>\n<li>\n<p><strong><em>Provide Advice and Recommendations</em></strong>: Synthesize review and research data/information, develop research approaches, and identify alternative approaches and consider options to produce and disseminate information materials. Present strategic advice, recommendations or economic findings to senior management.</p>\n</li>\n</ul>\n<p>\u00a0</p>\n<p>Candidates should be interested in developing their quantitative analytical skills and have strong communication and writing skills, good judgement and initiative. Applicants should possess the developed capacity to work as a member of a team readily sharing information and knowledge and the capacity to work independently.</p>\n<p>\u00a0</p>\n<p>This position is intended for an assignment at-level as part of the ECDP requirement.</p>\n<p>\u00a0</p>\n<p>The Agri-Food Support Measurement and Analysis (ASMA) group is responsible for measuring and analyzing government support to the agriculture and agri-food sector. The group compiles information from federal and provincial governments across Canada to measure how much government spends on the agriculture sector and how much producers receive from government. This work is used across the department to assist research and policy analysis activities. This information is also provided to the WTO and the OECD as part of Canada\u2019s international obligations to report support on the agriculture sector. The group also monitors the level and composition of support to agriculture from other major trading partners and competitors and provides supporting analysis based on policy demands.</p>\n<p>\u00a0</p>\n<p>Please send your up-to-date resume and a cover letter (maximum 500 words) outlining your experience and why you are interested in this opportunity to John Stevenson by October 26, 2018.</p>\n<p>\u00a0</p>\n<p>Resumes must clearly identify:</p>\n<ul>\n<li>Your tenure (e.g. term or indeterminate)</li>\n<li>Your substantive group and level</li>\n</ul>\n<p>\u00a0</p>\n",
        "fr": "<p><strong>Description</strong></p>\n<ol>\n<li><strong>Groupe de mesure et d\u2019analyse du soutien agroalimentaire (GMASA) vous offre une possibilit\u00e9 d\u2019affectation d\u2019un an qui vous permettra de prendre part aux t\u00e2ches ci-dessous. </strong></li>\n</ol>\n<p><strong>\u00a0</strong></p>\n<p><strong>\u00a0</strong></p>\n<p><strong>Activit\u00e9s principales :</strong></p>\n<ul>\n<li>\n<p><strong><em>Coordonner les mesures de soutien </em></strong>: Collaborer avec des coll\u00e8gues du gouvernement et des provinces pour coordonner et analyser les d\u00e9penses gouvernementales et les paiements directs vers\u00e9s au secteur de l\u2019agriculture et de l\u2019agroalimentaire \u00e0 l\u2019\u00e9chelle du Canada, et pour en rendre compte;</p>\n</li>\n<li>\n<p><strong><em>R\u00e9aliser des analyses \u00e9conomiques : </em></strong>Mener des analyses statistiques relativement aux donn\u00e9es sur le soutien des gouvernements provinciaux, f\u00e9d\u00e9ral et \u00e9trangers et pr\u00e9parer des conclusions \u00e9conomiques qui seront soumises \u00e0 la haute direction.</p>\n</li>\n<li>\n<p><strong><em>Rapports internationaux </em></strong>: En collaboration avec des coll\u00e8gues, coordonner et analyser des donn\u00e9es sur le soutien offert afin d\u2019aider le Canada \u00e0 remplir ses obligations internationales en mati\u00e8re de reddition de comptes envers diverses organisations multilat\u00e9rales comme l\u2019OCDE et l\u2019OMC;</p>\n</li>\n<li>\n<p><strong><em>Repr\u00e9senter le GMASA aux r\u00e9unions </em></strong>: Assister \u00e0 des r\u00e9unions multidisciplinaires, intraminist\u00e9rielles ou interminist\u00e9rielles et/ou \u00e0 des r\u00e9unions FPT. Participer \u00e0 des projets, \u00e0 des groupes de travail ou \u00e0 des \u00e9tudes qui n\u00e9cessitent d\u2019examiner des donn\u00e9es sur le soutien et des besoins connexes en mati\u00e8re de donn\u00e9es;</p>\n</li>\n<li>\n<p><strong><em>Chercher et examiner de l\u2019information </em></strong>: Faire des recherches dans la documentation et les m\u00e9dias et pr\u00e9parer des r\u00e9sum\u00e9s de l\u2019information actuelle et nouvelle sur les mesures de soutien offertes au secteur de l\u2019agriculture et de l\u2019agroalimentaire du Canada;</p>\n</li>\n<li>\n<p><strong><em>Formuler des conseils et des recommandations </em></strong>: R\u00e9sumer les donn\u00e9es et l\u2019information d\u00e9coulant de l\u2019examen et de la recherche, \u00e9laborer des m\u00e9thodes de recherche, trouver d\u2019autres approches et examiner des options pour produire et diffuser des documents d\u2019information. Pr\u00e9senter des conseils strat\u00e9giques, des recommandations ou des conclusions \u00e9conomiques \u00e0 la haute direction.</p>\n</li>\n</ul>\n<p>\u00a0</p>\n<p>Les candidats doivent souhaiter renforcer leurs comp\u00e9tences en analyse quantitative et poss\u00e9der d\u2019excellentes comp\u00e9tences en communication et en r\u00e9daction, un bon jugement et de l\u2019initiative. Ils doivent avoir un excellent esprit d\u2019\u00e9quipe pour \u00e9changer efficacement de l\u2019information et des connaissances et \u00eatre en mesure de travailler de fa\u00e7on autonome.</p>\n<p>\u00a0</p>\n<p>Il s\u2019agit d\u2019une affectation \u00e0 un poste de m\u00eame niveau dans le cadre du PPEC.</p>\n<p>\u00a0</p>\n<p>Le Groupe de la mesure et de l\u2019analyse du soutien agroalimentaire (GMASA) est charg\u00e9 de mesurer et d\u2019analyser le soutien gouvernemental offert au secteur de l\u2019agriculture et de l\u2019agroalimentaire. Le groupe compile l\u2019information re\u00e7ue des gouvernements f\u00e9d\u00e9ral et provinciaux de partout au Canada pour mesurer les d\u00e9penses gouvernementales \u00e0 l\u2019\u00e9gard du secteur agricole et les sommes gouvernementales vers\u00e9es aux producteurs. Le Minist\u00e8re utilise cette information pour faciliter les activit\u00e9s de recherche et d\u2019analyse des politiques. L\u2019information est aussi fournie \u00e0 l\u2019OMC et \u00e0 l\u2019OCDE pour aider le Canada \u00e0 remplir ses obligations internationales en mati\u00e8re de reddition de comptes sur le soutien offert au secteur agricole. Le groupe suit \u00e9galement de pr\u00e8s le niveau et la composition du soutien \u00e0 l\u2019agriculture offert par d\u2019autres importants partenaires commerciaux et concurrents, et fournit des analyses au sujet des exigences relatives aux politiques.</p>\n<p>\u00a0</p>\n<p>Veuillez faire parvenir \u00e0 John Stevenson d\u2019ici le 26 octobre 2018 votre curriculum vitae \u00e0 jour et une lettre de pr\u00e9sentation (500 mots maximum) dans laquelle vous d\u00e9crivez votre exp\u00e9rience et les raisons de votre int\u00e9r\u00eat pour cette affectation<strong>.</strong></p>\n<p>\u00a0</p>\n<p>Dans leur curriculum vitae, les candidats doivent clairement indiquer :</p>\n<ul>\n<li>le type de poste occup\u00e9 (p. ex. dur\u00e9e d\u00e9termin\u00e9e ou ind\u00e9termin\u00e9e);</li>\n<li>le groupe et le niveau de leur poste d\u2019attache.</li>\n</ul>\n<p>\u00a0</p>\n\n"
    },
    "breadcrumb": {
        "en": "Economist",
        "fr": "\u00c9conomiste"
    },
    "empl": {
        "type": {
            "en": "Assignment",
            "fr": "Affectation"
        },
        "classification": {
            "en": "EC-2 and equivalent",
            "fr": "EC-2 et \u00e9quivalent"
        },
        "branch": {
            "en": "Strategic Policy Branch",
            "fr": "Direction g\u00e9n\u00e9rale des politiques strat\u00e9giques"
        },
        "locations": {
            "en": "National Capital Region",
            "fr": "R\u00e9gion de la capitale nationale"
        },
        "date_closing": {
            "en": "2018-10-26",
            "fr": "2018-10-26"
        },
        "open_to": {
            "en": "ECDP Participants at the EC-02, EC-03 and EC-04 Level",
            "fr": "Participants au PPEC de niveau EC-02, EC-03 ou EC-04"
        },
        "name": {
            "en": "john.stevenson@canada.ca",
            "fr": "john.stevenson@canada.ca"
        },
        "email": {
            "en": "john.stevenson@canada.ca",
            "fr": "john.stevenson@canada.ca"
        }
    }
}