{
    "dcr_id": "1540231281276",
    "lang": "en",
    "title": {
        "en": "Data Evangelist",
        "fr": "\u00c9vang\u00e9liste des donn\u00e9es"
    },
    "modified": "2018-10-23 00:00:00.0",
    "issued": "2018-10-23 00:00:00.0",
    "type_name": "intra-intra/empl-empl",
    "node_id": "1279029955397",
    "layout_name": null,
    "dc_date_created": "2018-10-22",
    "breadcrumb_label": "",
    "meta": {
        "issued": {
            "en": "2018-10-23",
            "fr": "2018-10-23"
        },
        "modified": {
            "en": "2018-10-23",
            "fr": "2018-10-23"
        },
        "format": {
            "en": "gcformat",
            "fr": "gcformat"
        },
        "title": {
            "en": "Data Evangelist",
            "fr": "\u00c9vang\u00e9liste des donn\u00e9es"
        },
        "subject": {
            "en": "staffing",
            "fr": "dotation en personnel"
        },
        "language": {
            "en": "eng",
            "fr": "fra"
        },
        "audience": {
            "en": "gcaudience",
            "fr": "gcaudience"
        },
        "type": {
            "en": "notice",
            "fr": "avis"
        },
        "creator": {
            "en": "Agriculture and Agri-Food Canada",
            "fr": "Agriculture et Agroalimentaire Canada"
        },
        "spatial": {
            "en": "gcregions",
            "fr": "gcregions"
        },
        "service": {
            "en": "AAFC_AgriSource",
            "fr": "AAC_AgriSource"
        },
        "accessRights": {
            "en": "3",
            "fr": "3"
        }
    },
    "body": {
        "en": "\n<p>\u00a0</p>\n<p>Employees of Agriculture and Agri-Food Canada at the EC-06 and EC-07 levels and equivalents are invited to express their interest in an 8-12 month assignment managing the Data Development and Partnerships (DDP) team and reporting to AAFC\u2019s Director General Data Lead.</p>\n<p>\u00a0</p>\n<p>The DDP is leading the development and implementation of AAFC\u2019s Data Strategy and is using data science to demonstrate how data is an incredible departmental asset.</p>\n<p>\u00a0</p>\n<p><b>In this role you will have the opportunity to:</b></p>\n<ul>\n<li>\n<p>Lead a team of policy analysts and data scientists in implementing AAFC\u2019s data strategy;</p>\n</li>\n<li>\n<p>Learn from colleagues within AAFC and across the GC who are implementing data-driven solutions that are making government more effective, supporting evidence-based decision-making and enabling superior client-service;</p>\n</li>\n<li>\n<p>Provide senior management (Director General level and above) with data-related briefings, advice and recommendations;</p>\n</li>\n<li>\n<p>Develop, coordinate and support data pilot projects, proof of concepts and data experiments including, but not limited to pilot applications data science, machine learning and artificial intelligence; and</p>\n</li>\n<li>\n<p>Experience working horizontally across the department and the GC of Canada, with hand-on experience developing data policy, collaborating with central agencies, other departments and contributing to the implementation of the GC Data Strategy.</p>\n</li>\n</ul>\n<p>\u00a0</p>\n<p><b>The ideal candidate should have:</b></p>\n<ul>\n<li>\n<p>An inclination for data and interest in data-related policy, processes and digital technology, but does not need to be a technical data wizard;</p>\n</li>\n<li>\n<p>Experience leading projects, files and/or people;</p>\n</li>\n<li>\n<p>Be a courageous agent of change;</p>\n</li>\n<li>\n<p>A collaborative bent and always be in search of new ideas/opportunities;</p>\n</li>\n<li>\n<p>Self-motivated and persistent in the face of obstacles; and</p>\n</li>\n<li>\n<p>A willingness and demonstrated ability developing strong horizontal relationships and networks;</p>\n<p>\u00a0</p>\n</li>\n</ul>\n<p>Candidates should also have strong analytical, communication and writing skills, as well as good judgement and initiative.</p>\n<p>\u00a0</p>\n<p>Interested? Send your resume and a cover letter (maximum 500 words) explaining why you are interested in this opportunity to Julie Levert (julie.levert@canada.ca) before the deadline.</p>\n<p>\u00a0</p>\n",
        "fr": "\n<p>\u00a0</p>\n<p>Les employ\u00e9s d\u2019Agriculture et Agroalimentaire Canada qui occupent un poste EC-06 ou EC-07 ou un poste de niveau \u00e9quivalent sont invit\u00e9s \u00e0 faire part de leur int\u00e9r\u00eat pour une affectation de 8 \u00e0 12 mois \u00e0 la direction de l\u2019\u00e9quipe de l\u2019\u00c9laboration des donn\u00e9es et des partenariats (EDP). Le titulaire rel\u00e8vera du directeur g\u00e9n\u00e9ral responsable des donn\u00e9es \u00e0 AAC.</p>\n<p>\u00a0</p>\n<p>L\u2019\u00e9quipe de l\u2019EDP dirige l\u2019\u00e9laboration et la mise en \u0153uvre de la strat\u00e9gie en mati\u00e8re de donn\u00e9es d\u2019AAC et utilise la science des donn\u00e9es pour d\u00e9montrer comment les donn\u00e9es sont un bien minist\u00e9riel tr\u00e8s important.</p>\n<p>\u00a0</p>\n<p><b>Dans ce r\u00f4le, vous pourrez :</b></p>\n<ul>\n<li>\n<p>Diriger une \u00e9quipe d\u2019analystes des politiques et d\u2019experts des donn\u00e9es qui mettront en \u0153uvre la strat\u00e9gie en mati\u00e8re de donn\u00e9es d\u2019AAC;</p>\n</li>\n<li>\n<p>Apprendre de coll\u00e8gues \u00e0 AAC et ailleurs au gouvernement du Canada, qui mettent en \u0153uvre des solutions bas\u00e9es sur les donn\u00e9es pour am\u00e9liorer l\u2019efficacit\u00e9 du gouvernement, soutenir la prise de d\u00e9cisions fond\u00e9es sur des donn\u00e9es probantes et favoriser un excellent service \u00e0 la client\u00e8le;</p>\n</li>\n<li>\n<p>Fournir \u00e0 la haute direction (directeur g\u00e9n\u00e9ral et niveaux sup\u00e9rieurs) des s\u00e9ances d\u2019information et des recommandations au sujet des donn\u00e9es;</p>\n</li>\n<li>\n<p>\u00c9laborer, coordonner et appuyer des projets pilotes sur les donn\u00e9es, des validations de principe et des exp\u00e9riences sur les donn\u00e9es, y compris des applications pilotes, la science des donn\u00e9es, l\u2019apprentissage machine et l\u2019intelligence artificielle;</p>\n</li>\n<li>\n<p>Travailler horizontalement \u00e0 l\u2019\u00e9chelle du Minist\u00e8re et du gouvernement du Canada, acqu\u00e9rir une exp\u00e9rience pratique de l\u2019\u00e9laboration des politiques sur les donn\u00e9es, collaborer avec les organismes centraux et d\u2019autres minist\u00e8res et contribuer \u00e0 la mise en \u0153uvre de la strat\u00e9gie en mati\u00e8re de donn\u00e9es du gouvernement du Canada.</p>\n<p>\u00a0</p>\n</li>\n</ul>\n<p><b>Le candidat id\u00e9al doit :</b></p>\n<ul>\n<li>\n\tAvoir un int\u00e9r\u00eat pour les donn\u00e9es ainsi que les politiques, les technologies num\u00e9riques et les processus li\u00e9s aux donn\u00e9es sans n\u00e9cessairement \u00eatre un g\u00e9nie des donn\u00e9es techniques;</li>\n<li>\n<p>Avoir de l\u2019exp\u00e9rience en gestion de projets, de dossiers ou de personnel;</p>\n</li>\n<li>\n<p>\u00catre un agent de changement courageux;</p>\n</li>\n<li>\n<p>Avoir l\u2019esprit de collaboration et \u00eatre toujours \u00e0 la recherche de nouvelles id\u00e9es ou possibilit\u00e9s;</p>\n</li>\n<li>\n<p>\u00catre motiv\u00e9 et faire preuve de pers\u00e9v\u00e9rance devant des obstacles;</p>\n</li>\n<li>\n<p>\u00catre apte et dispos\u00e9 \u00e0 \u00e9tablir de solides relations et r\u00e9seaux sur le plan horizontal.</p>\n<p>\u00a0</p>\n</li>\n</ul>\n<p>Les candidats doivent aussi poss\u00e9der de solides comp\u00e9tences en analyse, en communication et en r\u00e9daction en plus de faire preuve de jugement et d\u2019un bon esprit d\u2019initiative.</p>\n<p>\u00a0</p>\n<p>Si cette occasion vous int\u00e9resse, faites parvenir votre curriculum vit\u00e6 ainsi qu\u2019un courriel (d\u2019au plus 500 mots) dans lequel vous expliquez les raisons de votre int\u00e9r\u00eat \u00e0 Julie Levert (julie.levert@canada.ca) avant la date de cl\u00f4ture.</p>\n<p>\u00a0</p>\n\n"
    },
    "breadcrumb": {
        "en": "Data Evangelist",
        "fr": "\u00c9vang\u00e9liste des donn\u00e9es"
    },
    "empl": {
        "type": {
            "en": "Assignment, Acting",
            "fr": "Affectation, Int\u00e9rimaire"
        },
        "classification": {
            "en": "EC-7 and equivalent",
            "fr": "EC-7 et \u00e9quivalent"
        },
        "branch": {
            "en": "Strategic Policy Branch",
            "fr": "Direction g\u00e9n\u00e9rale des politiques strat\u00e9giques"
        },
        "locations": {
            "en": "National Capital Region",
            "fr": "R\u00e9gion de la capitale nationale"
        },
        "date_closing": {
            "en": "2018-10-31",
            "fr": "2018-10-31"
        },
        "open_to": {
            "en": "AAFC Employees at the EC-06 and EC-07 levels or equivalents",
            "fr": "Employ\u00e9s d\u2019AAC aux niveaux EC-06 et EC-07 ou niveaux \u00e9quivalents"
        },
        "name": {
            "en": "Julie.Levert@canada.ca",
            "fr": "Julie.Levert@canada.ca"
        },
        "email": {
            "en": "Julie.Levert@canada.ca",
            "fr": "Julie.Levert@canada.ca"
        }
    }
}