{
    "dcr_id": "1541180101069",
    "lang": "en",
    "title": {
        "en": "Minister\u2019s Scheduling Assistant",
        "fr": "Adjoint(e) \u00e0 la planification du ministre "
    },
    "modified": "2018-11-02 00:00:00.0",
    "issued": "2018-11-02 00:00:00.0",
    "type_name": "intra-intra/empl-empl",
    "node_id": "1279029955397",
    "layout_name": null,
    "dc_date_created": "2018-11-02",
    "breadcrumb_label": "",
    "meta": {
        "issued": {
            "en": "2018-11-02",
            "fr": "2018-11-02"
        },
        "modified": {
            "en": "2018-11-02",
            "fr": "2018-11-02"
        },
        "format": {
            "en": "gcformat",
            "fr": "gcformat"
        },
        "title": {
            "en": "Minister\u2019s Scheduling Assistant",
            "fr": "Adjoint(e) \u00e0 la planification du ministre "
        },
        "subject": {
            "en": "staffing",
            "fr": "dotation en personnel"
        },
        "language": {
            "en": "eng",
            "fr": "fra"
        },
        "audience": {
            "en": "gcaudience",
            "fr": "gcaudience"
        },
        "type": {
            "en": "notice",
            "fr": "avis"
        },
        "creator": {
            "en": "Agriculture and Agri-Food Canada",
            "fr": "Agriculture et Agroalimentaire Canada"
        },
        "spatial": {
            "en": "gcregions",
            "fr": "gcregions"
        },
        "service": {
            "en": "AAFC_AgriSource",
            "fr": "AAC_AgriSource"
        },
        "accessRights": {
            "en": "3",
            "fr": "3"
        }
    },
    "body": {
        "en": "\n<p>\u00a0</p>\n<p>The Minister\u2019s Office is looking for a motivated individual for a two year assignment at level or acting.</p>\n<h3>\u00a0</h3>\n<h3><strong>Education:</strong></h3>\n<p>High School Diploma from a recognized institution.</p>\n<h3>\u00a0</h3>\n<h3><strong>Experience:</strong></h3>\n<p>1- Experience in providing administrative support to senior management (Director General and above).</p>\n<p>2- Experience in domestic and international travel arrangements and claims.</p>\n<p>\u00a0</p>\n<h3><strong>Here are some of the duties that may be assigned to you:</strong></h3>\n<ul>\n<li>Provides the primary liaison and communications links between the Minister and his or her staff, deputy minister, other ministers, and outside government;</li>\n<li>Coordinates domestic and international travel arrangements and processes claims for the Minister;</li>\n<li>Manages the Minister's schedule in a constant state of changing priorities and high pressure; assesses the need for meetings and manages the planning, preparation, and logistics of appointments, meetings, speaking engagements, and other functions to be attended by the Minister, including invitations;</li>\n<li>Meet weekly with the Ministerial Correspondence unit to discuss the \u201ctracker\u201d Summary of Outstanding Ministerial Invitations;</li>\n<li>Coordinates weekly Minister schedule planning meeting (prepares list of outstanding requests, updates \u201cgreen calendar\u201d, tasks Ministerial Correspondence for acceptance and regrets letters);</li>\n<li>Assesses the priority of incoming and outgoing material to ensure the Minister receives accurate and relevant information on a timely and often urgent basis;</li>\n<li>Maintains an understanding of an extensive range of current and emerging government-wide issues and an extensive and effective network of contacts within and external to government; and</li>\n<li>Provides timely and quality responses to internal and external clients on a wide variety of issues concerning the Minister and the government.</li>\n</ul>\n<p>\u00a0</p>\n<h3><strong>Language Requirement:</strong></h3>\n<p>Bilingual Imperative BBB/BBB</p>\n<p>\u00a0</p>\n<h3><strong>Organizational Needs:</strong></h3>\n<p>In support of achieving a diversified workforce, consideration may be given to candidates self-identifying as belonging to one of the following Employment Equity groups: Aboriginal peoples, Persons with a Disability; Visible Minorities, Women.</p>\n<p>\u00a0</p>\n<h3><strong>Conditions of Employment:</strong><strong> </strong></h3>\n<p>Secret security clearance</p>\n<p>Hours of Work: 7.5 hours per day between 8:00 a.m. and 5:00 p.m.</p>\n<p>Willing and able to work overtime, sometimes on weekends.</p>\n<p>Flexible or alternative work arrangements will not be considered.</p>\n<p>\u00a0</p>\n<h3><strong>Applications:</strong></h3>\n<p>Interested persons are encouraged to submit their resume and a cover letter explaining why you think you are the right person for this position to France St-Laurent, Manager, Business Planning and Administration <a href=\"mailto:France.st-laurent@canada.ca\">France.st-laurent@canada.ca</a>.</p>\n<p>Resumes must clearly identify:</p>\n<ul>\n<li>\n<p>Your tenure (e.g. term or indeterminate)</p>\n</li>\n<li>\n<p>Your substantive group and level</p>\n<p>\u00a0</p>\n<p><strong>\u00a0</strong></p>\n</li>\n</ul>\n<p><strong>Note:</strong></p>\n<ul>\n<li>\n\tCommunication for this process will be sent via email.</li>\n</ul>\n<p>\u00a0</p>\n",
        "fr": "\n<p>\u00a0</p>\n<p>Le cabinet du ministre recherche une personne motiv\u00e9e pour une affectation de deux ans \u00e0 niveau ou par int\u00e9rim.</p>\n<p>\u00a0</p>\n<h3><strong>\u00c9tudes :</strong></h3>\n<p>Dipl\u00f4me d'\u00e9tudes secondaires d'un \u00e9tablissement reconnu.</p>\n<p>\u00a0</p>\n<h3><strong>Exp\u00e9rience :</strong></h3>\n<p>1- Exp\u00e9rience \u00e0 fournir un soutien administratif \u00e0 des cadres sup\u00e9rieurs (directeur g\u00e9n\u00e9ral et de niveaux plus \u00e9lev\u00e9s).</p>\n<p>2- Exp\u00e9rience de demandes de remboursement et de pr\u00e9paratif de voyages \u00e0 l'\u00e9chelle nationale et internationale.</p>\n<p>\u00a0</p>\n<h3><strong>Voici des t\u00e2ches qui pourraient vous \u00eatre attribu\u00e9es :</strong></h3>\n<ul>\n<li>Principal agent de liaison et de communication du ministre avec son personnel, son sous-ministre, les autres ministres et l\u2019ext\u00e9rieur.</li>\n<li>Coordonne les pr\u00e9paratifs de voyage au pays ou \u00e0 l\u2019\u00e9tranger et traite les demandes de remboursement pour le ministre.</li>\n<li>G\u00e8re le calendrier du ministre, calendrier qui est assujetti \u00e0 des priorit\u00e9s changeantes et soumis \u00e0 de fortes pressions. Doit \u00e9valuer quelles r\u00e9unions sont n\u00e9cessaires et g\u00e9rer la planification, la pr\u00e9paration et la logistique des rendez-vous, allocutions et autres activit\u00e9s du ministre, y compris les invitations.</li>\n<li>Rencontre l\u2019unit\u00e9 de la correspondance minist\u00e9rielle hebdomadairement pour discuter du sommaire de suivi des invitations minist\u00e9rielles en suspens.</li>\n<li>Coordonne la r\u00e9union hebdomadaire de planification de l\u2019\u00e9ch\u00e9ancier du ministre (pr\u00e9pare la liste des demandes en suspens, met \u00e0 jour le calendrier \u00ab vert \u00bb, attribue \u00e0 Correspondance minist\u00e9rielle la t\u00e2che d\u2019envoyer les lettres d\u2019acceptation et de refus).</li>\n<li>\u00c9value la priorit\u00e9 des documents qui arrivent au cabinet ou qui en sortent, de mani\u00e8re \u00e0 fournir au ministre une information pr\u00e9cise et pertinente en temps opportun, souvent de fa\u00e7on urgente.</li>\n<li>Veille \u00e0 rester au fait d\u2019un large \u00e9ventail d\u2019enjeux gouvernementaux, actuels ou nouveaux, et entretient un bon r\u00e9seau de contacts \u00e0 l\u2019int\u00e9rieur et \u00e0 l\u2019ext\u00e9rieur du gouvernement.</li>\n<li>R\u00e9pond vite et bien aux questions des clients internes et externes sur diff\u00e9rents sujets ayant trait au ministre et au gouvernement.</li>\n</ul>\n<p>\u00a0</p>\n<h3><strong>Exigence linguistique :</strong></h3>\n<p>Bilingue imp\u00e9ratif BBB</p>\n<p>\u00a0</p>\n<h3><strong>Besoins de l'organisation :</strong></h3>\n<p>Pour diversifier l\u2019effectif, on pourra examiner la candidature des personnes qui s\u2019identifient comme appartenant \u00e0 des groupes vis\u00e9s par l\u2019\u00e9quit\u00e9 en mati\u00e8re d\u2019emploi, soit les autochtones, les personnes handicap\u00e9es, les membres des minorit\u00e9s visibles et les femmes.</p>\n<p>\u00a0</p>\n<h3><strong>Conditions d'emploi :</strong></h3>\n<p>Autorisation s\u00e9curitaire Secret</p>\n<p>Heures de travail: 7.5 heures par jour, entre 8h00 et 17h00.</p>\n<p>\u00catre dispos\u00e9 et capable de travailler des heures suppl\u00e9mentaires, parfois les fins de semaine.</p>\n<p>Les modalit\u00e9s de travail flexibles ou alternatives ne seront pas consid\u00e9r\u00e9es.</p>\n<p>\u00a0</p>\n<h3><strong>Candidatures</strong></h3>\n<p>Les personnes int\u00e9ress\u00e9es sont invit\u00e9es \u00e0 soumettre leur CV ainsi qu'une lettre d'accompagnement expliquant pourquoi vous pensez que vous \u00eates la bonne personne pour ce poste \u00e0 France St-Laurent, Gestionnaire, Planification et Administration <a href=\"mailto:France.st-laurent@canada.ca\">France.st-laurent@canada.ca</a>.</p>\n<p>Les curriculum vitae doivent clairement identifier :</p>\n<ul>\n<li>Votre mandat (par exemple, \u00e0 dur\u00e9e d\u00e9termin\u00e9e ou ind\u00e9termin\u00e9e)</li>\n<li>Votre groupe et votre niveau substantif</li>\n</ul>\n<p>\u00a0</p>\n<p><strong>Remarque</strong></p>\n<ul>\n<li>\n<p>Les communications relatives au processus de s\u00e9lection se feront par courriel.</p>\n</li>\n</ul>\n<p>\u00a0</p>\n<ul>\n</ul>\n\n"
    },
    "breadcrumb": {
        "en": "Minister\u2019s Scheduling Assistant",
        "fr": "Adjoint(e) \u00e0 la planification du ministre"
    },
    "empl": {
        "type": {
            "en": "Assignment",
            "fr": "Affectation"
        },
        "classification": {
            "en": "AS-4",
            "fr": "AS-4"
        },
        "branch": {
            "en": "Deputy Ministers' Office",
            "fr": "Bureau du sous-ministres"
        },
        "locations": {
            "en": "Ottawa, Ontario",
            "fr": "Ottawa, Ontario"
        },
        "date_closing": {
            "en": "2018-11-07",
            "fr": "2018-11-07"
        },
        "open_to": {
            "en": "Persons employed at Agriculture and Agri-Food Canada and its portfolio partners in the NCR.",
            "fr": "Personnes employ\u00e9es \u00e0 Agriculture et Agroalimentaire Canada et ses partenaires de portefeuilles dans la RCN."
        },
        "name": {
            "en": "France St-Laurent",
            "fr": "France St-Laurent"
        },
        "email": {
            "en": "france.st-laurent@canada.ca",
            "fr": "france.st-laurent@canada.ca"
        }
    }
}