{
    "dcr_id": "1543959692305",
    "lang": "en",
    "title": {
        "en": "Program Officer",
        "fr": "Agent de programmes "
    },
    "modified": "2018-12-07 00:00:00.0",
    "issued": "2018-12-07 00:00:00.0",
    "type_name": "intra-intra/empl-empl",
    "node_id": "1279029955397",
    "layout_name": null,
    "dc_date_created": "2018-12-05",
    "breadcrumb_label": "",
    "meta": {
        "issued": {
            "en": "2018-12-07",
            "fr": "2018-12-07"
        },
        "modified": {
            "en": "2018-12-07",
            "fr": "2018-12-07"
        },
        "format": {
            "en": "gcformat",
            "fr": "gcformat"
        },
        "title": {
            "en": "Program Officer",
            "fr": "Agent de programmes "
        },
        "subject": {
            "en": "staffing",
            "fr": "dotation en personnel"
        },
        "language": {
            "en": "eng",
            "fr": "fra"
        },
        "audience": {
            "en": "gcaudience",
            "fr": "gcaudience"
        },
        "type": {
            "en": "notice",
            "fr": "avis"
        },
        "creator": {
            "en": "Agriculture and Agri-Food Canada",
            "fr": "Agriculture et Agroalimentaire Canada"
        },
        "spatial": {
            "en": "gcregions",
            "fr": "gcregions"
        },
        "service": {
            "en": "AAFC_AgriSource",
            "fr": "AAC_AgriSource"
        },
        "accessRights": {
            "en": "3",
            "fr": "3"
        }
    },
    "body": {
        "en": "\n<p><strong>\u00a0</strong></p>\n<p><strong>Duties:</strong><em> </em></p>\n<p>The Indigenous Engagement and Partnerships (IEP) in Programs Branch is looking for interested and enthusiastic program officers to collaborate with internal and external stakeholders in order to advance the Department\u2019s reconciliation agenda.</p>\n<p>\u00a0</p>\n<p>The officers will be responsible for supporting the planning, coordination, and implementation of Indigenous initiatives, including:</p>\n<ul>\n<li>\n<p>Indigenous Pathfinder Service, which assists Indigenous Peoples to access, with greater ease, agricultural programs and services;</p>\n</li>\n<li>\n<p>Indigenous Programs and Services Community of Practice, designed to help program officers work more effectively with Indigenous clients;</p>\n</li>\n<li>\n<p>Fostering relationships with Indigenous communities to support the development of Indigenous agriculture and food systems; and</p>\n</li>\n<li>Building networks and synergies with other government departments, provinces and territories, as well as private and non-profit sector organizations.</li>\n</ul>\n<p>\u00a0</p>\n<p><strong>Qualifications &amp; Conditions of Employment</strong></p>\n<p>\u00a0<br>\n<strong>Essential Qualifications</strong></p>\n<p>Language(s): \u00a0English Essential</p>\n<p>\u00a0</p>\n<p>Experiences:</p>\n<ul>\n<li>\n<p>Previous experience working with communities in the agriculture sector.</p>\n</li>\n<li>\n<p>Project management and/or program delivery experience.</p>\n</li>\n</ul>\n<ul>\n<li>Providing strategic advice to senior management through briefing notes, memoranda, policy papers, reports or presentations.</li>\n</ul>\n<p>\u00a0</p>\n<p><strong>Asset Qualifications </strong></p>\n<ul>\n<li>\n<p>Knowledge of Indigenous cultures and practices</p>\n</li>\n<li>Knowledge of one (or more) Indigenous language</li>\n</ul>\n<p>\u00a0</p>\n<p><strong>Conditions of Employment</strong><strong> </strong></p>\n<ul>\n<li>\n<p>Security Requirement: Reliability Status Security Clearance (or above).</p>\n</li>\n<li>The incumbent of this position must be willing to travel</li>\n</ul>\n<p>\u00a0</p>\n<p><strong>Applications:</strong></p>\n<p>If you are interested in this assignment, please provide:</p>\n<ul style=\"list-style-type: square;\">\n<li>\n<p>a short letter (2 pages maximum) expressing why you are interested in the position and the skills, experience and knowledge you would bring to the position; and</p>\n</li>\n<li>\n<p>your resume.</p>\n</li>\n</ul>\n<p>\u00a0</p>\n<p>Send all documents to Pascale Boulerice at pascale.boulerice@canada.ca by December 14th, 2018.</p>\n<p>\u00a0</p>\n<p>Resumes must clearly identify your substantive group and level.</p>\n<p>\u00a0</p>\n<p>If you have any questions, please contact Pascale Boulerice at 613-773-2118.</p>\n<p>\u00a0</p>\n<p><strong>Notes</strong></p>\n<ul style=\"list-style-type: square;\">\n<li>\n<p>This is a one year assignment at level with the possibility of extension.</p>\n</li>\n<li>\n<p>Candidates must have their manager\u2019s approval prior to applying for this opportunity</p>\n</li>\n<li>\n<p>Communication for this process will be sent via email.</p>\n</li>\n<li>\n<p>Your cover letter may be used to assess your communication and writing skills.</p>\n</li>\n<li>\n<p>Candidates may be assessed through an interview.</p>\n</li>\n<li>\n<p>Reference checks may be sought.</p>\n</li>\n</ul>\n<p>\u00a0</p>\n",
        "fr": "\n<p><strong>\u00a0</strong></p>\n<p><strong>Fonctions</strong> :</p>\n<p>La division \u00ab Engagement et partenariats autochtones \u00bb de la Direction g\u00e9n\u00e9rale des programmes est \u00e0 la recherche d\u2019agents de programmes int\u00e9ress\u00e9s et enthousiastes qui devront collaborer avec des partenaires internes et externes afin de faire avancer l\u2019agenda de r\u00e9conciliation du Minist\u00e8re.</p>\n<p>\u00a0</p>\n<p>Les agents seront responsables d\u2019appuyer la planification, la coordination et la mise en \u0153uvre d\u2019initiatives autochtones, comme celles qui suivent :</p>\n<ul>\n<li>\n<p>Le Service Explorateur pour les Autochtones, qui aide les peuples autochtones \u00e0 acc\u00e9der, avec plus de facilit\u00e9, aux programmes et aux services agricoles;</p>\n</li>\n<li>\n<p>Une communaut\u00e9 de pratique sur les programmes et services aux Autochtones, qui a pour objectif d\u2019augmenter la capacit\u00e9 des agents de programmes \u00e0 travailler plus efficacement aupr\u00e8s des clients autochtones;</p>\n</li>\n<li>\n<p>Le d\u00e9veloppement de relations avec les communaut\u00e9s autochtones pour favoriser le renforcement des syst\u00e8mes agricoles et alimentaires autochtones;</p>\n</li>\n<li>\n<p>La cr\u00e9ation de r\u00e9seaux et de synergies avec d\u2019autres minist\u00e8res gouvernementaux, provinces et territoires, ainsi qu\u2019avec des organisations priv\u00e9es et \u00e0 but non lucratif.</p>\n</li>\n</ul>\n<p>\u00a0</p>\n<p><strong>Qualifications et conditions d\u2019emploi</strong></p>\n<p>\u00a0<br>\n<strong>Qualifications essentielles</strong></p>\n<p>\nExigences linguistiques\u00a0: \u00a0\u00a0 Anglais essentiel</p>\n<p>\u00a0</p>\n<p>Exp\u00e9riences :</p>\n<ul>\n<li>\n<p>Exp\u00e9rience de travail ant\u00e9rieure \u00e0 travailler avec des communaut\u00e9s dans le secteur de l\u2019agriculture.</p>\n</li>\n<li>\n<p>Exp\u00e9rience de la gestion de projets et/ou de la prestation de programmes.</p>\n</li>\n<li>Exp\u00e9rience de\u00a0la fourniture de conseils strat\u00e9giques \u00e0 la haute direction par le biais de notes d\u2019information, m\u00e9moire, documents de politique, rapports ou pr\u00e9sentations.</li>\n</ul>\n<p>\u00a0</p>\n<p><strong>Qualifications constituant un atout </strong></p>\n<ul>\n<li>\n<p>Connaissance des cultures et pratiques autochtones</p>\n</li>\n<li>Connaissance d\u2019une (ou plusieurs) langue autochtone</li>\n</ul>\n<p>\u00a0</p>\n<p><strong>Conditions d\u2019emploi</strong><strong> </strong></p>\n<ul>\n<li>\n<p>Exigence en mati\u00e8re de s\u00e9curit\u00e9 : Cote de fiabilit\u00e9 ou sup\u00e9rieur</p>\n</li>\n<li>\n<p>Consentir \u00e0 voyager et \u00eatre en mesure de le faire.</p>\n<p>\u00a0</p>\n</li>\n</ul>\n<p><strong>Demandes:</strong></p>\n<p>Si cette possibilit\u00e9 d\u2019affectation vous int\u00e9resse, veuillez fournir :</p>\n<ul style=\"list-style-type: square;\">\n<li>\n<p>une courte lettre (2 pages maximum) expliquant pourquoi ce poste vous int\u00e9resse et les habilet\u00e9s, les exp\u00e9riences et les connaissances que vous apporterez \u00e0 la position; et</p>\n</li>\n<li>\n<p>votre curriculum vitae.</p>\n</li>\n</ul>\n<p>\u00a0</p>\n<p>Veuillez envoyer ces documents \u00e0 Pascale Boulerice \u00e0 l\u2019adresse pascale.boulerice@canada.ca d\u2019ici le 14 d\u00e9cembre 2018.</p>\n<p>\u00a0</p>\n<p>Veuillez indiquer clairement votre groupe et niveau de titularisation dans votre curriculum vitae.</p>\n<p>\u00a0</p>\n<p>Si vous avez des questions n\u2019h\u00e9sitez pas \u00e0 communiquer avec Pascale Boulerice par t\u00e9l\u00e9phone au 613-773-2118.</p>\n<p>\u00a0</p>\n<p><strong>Remarques</strong></p>\n<ul>\n<li>\n<p>Il s'agit d'une possibilit\u00e9 d\u2019affectation \u00e0 niveau d\u2019une dur\u00e9e d\u2019un an avec possibilit\u00e9 de prolongation.</p>\n</li>\n<li>\n<p>Les candidats doivent obtenir l\u2019approbation de leur gestionnaire avant de poser leur candidature pour cette possibilit\u00e9 d\u2019emploi.</p>\n</li>\n<li>\n<p>Les communications relatives au processus de s\u00e9lection se feront par courriel.</p>\n</li>\n<li>\n<p>Votre lettre de pr\u00e9sentation pourrait \u00eatre utilis\u00e9e pour \u00e9valuer vos comp\u00e9tences en communication et en r\u00e9daction.</p>\n</li>\n<li>\n<p>Les candidats pourront \u00eatre \u00e9valu\u00e9s au moyen d\u2019une entrevue.</p>\n</li>\n<li>\n<p>Une v\u00e9rification des r\u00e9f\u00e9rences pourra \u00eatre effectu\u00e9e.</p>\n</li>\n</ul>\n<p>\u00a0</p>\n\n"
    },
    "breadcrumb": {
        "en": "Program Officer",
        "fr": "Agent de programmes"
    },
    "empl": {
        "type": {
            "en": "Assignment",
            "fr": "Affectation"
        },
        "classification": {
            "en": "ZZ-1",
            "fr": "ZZ-1"
        },
        "branch": {
            "en": "Programs Branch",
            "fr": "Direction g\u00e9n\u00e9rale des programmes"
        },
        "locations": {
            "en": "National Capital Region (NCR) and Regions",
            "fr": "R\u00e9gion de la capitale nationale (RCN) et r\u00e9gions"
        },
        "date_closing": {
            "en": "2018-12-14",
            "fr": "2018-12-14"
        },
        "open_to": {
            "en": "All AAFC Employees (At level: all are encouraged to apply)",
            "fr": "Tous les employ\u00e9s d\u2019AAC (Au m\u00eame niveau : tous sont invit\u00e9s \u00e0 postuler)"
        },
        "name": {
            "en": "Pascale Boulerice",
            "fr": "Pascale Boulerice"
        },
        "email": {
            "en": "pascale.boulerice@canada.ca",
            "fr": "pascale.boulerice@canada.ca"
        }
    }
}