{
    "dcr_id": "1547752046047",
    "lang": "en",
    "title": {
        "en": "Economic Analyst",
        "fr": "Analyste \u00e9conomique"
    },
    "modified": "2019-01-18 00:00:00.0",
    "issued": "2019-01-18 00:00:00.0",
    "type_name": "intra-intra/empl-empl",
    "node_id": "1279029955397",
    "layout_name": null,
    "dc_date_created": "2019-01-17",
    "breadcrumb_label": "",
    "meta": {
        "issued": {
            "en": "2019-01-18",
            "fr": "2019-01-18"
        },
        "modified": {
            "en": "2019-01-18",
            "fr": "2019-01-18"
        },
        "format": {
            "en": "gcformat",
            "fr": "gcformat"
        },
        "title": {
            "en": "Economic Analyst",
            "fr": "Analyste \u00e9conomique"
        },
        "subject": {
            "en": "staffing",
            "fr": "dotation en personnel"
        },
        "language": {
            "en": "eng",
            "fr": "fra"
        },
        "audience": {
            "en": "gcaudience",
            "fr": "gcaudience"
        },
        "type": {
            "en": "notice",
            "fr": "avis"
        },
        "creator": {
            "en": "Agriculture and Agri-Food Canada",
            "fr": "Agriculture et Agroalimentaire Canada"
        },
        "spatial": {
            "en": "gcregions",
            "fr": "gcregions"
        },
        "service": {
            "en": "AAFC_AgriSource",
            "fr": "AAC_AgriSource"
        },
        "accessRights": {
            "en": "3",
            "fr": "3"
        }
    },
    "body": {
        "en": "\n<p><strong>\u00a0</strong></p>\n<p><strong>Are you looking for? </strong></p>\n<ul>\n<li>Experience in economic, financial, statistical, and policy analysis and preparing and reporting findings to senior management, and other audiences?</li>\n<li>Contributing your analytical thinking to the development of new knowledge on the financial, economic and demographic trends of Canadian farms, which shapes Canadian agricultural policy?</li>\n<li>Developing your skills to work with different data from any sources?</li>\n<li>Collaborating with groups throughout the department and externally to contribute to high quality information on today\u2019s Canadian agriculture?</li>\n</ul>\n<p><strong><br>What we offer:</strong></p>\n<ul>\n<li>Opportunities to conduct economic, statistical and policy analysis on the structure of Canadian farms; topics include changes in farm numbers and their drivers and increasing farm size, farm debt, land values, farm business management, farm family financial health, on-farm labour, young farmers, and gender diversity.</li>\n<li>Opportunity to work with Statistics Canada and other Canadian and international data providers to increase data and analysis on Canadian farms.</li>\n<li>Opportunity to present your analysis to management and peers.</li>\n</ul>\n<p>The Farm Performance and Structure (FPS) team in the Research and Analysis Directorate has an opening for a one-year assignment (at level) at the EC-02 to EC-04 levels, including employees in the EC Development Program (ECDP).</p>\n<p>The FPS team is responsible for providing information and analysis on the trends in the structure of Canadian farms to management and groups throughout the department, for policy development and performance measurement (including BRM programming and Medium-Term Planning). Topics of analysis include changes in farm numbers and farm size, farm financials, and farm business management, as well as farm family income, young farmers and gender diversity.</p>\n<ol>\nA second responsibility, the FPS team is responsible for managing AAFC\u2019s collaboration with Statistics Canada on the Agriculture and Agri-food Statistical Program, including the AAFC \u2013Statistics Canada Memorandum of Understanding for the funding for a significant number of Statistics Canada agricultural and agri-food data sets and the development of new data sources and tools.\n</ol>\n<p><strong><br>The duties:</strong></p>\n<p>As an analyst in the FPS team, you will develop economic research and quantitative analysis on the trends that affect the structure of Canadian farms. You will also be responsible to respond on short notice to requests from management on specific quantitative information</p>\n<p>You will collaborate with clients in the department and externally to ensure that those groups have the information on farm structure they need and that you and the FPS team is benefitting from their perspective on industry trends.</p>\n<p><strong><br>Your qualifications:</strong></p>\n<p>The successful candidate has some basic understanding of working with data, and has strong communication and writing skills, good judgement and initiative. Applicants should possess the developed capacity to work as a member of a team readily sharing information and knowledge and the capacity to work independently.</p>\n<p>This position is intended for an assignment at-level as part of the ECDP requirement.</p>\n<p><strong><br>Applications</strong></p>\n<p>Please send your up-to-date resume and a cover letter (maximum 500 words) outlining your experience and why you are interested in this opportunity to Julie Levert at julie.levert@canada.ca by January 31, 2019.</p>\n<p>R\u00e9sum\u00e9s must clearly identify:</p>\n<ul>\n<li>\n<p>Your tenure (e.g., term or indeterminate)</p>\n</li>\n<li>\n<p>Your security clearance</p>\n</li>\n<li>\n<p>Your substantive group and level</p>\n</li>\n</ul>\n<p>Cover letters must clearly identify:</p>\n<ul>\n<li>\n<p>Your education and work experience and qualifications that you would bring to the job.</p>\n</li>\n</ul>\n<p>Candidates must have their manager\u2019s approval prior to applying.</p>\n<p>\u00a0</p>\n",
        "fr": "\n<p><strong><br><strong>Vous cherchez \u00e0\u2026 </strong></strong></p>\n<ul>\n<li>Acqu\u00e9rir de l\u2019exp\u00e9rience en analyse \u00e9conomique, financi\u00e8re, statistique et strat\u00e9gique ainsi qu\u2019en pr\u00e9paration et en pr\u00e9sentation de conclusions \u00e0 la haute direction et \u00e0 d\u2019autres auditoires\u2009?</li>\n<li>Mettre votre capacit\u00e9 de r\u00e9flexion analytique au profit de l\u2019acquisition de nouvelles connaissances sur les tendances financi\u00e8res, \u00e9conomiques et d\u00e9mographiques li\u00e9es aux exploitations agricoles canadiennes en vue d\u2019orienter les nouvelles politiques agricoles canadiennes\u2009?</li>\n<li>Perfectionner vos comp\u00e9tences afin d\u2019\u00eatre en mesure de travailler avec des donn\u00e9es provenant de toutes les sources\u2009?</li>\n<li>Collaborer avec des groupes du Minist\u00e8re et des intervenants externes \u00e0 l\u2019acquisition de renseignements de haute qualit\u00e9 sur l\u2019agriculture canadienne d\u2019aujourd\u2019hui\u2009?</li>\n</ul>\n<p><strong><br>Ce que nous avons \u00e0 vous offrir :</strong></p>\n<ul>\n<li>Une occasion d\u2019effectuer des analyses \u00e9conomiques, statistiques et strat\u00e9giques de la structure des exploitations agricoles canadiennes, notamment li\u00e9es aux sujets suivants : changements touchant le nombre et la taille des exploitations et les moteurs de ces changements, l\u2019endettement agricole, la valeur des terres, la gestion des exploitations agricoles, la sant\u00e9 financi\u00e8re des familles agricoles, la main-d\u2019\u0153uvre agricole, les jeunes agriculteurs et la diversit\u00e9 des genres.</li>\n<li>Une occasion de collaborer avec Statistique Canada et d\u2019autres fournisseurs de donn\u00e9es canadiens et \u00e9trangers en vue d\u2019accro\u00eetre le nombre de donn\u00e9es et d\u2019analyses concernant les exploitations agricoles canadiennes.</li>\n<li>Une occasion de pr\u00e9senter vos analyses \u00e0 la direction et \u00e0 vos pairs.</li>\n</ul>\n<p>L\u2019\u00e9quipe du rendement et de la structure des exploitations agricoles (RSEA) de la Direction de la recherche et de l\u2019analyse offre une occasion d\u2019affectation d\u2019un an (au m\u00eame niveau) de niveaux EC-02 \u00e0 EC-04 aux employ\u00e9s participant au Programme de perfectionnement des EC (PPEC).</p>\n<p>L\u2019\u00e9quipe du RSEA est charg\u00e9e de fournir des renseignements et des analyses sur les tendances relatives \u00e0 la structure des exploitations agricoles canadiennes \u00e0 la direction et \u00e0 des groupes du Minist\u00e8re aux fins de l\u2019\u00e9laboration des politiques et des mesures du rendement (incluant les programmes de GRE et la planification \u00e0 moyen terme). Les analyses portent notamment sur les changements touchant le nombre et la taille des exploitations agricoles, la situation financi\u00e8re des fermes, la gestion des exploitations agricoles, les revenus des familles agricoles, les jeunes agriculteurs et la diversit\u00e9 des genres.</p>\n<ol>\nL'\u00e9quipe du RSEA est \u00e9galement charg\u00e9e de g\u00e9rer la collaboration entre AAC et Statistique Canada dans le cadre du Programme de statistiques agricoles et agroalimentaires (PSAA), incluant le protocole d\u2019entente entre AAC et Statistique Canada, qui vise \u00e0 financer l\u2019acquisition de nombreux ensembles de donn\u00e9es sur l\u2019agriculture et l\u2019agroalimentaire aupr\u00e8s de Statistique Canada et l\u2019\u00e9laboration de nouvelles sources de donn\u00e9es et outils.\n</ol>\n<p><strong><br>Fonctions</strong></p>\n<p>\u00c0 titre d\u2019analyse de l\u2019\u00e9quipe du RSEA, vous effectuez des analyses \u00e9conomiques et quantitatives des tendances ayant une incidence sur la structure des exploitations agricoles. Vous serez \u00e9galement charg\u00e9 de r\u00e9pondre rapidement aux demandes d\u2019information quantitative pr\u00e9cise de la direction.</p>\n<ol>\nCollaborerez avec des clients du Minist\u00e8re et des intervenants externes pour veiller \u00e0 ce qu\u2019ils disposent des renseignements sur la structure des exploitations agricoles dont ils ont besoin, et \u00e0 ce que l\u2019\u00e9quipe du RSEA et vous-m\u00eame profitiez de leurs points de vue sur les tendances au sein de l\u2019industrie.\n</ol>\n<p><strong><br>Qualifications</strong></p>\n<p>Le demandeur doit avoir des notions de base du traitement des donn\u00e9es ainsi que de solides comp\u00e9tences en communication et en r\u00e9daction, un bon jugement et l\u2019esprit d\u2019initiative. Le demandeur doit avoir un excellent esprit d\u2019\u00e9quipe pour \u00e9changer rapidement de l\u2019information et des connaissances et pouvoir travailler de fa\u00e7on autonome.</p>\n<p>Il s\u2019agit d\u2019une affectation \u00e0 un poste de m\u00eame niveau dans le cadre du PPEC.</p>\n<p><strong><br>Demandes</strong></p>\n<p>Veuillez envoyer un curriculum vitae \u00e0 jour accompagn\u00e9 d\u2019une lettre de pr\u00e9sentation (maximum 500 mots) \u00e9non\u00e7ant votre exp\u00e9rience et les raisons pour lesquelles cette occasion d\u2019emploi vous int\u00e9resse \u00e0 Julie Levert (julie.levert@canada.ca) d\u2019ici le 31 janvier 2019.</p>\n<p>Dans leur curriculum vit\u00e6, les candidats doivent clairement indiquer :</p>\n<ul>\n<li>\n<p>la dur\u00e9e de leur emploi (p. ex. d\u00e9termin\u00e9e ou ind\u00e9termin\u00e9e);</p>\n</li>\n<li>\n<p>leur cote de s\u00e9curit\u00e9;</p>\n</li>\n<li>\n<p>leur groupe et niveau de titularisation.</p>\n</li>\n</ul>\n<p>Dans votre lettre de pr\u00e9sentation, vous devez clairement indiquer :</p>\n<ul>\n<li>\n<p>vos \u00e9tudes, votre exp\u00e9rience de travail et vos qualifications pour le travail \u00e0 accomplir.</p>\n</li>\n</ul>\n<p>Les candidats doivent avoir l\u2019approbation de leur gestionnaire avant de pr\u00e9senter leur candidature.</p>\n<p>\u00a0</p>\n\n"
    },
    "breadcrumb": {
        "en": "Economic Analyst",
        "fr": "Analyste \u00e9conomique"
    },
    "empl": {
        "type": {
            "en": "Assignment",
            "fr": "Affectation"
        },
        "classification": {
            "en": "EC-4 and equivalent",
            "fr": "EC-4 et \u00e9quivalent"
        },
        "branch": {
            "en": "Strategic Policy Branch",
            "fr": "Direction g\u00e9n\u00e9rale des politiques strat\u00e9giques"
        },
        "locations": {
            "en": "National Capital Region",
            "fr": "R\u00e9gion de la capitale nationale"
        },
        "date_closing": {
            "en": "2019-01-31",
            "fr": "2019-01-31"
        },
        "open_to": {
            "en": "ECDP participants at the EC-02, EC-03 and EC-04 level",
            "fr": "Participants au PPEC, niveaux EC-02, EC-03 et EC-04"
        },
        "name": {
            "en": "Julie.Levert@canada.ca",
            "fr": "Julie.Levert@canada.ca"
        },
        "email": {
            "en": "Julie.Levert@canada.ca",
            "fr": "Julie.Levert@canada.ca"
        }
    }
}