{
    "dcr_id": "1548172639168",
    "lang": "en",
    "title": {
        "en": "Information Management Analyst",
        "fr": "Analyste en gestion de l\u2019information"
    },
    "modified": "2019-01-22 00:00:00.0",
    "issued": "2019-01-22 00:00:00.0",
    "type_name": "intra-intra/empl-empl",
    "node_id": "1279029955397",
    "layout_name": null,
    "dc_date_created": "2019-01-22",
    "breadcrumb_label": "",
    "meta": {
        "issued": {
            "en": "2019-01-22",
            "fr": "2019-01-22"
        },
        "modified": {
            "en": "2019-01-22",
            "fr": "2019-01-22"
        },
        "format": {
            "en": "gcformat",
            "fr": "gcformat"
        },
        "title": {
            "en": "Information Management Analyst",
            "fr": "Analyste en gestion de l\u2019information"
        },
        "subject": {
            "en": "staffing",
            "fr": "dotation en personnel"
        },
        "language": {
            "en": "eng",
            "fr": "fra"
        },
        "audience": {
            "en": "gcaudience",
            "fr": "gcaudience"
        },
        "type": {
            "en": "notice",
            "fr": "avis"
        },
        "creator": {
            "en": "Agriculture and Agri-Food Canada",
            "fr": "Agriculture et Agroalimentaire Canada"
        },
        "spatial": {
            "en": "gcregions",
            "fr": "gcregions"
        },
        "service": {
            "en": "AAFC_AgriSource",
            "fr": "AAC_AgriSource"
        },
        "accessRights": {
            "en": "3",
            "fr": "3"
        }
    },
    "body": {
        "en": "\n<p><strong>\u00a0</strong></p>\n<p><strong>Duties:</strong></p>\n<p>Supports the Science and Technology Branch regarding Travel, Hospitality, Conference and Events. The duties involve, but are not limited to: managing and processing Branch-wide calls for travel requests; updating procedures and procedural documents; updating and overseeing the Knowledge Workspace site for requests; overseeing the database management for accurate reporting and financial information; communicating with Directorates regarding requests; preparing reports and documentation for DG, ADM and DM approvals and supervising the STB Operations team.</p>\n<p><strong><br>Essential Qualifications</strong></p>\n<p><strong><br>Language </strong></p>\n<p>Bilingual Imperative BBB/BBB</p>\n<p><strong><br>Education</strong></p>\n<p>Secondary school diploma or an acceptable combination of education, training and/or experience relevant to the position to be\u00a0staffed.</p>\n<p><strong><br>Experience</strong></p>\n<ul>\n<li>\n<p>Coordinating, drafting, verifying and editing correspondence or reports requiring the approval of senior management*</p>\n</li>\n<li>\n<p>Performing research, verifying data and making recommendations for senior management*</p>\n</li>\n<li>\n<p>Managing database information</p>\n</li>\n<li>\n<p>Supervising staff</p>\n</li>\n<li>\n<p>Using MS Office Software: Word, Excel, PowerPoint and Outlook</p>\n</li>\n<li>\n<p>Using Knowledge Workspace</p>\n</li>\n</ul>\n<p><em>*Senior management is defined as Director level and above </em></p>\n<p><strong><br>Knowledge:</strong></p>\n<ul>\n<li>\n<p>Knowledge of the AAFC policies and procedures related to travel, hospitality and conference attendance</p>\n</li>\n</ul>\n<p><strong><br>Competencies</strong></p>\n<p>Analytical thinking</p>\n<p>Teamwork</p>\n<p>Initiative</p>\n<p>Reliability</p>\n<p>Judgment</p>\n<p>Interactive and written communication</p>\n<p>Adaptability</p>\n<p><strong><br>Asset Qualifications:</strong></p>\n<p><strong><br>Education:</strong></p>\n<p>Graduation with a degree from a recognized post-secondary institution.</p>\n<p><strong><br>Knowledge:</strong></p>\n<ul>\n<li>\n<p>Knowledge of the departmental systems and software, data entry, manipulation and retrieval techniques</p>\n</li>\n</ul>\n<p><strong><br>Abilities:</strong></p>\n<ul>\n<li>\n<p>To manage multiple priorities to meet conflicting demands</p>\n</li>\n<li>\n<p>To advise on the application of policies and guidelines</p>\n</li>\n</ul>\n<p>\u00a0</p>\n<p><strong>Organizational Needs</strong></p>\n<p>In support of achieving a diversified workforce, consideration may be given to candidates self-identifying as belonging to one of the following Employment Equity groups: Aboriginal peoples, Persons with a Disability, Visible Minorities, and Women.<br>\n<br>\n<br>\n<strong>Conditions of Employment</strong></p>\n<p>Security Requirement(s): Reliability</p>\n<p>Ability and willingness to work overtime, as required, at times on short notice.</p>\n<p>\u00a0</p>\n<p><strong>Applications</strong></p>\n<p><br>\nAAFC staff at the AS-2, AS-3 or AS-4 level or equivalent who are interested in an assignment or acting opportunity with the Integrated Planning and Reporting, Partnerships and Planning Directorate should provide a copy of their resume and cover letter (maximum 250 words) to Kathryn Jarrett (kathryn.jarrett@canada.ca) by February 5, 2019.</p>\n<p>Resumes must clearly identify:</p>\n<ul>\n<li>Your tenure (e.g. term or indeterminate)</li>\n<li>Your substantive group and level</li>\n<li>Your language profile</li>\n<li>Your security level</li>\n</ul>\n<p><br>\n<strong>Notes: </strong></p>\n<ul>\n<li>Candidates must have their manager\u2019s approval prior to applying for this opportunity.</li>\n<li>Communication for this process will be sent via email.</li>\n<li>Candidates may be assessed through an interview.</li>\n<li>Reference checks may be sought.</li>\n</ul>\n<p>\u00a0</p>\n",
        "fr": "\n<p><strong>\u00a0</strong></p>\n<p><strong>Fonctions</strong></p>\n<p>Soutien \u00e0 la Direction g\u00e9n\u00e9rale des sciences (DGST) et de la technologie en mati\u00e8re de voyages, d\u2019accueil, de conf\u00e9rences et d\u2019\u00e9v\u00e8nements. Les fonctions comprennent les t\u00e2ches suivantes, sans s\u2019y limiter : g\u00e9rer et traiter des appels de demandes de voyage \u00e0 l\u2019\u00e9chelle de la Direction g\u00e9n\u00e9rale; mettre \u00e0 jour des proc\u00e9dures et des documents proc\u00e9duraux; mettre \u00e0 jour le site de l\u2019Espace de travail du savoir et surveiller les demandes qui y sont envoy\u00e9es; superviser la gestion de la base de donn\u00e9es pour assurer l\u2019exactitude des rapports et des renseignements financiers; communiquer avec les directions au sujet de diverses demandes; pr\u00e9parer des rapports et des documents pour approbation par le DG, le SMA et le SM; superviser les activit\u00e9s de l\u2019\u00e9quipe des activit\u00e9s de la DGST.</p>\n<p><strong><br>Qualifications essentielles</strong></p>\n<p><strong><br>Langue </strong></p>\n<p>Poste bilingue, niveau BBB/BBB imp\u00e9ratif \u00e0 la nomination.</p>\n<p><strong><br>\u00c9tudes</strong></p>\n<p>Dipl\u00f4me d\u2019\u00e9tudes secondaires ou combinaison acceptable d\u2019\u00e9tudes, de formation et/ou d\u2019exp\u00e9rience li\u00e9e aux fonctions du poste \u00e0 pourvoir.</p>\n<p><strong><br>Exp\u00e9rience</strong></p>\n<ul>\n<li>\n<p>Exp\u00e9rience de la coordination, de la r\u00e9daction, de la v\u00e9rification et de la modification de documents de correspondance ou de rapports exigeant l\u2019approbation de la haute direction*</p>\n</li>\n<li>\n<p>Exp\u00e9rience de la recherche, de la v\u00e9rification de donn\u00e9es et de la formulation de recommandations \u00e0 l\u2019intention de la haute direction*</p>\n</li>\n<li>\n<p>Exp\u00e9rience de la gestion d\u2019information stock\u00e9e dans une base de donn\u00e9es</p>\n</li>\n<li>\n<p>Exp\u00e9rience de la supervision d\u2019employ\u00e9s</p>\n</li>\n<li>\n<p>Exp\u00e9rience de l\u2019utilisation de la suite MS Office : Word, Excel, PowerPoint et Outlook</p>\n</li>\n<li>\n<p>Exp\u00e9rience de l\u2019utilisation de l\u2019Espace de travail du savoir</p>\n</li>\n</ul>\n<p><em>*</em><em> Par \u00ab\u2009haute direction\u2009\u00bb, on entend les titulaires de postes du niveau de la direction ou de niveaux sup\u00e9rieurs</em><strong>. </strong></p>\n<p><strong><br>Connaissances</strong></p>\n<ul>\n<li>\n<p>Connaissance des politiques et des proc\u00e9dures d\u2019AAC li\u00e9es aux voyages, \u00e0 l\u2019accueil et \u00e0 la participation aux conf\u00e9rences.</p>\n</li>\n</ul>\n<p><strong><br>Comp\u00e9tence</strong></p>\n<p>R\u00e9flexion analytique</p>\n<p>Esprit d\u2019\u00e9quipe</p>\n<p>Esprit d\u2019initiative</p>\n<p>Fiabilit\u00e9</p>\n<p>Jugement</p>\n<p>Communication interactive et \u00e9crite</p>\n<p>Capacit\u00e9 d\u2019adaptation<strong> </strong></p>\n<p><strong><br>Qualifications constituant un atout </strong></p>\n<p><strong><br>\u00c9tudes</strong></p>\n<p>Dipl\u00f4me d\u00e9cern\u00e9 par un \u00e9tablissement d\u2019enseignement postsecondaire reconnu.</p>\n<p><strong><br>Connaissances</strong></p>\n<ul>\n<li>\n<p>Connaissance des techniques d\u2019entr\u00e9e, de manipulation et de r\u00e9cup\u00e9ration de donn\u00e9es et du fonctionnement des applications et des syst\u00e8mes minist\u00e9riels\u00a0</p>\n</li>\n</ul>\n<p><strong><br>Capacit\u00e9</strong></p>\n<ul>\n<li>\n<p>Capacit\u00e9 de g\u00e9rer de multiples priorit\u00e9s afin de r\u00e9pondre \u00e0 des demandes conflictuelles.</p>\n</li>\n<li>\n<p>Capacit\u00e9 de donner des conseils sur l\u2019application des politiques et des lignes directrices.</p>\n</li>\n</ul>\n<p>\u00a0</p>\n<p><strong>Besoins organisationnels</strong></p>\n<p>Pour les besoins de la diversification de l\u2019effectif, la pr\u00e9f\u00e9rence pourrait \u00eatre accord\u00e9e aux candidats qui auront indiqu\u00e9 leur appartenance \u00e0 l\u2019un des groupes suivants, vis\u00e9s par l\u2019\u00e9quit\u00e9 en mati\u00e8re d\u2019emploi : Autochtones, personnes handicap\u00e9es, membres d\u2019une minorit\u00e9 visible, femmes.<br>\n<br>\n<br>\n<strong>Conditions d\u2019emploi</strong></p>\n<p>Exigences en mati\u00e8re de s\u00e9curit\u00e9 : Cote de fiabilit\u00e9</p>\n<p>Consentir et \u00eatre apte \u00e0 faire des heures suppl\u00e9mentaires occasionnellement \u00e0 court pr\u00e9avis selon les besoins.</p>\n<p>\u00a0</p>\n<p><strong>Demandes</strong></p>\n<p><br>\nLes employ\u00e9s d\u2019AAC de niveau AS-2, AS-3 et AS-4 ou de niveau \u00e9quivalent int\u00e9ress\u00e9s par une occasion d\u2019affectation ou de nomination int\u00e9rimaire \u00e0 la Section de la planification int\u00e9gr\u00e9e et des rapports de la Direction des partenariats et de la planification doivent envoyer leur curriculum vitae et leur lettre de pr\u00e9sentation (maximum 250 mots) \u00e0 Kathryn Jarrett (kathryn.jarrett@canada.ca) avant le\u00a05 f\u00e9vrier 2019.</p>\n<p>Dans leur curriculum vitae, les candidats doivent clairement indiquer :</p>\n<ul>\n<li>la dur\u00e9e de leur emploi (p. ex. d\u00e9termin\u00e9e ou ind\u00e9termin\u00e9e);</li>\n<li>leur groupe et niveau de titularisation;</li>\n<li>leur profil linguistique;</li>\n<li>leur cote de s\u00e9curit\u00e9.</li>\n</ul>\n<p><br>\n<strong>Remarques </strong></p>\n<ul>\n<li>Les candidats doivent obtenir l\u2019approbation de leur gestionnaire avant de pr\u00e9senter leur candidature pour ce poste.</li>\n<li>Les communications relatives \u00e0 ce processus se feront par courriel.</li>\n<li>Les candidats pourraient \u00eatre \u00e9valu\u00e9s au moyen d\u2019une entrevue.</li>\n<li>Une v\u00e9rification des r\u00e9f\u00e9rences pourrait \u00eatre effectu\u00e9e.</li>\n</ul>\n<p>\u00a0</p>\n\n"
    },
    "breadcrumb": {
        "en": "Information Management Analyst",
        "fr": "Analyste en gestion de l\u2019information"
    },
    "empl": {
        "type": {
            "en": "Assignment, Acting",
            "fr": "Affectation, Int\u00e9rimaire"
        },
        "classification": {
            "en": "AS-4 and equivalent",
            "fr": "AS-4 et \u00e9quivalent"
        },
        "branch": {
            "en": "Science and Technology Branch",
            "fr": "Direction g\u00e9n\u00e9rale des sciences et de la technologie"
        },
        "locations": {
            "en": "Ottawa",
            "fr": "Ottawa"
        },
        "date_closing": {
            "en": "2019-02-05",
            "fr": "2019-02-05"
        },
        "open_to": {
            "en": "All AAFC Employees in the NCR at the AS-2, AS-3, AS-4 level or equivalent",
            "fr": "Tous les employ\u00e9s d\u2019AAC dans la RCN de niveau AS-2, AS-3 et AS-4 ou de niveau \u00e9quivalent"
        },
        "name": {
            "en": "Kathryn Jarrett",
            "fr": "Kathryn Jarrett"
        },
        "email": {
            "en": "kathryn.jarrett@canada.ca",
            "fr": "kathryn.jarrett@canada.ca"
        }
    }
}