{
    "dcr_id": "1551212396600",
    "lang": "en",
    "title": {
        "en": "Programmer Analyst",
        "fr": "Programmeur analyste"
    },
    "modified": "2019-02-28 00:00:00.0",
    "issued": "2019-02-28 00:00:00.0",
    "type_name": "intra-intra/empl-empl",
    "node_id": "1279029955397",
    "layout_name": null,
    "dc_date_created": "2019-02-27",
    "breadcrumb_label": "",
    "meta": {
        "issued": {
            "en": "2019-02-28",
            "fr": "2019-02-28"
        },
        "modified": {
            "en": "2019-02-28",
            "fr": "2019-02-28"
        },
        "format": {
            "en": "gcformat",
            "fr": "gcformat"
        },
        "title": {
            "en": "Programmer Analyst",
            "fr": "Programmeur analyste"
        },
        "subject": {
            "en": "staffing",
            "fr": "dotation en personnel"
        },
        "language": {
            "en": "eng",
            "fr": "fra"
        },
        "audience": {
            "en": "gcaudience",
            "fr": "gcaudience"
        },
        "type": {
            "en": "notice",
            "fr": "avis"
        },
        "creator": {
            "en": "Agriculture and Agri-Food Canada",
            "fr": "Agriculture et Agroalimentaire Canada"
        },
        "spatial": {
            "en": "gcregions",
            "fr": "gcregions"
        },
        "service": {
            "en": "AAFC_AgriSource",
            "fr": "AAC_AgriSource"
        },
        "accessRights": {
            "en": "3",
            "fr": "3"
        }
    },
    "body": {
        "en": "\n<p>\u00a0</p>\n<h3><strong>Statement of Merit Criteria &amp; Conditions of Employment</strong></h3>\n<p><strong><br>Essential Qualifications</strong></p>\n<p><b><br>Education</b>:</p>\n<ul>\n<li>Successful completion of two (2) years of an acceptable post-secondary educational program in computer science, information technology, information management or another specialization relevant to the position being staffed.</li>\n</ul>\n<p>NOTE:</p>\n<p>Indeterminate period incumbents of positions in the CS group on May 10, 1999, who do not possess the education prescribed above are deemed to meet the minimum education standards based on their education, training and/or experience. They must be accepted as having met the minimum education standard whenever this standard is called for when staffing positions in the CS group.</p>\n<p><br><b>Experience(s):</b></p>\n<ul>\n<li>EE1: Recent* experience developing software or standards for bioinformatics or biodiversity informatics.</li>\n<li>EE2: Recent* experience object-oriented programming in at least two of the following languages: PHP, JavaScript, Java.</li>\n<li>EE3: Recent* experience developing software based on one of the following SQL database platforms: MySQL, PostgreSQL, Oracle, or SQLServer.</li>\n<li>EE4: Recent* experience in Linux server administration or using Linux in a software development environment.</li>\n<li>EE5: Recent* experience developing web-based applications.</li>\n</ul>\n<p>Definition:</p>\n<p>* Recent experience is defined as experience obtained within the last five (5) years.</p>\n<p><br><b>Knowledge(s):</b></p>\n<ul>\n<li>EK1: Knowledge of relational database management systems.</li>\n<li>EK2: Knowledge of object-oriented programming and design principles.</li>\n<li>EK3: Knowledge of Linux/Unix operating systems.</li>\n</ul>\n<p><br><b>Competencies:</b></p>\n<ul>\n<li>EC1: Writing Skills</li>\n<li>EC2: Client Focus</li>\n<li>EC3: Teamwork</li>\n<li>EC4: Interactive communication</li>\n<li>EC5: Initiative</li>\n<li>EC6: Creativity and Innovation</li>\n</ul>\n<p><br><b>Abilities:</b></p>\n<ul>\n<li>EA1: Ability to interpret and design algorithms.</li>\n<li>EA2: Ability to develop technical documentation.</li>\n</ul>\n<p><br><b>Language Requirement(s):</b></p>\n<ul>\n<li>English Essential</li>\n</ul>\n<p><strong><br>Asset Qualifications</strong></p>\n<ul>\n<li>Experience working with biologists, or biological collections, or biodiversity information, or genomics data.</li>\n<li>Experience developing software using open-source libraries for Biodiversity /Bioinformatics analysis.</li>\n<li>Experience in designing and implementing algorithms for biological data analysis.</li>\n<li>Graduation with a degree from a recognized post-secondary institution with specialization in Bioinformatics or Biodiversity Informatics.</li>\n</ul>\n<p><strong><br>Organizational Needs</strong></p>\n<p>In support of achieving a diversified workforce, consideration may be given to candidates self-identifying as belonging to one of the following Employment Equity groups: Aboriginal peoples, Persons with a Disability; Visible Minorities, Women.</p>\n<p><strong><br>Conditions of Employment</strong></p>\n<ul>\n<li>Reliability and Security: Reliability status</li>\n<li>Ability and willingness to travel</li>\n<li>Ability to maintain a flexible schedule and work occasional overtime</li>\n</ul>\n<h3><strong><br>Applications:</strong></h3>\n<p>Interested AAFC employees are encouraged to forward their resume and cover letter to Changhua Wu (changhua.wu@canada.ca) no later than COB on March 6th, 2019.</p>\n<p>Resumes must clearly identify:</p>\n<ul>\n<li>Your tenure (e.g. term or indeterminate)</li>\n<li>Your substantive group and level</li>\n</ul>\n<h3><strong><br>Notes:</strong></h3>\n<ul>\n<li>Reference checks will be sought.</li>\n<li>Communication for this process will be sent via email.</li>\n<li>A pool of qualified candidates may be established and may be used to staff similar positions on an acting, assignment or deployment basis.</li>\n</ul>\n<p>\u00a0</p>\n<ul>\n</ul>\n",
        "fr": "\n<h3><strong>\u00c9noncer des crit\u00e8res de m\u00e9rite et conditions d\u2019emploi</strong></h3>\n<p><strong><br>Qualifications essentielles</strong></p>\n<p><br><b>\u00c9ducation :</b></p>\n<ul>\n<li>Avoir termin\u00e9 avec succ\u00e8s un programme d\u2019\u00e9tudes postsecondaires de deux (2) ans en informatique, en technologie de l\u2019information, en gestion de l\u2019information ou dans une autre sp\u00e9cialisation se rapportant au poste \u00e0 pourvoir.</li>\n</ul>\n<p>REMARQUE :</p>\n<p>Les employ\u00e9s qui ne poss\u00e8dent pas le niveau d\u2019\u00e9tudes pr\u00e9cit\u00e9, mais qui, au 10 mai 1999, occupaient un poste de dur\u00e9e ind\u00e9termin\u00e9e au sein du groupe CS, sont r\u00e9put\u00e9s satisfaire \u00e0 l\u2019exigence minimale de scolarit\u00e9 par leurs \u00e9tudes, leur formation ou leur exp\u00e9rience.</p>\n<p><br><b>Exp\u00e9rience(s) :</b></p>\n<ul>\n<li>EE1 : Exp\u00e9rience r\u00e9cente* dans le d\u00e9veloppement de logiciels ou l'\u00e9tablissement de normes pour la bio-informatique ou l'informatique relative \u00e0 la biodiversit\u00e9.</li>\n<li>EE2 : Exp\u00e9rience r\u00e9cente* dans la programmation orient\u00e9e objet dans au moins deux des langages suivants : PHP, JavaScript, Java.</li>\n<li>EE3 : Exp\u00e9rience r\u00e9cente* dans le d\u00e9veloppement de logiciel en fonction de l'une des plateformes suivantes de bases de donn\u00e9es SQL : MySQL, PostgreSQL, Oracle ou SQLServer.</li>\n<li>EE4 : Exp\u00e9rience r\u00e9cente* dans l'administration de Linux ou dans l'utilisation de Linux dans un environnement de d\u00e9veloppement logiciel.</li>\n<li>EE5 : Exp\u00e9rience r\u00e9cente* dans le d\u00e9veloppement d'application Web.</li>\n</ul>\n<p>D\u00e9finition :</p>\n<p>* Exp\u00e9rience r\u00e9cente se d\u00e9finie comme \u00e9tant l'exp\u00e9rience acquise au cours des cinq (5) derni\u00e8res ann\u00e9es.</p>\n<p><br><b>Connaissance(s) :</b></p>\n<ul>\n<li>EK1 : Connaissance des syst\u00e8mes de gestion de bases de donn\u00e9es relationnelles.</li>\n<li>EK2 : Connaissance de la programmation orient\u00e9e objet et principes de conception.</li>\n<li>EK3 : Connaissance des syst\u00e8mes d'exploitation Linux/Unix.</li>\n</ul>\n<p><br><b>Comp\u00e9tence(s) :</b></p>\n<ul>\n<li>EC1 : Comp\u00e9tences r\u00e9dactionnelles</li>\n<li>EC2 : Orientation client</li>\n<li>EC3 : Aptitude \u00e0 travailler en \u00e9quipe</li>\n<li>EC4 : Communication interactive</li>\n<li>EC5 : Sens de l'initiative</li>\n<li>EC6 : Cr\u00e9ativit\u00e9 et innovation</li>\n</ul>\n<p><br><b>Capacit\u00e9s :</b></p>\n<ul>\n<li>EA1 : Capacit\u00e9 \u00e0 interpr\u00e9ter et \u00e0 concevoir des algorithmes.</li>\n<li>EA2 : Capacit\u00e9 \u00e0 r\u00e9diger de la documentation technique.</li>\n</ul>\n<p><br><b>Exigences linguistiques :</b></p>\n<ul>\n<li>Anglais essentiel</li>\n</ul>\n<p><strong><br>Qualifications constituant un atout</strong></p>\n<ul>\n<li>Exp\u00e9rience dans la collaboration avec des biologistes, les collections biologiques, les renseignements concernant la biodiversit\u00e9 ou les donn\u00e9es g\u00e9nomiques.</li>\n<li>Exp\u00e9rience dans le d\u00e9veloppement de logiciel au moyen de biblioth\u00e8ques ouvertes pour l'analyse de la bio-informatique ou la biodiversit\u00e9.</li>\n<li>Exp\u00e9rience dans la conception et l'application d'algorithme pour l'analyse de donn\u00e9es biologiques.</li>\n<li>Un grade d\u2019un \u00e9tablissement d\u2019enseignement postsecondaire reconnu avec sp\u00e9cialisation en bio-informatique ou informatique dans le domaine de la biodiversit\u00e9.</li>\n</ul>\n<p><strong><br>Besoins de l'organisation</strong></p>\n<p>Pour diversifier l\u2019effectif, on pourra examiner la candidature des personnes qui s\u2019identifient comme appartenant \u00e0 des groupes vis\u00e9s par l\u2019\u00e9quit\u00e9 en mati\u00e8re d\u2019emploi, soit les autochtones, les personnes handicap\u00e9es, les membres des minorit\u00e9s visibles et les femmes.</p>\n<p><strong><br>Conditions d'emploi</strong></p>\n<ul>\n<li>Fiabilit\u00e9 et s\u00e9curit\u00e9 : cote de fiabilit\u00e9</li>\n<li>\u00catre apte et dispos\u00e9 \u00e0 voyager</li>\n<li>Capacit\u00e9 \u00e0 maintenir un horaire flexible et \u00e0 faire des heures suppl\u00e9mentaires occasionnellement</li>\n</ul>\n<h3><strong><br>Candidatures :</strong></h3>\n<p>Les employ\u00e9s d\u2019AAC int\u00e9ress\u00e9s sont invit\u00e9s \u00e0 envoyer leur curriculum vitae et une lettre d\u2019accompagnement \u00e0 Changhua Wu (changhua.wu@canada.ca) au plus tard le 6 mars 2019, avant la fermeture des bureaux..</p>\n<p>Les curriculum vitae doivent nettement pr\u00e9ciser :</p>\n<ul>\n<li>\n<p>votre type de poste (p. ex., \u00e0 dur\u00e9e d\u00e9termin\u00e9e ou ind\u00e9termin\u00e9e);</p>\n</li>\n<li>\n<p>la classification de votre poste d\u2019attache.</p>\n</li>\n</ul>\n<h3><strong><br>Remarques :</strong></h3>\n<ul>\n<li>\n<p>Une v\u00e9rification des r\u00e9f\u00e9rences sera effectu\u00e9e.</p>\n</li>\n<li>\n<p>Les communications relatives au processus de s\u00e9lection se feront par courriel.</p>\n</li>\n<li>\n<p>Un bassin de candidats qualifi\u00e9s pourra \u00eatre cr\u00e9\u00e9 et pourra servir \u00e0 doter des postes semblables sur une base int\u00e9rimaire, d\u2019affectation ou de mutation.</p>\n</li>\n</ul>\n<p>\u00a0</p>\n\n"
    },
    "breadcrumb": {
        "en": "Programmer Analyst",
        "fr": "Programmeur analyste"
    },
    "empl": {
        "type": {
            "en": "Deployment",
            "fr": "Mutation"
        },
        "classification": {
            "en": "CS-2",
            "fr": "CS-2"
        },
        "branch": {
            "en": "Information Systems Branch",
            "fr": "Direction g\u00e9n\u00e9rale des syst\u00e8mes d'information"
        },
        "locations": {
            "en": "National Capital Region (NCR)",
            "fr": "R\u00e9gion de la Capital Nationale (RCN)"
        },
        "date_closing": {
            "en": "2019-03-06",
            "fr": "2019-03-06"
        },
        "open_to": {
            "en": "All AAFC Employees",
            "fr": "Tous les employ\u00e9s d'AAC"
        },
        "name": {
            "en": "Changhua Wu",
            "fr": "Changhua Wu"
        },
        "email": {
            "en": "changhua.wu@canada.ca",
            "fr": "changhua.wu@canada.ca"
        }
    }
}