{
    "dcr_id": "1551381535266",
    "lang": "en",
    "title": {
        "en": "Program Officer ",
        "fr": "Agent/Agente de programmes"
    },
    "modified": "2019-03-11 00:00:00.0",
    "issued": "2019-03-04 00:00:00.0",
    "type_name": "intra-intra/empl-empl",
    "node_id": "1279029955397",
    "layout_name": null,
    "dc_date_created": "2019-03-01",
    "breadcrumb_label": "",
    "meta": {
        "issued": {
            "en": "2019-03-04",
            "fr": "2019-03-04"
        },
        "modified": {
            "en": "2019-03-11",
            "fr": "2019-03-11"
        },
        "format": {
            "en": "gcformat",
            "fr": "gcformat"
        },
        "title": {
            "en": "Program Officer ",
            "fr": "Agent/Agente de programmes"
        },
        "subject": {
            "en": "staffing",
            "fr": "dotation en personnel"
        },
        "language": {
            "en": "eng",
            "fr": "fra"
        },
        "audience": {
            "en": "gcaudience",
            "fr": "gcaudience"
        },
        "type": {
            "en": "notice",
            "fr": "avis"
        },
        "creator": {
            "en": "Agriculture and Agri-Food Canada",
            "fr": "Agriculture et Agroalimentaire Canada"
        },
        "spatial": {
            "en": "gcregions",
            "fr": "gcregions"
        },
        "service": {
            "en": "AAFC_AgriSource",
            "fr": "AAC_AgriSource"
        },
        "accessRights": {
            "en": "3",
            "fr": "3"
        }
    },
    "body": {
        "en": "\n<p>\u00a0</p>\n<p>The Production Insurance and Risk Management Division of the Business Risk Management Directorate is looking for an interested and motivated individual for an assignment or acting opportunity for a period of 1 year with the possibility of an extension or deployment. This opportunity would expose the selected individual to a vast array of duties that are associated to the role of Program Officer, including, but are not limited to:</p>\n<ul>\n<li>\n<p>Serve as a point of contact for representatives of the province of Quebec for the AgriInsurance Program and the Wildlife Compensation Program;</p>\n</li>\n<li>\n<p>Verify that provincial requests for cost sharing (administration costs and premium payments) are in line with the CAP Framework Agreement, and make recommendations on payment;</p>\n</li>\n<li>\n<p>Assist in the analysis of requests from the province of Quebec to modify its programs, in order to determine whether the requests comply with the <em>Farm Income Protection Act</em>, the <em>Canada Production Insurance Regulations</em>, the CAP Framework Agreement and the provincial operational document that authorizes cost sharing;</p>\n</li>\n<li>\n<p>Assist program managers by providing various types of support for the completion of tasks relating to federal/provincial relations;</p>\n</li>\n<li>\n<p>Respond to a variety of requests for information about the programs from internal and external stakeholders.</p>\n</li>\n</ul>\n<p><br>\n<strong>ESSENTIAL QUALIFICATIONS</strong></p>\n<p>A degree from a recognized postsecondary institution with acceptable specialization in economics, commerce, marketing, business administration or agriculture, or an acceptable combination of education, training and/or experience.<br>\n<br>\nExperience in writing memos and/or letters intended for management or external stakeholders.<br>\nExperience in presenting information or analysis documents and providing verbal advice to a manager.<br>\nExperience in maintaining relationships with internal or external clients.<br>\n<br>\nAnalytical thinking<br>\nInitiative<br>\nTeamwork<br>\nClient focus<br>\nAbility to communicate effectively orally<br>\nAbility to communicate effectively in writing \u2013 in French</p>\n<p><br>\n<strong>Language requirements </strong></p>\n<p>Bilingual imperative: BBB/BBB and CCC/CCC</p>\n<p><br>\n<strong>ASSET QUALIFICATIONS</strong></p>\n<p>A university degree or college diploma in agriculture or agricultural economics.</p>\n<p>Experience working in an agricultural environment.</p>\n<p>Knowledge of basic statistics and their applications.</p>\n<p><br>\n<strong>Organizational needs </strong></p>\n<p>In support of achieving a diversified workforce, consideration may be given to candidates self-identifying as belonging to one of the following Employment Equity groups: Aboriginal Peoples, Persons with a Disability, Visible Minorities, and Women.</p>\n<p><br>\n<strong>Conditions of employment</strong></p>\n<p>Reliability security clearance</p>\n<p><br>\n<strong>Operational requirements</strong></p>\n<p>Ability and willingness to occasionally work overtime</p>\n<p>Ability and willingness to travel on occasion</p>\n<p><br>\n<strong>Applications</strong></p>\n<p>Interested AAFC employees are encouraged to forward their resum\u00e9 and cover letter to Julie Rochon at julie.rochon@canada.ca.</p>\n<p>Your resum\u00e9 must clearly identify</p>\n<ul>\n<li>\n<p>Your tenure (e.g. term or indeterminate);</p>\n</li>\n<li>\n<p>Your substantive group and level.</p>\n</li>\n</ul>\n<p><br>\n<strong>Notes:</strong></p>\n<ul style=\"list-style-type: square;\">\n<li>This is a one year assignment at level or acting opportunity, with the possibility of extension or deployment.</li>\n<li>Candidates must have their manager\u2019s approval prior to applying for this opportunity</li>\n<li>Communication for this process will be sent via email.</li>\n<li>Your cover letter may be used to assess your communication and writing skills.</li>\n<li>Candidates may be assessed through an interview.</li>\n<li>Reference checks may be sought.<br>\n\t<br>\n\t\u00a0</li>\n</ul>\n",
        "fr": "\n<p>\u00a0</p>\n<p>La Division de l\u2019assurance-production et de la gestion des risques de la Direction des programmes de gestion des risques de l\u2019entreprise est \u00e0 la recherche d\u2019une personne motiv\u00e9e qui serait int\u00e9ress\u00e9e par une affectation ou une nomination int\u00e9rimaire d\u2019un an avec possibilit\u00e9 de prolongation ou d\u2019une mutation. Cette occasion d'apprentissage exposerait la personne choisie \u00e0 un vaste \u00e9ventail de fonctions associ\u00e9es au r\u00f4le de l\u2019agent/agente de programmes, tels que, entre autres :</p>\n<ul>\n<li>\n<p>Agir \u00e0 titre de personne ressource pour les repr\u00e9sentants de la province de Qu\u00e9bec pour le programme Agri-protection et le programme d\u2019Indemnisation des dommages caus\u00e9s par la faune;</p>\n</li>\n<li>\n<p>V\u00e9rifier que les demandes provinciales de partage des frais (frais d\u2019administration et paiements de primes) sont conformes \u00e0 l\u2019accord-cadre PCA et faire une recommandation \u00e0 l\u2019\u00e9gard du paiement;</p>\n</li>\n<li>\n<p>Assister dans l\u2019analyse des demandes de la province de Qu\u00e9bec visant \u00e0 modifier leurs programmes afin de d\u00e9terminer si elles respectent la <em>Loi sur la protection du revenu agricole, </em>le <em>R\u00e8glement canadien sur l\u2019assurance production</em>, l\u2019accord-cadre PCA et le document op\u00e9rationnel provincial qui autorise le partage des frais;</p>\n</li>\n<li>\n<p>Aider les gestionnaires de programmes en fournissant un support divers dans l\u2019ex\u00e9cution de t\u00e2ches en lien avec les relations f\u00e9d\u00e9rales/provinciales;</p>\n</li>\n<li>\n<p>R\u00e9pondre \u00e0 diverses demandes d\u2019information sur les programmes provenant des intervenants internes et externes.</p>\n</li>\n</ul>\n<p><br>\n<strong>QUALIFICATIONS ESSENTIELLES</strong></p>\n<p>Un grade d\u2019un \u00e9tablissement d\u2019enseignement postsecondaire reconnu avec sp\u00e9cialisation acceptable en l\u2019\u00e9conomie, le commerce, en marketing ou en administration des affaires, de l\u2019agriculture ou agencement acceptable d\u2019\u00e9tudes, de formation et d\u2019exp\u00e9rience<br>\n<br>\nExp\u00e9rience de la r\u00e9daction de notes et/ou de lettres l\u2019intention de la direction ou d\u2019intervenants externes.<br>\nExp\u00e9rience de la pr\u00e9sentation de documents d\u2019information ou d\u2019analyse et de conseils verbaux \u00e0 un gestionnaire.<br>\nExp\u00e9rience du maintien de relations avec des clients internes ou externes.<br>\n<br>\nR\u00e9flexion analytique<br>\nInitiative<br>\nTravail d\u2019\u00e9quipe<br>\nAccent mis sur le client<br>\nCapacit\u00e9 de communiquer efficacement de vive voix<br>\nCapacit\u00e9 de communiquer efficacement en fran\u00e7ais par \u00e9crit<em> </em></p>\n<p><br>\n<strong>Exigences linguistiques</strong></p>\n<p>Bilingue imp\u00e9ratif : BBB/BBB et CCC/CCC</p>\n<p><strong>QUALIFICATIONS CONSTITUANT UN ATOUT</strong></p>\n<p>Dipl\u00f4me de niveau universitaire ou coll\u00e9gial dans le domaine agriculture ou de l\u2019\u00e9conomie agricole.</p>\n<p>Exp\u00e9rience de travail dans un milieu agricole.</p>\n<p>Connaissance des statistiques de base et leurs applications.</p>\n<p><br>\n<strong>Besoins de l'organisation </strong></p>\n<p>Pour diversifier l\u2019effectif, on pourra examiner la candidature des personnes qui s\u2019identifient comme appartenant \u00e0 des groupes vis\u00e9s par l\u2019\u00e9quit\u00e9 en mati\u00e8re d\u2019emploi, soit les autochtones, les personnes handicap\u00e9es, les membres des minorit\u00e9s visibles et les femmes.</p>\n<p><br>\n<strong>Conditions d'emploi </strong></p>\n<p>Cote de s\u00e9curit\u00e9 \u00ab <em>Fiabilit\u00e9 \u00bb</em></p>\n<p><br>\n<strong>Besoins op\u00e9rationnels </strong></p>\n<p>Capacit\u00e9 et volont\u00e9 de faire des heures suppl\u00e9mentaires \u00e0 l'occasion.<br>\nCapacit\u00e9 et volont\u00e9 de voyager \u00e0 l'occasion .</p>\n<p><br>\n<strong>Candidatures</strong></p>\n<p>Les employ\u00e9s d\u2019AAC int\u00e9ress\u00e9s sont invit\u00e9s \u00e0 envoyer leur curriculum vitae et une lettre d\u2019accompagnement \u00e0 Julie Rochon au julie.rochon@canada.ca.</p>\n<p><br>\nLes curriculum vitae doivent nettement pr\u00e9ciser :</p>\n<ul>\n<li>\n<p>votre type de poste (p. ex., \u00e0 dur\u00e9e d\u00e9termin\u00e9e ou ind\u00e9termin\u00e9e);</p>\n</li>\n<li>\n<p>la classification de votre poste d\u2019attache.</p>\n</li>\n</ul>\n<p><br>\n<strong>Remarques :</strong></p>\n<ul>\n<li>\n<p>Il s\u2019agit d\u2019une affectation ou une nomination int\u00e9rimaire d\u2019un an, avec possibilit\u00e9 de prolongation ou de mutation.</p>\n</li>\n<li>\n<p>Les candidats doivent obtenir l\u2019approbation de leur gestionnaire avant de postuler au poste.</p>\n</li>\n<li>\n<p>Les communications relatives \u00e0 ce processus se feront par courriel.\u00a0</p>\n</li>\n<li>\n<p>La lettre de pr\u00e9sentation peut \u00eatre utilis\u00e9e pour \u00e9valuer les comp\u00e9tences en communication et en r\u00e9daction des candidats.</p>\n</li>\n<li>\n<p>Les candidats peuvent \u00eatre \u00e9valu\u00e9s lors d\u2019une entrevue.</p>\n</li>\n<li>\n<p>Une v\u00e9rification des r\u00e9f\u00e9rences est possible.</p>\n</li>\n</ul>\n<p>\u00a0</p>\n\n"
    },
    "breadcrumb": {
        "en": "Program Officer",
        "fr": "Agent/Agente de programmes"
    },
    "empl": {
        "type": {
            "en": "Assignment, Acting",
            "fr": "Affectation, Int\u00e9rimaire"
        },
        "classification": {
            "en": "CO-1",
            "fr": "CO-1"
        },
        "branch": {
            "en": "Programs Branch",
            "fr": "Direction g\u00e9n\u00e9rale des programmes"
        },
        "locations": {
            "en": "Ottawa, Ontario",
            "fr": "Ottawa (Ontario)"
        },
        "date_closing": {
            "en": "2019-03-18",
            "fr": "2019-03-18"
        },
        "open_to": {
            "en": "All AAFC employees in the NCR at the CO-01, EC-03, PM-04, or AS-04 level",
            "fr": "Tous les employ\u00e9s d\u2019AAC occupant un poste de niveau CO-01, EC-03, PM-04 ou AS-04"
        },
        "name": {
            "en": "Julie Rochon",
            "fr": "Julie Rochon"
        },
        "email": {
            "en": "julie.rochon@canada.ca",
            "fr": "julie.rochon@canada.ca"
        }
    }
}