{
    "dcr_id": "1553543151993",
    "lang": "en",
    "title": {
        "en": "Policy Advisor",
        "fr": "Conseiller/conseill\u00e8re en politique"
    },
    "modified": "2019-04-10 00:00:00.0",
    "issued": "2019-03-27 00:00:00.0",
    "type_name": "intra-intra/empl-empl",
    "node_id": "1279029955397",
    "layout_name": null,
    "dc_date_created": "2019-03-26",
    "breadcrumb_label": "",
    "meta": {
        "issued": {
            "en": "2019-03-27",
            "fr": "2019-03-27"
        },
        "modified": {
            "en": "2019-04-10",
            "fr": "2019-04-10"
        },
        "format": {
            "en": "gcformat",
            "fr": "gcformat"
        },
        "title": {
            "en": "Policy Advisor",
            "fr": "Conseiller/conseill\u00e8re en politique"
        },
        "subject": {
            "en": "staffing",
            "fr": "dotation en personnel"
        },
        "language": {
            "en": "eng",
            "fr": "fra"
        },
        "audience": {
            "en": "gcaudience",
            "fr": "gcaudience"
        },
        "type": {
            "en": "notice",
            "fr": "avis"
        },
        "creator": {
            "en": "Agriculture and Agri-Food Canada",
            "fr": "Agriculture et Agroalimentaire Canada"
        },
        "spatial": {
            "en": "gcregions",
            "fr": "gcregions"
        },
        "service": {
            "en": "AAFC_AgriSource",
            "fr": "AAC_AgriSource"
        },
        "accessRights": {
            "en": "3",
            "fr": "3"
        }
    },
    "body": {
        "en": "\n<p>\u00a0</p>\n<p>Employees of Agriculture and Agri-Food Canada at the CO-01 EC-05, EC-04, AS-04, IS-04 or PM-04 levels are invited to express their interest in an assignment opportunity in the Assistant Deputy Minister\u2019s Office (ADMO) in Programs Branch as a Policy Advisor. This opportunity is for a period of 1 year with the possibility of extension.<br>\n<br>\nThe position will allow you to work closely with the ADM, her Senior Policy Advisor and the Branch DGs to gain:</p>\n<ul>\n<li>An understanding of departmental processes;</li>\n<li>A broader view of key issues and the Department\u2019s decision-making processes; and</li>\n<li>A unique opportunity to build on your core competencies.</li>\n</ul>\n<p>You will work closely with Programs Branch\u2019s Senior Policy Advisor to:</p>\n<ul>\n<li>Provide support to the Assistant Deputy Minister of Programs Branch, by coordinating and facilitating Branch advice, services and information;</li>\n<li>Assist in the management of projects crossing Directorate or Departmental functional lines;</li>\n<li>Assist the senior policy advisor and/or the Assistant Deputy Minister on numerous sensitive and evolving policy, program or operational matters;</li>\n<li>Participate in Branch Executive Committee meetings;</li>\n<li>Occasionally accompany the senior policy advisor and/or the Assistant Deputy Minister in meetings;</li>\n<li>Participate in calls for briefs and coordinate input and scenario notes for the Associate Deputy Minister, Deputy Minister and Minister\u2019s outreach trips; and</li>\n<li>Assist in coordinating the QP card process for Programs Branch which includes maintaining after-hours and early morning communication via blackberry for receipt of urgent QP card requests.</li>\n</ul>\n<p>Candidates should have strong analytical, communication and writing skills, as well as good judgement and initiative. Candidates must also be bilingual, with a BBB profile or higher.\u00a0<br>\n<br>\nCandidates should be willing to work from 9am to 5pm and work overtime occasionally.<br>\n<br>\nPlease note that this advertisement is intended for an assignment at level.<br>\n<br>\nInterested? Send your resume and a cover letter explaining why you are interested in this opportunity and what you would bring to the position to Suzie Da Costa (suzie.dacosta@canada.ca) by April 12, 2019.</p>\n<p><br>\n<strong>Applications:</strong></p>\n<p>Resumes must clearly identify:</p>\n<ul>\n<li>\n<p>Your tenure (e.g. term or indeterminate)</p>\n</li>\n<li>\n<p>Your substantive group and level</p>\n</li>\n</ul>\n<p><br>\n<strong>Notes:</strong></p>\n<ul>\n<li>\n<p>Communication for this process will be sent via email.</p>\n</li>\n<li>\n<p>A pool of qualified candidates may be established and may be used to staff similar positions on an assignment basis.</p>\n</li>\n<li>\n<p>Candidates must have their manager\u2019s approval prior to applying to an assignment opportunity.</p>\n</li>\n<li>\n<p>Candidates may be assessed through an interview.</p>\n</li>\n<li>\n<p>Your cover letter may be used to assess your communication and writing skills.</p>\n</li>\n<li>\n<p>A written exam may be administered.</p>\n</li>\n<li>\n<p>Reference checks may be sought.</p>\n<p>\u00a0</p>\n</li>\n</ul>\n",
        "fr": "\n<p>\u00a0</p>\n<p>On invite les employ\u00e9s d\u2019Agriculture et Agroalimentaire Canada de niveau CO-01 EC-05, EC-04, AS-04, IS-04, PM-04 \u00e0 faire part de leur int\u00e9r\u00eat en ce qui concerne une occasion d\u2019affectation au Bureau de la sous\u2011ministre adjointe (BSMA) dans la Direction g\u00e9n\u00e9rale des programmes. Cette opportunit\u00e9 est pour une p\u00e9riode d\u2019un an avec une possibilit\u00e9 de prolongation.<br>\n<br>\nLe poste vous permettra de collaborer \u00e9troitement avec la SMA, sa conseill\u00e8re principale en politiques ainsi que les DGs de la DGP afin:</p>\n<ul>\n<li>de comprendre les processus du Minist\u00e8re;</li>\n<li>d\u2019avoir une meilleure vue d\u2019ensemble des probl\u00e8mes cl\u00e9s et des processus d\u00e9cisionnels de haut niveau; et</li>\n<li>de renforcer vos comp\u00e9tences de base.</li>\n</ul>\n<p>Vous travaillerez en \u00e9troite collaboration avec le conseiller principal en politiques de la Direction g\u00e9n\u00e9rale des programmes aux fins suivantes :</p>\n<ul>\n<li>offrir un soutien \u00e0 la sous\u2011ministre adjointe de la Direction g\u00e9n\u00e9rale des programmes en coordonnant et en facilitant l\u2019acc\u00e8s aux conseils, aux services et aux renseignements de la Direction g\u00e9n\u00e9rale ;</li>\n<li>aider \u00e0 g\u00e9rer des projets concernant les domaines fonctionnels de plusieurs directions ou minist\u00e8res ;</li>\n<li>aider le conseiller principal et/ou la sous\u2011ministre adjointe \u00e0 r\u00e9gler de nombreuses questions d\u00e9licates et en \u00e9volution concernant les politiques, les programmes ou les op\u00e9rations ;</li>\n<li>participer aux rencontres du Comit\u00e9 ex\u00e9cutif de la DGP ;</li>\n<li>accompagner \u00e0 l\u2019occasion le conseiller principal et/ou la sous\u2011ministre adjointe aux r\u00e9unions ;</li>\n<li>participer \u00e0 la pr\u00e9paration et \u00e0 la coordination de note d\u2019information et de note de sc\u00e9nario pour la Sous-ministre d\u00e9l\u00e9gu\u00e9e, le Sous-Ministre et le Ministre pour des voyages; et</li>\n<li>coordonner le processus de pr\u00e9paration des fiches pour la p\u00e9riode de questions pour la Direction g\u00e9n\u00e9rale des programmes. Il s\u2019agit notamment d\u2019assurer les communications apr\u00e8s les heures normales de travail et tr\u00e8s t\u00f4t dans la matin\u00e9e avec un appareil BlackBerry pour la r\u00e9ception des demandes urgentes de fiches pour la p\u00e9riode de questions.</li>\n</ul>\n<p>Les candidats doivent poss\u00e9der de solides comp\u00e9tences en analyse, en communication et en r\u00e9daction, en plus de faire preuve de jugement et d\u2019esprit d\u2019initiative. Les candidats doivent aussi \u00eatre bilingues, avec des r\u00e9sultats \u00c9LS de BBB ou sup\u00e9rieur.</p>\n<p><br>\nLes candidats doivent \u00eatre pr\u00eats \u00e0 travailler de 9 h \u00e0 17 h et de faire des heures suppl\u00e9mentaires, \u00e0 l\u2019occasion.<br>\n<br>\nVeuillez noter que ce processus donnera lieu \u00e0 une affectation au niveau d\u2019attache.<br>\n<br>\nSi cela vous int\u00e9resse, veuillez envoyer \u00e0 Suzie Da Costa (suzie.dacosta@agr.gc.ca) votre curriculum vit\u00e6 ainsi qu\u2019une lettre de pr\u00e9sentation dans laquelle vous expliquez les raisons de votre int\u00e9r\u00eat et ce que vous allez apporter au poste d\u2019ici le\u00a012 avril, 2019.<br>\n<br>\n<strong><br>Applications:</strong></p>\n<p>Les curriculum vitae doivent nettement pr\u00e9ciser votre type de poste (p. ex., \u00e0 dur\u00e9e d\u00e9termin\u00e9e ou ind\u00e9termin\u00e9e) et la classification de votre poste d\u2019attache.</p>\n<p><br>\n<strong>Remarques:</strong></p>\n<ul>\n<li>Les communications relatives au processus de s\u00e9lection se feront par courriel.</li>\n<li>Un bassin de candidats qualifi\u00e9s pourra \u00eatre cr\u00e9\u00e9 et pourra servir \u00e0 doter des postes semblables sur une base d\u2019affectation.</li>\n<li>Les candidats doivent obtenir l\u2019approbation de leur gestionnaire avant de poser leur candidature.</li>\n<li>Les candidats pourraient \u00eatre \u00e9valu\u00e9s au moyen d\u2019une entrevue.</li>\n<li>Votre lettre de pr\u00e9sentation pourrait \u00eatre utilis\u00e9e pour \u00e9valuer vos comp\u00e9tences en r\u00e9daction \u00e9crite.</li>\n<li>Les candidats pourraient devoir passer un examen \u00e9crit.</li>\n<li>Une v\u00e9rification des r\u00e9f\u00e9rences pourrait \u00eatre faite.</li>\n</ul>\n<p>\u00a0</p>\n\n"
    },
    "breadcrumb": {
        "en": "Policy Advisor",
        "fr": "Conseiller/conseill\u00e8re en politique"
    },
    "empl": {
        "type": {
            "en": "Assignment",
            "fr": "Affectation"
        },
        "classification": {
            "en": "CO-1, EC-4, EC-5, AS-4, IS-4, PM-4",
            "fr": "CO-1, EC-4, EC-5, AS-4, IS-4, PM-4"
        },
        "branch": {
            "en": "Programs Branch",
            "fr": "Direction g\u00e9n\u00e9rale des programmes"
        },
        "locations": {
            "en": "Ottawa, Ontario (NCR)",
            "fr": "Ottawa, Ontario (RCN)"
        },
        "date_closing": {
            "en": "2019-04-12",
            "fr": "2019-04-12"
        },
        "open_to": {
            "en": "All AAFC employees at the CO-01, EC-05, EC-04, AS-04, IS-04, PM-04 level",
            "fr": "Tous les employ\u00e9s d'AAC de niveau CO-01, EC-05, EC-04, AS-04, IS-04, PM-04"
        },
        "name": {
            "en": "Suzie Da Costa",
            "fr": "Suzie Da Costa"
        },
        "email": {
            "en": "suzie.dacosta@canada.ca",
            "fr": "suzie.dacosta@canada.ca"
        }
    }
}