{
    "dcr_id": "1554238025387",
    "lang": "en",
    "title": {
        "en": "Harassment and Workplace Violence Prevention Leader",
        "fr": "Chef de pr\u00e9vention du harc\u00e8lement et de la violence en milieu de travail"
    },
    "modified": "2019-04-03 00:00:00.0",
    "issued": "2019-04-03 00:00:00.0",
    "type_name": "intra-intra/empl-empl",
    "node_id": "1279029955397",
    "layout_name": null,
    "dc_date_created": "2019-04-03",
    "breadcrumb_label": "",
    "meta": {
        "issued": {
            "en": "2019-04-03",
            "fr": "2019-04-03"
        },
        "modified": {
            "en": "2019-04-03",
            "fr": "2019-04-03"
        },
        "format": {
            "en": "gcformat",
            "fr": "gcformat"
        },
        "title": {
            "en": "Harassment and Workplace Violence Prevention Leader",
            "fr": "Chef de pr\u00e9vention du harc\u00e8lement et de la violence en milieu de travail"
        },
        "subject": {
            "en": "staffing",
            "fr": "dotation en personnel"
        },
        "language": {
            "en": "eng",
            "fr": "fra"
        },
        "audience": {
            "en": "gcaudience",
            "fr": "gcaudience"
        },
        "type": {
            "en": "notice",
            "fr": "avis"
        },
        "creator": {
            "en": "Agriculture and Agri-Food Canada",
            "fr": "Agriculture et Agroalimentaire Canada"
        },
        "spatial": {
            "en": "gcregions",
            "fr": "gcregions"
        },
        "service": {
            "en": "AAFC_AgriSource",
            "fr": "AAC_AgriSource"
        },
        "accessRights": {
            "en": "3",
            "fr": "3"
        }
    },
    "body": {
        "en": "\n<p>\u00a0</p>\n<p>Workplace Wellness Programs is looking for a new <strong>Harassment and Workplace Violence Prevention Leader</strong>. If you\u2019re interested in helping us promote a workplace that is safe and respectful; if you want to help establish a new harassment and workplace violence prevention and resolution program; and if you want to work with a very positive and dedicated team please reach out to us!</p>\n<p>The ideal candidate:</p>\n<ul>\n<li>\n<p>Has experience implementing the TBS Harassment Prevention Policy and/or the Workplace Violence provisions of the Canada Occupational Health and Safety Regulations</p>\n</li>\n<li>\n<p>Works collaboratively and maintains effective relationships with colleagues, partners and diverse stakeholders</p>\n</li>\n<li>\n<p>Enjoys coaching others</p>\n</li>\n<li>\n<p>Thinks strategically and is able to see the bigger picture, identify trends and make linkages across issues and interests</p>\n</li>\n<li>\n<p>Can communicate effectively in both official languages</p>\n</li>\n<li>\n<p>Is comfortable delivering presentations or training to management and teams</p>\n</li>\n</ul>\n<p>If this challenge sounds good to you, please contact Genevieve.smith@canada.ca</p>\n",
        "fr": "\n<p>\u00a0</p>\n<p>L'\u00c9quipe des programmes du mieux-\u00eatre\u00a0en milieu de travail\u00a0est \u00e0 la recherche d\u2019un/e <strong>Chef de pr\u00e9vention du harc\u00e8lement et de la violence en milieu de travail.</strong> Si \u00e7a vous int\u00e9resse de promouvoir un environnement de travail respectueux et s\u00e9curitaire, que vous d\u00e9sirez \u00e9tablir un nouveau programme de pr\u00e9vention et de r\u00e9solution du harc\u00e8lement et de la violence en milieu de travail, et que vous aimeriez travailler au sein d\u2019une \u00e9quipe d\u00e9di\u00e9e et positive, svp nous faire signe!</p>\n<p>Le/la candidat/e id\u00e9al/e :</p>\n<ul>\n<li>\n<p>poss\u00e8de de l\u2019exp\u00e9rience dans la mise en \u0153uvre de la politique du SCT sur la pr\u00e9vention du harc\u00e8lement et/ou des dispositions du R\u00e8glement Canadien sur la Sant\u00e9 et S\u00e9curit\u00e9 au Travail portant sur la violence en milieu de travail.</p>\n</li>\n<li>\n<p>travaille de mani\u00e8re collaborative et maintien des relations efficaces avec les coll\u00e8gues, partenaires et intervenants divers.</p>\n</li>\n<li>\n<p>aime coacher les gens</p>\n</li>\n<li>\n<p>est strat\u00e9gique et capable de voir la situation d\u2019ensemble ainsi que d\u2019identifier des tendances et faire les liens entre les diff\u00e9rents enjeux et int\u00e9r\u00eats.</p>\n</li>\n<li>\n<p>communique bien dans les deux langues officielles.</p>\n</li>\n<li>\n<p>est \u00e0 l\u2019aise faire des pr\u00e9sentations ou faciliter la formation \u00e0 des \u00e9quipes et des gestionnaires.</p>\n</li>\n</ul>\n<p>Si ce d\u00e9fi vous int\u00e9resse, veuillez svp communiquer avec genevieve.smith@canada.ca.</p>\n\n"
    },
    "breadcrumb": {
        "en": "Harassment and Workplace Violence Prevention Leader",
        "fr": "Chef de pr\u00e9vention du harc\u00e8lement et de la violence en milieu de travail"
    },
    "empl": {
        "type": {
            "en": "Assignment, Deployment, Acting",
            "fr": "Affectation, Mutation, Int\u00e9rimaire"
        },
        "classification": {
            "en": "AS-6 and equivalent",
            "fr": "AS-6 et \u00e9quivalent"
        },
        "branch": {
            "en": "Corporate Management Branch",
            "fr": "Gestion int\u00e9gr\u00e9e"
        },
        "locations": {
            "en": "Ottawa preferred, but would consider other locations for the ideal candidate",
            "fr": "Pr\u00e9f\u00e9rablement Ottawa mais d'autres lieux pourraient \u00eatre consid\u00e9r\u00e9s pour le candidat ou la candidate id\u00e9ale"
        },
        "date_closing": {
            "en": "2019-04-12",
            "fr": "2019-04-12"
        },
        "open_to": {
            "en": "All AAFC Employees",
            "fr": "Tous les employ\u00e9s d'AAC"
        },
        "name": {
            "en": "Genevieve Smith",
            "fr": "Genevieve Smith"
        },
        "email": {
            "en": "genevieve.smith@canada.ca",
            "fr": "genevieve.smith@canada.ca"
        }
    }
}