{
    "dcr_id": "1557522735836",
    "lang": "en",
    "title": {
        "en": "Administrative Assistant",
        "fr": "Adjoint Administratif "
    },
    "modified": "2019-05-13 00:00:00.0",
    "issued": "2019-05-13 00:00:00.0",
    "type_name": "intra-intra/empl-empl",
    "node_id": "1279029955397",
    "layout_name": null,
    "dc_date_created": "2019-05-13",
    "breadcrumb_label": "",
    "meta": {
        "issued": {
            "en": "2019-05-13",
            "fr": "2019-05-13"
        },
        "modified": {
            "en": "2019-05-13",
            "fr": "2019-05-13"
        },
        "format": {
            "en": "gcformat",
            "fr": "gcformat"
        },
        "title": {
            "en": "Administrative Assistant",
            "fr": "Adjoint Administratif "
        },
        "subject": {
            "en": "staffing",
            "fr": "dotation en personnel"
        },
        "language": {
            "en": "eng",
            "fr": "fra"
        },
        "audience": {
            "en": "gcaudience",
            "fr": "gcaudience"
        },
        "type": {
            "en": "notice",
            "fr": "avis"
        },
        "creator": {
            "en": "Agriculture and Agri-Food Canada",
            "fr": "Agriculture et Agroalimentaire Canada"
        },
        "spatial": {
            "en": "gcregions",
            "fr": "gcregions"
        },
        "service": {
            "en": "AAFC_AgriSource",
            "fr": "AAC_AgriSource"
        },
        "accessRights": {
            "en": "3",
            "fr": "3"
        }
    },
    "body": {
        "en": "\n<p><br><strong>Duties:</strong><em> </em></p>\n<p>Are you interested in working in a fast-paced environment while learning about Cross-Sector Issues (Labour, Traceability, and Organics), Value Chain Roundtables (VCRTs), and Strategic Development (VCRT Revitalization, Competitiveness)? If so, here is an opportunity that you cannot afford to pass up:</p>\n<p>The Director of the Industry Engagement Division (IED) in the Market and Industry Services Branch is looking for an interested and motivated individual to provide Administrative support services to the Director and IED team. Responsibilities include such things as managing the Director\u2019s schedule; planning and organizing meetings; coordinating divisional travel; preparing/submitting financial documents; and monitoring and managing divisional TRECS assignments. This learning opportunity would expose the selected individual to a vast array of duties that are associated to an\u00a0Administrative Assistant role. IED is able to provide\u00a0an\u00a0indeterminate, assignment and/or acting opportunity.</p>\n<p><strong><br>Statement of Merit Criteria &amp; Conditions of Employment</strong></p>\n<p><strong><br>Essential Qualifications</strong></p>\n<p>Education</p>\n<ul>\n<li>Secondary school diploma or a satisfactory score on the Public Service Commission test.</li>\n</ul>\n<p>Experience(s)</p>\n<ul>\n<li>Experience providing a range of administrative services.</li>\n<li>Experience using computer software such as Word, PowerPoint, and Excel.</li>\n</ul>\n<p>Competencies</p>\n<ul>\n<li>Interactive Communication</li>\n<li>Planning and Organizing</li>\n<li>Initiative</li>\n<li>Dependability</li>\n<li>Judgment</li>\n<li>Adaptability</li>\n</ul>\n<p>Language Requirement(s)</p>\n<ul>\n<li>Bilingual Imperative BBB/BBB</li>\n</ul>\n<p><strong><br>Asset Qualifications</strong></p>\n<ul>\n<li>Diploma or certificate from a recognized post-secondary institution in office administration or related field.</li>\n<li>Experience using a correspondence tracking system such as Executive Correspondence Management system (ECMS), or CCM Mercury (TRECS).</li>\n<li>Experience coordinating travel arrangements with Shared Travel Services Portal (STS) and completing travel expense claims.</li>\n<li>Experience using an integrated financial system such as SAP, SMS, and Enterprise Reporting System.</li>\n</ul>\n<p><strong><br>Organizational Needs</strong></p>\n<p>In support of achieving a diversified workforce, consideration may be given to candidates self-identifying as belonging to one of the following Employment Equity groups: Aboriginal peoples, Persons with a Disability; Visible Minorities, Women.</p>\n<p>Candidates must be willing to work overtime on occasion and have the ability to travel if needed.</p>\n<p><strong><br>Conditions of Employment</strong><strong> </strong></p>\n<p>Security Requirement(s): Reliability</p>\n<p><strong><br>Applications:</strong></p>\n<p>Interested <em>AAFC</em> employees are encouraged to forward their resume and cover letter to <em>Glenda Taylor at Glenda.Taylor@canada.ca</em>.</p>\n<p>Resumes must clearly identify:</p>\n<ul>\n<li>Your tenure (e.g. term or indeterminate)</li>\n<li>Your substantive group and level</li>\n<li>Names and contact information for 3 references</li>\n</ul>\n<p><strong><br>Notes:</strong></p>\n<ul>\n<li>Deployments cannot change the tenure of an employee (i.e: term to indeterminate) or constitute a promotion.</li>\n<li>Communication for this process will be sent via email.</li>\n<li>A pool of qualified candidates may be established and may be used to staff similar positions on an acting, assignment or deployment basis.</li>\n</ul>\n<p>\u00a0</p>\n<ul>\n</ul>\n",
        "fr": "\n<p><strong><br>Fonctions :</strong></p>\n<p>Souhaitez-vous travailler dans un environnement en \u00e9volution rapide tout en vous familiarisant avec les questions intersectorielles (travail, tra\u00e7abilit\u00e9 et mati\u00e8res organiques), les tables rondes sur les cha\u00eenes de valeur (TRCV) et le d\u00e9veloppement strat\u00e9gique (revitalisation des TRCV, comp\u00e9titivit\u00e9) ? Si c'est le cas, voici une occasion que vous ne pouvez pas vous permettre de laisser passer :</p>\n<p>Le directeur de la Division de l'engagement de l'industrie (DEI) de la Direction g\u00e9n\u00e9rale des services \u00e0 l'industrie et aux march\u00e9s est \u00e0 la recherche d'une personne int\u00e9ress\u00e9e et motiv\u00e9e pour fournir des services de soutien administratif au directeur et \u00e0 son \u00e9quipe. Les responsabilit\u00e9s comprennent la gestion de l'horaire du directeur, la planification et l'organisation des r\u00e9unions, la coordination des d\u00e9placements des divisions, la pr\u00e9paration et la pr\u00e9sentation des documents financiers, ainsi que la surveillance et la gestion des affectations des TRECS des divisions. Cette occasion d'apprentissage exposerait la personne s\u00e9lectionn\u00e9e \u00e0 une vaste gamme de t\u00e2ches associ\u00e9es \u00e0 un poste d'adjoint administratif. IED est en mesure\u00a0des fonctons un poste de dur\u00e9e ind\u00e9termin\u00e9e, d'affectation et/ou d'int\u00e9rim</p>\n<p><strong><br>\u00c9noncer des crit\u00e8res de m\u00e9rite et conditions d\u2019emploi : </strong></p>\n<p><strong><br>Qualifications essentielles</strong></p>\n<p><br>\u00c9tudes</p>\n<ul>\n<li>Dipl\u00f4me d'\u00e9tudes secondaires ou des r\u00e9sultats satisfaisants au test approuv\u00e9 par la Commission de la fonction publique.</li>\n</ul>\n<p>Exp\u00e9rience(s)</p>\n<ul>\n<li>Exp\u00e9rience de la prestation d\u2019un \u00e9ventail de services administratifs.</li>\n<li>Exp\u00e9rience de l'utilisation de logiciels informatiques tels que Word, PowerPoint et Excel.</li>\n</ul>\n<p>Comp\u00e9tence(s)</p>\n<ul>\n<li>Communication interactive</li>\n<li>Planification et organisation</li>\n<li>Esprit d\u2019initiative</li>\n<li>Fiabilit\u00e9</li>\n<li>Jugement</li>\n<li>Facult\u00e9 d\u2019adaptation</li>\n</ul>\n<p>Exigences linguistiques</p>\n<ul>\n<li>Bilingue imp\u00e9ratif BBB/BBB</li>\n</ul>\n<p><strong><br>Qualifications constituant un atout</strong></p>\n<ul>\n<li>Dipl\u00f4me ou certificat d\u2019un \u00e9tablissement d\u2019enseignement postsecondaire reconnu en administration de bureau ou dans un domaine connexe.</li>\n<li>Exp\u00e9rience de l\u2019utilisation d\u2019un syst\u00e8me financier int\u00e9gr\u00e9 comme SAP, SMS, et Enterprise Reporting System.</li>\n<li>Exp\u00e9rience de la coordination des pr\u00e9paratifs de voyage dans le portail des Services de voyage partag\u00e9s (SVP) et la pr\u00e9paration de demandes de remboursement des frais de voyage.</li>\n<li>Exp\u00e9rience de l\u2019utilisation d\u2019un syst\u00e8me de suivi de la correspondance minist\u00e9rielle comme le SGCHD ou CCM Mercury.</li>\n</ul>\n<p><strong><br>Besoins de l'organisation</strong></p>\n<p>Pour diversifier l\u2019effectif, on pourra examiner la candidature des personnes qui s\u2019identifient comme appartenant \u00e0 des groupes vis\u00e9s par l\u2019\u00e9quit\u00e9 en mati\u00e8re d\u2019emploi, soit les autochtones, les personnes handicap\u00e9es, les membres des minorit\u00e9s visibles et les femmes.</p>\n<p><strong><br>Les candidats doivent \u00eatre pr\u00eats \u00e0 faire des heures suppl\u00e9mentaires \u00e0 l'occasion et avoir la capacit\u00e9 de voyager au besoin.</strong></p>\n<p><strong><br>Conditions d'emploi </strong></p>\n<p>Exigences de s\u00e9curit\u00e9(s) <em>: </em>Cote de s\u00e9curit\u00e9 \u00ab Fiabilit\u00e9 \u00bb</p>\n<p><strong><br>Candidatures</strong></p>\n<p>Les employ\u00e9s <em>AAC</em> int\u00e9ress\u00e9s sont invit\u00e9s \u00e0 envoyer leur curriculum vitae et une lettre d\u2019accompagnement \u00e0 <em>Glenda Taylor \u00e0 <a href=\"mailto:Glenda.Taylor@canada.ca\">Glenda.Taylor@canada.ca</a>.</em></p>\n<p>Les curriculum vitae doivent nettement pr\u00e9ciser :</p>\n<ul>\n<li>votre type de poste (p. ex., \u00e0 dur\u00e9e d\u00e9termin\u00e9e ou ind\u00e9termin\u00e9e);</li>\n<li>la classification de votre poste d\u2019attache.</li>\n<li>les noms et coordonn\u00e9es de 3 r\u00e9f\u00e9rences.</li>\n</ul>\n<p><strong><br>Remarques</strong></p>\n<ul>\n<li>Une mutation ne peut servir \u00e0 modifier le type de poste d\u2019un employ\u00e9 ou d\u2019une employ\u00e9e (de dur\u00e9e d\u00e9termin\u00e9e \u00e0 dur\u00e9e ind\u00e9termin\u00e9e, etc.) ni constituer une promotion.</li>\n<li>Les communications relatives au processus de s\u00e9lection se feront par courriel.</li>\n<li>Un bassin de candidats qualifi\u00e9s pourra \u00eatre cr\u00e9\u00e9 et pourra servir \u00e0 doter des postes semblables sur une base int\u00e9rimaire, d\u2019affectation ou de mutation.<em> </em></li>\n</ul>\n<p>\u00a0</p>\n\n"
    },
    "breadcrumb": {
        "en": "Administrative Assistant",
        "fr": "Adjoint Administratif"
    },
    "empl": {
        "type": {
            "en": "Assignment, Deployment, Acting",
            "fr": "Affectation, Mutation, Int\u00e9rimaire"
        },
        "classification": {
            "en": "AS-1 and equivalent",
            "fr": "AS-1 et \u00e9quivalent"
        },
        "branch": {
            "en": "Market and Industry Services Branch",
            "fr": "Direction g\u00e9n\u00e9rale des services \u00e0 l'industrie et aux march\u00e9s"
        },
        "locations": {
            "en": "NCR",
            "fr": "NCR"
        },
        "date_closing": {
            "en": "2019-05-24",
            "fr": "2019-05-24"
        },
        "open_to": {
            "en": "All AAFC Employees in NCR",
            "fr": "Tous les employ\u00e9s d\u2019AAC dans le RCN"
        },
        "name": {
            "en": "Glenda Taylor",
            "fr": "Glenda Taylor"
        },
        "email": {
            "en": "glenda.taylor@canada.ca",
            "fr": "glenda.taylor@canada.ca"
        }
    }
}