{
    "dcr_id": "1558108439168",
    "lang": "en",
    "title": {
        "en": "Branch Travel and Event Coordinator ",
        "fr": "Coordonnateur des voyages et d\u2019\u00e9v\u00e9nements de la direction g\u00e9n\u00e9rale"
    },
    "modified": "2019-05-21 00:00:00.0",
    "issued": "2019-05-21 00:00:00.0",
    "type_name": "intra-intra/empl-empl",
    "node_id": "1279029955397",
    "layout_name": null,
    "dc_date_created": "2019-05-17",
    "breadcrumb_label": "",
    "meta": {
        "issued": {
            "en": "2019-05-21",
            "fr": "2019-05-21"
        },
        "modified": {
            "en": "2019-05-21",
            "fr": "2019-05-21"
        },
        "format": {
            "en": "gcformat",
            "fr": "gcformat"
        },
        "title": {
            "en": "Branch Travel and Event Coordinator ",
            "fr": "Coordonnateur des voyages et d\u2019\u00e9v\u00e9nements de la direction g\u00e9n\u00e9rale"
        },
        "subject": {
            "en": "staffing",
            "fr": "dotation en personnel"
        },
        "language": {
            "en": "eng",
            "fr": "fra"
        },
        "audience": {
            "en": "gcaudience",
            "fr": "gcaudience"
        },
        "type": {
            "en": "notice",
            "fr": "avis"
        },
        "creator": {
            "en": "Agriculture and Agri-Food Canada",
            "fr": "Agriculture et Agroalimentaire Canada"
        },
        "spatial": {
            "en": "gcregions",
            "fr": "gcregions"
        },
        "service": {
            "en": "AAFC_AgriSource",
            "fr": "AAC_AgriSource"
        },
        "accessRights": {
            "en": "3",
            "fr": "3"
        }
    },
    "body": {
        "en": "\n<p><br>This is an invitation for AAFC employees working in the NCR to indicate their interest for a one year assignment opportunity as the Programs Branch Travel and Event Coordinator in the Assistant Deputy Minister\u2019s Office. Actings may be considered if no one is found qualified at level.<br>\n<br>\n<strong><br>Duties:</strong></p>\n<ul>\n<li>\n<p>Prepare Event Plans</p>\n</li>\n<li>\n<p>Manage all ADM travel</p>\n</li>\n<li>\n<p>Oversee DG Travel and Expense Reports</p>\n</li>\n<li>\n<p>Coordinate office supplies and other purchases for ADMO</p>\n</li>\n<li>\n<p>Coordinate the approval and processing of all non TRECS documents such as signature card approvals, petty cash, authority requests, blanket travel authorizations</p>\n</li>\n<li>\n<p>Support and back up the TRECS Coordinator</p>\n</li>\n</ul>\n<p>\n<strong><br>Statement of Merit Criteria: </strong></p>\n<p><strong><br>Essential Qualifications<br>\n<br>\n<br>Language: Bilingual Imperative BBB/BBB</strong><br>\n<br>\nA secondary school diploma or\u00a0a satisfactory score on the PSC test approved as an alternative to a secondary school diploma or an acceptable combination of education, training and/or experience.<br>\n<br>\nExperience in providing a range of administrative support services to management and employees.<br>\nExperience using common word processing, spreadsheet and e-mail software (i.e. Microsoft Word, Excel, PowerPoint, Outlook).<br>\n<br>\nAttention to details<br>\nPlanning and Organizing<br>\nDependability<br>\nTeamwork<br>\n<br>\n<strong><br>Asset Qualifications</strong></p>\n<p>Experience using a correspondence tracking system such as TRECS or CCM Mercury.<br>\nExperience making travel, conference or hospitality arrangements.<br>\nExperience in editing, proofreading and formatting documents.<br>\nExperience in providing budget or financial management support services (such as: reconciling expenditures or compiling and preparing input into budget forecasts)</p>\n<p>\n<strong><br>Operational Requirements</strong></p>\n<p>Ability and willingness to occasionally work overtime.<br>\n<br>\n<strong><br>Organizational Needs</strong></p>\n<p>In support of achieving a diversified workforce, consideration may be given to candidates self-identifying as belonging to one of the following Employment Equity groups: Aboriginal peoples, Persons with a Disability; Visible Minorities, Women.<br>\n<br>\n<strong><br>Conditions of Employment</strong></p>\n<p><strong><br>Reliability and Security</strong>: Secret status</p>\n<p><br>\n<strong>Applications:</strong></p>\n<p>Interested AAFC employees are encouraged to forward their resume and cover letter to Suzie Da Costa at suzie.dacosta@canada.ca. Candidates must clearly demonstrate IN THEIR COVER LETTER how they meet the essential qualifications and any applicable asset qualifications.<br>\n<br>\nYour cover letter must also clearly identify:</p>\n<ul>\n<li>Your tenure (e.g. term or indeterminate).</li>\n<li>Your substantive group and level.</li>\n</ul>\n<p><br>\n<strong>Notes:</strong></p>\n<ul>\n<li>Please advise Suzie Da Costa of your need for accommodation measures which must be taken to enable you to be assessed in a fair and equitable manner.</li>\n<li>Communication for this process will be sent via email.</li>\n<li>Prior approval from your manager must be obtained to be considered for this assignment.</li>\n<li>The classification for this opportunity is an AS-02, however, actings may be considered if no one is found qualified at level.</li>\n</ul>\n<p>\u00a0</p>\n",
        "fr": "\n<p><br>Tous les employ\u00e9s d\u2019AAC sont invit\u00e9s \u00e0 d\u00e9montrer leur int\u00e9r\u00eat \u00e0 l\u2019\u00e9gard d\u2019une occasion d\u2019affectation d\u2019un an \u00e0 titre de Coordonnateur de voyages et d\u2019\u00e9v\u00e9nements de la direction g\u00e9n\u00e9rale des programmes. Toutefois, si aucune personne \u00e0 niveau n\u2019est jug\u00e9e qualifi\u00e9e, une nomination int\u00e9rimaire pourrait avoir lieu.<br>\n<br>\n<strong><br>T\u00e2ches</strong></p>\n<ul>\n<li>Pr\u00e9parer les plans d'\u00e9v\u00e9nements</li>\n<li>G\u00e9rer tous les voyages de la SMA</li>\n<li>Surveiller les rapports de voyage et de d\u00e9penses des directeurs g\u00e9n\u00e9raux</li>\n<li>Coordonner les fournitures de bureau et autres achats pour le bureau de la SMA</li>\n<li>Coordonner l'approbation et le traitement de tous les documents non-SSRCHD tels que les approbations de cartes de signature, la petite caisse, les demandes d'autorisations et les autorisations de voyage g\u00e9n\u00e9rales</li>\n<li>Servir de soutien au coordinateur de SSRCHD</li>\n</ul>\n<p>\n<strong><br>\u00c9nonc\u00e9 des crit\u00e8res de m\u00e9rite </strong></p>\n<p><br>\n<strong>Qualifications essentielles </strong></p>\n<p>Exigences linguistiques : Poste bilingue, niveau BBB/BBB imp\u00e9ratif \u00e0 la nomination<br>\n<br>\nUn dipl\u00f4me d'\u00e9tudes secondaires ou r\u00e9sultats satisfaisants au test approuv\u00e9 par la CFP \u00e0 titre d\u2019alternative \u00e0 un dipl\u00f4me d\u2019\u00e9tudes secondaires, ou un agencement acceptable d'\u00e9tudes, de formation et/ou d'exp\u00e9rience.<br>\n<br>\nExp\u00e9rience de la prestation d'une gamme de services de soutien administratif \u00e0 la direction et au personnel.<br>\nExp\u00e9rience de l\u2019utilisation de logiciels de traitement de texte, de tableurs \u00e9lectroniques et de courrier \u00e9lectronique (p. ex. Microsoft Word, Excel, PowerPoint, Outlook).<br>\n<br>\nAttention aux d\u00e9tails<br>\nPlanification et organisation<br>\nFiabilit\u00e9<br>\nEsprit d\u2019\u00e9quipe<br>\n<br>\n<strong><br>Qualifications constituant un atout</strong></p>\n<p>Exp\u00e9rience de l\u2019utilisation de syst\u00e8mes de suivi de la correspondance, comme SSRCHD ou CCM Mercury.<br>\nExp\u00e9rience des pr\u00e9paratifs de voyage, de conf\u00e9rence ou d\u2019accueil.<br>\nExp\u00e9rience de la r\u00e9vision, de la correction et de la mise en forme de documents.<br>\nExp\u00e9rience de la prestation de services de soutien \u00e0 la gestion budg\u00e9taire ou financi\u00e8re (p. ex. faire le rapprochement des d\u00e9penses, compiler des donn\u00e9es et pr\u00e9parer la contribution aux pr\u00e9visions budg\u00e9taires).<br>\n<br>\n<strong><br>Exigences op\u00e9rationnelles </strong><br>\n<br>\nCapacit\u00e9 de faire des heures suppl\u00e9mentaires \u00e0 l\u2019occasion et \u00eatre en mesure de le faire.<br>\n<br>\n<strong><br>Besoins organisationnels</strong></p>\n<p>Pour les besoins de la diversification de l\u2019effectif, la pr\u00e9f\u00e9rence pourrait \u00eatre accord\u00e9e aux candidats qui auront indiqu\u00e9 leur appartenance \u00e0 l\u2019un des groupes suivants, vis\u00e9s par l\u2019\u00e9quit\u00e9 en mati\u00e8re d\u2019emploi : Autochtones, personnes handicap\u00e9es, minorit\u00e9s visibles, femmes.</p>\n<p><br>\n<strong>Conditions d\u2019emploi</strong></p>\n<p><strong><br>Fiabilit\u00e9 et s\u00e9curit\u00e9 </strong>: Cote de niveau \u00ab secret \u00bb<br>\n<br>\n<strong><br>Demandes</strong></p>\n<p>Les employ\u00e9s d\u2019AAC int\u00e9ress\u00e9s sont invit\u00e9s \u00e0 faire parvenir leur curriculum vit\u00e6 accompagn\u00e9 d\u2019une lettre de pr\u00e9sentation \u00e0 Suzie Da Costa \u00e0 suzie.dacosta@canada.ca. Les candidats doivent clairement d\u00e9montrer dans leur LETTRE D\u2019ACCOMPAGNEMENT en quoi ils satisfont aux exigences en mati\u00e8re de qualifications essentielles et de qualifications constituant un atout, le cas \u00e9ch\u00e9ant.<br>\n<br>\nDans leur lettre d\u2019accompagnement, les candidats doivent indiquer clairement :</p>\n<ul>\n<li>le type de poste qu\u2019ils occupent (p. ex. poste de dur\u00e9e d\u00e9termin\u00e9e ou ind\u00e9termin\u00e9e);</li>\n<li>le groupe et le niveau de leur poste d\u2019attache.</li>\n</ul>\n<p><br>\n<strong>Remarques</strong></p>\n<ul>\n<li>SVP communiquer avec Suzie Da Costa si les mesures d\u2019adaptation doivent \u00eatre prises pour que vous puissiez \u00eatre \u00e9valu\u00e9 de mani\u00e8re juste et \u00e9quitable, veuillez en informer le repr\u00e9sentant de l\u2019organisation.</li>\n<li>Les communications relatives \u00e0 ce processus seront envoy\u00e9es par courriel.</li>\n<li>Veuillez noter qu\u2019il vous est n\u00e9cessaire d\u2019obtenir l\u2019approbation pr\u00e9alable de votre gestionnaire pour pouvoir accepter une affectation.</li>\n<li>Le poste en question est du groupe et du niveau AS-02; toutefois, si aucune personne de ce niveau n\u2019est jug\u00e9e qualifi\u00e9e, une nomination int\u00e9rimaire pourrait avoir lieu.</li>\n</ul>\n<p>\u00a0</p>\n<ul>\n</ul>\n\n"
    },
    "breadcrumb": {
        "en": "Branch Travel and Event Coordinator",
        "fr": "Coordonnateur des voyages et d\u2019\u00e9v\u00e9nements de la direction g\u00e9n\u00e9rale"
    },
    "empl": {
        "type": {
            "en": "Assignment, Acting",
            "fr": "Affectation, Int\u00e9rimaire"
        },
        "classification": {
            "en": "AS-2 and equivalent",
            "fr": "AS-2 et \u00e9quivalent"
        },
        "branch": {
            "en": "Programs Branch",
            "fr": "Direction g\u00e9n\u00e9rale des programmes"
        },
        "locations": {
            "en": "Ottawa, Ontario",
            "fr": "Ottawa (Ontario)"
        },
        "date_closing": {
            "en": "2019-06-03",
            "fr": "2019-06-03"
        },
        "open_to": {
            "en": "All AAFC Employees occupying a position in the NCR",
            "fr": "Tous les employ\u00e9s d\u2019AAC qui occupent un poste dans la RCN"
        },
        "name": {
            "en": "Suzie Da Costa",
            "fr": "Suzie Da Costa"
        },
        "email": {
            "en": "suzie.dacosta@canada.ca",
            "fr": "suzie.dacosta@canada.ca"
        }
    }
}