{
    "dcr_id": "1558725929689",
    "lang": "en",
    "title": {
        "en": "Senior Policy Advisor to the Assistant Deputy Minister",
        "fr": "Conseiller principal en politiques aupr\u00e8s de la sous-ministre adjointe"
    },
    "modified": "2019-06-05 00:00:00.0",
    "issued": "2019-05-28 00:00:00.0",
    "type_name": "intra-intra/empl-empl",
    "node_id": "1279029955397",
    "layout_name": null,
    "dc_date_created": "2019-05-27",
    "breadcrumb_label": "",
    "meta": {
        "issued": {
            "en": "2019-05-28",
            "fr": "2019-05-28"
        },
        "modified": {
            "en": "2019-06-05",
            "fr": "2019-06-05"
        },
        "format": {
            "en": "gcformat",
            "fr": "gcformat"
        },
        "title": {
            "en": "Senior Policy Advisor to the Assistant Deputy Minister",
            "fr": "Conseiller principal en politiques aupr\u00e8s de la sous-ministre adjointe"
        },
        "subject": {
            "en": "staffing",
            "fr": "dotation en personnel"
        },
        "language": {
            "en": "eng",
            "fr": "fra"
        },
        "audience": {
            "en": "gcaudience",
            "fr": "gcaudience"
        },
        "type": {
            "en": "notice",
            "fr": "avis"
        },
        "creator": {
            "en": "Agriculture and Agri-Food Canada",
            "fr": "Agriculture et Agroalimentaire Canada"
        },
        "spatial": {
            "en": "gcregions",
            "fr": "gcregions"
        },
        "service": {
            "en": "AAFC_AgriSource",
            "fr": "AAC_AgriSource"
        },
        "accessRights": {
            "en": "3",
            "fr": "3"
        }
    },
    "body": {
        "en": "\n<p>\u00a0</p>\n<p>**Please note that this posting was amended to extend the closing date**\u00a0</p>\n<p>Agriculture and Agri-Food Canada\u2019s (AAFC) Public Affairs Branch (PAB) is looking for an energetic and motivated individual to work as the Senior Policy Advisor to the Assistant Deputy Minister. Reporting to the Assistant Deputy Minister, the successful candidate will work closely with senior management of PAB and other branches in providing strategic advice, briefings, recommendations and support the Assistant Deputy Minister of PAB on issues affecting the department and Minister\u2019s Office.</p>\n<p>This position is a unique opportunity to gain insight into how decisions are made, contribute to the management of government priorities and participate and represent the branch at department level meetings. You require an understanding of the department and government priorities. You will increase the breadth and depth of your skills and expertise while liaising extensively with senior officials as well as other senior advisors across the department.</p>\n<p>You will be part of a fast-paced and high pressure environment with many conflicting priorities, deadlines and requests.</p>\n<p>The ideal candidate is a strong network builder and collaborates well with others, a problem solver, able to work well under pressure and with minimum supervision, and able to rapidly adjust to changing priorities.</p>\n<p>If this unique opportunity is of interest to you, please submit a cover letter outlining how you meet the following Essential Experiences along with your resume.</p>\n<p><strong><br>Essential Experiences </strong></p>\n<p>Experience in providing strategic advice and technical expertise/briefing to the DM, ADM and senior officials to ensure the interests of Canadians as well as the needs of a variety of stakeholders/partners are understood and taken into consideration in the development of policies, legislation and/or programs  and other initiatives on a wide-range of social-economic issues.</p>\n<p>Experience in determining and assessing the ADM\u2019s briefing, communications and other requirements; and initiates, delegates and manages/oversees the preparation of briefings, presentations and other materials, to ensure the ADM\u2019s readiness to make decisions, to manage effectively, and to lead/attend meetings, DM and ministerial briefings, and other events and activities.</p>\n<p>Experience in developing strategic networks, conducting studies and representing the ADM/Branch with AAFC executive offices/business lines, with other departments, agencies and public-private sector stakeholders, and on committees/working groups to remain current with trends and developments in multiple disciplines, topics, horizontal issues, and with changes in legislation, policies, programs, guidelines, etc. that impact on the Branch/Office of the ADM.   Exercises authority to present and negotiate acceptance of ADM/Branch position/proposals, and to contribute to the implementation of AAFC/government initiatives, plans and strategies.</p>\n<p>Experience in managing/overseeing the development and implementation of internal policies, processes, procedures and tools to control and facilitate effective communications, the flow of information, the handling of dockets and emerging issues, and the preparation of briefings, presentations, responses to inquiries, reports and other documents on behalf of the ADM.</p>\n<p><strong><br>Personal Suitability</strong></p>\n<p>PS1: Judgement<br>\nPS2: Integrity<br>\nPS3: Discretion<br>\nPS4: Reliability</p>\n<p>\n<b><br>Language</b>: Bilingual Imperative CBC/CBC</p>\n<p><strong><br>Conditions of Employment</strong></p>\n<p><strong><br>Reliability and Security</strong>: Secret status</p>\n<p><strong><br>Applications:</strong></p>\n<p>Interested AAFC employees are encouraged to forward their resume and cover letter to Penny O'Shaughnessy at penny.oshaughnessy<a href=\"mailto:penny.oshaughnessy@canada.ca\">@canada.ca</a>. Candidates must clearly demonstrate IN THEIR COVER LETTER how they meet the essential qualifications.<br>\n<br>\nYour cover letter must also clearly identify:</p>\n<ul>\n<li>Your tenure (e.g. term or indeterminate).</li>\n<li>Your substantive group and level.</li>\n</ul>\n<p>\u00a0</p>\n",
        "fr": "\n<p>\u00a0</p>\n<p>**Veuillez notez que ceci est une modification de l'affiche pour prolonger la date de fermeture**</p>\n<p>La Direction g\u00e9n\u00e9rale des affaires publiques (DGAP) d\u2019Agriculture et Agroalimentaire Canada est \u00e0 la recherche d\u2019une personne dynamique et motiv\u00e9e pour occuper le poste de conseiller principal en politiques aupr\u00e8s de la sous-ministre adjointe (SMA). Le titulaire du poste rel\u00e8vera de la SMA et travaillera \u00e9troitement avec les cadres sup\u00e9rieurs de la DGAP et des autres directions g\u00e9n\u00e9rales \u00e0 la pr\u00e9paration de conseils strat\u00e9giques, d\u2019expos\u00e9s et de recommandations. La personne choisie sera \u00e9galement appel\u00e9e \u00e0 fournir du soutien \u00e0 la SMA de la DGAP sur des questions ayant des incidences sur le Minist\u00e8re et le bureau de la ministre.</p>\n<p>Ce poste repr\u00e9sente une occasion unique d\u2019en apprendre sur le processus de prise de d\u00e9cisions, de contribuer \u00e0 la gestion des priorit\u00e9s du gouvernement et de repr\u00e9senter la direction g\u00e9n\u00e9rale aux r\u00e9unions minist\u00e9rielles. Vous poss\u00e9dez une connaissance approfondie du fonctionnement du minist\u00e8re et des priorit\u00e9s du gouvernement. Vous aurez l\u2019occasion d\u2019\u00e9largir l\u2019ampleur et la profondeur de vos comp\u00e9tences et de votre expertise en interagissant de fa\u00e7on soutenue avec les cadres sup\u00e9rieurs et les autres conseillers principaux du Minist\u00e8re.</p>\n<p>Vous travaillerez dans un environnement o\u00f9 les activit\u00e9s se d\u00e9roulent \u00e0 un rythme rapide et sous pression, un environnement o\u00f9 les priorit\u00e9s, les \u00e9ch\u00e9ances et les demandes sont nombreuses et conflictuelles.</p>\n<p>La personne id\u00e9ale pour le poste doit \u00eatre tr\u00e8s habile \u00e0 \u00e9tablir des r\u00e9seaux, \u00e0 collaborer avec les autres, \u00e0 r\u00e9soudre des probl\u00e8mes, \u00e0 travailler sous pression avec un minimum de supervision, en plus d\u2019\u00eatre en mesure de s\u2019adapter rapidement aux priorit\u00e9s changeantes.</p>\n<p>Si cette occasion unique vous interpelle, veuillez nous faire parvenir une lettre de pr\u00e9sentation dans laquelle vous d\u00e9montrez comment vous r\u00e9pondez aux crit\u00e8res essentiels ci-apr\u00e8s, ainsi que votre curriculum vitae.</p>\n<p><strong><br>Exp\u00e9rience essentielle </strong></p>\n<p>Exp\u00e9rience dans la prestation de conseils strat\u00e9giques et de s\u00e9ances d\u2019information techniques \u00e0 des cadres sup\u00e9rieurs afin d\u2019assurer que les int\u00e9r\u00eats des Canadiens et les besoins des divers intervenants et partenaires sont compris et pris en compte au moment d\u2019\u00e9laborer des politiques, des lois et (ou) des programmes ainsi que d\u2019autres initiatives sur un large \u00e9ventail d\u2019enjeux sociaux \u00e9conomiques.</p>\n<p>Exp\u00e9rience dans la s\u00e9lection et l\u2019\u00e9valuation d\u2019expos\u00e9s, de correspondances et d\u2019autres \u00e9l\u00e9ments dont a besoin la SMA. Exp\u00e9rience de travail consistant \u00e0 entamer, \u00e0 d\u00e9l\u00e9guer, \u00e0 g\u00e9rer et \u00e0 superviser la pr\u00e9paration d\u2019expos\u00e9s, de pr\u00e9sentations et d\u2019autres documents visant \u00e0 assurer que la SMA soit bien inform\u00e9e en vue de prendre des d\u00e9cisions, et afin de g\u00e9rer efficacement, de pr\u00e9sider des r\u00e9unions, de pr\u00e9senter des expos\u00e9s au sous-ministre ou ministre et autres \u00e9v\u00e9nements et activit\u00e9s ou y assister.</p>\n<p>Exp\u00e9rience dans l\u2019\u00e9tablissement de r\u00e9seaux strat\u00e9giques, dans l\u2019\u00e9laboration d\u2019\u00e9tudes et dans des fonctions de repr\u00e9sentant d\u2019un  sous-ministre adjoint et d\u2019une direction g\u00e9n\u00e9rale aupr\u00e8s des secteurs d\u2019activit\u00e9s d\u2019AAC, d\u2019autres minist\u00e8res, agences et intervenants des secteurs public et priv\u00e9, au sein de comit\u00e9s et groupes de travail, afin de demeurer au fait des tendances et des d\u00e9veloppements relativement \u00e0 une gamme de domaines, sujets et questions horizontales, et de demeurer au fait des changements aux lois, aux politiques, aux programmes, aux lignes directrices, etc. qui ont une incidence sur la direction g\u00e9n\u00e9rale et le bureau de la SMA. Exercer l\u2019autorit\u00e9 de pr\u00e9senter les positions et propositions de la SMA et de la direction g\u00e9n\u00e9rale et d\u2019en n\u00e9gocier l\u2019adh\u00e9sion; contribuer \u00e0 la mise en \u0153uvre d\u2019initiatives, de plans et de strat\u00e9gies d\u2019AAC et du gouvernement.</p>\n<p>Exp\u00e9rience dans la gestion et la supervision de l\u2019\u00e9laboration et de la mise en \u0153uvre de politiques, de proc\u00e9dures et d\u2019outils internes visant \u00e0 contr\u00f4ler et \u00e0 faciliter des communications efficaces, le flux d\u2019information, le traitement de dossiers et de questions \u00e9mergentes. Exp\u00e9rience dans la gestion et la pr\u00e9paration d\u2019expos\u00e9s, de pr\u00e9sentations, de r\u00e9ponses \u00e0 des requ\u00eates, de rapports et d\u2019autres documents au nom de la SMA.</p>\n<p><strong><br>Qualit\u00e9s Personnelles</strong></p>\n<p>QP1 : Jugement<br>\nQP2 : Int\u00e9grit\u00e9<br>\nQP3 : Discr\u00e9tion<br>\nQP4 : Fiabilit\u00e9</p>\n<p>\u00a0</p>\n<p><b><u>Exigences linguistiques</u> :</b> Poste bilingue, niveau CBC/CBC imp\u00e9ratif \u00e0 la nomination</p>\n<p><strong><br>Conditions d\u2019emploi</strong></p>\n<p><strong><br>Fiabilit\u00e9 et s\u00e9curit\u00e9 </strong>: Cote de niveau \u00ab secret \u00bb<br>\n<br>\n<strong><br>Demandes</strong></p>\n<p>Les employ\u00e9s d\u2019AAC int\u00e9ress\u00e9s sont invit\u00e9s \u00e0 faire parvenir leur curriculum vit\u00e6 accompagn\u00e9 d\u2019une lettre de pr\u00e9sentation \u00e0 Penny O'Shaughenssy \u00e0 <a href=\"mailto:penny.oshaughnessy@canada.ca\">penny.oshaughnessy@canada.ca</a> . Les candidats doivent clairement d\u00e9montrer dans leur LETTRE D\u2019ACCOMPAGNEMENT en quoi ils satisfont aux exigences en mati\u00e8re de qualifications essentielles.</p>\n<p>Dans leur lettre d\u2019accompagnement, les candidats doivent indiquer clairement :</p>\n<ul>\n<li>le type de poste qu\u2019ils occupent (p. ex. poste de dur\u00e9e d\u00e9termin\u00e9e ou ind\u00e9termin\u00e9e);</li>\n<li>le groupe et le niveau de leur poste d\u2019attache.</li>\n</ul>\n<p>\u00a0</p>\n\n"
    },
    "breadcrumb": {
        "en": "Senior Policy Advisor to the Assistant Deputy Minister",
        "fr": "Conseiller principal en politiques aupr\u00e8s de la sous-ministre adjointe"
    },
    "empl": {
        "type": {
            "en": "Assignment",
            "fr": "Affectation"
        },
        "classification": {
            "en": "IS-6 and equivalent",
            "fr": "IS-6 et \u00e9quivalent"
        },
        "branch": {
            "en": "Public Affairs Branch",
            "fr": "Direction g\u00e9n\u00e9rale des affaires publiques"
        },
        "locations": {
            "en": "Ottawa, Ontario",
            "fr": "Ottawa (Ontario)"
        },
        "date_closing": {
            "en": "2019-06-07",
            "fr": "2019-06-07"
        },
        "open_to": {
            "en": "All AAFC Employees occupying a position in the NCR",
            "fr": "Tous les employ\u00e9s d\u2019AAC qui occupent un poste dans la RCN"
        },
        "name": {
            "en": "Penny O'Shaughnessy",
            "fr": "Penny O'Shaughnessy"
        },
        "email": {
            "en": "penny.oshaughnessy@canada.ca",
            "fr": "penny.oshaughnessy@canada.ca"
        }
    }
}