{
    "dcr_id": "1558109721667",
    "lang": "en",
    "title": {
        "en": "Executive Assistant",
        "fr": "Adjoint ex\u00e9cutif/Adjointe ex\u00e9cutive "
    },
    "modified": "2019-05-17 00:00:00.0",
    "issued": "2019-05-17 00:00:00.0",
    "type_name": "intra-intra/empl-empl",
    "node_id": "1279029955397",
    "layout_name": null,
    "dc_date_created": "2019-05-17",
    "breadcrumb_label": "",
    "meta": {
        "issued": {
            "en": "2019-05-17",
            "fr": "2019-05-17"
        },
        "modified": {
            "en": "2019-05-17",
            "fr": "2019-05-17"
        },
        "format": {
            "en": "gcformat",
            "fr": "gcformat"
        },
        "title": {
            "en": "Executive Assistant",
            "fr": "Adjoint ex\u00e9cutif/Adjointe ex\u00e9cutive "
        },
        "subject": {
            "en": "staffing",
            "fr": "dotation en personnel"
        },
        "language": {
            "en": "eng",
            "fr": "fra"
        },
        "audience": {
            "en": "gcaudience",
            "fr": "gcaudience"
        },
        "type": {
            "en": "notice",
            "fr": "avis"
        },
        "creator": {
            "en": "Agriculture and Agri-Food Canada",
            "fr": "Agriculture et Agroalimentaire Canada"
        },
        "spatial": {
            "en": "gcregions",
            "fr": "gcregions"
        },
        "service": {
            "en": "AAFC_AgriSource",
            "fr": "AAC_AgriSource"
        },
        "accessRights": {
            "en": "3",
            "fr": "3"
        }
    },
    "body": {
        "en": "\n<p><strong>\u00a0</strong></p>\n<p>As Executive Assistant to the Associate Assistant Deputy Minister (AADM), Science and Technology Branch, the successful candidate will be responsible for the planning, organizing, managing and delivery of executive services to the Associate ADM, which could also include the management of administrative staff within the office.</p>\n<p>\u00a0</p>\n<p><strong>Duties:</strong><em> </em></p>\n<p>The duties include but are not limited to:</p>\n<ul>\n<li>\n<p>Manage the Associate ADM\u2019s agenda including all logistics and documents for meetings and conference calls.</p>\n</li>\n<li>\n<p>Coordinate meetings and conferences including hospitality.</p>\n</li>\n<li>\n<p>Prioritizing commitments and deadlines and arranging for replacements to attend meetings/conferences declined by the Associate ADM.</p>\n</li>\n<li>\n<p>Liaise with the offices of the Minister, other Senior Managers on an on-going basis and with officials from outside organizations to provide and obtain information on behalf of the Associate ADM.</p>\n</li>\n<li>\n<p>Develop, recommend and implement office procedures and systems to control the flow of documentation to meet evolving priorities.</p>\n</li>\n<li>\n<p>Management of administrative staff</p>\n</li>\n</ul>\n<p>\u00a0</p>\n<p><strong>Statement of Merit Criteria &amp; Conditions of Employment</strong></p>\n<p><strong><br>Essential Qualifications</strong></p>\n<p><strong><br>Education </strong></p>\n<p>A secondary school diploma or an acceptable combination of training, education and/or experience.</p>\n<p>\u00a0</p>\n<p><strong>Experience</strong></p>\n<ul>\n<li>\n<p>*Recent and **significant experience in managing the operations of a senior executive\u2019s office*** including: managing a senior executive\u2019s calendar; organizing meetings; and travel arrangements.</p>\n</li>\n<li>\n<p>*Recent and **significant experience in functioning as the principal liaison on administrative matters between the office of a senior executive*** and other senior executive offices, or with Ministers\u2019 offices or with other government departments or with outside stakeholders.</p>\n</li>\n<li>\n<p>*Recent and **significant experience in coordinating and managing a high volume of correspondence, reports and briefing.</p>\n</li>\n<li>\n<p>*Recent and **significant experience in proofreading, editing and formatting various documents, such as briefing notes, decks and letters.</p>\n</li>\n<li>\n<p>Experience in dealing with sensitive and confidential information.</p>\n</li>\n<li>\n<p>Experience in using various software packages such as the Microsoft Office Suite and records control systems.</p>\n</li>\n</ul>\n<p><em>*Recent experience is defined as within the last three (3) years.</em></p>\n<p><em>**</em><em> </em><em>Significant is defined as the depth and breadth of experience normally associated with full-time performance of duties for a minimum of two (2) years </em></p>\n<p><em>***Senior executive\u2019s office/Office of a senior executive is defined as a Director General and above.</em></p>\n<p>\u00a0</p>\n<p><strong>Knowledge (essential for the job)</strong></p>\n<p>Knowledge of administrative principles and guidelines.</p>\n<p>\u00a0</p>\n<p><strong>Abilities</strong></p>\n<p>Ability to plan, organize and prioritize work.</p>\n<p>Ability to work under pressure, with fast changing priorities.</p>\n<p>Ability to analyze and resolve administrative problems.</p>\n<p>\u00a0</p>\n<p><strong>Competencies </strong></p>\n<p>Judgement</p>\n<p>Initiative</p>\n<p>Adaptability</p>\n<p>Tact</p>\n<p>Relationship Building</p>\n<p>Interactive Communication</p>\n<p>\u00a0</p>\n<p><strong>Asset Qualifications</strong></p>\n<ul>\n<li>\n<p>Experience in supervising staff</p>\n</li>\n<li>\n<p>Experience using a correspondence tracking system such as TRECS or CCM Mercury</p>\n</li>\n<li>\n<p>Experience in planning, preparing and reporting on budgets</p>\n</li>\n</ul>\n<p>\u00a0</p>\n<p><strong>Language Requirement(s):</strong></p>\n<p>Bilingual Imperative BBB</p>\n<p>\u00a0</p>\n<h3><strong>Organizational Needs</strong></h3>\n<p>In support of achieving a diversified workforce, consideration may be given to candidates self-identifying as belonging to one of the following Employment Equity groups: Aboriginal peoples, Persons with a Disability; Visible Minorities, Women.</p>\n<p>\u00a0</p>\n<p><strong>Conditions of Employment </strong></p>\n<p><strong>Security Requirement: </strong>Secret clearance</p>\n<p>Ability and willingness to work overtime on short notice.</p>\n<p>\u00a0</p>\n<p><strong>Applications:</strong></p>\n<p>AAFC employees in the NCR at the AS-02, AS-03 or AS-04 level who are interested in an assignment or acting opportunity (for a\u00a0one-year period)\u00a0with the Associate ADM\u2019s Office, Science and Technology Branch are encouraged to forward their resume and cover letter (maximum 250 words) to Kathryn Jarrett (Kathryn.jarrett@canada.ca) by Monday, May 27, 2019.</p>\n<p>Resumes must clearly identify:</p>\n<ul>\n<li>Your tenure (e.g. term or indeterminate)</li>\n<li>Your substantive group and level</li>\n</ul>\n<p>\u00a0</p>\n<ul>\n</ul>\n",
        "fr": "\n<p><strong>\u00a0</strong></p>\n<p>\u00c0 titre d\u2019adjoint ex\u00e9cutif/adjointe ex\u00e9cutive du Sous-ministre adjoint d\u00e9l\u00e9gu\u00e9 (SMAD), Direction g\u00e9n\u00e9rale des sciences et de la technologie, le candidat ou la candidate retenu sera charg\u00e9 de planifier, d\u2019organiser, de g\u00e9rer et d\u2019offrir des services au SMAD, ce qui pourrait comprendre la gestion d\u2019une \u00e9quipe administrative au sein du bureau.</p>\n<p>\u00a0</p>\n<p><strong>Fonctions</strong><em> </em></p>\n<p>Le ou la titulaire accomplira entre autres les fonctions suivantes :</p>\n<ul>\n<li>\n<p>G\u00e9rer l\u2019agenda du SMAD, notamment tous les aspects logistiques et documents li\u00e9s aux r\u00e9unions et t\u00e9l\u00e9conf\u00e9rences.</p>\n</li>\n<li>\n<p>Coordonner les r\u00e9unions et conf\u00e9rences, y compris l\u2019accueil.</p>\n</li>\n<li>\n<p>Classer les engagements et \u00e9ch\u00e9ances par ordre de priorit\u00e9, et pr\u00e9voir des rempla\u00e7ants aux r\u00e9unions et conf\u00e9rences auxquelles le SMAD ne peut assister.</p>\n</li>\n<li>\n<p>Assurer la liaison avec le cabinet du ministre, les bureaux d\u2019autres cadres sup\u00e9rieurs de fa\u00e7on continue ainsi qu\u2019avec des repr\u00e9sentants officiels d\u2019autres organisations pour fournir et obtenir de l\u2019information au nom du SMAD.</p>\n</li>\n<li>\n<p>\u00c9laborer, recommander et mettre en \u0153uvre des proc\u00e9dures administratives et des syst\u00e8mes pour contr\u00f4ler la circulation des documents en fonction des priorit\u00e9s changeantes.</p>\n</li>\n<li>\n<p>G\u00e9rer une \u00e9quipe administrative.</p>\n</li>\n</ul>\n<p>\u00a0</p>\n<p><strong>\u00c9nonc\u00e9 des crit\u00e8res de m\u00e9rite et conditions d\u2019emploi</strong></p>\n<p><strong><br>Qualifications essentielles</strong></p>\n<p><strong><br>\u00c9tudes </strong></p>\n<p>Un dipl\u00f4me d\u2019\u00e9tudes secondaires ou combinaison acceptable de formation, d\u2019\u00e9tudes et/ou d\u2019exp\u00e9rience.</p>\n<p>\u00a0</p>\n<p><strong>Exp\u00e9rience</strong></p>\n<ul>\n<li>\n<p>Exp\u00e9rience r\u00e9cente* et appr\u00e9ciable** de la gestion des activit\u00e9s du bureau d\u2019un cadre sup\u00e9rieur*** y compris : gestion du calendrier d\u2019un cadre sup\u00e9rieur, organisation de r\u00e9unions et organisation de voyages.</p>\n</li>\n<li>\n<p>Exp\u00e9rience r\u00e9cente* et appr\u00e9ciable** comme principal responsable de la liaison concernant les questions administratives entre le bureau d\u2019un cadre sup\u00e9rieur*** et les bureaux d\u2019autres cadres sup\u00e9rieurs, les cabinets de ministres, d\u2019autres minist\u00e8res ou des intervenants externes.</p>\n</li>\n<li>\n<p>Exp\u00e9rience r\u00e9cente* et appr\u00e9ciable** de la coordination et de la gestion d\u2019une grande quantit\u00e9 de pi\u00e8ces de correspondance, de rapports et de documents d\u2019information.</p>\n</li>\n<li>\n<p>Exp\u00e9rience r\u00e9cente* et appr\u00e9ciable** de la correction, de la r\u00e9vision et de la mise en page de divers documents tels que des notes d\u2019information, des dossiers de pr\u00e9sentation et des lettres.</p>\n</li>\n<li>\n<p>Exp\u00e9rience du traitement de renseignements de nature d\u00e9licate et confidentielle.</p>\n</li>\n<li>\n<p>Exp\u00e9rience de l\u2019utilisation de divers logiciels de bureau, tels que la suite Microsoft Office, et de syst\u00e8mes de contr\u00f4le des dossiers.</p>\n</li>\n</ul>\n<p><em>*On entend par \u00ab exp\u00e9rience r\u00e9cente \u00bb une exp\u00e9rience acquise au cours des trois (3) derni\u00e8res ann\u00e9es.</em></p>\n<p><em>**On entend par \u00ab exp\u00e9rience appr\u00e9ciable \u00bb une exp\u00e9rience dont la richesse et l\u2019\u00e9tendue \u00e9quivalent normalement \u00e0 l\u2019ex\u00e9cution des t\u00e2ches pendant une p\u00e9riode minimale de deux (2) ans, \u00e0 temps plein.</em></p>\n<p><em>***On entend par \u00ab cadre sup\u00e9rieur \u00bb une personne assumant la fonction de directeur g\u00e9n\u00e9ral ou une fonction de niveau sup\u00e9rieur.</em></p>\n<p>\u00a0</p>\n<p><strong>Connaissances</strong></p>\n<p>Connaissance des principes et des lignes directrices en mati\u00e8re d\u2019administration.</p>\n<p>\u00a0</p>\n<p><strong>Capacit\u00e9s</strong></p>\n<p>Capacit\u00e9 de planifier, d\u2019organiser et prioriser le travail.</p>\n<p>Capacit\u00e9 de travailler sous pression en tenant compte de priorit\u00e9s qui changent rapidement.</p>\n<p>Capacit\u00e9 d\u2019analyser et de r\u00e9soudre des probl\u00e8mes administratifs.</p>\n<p>\u00a0</p>\n<p><strong>Comp\u00e9tences </strong></p>\n<p>Jugement</p>\n<p>Initiative</p>\n<p>Facult\u00e9 d\u2019adaptation</p>\n<p>Tact</p>\n<p>Capacit\u00e9 d\u2019\u00e9tablir des relations</p>\n<p>Communication interactive</p>\n<p>\u00a0</p>\n<p><strong>Exigences linguistiques</strong> : Poste bilingue, niveau BBB/BBB imp\u00e9ratif</p>\n<p>\u00a0</p>\n<p><strong>Qualifications constituant un atout </strong></p>\n<ul>\n<li>\n<p>Exp\u00e9rience de la supervision de personnel.</p>\n</li>\n<li>\n<p>Exp\u00e9rience de l\u2019utilisation d\u2019un syst\u00e8me de suivi de la correspondance comme le SSRCHD ou CCM Mercury.</p>\n</li>\n<li>\n<p>Exp\u00e9rience de la planification et de la pr\u00e9paration de budgets ainsi que de la pr\u00e9sentation de rapports \u00e0 leur \u00e9gard.</p>\n</li>\n</ul>\n<p>\u00a0</p>\n<p><strong>Besoins organisationnels</strong></p>\n<p>Pour les besoins de la diversification de l\u2019effectif, une attention particuli\u00e8re pourrait \u00eatre accord\u00e9e aux candidats qui auront indiqu\u00e9 leur appartenance \u00e0 l\u2019un des groupes suivants, vis\u00e9s par l\u2019\u00e9quit\u00e9 en mati\u00e8re d\u2019emploi : Autochtones, personnes handicap\u00e9es, membres d\u2019une minorit\u00e9 visible, femmes.</p>\n<p>\u00a0</p>\n<p><strong>Conditions d\u2019emploi </strong></p>\n<p>Cote de s\u00e9curit\u00e9 requise : Secret.</p>\n<p>Consentir \u00e0 faire des heures suppl\u00e9mentaires \u00e0 court pr\u00e9avis et \u00eatre en mesure de le faire.</p>\n<p>\u00a0</p>\n<p><strong>Demandes</strong></p>\n<p>Les employ\u00e9s d\u2019AAC de la RCN au niveau AS-02, AS-03 ou AS-04 qui sont int\u00e9r\u00eat \u00e0 une possibilit\u00e9 d\u2019affectation ou de nomination int\u00e9rimaire (pour une p\u00e9riod d'un an)\u00a0au bureau du Sous-ministre adjoint d\u00e9l\u00e9gu\u00e9 de la Direction g\u00e9n\u00e9rale des sciences et de la technologie sont invit\u00e9s \u00e0 envoyer leur curriculum vit\u00e6 et une lettre de pr\u00e9sentation (maximum 250 mots) \u00e0 Kathryn Jarrett, par courriel, \u00e0 kathryn.jarrett@canada.ca, d\u2019ici le lundi 27 mai 2019.</p>\n<p>Dans leur curriculum vit\u00e6, les candidats doivent indiquer clairement ce qui suit :</p>\n<ul>\n<li>la dur\u00e9e de leur emploi (p. ex. d\u00e9termin\u00e9e ou ind\u00e9termin\u00e9e);</li>\n<li>le groupe et le niveau de leur poste d\u2019attache.</li>\n</ul>\n<p>\u00a0</p>\n<ul>\n</ul>\n\n"
    },
    "breadcrumb": {
        "en": "Executive Assistant",
        "fr": "Adjoint ex\u00e9cutif/Adjointe ex\u00e9cutive"
    },
    "empl": {
        "type": {
            "en": "Assignment, Acting",
            "fr": "Affectation, Int\u00e9rimaire"
        },
        "classification": {
            "en": "AS-4 and equivalent",
            "fr": "AS-4 et \u00e9quivalent"
        },
        "branch": {
            "en": "Science and Technology Branch",
            "fr": "Direction g\u00e9n\u00e9rale des sciences et de la technologie"
        },
        "locations": {
            "en": "National Capital Region, Ottawa",
            "fr": "R\u00e9gion de la capitale nationale, Ottawa"
        },
        "date_closing": {
            "en": "2019-05-27",
            "fr": "2019-05-27"
        },
        "open_to": {
            "en": "AAFC employees at the AS-02, AS-03 or AS-04 level in the NCR",
            "fr": "Les employ\u00e9s d\u2019AAC de la RCN au niveau AS-02, AS-03 ou AS-04"
        },
        "name": {
            "en": "Kathryn Jarrett",
            "fr": "Kathryn Jarrett"
        },
        "email": {
            "en": "kathryn.jarrett@canada.ca",
            "fr": "kathryn.jarrett@canada.ca"
        }
    }
}