{
    "dcr_id": "1566422252973",
    "lang": "en",
    "title": {
        "en": "Communications Advisor",
        "fr": "Conseiller(\u00e8re) en communications "
    },
    "modified": "2019-08-22 00:00:00.0",
    "issued": "2019-08-22 00:00:00.0",
    "type_name": "intra-intra/empl-empl",
    "node_id": "1279029955397",
    "layout_name": null,
    "dc_date_created": "2019-08-22",
    "breadcrumb_label": "",
    "meta": {
        "issued": {
            "en": "2019-08-22",
            "fr": "2019-08-22"
        },
        "modified": {
            "en": "2019-08-22",
            "fr": "2019-08-22"
        },
        "format": {
            "en": "gcformat",
            "fr": "gcformat"
        },
        "title": {
            "en": "Communications Advisor",
            "fr": "Conseiller(\u00e8re) en communications "
        },
        "subject": {
            "en": "staffing",
            "fr": "dotation en personnel"
        },
        "language": {
            "en": "eng",
            "fr": "fra"
        },
        "audience": {
            "en": "gcaudience",
            "fr": "gcaudience"
        },
        "type": {
            "en": "notice",
            "fr": "avis"
        },
        "creator": {
            "en": "Agriculture and Agri-Food Canada",
            "fr": "Agriculture et Agroalimentaire Canada"
        },
        "spatial": {
            "en": "gcregions",
            "fr": "gcregions"
        },
        "service": {
            "en": "AAFC_AgriSource",
            "fr": "AAC_AgriSource"
        },
        "accessRights": {
            "en": "3",
            "fr": "3"
        }
    },
    "body": {
        "en": "\n<p><strong><br>Duties:</strong></p>\n<p>If you love to collect and analyze data and finding ways to share the story they tell, AAFC has a great opportunity for you. Do you have experience in public opinion research or consultations? Consider your next position being an assignment in the Public Affairs Branch. We develop, conduct, analyse and coordinate public opinion research projects, and prepare summaries and analysis reports for both internal and external stakeholders.</p>\n<p><strong><br>Statement of Merit Criteria &amp; Conditions of Employment</strong></p>\n<p><strong><br>Essential Qualifications</strong></p>\n<ul>\n<li>\n<p>Language Requirement(s)<em>: </em>Bilingual imperative BBB/BBB</p>\n</li>\n<li>\n<p><strong>A degree from a recognized post-secondary institution. </strong></p>\n</li>\n<li>\n<p>Recent and significant experience in providing input to public opinion research analyses, strategies or plans.</p>\n</li>\n<li>\n<p>Recent experience in preparing research summaries, reports, briefing notes or presentations.</p>\n</li>\n</ul>\n<p><strong><br>Asset Qualifications</strong></p>\n<ul>\n<li>\n<p>Recent and significant experience in designing, coordinating and/or conducting public opinion research projects (e.g. with public or private sector organizations).</p>\n</li>\n</ul>\n<p><strong><br>Knowledge</strong></p>\n<ul>\n<li>Knowledge of Mandatory Procedures for Public Opinion Research as outlined in the Government of Canada\u2019s Directive on the Management of Communications.</li>\n<li>Knowledge of qualitative and quantitative research methods.</li>\n<li>Knowledge of Agriculture and Agri-Food Canada key initiatives.</li>\n</ul>\n<p><strong><br>Competencies</strong></p>\n<ul>\n<li>Interactive Communication</li>\n<li>Writing Skills</li>\n<li>Strategic Thinking</li>\n<li>Client Focus</li>\n<li>Teamwork</li>\n<li>Planning and organizing</li>\n<li>Judgement</li>\n<li>Initiative</li>\n</ul>\n<p><strong><br>Organizational Needs</strong></p>\n<p>In support of achieving a diversified workforce, consideration may be given to candidates self-identifying as belonging to one of the following Employment Equity groups: Aboriginal peoples, Persons with a Disability; Visible Minorities, Women.</p>\n<p><strong><br>Conditions of Employment </strong></p>\n<p>Security Requirement(s): Secret Clearance</p>\n<p><strong><br>Applications:</strong></p>\n<p>Interested AAFC employees in the National Capital Region are encouraged to forward their resume and cover letter to Patrick Girard (patrick.girard@canada.ca)</p>\n<p>Applications must clearly identify:</p>\n<ul>\n<li>your tenure (e.g. term or indeterminate);</li>\n<li>SLE results;</li>\n<li>your substantive group and level; and</li>\n<li>how you meet the essential qualifications.</li>\n</ul>\n<p><br>N<strong>otes:</strong></p>\n<ul>\n<li>Candidates who are not at the IS-04 level, or equivalent, may be considered for an acting position if their experience is deemed to be sufficient.</li>\n<li>Communication for this process will be sent via email.</li>\n<li>Candidates must have their manager\u2019s approval prior to applying to an assignment opportunity.</li>\n<li>Candidates may be assessed through an interview.</li>\n<li>Reference checks may be sought.</li>\n</ul>\n<p>\u00a0</p>\n",
        "fr": "\n<p><strong><strong><br>Fonctions :</strong></strong></p>\n<p>Si vous aimez recueillir et analyser des donn\u00e9es et trouver des fa\u00e7ons de faire conna\u00eetre cette histoire, AAC a une excellente occasion \u00e0 vous offrir. Vous avez de l\u2019exp\u00e9rience de la recherche sur l\u2019opinion publique ou de la consultation? Envisagez une affectation au sein de la Direction g\u00e9n\u00e9rale des affaires publiques. Nous d\u00e9veloppons, menons et coordonnons des projets de recherche sur l\u2019opinion publique et nous pr\u00e9parons des r\u00e9sum\u00e9s et des rapports d\u2019analyse pour des intervenants internes et externes.</p>\n<p><strong><br>\u00c9nonc\u00e9 de crit\u00e8res de m\u00e9rite et conditions d\u2019emploi</strong></p>\n<p><strong><br>Qualifications essentielles</strong></p>\n<ul>\n<li>\n<p>Exigences linguistiques<em> : </em>Bilingue imp\u00e9ratif BBB/BBBB</p>\n</li>\n<li>\n<p>Dipl\u00f4me d\u2019un \u00e9tablissement d\u2019enseignement postsecondaire reconnu</p>\n</li>\n<li>\n<p>Exp\u00e9rience r\u00e9cente et appr\u00e9ciable de la formulation de commentaires pour des analyses, des strat\u00e9gies ou des plans de recherche sur l\u2019opinion publique</p>\n</li>\n</ul>\n<ul>\n<li>\n<p>Exp\u00e9rience r\u00e9cente de la pr\u00e9paration de r\u00e9sum\u00e9s de recherche, de rapports, de notes d\u2019information ou de pr\u00e9sentations</p>\n</li>\n</ul>\n<p><strong><br>Qualifications constituant un atout</strong></p>\n<ul>\n<li>\n<p>Exp\u00e9rience r\u00e9cente et appr\u00e9ciable de la conception, de la coordination ou de la r\u00e9alisation de projets de recherche sur l\u2019opinion publique (p. ex. aupr\u00e8s d\u2019organismes du secteur public ou priv\u00e9)</p>\n</li>\n</ul>\n<p><strong><br>Connaissances</strong></p>\n<ul>\n<li>Connaissance des proc\u00e9dures obligatoires en mati\u00e8re de recherche sur l\u2019opinion publique d\u00e9crites dans la <em>Directive sur la gestion des communications</em> du gouvernement du Canada</li>\n<li>Connaissance des m\u00e9thodes de recherche qualitative et quantitative</li>\n<li>Connaissance des initiatives cl\u00e9s d\u2019Agriculture et Agroalimentaire Canada</li>\n</ul>\n<p><strong><br>Comp\u00e9tences</strong></p>\n<ul>\n<li>Communication interactive</li>\n<li>Comp\u00e9tences en r\u00e9daction</li>\n<li>R\u00e9flexion strat\u00e9gique</li>\n<li>Souci du service \u00e0 la client\u00e8le</li>\n<li>Esprit d\u2019\u00e9quipe</li>\n<li>Planification et organisation</li>\n<li>Jugement</li>\n<li>Initiative</li>\n</ul>\n<p><strong><br>Besoins de l\u2019organisation</strong></p>\n<p>Pour diversifier l\u2019effectif, on pourra examiner la candidature des personnes qui s\u2019identifient comme appartenant \u00e0 des groupes vis\u00e9s par l\u2019\u00e9quit\u00e9 en mati\u00e8re d\u2019emploi, soit les Autochtones, les personnes handicap\u00e9es, les membres de minorit\u00e9s visibles et les femmes.</p>\n<p><strong><br>Conditions d\u2019emploi </strong></p>\n<p>Cote de s\u00e9curit\u00e9 de niveau \u00ab\u2009Secret\u2009\u00bb</p>\n<p><strong><br>Demandes </strong></p>\n<p>Les employ\u00e9s d\u2019AAC de la r\u00e9gion de la capitale nationale int\u00e9ress\u00e9s sont invit\u00e9s \u00e0 transmettre leur curriculum vitae et leur lettre de pr\u00e9sentation \u00e0 Patrick Girard (patrick.girard@canada.ca).</p>\n<p>Dans leur demande, les candidats doivent clairement indiquer :</p>\n<ul>\n<li>la dur\u00e9e de leur emploi (p. ex. d\u00e9termin\u00e9e ou ind\u00e9termin\u00e9e);</li>\n<li>les r\u00e9sultats des tests d\u2019ELS;</li>\n<li>le groupe et le niveau de leur poste d\u2019attache;</li>\n<li>en quoi ils poss\u00e8dent les qualifications essentielles et r\u00e9pondent aux exigences.</li>\n</ul>\n<p><strong><br>Remarques </strong></p>\n<ul>\n<li>Les candidats qui ne sont pas au niveau IS-04 ou \u00e0 un niveau \u00e9quivalent peuvent \u00eatre pris en compte pour un poste int\u00e9rimaire, si leur exp\u00e9rience est jug\u00e9e suffisante.</li>\n<li>La correspondance dans le cadre de ce processus s\u2019effectuera par courriel.</li>\n<li>Les personnes int\u00e9ress\u00e9es doivent obtenir l\u2019approbation de leur gestionnaire avant de poser leur candidature.</li>\n<li>Les candidats pourront \u00eatre \u00e9valu\u00e9s au moyen d\u2019une entrevue.</li>\n<li>Les r\u00e9f\u00e9rences pourraient faire l\u2019objet d\u2019une v\u00e9rification.</li>\n</ul>\n<p>\u00a0</p>\n\n"
    },
    "breadcrumb": {
        "en": "Communications Advisor",
        "fr": "Conseiller(\u00e8re) en communications"
    },
    "empl": {
        "type": {
            "en": "Assignment",
            "fr": "Affectation"
        },
        "classification": {
            "en": "IS-4 and equivalent",
            "fr": "IS-4 et \u00e9quivalent"
        },
        "branch": {
            "en": "Public Affairs Branch",
            "fr": "Direction g\u00e9n\u00e9rale des affaires publiques"
        },
        "locations": {
            "en": "National Capital Region",
            "fr": "R\u00e9gion de la capitale nationale (CACPA)"
        },
        "date_closing": {
            "en": "2019-09-13",
            "fr": "2019-09-13"
        },
        "open_to": {
            "en": "All AAFC Employees in the NCR",
            "fr": "Employ\u00e9s d\u2019AAC dans la RCN"
        },
        "name": {
            "en": "Patrick Girard",
            "fr": "Patrick Girard"
        },
        "email": {
            "en": "patrick.girard@canada.ca",
            "fr": "patrick.girard@canada.ca"
        }
    }
}