{
    "dcr_id": "1567092088011",
    "lang": "en",
    "title": {
        "en": "Help Desk Agent, HR Centre",
        "fr": "Agent(e) Bureau d\u2019aide du Centre RH "
    },
    "modified": "2019-08-29 00:00:00.0",
    "issued": "2019-08-29 00:00:00.0",
    "type_name": "intra-intra/empl-empl",
    "node_id": "1279029955397",
    "layout_name": null,
    "dc_date_created": "2019-08-29",
    "breadcrumb_label": "",
    "meta": {
        "issued": {
            "en": "2019-08-29",
            "fr": "2019-08-29"
        },
        "modified": {
            "en": "2019-08-29",
            "fr": "2019-08-29"
        },
        "format": {
            "en": "gcformat",
            "fr": "gcformat"
        },
        "title": {
            "en": "Help Desk Agent, HR Centre",
            "fr": "Agent(e) Bureau d\u2019aide du Centre RH "
        },
        "subject": {
            "en": "staffing",
            "fr": "dotation en personnel"
        },
        "language": {
            "en": "eng",
            "fr": "fra"
        },
        "audience": {
            "en": "gcaudience",
            "fr": "gcaudience"
        },
        "type": {
            "en": "notice",
            "fr": "avis"
        },
        "creator": {
            "en": "Agriculture and Agri-Food Canada",
            "fr": "Agriculture et Agroalimentaire Canada"
        },
        "spatial": {
            "en": "gcregions",
            "fr": "gcregions"
        },
        "service": {
            "en": "AAFC_AgriSource",
            "fr": "AAC_AgriSource"
        },
        "accessRights": {
            "en": "3",
            "fr": "3"
        }
    },
    "body": {
        "en": "\n<p><em>\u00a0</em></p>\n<p><em>Call of interest: CR-05/AS-01 Opportunity (with possibility of advancement to AS-02) </em></p>\n<p><strong><br>Help Desk Agent, HR Centre \u2013 Moncton, Ottawa</strong></p>\n<p>The HR Centre has an exciting and challenging opportunity - working as an agent within the Help Desk team.</p>\n<p>The HR Centre\u2019s Help Desk is a centralized point of contact where AAFC managers and employees can obtain HR information or assistance. Agents attempt to respond or resolve as many enquiries and requests as possible prior to elevation for specialized advice, if necessary.</p>\n<p>Some of the tasks may include but are not limited to:</p>\n<ul>\n<li>\n<p>Respond to calls/e-mails from clients</p>\n</li>\n<li>\n<p>Carry out searches using our tools, internet and/or intranet sites</p>\n</li>\n<li>\n<p>Using tracking system to log in requests</p>\n</li>\n<li>\n<p>Elevate tickets to appropriate HR teams</p>\n</li>\n<li>\n<p>Escalate or consult with HR Centre Team Lead if/when necessary</p>\n</li>\n<li>\n<p>Help with updates of tools when necessary</p>\n</li>\n<li>\n<p>May be asked to assist with other tasks/projects as required</p>\n</li>\n</ul>\n<p>Should you be interested in being considered for this opportunity, submit an e-mail to Denise.Richard@canada.ca describing how you meet the qualifications outlined below. Responses should be received by end of day,<strong> Friday, September 13, 2019</strong>. If you have any questions, please communicate with Denise directly.</p>\n<p>We will assess candidates through the submitted interest e-mail as well as an informal interview. Projected start date for this opportunity is September 23, 2019.</p>\n<p><strong><br>Location of the position: </strong>Moncton, Ottawa</p>\n<p><strong><br>Linguistic Profile: </strong>Bilingual Imperative CBC/CBC</p>\n<p><br>\n<strong>Position Requirements: </strong></p>\n<p>To be considered for this opportunity, candidates must explain how you meet the following:</p>\n<ul>\n<li>\n<p>Secondary school diploma or an acceptable combination of education, training and/or experience</p>\n</li>\n</ul>\n<p>\u00a0</p>\n<p><strong>Other experience qualifications that may be considered include:</strong></p>\n<ul>\n<li>\n<p>Experience in client service in a contact centre setting</p>\n</li>\n<li>\n<p>Experience in providing HR services within the federal public service Experience in using the various PeopleSoft modules</p>\n</li>\n<li>\n<p>Experience in using the various PeopleSoft modules</p>\n</li>\n</ul>\n<p><strong><br>Competencies</strong></p>\n<ul>\n<li>\n<p>Client Focus</p>\n</li>\n<li>\n<p>Interactive Communication</p>\n</li>\n<li>\n<p>Dependability</p>\n</li>\n<li>\n<p>Initiative</p>\n</li>\n<li>\n<p>Judgement</p>\n<p>\u00a0</p>\n</li>\n</ul>\n<p>Availability and willingness to work shifts and/or overtime.</p>\n<p>\u00a0</p>\n",
        "fr": "\n<p><em>\u00a0</em></p>\n<p><em>Appel d'int\u00e9r\u00eat: Possibilit\u00e9 CR-05/AS-01 (avec possibilit\u00e9 d\u2019avancement au niveau AS-02)</em></p>\n<p><strong><br>Agent(e) Bureau d\u2019aide du Centre RH \u2013 Moncton, Ottawa</strong></p>\n<p>Le Centre RH offre une occasion stimulante et enrichissante en tant qu\u2019Agent(e) avec l\u2019\u00e9quipe du Bureau d\u2019aide.</p>\n<p>Le Bureau d\u2019aide du Centre RH agit \u00e0 titre de point de contact central pour les gestionnaires et les employ\u00e9(e)s d\u2019AAC d\u00e9sirant obtenir des services et de l\u2019aide en mati\u00e8re de RH. Les agent(e)s tentent de r\u00e9pondre aux demandes et de les r\u00e9soudre dans la mesure du possible avant de les remonter aux sp\u00e9cialistes en RH, le cas \u00e9ch\u00e9ant.</p>\n<p>Certaines des t\u00e2ches peuvent inclure, mais ne se limitent pas \u00e0 :</p>\n<ul>\n<li>\n<p>r\u00e9pondre aux appels et courriels des clients</p>\n</li>\n<li>\n<p>effectuer des recherches avec nos outils, sites internet et sites intranet</p>\n</li>\n<li>\n<p>inscrire les demandes au syst\u00e8me de gestion des billets</p>\n</li>\n<li>\n<p>remonte les enjeux aux sp\u00e9cialistes en RH au besoin</p>\n</li>\n<li>\n<p>r\u00e9f\u00e9rer ou consulter le chef d\u2019\u00e9quipe lorsque n\u00e9cessaire</p>\n</li>\n<li>\n<p>aider \u00e0 la mise \u00e0 jour des outils au besoin</p>\n</li>\n<li>\n<p>peut inclure d\u2019autres t\u00e2ches ou projets au besoin</p>\n</li>\n</ul>\n<p>Si cette possibilit\u00e9 vous int\u00e9resse, veuillez envoyer un courriel \u00e0 Denise.Richard@canada.ca dans lequel vous d\u00e9crivez bri\u00e8vement comment vous r\u00e9pondez aux exigences d\u00e9crites ci-dessous. Votre courriel d\u2019int\u00e9r\u00eat doit \u00eatre soumis au plus tard en fin de journ\u00e9e, <strong>le vendredi 13 septembre 2019</strong>. Si vous avez des questions au sujet du pr\u00e9sent appel d\u2019int\u00e9r\u00eat, veuillez communiquer avec Denise directement.</p>\n<p>Nous allons \u00e9valuer les candidat(e)s par le biais du courriel d\u2019int\u00e9r\u00eat soumis ainsi qu\u2019une entrevue informelle. La date de d\u00e9but pr\u00e9vue est le 23 septembre 2019.</p>\n<p><strong><br>Emplacement du poste: </strong>Moncton, Ottawa</p>\n<p><strong><br>Profil linguistique: </strong>poste bilingue imp\u00e9ratif, CBC/CBC</p>\n<p>\u00a0</p>\n<p><strong>Exigences du poste: </strong></p>\n<p>Pour tenir compte de votre candidature, vous devez r\u00e9pondre aux exigences suivantes:</p>\n<ul>\n<li>\n<p>Dipl\u00f4me d\u2019\u00e9tudes secondaires ou combinaison acceptables d\u2019\u00e9tudes, de formation ou d\u2019exp\u00e9rience</p>\n</li>\n</ul>\n<p>\u00a0</p>\n<p><strong>D\u2019autres qualifications li\u00e9es \u00e0 l\u2019exp\u00e9rience peuvent \u00eatre consid\u00e9r\u00e9es, notamment:</strong></p>\n<ul>\n<li>\n<p>Exp\u00e9rience en service \u00e0 la client\u00e8le dans un centre de contact</p>\n</li>\n<li>\n<p>Exp\u00e9rience en prestation de services de RH au sein de la fonction publique f\u00e9d\u00e9rale</p>\n</li>\n<li>\n<p>Exp\u00e9rience dans l\u2019utilisation des divers modules de PeopleSoft</p>\n</li>\n</ul>\n<p><strong><br>Comp\u00e9tences</strong></p>\n<ul>\n<li>\n<p>Souci du service au client</p>\n</li>\n<li>\n<p>Communication interactive</p>\n</li>\n<li>\n<p>Fiabilit\u00e9</p>\n</li>\n<li>\n<p>Initiative</p>\n</li>\n<li>\n<p>Jugement</p>\n<p>\u00a0</p>\n</li>\n</ul>\n<p>Volont\u00e9 et capacit\u00e9 d\u2019effectuer des heures suppl\u00e9mentaires et/ou des quarts de travail.</p>\n<p>\u00a0</p>\n\n"
    },
    "breadcrumb": {
        "en": "Help Desk Agent, HR Centre",
        "fr": "Agent(e) Bureau d\u2019aide du Centre RH"
    },
    "empl": {
        "type": {
            "en": "Assignment, Deployment",
            "fr": "Affectation, Mutation"
        },
        "classification": {
            "en": "CR-5 and equivalent",
            "fr": "CR-5 et \u00e9quivalent"
        },
        "branch": {
            "en": "Corporate Management Branch",
            "fr": "Gestion int\u00e9gr\u00e9e"
        },
        "locations": {
            "en": "Moncton, Ottawa",
            "fr": "Moncton, Ottawa"
        },
        "date_closing": {
            "en": "2019-09-13",
            "fr": "2019-09-13"
        },
        "open_to": {
            "en": "AAFC Employees in Ottawa and Moncton",
            "fr": "Employ\u00e9s d\u2019AAC de la Ottawa ou Moncton"
        },
        "name": {
            "en": "Denise Richard",
            "fr": "Denise Richard"
        },
        "email": {
            "en": "Denise.Richard@canada.ca",
            "fr": "Denise.Richard@canada.ca"
        }
    }
}