{
    "dcr_id": "1568552201932",
    "lang": "en",
    "title": {
        "en": "TRECS Coordinator",
        "fr": "Coordonnateur (trice) du syst\u00e8me SSRCHD "
    },
    "modified": "2019-09-17 00:00:00.0",
    "issued": "2019-09-17 00:00:00.0",
    "type_name": "intra-intra/empl-empl",
    "node_id": "1279029955397",
    "layout_name": null,
    "dc_date_created": "2019-09-16",
    "breadcrumb_label": "",
    "meta": {
        "issued": {
            "en": "2019-09-17",
            "fr": "2019-09-17"
        },
        "modified": {
            "en": "2019-09-17",
            "fr": "2019-09-17"
        },
        "format": {
            "en": "gcformat",
            "fr": "gcformat"
        },
        "title": {
            "en": "TRECS Coordinator",
            "fr": "Coordonnateur (trice) du syst\u00e8me SSRCHD "
        },
        "subject": {
            "en": "staffing",
            "fr": "dotation en personnel"
        },
        "language": {
            "en": "eng",
            "fr": "fra"
        },
        "audience": {
            "en": "gcaudience",
            "fr": "gcaudience"
        },
        "type": {
            "en": "notice",
            "fr": "avis"
        },
        "creator": {
            "en": "Agriculture and Agri-Food Canada",
            "fr": "Agriculture et Agroalimentaire Canada"
        },
        "spatial": {
            "en": "gcregions",
            "fr": "gcregions"
        },
        "service": {
            "en": "AAFC_AgriSource",
            "fr": "AAC_AgriSource"
        },
        "accessRights": {
            "en": "3",
            "fr": "3"
        }
    },
    "body": {
        "en": "\n<p><strong><br>Duties:</strong><em> </em></p>\n<p>TRECS Coordinator in the Science and Technology Branch - Assistant Deputy Minister\u2019s Office</p>\n<p>\u00a0</p>\n<p><strong>Statement of Merit Criteria &amp; Conditions of Employment</strong><em> </em></p>\n<p>Secondary school diploma OR an acceptable combination of education, training and/or experience.</p>\n<p>\u00a0</p>\n<p><strong>Essential Qualifications</strong></p>\n<ul>\n<li>\n<p>Experience using a departmental correspondence tracking system such as ECMS or CCM Mercury (TRECS).</p>\n</li>\n<li>\n<p>Experience in records and data management.</p>\n</li>\n<li>\n<p>Experience in proofreading, formatting and editing various documents for quality control purposes.</p>\n</li>\n<li>\n<p>Experience using various software including Word/WordPerfect, Excel and Outlook.</p>\n</li>\n<li>\n<p>Experience in tracking information.</p>\n</li>\n<li>\n<p>Experience in providing a range of administrative support services in a senior executive office (EX-01 or higher).</p>\n</li>\n</ul>\n<p>Problem Solving</p>\n<p>Communication (written and verbal)</p>\n<p>Planning and Organizing</p>\n<p>Initiative</p>\n<p>Dependability</p>\n<p>Judgment</p>\n<p>\u00a0</p>\n<p>Language Requirement(s) Bilingual Imperative BBB/BBB</p>\n<p>\u00a0</p>\n<p><strong>Asset Qualifications </strong></p>\n<p>Experience working as a TRECS coordinator.</p>\n<h3>\u00a0</h3>\n<h3><strong>Organizational Needs</strong></h3>\n<p>In support of achieving a diversified workforce, consideration may be given to candidates self-identifying as belonging to one of the following Employment Equity groups: Aboriginal peoples, Persons with a Disability; Visible Minorities, Women.</p>\n<p>\u00a0</p>\n<p><strong>Conditions of Employment</strong><strong> </strong></p>\n<p>Ability and willingness to occasionally work overtime</p>\n<p>Security Requirement(s): Reliability</p>\n<p>Ability and willingness to work within the hours of 8:00am to 5:00pm.</p>\n<p>\u00a0</p>\n<p><strong>Applications:</strong></p>\n<p>Interested AAFC employees who are in the area of selection are encouraged to forward their resume and cover letter to Nicole Graham at Nicole.graham@canada.ca by Friday, September 27, 2019.</p>\n<p>\u00a0</p>\n<p>All AAFC employees in the National Capital region may apply. If a successful candidate is not found at level, an acting opportunity may be considered. Therefore, we encourage all interested candidates to apply.</p>\n<p>\u00a0</p>\n<p><strong>R\u00e9sum\u00e9s must clearly identify:</strong></p>\n<ul>\n<li>Your tenure (e.g. term or indeterminate)</li>\n<li>Your substantive group and level</li>\n</ul>\n<p>\u00a0</p>\n<p><strong>Notes:</strong></p>\n<ul>\n<li>\n<p><strong>Communication for this process will be sent via email.</strong></p>\n</li>\n<li>\n<p>Assessment of applicants may be based on the review of their r\u00e9sum\u00e9, an interview and/or reference checks.</p>\n</li>\n</ul>\n<p>\u00a0</p>\n",
        "fr": "\n<p><strong><br>Fonctions :</strong><em> </em></p>\n<p>Coordonnateur ou coordonnatrice du Syst\u00e8me de suivi et de rapports pour la correspondance de la haute direction (SSRCHD) au bureau du sous-ministre adjoint de la Direction g\u00e9n\u00e9rale des sciences et de la technologie.</p>\n<p>\u00a0</p>\n<p><strong>\u00c9nonc\u00e9 des crit\u00e8res de m\u00e9rite et conditions d\u2019emplois</strong></p>\n<p>Dipl\u00f4me d\u2019\u00e9tudes secondaires OU une combinaison acceptable de scolarit\u00e9, de formation et d\u2019exp\u00e9rience.</p>\n<p>\u00a0</p>\n<p><strong>Qualifications essentielles </strong>:</p>\n<ul>\n<li>\n<p>Exp\u00e9rience de l\u2019utilisation d\u2019un syst\u00e8me de suivi de la correspondance minist\u00e9rielle comme le syst\u00e8me de gestion de la correspondance de la haute direction (SGCHD) ou CCM Mercury (SSRCHD).\n\t\u00a0</p>\n</li>\n<li>\n<p>Exp\u00e9rience dans la gestion de dossiers et de donn\u00e9es.\n\t\u00a0</p>\n</li>\n<li>\n<p>Exp\u00e9rience de r\u00e9vision, du formatage et de la r\u00e9vision de divers documents \u00e0 des fins de contr\u00f4le de la qualit\u00e9.\u00a0</p>\n</li>\n<li>\n<p>Exp\u00e9rience de l\u2019utilisation de divers logiciels, y compris Word/WordPerfect, Excel et Outlook.\u00a0</p>\n</li>\n<li>\n<p>Exp\u00e9rience dans le suivi d\u2019information.\u00a0</p>\n</li>\n</ul>\n<ul>\n<li>\n<p>Exp\u00e9rience de la prestation d\u2019un \u00e9ventail de services et de soutien administratif \u00e0 un bureau de haute gestion (EX-01 ou plus haut).</p>\n</li>\n</ul>\n<p>\u00a0</p>\n<p>\n\t<br>\n\tR\u00e9solution de probl\u00e8mes</p>\n<p>Communication (\u00e9crite et verbale)</p>\n<p>Planification et organisation</p>\n<p>Initiative</p>\n<p>Fiabilit\u00e9</p>\n<p>Jugement</p>\n<p>\u00a0</p>\n<p>Comp\u00e9tence en mati\u00e8re de langues officielles : Bilingue imp\u00e9ratif (BBB/BBB)</p>\n<p>\u00a0</p>\n<p><strong>Qualifications constituant un atout </strong>:</p>\n<p>Exp\u00e9rience de travail en tant que coordonnateur(trice) du syst\u00e8me SSRCHD.</p>\n<p><strong><br>Besoins de l\u2019organisation </strong>:</p>\n<p>Pour diversifier l\u2019effectif, on pourra examiner la candidature des personnes qui s\u2019identifient comme appartenant \u00e0 des groupes vis\u00e9s par l\u2019\u00e9quit\u00e9 en mati\u00e8re d\u2019emploi, soit les autochtones, les personnes handicap\u00e9es, les minorit\u00e9s visibles et les femmes.</p>\n<p><br>\n\t<strong>Conditions d\u2019emploi </strong>:</p>\n<p>\u00catre apte et dispos\u00e9 \u00e0 faire des heures suppl\u00e9mentaires \u00e0 l\u2019occasion.</p>\n<p>Fiabilit\u00e9 et s\u00e9curit\u00e9 : Cote de fiabilit\u00e9</p>\n<p>\u00catre apte et dispos\u00e9 \u00e0 travailler entre 8 h et 17 h.</p>\n<p>\u00a0</p>\n<p><strong>Demandes d\u2019emploi :</strong></p>\n<p>Les employ\u00e9s d\u2019<em>AAC</em> qui habitent dans la zone de s\u00e9lection et que la possibilit\u00e9 d\u2019emploi int\u00e9resse sont invit\u00e9s \u00e0 envoyer leur curriculum vitae et une lettre d\u2019accompagnement \u00e0 Nicole Graham par courriel \u00e0 l\u2019adresse Nicole.graham@canada.ca par le vendredi 27 septembre 2019.</p>\n<p>\u00a0</p>\n<p>Tous les employ\u00e9s d\u2019AAC qui travaillent dans la r\u00e9gion de la capitale nationale peuvent pr\u00e9senter leur candidature. Si aucun candidat occupant un poste du niveau recherch\u00e9 n\u2019est retenu, une possibilit\u00e9 d\u2019affectation int\u00e9rimaire pourrait \u00eatre envisag\u00e9e. Nous invitons donc toutes les personnes que le poste int\u00e9resse \u00e0 pr\u00e9senter leur candidature.</p>\n<p>\u00a0</p>\n<p>Le curriculum vitae doit clairement indiquer :</p>\n<ul>\n<li>le type de poste occup\u00e9 (p. ex., dur\u00e9e d\u00e9termin\u00e9e ou ind\u00e9termin\u00e9e);</li>\n<li>le groupe et le niveau du poste d\u2019attache.</li>\n</ul>\n<p>\u00a0</p>\n<p><strong>Remarques</strong></p>\n<ul>\n<li>\n<p>Les communications relatives \u00e0 ce processus se feront par courriel.</p>\n</li>\n<li>\n<p>L\u2019\u00e9valuation des candidats pourra \u00eatre effectu\u00e9e en fonction de l\u2019examen de leur curriculum vitae, d\u2019une entrevue ou de la v\u00e9rification des r\u00e9f\u00e9rences.\u00a0</p>\n</li>\n</ul>\n<p>\u00a0</p>\n\n"
    },
    "breadcrumb": {
        "en": "TRECS Coordinator",
        "fr": "Coordonnateur (trice) du syst\u00e8me SSRCHD"
    },
    "empl": {
        "type": {
            "en": "Assignment, Acting",
            "fr": "Affectation, Int\u00e9rimaire"
        },
        "classification": {
            "en": "AS-2 and equivalent",
            "fr": "AS-2 et \u00e9quivalent"
        },
        "branch": {
            "en": "Science and Technology Branch",
            "fr": "Direction g\u00e9n\u00e9rale des sciences et de la technologie"
        },
        "locations": {
            "en": "Ottawa, NCR",
            "fr": "Ottawa, RCN"
        },
        "date_closing": {
            "en": "2019-09-27",
            "fr": "2019-09-27"
        },
        "open_to": {
            "en": "All AAFC Employees in the National Capital Region (NCR)",
            "fr": "Tous les employ\u00e9s d\u2019AAC dans la R\u00e9gion de la capitale nationale (RCN)"
        },
        "name": {
            "en": "Nicole Graham",
            "fr": "Nicole Graham"
        },
        "email": {
            "en": "nicole.graham@canada.ca",
            "fr": "nicole.graham@canada.ca"
        }
    }
}