{
    "dcr_id": "1574195023765",
    "lang": "en",
    "title": {
        "en": "Change Management Analyste",
        "fr": "Analyste de la gestion du changement"
    },
    "modified": "2019-11-20 00:00:00.0",
    "issued": "2019-11-20 00:00:00.0",
    "type_name": "intra-intra/empl-empl",
    "node_id": "1279029955397",
    "layout_name": null,
    "dc_date_created": "2019-11-20",
    "breadcrumb_label": "",
    "meta": {
        "issued": {
            "en": "2019-11-20",
            "fr": "2019-11-20"
        },
        "modified": {
            "en": "2019-11-20",
            "fr": "2019-11-20"
        },
        "format": {
            "en": "gcformat",
            "fr": "gcformat"
        },
        "title": {
            "en": "Change Management Analyste",
            "fr": "Analyste de la gestion du changement"
        },
        "subject": {
            "en": "staffing",
            "fr": "dotation en personnel"
        },
        "language": {
            "en": "eng",
            "fr": "fra"
        },
        "audience": {
            "en": "gcaudience",
            "fr": "gcaudience"
        },
        "type": {
            "en": "notice",
            "fr": "avis"
        },
        "creator": {
            "en": "Agriculture and Agri-Food Canada",
            "fr": "Agriculture et Agroalimentaire Canada"
        },
        "spatial": {
            "en": "gcregions",
            "fr": "gcregions"
        },
        "service": {
            "en": "AAFC_AgriSource",
            "fr": "AAC_AgriSource"
        },
        "accessRights": {
            "en": "3",
            "fr": "3"
        }
    },
    "body": {
        "en": "\n<p><br>The Change Management Team (Strategic Management Directorate, Corporate Management Branch) is looking to hire an analyst. Could this be the dream job for you?</p>\n<p>\u00a0</p>\n<p>Change Management is a relatively new discipline in the corporate world. It blends concepts of emotional intelligence and human behaviour to better strategize for projects that include a dimension of change. Whether it\u2019s a change to <em>where</em> we work, <em>who </em>we work for, or <em>how </em>we do our jobs, change has personal impacts. Change projects are much more likely to be successful if employees feel these emotional and personal impacts have been considered and planned for.</p>\n<p>\u00a0</p>\n<p>Your role would include developing an Enterprise Initiative Inventory that collects information about change initiatives across the Department to analyze the pace, severity, and complexity of changes employees are facing. You will work with stakeholders across the department to receive and validate the information provided, and challenge project managers to think more directly about the end-result on people. You would also offer support to project managers to strategize on how to increase employee engagement, forecast areas of resistance, and communicate meaningfully.</p>\n<p>\u00a0</p>\n<p>This job is best fit for people who:</p>\n<ul>\n<li>\n<p>Have great interpersonal and relationship building skills</p>\n</li>\n<li>\n<p>Are interested in concepts of emotional intelligence and human behaviour</p>\n</li>\n<li>\n<p>Are able to synthesize complex information</p>\n</li>\n<li>\n<p>Have moderate skills in developing infographics or creative communication products</p>\n</li>\n<li>\n<p>Are interested in ensuring employees are considered and cared for in rolling out projects</p>\n</li>\n</ul>\n<p>\u00a0</p>\n<p>If you are interested in applying, or want to know more about the role, please contact Monique Rose at monique.rose@canada.ca or at 613-773-1416.</p>\n<p>Deadline to apply is <strong>December 6th 2019</strong>.</p>\n<p>\u00a0</p>\n",
        "fr": "\n<p>\u00a0</p>\n<p>L\u2019\u00e9quipe de gestion du changement (Direction de la gestion strat\u00e9gique, Direction g\u00e9n\u00e9rale de la gestion int\u00e9gr\u00e9e) est \u00e0 la recherche d\u2019un ou d\u2019une analyste. Serait-ce l\u2019emploi de vos r\u00eaves?</p>\n<p>\u00a0</p>\n<p>La gestion du changement est une discipline relativement nouvelle dans le monde des affaires. Elle fait appel aux concepts d\u2019intelligence \u00e9motionnelle et de comportement humain et vise \u00e0 \u00e9laborer de bonnes strat\u00e9gies pour mettre en \u0153uvre des projets qui comportent une dimension de changement. Qu\u2019il s\u2019agisse de changer <em>l\u2019endroit o\u00f9</em> nous travaillons, <em>pour qui </em>nous travaillons ou <em>comment </em>nous faisons notre travail, le changement a des incidences personnelles. Les projets de changement sont plus susceptibles de r\u00e9ussir si les employ\u00e9s estiment qu\u2019on a tenu compte des incidences \u00e9motionnelles et personnelles, et qu\u2019on a planifi\u00e9 en cons\u00e9quence.</p>\n<p>\u00a0</p>\n<p>Votre r\u00f4le consisterait notamment \u00e0 cr\u00e9er un r\u00e9pertoire des initiatives du Minist\u00e8re pour recueillir de l\u2019information sur les initiatives de changement dans l\u2019ensemble du Minist\u00e8re afin d\u2019analyser le rythme, la gravit\u00e9 et la complexit\u00e9 des changements auxquels font face les employ\u00e9s. Vous serez en communication avec des intervenants dans l\u2019ensemble du Minist\u00e8re pour recevoir et valider l\u2019information fournie, et vous inciterez les gestionnaires \u00e0 r\u00e9fl\u00e9chir plus directement \u00e0 l\u2019effet final des projets sur les employ\u00e9s. Vous aiderez aussi les gestionnaires de projet \u00e0 \u00e9laborer des strat\u00e9gies sur les fa\u00e7ons de mobiliser davantage les employ\u00e9s, de pr\u00e9voir les points de r\u00e9sistance et de communiquer de fa\u00e7on constructive.</p>\n<p>\u00a0</p>\n<p>Ce travail convient mieux aux personnes qui :</p>\n<ul>\n<li>\n<p>ont d\u2019excellentes aptitudes sur les plans interpersonnel et relationnel</p>\n</li>\n<li>\n<p>s\u2019int\u00e9ressent aux concepts d\u2019intelligence \u00e9motionnelle et de comportement humain</p>\n</li>\n<li>\n<p>sont capables de synth\u00e9tiser des informations complexes</p>\n</li>\n<li>\n<p>poss\u00e8dent des comp\u00e9tences moyennes dans l\u2019\u00e9laboration d\u2019infographies ou de produits de communication cr\u00e9atifs.</p>\n</li>\n<li>\n<p>veulent s\u2019assurer que la mise en \u0153uvre des projets tienne compte des incidences sur les employ\u00e9s.</p>\n</li>\n</ul>\n<p>\u00a0</p>\n<p>Si vous souhaitez poser votre candidature ou si vous voulez en savoir plus sur ce poste, veuillez communiquer avec Monique Rose au monique.rose@canada.ca ou au 613-773-1416.</p>\n<p>La date limite pour postuler est le 6 d\u00e9cembre 2019.</p>\n<p>\u00a0</p>\n\n"
    },
    "breadcrumb": {
        "en": "Change Management Analyste",
        "fr": "Analyste de la gestion du changement"
    },
    "empl": {
        "type": {
            "en": "Assignment",
            "fr": "Affectation"
        },
        "classification": {
            "en": "AS-4 and equivalent",
            "fr": "AS-4 et \u00e9quivalent"
        },
        "branch": {
            "en": "Corporate Management Branch",
            "fr": "Gestion int\u00e9gr\u00e9e"
        },
        "locations": {
            "en": "Ottawa, Ontario",
            "fr": "Ottawa, Ontario"
        },
        "date_closing": {
            "en": "2019-12-06",
            "fr": "2019-12-06"
        },
        "open_to": {
            "en": "All AAFC Employees located in Ottawa",
            "fr": "Tous les employ\u00e9s d'AAC situ\u00e9 \u00e0 Ottawa"
        },
        "name": {
            "en": "Monique Rose",
            "fr": "Monique Rose"
        },
        "email": {
            "en": "monique.rose@canada.ca",
            "fr": "monique.rose@canada.ca"
        }
    }
}