{
    "dcr_id": "1574428512687",
    "lang": "en",
    "title": {
        "en": "Strategic Advisor",
        "fr": "Conseiller(\u00e8re) strat\u00e9gique"
    },
    "modified": "2019-11-28 00:00:00.0",
    "issued": "2019-11-22 00:00:00.0",
    "type_name": "intra-intra/empl-empl",
    "node_id": "1279029955397",
    "layout_name": null,
    "dc_date_created": "2019-11-22",
    "breadcrumb_label": "",
    "meta": {
        "issued": {
            "en": "2019-11-22",
            "fr": "2019-11-22"
        },
        "modified": {
            "en": "2019-11-28",
            "fr": "2019-11-28"
        },
        "format": {
            "en": "gcformat",
            "fr": "gcformat"
        },
        "title": {
            "en": "Strategic Advisor",
            "fr": "Conseiller(\u00e8re) strat\u00e9gique"
        },
        "subject": {
            "en": "staffing",
            "fr": "dotation en personnel"
        },
        "language": {
            "en": "eng",
            "fr": "fra"
        },
        "audience": {
            "en": "gcaudience",
            "fr": "gcaudience"
        },
        "type": {
            "en": "notice",
            "fr": "avis"
        },
        "creator": {
            "en": "Agriculture and Agri-Food Canada",
            "fr": "Agriculture et Agroalimentaire Canada"
        },
        "spatial": {
            "en": "gcregions",
            "fr": "gcregions"
        },
        "service": {
            "en": "AAFC_AgriSource",
            "fr": "AAC_AgriSource"
        },
        "accessRights": {
            "en": "3",
            "fr": "3"
        }
    },
    "body": {
        "en": "\n<p>\u00a0</p>\n<p>The Parliamentary Relations and Portfolio Coordination team is looking for a strategic advisor to help ensure the products it provides to the Minister, the Deputy Ministers and senior officials are of top quality. In a minority government situation, we will need to provide strategic advice and messaging that is consistent and effective across the board.</p>\n<p>This is a brand new position, so you will have the flexibility to carve out your own space to help the team achieve these objectives.</p>\n<p>If you have strategic policy experience, have a good eye for detail and strong people skills, you are the ideal candidate!</p>\n<p>\u00a0</p>\n<p>Language Requirement: Bilingual Imperative CBC/CBC</p>\n<p>\u00a0</p>\n<p><strong>Applications:</strong></p>\n<p>Interested? Send Sophie B\u00e9dard (Sophie.bedard@canada.ca) your CV and a short cover letter explaining why you are \u201cthe one\u201d.</p>\n<p>\u00a0</p>\n<p>Resumes must clearly identify:</p>\n<ul>\n<li>\n<p>Your tenure (e.g. term or indeterminate)</p>\n</li>\n<li>\n<p>Your substantive group and level</p>\n</li>\n</ul>\n<p>\u00a0</p>\n",
        "fr": "\n<p>\u00a0</p>\n<p>L\u2019\u00c9quipe des relations parlementaires et de la coordination du portefeuille est \u00e0 la recherche d\u2019un conseiller strat\u00e9gique ou d\u2019une conseill\u00e8re strat\u00e9gique qui veillera \u00e0 ce que les produits qu\u2019elle fournit au ministre, aux sous\u2011ministres et aux cadres sup\u00e9rieurs soient de qualit\u00e9 optimale. Dans une situation de gouvernement minoritaire, nous devrons fournir des conseils et des messages strat\u00e9giques uniformes et efficaces en tout temps.</p>\n<p>Comme il s\u2019agit d\u2019un nouveau poste, vous aurez la latitude voulue pour d\u00e9finir votre propre fa\u00e7on d\u2019aider l\u2019\u00e9quipe \u00e0 r\u00e9aliser ses objectifs.</p>\n<p>Si vous avez une exp\u00e9rience des politiques strat\u00e9giques, le souci du d\u00e9tail et d\u2019excellentes aptitudes en relations humaines, vous \u00eates le/la candidat(e) id\u00e9al(e)!</p>\n<p>\u00a0</p>\n<p>Exigence linguistique : Bilingue imp\u00e9ratif CBC/CBC</p>\n<p>\u00a0</p>\n<p><strong>Demandes</strong></p>\n<p>Si cette offre vous int\u00e9resse, veuillez envoyer votre curriculum vitae \u00e0 Sophie B\u00e9dard (sophie.bedard@canada.ca) avec une courte lettre de pr\u00e9sentation pr\u00e9cisant en quoi vous \u00eates le/la candidat(e) que nous recherchons.</p>\n<p>\u00a0</p>\n<p>Dans votre curriculum vitae, vous devez clairement indiquer :</p>\n<ul>\n<li>\n<p>la dur\u00e9e de votre emploi (p. ex. d\u00e9termin\u00e9e ou ind\u00e9termin\u00e9e);</p>\n</li>\n<li>\n<p>votre groupe et niveau de titularisation.</p>\n</li>\n</ul>\n<p>\u00a0</p>\n\n"
    },
    "breadcrumb": {
        "en": "Strategic Advisor",
        "fr": "Conseiller(\u00e8re) strat\u00e9gique"
    },
    "empl": {
        "type": {
            "en": "Assignment, Deployment, Acting",
            "fr": "Affectation, Mutation, Int\u00e9rimaire"
        },
        "classification": {
            "en": "EC-7",
            "fr": "EC-7"
        },
        "branch": {
            "en": "Deputy Minister's Office",
            "fr": "Bureau du sous-ministre"
        },
        "locations": {
            "en": "NCR",
            "fr": "RCN"
        },
        "date_closing": {
            "en": "2019-12-06",
            "fr": "2019-12-06"
        },
        "open_to": {
            "en": "AAFC employees at the substantive EC-06 or EC-07 level or equivalent",
            "fr": "Employ\u00e9(e)s d\u2019AAC au niveau EC-06 ou EC-07 substantif ou \u00e0 un niveau \u00e9quivalent"
        },
        "name": {
            "en": "Sophie B\u00e9dard",
            "fr": "Sophie B\u00e9dard"
        },
        "email": {
            "en": "sophie.bedard@canada.ca",
            "fr": "sophie.bedard@canada.ca"
        }
    }
}