{
    "dcr_id": "1574106207862",
    "lang": "en",
    "title": {
        "en": "Deputy Director, Grains and Cereals",
        "fr": "Directeur adjoint / Directrice adjointe, c\u00e9r\u00e9ales et semence"
    },
    "modified": "2019-11-19 00:00:00.0",
    "issued": "2019-11-19 00:00:00.0",
    "type_name": "intra-intra/empl-empl",
    "node_id": "1279029955397",
    "layout_name": null,
    "dc_date_created": "2019-11-18",
    "breadcrumb_label": "",
    "meta": {
        "issued": {
            "en": "2019-11-19",
            "fr": "2019-11-19"
        },
        "modified": {
            "en": "2019-11-19",
            "fr": "2019-11-19"
        },
        "format": {
            "en": "gcformat",
            "fr": "gcformat"
        },
        "title": {
            "en": "Deputy Director, Grains and Cereals",
            "fr": "Directeur adjoint / Directrice adjointe, c\u00e9r\u00e9ales et semence"
        },
        "subject": {
            "en": "staffing",
            "fr": "dotation en personnel"
        },
        "language": {
            "en": "eng",
            "fr": "fra"
        },
        "audience": {
            "en": "gcaudience",
            "fr": "gcaudience"
        },
        "type": {
            "en": "notice",
            "fr": "avis"
        },
        "creator": {
            "en": "Agriculture and Agri-Food Canada",
            "fr": "Agriculture et Agroalimentaire Canada"
        },
        "spatial": {
            "en": "gcregions",
            "fr": "gcregions"
        },
        "service": {
            "en": "AAFC_AgriSource",
            "fr": "AAC_AgriSource"
        },
        "accessRights": {
            "en": "3",
            "fr": "3"
        }
    },
    "body": {
        "en": "\n<p><strong><br>Duties:</strong><em> </em></p>\n<p>The Deputy Director, Grains and Cereals is responsible to provide leadership and guidance to a team of experts that provides in-depth market information, analysis, advice and engages stakeholders on issues impacting the competitiveness of the sector. By providing sector expertise, the team also supports the implementation of government and sector policies, regulations and programs.</p>\n<p><strong><br>Statement of Merit Criteria &amp; Conditions of Employment</strong></p>\n<p><strong><br>Essential Qualifications:</strong></p>\n<p><strong><br>Education</strong></p>\n<ul>\n<li>Graduation with a degree from a recognized post-secondary institution with acceptable specialization in economics, sociology or statistics.</li>\n</ul>\n<p><strong><br>Experience</strong></p>\n<ul>\n<li>Significant* experience in preparing briefing materials (e.g., reports, scenario/ briefing notes, presentations) on complex issues for decision-making to senior management on programs, policies or issues.</li>\n</ul>\n<ul>\n<li>Significant* experience developing and maintaining collaborative relationships with internal or external stakeholders (such as the private sector, industry associations, academia, Aboriginal groups or other government departments).</li>\n</ul>\n<ul>\n<li>Significant* experience in undertaking analysis of economic or industry trends relating to complex issues to provide written/verbal strategic advice to senior management.</li>\n</ul>\n<ul>\n<li>Significant* experience in providing advice and recommendations to senior management** or ministers.</li>\n</ul>\n<p>* Significant is defined as the depth and breadth associated with the performance of duties normally accumulated over a period of approximately two years, within the last five years.</p>\n<p>** Senior management is defined as Director level and up.</p>\n<p>\u00a0</p>\n<p><strong>Knowledge</strong></p>\n<ul>\n<li>\n<p>Knowledge of Canada\u2019s agriculture and agri-food sector and its priorities.</p>\n</li>\n<li>\n<p>Knowledge of the methods used to carry out economic analysis and research.</p>\n</li>\n<li>\n<p>Knowledge of the federal government\u2019s priorities and initiatives.</p>\n</li>\n</ul>\n<p><strong><br>Abilities</strong></p>\n<ul>\n<li>\n<p>Ability to prepare and provide impact analysis on agriculture and agri-food competitiveness issues.</p>\n</li>\n</ul>\n<p><strong><br>Competencies </strong></p>\n<ul>\n<li>Strategic Thinking</li>\n<li>Analytical Thinking</li>\n<li>Initiative</li>\n<li>Adaptability</li>\n<li>Mobilize people</li>\n<li>Team Leadership</li>\n<li>Written Communication</li>\n<li>Oral communication</li>\n</ul>\n<p><strong><br>Language Requirement</strong></p>\n<ul>\n<li>Bilingual imperative BBB/BBB</li>\n</ul>\n<p><strong><br>Asset Qualifications </strong></p>\n<ul>\n<li>Experience undertaking sectoral market analysis</li>\n<li>Experience managing financial and human resources</li>\n</ul>\n<p><strong><br>Organizational Needs</strong></p>\n<p>In support of achieving a diversified workforce, consideration may be given to candidates self-identifying as belonging to one of the following Employment Equity groups: Aboriginal peoples, Persons with a Disability; Visible Minorities, Women.</p>\n<p><strong><br>Conditions of Employment </strong></p>\n<ul>\n<li>Willingness and ability to work overtime on occasion and travel if needed.</li>\n</ul>\n<p><strong><br>Security Requirement</strong></p>\n<ul>\n<li>Security Clearance: Secret</li>\n</ul>\n<p><strong><br>Applications:</strong></p>\n<p>Interested <em>AAFC</em> employees are encouraged to forward their resume to Bridget Mowat by email at Bridget.mowat2@canada.ca</p>\n<p>Resumes must clearly identify:</p>\n<ul>\n<li>\n<p>Your tenure (e.g. term or indeterminate)</p>\n</li>\n<li>\n<p>Your substantive group and level</p>\n<p><strong>\u00a0</strong></p>\n</li>\n</ul>\n<p><strong>Notes:</strong></p>\n<ul>\n<li>\n<p>Deployments cannot change the tenure of an employee (i.e: term to indeterminate) or constitute a promotion.</p>\n</li>\n<li>\n<p>Communication for this process will be sent via email.</p>\n</li>\n</ul>\n<p>\u00a0</p>\n",
        "fr": "\n<p><strong><br>Fonctions :</strong></p>\n<p>Le poste de directeur adjoint / directrice adjointe, c\u00e9r\u00e9ales et semence, est responsable de diriger et de guider une \u00e9quipe d\u2019experts qui offrent de l\u2019information approfondie sur les march\u00e9s, de l\u2019analyse, des conseils et qui travaillent avec les intervenants sur les enjeux qui ont une incidence sur la comp\u00e9titivit\u00e9 du secteur. En offrant une expertise sectorielle, l\u2019\u00e9quipe appuie la mise en \u0153uvre de politiques, r\u00e9glementations et programmes gouvernementaux.</p>\n<p><strong><br>\u00c9noncer des crit\u00e8res de m\u00e9rite et conditions d\u2019emploi :</strong></p>\n<p><strong><br>Qualifications essentielles </strong></p>\n<p><strong><br>\u00c9tudes</strong></p>\n<ul>\n<li>Un grade d\u2019un \u00e9tablissement d\u2019enseignement postsecondaire reconnu avec une sp\u00e9cialisation acceptable en \u00e9conomie, sociologie ou statistiques.</li>\n</ul>\n<p><strong><br>Exp\u00e9rience</strong></p>\n<ul>\n<li>\n<p>Exp\u00e9rience appr\u00e9ciable* de la pr\u00e9paration de documents d'information (p. ex. rapports, sc\u00e9narios/notes d'information, pr\u00e9sentations) sur des questions complexes en vue de la prise de d\u00e9cisions par la haute direction sur les programmes, les politiques ou les enjeux.</p>\n</li>\n</ul>\n<ul>\n<li>\n<p>Exp\u00e9rience appr\u00e9ciable* de l'\u00e9tablissement et du maintien de relations de collaboration avec des intervenants internes ou externes (comme le secteur priv\u00e9, les associations industrielles, les universit\u00e9s, les groupes autochtones ou d'autres minist\u00e8res gouvernementaux).</p>\n</li>\n</ul>\n<ul>\n<li>\n<p>Exp\u00e9rience appr\u00e9ciable* de l'analyse approfondie des tendances \u00e9conomiques et industrielles relatifs \u00e0 des questions complexes dans le but de fournir des recommandations verbales et \u00e9crites \u00e0 la haute direction</p>\n</li>\n<li>\n<p>Exp\u00e9rience appr\u00e9ciable* de la prestation de conseils et de recommandations \u00e0 des cadres sup\u00e9rieurs** ou \u00e0 des ministres.</p>\n</li>\n</ul>\n<p>*L\u2019exp\u00e9rience appr\u00e9ciable se d\u00e9finit comme une exp\u00e9rience qui fait partie int\u00e9grante du travail du candidat et dont la profondeur et l\u2019\u00e9tendue \u00e9quivalent g\u00e9n\u00e9ralement \u00e0 une exp\u00e9rience minimale de deux (2) ans au cours des cinq (5) derni\u00e8res ann\u00e9es.</p>\n<p>**Un cadre sup\u00e9rieur occupe un poste de directeur(rice) ou de niveau sup\u00e9rieur.</p>\n<p>\u00a0</p>\n<p><strong>Connaissances</strong></p>\n<ul>\n<li>\n<p>Connaissance du secteur agricole et agroalimentaire du Canada et de ses priorit\u00e9s.</p>\n</li>\n<li>\n<p>Connaissance des m\u00e9thodes employ\u00e9es pour r\u00e9aliser des analyses et des recherches \u00e9conomiques</p>\n</li>\n<li>\n<p>Connaissance des initiatives et des priorit\u00e9s du gouvernement f\u00e9d\u00e9ral.</p>\n<p>\u00a0</p>\n</li>\n</ul>\n<p><strong>Capacit\u00e9s</strong></p>\n<ul>\n<li>\n<p>Capacit\u00e9 de pr\u00e9parer et de fournir des analyses des r\u00e9percussions pour les questions touchant la comp\u00e9titivit\u00e9 du secteur de l\u2019agriculture et de l\u2019agroalimentaire.</p>\n</li>\n</ul>\n<p><strong><br>Comp\u00e9tences</strong></p>\n<ul>\n<li>\n<p>R\u00e9flexion strat\u00e9gique</p>\n</li>\n<li>\n<p>R\u00e9flexion analytique</p>\n</li>\n<li>\n<p>Initiative</p>\n</li>\n<li>\n<p>Facult\u00e9 d\u2019adaptation</p>\n</li>\n<li>\n<p>Mobilisation des personnes</p>\n</li>\n<li>\n<p>Leadership d\u2019\u00e9quipe</p>\n</li>\n<li>\n<p>Communication \u00e9crite</p>\n</li>\n<li>\n<p>Communication verbale</p>\n</li>\n</ul>\n<p><strong><br>Exigences linguistiques</strong></p>\n<ul>\n<li>\n<p>Bilingue Imp\u00e9ratif BBB/BBB</p>\n</li>\n</ul>\n<p><strong><br>Qualifications constituant un atout</strong></p>\n<ul>\n<li>\n<p>Exp\u00e9rience de l\u2019analyse des march\u00e9s sectoriels.</p>\n</li>\n<li>\n<p>Exp\u00e9rience de la gestion des ressources humaines et financi\u00e8res.</p>\n</li>\n</ul>\n<p><strong><br>Besoins de l'organisation</strong></p>\n<p>Pour diversifier l\u2019effectif, on pourra examiner la candidature des personnes qui s\u2019identifient comme appartenant \u00e0 des groupes vis\u00e9s par l\u2019\u00e9quit\u00e9 en mati\u00e8re d\u2019emploi, soit les autochtones, les personnes handicap\u00e9es, les membres des minorit\u00e9s visibles et les femmes.</p>\n<p><strong><br>Conditions d'emploi</strong></p>\n<ul>\n<li>\n<p>Consentir \u00e0 faire des heures suppl\u00e9mentaires \u00e0 l\u2019occasion et \u00eatre en mesure de voyager, au besoin.</p>\n</li>\n</ul>\n<p><strong><br>Exigences de s\u00e9curit\u00e9</strong></p>\n<ul>\n<li>Cote de s\u00e9curit\u00e9 niveau secret.</li>\n</ul>\n<p><strong><br>Candidatures</strong></p>\n<p>Les employ\u00e9s d\u2019AAC int\u00e9ress\u00e9s sont invit\u00e9s \u00e0 envoyer leur curriculum vitae \u00e0 Bridget Mowat par courriel \u00e0 Bridget.Mowat2@canada.ca</p>\n<p>Les curriculum vitae doivent nettement pr\u00e9ciser :</p>\n<ul>\n<li>\n<p>votre type de poste (p. ex., \u00e0 dur\u00e9e d\u00e9termin\u00e9e ou ind\u00e9termin\u00e9e);</p>\n</li>\n<li>\n<p>la classification de votre poste d\u2019attache.</p>\n<p><strong>\u00a0</strong></p>\n</li>\n</ul>\n<p><strong>Remarques</strong></p>\n<ul>\n<li>\n<p>Une mutation ne peut servir \u00e0 modifier le type de poste d\u2019un employ\u00e9 ou d\u2019une employ\u00e9e (de dur\u00e9e d\u00e9termin\u00e9e \u00e0 dur\u00e9e ind\u00e9termin\u00e9e, etc.) ni constituer une promotion.</p>\n</li>\n<li>\n<p>Les communications relatives au processus de s\u00e9lection se feront par courriel.</p>\n</li>\n</ul>\n<p>\u00a0</p>\n\n"
    },
    "breadcrumb": {
        "en": "Deputy Director, Grains and Cereals",
        "fr": "Directeur adjoint / Directrice adjointe, c\u00e9r\u00e9ales et semence"
    },
    "empl": {
        "type": {
            "en": "Assignment, Deployment, Acting",
            "fr": "Affectation, Mutation, Int\u00e9rimaire"
        },
        "classification": {
            "en": "EC-7 and equivalent",
            "fr": "EC-7 et \u00e9quivalent"
        },
        "branch": {
            "en": "Market and Industry Services Branch",
            "fr": "Direction g\u00e9n\u00e9rale des services \u00e0 l'industrie et aux march\u00e9s"
        },
        "locations": {
            "en": "Ottawa",
            "fr": "Ottawa"
        },
        "date_closing": {
            "en": "2019-11-27",
            "fr": "2019-11-27"
        },
        "open_to": {
            "en": "All AAFC Employees",
            "fr": "Tous les employ\u00e9s d\u2019AAC"
        },
        "name": {
            "en": "Bridget Mowat",
            "fr": "Bridget Mowat"
        },
        "email": {
            "en": "bridget.mowat2@canada.ca",
            "fr": "bridget.mowat2@canada.ca"
        }
    }
}