{
    "dcr_id": "1574200288436",
    "lang": "en",
    "title": {
        "en": "Senior Policy Analyst - Strategic Development ",
        "fr": "Analyste principal(e) des politiques - D\u00e9veloppement strat\u00e9gique"
    },
    "modified": "2019-11-20 00:00:00.0",
    "issued": "2019-11-20 00:00:00.0",
    "type_name": "intra-intra/empl-empl",
    "node_id": "1279029955397",
    "layout_name": null,
    "dc_date_created": "2019-11-20",
    "breadcrumb_label": "",
    "meta": {
        "issued": {
            "en": "2019-11-20",
            "fr": "2019-11-20"
        },
        "modified": {
            "en": "2019-11-20",
            "fr": "2019-11-20"
        },
        "format": {
            "en": "gcformat",
            "fr": "gcformat"
        },
        "title": {
            "en": "Senior Policy Analyst - Strategic Development ",
            "fr": "Analyste principal(e) des politiques - D\u00e9veloppement strat\u00e9gique"
        },
        "subject": {
            "en": "staffing",
            "fr": "dotation en personnel"
        },
        "language": {
            "en": "eng",
            "fr": "fra"
        },
        "audience": {
            "en": "gcaudience",
            "fr": "gcaudience"
        },
        "type": {
            "en": "notice",
            "fr": "avis"
        },
        "creator": {
            "en": "Agriculture and Agri-Food Canada",
            "fr": "Agriculture et Agroalimentaire Canada"
        },
        "spatial": {
            "en": "gcregions",
            "fr": "gcregions"
        },
        "service": {
            "en": "AAFC_AgriSource",
            "fr": "AAC_AgriSource"
        },
        "accessRights": {
            "en": "3",
            "fr": "3"
        }
    },
    "body": {
        "en": "\n<p>\u00a0</p>\n<p>Are you interested in taking part in an ambitious plan of work to increase the competitiveness of the agri-food sector? If so, here is an opportunity that you cannot afford to pass up!</p>\n<p>As the Senior Policy Analyst in the Industry Engagement Division, you will be responsible for providing a competitiveness lens to MISB\u2019s work. This will include providing leadership in how the Department engages with the sector through vehicles such as the Value Chain Roundtables, leading on key initiatives to support greater engagement with underrepresented sectors, and coordinating the Department\u2019s participation in key events.</p>\n<p>\u00a0</p>\n<p><strong>Statement of Merit Criteria &amp; Conditions of Employment:</strong></p>\n<p><strong>\u00a0</strong></p>\n<p><strong>Essential Qualifications</strong></p>\n<p><strong>\u00a0</strong></p>\n<p><strong>Education: </strong></p>\n<p>Graduation with a degree from a recognized post-secondary institution with acceptable specialization in economics, sociology or statistics.</p>\n<p>NOTE: Candidates must always have a degree. The courses for the specialization must be acceptable and may have been taken at a recognized post-secondary institution, but not necessarily within a degree program in the required specialization. The specialization may also be obtained through an acceptable combination of education, training and/or experience.</p>\n<p>\u00a0</p>\n<p><strong>Experience:</strong></p>\n<ul>\n<li>Experience in providing strategic advice or recommendations to Senior Management (Director and above) on complex issues.</li>\n<li>Experience developing and maintaining collaborative working relationships with industry organizations.</li>\n<li>Experience collaborating with other government departments and/or agencies to advance policies that relate to the agriculture and agri-food sector.</li>\n<li>Experience preparing written documents (i.e., correspondence, briefing notes, reports, etc.), and presentation decks for senior government or industry officials.</li>\n<li>Experience analyzing current and emerging issues and formulating policy options, positions and strategies that address the needs of the agriculture and agri-food sector.</li>\n</ul>\n<p><strong>\u00a0</strong></p>\n<p><strong>Knowledge:</strong></p>\n<ul>\n<li>Knowledge of AAFC\u2019s mandate, priorities, and objectives.</li>\n</ul>\n<ul>\n<li>Knowledge of trends and policies related to the agriculture and agri-food sector.</li>\n</ul>\n<p><strong>\u00a0</strong></p>\n<p><strong>Abilities: </strong></p>\n<ul>\n<li>Ability to communicate effectively in writing.</li>\n<li>Ability to communicate effectively orally.</li>\n</ul>\n<p><strong>\u00a0</strong></p>\n<p><strong>Competencies:</strong></p>\n<ul>\n<li>Strategic Thinking</li>\n<li>Initiative</li>\n<li>Adaptability</li>\n<li>Teamwork</li>\n<li>Relationship Building</li>\n<li>Judgement</li>\n</ul>\n<p><strong>\u00a0</strong></p>\n<p><strong>Language Requirements:</strong></p>\n<ul>\n<li>English Essential</li>\n</ul>\n<p><strong>\u00a0</strong></p>\n<p><strong>Asset Qualifications:</strong></p>\n<ul>\n<li>Master\u2019s Degree with a specialization in economics, sociology or statistics.</li>\n</ul>\n<p>\u00a0</p>\n<p><strong>Organizational Needs</strong></p>\n<p>In support of achieving a diversified workforce, consideration may be given to candidates self-identifying as belonging to one of the following Employment Equity groups: Aboriginal peoples, Persons with a Disability; Visible Minorities, Women.</p>\n<p>\u00a0</p>\n<p><strong>Conditions of Employment</strong><strong> </strong></p>\n<p>Security Requirement(s): Secret</p>\n<p>Ability and Willingness to work overtime.</p>\n<p>Ability and Willingness to travel.</p>\n<p>\u00a0</p>\n<p><strong>Applications:</strong></p>\n<p>Interested AAFC employees are encouraged to forward their resume and cover letter to Anne-Christine Poulin at anne-christine.poulin@canada.ca. Candidates must clearly demonstrate in their cover letter how they meet the essential qualifications of the position.</p>\n<p>Resumes must clearly identify:</p>\n<ul>\n<li>\n<p>Your tenure (e.g. term or indeterminate);</p>\n</li>\n<li>\n<p>Your substantive group and level;</p>\n</li>\n<li>\n<p>Names and contact info for 3 references, including your current supervisor.</p>\n</li>\n</ul>\n<p><strong>\u00a0</strong></p>\n<p><strong>Notes:</strong></p>\n<ul>\n<li>\n<p>Candidates must have their manager\u2019s approval prior to applying for this opportunity.</p>\n</li>\n<li>\n<p>Deployments cannot change the tenure of an employee (i.e.,: term to indeterminate) or constitute a promotion.</p>\n</li>\n<li>\n<p>Communication for this process will be sent via email.</p>\n</li>\n<li>\n<p>A pool of qualified candidates may be established and may be used to staff similar positions on an acting, assignment or deployment basis.</p>\n</li>\n</ul>\n<p>\u00a0</p>\n",
        "fr": "\n<p>\u00a0</p>\n<p>\u00cates-vous int\u00e9ress\u00e9 \u00e0 prendre part \u00e0 un plan de travail ambitieux pour accro\u00eetre la comp\u00e9titivit\u00e9 du secteur agroalimentaire ? Si oui, voici une opportunit\u00e9 que vous ne pouvez pas vous permettre de laisser passer !</p>\n<p>En tant qu\u2019analyste principale des politiques au sein de la Division de l'engagement de l'industrie, vous aurez la responsabilit\u00e9 de fournir une perspective de comp\u00e9titivit\u00e9 au travail de la DGSIM. Cela inclut insuffler un leadership dans la fa\u00e7on dont le Minist\u00e8re collabore avec le secteur par l'entremise de m\u00e9canismes comme les tables rondes sur les cha\u00eenes de valeur, diriger des initiatives cl\u00e9s visant \u00e0 appuyer un engagement accru aupr\u00e8s des secteurs sous-repr\u00e9sent\u00e9s et coordonner la participation du minist\u00e8re dans des \u00e9v\u00e9nements d\u2019envergure.</p>\n<p>\u00a0</p>\n<p><strong>\u00c9noncer des crit\u00e8res de m\u00e9rite et conditions d\u2019emploi : </strong></p>\n<p><strong>\u00a0</strong></p>\n<p><strong>Qualifications essentielles </strong></p>\n<p><strong>\u00a0</strong></p>\n<p><strong>\u00c9ducation </strong>:</p>\n<p>Dipl\u00f4me d'un \u00e9tablissement d'enseignement postsecondaire reconnu avec sp\u00e9cialisation acceptable en \u00e9conomie, en sociologie ou en statistique.</p>\n<p>Note : Les candidats doivent toujours \u00eatre titulaires d'un dipl\u00f4me. Les cours de sp\u00e9cialisation doivent \u00eatre acceptables et peuvent avoir \u00e9t\u00e9 suivis dans un \u00e9tablissement d'enseignement postsecondaire reconnu, mais pas n\u00e9cessairement dans le cadre d'un programme menant \u00e0 un grade dans la sp\u00e9cialisation requise. La sp\u00e9cialisation peut \u00e9galement \u00eatre obtenue par une combinaison acceptable d'\u00e9tudes, de formation et/ou d'exp\u00e9rience.</p>\n<p>\u00a0</p>\n<p><strong>Exp\u00e9riences :</strong></p>\n<ul>\n<li>\n<p>Exp\u00e9rience de la prestation de conseils ou de recommandations strat\u00e9giques \u00e0 la haute direction (directeur et fonctionnaires de rang sup\u00e9rieur) sur des questions complexes.</p>\n</li>\n<li>\n<p>Exp\u00e9rience de l'\u00e9tablissement et du maintien de relations de travail en collaboration avec des organisations de l'industrie.</p>\n</li>\n<li>\n<p>Exp\u00e9rience de collaboration avec d'autres minist\u00e8res et organismes gouvernementaux pour faire progresser les politiques ou les r\u00e8glements li\u00e9s au secteur agricole et agroalimentaire.</p>\n</li>\n<li>\n<p>Exp\u00e9rience de la pr\u00e9paration de documents \u00e9crits (correspondance, notes d'information, rapports, etc.) et de documents de pr\u00e9sentation \u00e0 l'intention de hauts fonctionnaires ou de repr\u00e9sentants de l'industrie.</p>\n</li>\n<li>\n<p>Exp\u00e9rience de l'analyse des enjeux actuels et \u00e9mergents et de la formulation d'options strat\u00e9giques, de positions et de strat\u00e9gies qui r\u00e9pondent aux besoins du secteur agricole et agroalimentaire.</p>\n</li>\n</ul>\n<p><strong>\u00a0</strong></p>\n<p><strong>Connaissances : </strong></p>\n<ul>\n<li>\n<p>Connaissance du mandat, des priorit\u00e9s et des objectifs d\u2019AAC.</p>\n</li>\n<li>\n<p>Connaissance des tendances et politiques li\u00e9es au secteur de l\u2019agriculture et de l\u2019agroalimentaire.</p>\n</li>\n</ul>\n<p><strong>\u00a0</strong></p>\n<p><strong>Capacit\u00e9s :</strong></p>\n<ul>\n<li>\n<p>Capacit\u00e9 en r\u00e9daction.</p>\n</li>\n<li>\n<p>Capacit\u00e9 en communication orale.</p>\n</li>\n</ul>\n<p><strong>\u00a0</strong></p>\n<p><strong>Comp\u00e9tences :</strong></p>\n<ul>\n<li>\n<p>R\u00e9flexion analytique</p>\n</li>\n<li>\n<p>Initiative</p>\n</li>\n<li>\n<p>Capacit\u00e9 d\u2019adaptation</p>\n</li>\n<li>\n<p>Esprit d\u2019\u00e9quipe</p>\n</li>\n<li>\n<p>\u00c9tablissement de relations</p>\n</li>\n<li>\n<p>Jugement</p>\n</li>\n</ul>\n<p><strong>\u00a0</strong></p>\n<p><strong>Exigences linguistiques : </strong></p>\n<ul>\n<li>Anglais essentiel</li>\n</ul>\n<p><strong>\u00a0</strong></p>\n<p><strong>Qualifications constituant un atout :</strong></p>\n<ul>\n<li>Ma\u00eetrise d'un \u00e9tablissement d'enseignement postsecondaire reconnu avec sp\u00e9cialisation en \u00e9conomie, sociologie ou statistique.</li>\n</ul>\n<p>\u00a0</p>\n<p><strong>Besoins de l'organisation</strong></p>\n<p>Pour diversifier l\u2019effectif, on pourra examiner la candidature des personnes qui s\u2019identifient comme appartenant \u00e0 des groupes vis\u00e9s par l\u2019\u00e9quit\u00e9 en mati\u00e8re d\u2019emploi, soit les autochtones, les personnes handicap\u00e9es, les membres des minorit\u00e9s visibles et les femmes.</p>\n<p>\u00a0</p>\n<p><strong>Conditions d'emploi</strong></p>\n<p>Autorisation s\u00e9curitaire Secret</p>\n<p>Consentir et \u00eatre apte \u00e0 faire des heures suppl\u00e9mentaires.<br>\nConsentir et \u00eatre apte \u00e0 voyager.</p>\n<p>\u00a0</p>\n<p><strong>Candidatures</strong></p>\n<p>Les employ\u00e9s d\u2019Agriculture et agroalimentaire Canada int\u00e9ress\u00e9s sont invit\u00e9s \u00e0 transmettre leur curriculum vitae ainsi qu'un lettre de pr\u00e9sentation \u00e0 l\u2019intention d\u2019Anne-Christine Poulin \u00e0 anne-christine.poulin@canada.ca. Dans leur lettre de pr\u00e9sentation, les candidats doivent clairement d\u00e9montrer qu\u2019ils poss\u00e8dent les qualifications essentielles susmentionn\u00e9es.</p>\n<p>Dans votre curriculum vitae, veuillez inclure les donn\u00e9es suivantes:</p>\n<ul>\n<li>\n<p>le type de poste occup\u00e9 (p. ex. dur\u00e9e d\u00e9termin\u00e9e ou ind\u00e9termin\u00e9e);</p>\n</li>\n<li>\n<p>le groupe et le niveau de titularisation;<br>\n\tcote de s\u00e9curit\u00e9;</p>\n</li>\n<li>\n<p>le nom de trois (3) r\u00e9f\u00e9rences, y compris celui de votre superviseur actuel.</p>\n</li>\n</ul>\n<p><strong>\u00a0</strong></p>\n<p><strong>Remarques</strong></p>\n<ul>\n<li>\n<p>Les personnes int\u00e9ress\u00e9es doivent obtenir l\u2019approbation de leur gestionnaire avant de poser leur candidature.</p>\n</li>\n<li>\n<p>Une mutation ne peuvent servir \u00e0 modifier le type de poste d\u2019un employ\u00e9 ou d\u2019une employ\u00e9e (de dur\u00e9e d\u00e9termin\u00e9e \u00e0 dur\u00e9e ind\u00e9termin\u00e9e, etc.) ni constituer une promotion.</p>\n</li>\n<li>\n<p>Les communications relatives au processus de s\u00e9lection se feront par courriel.</p>\n</li>\n<li>\n<p>Un bassin de candidats qualifi\u00e9s pourra \u00eatre cr\u00e9\u00e9 et pourra servir \u00e0 doter des postes semblables sur une base int\u00e9rimaire, d\u2019affectation ou de mutation.</p>\n</li>\n</ul>\n<p>\u00a0</p>\n<ul>\n</ul>\n\n"
    },
    "breadcrumb": {
        "en": "Senior Policy Analyst - Strategic Development",
        "fr": "Analyste principal(e) des politiques - D\u00e9veloppement strat\u00e9gique"
    },
    "empl": {
        "type": {
            "en": "Assignment, Acting",
            "fr": "Affectation, Int\u00e9rimaire"
        },
        "classification": {
            "en": "EC-6 and equivalent",
            "fr": "EC-6 et \u00e9quivalent"
        },
        "branch": {
            "en": "Market and Industry Services Branch",
            "fr": "Direction g\u00e9n\u00e9rale des services \u00e0 l'industrie et aux march\u00e9s"
        },
        "locations": {
            "en": "Ottawa, Ontario",
            "fr": "Ottawa, Ontario"
        },
        "date_closing": {
            "en": "2019-12-06",
            "fr": "2019-12-06"
        },
        "open_to": {
            "en": "All AAFC Employees in the NCR",
            "fr": "Tous les employ\u00e9(e)s d\u2019Agriculture et Agroalimentaire Canada dans la RCN"
        },
        "name": {
            "en": "Anne-Christine Poulin",
            "fr": "Anne-Christine Poulin"
        },
        "email": {
            "en": "anne-christine.poulin@canada.ca",
            "fr": "anne-christine.poulin@canada.ca"
        }
    }
}