{
    "dcr_id": "1574809357414",
    "lang": "en",
    "title": {
        "en": "Trade Commissioner Analyst ",
        "fr": "Analyste aux d\u00e9l\u00e9gu\u00e9s commerciaux"
    },
    "modified": "2019-11-28 00:00:00.0",
    "issued": "2019-11-27 00:00:00.0",
    "type_name": "intra-intra/empl-empl",
    "node_id": "1279029955397",
    "layout_name": null,
    "dc_date_created": "2019-11-27",
    "breadcrumb_label": "",
    "meta": {
        "issued": {
            "en": "2019-11-27",
            "fr": "2019-11-27"
        },
        "modified": {
            "en": "2019-11-28",
            "fr": "2019-11-28"
        },
        "format": {
            "en": "gcformat",
            "fr": "gcformat"
        },
        "title": {
            "en": "Trade Commissioner Analyst ",
            "fr": "Analyste aux d\u00e9l\u00e9gu\u00e9s commerciaux"
        },
        "subject": {
            "en": "staffing",
            "fr": "dotation en personnel"
        },
        "language": {
            "en": "eng",
            "fr": "fra"
        },
        "audience": {
            "en": "gcaudience",
            "fr": "gcaudience"
        },
        "type": {
            "en": "notice",
            "fr": "avis"
        },
        "creator": {
            "en": "Agriculture and Agri-Food Canada",
            "fr": "Agriculture et Agroalimentaire Canada"
        },
        "spatial": {
            "en": "gcregions",
            "fr": "gcregions"
        },
        "service": {
            "en": "AAFC_AgriSource",
            "fr": "AAC_AgriSource"
        },
        "accessRights": {
            "en": "3",
            "fr": "3"
        }
    },
    "body": {
        "en": "\n<p>\u00a0</p>\n<p>The Horizontal Strategic Initiatives (HSI) team of the AAFC/CFIA International Affairs Branch is looking for a trade commissioner analyst to manage the AAFC\u2019s Trade Commissioner Service and CFIA\u2019s Technical Specialist Abroad Program. This joint AAFC/CFIA platform includes more than 50 positions in Canadian embassies and/or consulates around the world, and provides support to the agriculture and agri-food sector internationally and complements the larger network of Global Affairs Canada (GAC) trade commissioners. Working in close collaboration with GAC, the successful candidate will work on managing financial and human resources, communication activities, as well as providing strategic advice on various policy files.</p>\n<p>The HSI team is looking for a highly motivated individual who will be able to:</p>\n<p>- Develop and maintain collaborative relationship with stakeholders, including other government departments (OGDs)</p>\n<p>- Analyze current policy and/or economic trends to address the needs of the agriculture and agri-food sector</p>\n<p>- Provide advice and/or recommendations to senior management (director level and above)</p>\n<p>\u00a0</p>\n<p>Interested? Please send your resume to Nadia Gagnon (Nadia.Gagnon@canada.ca) and a cover letter highlighting why you are the best candidate for this position.</p>\n<p>\u00a0</p>\n<p>Language Requirement: Bilingual imperative BBB/BBB</p>\n<p>\u00a0</p>\n<p><strong>Competencies</strong></p>\n<p>Strategic Thinking</p>\n<p>Analytical Thinking<br>\nInitiative<br>\nAdaptability<br>\nWritten Communication<br>\nOral communication</p>\n<p>\u00a0</p>\n<p><strong>Resumes must clearly identify:</strong></p>\n<p>\u2022 Your tenure (e.g. term or indeterminate)</p>\n<p>\u2022 Your substantive group and level</p>\n<ul>\n<li>Linguistic profile (your SLE results)</li>\n</ul>\n<p>\u00a0</p>\n<p><b>Note</b>:</p>\n<ul>\n<li>\n<p>Condition of employment: Willingness and ability to work overtime, as required</p>\n</li>\n<li>\n<p>Prior approval from your manager must be obtained to be considered for an assignment</p>\n</li>\n<li>\n<p>Please provide two references with your application including your most current supervisor</p>\n</li>\n</ul>\n<p>\u00a0</p>\n",
        "fr": "\n<p>\u00a0</p>\n<p>L\u2019\u00e9quipe des initiatives horizontale strat\u00e9giques (IHS) de la Direction des affaires internationales d\u2019AAC / ACIA est \u00e0 la recherche un (e) analyste aux d\u00e9l\u00e9gu\u00e9s commerciaux pour g\u00e9rer le Service des d\u00e9l\u00e9gu\u00e9s commerciaux d\u2019AAC et le programme de sp\u00e9cialistes techniques \u00e0 l\u2019\u00e9tranger de l\u2019ACIA. Cette plateforme conjointe AAC / ACIA comprend plus de 50 postes dans des ambassades et / ou des consulats canadiens dans le monde entier. Ces d\u00e9l\u00e9gu\u00e9s commerciaux et sp\u00e9cialistes techniques \u00e0 l\u2019\u00e9tranger apportent leur soutien au secteur agricole et agroalimentaire \u00e0 l'\u00e9chelle internationale et compl\u00e8te le r\u00e9seau plus vaste de d\u00e9l\u00e9gu\u00e9s commerciaux d'Affaires mondiales Canada (AMC). Travaillant en \u00e9troite collaboration avec l\u2019AMC, le candidat retenu travaillera \u00e0 la gestion des ressources financi\u00e8res et humaines, aux activit\u00e9s de communication, et fournira des conseils strat\u00e9giques sur divers dossiers reli\u00e9s aux politiques.</p>\n<p>L'\u00e9quipe ISH \u00a0recherche une personne tr\u00e8s motiv\u00e9e qui sera capable de:</p>\n<ul>\n<li>\n<p>D\u00e9velopper et maintenir des relations de collaboration avec les partenaires, y compris les autres minist\u00e8res</p>\n</li>\n<li>\n<p>Analyser les tendances politiques et / ou \u00e9conomiques actuelles pour r\u00e9pondre aux besoins du secteur de l'agriculture et de l'agroalimentaire</p>\n</li>\n<li>\n<p>Fournir des conseils et / ou des recommandations \u00e0 la direction (directeur et fonctionnaires de rang sup\u00e9rieur)</p>\n</li>\n</ul>\n<p>Int\u00e9ress\u00e9 (e) ? Veuillez envoyer votre CV \u00e0 Nadia Gagnon (Nadia.Gagnon@canada.ca) et une lettre d'accompagnement expliquant pourquoi vous \u00eates le meilleur candidat pour ce poste.</p>\n<p>\u00a0</p>\n<p>Language Requirement: Bilingual imperative BBB/BBB</p>\n<p>\u00a0</p>\n<p><strong>Comp\u00e9tences</strong></p>\n<ul>\n<li>\n<p>R\u00e9flexion strat\u00e9gique</p>\n</li>\n<li>\n<p>Pens\u00e9e analytique</p>\n</li>\n<li>\n<p>Initiative</p>\n</li>\n<li>\n<p>Adaptabilit\u00e9</p>\n</li>\n<li>\n<p>Communication \u00e9crite</p>\n</li>\n<li>\n<p>Communication orale</p>\n</li>\n</ul>\n<ul>\n</ul>\n<p><b>Votre curriculum vitae doit clairement identifier</b>:</p>\n<ul>\n<li>\n<p>votre type de poste (p. ex., \u00e0 dur\u00e9e d\u00e9termin\u00e9e ou ind\u00e9termin\u00e9e)</p>\n</li>\n<li>\n<p>la classification de votre poste d\u2019attache</p>\n</li>\n<li>\n<p>Profil linguistique (vos r\u00e9sultats d\u2019\u00c9LS)</p>\n</li>\n</ul>\n<p>\u00a0</p>\n<p><b>Remarque</b>:</p>\n<ul>\n<li>\n<p>Conditions d\u2019emplois : Volont\u00e9 et capacit\u00e9 de faire des heures suppl\u00e9mentaires, au besoin.</p>\n</li>\n<li>\n<p>L'approbation pr\u00e9alable de votre gestionnaire doit \u00eatre obtenue pour l\u2019affectation afin que votre candidature soit prise en compte.</p>\n</li>\n<li>\n<p>Veuillez fournir deux r\u00e9f\u00e9rences avec votre candidature, y compris votre superviseur le plus r\u00e9cent</p>\n</li>\n</ul>\n<p>\u00a0</p>\n\n"
    },
    "breadcrumb": {
        "en": "Trade Commissioner Analyst",
        "fr": "Analyste aux d\u00e9l\u00e9gu\u00e9s commerciaux"
    },
    "empl": {
        "type": {
            "en": "Assignment, Deployment",
            "fr": "Affectation, Mutation"
        },
        "classification": {
            "en": "EC-6, EC-5 and equivalent",
            "fr": "EC-6, EC-5 et \u00e9quivalent"
        },
        "branch": {
            "en": "Market and Industry Services Branch",
            "fr": "Direction g\u00e9n\u00e9rale des services \u00e0 l'industrie et aux march\u00e9s"
        },
        "locations": {
            "en": "Ottawa",
            "fr": "Ottawa"
        },
        "date_closing": {
            "en": "2019-12-12",
            "fr": "2019-12-12"
        },
        "open_to": {
            "en": "Employees of Agriculture and Agri-Food Canada in the NCR",
            "fr": "Employ\u00e9s d'Agriculture et Agroalimentaire Canada dans la RCN"
        },
        "name": {
            "en": "Nadia Gagnon",
            "fr": "Nadia Gagnon"
        },
        "email": {
            "en": "Nadia.Gagnon@canada.ca",
            "fr": "Nadia.Gagnon@canada.ca"
        }
    }
}