{
    "dcr_id": "1575982482840",
    "lang": "en",
    "title": {
        "en": "Senior Advisor",
        "fr": "Conseiller(e) principale"
    },
    "modified": "2019-12-12 00:00:00.0",
    "issued": "2019-12-10 00:00:00.0",
    "type_name": "intra-intra/empl-empl",
    "node_id": "1279029955397",
    "layout_name": null,
    "dc_date_created": "2019-12-10",
    "breadcrumb_label": "",
    "meta": {
        "issued": {
            "en": "2019-12-10",
            "fr": "2019-12-10"
        },
        "modified": {
            "en": "2019-12-12",
            "fr": "2019-12-12"
        },
        "format": {
            "en": "gcformat",
            "fr": "gcformat"
        },
        "title": {
            "en": "Senior Advisor",
            "fr": "Conseiller(e) principale"
        },
        "subject": {
            "en": "staffing",
            "fr": "dotation en personnel"
        },
        "language": {
            "en": "eng",
            "fr": "fra"
        },
        "audience": {
            "en": "gcaudience",
            "fr": "gcaudience"
        },
        "type": {
            "en": "notice",
            "fr": "avis"
        },
        "creator": {
            "en": "Agriculture and Agri-Food Canada",
            "fr": "Agriculture et Agroalimentaire Canada"
        },
        "spatial": {
            "en": "gcregions",
            "fr": "gcregions"
        },
        "service": {
            "en": "AAFC_AgriSource",
            "fr": "AAC_AgriSource"
        },
        "accessRights": {
            "en": "3",
            "fr": "3"
        }
    },
    "body": {
        "en": "\n<p>The office of the Assistant Deputy Minister, Corporate Management Branch, is a dynamic and fast-paced work environment. We are looking for someone with strong communication, interpersonal and analytical skills who is interested in learning about corporate management at AAFC. We also require a candidate who holds valid SLE results of CBC/CBC.<br>\n<br>\nThe Senior Advisor is a key member of the management team and provides direct support to the Assistant Deputy Minister by:<br>\n<br>\n- Providing written and verbal analysis, advice and recommendations to the ADM and her management team on a broad range of horizontal, policy and operational issues;<br>\n- Liaising with the CMB management on a wide-range of sensitive issues, including human resources, security and labour relations.<br>\n- Developing and coordinating briefing material for senior official discussions;<br>\n- Liaising with the offices of other senior AAFC and portfolio officials, including the Deputy Minister\u2019s office, on the delivery of AAFC corporate services and programs.</p>\n<p>\u00a0</p>\n<p>Interested AAFC employees are encouraged to forward their resume and cover letter to Matthew Enticknap at<em> </em><em><a href=\"mailto:matthew.enticknap@canada.ca\">matthew.enticknap@canada.ca</a>. </em></p>\n<p>Resumes must clearly identify:</p>\n<ul>\n<li>\n<p>Your tenure (e.g. term or indeterminate)</p>\n</li>\n<li>\n<p>Your substantive group and level</p>\n</li>\n<li>\n<p>Current SLE level and validity of results</p>\n<p>\u00a0</p>\n</li>\n</ul>\n",
        "fr": "\n<p>Le bureau du sous\u2011ministre adjoint de la Direction g\u00e9n\u00e9rale de la gestion int\u00e9gr\u00e9e est un milieu de travail dynamique au rythme de travail soutenu. Nous sommes \u00e0 la recherche d\u2019un candidat poss\u00e9dant un excellent sens de la communication, en relations interpersonnelles et une solide capacit\u00e9 d\u2019analyse qui souhaite en apprendre davantage sur la gestion int\u00e9gr\u00e9e \u00e0 AAC. Nous avons \u00e9galement besoin d'un candidat qui d\u00e9tient des r\u00e9sultats d'ELS valides au niveau de CBC/CBC.</p>\n<p>Le conseiller principal est un membre important de l\u2019\u00e9quipe de gestion et il apporte un soutien direct au sous\u2011ministre adjointe en s\u2019acquittant des t\u00e2ches qui suivent :</p>\n<p>- Fournir par \u00e9crit et de vive voix des analyses, des conseils et des recommandations \u00e0 la SMA et \u00e0 son \u00e9quipe de gestion sur une vaste gamme de questions horizontales, strat\u00e9giques et op\u00e9rationnelles;</p>\n<p>- Assurer la liaison avec la direction de la DGGI dans divers dossiers sensibles, comme les ressources humaines, la s\u00e9curit\u00e9 et les relations de travail.<br>\n- \u00c9laborer des documents d\u2019information \u00e0 l\u2019intention des cadres sup\u00e9rieurs et en assurer la coordination.</p>\n<p>- Assurer la liaison avec les bureaux d\u2019autres cadres sup\u00e9rieurs d\u2019AAC et du portefeuille, y compris le bureau du sous-ministre, en ce qui concerne la prestation des programmes et services int\u00e9gr\u00e9s d\u2019AAC.</p>\n<p>\u00a0</p>\n<p>Les employ\u00e9s d\u2019AAC que cette possibilit\u00e9 int\u00e9resse sont invit\u00e9s \u00e0 transmettre leur curriculum vitae et leur lettre de pr\u00e9sentation \u00e0 Matthew Enticknap \u00e0<em> <a href=\"mailto:matthew.enticknap@canada.ca\">matthew.enticknap@canada.ca</a>. </em></p>\n<p>Votre curriculum vitae doit comprendre les renseignements suivants :</p>\n<ul>\n<li>\n<p>Votre p\u00e9riode d\u2019affectation (c.-\u00e0-d. d\u00e9termin\u00e9e ou ind\u00e9termin\u00e9e)</p>\n</li>\n<li>\n<p>Le groupe et le niveau de votre poste d\u2019attache</p>\n</li>\n<li>\n<p>Vos r\u00e9sultats courants \u00e0 l\u2019ELS et leur validit\u00e9</p>\n</li>\n</ul>\n<p>\u00a0</p>\n\n"
    },
    "breadcrumb": {
        "en": "Senior Advisor",
        "fr": "Conseiller(e) principale"
    },
    "empl": {
        "type": {
            "en": "Assignment, Acting",
            "fr": "Affectation, Int\u00e9rimaire"
        },
        "classification": {
            "en": "AS-7 and equivalent",
            "fr": "AS-7 et \u00e9quivalent"
        },
        "branch": {
            "en": "Corporate Management Branch",
            "fr": "Gestion int\u00e9gr\u00e9e"
        },
        "locations": {
            "en": "NCR - 1341 Baseline",
            "fr": "RCN - 1341 Baseline"
        },
        "date_closing": {
            "en": "2019-12-20",
            "fr": "2019-12-20"
        },
        "open_to": {
            "en": "All AAFC employees in the NCR occupying a substantive position at the EX minus 1 or EX minus 2",
            "fr": "Tous les employ\u00e9s d'AAC dans la RCN qui occupent un poste d'attache de niveau EX moins 1 ou EX moins 2"
        },
        "name": {
            "en": "Matthew Enticknap",
            "fr": "Matthew Enticknap"
        },
        "email": {
            "en": "matthew.enticknap@canada.ca",
            "fr": "matthew.enticknap@canada.ca"
        }
    }
}