{
    "dcr_id": "1578423684378",
    "lang": "en",
    "title": {
        "en": "Senior Industry Development Officer - Northwestern Departmental Regional Office ",
        "fr": "Agent principal/Agente principale de d\u00e9veloppement de l\u2019industrie  - Bureau r\u00e9gional du Nord-Ouest"
    },
    "modified": "2020-01-09 00:00:00.0",
    "issued": "2020-01-09 00:00:00.0",
    "type_name": "intra-intra/empl-empl",
    "node_id": "1279029955397",
    "layout_name": null,
    "dc_date_created": "2020-01-08",
    "breadcrumb_label": "",
    "meta": {
        "issued": {
            "en": "2020-01-09",
            "fr": "2020-01-09"
        },
        "modified": {
            "en": "2020-01-09",
            "fr": "2020-01-09"
        },
        "format": {
            "en": "gcformat",
            "fr": "gcformat"
        },
        "title": {
            "en": "Senior Industry Development Officer - Northwestern Departmental Regional Office ",
            "fr": "Agent principal/Agente principale de d\u00e9veloppement de l\u2019industrie  - Bureau r\u00e9gional du Nord-Ouest"
        },
        "subject": {
            "en": "staffing",
            "fr": "dotation en personnel"
        },
        "language": {
            "en": "eng",
            "fr": "fra"
        },
        "audience": {
            "en": "gcaudience",
            "fr": "gcaudience"
        },
        "type": {
            "en": "notice",
            "fr": "avis"
        },
        "creator": {
            "en": "Agriculture and Agri-Food Canada",
            "fr": "Agriculture et Agroalimentaire Canada"
        },
        "spatial": {
            "en": "gcregions",
            "fr": "gcregions"
        },
        "service": {
            "en": "AAFC_AgriSource",
            "fr": "AAC_AgriSource"
        },
        "accessRights": {
            "en": "3",
            "fr": "3"
        }
    },
    "body": {
        "en": "\n<p><br>AAFC\u2019s Northwestern Departmental Regional Office is seeking expressions of interest for a 12-month acting or assignment opportunity as a Senior Industry Development Officer (CO-02) in both Burnaby, BC and Edmonton, AB. While our current need is for two 12-month backfill assignments, we are also interested in identifying AAFC employees with an interest in any future deployment opportunities to the Region.</p>\n<p>As a Senior Industry Development Officer at AAFC, you will work directly with stakeholders in the agriculture, agri-food and seafood sectors by connecting them to government programs and services and by providing them with market information and key contacts to help them export their products abroad. You will also be responsible for attending industry events, like AGMs and conferences, and conducting outreach to farmers, food processors and agriculture-related companies. The industry intelligence you gather at these meetings will be used to prepare various briefing products, evaluate project proposals, and provide program feedback to headquarters. As well, you will work directly with the provincial government, other federal departments, and third party agencies on the delivery of government programs.</p>\n<p>\u00a0</p>\n<p><strong>Statement of Merit Criteria &amp; Conditions of Employment</strong></p>\n<p>\u00a0</p>\n<p><strong>Essential Qualifications</strong></p>\n<p><strong><br>Education </strong><br>\nGraduation with a degree from a recognized post-secondary institution with acceptable specialization in one of the following areas: administration, economics, agro-economics, agronomy, marketing or commerce; or an acceptable combination of education, training and/or experience.<br>\n<br>\n<strong><br>Experience</strong></p>\n<p>Recent and significant* experience in preparing briefing materials (e.g., reports, scenario/ briefing notes, presentations, meeting agendas, annotated agendas and meeting summaries) on complex issues for decision-making to senior management.<br>\n<br>\nRecent and significant* experience developing and maintaining collaborative relationships with internal or external stakeholders (such as private sector, industry associations, academia, Indigenous groups or other government departments).<br>\n<br>\nRecent and significant* experience in undertaking in-depth analysis of economic or industry trends relating to complex issues for the purpose of providing reports to senior management.<br>\n<br>\n* Recent and significant is defined as the depth and breadth associated with the performance of duties normally accumulated over a period of approximately two years, within the last five years.</p>\n<p><strong><br>Abilities:</strong></p>\n<p>\nAbility to communicate effectively in writing.</p>\n<p>Ability to communicate effectively orally.</p>\n<p>Ability to work under pressure to meet tight deadlines.</p>\n<p>\u00a0</p>\n<p><strong>Competencies: </strong></p>\n<p>Adaptability</p>\n<p>Initiative</p>\n<p>Relationship building</p>\n<p>Teamwork</p>\n<p>Strategic Thinking</p>\n<p>\u00a0</p>\n<p><strong>Official Language Requirements </strong></p>\n<p>English Essential</p>\n<p>\u00a0</p>\n<p><strong>Conditions of Employment:</strong></p>\n<p>Reliability and Security: Reliability Status</p>\n<p>Possession of a valid driver's license or personal mobility to the extent normally associated with the possession of a valid driver's license.</p>\n<p>Willingness to work overtime on short notice.</p>\n<p>Willingness to travel.</p>\n<p>\u00a0</p>\n<p><strong>Organizational Needs</strong></p>\n<p>In support of achieving a diversified workforce, consideration may be given to candidates self-identifying as belonging to one of the following Employment Equity groups: Aboriginal peoples, Persons with a Disability; Visible Minorities, Women.</p>\n<p>\u00a0</p>\n<p><strong>Applications: </strong><br>\nInterested AAFC employees are encouraged to forward their resume and cover letter highlighting why they feel they are the best candidate for this position to Andrea Wenham (BC) at andrea.wenham@canada.ca or Cheryl McClellan-Moody (AB) at cheryl.mcclellan-moody@canada.ca</p>\n<p>Your cover letter or resume must clearly identify:</p>\n<ul>\n<li>Your tenure (e.g. term or indeterminate)</li>\n<li>Your substantive group and level</li>\n</ul>\n<p>\u00a0</p>\n<p><strong>Notes: </strong></p>\n<ul>\n<li>Communication for this process will be sent via email.</li>\n<li>A pool of qualified candidates may be established and may be used to staff similar positions on an acting, assignment or deployment basis.</li>\n</ul>\n<p>\u00a0</p>\n",
        "fr": "\n<p><br>Le bureau r\u00e9gional du Nord-Ouest d\u2019AAC invite les personnes int\u00e9ress\u00e9es \u00e0 lui soumettre une d\u00e9claration d\u2019int\u00e9r\u00eat en vue d\u2019une nomination int\u00e9rimaire ou d\u2019une affectation de 12 mois \u00e0 titre d\u2019Agent principal/Agente principale de d\u00e9veloppement de l\u2019industrie (CO-02) \u00e0 Burnaby, en Colombie-Britannique et \u00e0 Edmonton, en Alberta. Bien que nous ayons actuellement besoin de deux affectations de 12 mois pour des remplacements, nous souhaitons \u00e9galement identifier les employ\u00e9s d'AAC qui s'int\u00e9ressent \u00e0 toute possibilit\u00e9 de mutation futur dans la r\u00e9gion.</p>\n<p>\u00c0 titre d\u2019Agent principal/Agente principale de d\u00e9veloppement de l\u2019industrie \u00e0 AAC, vous travaillerez directement avec des intervenants du secteur agricole et agroalimentaire et du secteur des produits de la mer. Vous les aiguillerez vers des programmes et services gouvernementaux et leur fournirez des renseignements sur les march\u00e9s et des ressources cl\u00e9s pour les aider \u00e0 exporter leurs produits. Vous devrez aussi assister \u00e0 des \u00e9v\u00e9nements dans l\u2019industrie, comme les AGA et les conf\u00e9rences, et mener des activit\u00e9s de liaison avec des agriculteurs, des transformateurs d\u2019aliments et des entreprises li\u00e9es \u00e0 l\u2019agriculture. Les renseignements recueillis aupr\u00e8s de l\u2019industrie lors de ces r\u00e9unions serviront \u00e0 pr\u00e9parer divers produits d\u2019information, \u00e0 \u00e9valuer des propositions de projets et \u00e0 fournir \u00e0 l\u2019administration centrale une r\u00e9troaction sur les programmes. De plus, vous collaborerez directement avec le gouvernement provincial, d\u2019autres minist\u00e8res f\u00e9d\u00e9raux et des organismes tiers \u00e0 l\u2019ex\u00e9cution des programmes gouvernementaux.</p>\n<p>\u00a0</p>\n<p><strong>\u00c9nonc\u00e9 des crit\u00e8res de m\u00e9rite et conditions d\u2019emploi </strong></p>\n<p><br>\n<strong><strong>Qualifications essentielles</strong></strong></p>\n<p><br>\n<strong>\u00c9tudes</strong><br>\nUn grade d\u2019un \u00e9tablissement d\u2019enseignement postsecondaire reconnu avec sp\u00e9cialisation acceptable dans un des domaines suivants: administration, \u00e9conomie, agro\u00e9conomie, agronomie, marketing ou commerce; ou combinaison acceptable d\u2019\u00e9tudes, de formation et/ou d\u2019exp\u00e9rience.<br>\n<br>\n<strong><br>Exp\u00e9rience</strong></p>\n<p>Exp\u00e9rience r\u00e9cente et appr\u00e9ciable* de la pr\u00e9paration de documents d'information (p. ex. rapports, sc\u00e9narios/notes d'information, pr\u00e9sentations, ordres du jour des r\u00e9unions, ordres du jour annot\u00e9s et r\u00e9sum\u00e9s des r\u00e9unions) sur des questions complexes en vue de la prise de d\u00e9cisions par la haute direction.<br>\n<br>\nExp\u00e9rience r\u00e9cente et appr\u00e9ciable* de l'\u00e9tablissement et du maintien de relations de collaboration avec des intervenants internes ou externes (comme le secteur priv\u00e9, les associations industrielles, les universit\u00e9s, les groupes autochtones ou d'autres minist\u00e8res gouvernementaux).</p>\n<p>Exp\u00e9rience r\u00e9cente et appr\u00e9ciable* de l'analyse approfondie des tendances \u00e9conomiques et industrielles relatifs \u00e0 des questions complexes dans le but de fournir des rapports \u00e0 la haute direction.<br>\n<br>\n* R\u00e9cent et appr\u00e9ciable est d\u00e9fini comme la profondeur et l'\u00e9tendue associ\u00e9es \u00e0 l'exercice des fonctions normalement accumul\u00e9es sur une p\u00e9riode d'environ deux ans, au cours des cinq derni\u00e8res ann\u00e9es.</p>\n<p><br>\n<strong>Capacit\u00e9s:</strong></p>\n<p>Capacit\u00e9 de communiquer efficacement par \u00e9crit.</p>\n<p>Capacit\u00e9 de communiquer efficacement \u00e0 l\u2019oral.</p>\n<p>Capacit\u00e9 de travailler sous pression avec des d\u00e9lais serr\u00e9s.</p>\n<p>\u00a0</p>\n<p><strong>Comp\u00e9tences: </strong></p>\n<p>Facult\u00e9 d\u2019adaptation</p>\n<p>Initiative</p>\n<p>Capacit\u00e9 d\u2019\u00e9tablir des relations</p>\n<p>Travail d\u2019\u00e9quipe</p>\n<p>R\u00e9flexion strat\u00e9gique</p>\n<p>\u00a0</p>\n<p><strong>Exigences linguistiques </strong></p>\n<p>Anglais essentiel</p>\n<p>\u00a0</p>\n<p><strong>Conditions d\u2019emploi</strong></p>\n<p>Fiabilit\u00e9 et s\u00e9curit\u00e9: Cote de fiabilit\u00e9</p>\n<p>\u00catre titulaire d\u2019un permis de conduire valide ou pouvoir se d\u00e9placer au m\u00eame titre qu\u2019une personne qui poss\u00e8de un permis de conduire valide.</p>\n<p>Consentir \u00e0 faire des heures suppl\u00e9mentaires \u00e0 court pr\u00e9avis.</p>\n<p>Consentir \u00e0 voyager.<strong>\u00a0\u00a0</strong></p>\n<h3><strong><br>Besoins organisationnels</strong></h3>\n<p>Afin de se doter d\u2019un effectif diversifi\u00e9, une consid\u00e9ration particuli\u00e8re pourrait \u00eatre accord\u00e9e aux personnes qui d\u00e9clarent \u00eatre membres de l\u2019un des groupes suivants vis\u00e9s par l\u2019\u00e9quit\u00e9 en mati\u00e8re d\u2019emploi : les Autochtones, les personnes handicap\u00e9es, les minorit\u00e9s visibles et les femmes.</p>\n<p>\u00a0</p>\n<p><strong>Candidatures : </strong></p>\n<p>\nSi vous travaillez pour AAC et que ce poste vous int\u00e9resse, nous vous invitons \u00e0 pr\u00e9parer un curriculum vitae et une lettre de pr\u00e9sentation qui d\u00e9crivent ce qui fait de vous le meilleur candidat ou la meilleure candidate pour ce poste et \u00e0 les envoyer \u00e0 Andrea Wenham (C-B) \u00e0 andrea.wenham@canada ou \u00e0 Cheryl McClellan-Moody (AB) \u00e0 cheryl.mcclellan-moody@canada.ca .</p>\n<p>Votre curriculum vitae ou lettre doit indiquer clairement :</p>\n<ul>\n<li>votre dur\u00e9e d\u2019emploi (p. ex. p\u00e9riode d\u00e9termin\u00e9e ou ind\u00e9termin\u00e9e);</li>\n<li>le groupe et le niveau de votre poste d\u2019attache.</li>\n</ul>\n<p>\u00a0</p>\n<p><strong>Remarques:</strong></p>\n<ul>\n<li>Les communications relatives \u00e0 ce processus se feront par courriel.</li>\n<li>Un bassin de candidats qualifi\u00e9s pourrait \u00eatre \u00e9tabli et servir \u00e0 doter des postes semblables \u00e0 titre int\u00e9rimaire, d\u2019affectation ou de mutation au sein de notre organisation.</li>\n</ul>\n<p>\u00a0</p>\n\n"
    },
    "breadcrumb": {
        "en": "Senior Industry Development Officer - Northwestern Departmental Regional Office",
        "fr": "Agent principal/Agente principale de d\u00e9veloppement de l\u2019industrie - Bureau r\u00e9gional du Nord-Ouest"
    },
    "empl": {
        "type": {
            "en": "Acting, Assignment, Deployment",
            "fr": "Affectation, Int\u00e9rimaire, Mutation"
        },
        "classification": {
            "en": "CO-2 and equivalent",
            "fr": "CO-2 et \u00e9quivalent"
        },
        "branch": {
            "en": "Market and Industry Services Branch",
            "fr": "Direction g\u00e9n\u00e9rale des services \u00e0 l'industrie et aux march\u00e9s"
        },
        "locations": {
            "en": "Burnaby, BC and Edmonton, AB",
            "fr": "Burnaby, C-B et Edmonton, AB"
        },
        "date_closing": {
            "en": "2020-01-20",
            "fr": "2020-01-20"
        },
        "open_to": {
            "en": "All AAFC Employees across Canada",
            "fr": "Tous les employ\u00e9s d\u2019AAC \u00e0 travers le Canada"
        },
        "name": {
            "en": "Andrea Wenham",
            "fr": "Andrea Wenham"
        },
        "email": {
            "en": "andrea.wenham@canada.ca",
            "fr": "andrea.wenham@canada.ca"
        }
    }
}