{
    "dcr_id": "1579530536555",
    "lang": "en",
    "title": {
        "en": "Senior Analyst, Food Industry Division",
        "fr": "Analyste principal(e), D\u00e9veloppement de l'industrie alimentaire"
    },
    "modified": "2020-01-21 00:00:00.0",
    "issued": "2020-01-21 00:00:00.0",
    "type_name": "intra-intra/empl-empl",
    "node_id": "1279029955397",
    "layout_name": null,
    "dc_date_created": "2020-01-20",
    "breadcrumb_label": "",
    "meta": {
        "issued": {
            "en": "2020-01-21",
            "fr": "2020-01-21"
        },
        "modified": {
            "en": "2020-01-21",
            "fr": "2020-01-21"
        },
        "format": {
            "en": "gcformat",
            "fr": "gcformat"
        },
        "title": {
            "en": "Senior Analyst, Food Industry Division",
            "fr": "Analyste principal(e), D\u00e9veloppement de l'industrie alimentaire"
        },
        "subject": {
            "en": "staffing",
            "fr": "dotation en personnel"
        },
        "language": {
            "en": "eng",
            "fr": "fra"
        },
        "audience": {
            "en": "gcaudience",
            "fr": "gcaudience"
        },
        "type": {
            "en": "notice",
            "fr": "avis"
        },
        "creator": {
            "en": "Agriculture and Agri-Food Canada",
            "fr": "Agriculture et Agroalimentaire Canada"
        },
        "spatial": {
            "en": "gcregions",
            "fr": "gcregions"
        },
        "service": {
            "en": "AAFC_AgriSource",
            "fr": "AAC_AgriSource"
        },
        "accessRights": {
            "en": "3",
            "fr": "3"
        }
    },
    "body": {
        "en": "\n<p><strong>Statement of Merit Criteria &amp; Conditions of Employment:</strong></p>\n<p><strong><br>Essential Qualifications:</strong></p>\n<p><strong><br>Education </strong></p>\n<p>Graduation with a degree from a recognized post-secondary institution with acceptable specialization in economics, sociology or statistics.*</p>\n<p>*Candidates must always have a <a href=\"https://www.canada.ca/en/treasury-board-secretariat/services/staffing/qualification-standards/core.html#deg\">degree</a>. The courses for the <a href=\"https://www.canada.ca/en/treasury-board-secretariat/services/staffing/qualification-standards/core.html#spec\">specialization</a> must be <a href=\"https://www.canada.ca/en/treasury-board-secretariat/services/staffing/qualification-standards/core.html#acce\">acceptable</a> and may have been taken at a <a href=\"https://www.canada.ca/en/treasury-board-secretariat/services/staffing/qualification-standards/core.html#rpsi\">recognized post-secondary institution</a>, but not necessarily within a <a href=\"https://www.canada.ca/en/treasury-board-secretariat/services/staffing/qualification-standards/core.html#deg\">degree</a> program in the required <a href=\"https://www.canada.ca/en/treasury-board-secretariat/services/staffing/qualification-standards/core.html#spec\">specialization</a>. The <a href=\"https://www.canada.ca/en/treasury-board-secretariat/services/staffing/qualification-standards/core.html#spec\">specialization</a> may also be obtained through an <a href=\"https://www.canada.ca/en/treasury-board-secretariat/services/staffing/qualification-standards/core.html#acce\">acceptable</a> combination of education, training and/or experience.</p>\n<p>\u00a0</p>\n<p><strong>Experience </strong></p>\n<p>Significant experience** in researching and analyzing complex issues or policies and formulating options, positions and recommendations.</p>\n<p>Significant experience** in preparing and writing briefing notes, reports, presentations or documents for senior management***.</p>\n<p>Significant experience** in developing and maintaining relationships with government and/or industry partners as it pertains to the agriculture or agri-processing sector in Canada.</p>\n<p>**Significant experience means experience that is a core part of the candidate\u2019s employment for a period of time that would provide the depth and breadth of experience normally obtained in a minimum of two (2) years.</p>\n<p>***Senior management includes Director Level and above.</p>\n<p>\u00a0</p>\n<p><strong>Knowledge</strong></p>\n<p>Knowledge of research methods, techniques, and principles to analyze sector and industry trends and developments.</p>\n<p>\u00a0</p>\n<p><strong>Competencies </strong></p>\n<p>Initiative</p>\n<p>Relationship Building</p>\n<p>Writing Skills</p>\n<p>Strategic Thinking</p>\n<p>Analytical Thinking</p>\n<p>\u00a0</p>\n<p><strong>Language Requirement </strong></p>\n<p>Bilingual Imperative: BBB/BBB</p>\n<p>\u00a0</p>\n<p><strong>Asset Qualifications:</strong></p>\n<p>Graduation with a Master\u2019s degree from a recognized post-secondary institution with specialization in a field relevant to the position.</p>\n<p>Experience working directly with food processing sector associations, or with agriculture, agri-food, fish or seafood companies.</p>\n<p>Knowledge of the key issues and trends facing the Canadian agri-food industry.</p>\n<p>\u00a0</p>\n<p><b>Organizational Needs:</b></p>\n<p>In support of achieving a diversified workforce, consideration may be given to candidates self-identifying as belonging to one of the following Employment Equity groups: Aboriginal peoples, Persons with a Disability; Visible Minorities, Women.</p>\n<p>\u00a0</p>\n<p><strong>Conditions of Employment:</strong><strong> </strong></p>\n<p>Security Requirements: Secret Clearance</p>\n<p>\u00a0</p>\n<p><strong>Operational Requirements:</strong></p>\n<p>Ability to work under tight deadlines with competing demands</p>\n<p>Ability and willingness to work overtime.</p>\n<p>Ability and willingness to travel.</p>\n<p>\u00a0</p>\n<p><strong>Applications:</strong></p>\n<p>Interested employees are encouraged to provide:</p>\n<ul>\n<li>Resume and a cover letter outlining their interest in the position and how they meet the criteria for the position; and</li>\n<li>Resumes must clearly identify substantive group and level, tenure, current SLE profile/validity and security level.</li>\n</ul>\n<p>Documents should be sent to Warren Gould at <a href=\"mailto:warren.gould@canada.ca\">warren.gould@canada.ca</a> by January 28, 2020.</p>\n<p>\u00a0</p>\n<p><strong>Notes:</strong></p>\n<ul>\n<li>Deployments cannot change the tenure of an employee (i.e.: term to indeterminate) or constitute a promotion.\u00a0</li>\n<li>Communication for this process will be sent via email.</li>\n<li>A pool of qualified candidates may be established and may be used to staff similar positions on an acting, assignment or deployment basis.</li>\n<li>Your cover letter may be used to assess your communication and writing skills.</li>\n<li>Candidates may be assessed through an interview.</li>\n<li>Reference checks may be sought.</li>\n<li>Preference will be given to EC-06 candidates, however; CO-02 candidates will be considered.</li>\n</ul>\n<p>\u00a0</p>\n",
        "fr": "\n<p><strong>\u00c9noncer des crit\u00e8res de m\u00e9rite et conditions d\u2019emploi : </strong></p>\n<p><strong><br>Qualifications essentielles :</strong></p>\n<p><strong><br>\u00c9ducation </strong></p>\n<p>Un grade d\u2019un \u00e9tablissement d\u2019enseignement postsecondaire reconnu avec sp\u00e9cialisation acceptable en \u00e9conomie, en sociologie ou en statistique.*</p>\n<p>*Les candidats doivent toujours d\u00e9tenir un <a href=\"https://www.canada.ca/fr/secretariat-conseil-tresor/services/dotation/normes-qualification/centrale.html#Dipl\">grade</a>. Les cours de <a href=\"https://www.canada.ca/fr/secretariat-conseil-tresor/services/dotation/normes-qualification/centrale.html#spec\">sp\u00e9cialisation</a> doivent \u00eatre <a href=\"https://www.canada.ca/fr/secretariat-conseil-tresor/services/dotation/normes-qualification/centrale.html#acc\">acceptables</a> et avoir \u00e9t\u00e9 suivis aupr\u00e8s d\u2019un <a href=\"https://www.canada.ca/fr/secretariat-conseil-tresor/services/dotation/normes-qualification/centrale.html#eepr\">\u00e9tablissement d\u2019enseignement postsecondaire reconnu</a>, mais pas n\u00e9cessairement dans le cadre d\u2019un programme menant \u00e0 l\u2019obtention d\u2019un <a href=\"https://www.canada.ca/fr/secretariat-conseil-tresor/services/dotation/normes-qualification/centrale.html#Dipl\">grade</a> dans le domaine de la <a href=\"https://www.canada.ca/fr/secretariat-conseil-tresor/services/dotation/normes-qualification/centrale.html#spec\">sp\u00e9cialisation</a> requise. La <a href=\"https://www.canada.ca/fr/secretariat-conseil-tresor/services/dotation/normes-qualification/centrale.html#spec\">sp\u00e9cialisation</a> peut \u00e9galement \u00eatre form\u00e9e d\u2019un agencement <a href=\"https://www.canada.ca/fr/secretariat-conseil-tresor/services/dotation/normes-qualification/centrale.html#acc\">acceptable</a> d\u2019\u00e9tudes, de formation et (ou) d\u2019exp\u00e9rience.</p>\n<p>\u00a0</p>\n<p><strong>Exp\u00e9rience</strong></p>\n<p>Exp\u00e9rience significative** de la recherche et de l\u2019analyse de probl\u00e8mes ou de politiques complexes et de formulation d\u2019options, de positions et de recommandations.</p>\n<p>Exp\u00e9rience significative** de la pr\u00e9paration et de la r\u00e9daction de notes d\u2019information, de rapports, de pr\u00e9sentations ou de documents destin\u00e9s \u00e0 la haute direction***.</p>\n<p>Exp\u00e9rience significative** de l\u2019\u00e9tablissement et du maintien de relations avec des partenaires du gouvernement et/ou de l\u2019industrie en ce qui a trait au secteur agricole ou de la transformation alimentaire au Canada.</p>\n<p>** Par \u00ab exp\u00e9rience significative \u00bb, on entend une exp\u00e9rience qui constitue une partie essentielle de la fonction du candidat ou de la candidate pendant une p\u00e9riode de temps et d\u2019une profondeur et d\u2019une ampleur normalement obtenue dans un minimum de deux (2) ans.</p>\n<p>*** On entend par \u00ab haute direction \u00bb les titulaires de postes de Directeur et de postes de niveaux sup\u00e9rieurs.</p>\n<p>\u00a0</p>\n<p><strong>Connaissance </strong></p>\n<p>Connaissance des m\u00e9thodes, des techniques et des principes de recherche pour analyser les tendances et nouveaut\u00e9s du secteur et de l\u2019industrie.</p>\n<p>\u00a0</p>\n<p><strong>Comp\u00e9tences</strong></p>\n<p>Initiative</p>\n<p>Capacit\u00e9 d\u2019\u00e9tablir des relations</p>\n<p>Aptitudes \u00e0 r\u00e9diger</p>\n<p>R\u00e9flexion strat\u00e9gique</p>\n<p>R\u00e9flexion analytique</p>\n<p>\u00a0</p>\n<p><strong>Exigences linguistique </strong></p>\n<p>Bilingue imp\u00e9ratif : BBB/BBB</p>\n<p>\u00a0</p>\n<p><strong>Qualifications constituant un atout :</strong></p>\n<p>Ma\u00eetrise d\u2019un \u00e9tablissement d\u2019enseignement postsecondaire reconnu avec sp\u00e9cialisation dans un domaine li\u00e9 aux fonctions du poste.</p>\n<p>Exp\u00e9rience de travail directement avec des associations sectorielles ou avec des entreprises du secteur de l\u2019agriculture, de l\u2019industrie de la transformation des aliments, du poisson ou des fruits de mer.</p>\n<p>Connaissance des principaux enjeux et tendances du secteur canadien de l'agriculture et de l'agroalimentaire.</p>\n<p>\u00a0</p>\n<p><strong>Besoins de l'organisation :</strong></p>\n<p>Pour diversifier l\u2019effectif, on pourra examiner la candidature des personnes qui s\u2019identifient comme appartenant \u00e0 des groupes vis\u00e9s par l\u2019\u00e9quit\u00e9 en mati\u00e8re d\u2019emploi, soit les autochtones, les personnes handicap\u00e9es, les membres des minorit\u00e9s visibles et les femmes.</p>\n<p>\u00a0</p>\n<p><strong>Conditions d'emploi :</strong></p>\n<p>Exigences de s\u00e9curit\u00e9: Cote de s\u00e9curit\u00e9 Secret</p>\n<p>\u00a0</p>\n<p><strong>Besoins op\u00e9rationnels :</strong></p>\n<p>Capacit\u00e9 de travailler dans des d\u00e9lais serr\u00e9s avec des exigences concurrentielles.</p>\n<p>\u00catre apte et dispos\u00e9 \u00e0 voyager.</p>\n<p>\u00catre apte et dispos\u00e9 \u00e0 faire des heures suppl\u00e9mentaires.</p>\n<p>\u00a0</p>\n<p><strong>Candidatures :</strong></p>\n<p>Les employ\u00e9s int\u00e9ress\u00e9s sont invit\u00e9s \u00e0 :</p>\n<ul>\n<li>Soumettre leur curriculum vitae et une lettre de pr\u00e9sentation, dans laquelle ils indiquent pourquoi ce poste les int\u00e9resse et en quoi ils r\u00e9pondent aux crit\u00e8res du poste; et</li>\n<li>Les curriculums vitae doivent identifier clairement le groupe et le niveau du poste substantif, la dur\u00e9e du mandat, le profil / la validit\u00e9 du ELS et le niveau de s\u00e9curit\u00e9.</li>\n</ul>\n<p>Les documents doivent \u00eatre envoy\u00e9s \u00e0 Warren Gould \u00e0 l\u2019adresse \u00e9lectronique suivante : <a href=\"mailto:warren.gould@canada.ca\">warren.gould@canada.ca</a> d\u2019ici le 28 janvier 2020.</p>\n<p>\u00a0</p>\n<p><strong>Remarques :</strong></p>\n<ul>\n<li>Une mutation ne peut servir \u00e0 modifier le type de poste d\u2019un employ\u00e9 ou d\u2019une employ\u00e9e (de dur\u00e9e d\u00e9termin\u00e9e \u00e0 dur\u00e9e ind\u00e9termin\u00e9e, etc.) ni constituer une promotion.\u00a0</li>\n<li>Les communications relatives au processus de s\u00e9lection se feront par courriel.</li>\n<li>Un bassin de candidats qualifi\u00e9s pourra \u00eatre cr\u00e9\u00e9 et pourra servir \u00e0 doter des postes semblables sur une base int\u00e9rimaire, d\u2019affectation ou de mutation.</li>\n<li>Votre lettre de pr\u00e9sentation peut \u00eatre utilis\u00e9e pour \u00e9valuer vos comp\u00e9tences en communication et en \u00e9criture.</li>\n<li>Les candidats peuvent \u00eatre \u00e9valu\u00e9s lors d'une entrevue.</li>\n<li>Une v\u00e9rification des r\u00e9f\u00e9rences peut \u00eatre recherch\u00e9e.</li>\n<li>La pr\u00e9f\u00e9rence sera accord\u00e9e aux candidats EC-06, mais les candidats CO-02 seront pris en consid\u00e9ration.</li>\n</ul>\n<p>\u00a0</p>\n\n"
    },
    "breadcrumb": {
        "en": "Senior Analyst, Food Industry Division",
        "fr": "Analyste principal(e), D\u00e9veloppement"
    },
    "empl": {
        "type": {
            "en": "Assignment, Deployment",
            "fr": "Affectation, Mutation"
        },
        "classification": {
            "en": "EC-6 and equivalent",
            "fr": "EC-6 et \u00e9quivalent"
        },
        "branch": {
            "en": "Market and Industry Services Branch",
            "fr": "Direction g\u00e9n\u00e9rale des services \u00e0 l'industrie et aux march\u00e9s"
        },
        "locations": {
            "en": "Ottawa, Ontario",
            "fr": "Ottawa (Ontario)"
        },
        "date_closing": {
            "en": "2020-01-28",
            "fr": "2020-01-28"
        },
        "open_to": {
            "en": "AAFC Employees in the NCR at the EC-06 or CO-02 substantive group and level",
            "fr": "Employ\u00e9s d\u2019AAC dans la RCN occupant un poste substantif de groupe et niveau EC-06 et CO-02"
        },
        "name": {
            "en": "Warren Gould",
            "fr": "Warren Gould"
        },
        "email": {
            "en": "warren.gould@canada.ca",
            "fr": "warren.gould@canada.ca"
        }
    }
}