{
    "dcr_id": "1580324500677",
    "lang": "en",
    "title": {
        "en": "Deputy Director \u2013 Market Access",
        "fr": "Directeur adjoint / directrice adjointe \u2013 Acc\u00e8s aux march\u00e9s"
    },
    "modified": "2020-01-30 00:00:00.0",
    "issued": "2020-01-30 00:00:00.0",
    "type_name": "intra-intra/empl-empl",
    "node_id": "1279029955397",
    "layout_name": null,
    "dc_date_created": "2020-01-29",
    "breadcrumb_label": "",
    "meta": {
        "issued": {
            "en": "2020-01-30",
            "fr": "2020-01-30"
        },
        "modified": {
            "en": "2020-01-30",
            "fr": "2020-01-30"
        },
        "format": {
            "en": "gcformat",
            "fr": "gcformat"
        },
        "title": {
            "en": "Deputy Director \u2013 Market Access",
            "fr": "Directeur adjoint / directrice adjointe \u2013 Acc\u00e8s aux march\u00e9s"
        },
        "subject": {
            "en": "staffing",
            "fr": "dotation en personnel"
        },
        "language": {
            "en": "eng",
            "fr": "fra"
        },
        "audience": {
            "en": "gcaudience",
            "fr": "gcaudience"
        },
        "type": {
            "en": "notice",
            "fr": "avis"
        },
        "creator": {
            "en": "Agriculture and Agri-Food Canada",
            "fr": "Agriculture et Agroalimentaire Canada"
        },
        "spatial": {
            "en": "gcregions",
            "fr": "gcregions"
        },
        "service": {
            "en": "AAFC_AgriSource",
            "fr": "AAC_AgriSource"
        },
        "accessRights": {
            "en": "3",
            "fr": "3"
        }
    },
    "body": {
        "en": "\n<p>\u00a0</p>\n<p><b>(Short Term) Acting or Assignment or Deployment Opportunity<br></b></p>\n<p>Employment Opportunity Type(s): Acting (4 months less a day), Assignment, Deployment</p>\n<p>Number of Positions: Anticipatory staffing for the three geographic divisions within the Market Access Secretariat.<br><br></p>\n<p><b>Duties:</b><i>\u00a0</i></p>\n<p>The Market Access Secretariat (MAS) brings together the full continuum of the sector's international interests from identifying economic opportunities, gathering of market intelligence, to gaining and maintaining market access and developing markets to increase export sales of Canadian agriculture, agri-food and agri-based products. MAS is responsible for Canada\u2019s agriculture and agri-food bilateral relations with trading partners; the development and implementation of country-level strategies and the provision of oversight of all activities with an international component to ensure a coordinated and coherent engagement approach. MAS serves as a focal point for a whole- of-government approach to manage bilateral trade irritants and the implementation of bilateral trade agreements and to effectively and efficiently resolve agricultural market access issues that arise by working closely with other federal government partners as well as by working collaboratively with industry and the provinces and territories.</p>\n<p>\nThe Deputy Director is responsible for leading and managing a unit that conducts international trade policy analysis on agriculture and agri-food issues, and developing appropriate responses/approaches. This involves working closely with a number of key players including portfolio colleagues, other government departments, Canadian embassies abroad and industry.</p>\n<p>\n<b>\u00a0</b></p>\n<p><b>Statement of Merit Criteria &amp; Conditions of Employment<br><br></b></p>\n<p><b>Essential Qualifications<br><br></b></p>\n<p><b>Education\u00a0</b></p>\n<p>Graduation with a degree from a recognized post-secondary institution with acceptable specialization in Economics, Sociology or Statistics.</p>\n<p>Note: Candidates must always have a university degree. The courses for the specialization do not necessarily have to be part of a degree program in the required specialization. The specialization may also be obtained through an acceptable combination of education, training and/or experience.</p>\n<p>\n<br><b><br>Experience</b></p>\n<p>\nExperience in researching, analyzing and preparing briefing notes, reports, presentations or documents for senior management* on complex or sensitive issues.</p>\n<p>\nExperience managing projects that have involved coordination of input across the department, portfolio or government.</p>\n<p>\nExperience developing briefing material for and briefing senior management on priority files.</p>\n<p>\nExperience in developing and maintaining collaborative relationships with internal and external stakeholders.</p>\n<p>\n*Senior management includes Director level and above.</p>\n<p>\n<b>\u00a0</b></p>\n<p><b>Competencies</b></p>\n<p>\nAdaptability</p>\n<p>\nStrategic Thinking</p>\n<p>\nLeading a Team</p>\n<p>\nTeamwork</p>\n<p>\nWritten and Oral Communication</p>\n<p>\n<br><b><br>Language Requirement(s)</b></p>\n<p>\nBilingual Imperative BBB / BBB</p>\n<p>\n<br><b><br>Organizational Needs</b></p>\n<p>\nIn support of achieving a diversified workforce, consideration may be given to candidates self-identifying as belonging to one of the following Employment Equity groups: Aboriginal peoples, Persons with a Disability; Visible Minorities, Women.</p>\n<p>\n<br><b><br>Security Requirement(s)</b></p>\n<p>\nSecret<b><br></b></p>\n<p><b><br>Other conditions of employment</b></p>\n<p>\nWillingness and ability to work overtime.</p>\n<p>\nWillingness and ability to travel domestically and internationally.</p>\n<p>\n<b>\u00a0</b></p>\n<p><b>Applications:</b></p>\n<p>\nInterested AAFC employees are encouraged to forward their resume and cover letter highlighting why you are the best candidate for this position to Nancy Hum at nancy.hum@canada.ca<i>.</i></p>\n<p>\n<br><br><b>Applications must clearly identify:</b></p>\n<p>\nYour tenure (e.g. term or indeterminate)</p>\n<p>\nYour substantive group and level</p>\n<p>\nCurrent linguistic profile (candidates do not need to meet the linguistic profile of the position for a an acting of four months less a day)<b>\u00a0</b></p>\n<p>\n<br><b>Notes:</b></p>\n<p>\nA concurrent process for the EC-07 group and level (or equivalent) for Deputy Director positions within the Market Access Secretariat will be posted on the GC jobs website in February 2020. </p>\n<p>\nDeployments cannot change the tenure of an employee (i.e.: term to indeterminate) or constitute a promotion. </p>\n<p>\nCommunication for this process will be sent via email.</p>\n<p>\nPlease note that candidates must be substantively at the EC-07 group and level (or equivalent) to qualify for a deployment. </p>\n<p>\nRotational actings may be considered.</p>\n<p>\u00a0</p>\n",
        "fr": "\n<p><b>\u00a0</b></p>\n<p><b>Possibilit\u00e9 d\u2019affectation ou de mutation ou d\u2019int\u00e9rimaire \u00e0 court terme </b></p>\n<p>\nTypes de perspective d\u2019emploi : Affectation, mutation, int\u00e9rimaire (4 mois moins un jour)</p>\n<p>\nNombre de postes : Dotation anticip\u00e9e des trois divisions g\u00e9ographiques du Secr\u00e9tariat de l\u2019acc\u00e8s aux march\u00e9s.</p>\n<p>\n<b>\u00a0</b></p>\n<p><b>Fonctions :</b><i> </i></p>\n<p>\nLe Secr\u00e9tariat de l\u2019acc\u00e8s aux march\u00e9s (SAM) couvre toute la gamme des int\u00e9r\u00eats internationaux du secteur, y compris la d\u00e9termination des possibilit\u00e9s \u00e9conomiques, la collecte de renseignements commerciaux, l\u2019obtention et le maintien de l\u2019acc\u00e8s aux march\u00e9s et le d\u00e9veloppement des march\u00e9s dans le but d\u2019augmenter les ventes destin\u00e9es \u00e0 l\u2019exportation des produits agroindustriels, agroalimentaires et agricoles canadiens. Le SAM est responsable des relations bilat\u00e9rales entre le Canada et ses partenaires commerciaux \u00e0 l\u2019\u00e9gard de l\u2019agriculture et de l\u2019agroalimentaire, y compris de l\u2019\u00e9laboration et de la mise en \u0153uvre de strat\u00e9gies nationales, et de l\u2019assurance d\u2019une supervision de toutes les activit\u00e9s ayant une composante internationale afin d\u2019assurer une approche de participation coordonn\u00e9e et coh\u00e9rente. Le SAM est un point central de l\u2019approche pangouvernementale visant \u00e0 g\u00e9rer les diff\u00e9rends commerciaux bilat\u00e9raux et la mise en place d\u2019accords commerciaux bilat\u00e9raux, ainsi qu\u2019\u00e0 r\u00e9soudre de fa\u00e7on efficace et efficiente les probl\u00e8mes qui surviennent relativement \u00e0 l\u2019acc\u00e8s aux march\u00e9s agricoles, en<br>travaillant \u00e9troitement avec les autres partenaires du gouvernement f\u00e9d\u00e9ral et en collaboration avec l\u2019industrie ainsi que les provinces et les territoires.</p>\n<p>\n<br>Le directeur adjoint/la directrice adjointe est charg\u00e9(e) de\u00a0diriger et de g\u00e9rer une unit\u00e9 responsable de l\u2019analyse des politiques de commerce international en ce qui a trait aux enjeux agricoles et agroalimentaires ainsi que d\u2019\u00e9laborer des r\u00e9ponses et des approches appropri\u00e9es. Cela exige de travailler \u00e9troitement avec plusieurs partenaires cl\u00e9s, y compris les coll\u00e8gues du portefeuille, d\u2019autres minist\u00e8res, les ambassades canadiennes \u00e0 l\u2019\u00e9tranger et l\u2019industrie.</p>\n<p>\n<b>\u00a0</b></p>\n<p><b>\u00c9nonc\u00e9 des crit\u00e8res de m\u00e9rite et conditions d\u2019emploi</b></p>\n<p>\n<br><b><br>Qualifications essentielles</b></p>\n<p>\n<br><b><br>\u00c9tudes </b></p>\n<p>\nGrade d\u00e9cern\u00e9 par un \u00e9tablissement d\u2019enseignement postsecondaire reconnu avec une sp\u00e9cialisation acceptable en \u00e9conomie, en sociologie ou en statistique.</p>\n<p>\nRemarque : Les candidats doivent obligatoirement \u00eatre titulaires d\u2019un dipl\u00f4me universitaire.</p>\n<p>\nIl n\u2019est pas n\u00e9cessaire que les cours de sp\u00e9cialisation aient \u00e9t\u00e9 suivis dans le cadre d\u2019un programme menant \u00e0 l\u2019obtention d\u2019un dipl\u00f4me dans la sp\u00e9cialisation exig\u00e9e. Une combinaison acceptable d\u2019\u00e9tudes, de formation et/ou d\u2019exp\u00e9rience peut tenir lieu de sp\u00e9cialisation.</p>\n<p>\n<b>\u00a0</b></p>\n<p><b><br>Exp\u00e9rience</b></p>\n<p>\nExp\u00e9rience de la recherche, de l\u2019analyse et de la r\u00e9daction de notes d\u2019information, de rapports, de pr\u00e9sentations ou de documents destin\u00e9s \u00e0 la haute direction* concernant des dossiers complexes ou de nature d\u00e9licate.</p>\n<p>\nExp\u00e9rience de la gestion de projets ayant impliqu\u00e9 la coordination des contributions au sein du Minist\u00e8re, du portefeuille ou du gouvernement.</p>\n<p>\nExp\u00e9rience de l\u2019\u00e9laboration de documents d\u2019information et de la prestation de renseignements \u00e0 la haute direction sur des dossiers prioritaires.</p>\n<p>\nExp\u00e9rience de l\u2019\u00e9tablissement et du maintien de relations de collaboration avec des intervenants internes et externes.</p>\n<p>\n*La haute direction s\u2019entend du niveau de directeur/directrice et des \u00e9chelons sup\u00e9rieurs.</p>\n<p>\n<b>\u00a0</b></p>\n<p><b><br>Comp\u00e9tences</b></p>\n<p>\nCapacit\u00e9 d\u2019adaptation</p>\n<p>\nR\u00e9flexion strat\u00e9gique</p>\n<p>\nDiriger une \u00e9quipe</p>\n<p>\nTravail d\u2019\u00e9quipe</p>\n<p>\nCommunication \u00e9crite et orale</p>\n<p>\n<br><br><b><br>Exigences linguistiques</b></p>\n<p>\nBilingue imp\u00e9ratif BBB / BBB</p>\n<p>\u00a0</p>\n<p><b>Besoins organisationnels</b></p>\n<p>\nAfin de se doter d\u2019un effectif diversifi\u00e9, une consid\u00e9ration particuli\u00e8re pourrait \u00eatre accord\u00e9e aux personnes qui d\u00e9clarent \u00eatre membres de l\u2019un des groupes suivants vis\u00e9s par l\u2019\u00e9quit\u00e9 en mati\u00e8re d\u2019emploi : les Autochtones, les personnes handicap\u00e9es, les minorit\u00e9s visibles et les femmes.</p>\n<p>\n<br><b><br><br>Exigences de s\u00e9curit\u00e9</b></p>\n<p>\nSecret</p>\n<p>\n<b>\u00a0</b></p>\n<p><b><br>Autres conditions d'emploi</b></p>\n<p>\nVolont\u00e9 et capacit\u00e9 de travailler des heures suppl\u00e9mentaires.</p>\n<p>\nVolont\u00e9 et capacit\u00e9 de voyager au pays et \u00e0 l\u2019\u00e9tranger.</p>\n<p>\u00a0</p>\n<p><b>Candidatures :</b></p>\n<p>\nSi vous travaillez pour AAC et que ce poste vous int\u00e9resse, nous vous invitons \u00e0 pr\u00e9parer un curriculum vit\u00e6 et une lettre de pr\u00e9sentation qui d\u00e9crivent ce qui fait de vous le meilleur candidat ou la meilleure candidate pour ce poste et \u00e0 les envoyer \u00e0 Nancy Hum \u00e0 l\u2019adresse nancy.hum@canada.ca.</p>\n<p>\nLes candidatures doivent indiquer clairement :</p>\n<p>\nVotre dur\u00e9e d\u2019emploi (p. ex., p\u00e9riode d\u00e9termin\u00e9e ou ind\u00e9termin\u00e9e);</p>\n<p>\nLe groupe et le niveau de votre poste d\u2019attache;</p>\n<p>\nProfil linguistique actuel (les postulants ne sont pas requis de rencontrer le profil linguistique du poste pour un int\u00e9rimaire de 4 mois moins un jour).</p>\n<p>\n<br><br><b>Remarques :</b></p>\n<p>\nUn processus EC-07 (ou \u00e9quivalent) pour doter des postes de directeur (rice) adjoint (e) au sein de SAM sera entamer sur GC emplois en f\u00e9vrier.</p>\n<p>\nLes mutations ne doivent pas entra\u00eener de modification \u00e0 la dur\u00e9e d\u2019emploi d\u2019un employ\u00e9 (c.-\u00e0-d., p\u00e9riode d\u00e9termin\u00e9e ou ind\u00e9termin\u00e9e) ni constituer une promotion.</p>\n<p>\nLes communications relatives au pr\u00e9sent processus se feront par courriel.</p>\n<p>\nVeuillez noter que les candidats qui pr\u00e9sentent une demande pour le poste doivent substantiellement \u00eatre du groupe et du niveau EC-07 (ou l\u2019\u00e9quivalent) afin d\u2019\u00eatre admissible pour une mutation.</p>\n<p>\nLa rotation d\u2019int\u00e9rimaires pourrait \u00eatre consid\u00e9r\u00e9</p>\n<p>\u00a0</p>\n\n"
    },
    "breadcrumb": {
        "en": "Deputy Director \u2013 Market Access",
        "fr": "Directeur adjoint / directrice adjointe \u2013 Acc\u00e8s aux march\u00e9s"
    },
    "empl": {
        "type": {
            "en": "Assignment, Deployment, Acting",
            "fr": "Affectation, Mutation, Int\u00e9rimaire"
        },
        "classification": {
            "en": "EC-7",
            "fr": "EC-7"
        },
        "branch": {
            "en": "Market and Industry Services Branch",
            "fr": "Direction g\u00e9n\u00e9rale des services \u00e0 l'industrie et aux march\u00e9s"
        },
        "locations": {
            "en": "National Capital Region (NCR)",
            "fr": "R\u00e9gion de la capitale nationale (RCN)"
        },
        "date_closing": {
            "en": "2020-02-12",
            "fr": "2020-02-12"
        },
        "open_to": {
            "en": "All AAFC Employees located in the NCR",
            "fr": "Tous les employ\u00e9s d\u2019AAC situ\u00e9s dans la RCN"
        },
        "name": {
            "en": "Nancy Hum",
            "fr": "Nancy Hum"
        },
        "email": {
            "en": "nancy.hum@canada.ca",
            "fr": "nancy.hum@canada.ca"
        }
    }
}