{
    "dcr_id": "1581517853947",
    "lang": "en",
    "title": {
        "en": "Data Evangelist",
        "fr": "\u00c9vang\u00e9liste des donn\u00e9es"
    },
    "modified": "2020-02-12 00:00:00.0",
    "issued": "2020-02-12 00:00:00.0",
    "type_name": "intra-intra/empl-empl",
    "node_id": "1279029955397",
    "layout_name": null,
    "dc_date_created": "2020-02-12",
    "breadcrumb_label": "",
    "meta": {
        "issued": {
            "en": "2020-02-12",
            "fr": "2020-02-12"
        },
        "modified": {
            "en": "2020-02-12",
            "fr": "2020-02-12"
        },
        "format": {
            "en": "gcformat",
            "fr": "gcformat"
        },
        "title": {
            "en": "Data Evangelist",
            "fr": "\u00c9vang\u00e9liste des donn\u00e9es"
        },
        "subject": {
            "en": "staffing",
            "fr": "dotation en personnel"
        },
        "language": {
            "en": "eng",
            "fr": "fra"
        },
        "audience": {
            "en": "gcaudience",
            "fr": "gcaudience"
        },
        "type": {
            "en": "notice",
            "fr": "avis"
        },
        "creator": {
            "en": "Agriculture and Agri-Food Canada",
            "fr": "Agriculture et Agroalimentaire Canada"
        },
        "spatial": {
            "en": "gcregions",
            "fr": "gcregions"
        },
        "service": {
            "en": "AAFC_AgriSource",
            "fr": "AAC_AgriSource"
        },
        "accessRights": {
            "en": "3",
            "fr": "3"
        }
    },
    "body": {
        "en": "\n<p>\u00a0</p>\n<p>Employees of Agriculture and Agri-Food Canada at the EC-06 and EC-07 levels and equivalents are invited to express their interest in a 6-10 month assignment managing the Data Development and Partnerships (DDP) team and reporting to AAFC\u2019s Director General Data Lead.</p>\n<p>The DDP is leading the implementation of AAFC\u2019s Data Strategy and is demonstrating the how departmental data asset can generate business value through data science.</p>\n<h3><strong><br>In this role you will have the opportunity to:</strong></h3>\n<ul>\n<li>\n<p>Lead a team of policy analysts and data scientists in implementing AAFC\u2019s data strategy;</p>\n</li>\n<li>\n<p>Work with colleagues within AAFC and across the Government of Canada (GC) who are implementing data-driven solutions that are making government more effective, supporting evidence-based decision-making and enabling superior client-service;</p>\n</li>\n<li>\n<p>Build on the initial steps towards establishing an AAFC data governance program;</p>\n</li>\n<li>\n<p>Deliver data-related briefings to senior management (DG-level and above) including advice and recommendations;</p>\n</li>\n<li>\n<p>Develop, coordinate and support the development of data science prototypes including applications of text analytics, advanced data visualization and machine learning; and</p>\n</li>\n<li>\n<p>Experience working horizontally across the department and the GC, with hand-on experience developing data policy, collaborating with Central Agencies, other departments and contributing to the implementation of the GC Data Strategy.</p>\n</li>\n</ul>\n<h3><strong><br>The ideal candidate should have:</strong></h3>\n<ul>\n<li>\n<p>An inclination for data and interest in data-related policy, processes and digital technology, but does not need to be a technical data wizard;</p>\n</li>\n<li>\n<p>Experience managing human and financial resource;</p>\n</li>\n<li>\n<p>Curiosity, a collaborative nature and an inclination for working in the open;</p>\n</li>\n<li>\n<p>Excellent interpersonal communication skills;</p>\n</li>\n<li>\n<p>Self-motivation and persistence in the face of obstacles; and</p>\n</li>\n<li>A willingness and demonstrated ability developing strong horizontal relationships and networks;</li>\n</ul>\n<p><br>Candidates should also be strong communicators and display good judgement.</p>\n<p>Interested? Send your resume and a cover letter (max 500 words) explaining why you are interested in this opportunity to Julie Levert at Julie.levert@canada.ca before the deadline.</p>\n<p>\u00a0</p>\n",
        "fr": "\n<p>\u00a0</p>\n<p>Les employ\u00e9s d\u2019Agriculture et Agroalimentaire Canada qui occupent un poste EC-06 ou EC-07 ou un poste de niveau \u00e9quivalent sont invit\u00e9s \u00e0 faire part de leur int\u00e9r\u00eat pour une affectation de 6 \u00e0 10 mois \u00e0 la direction de l\u2019\u00e9quipe de l\u2019\u00c9laboration des donn\u00e9es et des partenariats (EDP). Le titulaire rel\u00e8vera du directeur g\u00e9n\u00e9ral responsable des donn\u00e9es \u00e0 AAC.</p>\n<p>L\u2019\u00e9quipe de l\u2019EDP dirige la mise en oeuvre de la strat\u00e9gie en mati\u00e8re de donn\u00e9es d\u2019AAC et d\u00e9montre comment les donn\u00e9es minist\u00e9rielles peuvent g\u00e9n\u00e9rer une valeur op\u00e9rationnelle gr\u00e2ce \u00e0 la science des donn\u00e9es.</p>\n<h3><strong><br>Dans ce r\u00f4le, vous pourrez :</strong></h3>\n<ul>\n<li>\n<p>Diriger une \u00e9quipe d\u2019analystes des politiques et d\u2019experts des donn\u00e9es qui mettront en \u0153uvre la strat\u00e9gie en mati\u00e8re de donn\u00e9es d\u2019AAC;</p>\n</li>\n<li>\n<p>Travailler avec des coll\u00e8gues \u00e0 AAC et ailleurs au gouvernement du Canada, qui mettent en \u0153uvre des solutions bas\u00e9es sur les donn\u00e9es pour am\u00e9liorer l\u2019efficacit\u00e9 du gouvernement, soutenir la prise de d\u00e9cisions fond\u00e9es sur des donn\u00e9es probantes et favoriser un excellent service \u00e0 la client\u00e8le;</p>\n</li>\n<li>\n<p>Faire fond sur les \u00e9tapes initiales de l\u2019\u00e9tablissement d\u2019un programme de gouvernance des donn\u00e9es d\u2019AAC;</p>\n</li>\n<li>\n<p>Pr\u00e9senter des s\u00e9ances d\u2019information sur les donn\u00e9es, y compris des conseils et des recommandations, \u00e0 la haute direction (directeur g\u00e9n\u00e9ral et niveaux sup\u00e9rieurs);</p>\n</li>\n<li>\n<p>\u00c9laborer, coordonner et appuyer l\u2019\u00e9laboration de prototypes dans le domaine de la science des donn\u00e9es, y compris des applications de l\u2019analytique du texte, de la visualisation avanc\u00e9e des donn\u00e9es et de l\u2019apprentissage machine;</p>\n</li>\n<li>Travailler horizontalement \u00e0 l\u2019\u00e9chelle du Minist\u00e8re et du gouvernement du Canada, acqu\u00e9rir une exp\u00e9rience pratique de l\u2019\u00e9laboration des politiques sur les donn\u00e9es, collaborer avec les organismes centraux et d\u2019autres minist\u00e8res et contribuer \u00e0 la mise en \u0153uvre de la strat\u00e9gie en mati\u00e8re de donn\u00e9es du gouvernement du Canada.</li>\n</ul>\n<h3><strong><br>Le candidat id\u00e9al doit :</strong></h3>\n<ul>\n<li>\n<p>Avoir un int\u00e9r\u00eat pour les donn\u00e9es ainsi que les politiques, les technologies num\u00e9riques et les processus li\u00e9s aux donn\u00e9es sans n\u00e9cessairement \u00eatre un g\u00e9nie des donn\u00e9es techniques;</p>\n</li>\n<li>\n<p>Avoir de l\u2019exp\u00e9rience en gestion des ressources humaines et financi\u00e8res;</p>\n</li>\n<li>\n<p>Avoir de la curiosit\u00e9, un sens de la collaboration et une pr\u00e9disposition pour travailler de fa\u00e7on ouverte;</p>\n</li>\n<li>\n<p>Avoir d\u2019excellentes habilet\u00e9s de communication interpersonnelle;</p>\n</li>\n<li>\n<p>\u00catre motiv\u00e9 et faire preuve de pers\u00e9v\u00e9rance devant des obstacles;</p>\n</li>\n<li>\u00catre apte et dispos\u00e9 \u00e0 \u00e9tablir de solides relations et r\u00e9seaux sur le plan horizontal.</li>\n</ul>\n<p><br>Les candidats doivent aussi poss\u00e9der de solides comp\u00e9tences en communication et faire preuve de jugement.</p>\n<p>Si cette occasion vous int\u00e9resse, faites parvenir votre curriculum vit\u00e6 ainsi qu\u2019un courriel (d\u2019au plus 500 mots) dans lequel vous expliquez les raisons de votre int\u00e9r\u00eat \u00e0 Julie Levert (julie.levert@canada.ca) avant la date de cl\u00f4ture.</p>\n<p>\u00a0</p>\n\n"
    },
    "breadcrumb": {
        "en": "Data Evangelist",
        "fr": "\u00c9vang\u00e9liste des donn\u00e9es"
    },
    "empl": {
        "type": {
            "en": "Assignment, Acting",
            "fr": "Affectation, Int\u00e9rimaire"
        },
        "classification": {
            "en": "EC-7 and equivalent",
            "fr": "EC-7 et \u00e9quivalent"
        },
        "branch": {
            "en": "Strategic Policy Branch",
            "fr": "Direction g\u00e9n\u00e9rale des politiques strat\u00e9giques"
        },
        "locations": {
            "en": "National Capital Region",
            "fr": "R\u00e9gion de la capitale nationale"
        },
        "date_closing": {
            "en": "2020-02-28",
            "fr": "2020-02-28"
        },
        "open_to": {
            "en": "AAFC Employees at the EC-06 and EC-07 levels (or equivalents)",
            "fr": "Employ\u00e9s d\u2019AAC aux niveaux EC-06 et EC-07 (ou niveaux \u00e9quivalents)"
        },
        "name": {
            "en": "Julie Levert",
            "fr": "Julie Levert"
        },
        "email": {
            "en": "julie.levert@canada.ca",
            "fr": "julie.levert@canada.ca"
        }
    }
}