{
    "dcr_id": "1582558556198",
    "lang": "en",
    "title": {
        "en": "Deputy Director",
        "fr": "Directeur/ directrice adjoint/e"
    },
    "modified": "2020-02-25 00:00:00.0",
    "issued": "2020-02-25 00:00:00.0",
    "type_name": "intra-intra/empl-empl",
    "node_id": "1279029955397",
    "layout_name": null,
    "dc_date_created": "2020-02-24",
    "breadcrumb_label": "",
    "meta": {
        "issued": {
            "en": "2020-02-25",
            "fr": "2020-02-25"
        },
        "modified": {
            "en": "2020-02-25",
            "fr": "2020-02-25"
        },
        "format": {
            "en": "gcformat",
            "fr": "gcformat"
        },
        "title": {
            "en": "Deputy Director",
            "fr": "Directeur/ directrice adjoint/e"
        },
        "subject": {
            "en": "staffing",
            "fr": "dotation en personnel"
        },
        "language": {
            "en": "eng",
            "fr": "fra"
        },
        "audience": {
            "en": "gcaudience",
            "fr": "gcaudience"
        },
        "type": {
            "en": "notice",
            "fr": "avis"
        },
        "creator": {
            "en": "Agriculture and Agri-Food Canada",
            "fr": "Agriculture et Agroalimentaire Canada"
        },
        "spatial": {
            "en": "gcregions",
            "fr": "gcregions"
        },
        "service": {
            "en": "AAFC_AgriSource",
            "fr": "AAC_AgriSource"
        },
        "accessRights": {
            "en": "3",
            "fr": "3"
        }
    },
    "body": {
        "en": "\n<p>\u00a0</p>\n<p>In this role as Deputy Director, you will have the opportunity to lead the International Analysis and Multilateral Engagement unit. This opportunity is for a 7-month assignment but could be for a longer period depending on operational requirements.</p>\n<p><br>The Deputy Director is responsible for:</p>\n<ul>\n<li>Leading the coordination of AAFC\u2019s input into the Organization for Economic Co-operation and Development\u2019s (OECD) agriculture and agri-food policy research and analysis, ensuring alignment with departmental policy priorities.</li>\n<li>Researching and analyzing developments in agriculture and agri-food sector policies in other countries, including government policies and trade patterns.</li>\n<li>Conducting scanning, monitoring and analysis of international trends and issues affecting the competiveness and sustainability of the agriculture and agi-food sector in Canada.</li>\n</ul>\n<p><strong><br>The ideal candidate should have the following essential experience and knowledge:</strong></p>\n<ul>\n<li>Experience representing Canada at International Fora.</li>\n<li>Experience leading research and analysis on global and/or domestic agriculture and agri-food policy, issues and trends.</li>\n<li>Strong written and oral communication skills, including ability to synthesize large amounts of complex information into clear and concise background information, talking points and recommendations.</li>\n<li>Knowledge of key issues affecting the agriculture and agri-food sector, both in Canada and internationally.</li>\n<li>Experience in managing a work team or leading a group on an issue or project.</li>\n<li>Experience in providing advice and recommendations to senior management.*</li>\n</ul>\n<p>* Senior management is defined as Director and above.</p>\n<p><strong><br>Asset Qualifications</strong></p>\n<ul>\n<li>Experience in participating in multi-disciplinary, interdepartmental working groups.</li>\n<li>Experience in conducting trade research and analysis in the area of agriculture and agri-food.</li>\n<li>Experience managing policy analysis or research teams, including managing human resources or budgets.</li>\n<li>Bilingual BBB, CBC</li>\n</ul>\n<p><strong><br>Please send your cover letter (maximum 600 words) outlining how you meet the knowledge and experience outlined above and why you are interested in this opportunity to Julie Levert</strong> (julie.levert@canada.ca) <strong>by March 15, 2020.</strong></p>\n<p><br>Resumes must clearly identify:</p>\n<ul>\n<li>Your tenure (e.g. term or indeterminate)</li>\n<li>Your substantive group and level</li>\n<li>Language level</li>\n</ul>\n<p>\u00a0</p>\n",
        "fr": "\n<p>\u00a0</p>\n<p>Le titulaire de ce poste aura l\u2019occasion de diriger l\u2019Unit\u00e9 de l\u2019analyse internationale et de l\u2019engagement multilat\u00e9ral. Il s\u2019agit d\u2019une affectation de sept mois qui pourrait \u00eatre prolong\u00e9e selon les besoins op\u00e9rationnels.</p>\n<p><br>Le/la directeur / directrice adjoint/e assume les responsabilit\u00e9s suivantes :</p>\n<ul>\n<li>Coordonner la contribution d\u2019AAC aux activit\u00e9s de recherche et d\u2019analyse des politiques agricoles et agroalimentaires de l\u2019OCDE (Organisation de coop\u00e9ration et de d\u00e9veloppement \u00e9conomiques) afin qu\u2019elle soit conforme aux priorit\u00e9s minist\u00e9rielles en mati\u00e8re de politiques.</li>\n<li>Effectuer des recherches sur les faits nouveaux touchant les politiques du secteur agricole et agroalimentaire dans d\u2019autres pays et les analyser, y compris les politiques gouvernementales et la structure des \u00e9changes commerciaux.</li>\n<li>Examiner, surveiller et analyser les tendances et les enjeux internationaux qui ont une incidence sur la comp\u00e9titivit\u00e9 et la durabilit\u00e9 du secteur agroalimentaire canadien.</li>\n</ul>\n<p><strong><br>Le/la candidat/candidate id\u00e9al/id\u00e9ale doit poss\u00e9der l\u2019exp\u00e9rience et les connaissances essentielles suivantes :</strong></p>\n<ul>\n<li>Exp\u00e9rience de la repr\u00e9sentation du Canada \u00e0 des forums internationaux.</li>\n<li>Exp\u00e9rience de la r\u00e9alisation de recherches et d\u2019analyses sur des questions et des tendances internationales et/ou nationales touchant les politiques agricoles et agroalimentaires.</li>\n<li>Excellentes comp\u00e9tences en communication orale et \u00e9crite, y compris la capacit\u00e9 de r\u00e9sumer de grandes quantit\u00e9s de renseignements complexes pour produire des documents d\u2019information, des recommandations et des aide-m\u00e9moire clairs et concis.</li>\n<li>Connaissance des principaux enjeux qui touchent le secteur agricole et agroalimentaire au Canada et \u00e0 l\u2019\u00e9tranger.</li>\n<li>Exp\u00e9rience de la gestion d\u2019une \u00e9quipe de travail ou de la direction d\u2019un groupe charg\u00e9 d\u2019une question ou d\u2019un projet.</li>\n<li>Exp\u00e9rience de la formulation de conseils et de recommandations \u00e0 l\u2019intention de cadres sup\u00e9rieurs.*</li>\n</ul>\n<p>* On entend par \u00ab cadres sup\u00e9rieurs \u00bb les personnes occupant un poste de directeur ou de niveau sup\u00e9rieur.\u00a0</p>\n<p><strong><br>Qualifications constituant un atout</strong></p>\n<ul>\n<li>Exp\u00e9rience de la participation \u00e0 des groupes de travail multidisciplinaires interminist\u00e9riels.</li>\n<li>Exp\u00e9rience de la r\u00e9alisation de recherches et d\u2019analyses dans le domaine de l\u2019agriculture et de l\u2019agroalimentaire.</li>\n<li>Exp\u00e9rience de la gestion d\u2019\u00e9quipes charg\u00e9es de l\u2019analyse et de la recherche en mati\u00e8re de politiques, y compris de la gestion de ressources humaines et de budgets.</li>\n<li>Bilingue BBB, CBC</li>\n</ul>\n<p><strong><br>Veuillez envoyer une lettre de pr\u00e9sentation (d\u2019au plus 600 mots) expliquant en quoi vous r\u00e9pondez aux crit\u00e8res de connaissance et d\u2019exp\u00e9rience d\u00e9crits ci-dessus et pourquoi cette possibilit\u00e9 d\u2019emploi vous int\u00e9resse \u00e0 Julie Levert</strong> (julie.levert@canada.ca) <strong>d\u2019ici le 15 mars 2020.</strong></p>\n<p><br>Le <em>curriculum vitae</em> doit indiquer ce qui suit :</p>\n<ul>\n<li>La dur\u00e9e de votre emploi (c.-\u00e0-d. d\u00e9termin\u00e9e ou ind\u00e9termin\u00e9e)</li>\n<li>Le groupe et le niveau de votre poste d\u2019attache</li>\n<li>Votre niveau de langue</li>\n</ul>\n<p>\u00a0</p>\n\n"
    },
    "breadcrumb": {
        "en": "Deputy Director",
        "fr": "Directeur/ directrice adjoint/e"
    },
    "empl": {
        "type": {
            "en": "Assignment, Acting",
            "fr": "Affectation, Int\u00e9rimaire"
        },
        "classification": {
            "en": "EC-7 and equivalent",
            "fr": "EC-7 et \u00e9quivalent"
        },
        "branch": {
            "en": "Strategic Policy Branch",
            "fr": "Direction g\u00e9n\u00e9rale des politiques strat\u00e9giques"
        },
        "locations": {
            "en": "National Capital Region",
            "fr": "R\u00e9gion de la capitale nationale"
        },
        "date_closing": {
            "en": "2020-03-15",
            "fr": "2020-03-15"
        },
        "open_to": {
            "en": "AAFC employees at the EC-07 or EC-06 group and level (or equivalent) across Canada",
            "fr": "Employ\u00e9s d\u2019AAC au Canada qui sont au niveau EC-07 ou EC-06 (ou \u00e0 un niveau \u00e9quivalent)"
        },
        "name": {
            "en": "Julie Levert",
            "fr": "Julie Levert"
        },
        "email": {
            "en": "julie.levert@canada.ca",
            "fr": "julie.levert@canada.ca"
        }
    }
}