{
    "dcr_id": "1583965026860",
    "lang": "en",
    "title": {
        "en": "Project Support Officer",
        "fr": "Agent de soutien de projet"
    },
    "modified": "2020-03-12 00:00:00.0",
    "issued": "2020-03-12 00:00:00.0",
    "type_name": "intra-intra/empl-empl",
    "node_id": "1279029955397",
    "layout_name": null,
    "dc_date_created": "2020-03-12",
    "breadcrumb_label": "",
    "meta": {
        "issued": {
            "en": "2020-03-12",
            "fr": "2020-03-12"
        },
        "modified": {
            "en": "2020-03-12",
            "fr": "2020-03-12"
        },
        "format": {
            "en": "gcformat",
            "fr": "gcformat"
        },
        "title": {
            "en": "Project Support Officer",
            "fr": "Agent de soutien de projet"
        },
        "subject": {
            "en": "staffing",
            "fr": "dotation en personnel"
        },
        "language": {
            "en": "eng",
            "fr": "fra"
        },
        "audience": {
            "en": "gcaudience",
            "fr": "gcaudience"
        },
        "type": {
            "en": "notice",
            "fr": "avis"
        },
        "creator": {
            "en": "Agriculture and Agri-Food Canada",
            "fr": "Agriculture et Agroalimentaire Canada"
        },
        "spatial": {
            "en": "gcregions",
            "fr": "gcregions"
        },
        "service": {
            "en": "AAFC_AgriSource",
            "fr": "AAC_AgriSource"
        },
        "accessRights": {
            "en": "3",
            "fr": "3"
        }
    },
    "body": {
        "en": "\n<p><strong><br>Duties:<br>\n<br></strong>The Science and Technology Branch HR Planning and Reporting group has a 6 month AS-02 acting or assignment opportunity.</p>\n<p>\n<br><strong>Essential Qualifications</strong><br>\n<br>\n<br>Education: Secondary school diploma</p>\n<p><br>Experience(s):</p>\n<ul>\n<li>Experience working with clients, colleagues or managers to exchange information, identify problems and recommend solutions.</li>\n<li>Experience providing administrative support services such as document preparation and filing.</li>\n<li>Experience researching, analyzing and summarizing information obtained from different sources.</li>\n<li>Experience managing deadlines or projects.</li>\n</ul>\n<p><br>Competencies</p>\n<ul>\n<li>Works effectively with others</li>\n<li>Shows initiative and is action oriented</li>\n<li>Attention to detail</li>\n<li>Reliability</li>\n</ul>\n<p><br>Language Requirement(s): English Essential</p>\n<p>\u00a0</p>\n<p><strong>Asset Qualifications</strong></p>\n<ul>\n<li>Experience in the use of Microsoft Excel or Power BI in preparing reports.</li>\n<li>Experience Recent experience working in a protected personal information environment.</li>\n<li>Experience Recent experience in project management.\u00a0</li>\n</ul>\n<h3><strong><br>Organizational Needs</strong></h3>\n<p>In support of achieving a diversified workforce, consideration may be given to candidates self-identifying as belonging to one of the following Employment Equity groups: Aboriginal peoples, Persons with a Disability; Visible Minorities, Women.</p>\n<p>\u00a0</p>\n<p><strong>Conditions of Employment</strong><br>\n<br>Security Requirement(s): Reliability<br>\nOther conditions of employment: Ability and willingness to work overtime.</p>\n<p>\u00a0</p>\n<p><strong>Applications:</strong><br>\n<br>Interested AAFC employees are encouraged to forward their resume to Anne Erkhart (<a href=\"mailto:anne.erkhart@canada.ca\">anne.erkhart@canada.ca</a>).</p>\n<p>Resumes must clearly identify:</p>\n<ul>\n<li>\n<p>Your tenure (e.g. term or indeterminate)</p>\n</li>\n<li>\n<p>Your substantive group and level</p>\n</li>\n</ul>\n<p><br>\n<strong>Notes:</strong></p>\n<ul>\n<li>\n<p>Communication for this process will be sent via email.</p>\n</li>\n<li>\n<p>A pool of qualified candidates may be established and may be used to staff similar positions on an acting, assignment or deployment basis.</p>\n</li>\n</ul>\n<p>\u00a0</p>\n<ul>\n</ul>\n",
        "fr": "\n<p><strong><br>Fonctions</strong><br>\n<br>L\u2019unit\u00e9 de la Planification des RH et des rapports de la Direction g\u00e9n\u00e9rale des sciences et de la technologie offre une possibilit\u00e9 de nomination int\u00e9rimaire ou d\u2019affectation de six mois au niveau AS-02.</p>\n<p>\u00a0</p>\n<p><strong>Qualifications essentielles</strong></p>\n<p><br>\u00c9tudes : dipl\u00f4me d\u2019\u00e9tudes secondaires</p>\n<p>\u00a0</p>\n<p>Exp\u00e9rience</p>\n<ul>\n<li>Exp\u00e9rience du travail avec des clients, des coll\u00e8gues ou des gestionnaires pour \u00e9changer des renseignements, cerner des probl\u00e8mes et recommander des solutions.</li>\n<li>Exp\u00e9rience de la prestation de services de soutien administratif comme la pr\u00e9paration et le classement de documents.</li>\n<li>Exp\u00e9rience de la recherche, de l\u2019analyse et de la synth\u00e8se de renseignements provenant de diff\u00e9rentes sources.</li>\n<li>Exp\u00e9rience de la gestion d\u2019\u00e9ch\u00e9anciers de projets.</li>\n</ul>\n<p>\u00a0</p>\n<p>Comp\u00e9tences</p>\n<ul>\n<li>Travaille efficacement avec d\u2019autres</li>\n<li>Fait preuve d\u2019initiative et est orient\u00e9 vers l\u2019action</li>\n<li>Souci du d\u00e9tail</li>\n<li>Fiabilit\u00e9</li>\n</ul>\n<p>\u00a0</p>\n<p>Exigences linguistiques : Anglais essentiel</p>\n<p>\u00a0</p>\n<p><strong>Qualifications constituant un atout</strong></p>\n<ul>\n<li>Exp\u00e9rience de l\u2019utilisation de Microsoft Excel ou Power BI pour la pr\u00e9paration de rapports.</li>\n<li>Exp\u00e9rience du travail dans un environnement de protection des renseignements personnels.</li>\n<li>Exp\u00e9rience de la gestion de projet.</li>\n</ul>\n<p>\u00a0</p>\n<h3><strong>Besoins organisationnels</strong></h3>\n<p>Pour les besoins de la diversification de l\u2019effectif, la pr\u00e9f\u00e9rence pourrait \u00eatre accord\u00e9e aux candidats qui auront indiqu\u00e9 leur appartenance \u00e0 l\u2019un des groupes vis\u00e9s par l\u2019\u00e9quit\u00e9 en mati\u00e8re d\u2019emploi : Autochtones, personnes handicap\u00e9es, minorit\u00e9s visibles et femmes.</p>\n<p>\u00a0</p>\n<p><strong>Conditions d\u2019emploi</strong></p>\n<p>Exigences en mati\u00e8re de s\u00e9curit\u00e9 : Fiabilit\u00e9</p>\n<p>Autres conditions d\u2019emploi : \u00catre apte et dispos\u00e9 \u00e0 faire des heures suppl\u00e9mentaires.</p>\n<p>\u00a0</p>\n<p><strong>Demandes</strong></p>\n<p>Les employ\u00e9s d\u2019AAC int\u00e9ress\u00e9 par cette possibilit\u00e9 sont invit\u00e9s \u00e0 envoyer leur <em>curriculum vitae</em> \u00e0 Anne Erkhart (<a href=\"mailto:anne.erkhart@canada.ca\">anne.erkhart@canada.ca</a>).</p>\n<p>Dans leur <em>curriculum vitae</em>, les candidats doivent clairement indiquer :</p>\n<ul>\n<li>\n<p>la dur\u00e9e de leur emploi (p. ex. d\u00e9termin\u00e9e ou ind\u00e9termin\u00e9e);</p>\n</li>\n</ul>\n<p>leurs groupe et niveau de titularisation.\u00a0</p>\n<p>\u00a0</p>\n<p><strong>Remarques </strong></p>\n<ul>\n<li>\n<p>Les communications relatives \u00e0 ce processus se feront par courriel.</p>\n</li>\n<li>\n<p>Un bassin de candidats qualifi\u00e9s pourrait \u00eatre \u00e9tabli et utilis\u00e9 pour doter des postes semblables int\u00e9rimaires, temporaires ou permanents.</p>\n</li>\n</ul>\n<p>\u00a0</p>\n<ul>\n</ul>\n\n"
    },
    "breadcrumb": {
        "en": "Project Support Officer",
        "fr": "Agent de soutien de projet"
    },
    "empl": {
        "type": {
            "en": "Assignment, Acting",
            "fr": "Affectation, Int\u00e9rimaire"
        },
        "classification": {
            "en": "AS-2",
            "fr": "AS-2"
        },
        "branch": {
            "en": "Science and Technology Branch",
            "fr": "Direction g\u00e9n\u00e9rale des sciences et de la technologie"
        },
        "locations": {
            "en": "National Capital Region, or regional office",
            "fr": "RCN ou un bureau r\u00e9gional"
        },
        "date_closing": {
            "en": "2020-03-20",
            "fr": "2020-03-20"
        },
        "open_to": {
            "en": "All AAFC employees",
            "fr": "Tous les employ\u00e9s d\u2019AAC"
        },
        "name": {
            "en": "Anne Erkhart",
            "fr": "Anne Erkhart"
        },
        "email": {
            "en": "anne.erkhart@canada.ca",
            "fr": "anne.erkhart@canada.ca"
        }
    }
}