{
    "dcr_id": "1583349899271",
    "lang": "en",
    "title": {
        "en": "Science Policy Analyst",
        "fr": "Analyste en politiques scientifiques"
    },
    "modified": "2020-03-05 00:00:00.0",
    "issued": "2020-03-05 00:00:00.0",
    "type_name": "intra-intra/empl-empl",
    "node_id": "1279029955397",
    "layout_name": null,
    "dc_date_created": "2020-03-04",
    "breadcrumb_label": "",
    "meta": {
        "issued": {
            "en": "2020-03-05",
            "fr": "2020-03-05"
        },
        "modified": {
            "en": "2020-03-05",
            "fr": "2020-03-05"
        },
        "format": {
            "en": "gcformat",
            "fr": "gcformat"
        },
        "title": {
            "en": "Science Policy Analyst",
            "fr": "Analyste en politiques scientifiques"
        },
        "subject": {
            "en": "staffing",
            "fr": "dotation en personnel"
        },
        "language": {
            "en": "eng",
            "fr": "fra"
        },
        "audience": {
            "en": "gcaudience",
            "fr": "gcaudience"
        },
        "type": {
            "en": "notice",
            "fr": "avis"
        },
        "creator": {
            "en": "Agriculture and Agri-Food Canada",
            "fr": "Agriculture et Agroalimentaire Canada"
        },
        "spatial": {
            "en": "gcregions",
            "fr": "gcregions"
        },
        "service": {
            "en": "AAFC_AgriSource",
            "fr": "AAC_AgriSource"
        },
        "accessRights": {
            "en": "3",
            "fr": "3"
        }
    },
    "body": {
        "en": "\n<div>\n<div><strong>\u00a0</strong></div>\nThe Science Policy and Partnerships division is looking for dynamic people to join their team on a one-year development assignment. This opportunity allows you to bring your science expertise to the development of government policies and procedures. You will have the opportunity to represent the branch or department on working groups and develop key government writing and briefing skills. You will be working on policy files impacting a number of issues and interests related to agricultural research and technology. The Science Policy and Partnerships Division is a dispersed, virtual team working across Canada. Successful candidates will be assigned a mentor.</div>\n<div><strong><br>Duties</strong></div>\n<div>This position will support branch planning, setting strategy and investment priorities, interdepartmental science collaboration, and briefing senior officials on scientific and policy trends and reports. You will work with key stakeholders across various branches, other government departments and/or industry representatives.</div>\n<div><strong><br>Essential Qualifications</strong></div>\n<div><strong><br>Education</strong></div>\n<div>Graduation with a degree from a\u00a0recognized post-secondary institution</div>\n<div><strong><br>Experience</strong></div>\n<div>Experience in researching, analyzing and drafting briefing notes, reports, presentations, or documents on complex or sensitive issues</div>\n<div>Experience in developing and maintaining collaborative relationships with internal and/or external stakeholders.</div>\n<div><strong><br>Language Requirement(s)</strong></div>\n<div>English Essential, Bilingual Imperative BBB/BBB</div>\n<div><strong><br>Asset Qualifications </strong></div>\n<div><strong><br>Experience</strong></div>\n<div>Experience working as part of a dispersed team</div>\n<div><strong><br>Knowledge</strong></div>\n<div>Knowledge of agricultural research and technology systems and trends, such as, but not limited to: Plant Health, Clean Technology, Disruptive Technologies, Antimicrobial Resistance.</div>\n<div><strong><br>Organizational Needs</strong></div>\n<div>In support of achieving a diversified workforce, consideration may be given to candidates self-identifying as belonging to one of the following Employment Equity groups: Aboriginal peoples, Persons with a Disability; Visible Minorities, Women.</div>\n<div><strong><br>Conditions of Employment</strong></div>\n<div><strong><br>Security Requirement(s)</strong></div>\n<div>Secret Security Clearance</div>\n<div><strong><br>Other conditions of employment</strong></div>\n<ul>\n<li>Willingness and ability to work overtime.</li>\n<li>Willingness and ability to travel domestically.</li>\n</ul>\n<div><strong><br>Applications</strong><strong>:</strong></div>\n<div>Interested staff are encouraged to forward their resume and cover letter highlighting how they meet the essential and asset qualifications and/or their questions to Luella Graham at luella.graham@canada.ca.</div>\n<div>Your resume must clearly identify:</div>\n<ul>\n<li>Your tenure (e.g. term or indeterminate employee)</li>\n<li>Your substantive group and level</li>\n</ul>\n<div><strong>Notes:\u00a0</strong></div>\n<ul>\n<li>Communication for this process will be sent via email.\n</li>\n<li>Your application may be retained to staff similar positions on an acting, assignment or deployment basis.</li>\n</ul>\n<div>\u00a0</div>\n<ul>\n</ul>\n<div>\u00a0</div>\n",
        "fr": "\n<p>\u00a0</p>\n<p>La Division des politiques et des partenariats scientifiques est \u00e0 la recherche des personnes dynamiques pour se rejoindre \u00e0 son \u00e9quipe dans le cadre d\u2019une affectation de perfectionnement d\u2019un an. Cette affectation vous permettra de mettre votre expertise scientifique au profit de l\u2019\u00e9laboration de politiques et de proc\u00e9dures gouvernementales. Vous aurez l\u2019occasion de repr\u00e9senter la Direction g\u00e9n\u00e9rale ou le Minist\u00e8re au sein de groupes de travail et de d\u00e9velopper des comp\u00e9tences en r\u00e9daction et en pr\u00e9sentation de s\u00e9ances d\u2019information importantes au gouvernement. Vous travaillerez \u00e0 des dossiers strat\u00e9giques qui ont une incidence sur un grand nombre de questions et d\u2019int\u00e9r\u00eats li\u00e9s \u00e0 la recherche et \u00e0 la technologie en agriculture. La Division des politiques et des partenariats scientifiques est une \u00e9quipe virtuelle, dont les membres sont dispers\u00e9s un peu partout au Canada. Les candidats retenus se verront assigner un mentor.</p>\n<p><b><br>Fonctions</b></p>\n<p>Les fonctions consistent, entre autres, \u00e0 contribuer aux plans, \u00e0 la strat\u00e9gie et aux priorit\u00e9s en mati\u00e8re d\u2019investissement de la Direction g\u00e9n\u00e9rale, \u00e0 participer \u00e0 la collaboration scientifique interminist\u00e9rielle et \u00e0 informer des cadres sup\u00e9rieurs sur les tendances et les rapports li\u00e9s aux politiques. Vous travaillerez en \u00e9troite collaboration avec des intervenants de toutes les directions g\u00e9n\u00e9rales, d\u2019autres minist\u00e8res et des repr\u00e9sentants du secteur.</p>\n<p><strong><br>\u00c9ducation essentiel</strong></p>\n<p>Un grade d\u2019un \u00e9tablissement d\u2019enseignement postsecondaire reconnu</p>\n<p><strong><br>Exp\u00e9rience essentiel</strong></p>\n<ul>\n<li>Exp\u00e9rience de la documentation, de l\u2019analyse et de la r\u00e9daction de notes d\u2019information, de rapports, de pr\u00e9sentations ou de documents sur des questions complexes ou d\u00e9licates.</li>\n<li>Exp\u00e9rience de l\u2019\u00e9tablissement et du maintien de relations de collaboration avec des intervenants internes et externes.</li>\n</ul>\n<p><b><br>Connaisances</b></p>\n<ul>\n<li>Connaissance des tendances et des syst\u00e8mes li\u00e9s \u00e0 la recherche et au d\u00e9veloppement technologique en agriculture.</li>\n<li>Notamment, sans s\u2019y limiter, en ce qui concerne la protection des v\u00e9g\u00e9taux, les technologies propres, les technologies perturbatrices et la r\u00e9sistance aux antimicrobiens.</li>\n</ul>\n<p><br><b>Exigences linguistiques</b></p>\n<p>Bilingue BBB, Anglais essentiel</p>\n<p><br><b>Qualifications constituant un atout</b></p>\n<p><strong><br>Exp\u00e9rience</strong></p>\n<p>Exp\u00e9rience de travail au sein d\u2019une \u00e9quipe dispers\u00e9e</p>\n<p><br><b>Connaissances</b></p>\n<ul>\n<li>Connaissance des tendances et des syst\u00e8mes li\u00e9s \u00e0 la recherche et au d\u00e9veloppement technologique en agriculture.\n</li>\n<li>Notamment en ce qui concerne la protection des v\u00e9g\u00e9taux, les technologies propres, les technologies perturbatrices et la r\u00e9sistance aux antimicrobiens.\n\t\n\t</li>\n</ul>\n<p><br><b>Besoins de l'organisation</b></p>\n<p>Pour diversifier l\u2019effectif, on pourra examiner la candidature des personnes qui s\u2019identifient comme appartenant \u00e0 des groupes vis\u00e9s par l\u2019\u00e9quit\u00e9 en mati\u00e8re d\u2019emploi, soit les autochtones, les personnes handicap\u00e9es, les membres des minorit\u00e9s visibles et les femmes..</p>\n<p><br><b>Conditions d'emplois</b></p>\n<ul>\n</ul>\n<p><b>Exigence de s\u00e9curit\u00e9\n</b>\t</p>\n<ul>\n<li>Consentir \u00e0 obtenir et \u00e0 conserver la cote de s\u00e9curit\u00e9 de niveau II (Secret)</li>\n</ul>\n<p><br><b>Autres conditions d'emplois\u00a0\n</b>\t</p>\n<ul>\n<li>\u00catre dispos\u00e9 \u00e0 faire des heures suppl\u00e9mentaires \u00e0 l'occasion</li>\n<li>\u00catre dispos\u00e9 \u00e0 effectuer des d\u00e9placements pour le travail, \u00e0 l'occasion</li>\n</ul>\n<p><br><b>Demandes</b></p>\n<p>Les employ\u00e9s int\u00e9ress\u00e9s\u00a0 sont invit\u00e9s \u00e0 transmettre leur <em>curriculum vitae</em> et une lettre de pr\u00e9sentation \u00e0 luella.graham@canada.ca. La lettre de pr\u00e9sentation doit mettre en relief les connaissances et l\u2019exp\u00e9rience ci-dessus.</p>\n<p>Votre curriculum vit\u00e6 doit indiquer clairement :\n</p>\n<ul>\n<li>la dur\u00e9e de votre emploi (p. ex., p\u00e9riode d\u00e9termin\u00e9e ou ind\u00e9termin\u00e9e);</li>\n<li>le groupe et le niveau de votre poste d\u2019attache</li>\n</ul>\n<p>\n<br><b>Notes</b></p>\n<ul>\n<li>Les communications relatives au processus de s\u00e9lection se feront par courriel.</li>\n</ul>\n<ul>\n<li>Les candidatures qualifi\u00e9s pourraient \u00eatre garder et\u00a0pourront servir \u00e0 doter des postes semblables sur une base int\u00e9rimaire, d\u2019affectation ou de mutation.<em> </em></li>\n</ul>\n<p>\u00a0</p>\n\n"
    },
    "breadcrumb": {
        "en": "Science Policy Analyst",
        "fr": "Analyste en politiques scientifiques"
    },
    "empl": {
        "type": {
            "en": "Assignment",
            "fr": "Affectation"
        },
        "classification": {
            "en": "EC-2, EC-3, EC-4 and equivalent",
            "fr": "EC-2, EC-3, EC-4 et \u00e9quivalent"
        },
        "branch": {
            "en": "Science and Technology Branch",
            "fr": "Direction g\u00e9n\u00e9rale des sciences et de la technologie"
        },
        "locations": {
            "en": "Calgary, Regina, Winnipeg, Guelph, Ottawa, St-Jean-sur-Richelieu, Fredericton, Charlottetown or Kentville",
            "fr": "Calgary, Regina, Winnipeg, Guelph, Ottawa, St-Jean-sur-Richelieu, Fredericton, Charlottetown ou Kentville"
        },
        "date_closing": {
            "en": "2020-03-20",
            "fr": "2020-03-20"
        },
        "open_to": {
            "en": "All AAFC Employees",
            "fr": "Tous les employ\u00e9s d'AAC"
        },
        "name": {
            "en": "Luella Graham",
            "fr": "Luella Graham"
        },
        "email": {
            "en": "luella.graham@canada.ca",
            "fr": "luella.graham@canada.ca"
        }
    }
}