{
    "dcr_id": "1588101581571",
    "lang": "en",
    "title": {
        "en": "Financial Officer",
        "fr": "Agent des finances"
    },
    "modified": "2020-04-29 00:00:00.0",
    "issued": "2020-04-29 00:00:00.0",
    "type_name": "intra-intra/empl-empl",
    "node_id": "1279029955397",
    "layout_name": null,
    "dc_date_created": "2020-04-29",
    "breadcrumb_label": "",
    "meta": {
        "issued": {
            "en": "2020-04-29",
            "fr": "2020-04-29"
        },
        "modified": {
            "en": "2020-04-29",
            "fr": "2020-04-29"
        },
        "format": {
            "en": "gcformat",
            "fr": "gcformat"
        },
        "title": {
            "en": "Financial Officer",
            "fr": "Agent des finances"
        },
        "subject": {
            "en": "staffing",
            "fr": "dotation en personnel"
        },
        "language": {
            "en": "eng",
            "fr": "fra"
        },
        "audience": {
            "en": "gcaudience",
            "fr": "gcaudience"
        },
        "type": {
            "en": "notice",
            "fr": "avis"
        },
        "creator": {
            "en": "Agriculture and Agri-Food Canada",
            "fr": "Agriculture et Agroalimentaire Canada"
        },
        "spatial": {
            "en": "gcregions",
            "fr": "gcregions"
        },
        "service": {
            "en": "AAFC_AgriSource",
            "fr": "AAC_AgriSource"
        },
        "accessRights": {
            "en": "3",
            "fr": "3"
        }
    },
    "body": {
        "en": "\n<p><strong>\u00a0</strong></p>\n<p><strong>Duties:</strong><em>\u00a0 </em></p>\n<p>The Accounts Receivable Revenue Management Section (ARRMS) manages and undertakes collection activities on several types of receivables: defaulted program receivables (FGPD), program overpayment receivables (FIPD), Repayment Program receivables (URC/CRC), employee receivables and collaborator receivables.</p>\n<p>The main responsibilities of this position are:</p>\n<ul>\n<li>Supervision of Staff.</li>\n<li>Ensuring accuracy of financial information in the Agriculture Account Receivable Management System (AARMS), Sales and Distribution Accounts Receivables (SD) module of SAP and the Tax Information Slip System (TISS).</li>\n<li>Approving transactions in SAP (ex. Monthly Accounts Receivable JV, Customer Refunds, Deletions).</li>\n<li>Preparing cyclical and ad hoc reports.</li>\n<li>Various other activities: year-end; resolution of systems issues; maintaining client relationships, etc.</li>\n</ul>\n<p><strong>\u00a0</strong></p>\n<p><strong>Statement of Merit Criteria &amp; Conditions of Employment</strong></p>\n<p><strong>\u00a0</strong></p>\n<p><strong>Essential Qualifications</strong></p>\n<p>\u00a0</p>\n<p>Education:</p>\n<ul>\n<li>A degree from a recognized post-secondary institution with specialization in accounting, finance, business administration, commerce or economics</li>\n</ul>\n<p>AND experience related to positions in the Financial Management Group;</p>\n<p>OR</p>\n<p>possession of a recognized professional accounting designation (i.e. CPA, CA, CMA or CGA).</p>\n<p>\u00a0</p>\n<p>Experience:\u00a0</p>\n<ul>\n<li>Experience* in providing financial advice and recommendations to management.</li>\n<li>Experience* in analyzing, interpreting and applying financial acts, policies or directives within the Federal Government.</li>\n<li>Experience* in financial planning, budgeting, forecasting, expenditure analysis, monitoring, reporting or accounting operations.</li>\n<li>Experience in working with word processing, spreadsheet and presentation software, specifically Word, Excel and PowerPoint.\u00a0\u00a0</li>\n</ul>\n<p>* Experience is defined as a minimum of two (2) years.</p>\n<p>\u00a0</p>\n<p>Knowledge:</p>\n<ul>\n<li>Knowledge of Generally Accepted Accounting Principles (GAAP)/International Financial Reporting Standards (IFRS).</li>\n<li>Knowledge of the Government Expenditure Management System.</li>\n<li>Knowledge of the <em>Financial Administration Act</em> <em>(FAA)</em> and related Federal Government financial policies and directives.</li>\n</ul>\n<p>\u00a0</p>\n<p>Competencies:</p>\n<ul>\n<li>Interactive communication</li>\n<li>Analytical thinking</li>\n<li>Client Focus</li>\n<li>Teamwork</li>\n<li>Initiative</li>\n<li>Writing Skills</li>\n<li>Planning and Organizing</li>\n</ul>\n<p>\u00a0</p>\n<p>Language Requirement:</p>\n<ul>\n<li>Bilingual Imperative (BBB/BBB)</li>\n</ul>\n<h3>Asset Qualifications:</h3>\n<ul>\n<li>Possession of a recognized professional accounting designation (i.e. CPA, CA, CMA or CGA).</li>\n<li>Experience in using the financial system SAP.</li>\n</ul>\n<h3>Organizational Needs:</h3>\n<p>In support of achieving a diversified workforce, consideration may be given to candidates self-identifying as belonging to one of the following Employment Equity groups: Aboriginal peoples; Persons with a Disability; Visible Minorities; and Women.</p>\n<p><strong>\u00a0</strong></p>\n<p><strong>Conditions of Employment:</strong></p>\n<p>Security Requirement(s): reliability</p>\n<p><strong>\u00a0</strong></p>\n<p><strong>Operational Requirements:</strong></p>\n<ul>\n<li>Ability and willingness to work overtime on short notice.</li>\n</ul>\n<p><strong>\u00a0</strong></p>\n<p><strong>Applications:</strong></p>\n<p>Interested AAFC employees in the NCR are encouraged to forward their r\u00e9sum\u00e9 and cover letter to Tania Gardner at <a href=\"mailto:aafc.fcd-dcf.aac@canada.ca\">aafc.fcd-dcf.aac@canada.ca</a> by May 8, 2020.</p>\n<p>R\u00e9sum\u00e9s must clearly identify:</p>\n<ul>\n<li>Your tenure (e.g. term or indeterminate)</li>\n<li>Your substantive group and level</li>\n</ul>\n<p><strong>\u00a0</strong></p>\n<p><strong>Notes:</strong></p>\n<ul>\n<li>The opportunity is for a 12-month assignment at level or acting opportunity with the possibility of an extension.</li>\n<li>Communication for this process will be sent via email.</li>\n<li>A pool of qualified candidates may be established and may be used to staff similar positions on an acting, assignment or deployment basis.</li>\n<li>Assessment of applicants will be based on the review of their r\u00e9sum\u00e9, an interview and reference checks.</li>\n</ul>\n<p>\u00a0</p>\n",
        "fr": "\n<p><strong>\u00a0</strong></p>\n<p><strong>Fonctions :</strong></p>\n<p>La Section des comptes recevables et de la gestion des revenus g\u00e8re et effectue des activit\u00e9s de recouvrement pour diff\u00e9rents types de comptes d\u00e9biteurs : d\u00e9fauts de paiement li\u00e9s aux programmes (Division des programmes de garanties financi\u00e8res); trop-pay\u00e9s li\u00e9s aux programmes (Direction des programmes du revenu agricole); remboursements li\u00e9s aux programmes (contributions \u00e0 remboursement non conditionnel/contributions \u00e0 remboursement conditionnel); employ\u00e9s; collaborateurs.</p>\n<p>Voici les principales responsabilit\u00e9s du poste :</p>\n<ul>\n<li>Superviser du personnel.</li>\n<li>S\u2019assurer de l\u2019exactitude des renseignements financiers dans le Syst\u00e8me de gestion des comptes clients en agriculture (SGCCA), le module SD de SAP (ventes et distribution \u2013 comptes d\u00e9biteurs) et le Syst\u00e8me de feuillets de renseignements fiscaux (SFRF).</li>\n<li>Approuver des transactions dans SAP (p. ex. PJ mensuelles pour les comptes d\u00e9biteurs, remboursement des clients, suppressions).</li>\n<li>Pr\u00e9parer des rapports cycliques et ponctuels.</li>\n<li>Diverses autres activit\u00e9s : fin d\u2019exercice financier; r\u00e9solution de probl\u00e8mes li\u00e9s aux syst\u00e8mes; maintien des relations avec les clients, etc.</li>\n</ul>\n<p><strong>\u00a0</strong></p>\n<p><strong>\u00c9noncer des crit\u00e8res de m\u00e9rite et conditions d\u2019emploi : </strong></p>\n<p><strong>\u00a0</strong></p>\n<p><strong>Qualifications essentielles </strong></p>\n<p>\u00a0</p>\n<p>\u00c9tudes:</p>\n<ul>\n<li>Un grade d\u2019un \u00e9tablissement d\u2019enseignement postsecondaire reconnu avec sp\u00e9cialisation en comptabilit\u00e9, en finances, en administration des affaires, en commerce ou en \u00e9conomie </li>\n</ul>\n<p>ET</p>\n<p>une exp\u00e9rience reli\u00e9e aux postes du groupe Gestion financi\u00e8re;</p>\n<p>OU</p>\n<p>poss\u00e9der un titre de comptable octroy\u00e9 par une association professionnelle reconnue (c.-\u00e0-d. CPA, CA, CMA ou CGA).</p>\n<p>\u00a0</p>\n<p>Exp\u00e9rience :</p>\n<ul>\n<li>Exp\u00e9rience* de la formulation de conseils et de recommandations de nature financi\u00e8re \u00e0 la direction.</li>\n<li>Exp\u00e9rience* de l\u2019analyse, de l\u2019interpr\u00e9tation et de l\u2019application de lois, de politiques ou de directives se rapportant \u00e0 la gestion des finances au sein du gouvernement f\u00e9d\u00e9ral.</li>\n<li>Exp\u00e9rience* relative \u00e0 la planification financi\u00e8re, \u00e0 l\u2019\u00e9tablissement de budgets, de pr\u00e9visions ou de rapports, \u00e0 l\u2019analyse des d\u00e9penses, \u00e0 la v\u00e9rification ou aux op\u00e9rations comptables.</li>\n<li>Exp\u00e9rience de l\u2019utilisation de logiciels de traitement de textes, de tableurs et de logiciels de pr\u00e9sentation, tout particuli\u00e8rement de Word, d\u2019Excel et de PowerPoint.</li>\n</ul>\n<p>* On entend par \u00ab exp\u00e9rience \u00bb un minimum de 2 ans</p>\n<p>\u00a0</p>\n<p>Connaissance :</p>\n<ul>\n<li>Connaissance des principes comptables g\u00e9n\u00e9ralement reconnus (PCGR)/Normes internationales d\u2019information financi\u00e8re (IFRS).</li>\n<li>Connaissance du syst\u00e8me de gestion des d\u00e9penses du gouvernement.</li>\n<li>Connaissance de la Loi sur la gestion des finances publiques (LGFP) ainsi que des politiques et directives financi\u00e8res connexes du gouvernement f\u00e9d\u00e9ral.</li>\n</ul>\n<p>\u00a0</p>\n<p>Comp\u00e9tence :</p>\n<ul>\n<li>Communication interactive</li>\n<li>R\u00e9flexion analytique</li>\n<li>Accent mis sur le client</li>\n<li>Travail d'\u00e9quipe</li>\n<li>Initiative</li>\n<li>Aptitudes \u00e0 \u00e9crire</li>\n<li>Planification et organisation</li>\n</ul>\n<p>\u00a0</p>\n<p>Exigence linguistique :</p>\n<ul>\n<li>Bilingue imp\u00e9ratif (BBB/BBB)</li>\n</ul>\n<p><strong>\u00a0</strong></p>\n<p><strong>Qualifications constituant un atout :</strong></p>\n<ul>\n<li>Poss\u00e9der un titre de comptable octroy\u00e9 par une association professionnelle reconnue (c.\u00e0-d. CPA, CA, CMA ou CGA).</li>\n<li>Exp\u00e9rience de l\u2019utilisation du syst\u00e8me financier SAP.</li>\n</ul>\n<p><strong>\u00a0</strong></p>\n<p><strong>Besoins de l'organisation :</strong></p>\n<p>Pour r\u00e9pondre aux besoins de diversification de l\u2019effectif, la pr\u00e9f\u00e9rence pourrait \u00eatre accord\u00e9e aux personnes qui auront indiqu\u00e9 leur appartenance \u00e0 l\u2019un des groupes suivants, vis\u00e9s par l\u2019\u00e9quit\u00e9 en mati\u00e8re d\u2019emploi : Autochtones, personnes handicap\u00e9es, membres d\u2019une minorit\u00e9 visible, femmes.</p>\n<p><strong>\u00a0</strong></p>\n<p><strong>Conditions d'emploi :</strong></p>\n<p>Exigences de s\u00e9curit\u00e9(s) : Cote de fiabilit\u00e9</p>\n<p><strong>\u00a0</strong></p>\n<p><strong>Exigences op\u00e9rationnelles :</strong></p>\n<ul>\n<li>\u00catre apte et dispos\u00e9 \u00e0 faire des heures suppl\u00e9mentaires \u00e0 bref pr\u00e9avis.</li>\n</ul>\n<p><strong>\u00a0</strong></p>\n<p><strong>Candidatures</strong></p>\n<p>Les employ\u00e9s d\u2019AAC de la RCN int\u00e9ress\u00e9s sont invit\u00e9s \u00e0 envoyer leur curriculum vitae et une lettre d\u2019accompagnement \u00e0 Tania Gardner \u00e0 <a href=\"mailto:aafc.fcd-dcf.aac@canada.ca\">aafc.fcd-dcf.aac@canada.ca</a> d\u2019ici le 8 mai 2020.</p>\n<p>Les curriculum vitae doivent nettement pr\u00e9ciser :</p>\n<ul>\n<li>votre type de poste (p. ex., \u00e0 dur\u00e9e d\u00e9termin\u00e9e ou ind\u00e9termin\u00e9e);</li>\n<li>la classification de votre poste d\u2019attache.</li>\n</ul>\n<p><strong>\u00a0</strong></p>\n<p><strong>Remarques</strong></p>\n<ul>\n<li>Il s\u2019agit d\u2019une affectation au niveau ou d\u2019une nomination int\u00e9rimaire de 12 mois avec possibilit\u00e9 de prolongation.</li>\n<li>Les communications relatives au\u00a0 processus de s\u00e9lection se feront par courriel.</li>\n<li>Un bassin de candidats qualifi\u00e9s pourra \u00eatre cr\u00e9\u00e9 et pourra servir \u00e0 doter des postes semblables sur une base int\u00e9rimaire, d\u2019affectation ou de mutation.<em> </em></li>\n<li>L'\u00e9valuation des candidats sera bas\u00e9e sur l'examen de leur r\u00e9sum\u00e9, une entrevue et de la v\u00e9rification des r\u00e9f\u00e9rences.</li>\n</ul>\n<p>\u00a0</p>\n\n"
    },
    "breadcrumb": {
        "en": "Financial Officer",
        "fr": "Agent des finances"
    },
    "empl": {
        "type": {
            "en": "Assignment, Acting",
            "fr": "Affectation, Int\u00e9rimaire"
        },
        "classification": {
            "en": "FI-2",
            "fr": "FI-2"
        },
        "branch": {
            "en": "Corporate Management Branch",
            "fr": "Gestion int\u00e9gr\u00e9e"
        },
        "locations": {
            "en": "Ottawa, Ontario",
            "fr": "Ottawa, Ontario"
        },
        "date_closing": {
            "en": "2020-05-08",
            "fr": "2020-05-08"
        },
        "open_to": {
            "en": "All AAFC Employees in the National Capital Region (NCR)",
            "fr": "Tous les employ\u00e9s d\u2019AAC dans la r\u00e9gion de la capitale nationale (RCN)"
        },
        "name": {
            "en": "Tania Gardner",
            "fr": "Tania Gardner"
        },
        "email": {
            "en": "aafc.fcd-dcf.aac@canada.ca",
            "fr": "aafc.fcd-dcf.aac@canada.ca"
        }
    }
}