{
    "dcr_id": "1594300766967",
    "lang": "en",
    "title": {
        "en": "Manager, Financial Systems",
        "fr": "Gestionnaire, Syst\u00e8mes financiers"
    },
    "modified": "2020-07-09 00:00:00.0",
    "issued": "2020-07-09 00:00:00.0",
    "type_name": "intra-intra/empl-empl",
    "node_id": "1279029955397",
    "layout_name": null,
    "dc_date_created": "2020-07-09",
    "breadcrumb_label": "",
    "meta": {
        "issued": {
            "en": "2020-07-09",
            "fr": "2020-07-09"
        },
        "modified": {
            "en": "2020-07-09",
            "fr": "2020-07-09"
        },
        "format": {
            "en": "gcformat",
            "fr": "gcformat"
        },
        "title": {
            "en": "Manager, Financial Systems",
            "fr": "Gestionnaire, Syst\u00e8mes financiers"
        },
        "subject": {
            "en": "staffing",
            "fr": "dotation en personnel"
        },
        "language": {
            "en": "eng",
            "fr": "fra"
        },
        "audience": {
            "en": "gcaudience",
            "fr": "gcaudience"
        },
        "type": {
            "en": "notice",
            "fr": "avis"
        },
        "creator": {
            "en": "Agriculture and Agri-Food Canada",
            "fr": "Agriculture et Agroalimentaire Canada"
        },
        "spatial": {
            "en": "gcregions",
            "fr": "gcregions"
        },
        "service": {
            "en": "AAFC_AgriSource",
            "fr": "AAC_AgriSource"
        },
        "accessRights": {
            "en": "3",
            "fr": "3"
        }
    },
    "body": {
        "en": "\n<p><strong>\u00a0</strong></p>\n<p><strong>Duties:</strong><em>\u00a0 </em></p>\n<p>The main responsibilities of this position are:</p>\n<ul>\n<li>Manage 3 FI-03 direct reports and a team of 5 in total;</li>\n<li>Manage a budget;</li>\n<li>Support transition to SAP S/4 HANA, early stage planning, roadmaps, budgeting, business transformations, collaborating with consultants;</li>\n<li>Actively participate in SAP cluster meetings/initiatives and oversee SAP Change Requests process;</li>\n<li>Oversee the management of SAP help desks; System Access, BPC, Financial Coding, Invoice to Pay (I2P);</li>\n<li>Act as intermediary between SAP Center of Excellence and SAP users;</li>\n<li>Manage modernization projects; process automation, advanced analytics, AI, machine learning, dashboards, big data initiatives;</li>\n<li>Keep up to date with emerging trends, by networking with other departments and attending conferences.</li>\n</ul>\n<p><strong><br>Essential Qualifications</strong></p>\n<p>Education:</p>\n<p>A degree from a recognized post-secondary institution with specialization in accounting, finance, business administration, commerce or economics AND Experience related to positions in the Financial Management Group; OR Possession of a recognized professional accounting designation (i.e. CPA, CA, CMA or CGA).</p>\n<p><strong><br>Asset Qualifications:</strong></p>\n<ul>\n<li>Possession of a recognized professional accounting designation (i.e CPA, CA, CMA, or CGA).</li>\n</ul>\n<p><strong><br>Organizational Needs:</strong></p>\n<p>In support of achieving a diversified workforce, consideration may be given to candidates self-identifying as belonging to one of the following Employment Equity groups: Aboriginal peoples; Persons with a Disability; Visible Minorities; and Women.</p>\n<p><strong><br>Conditions of Employment:</strong></p>\n<p>Security Requirement(s): reliability</p>\n<p><strong><br>Operational Requirements:</strong></p>\n<ul>\n<li>Ability and willingness to work overtime on short notice.</li>\n</ul>\n<p><strong><br>Applications:</strong></p>\n<p>Interested AAFC employees in the NCR are encouraged to forward their r\u00e9sum\u00e9 and cover letter to Tania Gardner at <a href=\"mailto:aafc.fcd-dcf.aac@canada.ca\">aafc.fcd-dcf.aac@canada.ca</a> by July 23, 2020.</p>\n<p>R\u00e9sum\u00e9s must clearly identify:</p>\n<ul>\n<li>Your tenure (e.g. term or indeterminate)</li>\n<li>Your substantive group and level</li>\n</ul>\n<p><strong><br>Notes:</strong></p>\n<ul>\n<li>The opportunity is for an approximately 9-month assignment at level or acting opportunity, starting in September 2020.</li>\n<li>Communication for this process will be sent via email.</li>\n<li>A pool of qualified candidates may be established and may be used to staff similar positions on an acting, assignment or deployment basis.</li>\n<li>Assessment of applicants will be based on the review of their r\u00e9sum\u00e9, an interview and reference checks.</li>\n</ul>\n<p>\u00a0</p>\n",
        "fr": "\n<p><strong>\u00a0</strong></p>\n<p><strong>Fonctions :</strong></p>\n<p>Les principales responsabilit\u00e9s du poste sont les suivantes :</p>\n<ul>\n<li>G\u00e9rer trois subalternes directs FI-03 et une \u00e9quipe comportant cinq personnes au total;</li>\n<li>G\u00e9rer un budget;</li>\n<li>Appuyer la transition vers le SAP S/4 HANA, la planification des premiers stades, les feuilles de route, l\u2019\u00e9tablissement du budget, les transformations op\u00e9rationnelles et la collaboration avec les experts-conseils;</li>\n<li>Participer activement aux r\u00e9unions et aux initiatives du groupe de concertation sur le SAP et superviser le processus des demandes de modification du SAP;</li>\n<li>Superviser la gestion du bureau d\u2019aide du SAP, l\u2019acc\u00e8s au syst\u00e8me, le module BPC, le codage financier et le processus de la facture au paiement (FAP);</li>\n<li>Agir \u00e0 titre d\u2019interm\u00e9diaire entre le Centre d\u2019excellence SAP et les utilisateurs du SAP;</li>\n<li>G\u00e9rer les projets de modernisation, l\u2019automatisation des proc\u00e9d\u00e9s, l\u2019analytique avanc\u00e9e, l\u2019intelligence artificielle, l\u2019apprentissage automatique, les tableaux de bord et les initiatives li\u00e9es aux m\u00e9gadonn\u00e9es;</li>\n<li>Se tenir au courant des nouvelles tendances en r\u00e9seautant avec d\u2019autres minist\u00e8res et en participant \u00e0 des conf\u00e9rences.</li>\n</ul>\n<p><strong><br>Qualifications essentielles </strong></p>\n<p>\u00c9tudes:</p>\n<p>Un grade d\u2019un \u00e9tablissement d\u2019enseignement postsecondaire reconnu avec sp\u00e9cialisation en comptabilit\u00e9, en finances, en administration des affaires, en commerce ou en \u00e9conomie ET Exp\u00e9rience li\u00e9e aux postes du groupe Gestion financi\u00e8re; OU Poss\u00e9der un titre comptable professionnel reconnu (c.-\u00e0-d. CPA, CA, CMA ou CGA).</p>\n<p><strong><br>Qualifications constituant un atout :</strong></p>\n<ul>\n<li>Poss\u00e9der un titre comptable professionnel reconnu (c.\u00e0-d. CPA, CA, CMA ou CGA).</li>\n</ul>\n<p><strong><br>Besoins de l'organisation :</strong></p>\n<p>Pour r\u00e9pondre aux besoins de diversification de l\u2019effectif, la pr\u00e9f\u00e9rence pourrait \u00eatre accord\u00e9e aux personnes qui auront indiqu\u00e9 leur appartenance \u00e0 l\u2019un des groupes suivants, vis\u00e9s par l\u2019\u00e9quit\u00e9 en mati\u00e8re d\u2019emploi : Autochtones, personnes handicap\u00e9es, membres d\u2019une minorit\u00e9 visible, femmes.</p>\n<p><strong><br>Conditions d'emploi :</strong></p>\n<p>Exigences de s\u00e9curit\u00e9(s) : Cote de fiabilit\u00e9</p>\n<p><strong><br>Exigences op\u00e9rationnelles :</strong></p>\n<ul>\n<li>\u00catre apte et dispos\u00e9 \u00e0 faire des heures suppl\u00e9mentaires \u00e0 bref pr\u00e9avis.</li>\n</ul>\n<p><strong><br>Candidatures</strong></p>\n<p>Les employ\u00e9s d\u2019AAC de la RCN int\u00e9ress\u00e9s sont invit\u00e9s \u00e0 envoyer leur curriculum vitae et une lettre d\u2019accompagnement \u00e0 Tania Gardner \u00e0 <a href=\"mailto:aafc.fcd-dcf.aac@canada.ca\">aafc.fcd-dcf.aac@canada.ca</a> d\u2019ici le 23 juillet 2020.</p>\n<p>Les curriculum vitae doivent nettement pr\u00e9ciser :</p>\n<ul>\n<li>votre type de poste (p. ex., \u00e0 dur\u00e9e d\u00e9termin\u00e9e ou ind\u00e9termin\u00e9e);</li>\n<li>la classification de votre poste d\u2019attache.</li>\n</ul>\n<p><strong><br>Remarques</strong></p>\n<ul>\n<li>Il s\u2019agit d\u2019une affectation d\u2019environ 9 mois au niveau ou d\u2019une nomination int\u00e9rimaire, \u00e0 compter de septembre 2020.</li>\n<li>Les communications relatives au\u00a0 processus de s\u00e9lection se feront par courriel.</li>\n<li>Un bassin de candidats qualifi\u00e9s pourra \u00eatre cr\u00e9\u00e9 et pourra servir \u00e0 doter des postes semblables sur une base int\u00e9rimaire, d\u2019affectation ou de mutation.<em> </em></li>\n<li>L'\u00e9valuation des candidats sera bas\u00e9e sur l'examen de leur r\u00e9sum\u00e9, une entrevue et de la v\u00e9rification des r\u00e9f\u00e9rences.</li>\n</ul>\n<p>\u00a0</p>\n\n"
    },
    "breadcrumb": {
        "en": "Manager, Financial Systems",
        "fr": "Gestionnaire, Syst\u00e8mes financiers"
    },
    "empl": {
        "type": {
            "en": "Assignment, Acting",
            "fr": "Affectation, Int\u00e9rimaire"
        },
        "classification": {
            "en": "FI-4 and equivalent",
            "fr": "FI-4 et \u00e9quivalent"
        },
        "branch": {
            "en": "Corporate Management Branch",
            "fr": "Gestion int\u00e9gr\u00e9e"
        },
        "locations": {
            "en": "Ottawa, Ontario",
            "fr": "Ottawa, Ontario"
        },
        "date_closing": {
            "en": "2020-07-23",
            "fr": "2020-07-23"
        },
        "open_to": {
            "en": "All AAFC Employees in the National Capital Region (NCR)",
            "fr": "Tous les employ\u00e9s d\u2019AAC dans la r\u00e9gion de la capitale nationale (RCN)"
        },
        "name": {
            "en": "Tania Gardner",
            "fr": "Tania Gardner"
        },
        "email": {
            "en": "aafc.fcd-dcf.aac@canada.ca",
            "fr": "aafc.fcd-dcf.aac@canada.ca"
        }
    }
}