{
    "dcr_id": "1601578926481",
    "lang": "en",
    "title": {
        "en": "Data/Research Officer - AgriInsurance",
        "fr": "Agent(e) des donn\u00e9es et recherches \u2013 Agri-protection"
    },
    "modified": "2020-10-02 00:00:00.0",
    "issued": "2020-10-02 00:00:00.0",
    "type_name": "intra-intra/empl-empl",
    "node_id": "1279029955397",
    "layout_name": null,
    "dc_date_created": "2020-10-02",
    "breadcrumb_label": "",
    "meta": {
        "issued": {
            "en": "2020-10-02",
            "fr": "2020-10-02"
        },
        "modified": {
            "en": "2020-10-02",
            "fr": "2020-10-02"
        },
        "format": {
            "en": "gcformat",
            "fr": "gcformat"
        },
        "title": {
            "en": "Data/Research Officer - AgriInsurance",
            "fr": "Agent(e) des donn\u00e9es et recherches \u2013 Agri-protection"
        },
        "subject": {
            "en": "staffing",
            "fr": "dotation en personnel"
        },
        "language": {
            "en": "eng",
            "fr": "fra"
        },
        "audience": {
            "en": "gcaudience",
            "fr": "gcaudience"
        },
        "type": {
            "en": "notice",
            "fr": "avis"
        },
        "creator": {
            "en": "Agriculture and Agri-Food Canada",
            "fr": "Agriculture et Agroalimentaire Canada"
        },
        "spatial": {
            "en": "gcregions",
            "fr": "gcregions"
        },
        "service": {
            "en": "AAFC_AgriSource",
            "fr": "AAC_AgriSource"
        },
        "accessRights": {
            "en": "3",
            "fr": "3"
        }
    },
    "body": {
        "en": "\n<p><strong>\u00a0</strong></p>\n<p><strong>Duties</strong></p>\n<p>With the Production Insurance and Risk Management Division, the Data/Research Officer can expect to perform the following duties:</p>\n<ul>\n<li>Prepare responses to internal and external stakeholders\u2019 data requests regarding the AgriInsurance and Wildlife Compensation programs.</li>\n<li>Validate unit price tests supplied by the provinces in support to their insurance program.</li>\n<li>Participate in the data gathering of the performance indicators for the program to be published in the BRM Performance Indicators Report.</li>\n<li>Provide supports to program officers and program managers to review provincial proposals for changes to their AgriInsurance program pertaining to unit price.</li>\n<li>Verify and recommend validations of the quarterly statistics supplied by the provinces to comply with the <em>Canadian Agricultural Partnership</em> Agreement.</li>\n</ul>\n<p>\u00a0</p>\n<p><strong>Statement of Merit Criteria &amp; Conditions of Employment </strong></p>\n<p><strong><br>Essential qualifications</strong></p>\n<p><strong><br>EDUCATION</strong></p>\n<ul>\n<li>\n<p>Graduation with a degree from a recognized university with acceptable specialization in Economics, Sociology or Statistics.</p>\n</li>\n</ul>\n<p>NOTE: Candidates must always have a university degree. The courses for the specialization do not necessarily have to be part of a degree program in the required specialization. The specialization may also be obtained through an acceptable combination of education, training and/or experience.</p>\n<p><strong><br>EXPERIENCE</strong></p>\n<ul>\n<li>\n<p>Experience in conducting research including the identification, verification and collection of data.</p>\n</li>\n<li>\n<p>Experience in preparing reports and presenting research or analysis of findings.</p>\n</li>\n<li>\n<p>Experience in compiling data and information from a variety of sources and synthesizing results into written reports or research papers.</p>\n</li>\n</ul>\n<p><strong><br>KNOWLEDGE</strong></p>\n<ul>\n<li>\n<p>Knowledge of statistical principles, practices, techniques, tools and/or methods.</p>\n</li>\n</ul>\n<p><strong><br>COMPETENCIES</strong></p>\n<ul>\n<li>\n<p>Initiative</p>\n</li>\n<li>\n<p>Client focus</p>\n</li>\n<li>\n<p>Action-oriented</p>\n</li>\n</ul>\n<p><strong><br>ABILITIES</strong></p>\n<ul>\n<li>\n<p>Ability to gather, analyze, synthesize and interpret information from a variety of sources.</p>\n</li>\n<li>\n<p>Ability to develop procedure documents.</p>\n</li>\n<li>\n<p>Ability to communicate effectively in writing.</p>\n</li>\n<li>\n<p>Ability to communicate effectively orally.</p>\n</li>\n</ul>\n<p><strong><br>PERSONAL SUITABILITY</strong></p>\n<ul>\n<li>\n<p>Attention to detail.</p>\n</li>\n<li>\n<p>Effective interpersonal skills.</p>\n</li>\n</ul>\n<p><strong><br>Language Requirement</strong></p>\n<ul>\n<li>\n<p>English Essential</p>\n</li>\n</ul>\n<p><strong><br>Asset qualifications</strong></p>\n<p><strong><br>EDUCATION</strong></p>\n<ul>\n<li>\n<p>Masters or Post-graduate degree from a recognized university.</p>\n</li>\n</ul>\n<p><strong><br>EXPERIENCE</strong></p>\n<ul>\n<li>\n<p>Experience in preparing briefing materials.</p>\n</li>\n<li>\n<p>Experience in participating on project or working groups.</p>\n</li>\n</ul>\n<p><strong><br>KNOWLEDGE</strong></p>\n<ul>\n<li>\n<p>Knowledge of the agriculture industry and its component sectors as it relates to the mandate of the department.</p>\n</li>\n<li>\n<p>Knowledge of Project Management.</p>\n</li>\n</ul>\n<p><strong><br>Organizational Needs</strong></p>\n<p>In support of achieving a diversified workforce, consideration may be given to candidates self-identifying as belonging to one of the following Employment Equity groups: Aboriginal peoples, Persons with a Disability; Visible Minorities, Women.</p>\n<p><strong><br>Conditions of Employment</strong></p>\n<p><strong><br>Security Requirement(s)</strong></p>\n<p>Reliability status</p>\n<p><strong><br>Other conditions of employment: (i.e.: overtime and/or travel) </strong></p>\n<p>\u00a0</p>\n<ul>\n<li>\n<p>Ability and willingness to travel as required.</p>\n</li>\n<li>\n<p>Availability and willingness to work overtime occasionally.</p>\n</li>\n</ul>\n<p><strong><br>Application</strong></p>\n<p>For more information regarding the position or to apply, <em>AAFC</em> employees are encouraged to forward their resume and cover letter to Julie Rochon at julie.rochon@canada.ca</p>\n<p>Resumes must clearly identify:</p>\n<ul>\n<li>\n<p>Your tenure (e.g. term or indeterminate)</p>\n</li>\n<li>\n<p>Your substantive group and level</p>\n</li>\n</ul>\n<p><strong><br>Notes:</strong></p>\n<ul>\n<li>\n<p>Communication for this process will be sent via email.</p>\n</li>\n<li>\n<p>Candidates may be assessed through an interview.</p>\n</li>\n<li>\n<p>A written exam may be administered.</p>\n</li>\n<li>\n<p>Reference checks may be sought.</p>\n</li>\n</ul>\n<p>\u00a0</p>\n",
        "fr": "\n<p><strong>\u00a0</strong></p>\n<p><strong>Fonctions</strong></p>\n<p>\u00c0 la Division de l\u2019assurance-production et de la gestion des risques, l\u2019agent(e) des donn\u00e9es et recherches doit s\u2019attendre \u00e0 effectuer les t\u00e2ches suivantes :</p>\n<ul>\n<li>\n<p>Pr\u00e9parer les r\u00e9ponses aux demandes de donn\u00e9es des intervenants internes et externes portant sur le programme Agri-protection et Programme d\u2019indemnisation pour les dommages caus\u00e9s par la faune.</p>\n</li>\n<li>\n<p>Valider les tests de prix unitaire fournis par les provinces en appui de leurs programmes d\u2019assurance.</p>\n</li>\n<li>\n<p>Participer \u00e0 la collecte de donn\u00e9es sur les indicateurs de rendement des programmes, donn\u00e9es qui seront publi\u00e9es dans le Rapport sur les indicateurs de rendement des programmes de GRE.</p>\n</li>\n<li>\n<p>Fournir un support aux agents et gestionnaires de programme dans le r\u00e9vision des propositions de changements soumises par les provinces pour leur programme Agri-protection en ce qui a trait aux prix unitaires.</p>\n</li>\n<li>\n<p>V\u00e9rifier et recommander la validation des statistiques trimestrielles fournies par les provinces conform\u00e9ment \u00e0 l\u2019accord <em>Partenariat canadien pour l\u2019agri</em>culture.\u00a0</p>\n</li>\n</ul>\n<p>\u00a0</p>\n<p><strong>\u00c9noncer des crit\u00e8res de m\u00e9rite et conditions d\u2019emploi : </strong></p>\n<p>\u00a0</p>\n<p><strong>Qualifications essentielles</strong></p>\n<p>\u00a0</p>\n<p><strong>\u00c9ducation </strong></p>\n<p>Grade d'une universit\u00e9 reconnue avec sp\u00e9cialisation acceptable en \u00e9conomie, en sociologie ou en statistiques.<br>\n\t<br>\n\tREMARQUE : Les candidats doivent obligatoirement avoir un grade universitaire. Il n'est pas n\u00e9cessaire que les cours de sp\u00e9cialisation aient \u00e9t\u00e9 suivis dans le cadre d'un programme menant \u00e0 l'obtention d'un grade dans la sp\u00e9cialisation exig\u00e9e. Une combinaison acceptable d'\u00e9tudes, de formation et/ou d'exp\u00e9rience peut tenir lieu de sp\u00e9cialisation.</p>\n<p>\u00a0</p>\n<p><strong>Exp\u00e9riences</strong></p>\n<ul>\n<li>\n<p>Exp\u00e9rience de la r\u00e9alisation de recherche, y compris de la d\u00e9termination, de la v\u00e9rification et de la collecte de donn\u00e9es.</p>\n</li>\n<li>\n<p>Exp\u00e9rience de la pr\u00e9paration de rapports et de la pr\u00e9sentation de recherches ou d'analyses de conclusions.</p>\n</li>\n<li>\n<p>Exp\u00e9rience de la collecte de donn\u00e9es et de renseignements provenant de diverses sources et synth\u00e9tisation des r\u00e9sultats dans des rapports \u00e9crits ou des documents de recherche.\n\u00a0\u00a0</p>\n</li>\n</ul>\n<p>\u00a0</p>\n<p><strong>Connaissance</strong></p>\n<p>Connaissance des principes, pratiques, techniques, outils et m\u00e9thodes statistiques.\u00a0</p>\n<p>\u00a0</p>\n<p><strong>Comp\u00e9tence(s) </strong></p>\n<ul>\n<li>\n<p>Initiative</p>\n</li>\n<li>\n<p>Approche ax\u00e9e sur le client</p>\n</li>\n<li>\n<p>Approche ax\u00e9e vers l\u2019action\u00a0</p>\n</li>\n</ul>\n<p>\u00a0</p>\n<p><strong>CAPACIT\u00c9S:</strong></p>\n<ul>\n<li>\n<p>Capacit\u00e9 de recueillir, d'analyser, de r\u00e9sumer et d'interpr\u00e9ter de l'information provenant de diverses sources.</p>\n</li>\n<li>\n<p>Capacit\u00e9 de d\u00e9velopper des documents de proc\u00e9dures</p>\n</li>\n<li>\n<p>Capacit\u00e9 de communiquer effectivement par \u00e9crit.</p>\n</li>\n<li>\n<p>Capacit\u00e9 de communiquer effectivement de vive voix.\u00a0</p>\n</li>\n</ul>\n<p>\u00a0</p>\n<p><strong>QUALIT\u00c9S PERSONNELLES:</strong></p>\n<ul>\n<li>\n<p>Souci du d\u00e9tail</p>\n</li>\n<li>\n<p>Relations interpersonnelles efficaces\u00a0</p>\n</li>\n</ul>\n<p>\u00a0</p>\n<p><strong>Exigences linguistiques</strong></p>\n<ul>\n<li>\n<p>Anglais essentiel\u00a0</p>\n</li>\n</ul>\n<p>\u00a0</p>\n<p><strong>Qualifications constituant un atout</strong></p>\n<p>\u00a0</p>\n<p><strong>EDUCATION</strong></p>\n<ul>\n<li>\n<p>Ma\u00eetrise ou dipl\u00f4me d\u2019\u00e9tudes sup\u00e9rieures provenant par une universit\u00e9 reconnue.\u00a0</p>\n</li>\n</ul>\n<p>\u00a0</p>\n<p><strong>EXP\u00c9RIENCES</strong></p>\n<ul>\n<li>\n<p>Exp\u00e9rience de la pr\u00e9paration de documents d'information.</p>\n</li>\n<li>\n<p>Exp\u00e9rience de la participation \u00e0 des projets ou aux activit\u00e9s de groupes de travail.\u00a0</p>\n</li>\n</ul>\n<p>\u00a0</p>\n<p><strong>CONNAISSANCES</strong></p>\n<ul>\n<li>\n<p>Connaissance de l\u2019industrie agricole canadienne et ses secteurs</p>\n</li>\n<li>\n<p>Connaissance de la gestion projet\u00a0</p>\n</li>\n</ul>\n<p>\u00a0</p>\n<p><strong>Besoins de l'organisation </strong></p>\n<p>Pour diversifier l\u2019effectif, on pourra examiner la candidature des personnes qui s\u2019identifient comme appartenant \u00e0 des groupes vis\u00e9s par l\u2019\u00e9quit\u00e9 en mati\u00e8re d\u2019emploi, soit les autochtones, les personnes handicap\u00e9es, les membres des minorit\u00e9s visibles et les femmes.\u00a0</p>\n<p>\u00a0</p>\n<p><strong>Conditions d'emploi</strong></p>\n<p>\u00a0</p>\n<p><strong>Exigences de s\u00e9curit\u00e9</strong><strong>(s)</strong></p>\n<ul>\n<li>\n<p>Cote de fiabilit\u00e9\u00a0</p>\n</li>\n</ul>\n<p>\u00a0</p>\n<p><strong>Autres conditions d'emploi </strong>(<em>c.\u00e0.d.</em> heures suppl\u00e9mentaires et/ou voyager)</p>\n<ul>\n<li>\n<p>\u00catre apte et dispos\u00e9 \u00e0 voyager \u00e0 l\u2019occasion</p>\n</li>\n<li>\n<p>Consentir \u00e0 faire des heures suppl\u00e9mentaires \u00e0 l'occasion et \u00eatre en mesure de le faire.\u00a0</p>\n</li>\n</ul>\n<p>\u00a0</p>\n<p><strong>Candidatures</strong></p>\n<p>Pour toutes questions concernant la position, ou pour postuler \u00e0 cet avis, les employ\u00e9s d\u2019AAC<em> </em> int\u00e9ress\u00e9s sont invit\u00e9s \u00e0 envoyer leur curriculum vitae et une lettre d\u2019accompagnement \u00e0 Julie Rochon \u00e0 <a href=\"mailto:julie.rochon@canada.ca\">julie.rochon@canada.ca</a>\u00a0</p>\n<p>\u00a0</p>\n<p><b>Les curriculum vitae doivent nettement pr\u00e9ciser :</b></p>\n<ul>\n<li>\n<p>votre type de poste (p. ex., \u00e0 dur\u00e9e d\u00e9termin\u00e9e ou ind\u00e9termin\u00e9e);</p>\n</li>\n<li>\n<p>la classification de votre poste d\u2019attache.\u00a0</p>\n</li>\n</ul>\n<p>\u00a0</p>\n<p><strong>Remarques</strong></p>\n<ul>\n<li>\n<p>Les communications relatives au processus de s\u00e9lection se feront par courriel.</p>\n</li>\n<li>\n<p>Les candidats peuvent \u00eatre \u00e9valu\u00e9s au moyen d\u2019une entrevue.</p>\n</li>\n<li>\n<p>Un examen \u00e9crit peut \u00eatre administr\u00e9.</p>\n</li>\n<li>\n<p>Une v\u00e9rification des r\u00e9f\u00e9rences peut \u00eatre faite.</p>\n</li>\n</ul>\n<p>\u00a0</p>\n\n"
    },
    "breadcrumb": {
        "en": "Data/Research Officer - AgriInsurance",
        "fr": "Agent(e) des donn\u00e9es et recherches \u2013 Agri-protection"
    },
    "empl": {
        "type": {
            "en": "Assignment",
            "fr": "Affectation"
        },
        "classification": {
            "en": "EC-2 and equivalent",
            "fr": "EC-2 et \u00e9quivalent"
        },
        "branch": {
            "en": "Programs Branch",
            "fr": "Direction g\u00e9n\u00e9rale des programmes"
        },
        "locations": {
            "en": "Ottawa - Note: The team currently works remotely due to the COVID 19 pandemic response",
            "fr": "Ottawa \u2013 Note : L\u2019\u00e9quipe travaille pr\u00e9sentement \u00e0 distance en raison de la situation li\u00e9e \u00e0 la COVID-19."
        },
        "date_closing": {
            "en": "2020-10-23",
            "fr": "2020-10-23"
        },
        "open_to": {
            "en": "All ECDP participants at the EC-02, EC-03 and EC-04 Level",
            "fr": "Tous les participants au PPEC, niveaux EC-02, EC-03 et EC-04"
        },
        "name": {
            "en": "Julie Rochon",
            "fr": "Julie Rochon"
        },
        "email": {
            "en": "julie.rochon@canada.ca",
            "fr": "julie.rochon@canada.ca"
        }
    }
}