{
    "dcr_id": "1601039410041",
    "lang": "en",
    "title": {
        "en": "Counsellor /  Alternate Permanent Representative of Canada to the FAO (Rome, Italy)",
        "fr": "Conseiller / Repr\u00e9sentant permanent suppl\u00e9ant du Canada \u00e0 la FAO, Rome (Italie)"
    },
    "modified": "2020-10-19 00:00:00.0",
    "issued": "2020-09-30 00:00:00.0",
    "type_name": "intra-intra/empl-empl",
    "node_id": "1279029955397",
    "layout_name": null,
    "dc_date_created": "2020-09-25",
    "breadcrumb_label": "Counsellor (Agriculture and Food)",
    "trigger_date": "2020-10-19 08:26:39.0",
    "meta": {
        "issued": {
            "en": "2020-09-30",
            "fr": "2020-09-30"
        },
        "modified": {
            "en": "2020-10-19",
            "fr": "2020-10-19"
        },
        "format": {
            "en": "gcformat",
            "fr": "gcformat"
        },
        "title": {
            "en": "Counsellor /  Alternate Permanent Representative of Canada to the FAO (Rome, Italy)",
            "fr": "Conseiller / Repr\u00e9sentant permanent suppl\u00e9ant du Canada \u00e0 la FAO, Rome (Italie)"
        },
        "subject": {
            "en": "staffing",
            "fr": "dotation en personnel"
        },
        "language": {
            "en": "eng",
            "fr": "fra"
        },
        "audience": {
            "en": "gcaudience",
            "fr": "gcaudience"
        },
        "type": {
            "en": "notice",
            "fr": "avis"
        },
        "creator": {
            "en": "Agriculture and Agri-Food Canada",
            "fr": "Agriculture et Agroalimentaire Canada"
        },
        "spatial": {
            "en": "gcregions",
            "fr": "gcregions"
        },
        "service": {
            "en": "AAFC_AgriSource",
            "fr": "AAC_AgriSource"
        },
        "accessRights": {
            "en": "3",
            "fr": "3"
        }
    },
    "body": {
        "en": "\n<div>\u00a0</div>\n<div><b>Duties:</b><i> </i><b><u></u></b></div>\n<div>\n<br>The Permanent Representative of Canada to the FAO, (Rome, Italy) assignment or acting appointment is expected to commence in the spring of 2021. The duration of the posting to Rome, Italy is for 4 years with option for a 1-year extension subject to operational requirements and agreement of all parties.</div>\n<div>\n<br>As the Counsellor (Agriculture and Food / Alternate Permanent Representative of Canada to the FAO, Rome), you will represent Canada at the Food and Agriculture Organization of the United Nations (FAO), and report to the Minister Counsellor and the Deputy Permanent Representative at post.</div>\n<div>\n<br>In your capacity as Counsellor, you will provide information and support to the Head of Mission, and the Senior Trade Commissioner, you will also work with network colleagues located in other Canadian Embassies, consulates and trade offices in the European Union and other countries.<br><br></div>\n<div><strong>With regards to Canadian engagement and participation in the FAO, it is expected that you will:<br><br></strong>\u21e8 Advance Canada\u2019s agricultural engagements and interests at the FAO and with its member states, including advocating the need for open agri-food trade that is regulated by science-based standards, the development and adoption of these standards by bodies like the Codex Alimentarius, and fostering agricultural innovation, including biotechnology, to increase productivity.</div>\n<div>\n\u21e8 Develop and maintain a network of contacts within the FAO Secretariat, member missions, and private and civil society representatives, and engage effectively to advance Canadian positions.</div>\n<div>\n\u21e8 Meet bilaterally with FAO officials and executives, and with representatives from other FAO member states, to be informed about the Organization\u2019s strategies and business, other countries\u2019 engagement with the FAO, and to clearly advocate and defend Canadian interests.</div>\n<div>\u21e8 Provide on-going feedback and coordinating Canadian input to the FAO process.\u00a0</div>\n<div>\u21e8 Represent Canada at FAO meetings and at government bodies including Conference, Council and various Committees, and share information with relevant Government of Canada officials on these meetings.\u00a0</div>\n<div>\u21e8 Support Government of Canada missions/delegations/officials in their participation at the FAO, and other related events, including the Informal North American Regional Conference.\u00a0</div>\n<div>\u21e8 When relevant, assist in the design, implementation, reporting, and follow up of any voluntary contributions that AAFC and the CFIA may make to the Organization.\u00a0</div>\n<div>\u21e8 As part of the  Multilateral Representation in Rome, RPERM team work in collaboration with Global Affairs Canada, and with  other departments ensure coordinated, coherent and strategic engagement with the FAO.\u00a0</div>\n<div>\u21e8 Provide support to other Government organizations including the Canadian Food and Inspection Agency, Global Affairs Canada, Global Affairs Canada, Department of Fisheries and Ocean, and Health Canada concerning FAO business.<br><br></div>\n<div><strong>With regards to market access, it is expected that you will:\u00a0<br></strong></div>\n<div>\u21e8 Advance market access issues, and as required, pursue market development and trade promotion for the agricultural sector working in collaboration with other commissioners of other programs in Italy.\u00a0</div>\n<div>\u21e8 Provide expertise and support to the TC Italian network regarding AAFC and GAC programs related to the Canadian agriculture and food sector, to foster long-term, commercially sustainable business activity.\u00a0</div>\n<div>\u21e8 Support market access and trade policy objectives within Italy, and through engagement with your various counterparts; consistent with the work plans of Agriculture and Agri-Food Canada.<br><br></div>\n<div><b>Statement of Merit Criteria &amp; Conditions of Employment<br></b></div>\n<div><b>Essential Qualifications<br><br></b></div>\n<div><strong>EDUCATION</strong></div>\n<div>\n\u2714 Graduation from a recognized post-secondary institution with a degree in science, political science, economics, agricultural economics, business administration, international affairs, law, sociology or statistics, or in a field relevant to the duties of the position.<br><br></div>\n<div><strong>EXPERIENCE<br></strong></div>\n<div>\u2714 Significant* experience in developing and maintaining networks comprising officials in other government departments and agencies, posts abroad, provincial and territorial governments, foreign governments, multilateral agencies/organizations or industry associations and private companies to promote Canadian interests. * Significant is defined as a depth and breadth of experience normally acquired with having performed a broad range of complex related activities for a period of approximately three (3) years.\u00a0</div>\n<div>\u2714 Experience in working with multilateral or international organizations with a strong focus on agricultural or food issues, by preparing Canadian positions and/or representing Canadian interests at international institutions and negotiations.\u00a0</div>\n<div>\u2714 Experience in managing agriculture trade issues and negotiating towards resolution of trade irritants or improved market access; in formulating policy options, positions and strategies in international trade policy.<br><br></div>\n<div><strong>KNOWLEDGE</strong></div>\n<div>\u2714 Knowledge of Canadian agricultural policy and the trade policy objectives and priorities relative to the global competitiveness and international marketing of Canada agriculture, food and seafood products.\u00a0</div>\n<div>\u2714 Knowledge of Canada's agri-food value chains, their competitive strengths, trade performance and export interests, the regulatory environment governing their operation and the global trends impacting future growth.\u00a0</div>\n<div>\u2714 Knowledge of international institutions and/or international trade agreements and their implementation and/or bilateral market access frameworks and global standard-setting bodies relevant to the agriculture, food and seafood industry.<br><br></div>\n<div><strong>COMPETENCIES</strong></div>\n<div>\u2714 Adaptability</div>\n<div>\u2714 Interactive Communication</div>\n<div>\u2714 Relationship Building</div>\n<div>\u2714 Strategic Thinking</div>\n<div>\u2714 Initiative</div>\n<div>\u2714 Teamwork</div>\n<div>\u2714 Writing Skills\u00a0</div>\n<div>\u00a0</div>\n<div><strong>Various language requirements<br><br></strong>\u2714 Bilingual Imperative - BBB/BBB, CBC/CBC<br><br></div>\n<div><b>Asset Qualifications<br><br></b></div>\n<div><strong>EDUCATION:</strong></div>\n<div>\u2714 Master\u2019s degree in science, business administration, economics, agricultural economics, international affairs or law from a recognized post-secondary institution.<br><br></div>\n<div><strong>EXPERIENCE:<br></strong></div>\n<div>\u2714 Experience working overseas.</div>\n<div>\u2714 Experience working on priorities related to International Standard Setting Bodies such as Codex Alimentarius.</div>\n<div>\u2714 Experience managing human resources.</div>\n<div>\u2714 Experience managing a budget.</div>\n<div>\u2714 Experience in agricultural business development and promotion, including: identifying and analyzing international business and export market trends, opportunities and challenges; or planning, developing and evaluating export marketing strategies; or, implementing activities such as trade shows, missions or other initiatives that support private and government partners in promoting Canadian business abroad.</div>\n<div>\u2714 Ability to read, write and speak Italian.<br><br></div>\n<h3>Organizational Needs <u></u></h3>\n<div>\nIn support of achieving a diversified workforce, consideration may be given to candidates self-identifying as belonging to one of the following Employment Equity groups: Aboriginal peoples, Persons with a Disability; Visible Minorities, Women.<br><br></div>\n<div><strong>Conditions of\u00a0Employment</strong><strong> <br></strong></div>\n<div>\n<div>\u25ba Top Secret security clearance\u00a0</div>\n<div>\u25ba Ability and willingness to relocate to Rome, Italy for 4 years with option for a 1-year extension subject to operational requirements and agreement of all parties.</div>\n<div>\u25ba Ability and willingness to travel.</div>\n<div>\u25ba Ability and willingness to work overtime or out of normal office hours.</div>\n<div>\u25ba Ability to adapt to rapidly changing priorities while maintaining focus on current tasks and assignments.</div>\n<div>\u25ba Ability to conduct cross-cultural business in a respectful and professional manner with officials and counterparts while abroad.</div>\n<div>\u25ba Employees must qualify for a Canadian diplomatic passport.</div>\n<div>\u25ba Employees must qualify for a Visa/ Accreditation for the country in which they are posted.</div>\n<div>\u25ba Employees must complete mandatory training through GAC.</div>\n<div>\u25ba Medical suitability: Personnel assigned abroad must obtain medical clearance for themselves and accompanying members of their family prior to their departure.</div>\n<div>\u25ba Employees will not be posted to countries where they cannot enjoy diplomatic or consular immunity. In practice this means that officers will not normally be posted to a country for which they (and possibly accompanying dependant(s)) hold citizenship.</div>\n</div>\n<div><b><br>Applications:<br></b></div>\n<div>Interested AAFC employees are encouraged to forward their resume and cover letter to Nadia Gagnon at nadia.gagnon@canada.ca </div>\n<div>\u00a0</div>\n<div><strong>Resume and cover letter must clearly identify:</strong></div>\n<div>\u21e8 Your substantive group and level </div>\n<div>\u21e8 If you have valid SLE results and indicate the levels attained (i.e. CBC).</div>\n<div>\u21e8 How you meet the essential education and experience qualifications. You should use the experience and education as header sections to write concrete examples demonstrating how you meet each one. The essential knowledge and competency qualifications will be assessed further at a later point following the application stage. </div>\n<div>\u21e8 The names and contact information for your current and previous supervisors to act as references and comment on your work.<br><br></div>\n<div><b><i>Additional Notes:<br>\n</i></b></div>\n<div>1.\tPreference will first be given to EC-07 (or equivalent) candidates.</div>\n<div>2. Communication for this process will be sent via email.</div>\n<div>3.\tYou must meet all essential qualifications in order to be appointed to the position. Other qualifications may be a deciding factor in choosing the person to be appointed.</div>\n<div>4.\tAn assignment cannot result in paying the assigned employee a salary higher than that obtained in his/her substantive position. Persons in an Acting appointment will be compensation in accordance with the Directive on Terms and Conditions of Employment. </div>\n<div>5.\tAs per Global Affairs Canada\u2019s duty of care policy, employees will not be posted to countries where they cannot enjoy diplomatic or consular immunity. In practice this means that officers will not normally be posted to a country for which they (and possibly accompanying dependant(s)) hold citizenship. Please indicate in your application if you are applying for a posting in a country where you or accompanying dependants hold citizenship.</div>\n<div>6.\tAll employees considering a posting abroad are strongly encouraged to research thoroughly the local environment at each individual post to ensure it is a right fit for their individual family circumstances.</div>\n<div>7.\tIn the interest of transparency, this job/assignment opportunity has also been posted at Global Affairs Canada and the Canadian Food Inspection Agency and we are also accepting interest from employees in these organizations. </div>\n<div>8.\tOver the next month(s), there will be various expression of interest job postings for several unique foreign assignments. For all of these job processes, similar tools may be used to assess qualifications. To streamline assessment of knowledge and competency qualifications for any candidate who applies on multiple processes, the assessment committee may decide that your assessment results for these qualifications will be transferrable to any/all processes that you applied on. The assessment committee also reserves the right to conduct a new or alternate assessment of qualifications when deemed appropriate. </div>\n<div>\u00a0</div>\n",
        "fr": "\n<p>\u00a0</p>\n<p><b>Fonctions</b></p>\n<p>Le repr\u00e9sentant permanent suppl\u00e9ant du Canada \u00e0 la FAO, Rome (Italie), par affectation ou nomination int\u00e9rimaire devrait entrer en fonction \u00e0 le printemps 2021. Le poste \u00e0 Rome, en Italie est pour une p\u00e9riode de quatre ans avec option de prolongation d\u2019un an, sous r\u00e9serve des exigences op\u00e9rationnelles et de l\u2019accord de toutes les parties.\u00a0</p>\n<p>En tant que conseiller (Agriculture et alimentation / Repr\u00e9sentant permanent suppl\u00e9ant du Canada aupr\u00e8s de la FAO, Rome), vous repr\u00e9senterez le Canada \u00e0 l\u2019Organisation des Nations Unies pour l\u2019alimentation et l\u2019agriculture (FAO) et signalez-vous du ministre conseiller et du repr\u00e9sentant permanent adjoint au poste.\u00a0</p>\n<p>\u00c0 titre de conseiller, vous fournirez de l\u2019information et du soutien au chef de mission, au d\u00e9l\u00e9gu\u00e9 commercial principal et aux d\u00e9l\u00e9gu\u00e9s commerciaux et vous travaillerez avec des coll\u00e8gues du r\u00e9seau situ\u00e9s dans d\u2019autres ambassades canadiennes, consulats et bureaux commerciaux de l\u2019Union europ\u00e9enne et d\u2019autres pays.</p>\n<p>\u00a0</p>\n<p><b>En ce qui concerne l\u2019engagement et la participationdu Canada \u00e0 la FAO, le candidat\u00a0devra\u00a0:</b></p>\n<p>\u21e8 promouvoir les int\u00e9r\u00eats agricoles du Canada \u00e0 la FAO et aupr\u00e8s de ses \u00c9tats membres, notamment en pr\u00e9conisant un commerce agroalimentaire ouvert r\u00e9gi par des normes scientifiques et l\u2019\u00e9laboration et l\u2019adoption de ces normes par des organismes comme le Codex Alimentarius et en encourageant l\u2019innovation agricole, y compris la biotechnologie, pour accro\u00eetre la productivit\u00e9.\u00a0</p>\n<p>\u21e8 \u00e9tablir et maintenir un r\u00e9seau de contacts au sein du Secr\u00e9tariat de la FAO, des missions membres et des repr\u00e9sentants de la soci\u00e9t\u00e9 priv\u00e9e et civile, et s\u2019engager efficacement pour faire progresser les positions canadiennes.\u00a0</p>\n<p>\u21e8 rencontrer bilat\u00e9ralement des responsables et des cadres de la FAO ainsi que des repr\u00e9sentants d\u2019autres \u00c9tats membres de la FAO pour \u00eatre inform\u00e9s des strat\u00e9gies et des activit\u00e9s de l\u2019Organisation, de l\u2019engagement des autres pays avec la FAO et d\u00e9fendre clairement les int\u00e9r\u00eats canadiens.\u00a0</p>\n<p>\u21e8 fournir une r\u00e9troaction continue et coordonner la contribution canadienne au processus de la FAO.\u00a0</p>\n<p>\u21e8 le cas \u00e9ch\u00e9ant, aider \u00e0 la conception, \u00e0 la mise en \u0153uvre, \u00e0 la production de rapports et au suivi de toute contribution volontaire qu\u2019AAC et l\u2019ACIA peuvent faire \u00e0 l\u2019Organisation.\u00a0</p>\n<p>\u21e8 offrir du soutien \u00e0 d\u2019autres organismes gouvernementaux, notamment l\u2019Agence canadienne d\u2019inspection des aliments, Affaires mondiales Canada, le minist\u00e8re des P\u00eaches et des Oc\u00e9ans et Sant\u00e9 Canada, concernant les affaires de la FAO.</p>\n<p>\u00a0</p>\n<p><strong><b>\u00c9noncer des crit\u00e8res de m\u00e9rite et conditions d\u2019emploi\u00a0:</b></strong></p>\n<p><strong>\u00a0</strong></p>\n<p><strong><b>Qualifications essentielles <br><br></b></strong></p>\n<p><b>\u00c9TUDES</b></p>\n<p>\u2714 Dipl\u00f4me d\u00e9cern\u00e9 par un \u00e9tablissement postsecondaire reconnu en sciences, en sciences politiques, en \u00e9conomie, en \u00e9conomie agricole, en administration des affaires, en affaires internationales, en droit, en sociologie ou en statistique, ou dans un domaine li\u00e9 aux fonctions du poste.</p>\n<p><strong>\u00a0</strong></p>\n<p><strong>EXP\u00c9RIENCE</strong></p>\n<p>\u2714 Exp\u00e9rience appr\u00e9ciable* de l\u2019\u00e9tablissement et du maintien de r\u00e9seaux compos\u00e9s de repr\u00e9sentants d\u2019autres minist\u00e8res et organismes, de missions \u00e0 l\u2019\u00e9tranger, des gouvernements provinciaux et territoriaux, des gouvernements \u00e9trangers, d\u2019organisations et organismes multilat\u00e9raux ou d\u2019associations de l\u2019industrie et d\u2019entreprises priv\u00e9es pour promouvoir le commerce ext\u00e9rieur, faire de la promotion et contracter des alliances et/ou r\u00e9soudre des probl\u00e8mes d\u2019acc\u00e8s au march\u00e9. * On entend par \u00ab exp\u00e9rience appr\u00e9ciable \u00bb une exp\u00e9rience riche et diversifi\u00e9e acquise normalement dans le cadre de l\u2019ex\u00e9cution d\u2019une vaste gamme de t\u00e2ches connexes et complexes pendant une p\u00e9riode d\u2019au moins trois (3) ans.\u00a0\u00a0</p>\n<p>\u2714 Exp\u00e9rience de la collaboration avec des organisations multilat\u00e9rales ou internationales fortement ax\u00e9es sur les questions agricoles ou alimentaires, y compris la pr\u00e9paration de positions du Canada et/ou la repr\u00e9sentation d\u2019int\u00e9r\u00eats canadiens aupr\u00e8s d\u2019institutions internationales ou dans le cadre de n\u00e9gociations.\u00a0\u00a0</p>\n<p>\u2714 Exp\u00e9rience de la gestion de questions relatives \u00e0 la politique de commerce agricole et de la n\u00e9gociation visant la r\u00e9solution de diff\u00e9rends commerciaux et l\u2019am\u00e9lioration de l\u2019acc\u00e8s au march\u00e9, ainsi que de la formulation d\u2019options, de positions et de strat\u00e9gies en mati\u00e8re de politique commerciale internationale.</p>\n<p>\u00a0</p>\n<p>\u00a0</p>\n<p><strong>CONNAISSANCES</strong></p>\n<p>\u2714 Connaissance de la politique agricole canadienne ainsi que des objectifs et des priorit\u00e9s de la politique commerciale relativement \u00e0 la comp\u00e9titivit\u00e9 mondiale et \u00e0 la commercialisation internationale des produits agricoles, alimentaires et de la mer du Canada.\u00a0\u00a0</p>\n<p>\u2714 Connaissance des cha\u00eenes de valeurs agroalimentaires du Canada, de leurs points forts face \u00e0 la concurrence, de leur rendement commercial et des int\u00e9r\u00eats li\u00e9s \u00e0 l\u2019exportation, ainsi que du cadre de r\u00e9glementation r\u00e9gissant les activit\u00e9s et les tendances mondiales influant sur la croissance future.\u00a0\u00a0</p>\n<p>\u2714 Connaissance des institutions internationales et/ou des accords commerciaux internationaux et de leur mise en \u0153uvre, et/ou des cadres bilat\u00e9raux d\u2019acc\u00e8s aux march\u00e9s et des organismes de normalisation internationaux relatifs au secteur de l\u2019agriculture, de l\u2019alimentation et des produits de la mer.</p>\n<p>\u00a0</p>\n<p>\u00a0</p>\n<p><strong>COMP\u00c9TENCES</strong></p>\n<p>\u2714 Adaptabilit\u00e9\u00a0</p>\n<p>\u2714 Communication interactive\u00a0</p>\n<p>\u2714 \u00c9tablissement de relations\u00a0</p>\n<p>\u2714 R\u00e9flexion strat\u00e9gique\u00a0</p>\n<p>\u2714 Initiative\u00a0</p>\n<p>\u2714 Travail d\u2019\u00e9quipe\u00a0</p>\n<p>\u2714 Comp\u00e9tences en r\u00e9daction\u00a0</p>\n<p>\u00a0</p>\n<p><strong>Diverses exigences linguistiques\u00a0</strong></p>\n<p>\u2714 Bilingue - Imp\u00e9ratif  (BBB/BBB, CBC/CBC)\u00a0</p>\n<p>\u00a0</p>\n<h4><strong>Qualifications constituant un atout</strong></h4>\n<p><strong>\u00a0</strong></p>\n<p><strong>\u00c9TUDES :</strong></p>\n<p>\u2714 Ma\u00eetrise d\u2019un \u00e9tablissement postsecondaire reconnu en sciences, en administration des affaires, en \u00e9conomie, en \u00e9conomie agricole, en affaires internationales ou en droit.</p>\n<p>\u00a0</p>\n<p><strong>EXP\u00c9RIENCE :</strong></p>\n<p>\u2714 Exp\u00e9rience du travail \u00e0 l\u2019\u00e9tranger;</p>\n<p>\u2714 Exp\u00e9rience du travail sur les priorit\u00e9s li\u00e9es aux organismes internationaux de normalisation, comme le Codex Alimentarius; </p>\n<p>\u2714 Exp\u00e9rience de la gestion de ressources humaines;</p>\n<p>\u2714 Exp\u00e9rience de la gestion d\u2019un budget;</p>\n<p>\u2714 Exp\u00e9rience en d\u00e9veloppement et promotion des entreprises agricoles, notamment : identification et analyse des tendances, opportunit\u00e9s et d\u00e9fis des entreprises internationales et des march\u00e9s d\u2019exportation; ou la planification, l\u2019\u00e9laboration et l\u2019\u00e9valuation de strat\u00e9gies de commercialisation \u00e0 l\u2019exportation; ou mettre en \u0153uvre des activit\u00e9s telles que des salons professionnels, des missions ou d\u2019autres initiatives qui appuient les partenaires priv\u00e9s et gouvernementaux dans la promotion des entreprises canadiennes \u00e0 l\u2019\u00e9tranger.</p>\n<p>\u2714 Capacit\u00e9 de lire, d\u2019\u00e9crire et de s\u2019exprimer en italien.</p>\n<p>\u00a0</p>\n<p><strong><span style='color: black; font-family: \"Arial\",sans-serif; font-size: 12pt; mso-fareast-font-family: \"Times New Roman\"; mso-ansi-language: FR-CA; mso-fareast-language: EN-CA; mso-bidi-language: AR-SA;' lang=\"FR-CA\">Besoins de l'organisation </span></strong></p>\n<p>Pour diversifier l\u2019effectif, on pourra examiner la candidature des personnes qui s\u2019identifient comme appartenant \u00e0 des groupes vis\u00e9s par l\u2019\u00e9quit\u00e9 en mati\u00e8re d\u2019emploi, soit les autochtones, les personnes handicap\u00e9es, les membres des minorit\u00e9s visibles et les femmes.</p>\n<p>\u00a0</p>\n<p><b>Conditions d'emploi</b></p>\n<p>\u25ba Cote de s\u00e9curit\u00e9 de niveau \u00ab Tr\u00e8s secret \u00bb.\u00a0</p>\n<p>\u25ba Capacit\u00e9 et volont\u00e9 de d\u00e9m\u00e9nager \u00e0 Rome, en Italie, pour une p\u00e9riode de quatre ans avec option de prolongation d\u2019un an, sous r\u00e9serve des exigences op\u00e9rationnelles et de l\u2019accord de toutes les parties.</p>\n<p>\u25ba Consentir \u00e0 voyager et \u00eatre en mesure de le faire.</p>\n<p>\u25ba Consentir \u00e0 faire des heures suppl\u00e9mentaires et \u00e0 travailler en dehors des heures normales, et \u00eatre en mesure de le faire.</p>\n<p>\u25ba Capacit\u00e9 de s\u2019adapter \u00e0 l\u2019\u00e9volution rapide des priorit\u00e9s tout en maintenant l\u2019accent sur les t\u00e2ches et les affectations actuelles.</p>\n<p>\u25ba Capacit\u00e9 de mener des activit\u00e9s interculturelles de mani\u00e8re respectueuse et professionnelle avec les fonctionnaires et leurs homologues \u00e0 l\u2019\u00e9tranger.</p>\n<p>\u25ba Les employ\u00e9s doivent r\u00e9unir les conditions voulues pour obtenir un passeport diplomatique canadien.</p>\n<p>\u25ba Les employ\u00e9s doivent r\u00e9unir les conditions voulues pour obtenir un visa ou une accr\u00e9ditation pour le pays o\u00f9 ils sont affect\u00e9s.</p>\n<p>\u25ba Les employ\u00e9s doivent suivre une formation obligatoire offerte par le biais d\u2019AMC.</p>\n<p>\u25ba Exigences m\u00e9dicales : Les employ\u00e9s affect\u00e9s \u00e0 l\u2019\u00e9tranger doivent obtenir, avant leur d\u00e9part, un certificat de sant\u00e9 pour eux-m\u00eames et pour les membres de leur famille qui les accompagnent.</p>\n<p>\u25ba Aucun employ\u00e9 ne sera affect\u00e9 dans un pays o\u00f9 il ne peut jouir de l\u2019immunit\u00e9 diplomatique ou consulaire. Concr\u00e8tement, cela signifie qu\u2019un fonctionnaire ne peut habituellement pas \u00eatre affect\u00e9 dans un pays dont il d\u00e9tient la citoyennet\u00e9 (ou dont une personne \u00e0 charge qui l\u2019accompagne d\u00e9tient la citoyennet\u00e9).</p>\n<p>\u00a0</p>\n<p><b>Candidatures</b></p>\n<p>Les employ\u00e9s d\u2019AAC, int\u00e9ress\u00e9s sont invit\u00e9s \u00e0 envoyer leur curriculum vitae et une lettre d\u2019accompagnement \u00e0 Nadia Gagnon, nadia.gagnon@canada.ca.</p>\n<p>\u00a0</p>\n<p>Les curriculum vitae et lettre d\u2019accompagnement doivent nettement pr\u00e9ciser :</p>\n<p>\u21e8 La classification de votre poste d\u2019attache.</p>\n<p>\u21e8 R\u00e9sultats ELS </p>\n<p>\u21e8 En quoi vous poss\u00e9dez les qualifications essentielles en mati\u00e8re d\u2019\u00e9tudes et d\u2019exp\u00e9rience ainsi que les qualifications constituant un atout \u00e9num\u00e9r\u00e9es ci-dessous. Vous devriez utiliser votre exp\u00e9rience et vos \u00e9tudes pour donner des exemples concrets d\u00e9montrant en quoi vous poss\u00e9dez chacune d\u2019elles. Les connaissances essentielles et les qualifications de comp\u00e9tence seront \u00e9valu\u00e9es plus en d\u00e9tail ult\u00e9rieurement apr\u00e8s la phase de candidature.</p>\n<p>\u21e8 Le nom et les coordonn\u00e9es de leurs actuels et derniers superviseurs afin que ceux-ci fournissent des r\u00e9f\u00e9rences \u00e0 leur sujet et commentent leur travail.</p>\n<p>\u00a0</p>\n<p><strong>Notes compl\u00e9mentaires :</strong></p>\n<p>1.\tLa pr\u00e9f\u00e9rence sera d\u2019abord accord\u00e9e aux candidats EC-07 (ou \u00e9quivalents).</p>\n<p>2. Les communications relatives au  processus de s\u00e9lection se feront par courriel.</p>\n<p>3.\tVous devez poss\u00e9der toutes les qualifications essentielles pour \u00eatre nomm\u00e9 \u00e0 ce poste. D\u2019autres qualifications peuvent constituer un facteur d\u00e9terminant dans le choix de la personne qui sera nomm\u00e9e.</p>\n<p>4.\tUn employ\u00e9 en affectation ne peut pas recevoir un salaire plus \u00e9lev\u00e9 que celui de son poste d\u2019attache. Un employ\u00e9 en nomination int\u00e9rimaire sera pay\u00e9 conform\u00e9ment \u00e0 la Directive sur les conditions d\u2019emploi.</p>\n<p>5.\tConform\u00e9ment \u00e0 la politique sur l\u2019obligation de diligence d\u2019Affaires mondiales Canada, aucun employ\u00e9 ne sera affect\u00e9 dans un pays o\u00f9 il ne peut jouir de l\u2019immunit\u00e9 diplomatique ou consulaire. Concr\u00e8tement, cela signifie qu\u2019un fonctionnaire ne peut habituellement pas \u00eatre affect\u00e9 dans un pays dont il d\u00e9tient la citoyennet\u00e9 (ou dont une personne \u00e0 charge qui l\u2019accompagne d\u00e9tient la citoyennet\u00e9). Si vous posez votre candidature \u00e0 un poste dans un pays dont vous ou une personne \u00e0 charge qui vous accompagne d\u00e9tenez la citoyennet\u00e9, veuillez l\u2019indiquer dans votre demande.</p>\n<p>6.\tTous les employ\u00e9s qui envisagent une affectation \u00e0 l\u2019\u00e9tranger sont fortement encourag\u00e9s \u00e0 faire des recherches approfondies sur l\u2019environnement local \u00e0 chaque poste pour s\u2019assurer qu\u2019il convient parfaitement \u00e0 leur situation familiale individuelle.</p>\n<p>7.\tDans un souci de transparence, cette occasion d\u2019emploi et d\u2019affectation a \u00e9galement \u00e9t\u00e9 affich\u00e9e \u00e0 Affaires mondiales Canada et \u00e0 l\u2019Agence canadienne d\u2019inspection des aliments et nous acceptons \u00e9galement l\u2019int\u00e9r\u00eat des employ\u00e9s de ces organisations. </p>\n<p>8.\tAu cours du prochain mois(s), il y aura diverses offres d\u2019emploi d\u2019expression d\u2019int\u00e9r\u00eat pour plusieurs affectations \u00e9trang\u00e8res uniques. Pour tous ces processus d\u2019emploi, des outils similaires peuvent \u00eatre utilis\u00e9s pour \u00e9valuer les qualifications. Afin de rationaliser l\u2019\u00e9valuation des connaissances et des comp\u00e9tences requises pour tout candidat qui pr\u00e9sente une demande sur plusieurs processus, le comit\u00e9 d\u2019\u00e9valuation peut d\u00e9cider que les r\u00e9sultats de votre \u00e9valuation pour ces qualifications seront transf\u00e9rables \u00e0 tous les processus que vous avez appliqu\u00e9s. Le comit\u00e9 d\u2019\u00e9valuation se r\u00e9serve \u00e9galement le droit de proc\u00e9der \u00e0 une \u00e9valuation nouvelle ou alternative des qualit\u00e9s lorsqu\u2019il est jug\u00e9 appropri\u00e9.</p>\n<p>\u00a0</p>\n\n"
    },
    "breadcrumb": {
        "en": "Counsellor (Agriculture and Food)",
        "fr": "Conseiller (Agriculture et Alimentation)"
    },
    "empl": {
        "type": {
            "en": "Acting, Assignment",
            "fr": "Affectation, Int\u00e9rimaire"
        },
        "classification": {
            "en": "EC-7",
            "fr": "EC-7"
        },
        "branch": {
            "en": "International Affairs Branch",
            "fr": "Direction g\u00e9n\u00e9rales des affaires internationales"
        },
        "locations": {
            "en": "Rome, Italy",
            "fr": "Rome, Italie"
        },
        "date_closing": {
            "en": "2020-10-26",
            "fr": "2020-10-26"
        },
        "open_to": {
            "en": "All AAFC Employees occupying a substantive EC-07 or EC-06 (or equivalent) position.",
            "fr": "Tous les employ\u00e9s d\u2019AAC occupant un poste d\u2019attache EC-07 ou EC-06 (ou \u00e9quivalent)."
        },
        "name": {
            "en": "Nadia Gagnon, Deputy Director",
            "fr": "Nadia Gagnon, Directrice Adjointe"
        },
        "email": {
            "en": "nadia.gagnon@canada.ca",
            "fr": "nadia.gagnon@canada.ca"
        }
    }
}