{
    "dcr_id": "1602192385210",
    "lang": "en",
    "title": {
        "en": "Trade Commissioner, Seoul (South Korea)\u2013 Anticipatory Process",
        "fr": "D\u00e9l\u00e9gu\u00e9 commercial, S\u00e9oul (Cor\u00e9e du Sud)- Anticipatoire "
    },
    "modified": "2020-10-27 00:00:00.0",
    "issued": "2020-10-09 00:00:00.0",
    "type_name": "intra-intra/empl-empl",
    "node_id": "1279029955397",
    "layout_name": null,
    "dc_date_created": "2020-10-09",
    "breadcrumb_label": "",
    "trigger_date": "2020-10-27 08:46:42.0",
    "meta": {
        "issued": {
            "en": "2020-10-09",
            "fr": "2020-10-09"
        },
        "modified": {
            "en": "2020-10-27",
            "fr": "2020-10-27"
        },
        "format": {
            "en": "gcformat",
            "fr": "gcformat"
        },
        "title": {
            "en": "Trade Commissioner, Seoul (South Korea)\u2013 Anticipatory Process",
            "fr": "D\u00e9l\u00e9gu\u00e9 commercial, S\u00e9oul (Cor\u00e9e du Sud)- Anticipatoire "
        },
        "subject": {
            "en": "staffing",
            "fr": "dotation en personnel"
        },
        "language": {
            "en": "eng",
            "fr": "fra"
        },
        "audience": {
            "en": "gcaudience",
            "fr": "gcaudience"
        },
        "type": {
            "en": "notice",
            "fr": "avis"
        },
        "creator": {
            "en": "Agriculture and Agri-Food Canada",
            "fr": "Agriculture et Agroalimentaire Canada"
        },
        "spatial": {
            "en": "gcregions",
            "fr": "gcregions"
        },
        "service": {
            "en": "AAFC_AgriSource",
            "fr": "AAC_AgriSource"
        },
        "accessRights": {
            "en": "3",
            "fr": "3"
        }
    },
    "body": {
        "en": "\n<p><strong>\u00a0</strong></p>\n<p><strong>Duties:</strong><em> </em></p>\n<p>The Trade Commissioner, Seoul (South Korea) assignment or acting appointment is expected to commence in the summer of 2021. The duration of the posting to Seoul is for 3 years with option for a 1-year extension subject to operational requirements and agreement of all parties.</p>\n<p><strong>\u00a0</strong></p>\n<p><strong>As Trade Commissioner, it is expected that you will:</strong></p>\n<p>\u21e8 Analyze policy trends and developments, craft and implement strategies to prioritize and advance Canadian agriculture and agri-food trade interests.</p>\n<p>\u21e8 Support the department in working pro-actively to pre-empt disruptions of trade and manage trade irritants that arise.</p>\n<p>\u21e8 Obtain more access to the Korean market for Canadian agri-food business by working to resolve market access issues and irritants.</p>\n<p>\u21e8 Support efforts to ensure that Canada\u2019s negotiated agricultural trading rights are respected to allow Canadian industries to establish, safeguard and expand trade opportunities.</p>\n<p>\u21e8 Develop and maintain an extensive network of contacts with Korean government officials and agricultural and agri-food sector stakeholders in both Korea and Canada to promote/advocate Canadian interests.</p>\n<p>\u21e8 Make recommendations for engagement and support incoming and outgoing international missions, including ministerial visits.</p>\n<p>\u21e8 Explore and promote business opportunities in Korea to Canadian Trade Commissioner Service clients in the agricultural and agri-food sector via targeted approaches and key initiatives.</p>\n<p>\u21e8 Work with Canadian industries and key stakeholders to create increased awareness of trade and business opportunities for exporters and export-ready firms to develop and expand trade in Korea.</p>\n<p>\u21e8 Develop and deliver AAFC and GAC business development programs related to the Canadian agriculture and agri-food sector in order to foster long-term commercially sustainable business activity.</p>\n<p>\u00a0</p>\n<p><strong>Statement of Merit Criteria &amp; Conditions of Employment</strong></p>\n<p><strong>\u00a0</strong></p>\n<p><strong>Essential Qualifications</strong></p>\n<p><strong>\u00a0</strong></p>\n<p><strong>EDUCATION</strong></p>\n<p>\u2714 A degree from a recognized post-secondary institution with acceptable specialization in economics, sociology or statistics. The courses for the specialization do not necessarily have to be part of a degree program in the required specialization. The specialization may also be obtained through an acceptable combination of education, training and/or experience.</p>\n<p><strong>\u00a0</strong></p>\n<p><strong>EXPERIENCE</strong></p>\n<p>\u2714 Significant* experience in developing and maintaining networks comprising officials in other government departments and agencies, posts abroad, provincial and territorial governments, foreign governments, multilateral agencies/organizations or industry associations and private companies to promote foreign trade, provide advocacy and alliances or to resolve market access problems.<br>\n<br>\n\u2714 Experience in managing agriculture trade policy issues and/or negotiating towards resolution of trade irritants and improved market access.<br>\n<br>\n\u2714 Experience in formulating policy options, positions and strategies in international trade policy.<br>\n<br>\n\u2714 Significant* experience in agricultural business development and promotion, including the following:</p>\n<ul>\n<li>Identifying and analyzing international business and export market trends, opportunities and challenges;</li>\n<li>Planning, developing and evaluating export marketing strategies;</li>\n<li>Implementing activities such as trade shows, missions or other initiatives that support private and government partners in promoting Canadian business abroad.</li>\n</ul>\n<p>* Significant is defined as a depth and breadth of experience normally acquired with having performed a broad range of complex related activities for a period of approximately three (3) years.</p>\n<p><strong>\u00a0</strong></p>\n<p><strong>KNOWLEDGE</strong></p>\n<p>\u2714 Knowledge of Canada\u2019s Canadian Agricultural Partnership and the trade policy objectives and priorities relative to the global competitiveness and international marketing of Canada agriculture, food and seafood products.<br>\n\u2714 Knowledge of Canada's agri-food value chains, their competitive strengths, trade performance and export interests, the regulatory environment governing their operation and the global trends impacting future growth.<br>\n\u2714 Knowledge of international institutions and/or international trade agreements and their implementation and/or bilateral market access frameworks and global standard-setting bodies relevant to the agriculture, food and seafood industry.</p>\n<p>\u2714 Knowledge of Canadian Trade Commissioner Service and its key policies and principles.</p>\n<p><strong><br>COMPETENCIES</strong></p>\n<p>\u2714 Adaptability<br>\n\u2714 Relationship Building<br>\n\u2714 Strategic Thinking<br>\n\u2714 Initiative<br>\n\u2714 Teamwork</p>\n<p>\u2714 Intercultural Effectiveness</p>\n<p><strong>\u00a0</strong></p>\n<p><strong>Language requirements</strong><br>\n\u2714 Bilingual Imperative- BBB/BBB</p>\n<p><strong>\u00a0</strong></p>\n<p><strong>Asset Qualifications</strong></p>\n<p><strong>\u2714</strong><strong> </strong>Experience in managing financial and human resources.</p>\n<p><strong>\u2714</strong><strong> </strong>Ability to conduct cross-cultural business in a respectful and professional manner with officials and counterparts while abroad.</p>\n<p><strong>\u00a0</strong></p>\n<p><strong>Organizational Needs</strong><strong> </strong></p>\n<p>In support of achieving a diversified workforce, consideration may be given to candidates self-identifying as belonging to one of the following Employment Equity groups: Aboriginal peoples, Persons with a Disability; Visible Minorities, Women.</p>\n<p><strong>\u00a0</strong></p>\n<p><strong>Conditions of Employment</strong><strong> </strong></p>\n<p>\u25ba Top Secret security clearance. Employees must obtain top secret clearance prior to their departure.</p>\n<p>\u25ba Ability and willingness to relocate to Seoul (South Korea) for 3 years with option for a 1-year extension subject to operational requirements and agreement of all parties.</p>\n<p>\u25ba Ability and willingness to travel.</p>\n<p>\u25ba Ability and willingness to work overtime and/or working out of normal office hours, on short notice.</p>\n<p>\u25ba Ability to adapt to rapidly changing priorities while maintaining focus on current tasks and assignments.</p>\n<p>\u25ba Ability to conduct cross-cultural business in a respectful and professional manner with officials and counterparts while abroad.</p>\n<p>\u25ba Employees must qualify for a Canadian diplomatic passport.</p>\n<p>\u25ba Employees must qualify for a Visa/ Accreditation for the country in which they are posted.</p>\n<p>\u25ba Employees must complete mandatory training through GAC.</p>\n<p>\u25ba Medical suitability: Personnel assigned abroad must obtain medical clearance for themselves and accompanying members of their family prior to their departure.</p>\n<p>\u25ba Employees will not be posted to countries where they cannot enjoy diplomatic or consular immunity. In practice this means that officers will not normally be posted to a country for which they (and possibly accompanying dependant(s)) hold citizenship.</p>\n<p><strong>\u00a0</strong></p>\n<p><strong>Applications:</strong></p>\n<p>Interested <em>AAFC</em> employees are encouraged to forward their resume and cover letter to Nada Mroue at nada.mroue@canada.ca</p>\n<p><strong>\u00a0</strong></p>\n<p><strong>Resume and cover letter must clearly identify:</strong></p>\n<p><strong>\u21e8</strong><strong> </strong>Your substantive group and level</p>\n<p><strong>\u21e8</strong><strong> </strong>If you have valid SLE results and indicate the levels attained (i.e. BBB).</p>\n<p><strong>\u21e8</strong><strong> </strong>How you meet the essential education and experience qualifications. You should use the experience and education as header sections to write concrete examples demonstrating how you meet each one. The essential knowledge and competency qualifications will be assessed further at a later point following the application stage.</p>\n<p><strong>\u21e8</strong><strong> </strong>That you have obtained approval from your supervisor to accept this assignment (if you are the successful candidate) prior to submitting an application. Please include email confirmation of this approval as part of your application submission.</p>\n<p><strong>\u21e8</strong><strong> </strong>The names and contact information for your current and previous supervisors to act as references and comment on your work.</p>\n<p><strong><em>\u00a0</em></strong></p>\n<p><strong><em>Additional Notes:</em></strong></p>\n<ol>\n<li>Preference will first be given to EC-06 (or equivalent) candidates.</li>\n<li>Communication for this process will be sent via email.</li>\n<li>You must meet all essential qualifications in order to be appointed to the position. Other qualifications may be a deciding factor in choosing the person to be appointed.</li>\n<li>An assignment cannot result in paying the assigned employee a salary higher than that obtained in his/her substantive position. Persons in an Acting appointment will be compensation in accordance with the Directive on Terms and Conditions of Employment.</li>\n<li>As per Global Affairs Canada\u2019s duty of care policy, employees will not be posted to countries where they cannot enjoy diplomatic or consular immunity. In practice this means that officers will not normally be posted to a country for which they (and possibly accompanying dependant(s)) hold citizenship. Please indicate in your application if you are applying for a posting in a country where you or accompanying dependants hold citizenship.</li>\n<li>All employees considering a posting abroad are strongly encouraged to research thoroughly the local environment at each individual post to ensure it is a right fit for their individual family circumstances. Please note that Seoul has a hardship posting level of one(I).</li>\n<li>In the interest of transparency, this job/assignment opportunity has also been posted at Global Affairs Canada and the Canadian Food Inspection Agency and we are also accepting interest from employees in these organizations.</li>\n<li>There will be various expression of interest job postings for several unique foreign assignments. For all of these job processes, similar tools may be used to assess qualifications. To streamline assessment of knowledge and competency qualifications for any candidate who applies on multiple processes, the assessment committee may decide that your assessment results for these qualifications will be transferrable to any/all processes that you applied on. The assessment committee also reserves the right to conduct a new or alternate assessment of qualifications when deemed appropriate.</li>\n</ol>\n<p>\u00a0</p>\n",
        "fr": "\n<p><strong>\u00a0</strong></p>\n<p><strong>Fonctions</strong></p>\n<p>L\u2019affectation ou nomination int\u00e9rimaire \u00e0 titre de d\u00e9l\u00e9gu\u00e9 commercial de l\u2019Agriculture, S\u00e9oul (Cor\u00e9e du Sud) devrait d\u00e9buter au cours de l\u2019\u00e9t\u00e9 2021. Le poste \u00e0 S\u00e9oul est pour une p\u00e9riode de trois ans avec option de prolongation d\u2019un an, sous r\u00e9serve des exigences op\u00e9rationnelles et de l\u2019accord de toutes les parties.</p>\n<p><strong>\u00a0</strong></p>\n<p><strong>En ce qui concerne l\u2019engagement et la participation en tant que d\u00e9l\u00e9gu\u00e9 commercial, le candidat devra :</strong></p>\n<p>\u21e8 Analyser les faits nouveaux et les tendances politiques, puis \u00e9laborer et mettre en \u0153uvre des strat\u00e9gies afin de prioriser et de faire progresser les int\u00e9r\u00eats commerciaux du secteur agricole canadien.<br>\n\u21e8 Soutenir le Minist\u00e8re en travaillant de fa\u00e7on proactive en vue d\u2019anticiper les perturbations des activit\u00e9s commerciales et de g\u00e9rer les irritants commerciaux qui surviennent.<br>\n\u21e8 Soutenir les efforts visant \u00e0 voir \u00e0 ce que les droits commerciaux n\u00e9goci\u00e9s du Canada dans le secteur agricole soient respect\u00e9s afin de permettre \u00e0 l\u2019industrie canadienne d\u2019\u00e9tablir, de conserver et d\u2019\u00e9largir des d\u00e9bouch\u00e9s commerciaux.<br>\n\u21e8 \u00c9tablir et entretenir un vaste r\u00e9seau de contacts parmi les diff\u00e9rents joueurs du gouvernement et des secteurs agricole et agroalimentaire de la Cor\u00e9e du Sud et du Canada, et promouvoir et d\u00e9fendre les int\u00e9r\u00eats du Canada.<br>\n\u21e8 Assurer la pr\u00e9paration et le soutien n\u00e9cessaire \u00e0 tous les aspects des missions internationales au Canada et dans la Cor\u00e9e du Sud.<br>\n\u21e8 Promouvoir les occasions pour les entreprises agroalimentaires canadiennes dans le pays ou la r\u00e9gion vis\u00e9s en t\u00e2chant de r\u00e9soudre les probl\u00e8mes d\u2019acc\u00e8s aux march\u00e9s et d\u2019\u00e9liminer les irritants.<br>\n\u21e8 Mieux faire comprendre au Canada les d\u00e9bouch\u00e9s commerciaux et les possibilit\u00e9s d\u2019affaires pour les exportateurs exp\u00e9riment\u00e9s et les entreprises pr\u00eates \u00e0 exporter afin de d\u00e9velopper et d\u2019\u00e9largir le commerce dans le pays ou la r\u00e9gion vis\u00e9s.<br>\n\u21e8 Concevoir et ex\u00e9cuter des programmes de d\u00e9veloppement commercial d\u2019AAC et d\u2019AMC par rapport au secteur canadien de l\u2019agriculture et de l\u2019alimentation afin de favoriser, \u00e0 long terme, une activit\u00e9 durable sur le plan commercial.</p>\n<p>\u21e8 Superviser trois employ\u00e9s locaux engag\u00e9s, fournir des conseils, \u00e9laborer un plan d\u2019affaires annuel et \u00e9valuer le rendement.<br>\n\u21e8 Fournir un appui au chef de section en ce qui concerne la gestion de la section et les t\u00e2ches administratives.</p>\n<p><strong>\u00a0</strong></p>\n<p><strong>\u00c9noncer des crit\u00e8res de m\u00e9rite et conditions d\u2019emploi : </strong></p>\n<p><strong>\u00a0</strong></p>\n<p><strong>Qualifications essentielles </strong></p>\n<p>\u00a0</p>\n<p><b>\u00c9TUDES</b></p>\n<p>\u2714 Un dipl\u00f4me d'un \u00e9tablissement d'enseignement postsecondaire reconnu en sciences politiques, en \u00e9conomie, ou en statistique. Les cours de sp\u00e9cialisation ne doivent pas n\u00e9cessairement faire partie d'un programme d'\u00e9tudes dans la sp\u00e9cialisation requise. La sp\u00e9cialisation peut \u00e9galement \u00eatre obtenue gr\u00e2ce \u00e0 une combinaison acceptable d'\u00e9ducation, de formation et/ou d'exp\u00e9rience.</p>\n<p>\u00a0</p>\n<p><b>EXP\u00c9RIENCE</b></p>\n<p>\u2714 Exp\u00e9rience appr\u00e9ciable* dans l\u2019\u00e9laboration et le maintien de r\u00e9seaux comprenant des fonctionnaires d\u2019autres minist\u00e8res et organismes gouvernementaux, des postes \u00e0 l\u2019\u00e9tranger, des gouvernements provinciaux et territoriaux, des gouvernements \u00e9trangers, des organismes/organisations multilat\u00e9raux ou des associations industrielles et des entreprises priv\u00e9es pour promouvoir le commerce ext\u00e9rieur, fournir des actions de plaidoyer et des alliances ou r\u00e9soudre les probl\u00e8mes d\u2019acc\u00e8s aux march\u00e9s.</p>\n<p>\u2714 Exp\u00e9rience dans la gestion des questions de politique commerciale agricole et/ou dans la n\u00e9gociation de la r\u00e9solution des irritants commerciaux et de l\u2019am\u00e9lioration de l\u2019acc\u00e8s aux march\u00e9s.</p>\n<p>\u2714 Exp\u00e9rience dans la formulation d\u2019options, de positions et de strat\u00e9gies politiques dans le cadre de la politique commerciale internationale.</p>\n<p>\u2714 Exp\u00e9rience appr\u00e9ciable* dans le d\u00e9veloppement et la promotion des entreprises agricoles, y compris les \u00e9l\u00e9ments suivants :</p>\n<ul>\n<li>Identifier et analyser les tendances, les possibilit\u00e9s et les d\u00e9fis des march\u00e9s internationaux des affaires et des exportations;</li>\n<li>Planifier, \u00e9laborer et \u00e9valuer des strat\u00e9gies de commercialisation \u00e0 l\u2019exportation;</li>\n<li>Mettre en \u0153uvre des activit\u00e9s telles que des salons professionnels, des missions ou d\u2019autres initiatives qui appuient les partenaires priv\u00e9s et gouvernementaux dans la promotion des entreprises canadiennes \u00e0 l\u2019\u00e9tranger.</li>\n</ul>\n<p>* On entend par \u00ab exp\u00e9rience appr\u00e9ciable \u00bb une exp\u00e9rience riche et diversifi\u00e9e acquise normalement dans le cadre de l\u2019ex\u00e9cution d\u2019une vaste gamme de t\u00e2ches connexes et complexes pendant une p\u00e9riode d\u2019au moins trois (3) ans.</p>\n<p><strong>\u00a0</strong></p>\n<p><strong>CONNAISSANCES</strong></p>\n<p>\u2714 Connaissance du Partenariat agricole canadien du Canada et des objectifs et priorit\u00e9s de la politique commerciale relativement \u00e0 la comp\u00e9titivit\u00e9 mondiale et \u00e0 la commercialisation internationale des produits agricoles, alimentaires et de la mer du Canada.</p>\n<p>\u2714 Connaissance des cha\u00eenes de valeur agroalimentaire du Canada, de leurs forces concurrentielles, de leurs performances commerciales et de leurs int\u00e9r\u00eats \u00e0 l\u2019exportation, de l\u2019environnement r\u00e9glementaire qui r\u00e9git leur exploitation et des tendances mondiales ayant une incidence sur la croissance future.</p>\n<p>\u2714 Connaissance des institutions internationales et/ou des accords commerciaux internationaux et de leur mise en \u0153uvre et/ou des cadres bilat\u00e9raux d\u2019acc\u00e8s aux march\u00e9s et des organismes mondiaux d\u2019\u00e9tablissement de normes pertinents pour l\u2019industrie agricole, alimentaire et des fruits de mer.</p>\n<p>\u2714 Connaissance du Service des d\u00e9l\u00e9gu\u00e9s commerciaux du Canada et de ses principales politiques et principes.</p>\n<p><strong>\u00a0</strong></p>\n<p><strong>COMP\u00c9TENCES</strong></p>\n<p>\u2714 Adaptabilit\u00e9</p>\n<p>\u2714 \u00c9tablissement de relations</p>\n<p>\u2714 Pens\u00e9e strat\u00e9gique</p>\n<p>\u2714 Initiative</p>\n<p>\u2714 Travail d'\u00c9quipe</p>\n<p>\u2714 Efficacit\u00e9 interculturelle</p>\n<p><strong>\u00a0</strong></p>\n<p><strong>Exigences linguistiques</strong><br>\n\u2714 Bilingue - Imp\u00e9ratif (BBB/BBB)</p>\n<p>\u00a0</p>\n<p><strong>Qualifications constituant un atout </strong></p>\n<p>\u2714 Exp\u00e9rience dans la gestion des ressources financi\u00e8res et humaines.</p>\n<p>\u2714 Capacit\u00e9 de mener des affaires interculturelles \u00e0 l\u2019\u00e9tranger avec les repr\u00e9sentants et les homologues de mani\u00e8re respectueuse et professionnelle.</p>\n<p><strong>\u00a0</strong></p>\n<p><strong>Besoins de l'organisation </strong></p>\n<p>Pour diversifier l\u2019effectif, on pourra examiner la candidature des personnes qui s\u2019identifient comme appartenant \u00e0 des groupes vis\u00e9s par l\u2019\u00e9quit\u00e9 en mati\u00e8re d\u2019emploi, soit les autochtones, les personnes handicap\u00e9es, les membres des minorit\u00e9s visibles et les femmes.</p>\n<p><strong>\u00a0</strong></p>\n<p><strong>Conditions d'emploi </strong></p>\n<p>\u25ba Cote de s\u00e9curit\u00e9 de niveau \u00ab Tr\u00e8s secret \u00bb. Les employ\u00e9s doivent obtenir une cote de s\u00e9curit\u00e9 de niveau \u00ab Tr\u00e8s secret \u00bb avant leur d\u00e9part.</p>\n<p>\u25ba Capacit\u00e9 et volont\u00e9 de d\u00e9m\u00e9nager \u00e0 S\u00e9oul (Cor\u00e9e du Sud), pour une p\u00e9riode de trois ans avec option de prolongation d\u2019un an, sous r\u00e9serve des exigences op\u00e9rationnelles et de l\u2019accord de toutes les parties.<br>\n<br>\u25ba Consentir \u00e0 voyager et \u00eatre en mesure de le faire.<br>\n<br>\u25ba Consentir \u00e0 faire des heures suppl\u00e9mentaires et/ou \u00e0 travailler en dehors des heures normales, et \u00eatre en mesure de le faire.<br>\n<br>\u25ba Capacit\u00e9 de s\u2019adapter \u00e0 l\u2019\u00e9volution rapide des priorit\u00e9s tout en maintenant l\u2019accent sur les t\u00e2ches et les affectations actuelles.</p>\n<p>\u25ba Capacit\u00e9 de mener des activit\u00e9s interculturelles de mani\u00e8re respectueuse et professionnelle avec les fonctionnaires et leurs homologues \u00e0 l\u2019\u00e9tranger.</p>\n<p>\u25ba Les employ\u00e9s doivent r\u00e9unir les conditions voulues pour obtenir un passeport diplomatique canadien.</p>\n<p>\u25ba Les employ\u00e9s doivent r\u00e9unir les conditions voulues pour obtenir un visa ou une accr\u00e9ditation pour le pays o\u00f9 ils sont affect\u00e9s.</p>\n<p>\u25ba Les employ\u00e9s doivent suivre une formation obligatoire offerte par le biais d\u2019AMC.</p>\n<p>\u25ba Exigences m\u00e9dicales : Les employ\u00e9s affect\u00e9s \u00e0 l\u2019\u00e9tranger doivent obtenir, avant leur d\u00e9part, un certificat de sant\u00e9 pour eux-m\u00eames et pour les membres de leur famille qui les accompagnent.</p>\n<p>\u25ba Aucun employ\u00e9 ne sera affect\u00e9 dans un pays o\u00f9 il ne peut jouir de l\u2019immunit\u00e9 diplomatique ou consulaire. Concr\u00e8tement, cela signifie qu\u2019un fonctionnaire ne peut habituellement pas \u00eatre affect\u00e9 dans un pays dont il d\u00e9tient la citoyennet\u00e9 (ou dont une personne \u00e0 charge qui l\u2019accompagne d\u00e9tient la citoyennet\u00e9).</p>\n<p><strong>\u00a0</strong></p>\n<p><strong>Candidatures</strong></p>\n<p>Les employ\u00e9s <em>d\u2019AAC, </em>int\u00e9ress\u00e9s sont invit\u00e9s \u00e0 envoyer leur curriculum vitae et une lettre d\u2019accompagnement \u00e0 <em>Nada Mroue </em>\u00e0 <em><a href=\"mailto:nada.mroue@canada.ca\">nada.mroue@canada.ca</a></em></p>\n<p><strong>\u00a0</strong></p>\n<p><strong>Les curriculum vitae et lettre d\u2019accompagnement doivent nettement pr\u00e9ciser :</strong></p>\n<p><strong>\u21e8</strong><strong> </strong>La classification de votre poste d\u2019attache.</p>\n<p><strong>\u21e8</strong><strong> </strong>R\u00e9sultats ELS</p>\n<p>\u21e8 En quoi vous poss\u00e9dez les qualifications essentielles en mati\u00e8re d\u2019\u00e9tudes et d\u2019exp\u00e9rience ainsi que les qualifications constituant un atout \u00e9num\u00e9r\u00e9es ci-dessous. Vous devriez utiliser votre exp\u00e9rience et vos \u00e9tudes pour donner des exemples concrets d\u00e9montrant en quoi vous poss\u00e9dez chacune d\u2019elles. Les connaissances essentielles et les qualifications de comp\u00e9tence seront \u00e9valu\u00e9es plus en d\u00e9tail ult\u00e9rieurement apr\u00e8s la phase de candidature.</p>\n<p>\u21e8 Que vous avez obtenu l'approbation de votre superviseur pour accepter cette affectation (si vous \u00eates le candidat retenu) avant de soumettre une candidature. Veuillez inclure une confirmation par courriel de cette approbation dans le cadre de la soumission de votre candidature.</p>\n<p>\u21e8 Le nom et les coordonn\u00e9es de leurs actuels et derniers superviseurs afin que ceux-ci fournissent des r\u00e9f\u00e9rences \u00e0 leur sujet et commentent leur travail.</p>\n<p><strong>\u00a0</strong></p>\n<p><strong>Notes compl\u00e9mentaires </strong></p>\n<ol>\n<li>La pr\u00e9f\u00e9rence sera d\u2019abord accord\u00e9e aux candidats EC-06 (ou \u00e9quivalents).</li>\n<li>Les communications relatives au processus de s\u00e9lection se feront par courriel.</li>\n<li>Vous devez poss\u00e9der toutes les qualifications essentielles pour \u00eatre nomm\u00e9 \u00e0 ce poste. D\u2019autres qualifications peuvent constituer un facteur d\u00e9terminant dans le choix de la personne qui sera nomm\u00e9e.</li>\n<li>Un employ\u00e9 en affectation ne peut pas recevoir un salaire plus \u00e9lev\u00e9 que celui de son poste d\u2019attache. Un employ\u00e9 en nomination int\u00e9rimaire sera pay\u00e9 conform\u00e9ment \u00e0 la Directive sur les conditions d\u2019emploi.</li>\n<li>Conform\u00e9ment \u00e0 la politique sur l\u2019obligation de diligence d\u2019Affaires mondiales Canada, aucun employ\u00e9 ne sera affect\u00e9 dans un pays o\u00f9 il ne peut jouir de l\u2019immunit\u00e9 diplomatique ou consulaire. Concr\u00e8tement, cela signifie qu\u2019un fonctionnaire ne peut habituellement pas \u00eatre affect\u00e9 dans un pays dont il d\u00e9tient la citoyennet\u00e9 (ou dont une personne \u00e0 charge qui l\u2019accompagne d\u00e9tient la citoyennet\u00e9). Si vous posez votre candidature \u00e0 un poste dans un pays dont vous ou une personne \u00e0 charge qui vous accompagne d\u00e9tenez la citoyennet\u00e9, veuillez l\u2019indiquer dans votre demande.</li>\n<li>Tous les employ\u00e9s qui envisagent une affectation \u00e0 l\u2019\u00e9tranger sont fortement encourag\u00e9s \u00e0 faire des recherches approfondies sur l\u2019environnement local \u00e0 chaque poste pour s\u2019assurer qu\u2019il convient parfaitement \u00e0 leur situation familiale individuelle. Veuillez noter que Seoul a re\u00e7u un niveau d'\u00e9valuation du poste d\u2019un (I).</li>\n<li>Dans un souci de transparence, cette occasion d\u2019emploi et d\u2019affectation a \u00e9galement \u00e9t\u00e9 affich\u00e9e \u00e0 Affaires mondiales Canada et \u00e0 l\u2019Agence canadienne d\u2019inspection des aliments et nous acceptons \u00e9galement l\u2019int\u00e9r\u00eat des employ\u00e9s de ces organisations.</li>\n<li>Il y aura diverses offres d\u2019emploi d\u2019expression d\u2019int\u00e9r\u00eat pour plusieurs affectations \u00e9trang\u00e8res uniques. Pour tous ces processus d\u2019emploi, des outils similaires peuvent \u00eatre utilis\u00e9s pour \u00e9valuer les qualifications. Afin de rationaliser l\u2019\u00e9valuation des connaissances et des comp\u00e9tences requises pour tout candidat qui pr\u00e9sente une demande sur plusieurs processus, le comit\u00e9 d\u2019\u00e9valuation peut d\u00e9cider que les r\u00e9sultats de votre \u00e9valuation pour ces qualifications seront transf\u00e9rables \u00e0 tous les processus que vous avez appliqu\u00e9s. Le comit\u00e9 d\u2019\u00e9valuation se r\u00e9serve \u00e9galement le droit de proc\u00e9der \u00e0 une \u00e9valuation nouvelle ou alternative des qualit\u00e9s lorsqu\u2019il est jug\u00e9 appropri\u00e9.</li>\n</ol>\n<p>\u00a0</p>\n\n"
    },
    "breadcrumb": {
        "en": "Trade Commissioner, Seoul (South Korea)\u2013 Anticipatory Process",
        "fr": "D\u00e9l\u00e9gu\u00e9 commercial, S\u00e9oul (Cor\u00e9e du Sud)- Anticipatoire"
    },
    "empl": {
        "type": {
            "en": "Assignment, Acting",
            "fr": "Affectation, Int\u00e9rimaire"
        },
        "classification": {
            "en": "EC-6 and equivalent",
            "fr": "EC-6 et \u00e9quivalent"
        },
        "branch": {
            "en": "International Affairs Branch",
            "fr": "Direction g\u00e9n\u00e9rales des affaires internationales"
        },
        "locations": {
            "en": "Seoul (South Korea)",
            "fr": "S\u00e9oul (Cor\u00e9e du Sud)"
        },
        "date_closing": {
            "en": "2020-11-02",
            "fr": "2020-11-02"
        },
        "open_to": {
            "en": "All AAFC Employees occupying a substantive EC-06 or EC-05 (or equivalent) position",
            "fr": "Tous les employ\u00e9s d\u2019AAC occupant un poste d\u2019attache EC-06 ou EC-05 (ou \u00e9quivalent)"
        },
        "name": {
            "en": "Nada Mroue",
            "fr": "Nada Mroue"
        },
        "email": {
            "en": "nada.mroue@canada.ca",
            "fr": "nada.mroue@canada.ca"
        }
    }
}