{
    "dcr_id": "1603388609990",
    "lang": "en",
    "title": {
        "en": "Financial Advisor",
        "fr": "Conseiller financier"
    },
    "modified": "2020-10-23 00:00:00.0",
    "issued": "2020-10-23 00:00:00.0",
    "type_name": "intra-intra/empl-empl",
    "node_id": "1279029955397",
    "layout_name": null,
    "dc_date_created": "2020-10-22",
    "breadcrumb_label": "",
    "trigger_date": "2020-10-23 07:05:33.0",
    "meta": {
        "issued": {
            "en": "2020-10-23",
            "fr": "2020-10-23"
        },
        "modified": {
            "en": "2020-10-23",
            "fr": "2020-10-23"
        },
        "format": {
            "en": "gcformat",
            "fr": "gcformat"
        },
        "title": {
            "en": "Financial Advisor",
            "fr": "Conseiller financier"
        },
        "subject": {
            "en": "staffing",
            "fr": "dotation en personnel"
        },
        "language": {
            "en": "eng",
            "fr": "fra"
        },
        "audience": {
            "en": "gcaudience",
            "fr": "gcaudience"
        },
        "type": {
            "en": "notice",
            "fr": "avis"
        },
        "creator": {
            "en": "Agriculture and Agri-Food Canada",
            "fr": "Agriculture et Agroalimentaire Canada"
        },
        "spatial": {
            "en": "gcregions",
            "fr": "gcregions"
        },
        "service": {
            "en": "AAFC_AgriSource",
            "fr": "AAC_AgriSource"
        },
        "accessRights": {
            "en": "3",
            "fr": "3"
        }
    },
    "body": {
        "en": "\n<p><strong>\u00a0</strong></p>\n<p><strong>Duties:</strong><em>\u00a0 </em></p>\n<p>The Financial Advisor within the Financial Management Advisory Division will provide financial advice, guidance, support and information processing to their client branch, Public Affairs Branch (PAB). The main responsibilities include:</p>\n<ul>\n<li>Coordinating the Business Planning and Consolidation (BPC) forecasting process with branch clients;</li>\n<li>Monitoring forecasts against established budgets and ensuring reasonableness and completeness of all Commitment Item forecasts;</li>\n<li>Reviewing salary information, including planned staffing and FTE\u2019s to ensure ongoing accuracy;</li>\n<li>Reviewing and processing adjusting entries (i.e. JV\u2019s, de-commitments and IS transfers etc.) and all budget transfers;</li>\n<li>Analyzing financial situation reports and preparing presentations as required for senior management;</li>\n<li>Responding to clients regarding a broad spectrum of financial inquiries, including policy, controls, coding, and accounting issues;</li>\n<li>Creating, analyzing, and providing various financial reports to branch clients and/or senior management;</li>\n<li>Supporting team members with other related financial duties in support of their client branches;</li>\n<li>Supporting Corporate Management Branch in the delivery of internal/external reports and periodic financial exercises as they pertain to client branches; and</li>\n<li>Providing guidance, assistance and advice as it relates to ATIP and Parliamentary questions.</li>\n</ul>\n<p>The ideal candidate has excellent working knowledge of Excel, Word and PowerPoint, and departmental financial systems such as SAP document control and creation, Business Planning and Consolidation (BPC) and Financial Management Reports (FMR).</p>\n<p><strong><br>Statement of Merit Criteria &amp; Conditions of Employment</strong></p>\n<p><strong><br>Essential Qualifications</strong></p>\n<p><br>Education:</p>\n<ul>\n<li>A degree from a recognized post-secondary institution with specialization in accounting, finance, business administration, commerce or economics</li>\n</ul>\n<p>AND experience related to positions in the Financial Management Group;</p>\n<p>OR</p>\n<p>possession of a recognized professional accounting designation (i.e. CPA, CA, CMA or CGA).</p>\n<p><br>Experience:\u00a0</p>\n<ul>\n<li>Experience* in providing financial advice and recommendations to management.</li>\n<li>Experience* in analyzing, interpreting and applying financial acts, policies or directives within the Federal Government.</li>\n<li>Experience* in financial planning, budgeting, forecasting, expenditure analysis, monitoring, reporting or accounting operations.</li>\n<li>Experience in working with word processing, spreadsheet and presentation software, specifically Word, Excel and PowerPoint.\u00a0\u00a0</li>\n</ul>\n<p>* Experience is defined as a minimum of two (2) years.</p>\n<p><br>Knowledge:</p>\n<ul>\n<li>Knowledge of Generally Accepted Accounting Principles (GAAP)/International Financial Reporting Standards (IFRS).</li>\n<li>Knowledge of the Government Expenditure Management System.</li>\n<li>Knowledge of the <em>Financial Administration Act</em> <em>(FAA)</em> and related Federal Government financial policies and directives.</li>\n</ul>\n<p><br>Competencies:</p>\n<ul>\n<li>Interactive communication</li>\n<li>Analytical thinking</li>\n<li>Client Focus</li>\n<li>Teamwork</li>\n<li>Initiative</li>\n<li>Writing Skills</li>\n<li>Planning and Organizing</li>\n</ul>\n<p><br>Language Requirement:</p>\n<ul>\n<li>Bilingual Imperative (BBB/BBB)</li>\n</ul>\n<p><strong><br>Asset Qualifications:<br>Possession of a recognized professional accounting designation (i.e. CPA, CA, CMA or CGA).</strong></p>\n<ul>\n<li>Experience in using the financial system SAP.</li>\n</ul>\n<p><strong><br>Organizational Needs:</strong></p>\n<p>In support of achieving a diversified workforce, consideration may be given to candidates self-identifying as belonging to one of the following Employment Equity groups: Aboriginal peoples; Persons with a Disability; Visible Minorities; and Women.</p>\n<p><strong><br>Conditions of Employment:</strong></p>\n<p>Security Requirement(s): reliability</p>\n<p><strong><br>Operational Requirements:</strong></p>\n<ul>\n<li>Ability and willingness to work overtime on short notice.</li>\n</ul>\n<p><strong><br>Applications:</strong></p>\n<p>Interested AAFC employees in the NCR are encouraged to forward their r\u00e9sum\u00e9 to Tania Gardner at <a href=\"mailto:aafc.fcd-dcf.aac@canada.ca\">aafc.fcd-dcf.aac@canada.ca</a> by November 3, 2020.</p>\n<p>R\u00e9sum\u00e9s must clearly identify:</p>\n<ul>\n<li>Your tenure (e.g. term or indeterminate)</li>\n<li>Your substantive group and level</li>\n</ul>\n<p><strong><br>Notes:</strong></p>\n<ul>\n<li>The opportunity is for a 12-month assignment at level or acting opportunity with the possibility of extension and/or deployment.</li>\n<li>Candidates at the FI-01 classification level are welcome to apply provided they have acted at an FI-02 level for a continuous period greater than four months.</li>\n<li>Communication for this process will be sent via email.</li>\n</ul>\n<p>\u00a0</p>\n",
        "fr": "\n<p><strong>\u00a0</strong></p>\n<p><strong>Fonctions :</strong></p>\n<p>Le titulaire du poste \u00e0 la Division des services consultatifs en gestion financi\u00e8re fournit des conseils, des consignes, du soutien et des services de traitement de l\u2019information \u00e0 la direction g\u00e9n\u00e9rale qu\u2019il sert, soit la Direction g\u00e9n\u00e9rale des affaires publiques (DGAP). Ses principales responsabilit\u00e9s sont les suivantes :</p>\n<ul>\n<li>Coordonner le processus pr\u00e9visionnel de planification op\u00e9rationnelle et de regroupement (POR) avec la direction g\u00e9n\u00e9rale cliente.</li>\n<li>Surveiller les pr\u00e9visions par rapport aux budgets \u00e9tablis et faire en sorte que les pr\u00e9visions pour tous les postes budg\u00e9taires soient raisonnables et compl\u00e8tes.</li>\n<li>Passer en revue les donn\u00e9es sur les salaires, y compris les mesures de dotation et les ETP pr\u00e9vus, pour faire en sorte qu\u2019elles soient toujours exactes.</li>\n<li>Examiner, traiter et ajuster les entr\u00e9es (p. ex. PJ, d\u00e9sengagements et RI), de m\u00eame que tous les virements budg\u00e9taires.</li>\n<li>Analyser les rapports sur la situation financi\u00e8re et \u00e9laborer des documents de pr\u00e9sentation \u00e0 l\u2019intention de la haute direction, au besoin.</li>\n<li>R\u00e9pondre aux demandes de renseignements financiers des clients, qui peuvent porter sur une vaste gamme de sujets, notamment les politiques, les contr\u00f4les, le codage et la comptabilit\u00e9.</li>\n<li>Cr\u00e9er, analyser et fournir diff\u00e9rents rapports financiers \u00e0 la direction g\u00e9n\u00e9rale cliente ou \u00e0 la haute direction;</li>\n<li>Aider les membres de l\u2019\u00e9quipe exer\u00e7ant d\u2019autres t\u00e2ches li\u00e9es aux finances pour les directions g\u00e9n\u00e9rales qu\u2019ils servent.</li>\n<li>Aider la Direction g\u00e9n\u00e9rale de la gestion int\u00e9gr\u00e9e \u00e0 produire les rapports internes et externes et \u00e0 r\u00e9aliser les exercices financiers r\u00e9guliers pour la direction g\u00e9n\u00e9rale qu\u2019il sert.</li>\n<li>Fournir des consignes, de l\u2019aide et des conseils relativement \u00e0 l\u2019AIPRP et aux questions parlementaires.</li>\n</ul>\n<p>Le candidat id\u00e9al a une excellente connaissance pratique d\u2019Excel, Word et PowerPoint, et des syst\u00e8mes financiers du Minist\u00e8re, comme SAP (contr\u00f4le et cr\u00e9ation de documents), la planification op\u00e9rationnelle et de regroupement (POR) et les rapports de gestion financi\u00e8re (RGF).</p>\n<p><strong><br>\u00c9nonce des crit\u00e8res de m\u00e9rite et conditions d\u2019emploi : </strong></p>\n<p><strong><br>Qualifications essentielles </strong></p>\n<p><br>\u00c9tudes:</p>\n<ul>\n<li>Un grade d\u2019un \u00e9tablissement d\u2019enseignement postsecondaire reconnu avec sp\u00e9cialisation en comptabilit\u00e9, en finances, en administration des affaires, en commerce ou en \u00e9conomie ET une exp\u00e9rience reli\u00e9e aux postes du groupe Gestion financi\u00e8re;</li>\n</ul>\n<p>OU</p>\n<p>poss\u00e9der un titre de comptable octroy\u00e9 par une association professionnelle reconnue (c.-\u00e0-d. CPA, CA, CMA ou CGA).</p>\n<p><br>Exp\u00e9rience :</p>\n<ul>\n<li>Exp\u00e9rience* de la formulation de conseils et de recommandations de nature financi\u00e8re \u00e0 la direction.</li>\n<li>Exp\u00e9rience* de l\u2019analyse, de l\u2019interpr\u00e9tation et de l\u2019application de lois, de politiques ou de directives se rapportant \u00e0 la gestion des finances au sein du gouvernement f\u00e9d\u00e9ral.</li>\n<li>Exp\u00e9rience* relative \u00e0 la planification financi\u00e8re, \u00e0 l\u2019\u00e9tablissement de budgets, de pr\u00e9visions ou de rapports, \u00e0 l\u2019analyse des d\u00e9penses, \u00e0 la v\u00e9rification ou aux op\u00e9rations comptables.</li>\n<li>Exp\u00e9rience de l\u2019utilisation de logiciels de traitement de textes, de tableurs et de logiciels de pr\u00e9sentation, tout particuli\u00e8rement de Word, d\u2019Excel et de PowerPoint.</li>\n</ul>\n<p>* On entend par \u00ab exp\u00e9rience \u00bb un minimum de 2 ans</p>\n<p><br>Connaissance :</p>\n<ul>\n<li>Connaissance des principes comptables g\u00e9n\u00e9ralement reconnus (PCGR)/Normes internationales d\u2019information financi\u00e8re (IFRS).</li>\n<li>Connaissance du syst\u00e8me de gestion des d\u00e9penses du gouvernement.</li>\n<li>Connaissance de la Loi sur la gestion des finances publiques (LGFP) ainsi que des politiques et directives financi\u00e8res connexes du gouvernement f\u00e9d\u00e9ral.</li>\n</ul>\n<p><br>Comp\u00e9tence :</p>\n<ul>\n<li>Communication interactive</li>\n<li>R\u00e9flexion analytique</li>\n<li>Accent mis sur le client</li>\n<li>Travail d'\u00e9quipe</li>\n<li>Initiative</li>\n<li>Aptitudes \u00e0 \u00e9crire</li>\n<li>Planification et organisation</li>\n</ul>\n<p><br>Exigence linguistique :</p>\n<ul>\n<li>Bilingue imp\u00e9ratif (BBB/BBB)</li>\n</ul>\n<p><strong><br>Qualifications constituant un atout :</strong></p>\n<ul>\n<li>Poss\u00e9der un titre de comptable octroy\u00e9 par une association professionnelle reconnue (c.\u00e0-d. CPA, CA, CMA ou CGA).</li>\n<li>Exp\u00e9rience de l\u2019utilisation du syst\u00e8me financier SAP.</li>\n</ul>\n<p><strong><br>Besoins de l'organisation :</strong></p>\n<p>Pour r\u00e9pondre aux besoins de diversification de l\u2019effectif, la pr\u00e9f\u00e9rence pourrait \u00eatre accord\u00e9e aux personnes qui auront indiqu\u00e9 leur appartenance \u00e0 l\u2019un des groupes suivants, vis\u00e9s par l\u2019\u00e9quit\u00e9 en mati\u00e8re d\u2019emploi : Autochtones, personnes handicap\u00e9es, membres d\u2019une minorit\u00e9 visible, femmes.</p>\n<p><strong><br>Conditions d'emploi :</strong></p>\n<p>Exigences de s\u00e9curit\u00e9(s) : Cote de fiabilit\u00e9</p>\n<p><strong><br>Exigences op\u00e9rationnelles :</strong></p>\n<ul>\n<li>\u00catre apte et dispos\u00e9 \u00e0 faire des heures suppl\u00e9mentaires \u00e0 bref pr\u00e9avis.</li>\n</ul>\n<p><strong><br>Candidatures</strong></p>\n<p>Les employ\u00e9s d\u2019AAC de la RCN int\u00e9ress\u00e9s sont invit\u00e9s \u00e0 envoyer leur curriculum vitae \u00e0 Tania Gardner \u00e0 <a href=\"mailto:aafc.fcd-dcf.aac@canada.ca\">aafc.fcd-dcf.aac@canada.ca</a> d\u2019ici le 3 novembre 2020.</p>\n<p>Les curriculum vitae doivent nettement pr\u00e9ciser :</p>\n<ul>\n<li>votre type de poste (p. ex., \u00e0 dur\u00e9e d\u00e9termin\u00e9e ou ind\u00e9termin\u00e9e);</li>\n<li>la classification de votre poste d\u2019attache.</li>\n</ul>\n<p><strong><br>Remarques</strong></p>\n<ul>\n<li>Il s\u2019agit d\u2019une affectation au niveau ou d\u2019une nomination int\u00e9rimaire de 12 mois avec possibilit\u00e9 de prolongation ou \u00eatre convertie en mutation.</li>\n<li>Les candidats de niveau FI-01 sont invit\u00e9s \u00e0 poser leur candidature s\u2019ils ont \u00e9t\u00e9 int\u00e9rimaire au niveau FI-02 pendant une p\u00e9riode continue de plus de quatre mois.</li>\n<li>Les communications relatives au\u00a0 processus de s\u00e9lection se feront par courriel.</li>\n</ul>\n<p>\u00a0</p>\n\n"
    },
    "breadcrumb": {
        "en": "Financial Advisor",
        "fr": "Conseiller financier"
    },
    "empl": {
        "type": {
            "en": "Assignment, Deployment, Acting",
            "fr": "Affectation, Mutation, Int\u00e9rimaire"
        },
        "classification": {
            "en": "FI-2",
            "fr": "FI-2"
        },
        "branch": {
            "en": "Corporate Management Branch",
            "fr": "Gestion int\u00e9gr\u00e9e"
        },
        "locations": {
            "en": "Ottawa, Ontario",
            "fr": "Ottawa, Ontario"
        },
        "date_closing": {
            "en": "2020-11-03",
            "fr": "2020-11-03"
        },
        "open_to": {
            "en": "All FI-01 and FI-02 at AAFC",
            "fr": "Tous les FI-01 et FI-02 d\u2019AAC"
        },
        "name": {
            "en": "Tania Gardner",
            "fr": "Tania Gardner"
        },
        "email": {
            "en": "aafc.fcd-dcf.aac@canada.ca",
            "fr": "aafc.fcd-dcf.aac@canada.ca"
        }
    }
}