{
    "dcr_id": "1453835262566",
    "lang": "en",
    "title": {
        "en": "Reminder - Updated Information Technology Security Policy - April 1<sup>st</sup>",
        "fr": "Rappel - Mise \u00e0 jour de la Politique de s\u00e9curit\u00e9 des technologies de l'information - 1<sup>er</sup> avril"
    },
    "modified": "2018-03-23 00:00:00.0",
    "issued": "2016-01-27 00:00:00.0",
    "type_name": "intra-intra/news-nouv",
    "node_id": "1279030006975",
    "layout_name": "1 column",
    "dc_date_created": "2016-01-26",
    "breadcrumb_label": "",
    "meta": {
        "issued": {
            "en": "2016-01-27",
            "fr": "2016-01-27"
        },
        "modified": {
            "en": "2018-03-23",
            "fr": "2018-03-23"
        },
        "format": {
            "en": "gcformat",
            "fr": "gcformat"
        },
        "title": {
            "en": "Reminder - Updated Information Technology Security Policy - April 1<sup>st</sup>",
            "fr": "Rappel - Mise \u00e0 jour de la Politique de s\u00e9curit\u00e9 des technologies de l'information - 1<sup>er</sup> avril"
        },
        "subject": {
            "en": "communications;security;applications",
            "fr": "communications;s\u00e9curit\u00e9;applications"
        },
        "description": {
            "en": "The IT Security Policy has been reviewed and updated to answer concerns identified in the recent IT Security and the Office of the Privacy Commissioner audits.",
            "fr": "Nous avons revu et mis \u00e0 jour la Politique de s\u00e9curit\u00e9 des TI pour r\u00e9pondre aux pr\u00e9occupations soulev\u00e9es dans les r\u00e9centes v\u00e9rifications de la s\u00e9curit\u00e9 des TI et du Commissariat \u00e0 la protection de la vie priv\u00e9e."
        },
        "language": {
            "en": "eng",
            "fr": "fra"
        },
        "keywords": {
            "en": "secure use of portable storage devices, storage of personal information",
            "fr": "utilisation s\u00e9curitaire des dispositifs de stockage portatifs, stockage de renseignements personnels"
        },
        "audience": {
            "en": "gcaudience",
            "fr": "gcaudience"
        },
        "type": {
            "en": "notice",
            "fr": "avis"
        },
        "creator": {
            "en": "Agriculture and Agri-Food Canada",
            "fr": "Agriculture et Agroalimentaire Canada"
        },
        "spatial": {
            "en": "gcregions",
            "fr": "gcregions"
        },
        "service": {
            "en": "AAFC_AgriSource",
            "fr": "AAC_AgriSource"
        },
        "accessRights": {
            "en": "3",
            "fr": "3"
        }
    },
    "body": {
        "en": "<br>\n<br>\n<p>The <abbr title=\"Information Technology\">IT</abbr> Security Policy has been reviewed and updated to answer concerns identified in the recent <abbr title=\"Information Technology\">IT</abbr> Security and the Office of the Privacy Commissioner\u00a0audits.\u00a0</p>\n<p>Effective April 1<sup>st</sup>, 2016, the updated policy reflects current roles and responsibilities in the Department.\u00a0</p>\n<p>Key changes in the policy address:</p>\n<ul>\n<li>the <strong>secure use of portable storage devices</strong>: non-authorized devices will be permitted only for the purpose of one way transfer of information to AAFC.\u00a0</li>\n<li>the <strong>storage of personal information</strong>: the policy clarifies that personal information (as defined in the <em>Privacy Act</em>) is not to be kept on portable storage devices.</li>\n</ul>\n<p>Note that section 5.9 (Only AAFC authorized <abbr title=\"Information Technology\">IT</abbr> assets may be used to access, process or store AAFC information) and section 5.10.7 (Only AAFC authorized devices may be connected to the Government of Canada network via remote access) will not take effect until April 1<sup>st</sup>, 2017.\u00a0</p>\n<p>We encourage you to read the \n<a href=\"http://intranet.agr.gc.ca/agrisource/eng/the-department/departmental-policies-and-guidelines?id=1287431560148\"><abbr title=\"Information Technology\">IT</abbr> Security Policy</a>\u00a0and understand your responsibilities.</p>\n\n\t\t",
        "fr": "<br>\n<br>\n<p>Nous avons revu et mis \u00e0 jour la Politique de s\u00e9curit\u00e9 des <abbr title=\"technologies de l'information\">TI</abbr> pour r\u00e9pondre aux pr\u00e9occupations soulev\u00e9es dans les r\u00e9centes v\u00e9rifications de la s\u00e9curit\u00e9 des <abbr title=\"technologies de l'information\">TI</abbr> et du Commissariat \u00e0 la protection de la vie priv\u00e9e.\u00a0</p>\n<p>\u00c0 compter du 1<sup>er</sup> avril 2016, la politique \u00e0 jour tiendra compte des r\u00f4les et responsabilit\u00e9s actuels au sein du Minist\u00e8re.\u00a0</p>\n<p>Les principales modifications apport\u00e9es \u00e0 la politique concernent :</p>\n<ul>\n<li>l'<strong>utilisation s\u00e9curitaire des dispositifs de stockage portatifs </strong>: il sera permis d'utiliser des dispositifs non autoris\u00e9s seulement pour le transfert unidirectionnel de renseignements \u00e0 AAC;\u00a0</li>\n<li>le <strong>stockage de renseignements personnels </strong>: la politique pr\u00e9cise que les renseignements personnels (tels que d\u00e9finis dans la <em>Loi sur la protection des renseignements personnels</em>) ne doivent pas \u00eatre stock\u00e9s sur des appareils portatifs.</li>\n</ul>\n<p>\u00c0 noter que les dispositions du paragraphe 5.9 (Seuls les actifs technologiques autoris\u00e9s par AAC peuvent servir \u00e0 consulter, \u00e0 traiter ou \u00e0 stocker des renseignements d'AAC) et du paragraphe 5.10.7 (Seuls les dispositifs autoris\u00e9s par AAC peuvent \u00eatre connect\u00e9s au r\u00e9seau du gouvernement du Canada au moyen d'un acc\u00e8s \u00e0 distance) n'entreront pas en vigueur avant le 1<sup>er</sup> avril 2017.\u00a0</p>\n<p>Nous vous invitons \u00e0 lire la <a href=\"http://intranet.agr.gc.ca/agrisource/fra/le-ministere/politiques-et-lignes-directrices-ministerielles?id=1287431560148\">Politique de s\u00e9curit\u00e9 des <abbr title=\"technologies de l'information\">TI</abbr></a>\u00a0 pour comprendre vos responsabilit\u00e9s. \u00a0</p>\n\t\t"
    },
    "breadcrumb": {
        "en": "Reminder - Updated Information Technology Security Policy - April 1st",
        "fr": "Rappel - Mise \u00e0 jour de la Politique de s\u00e9curit\u00e9 des technologies de l'information - 1er"
    },
    "news": {
        "date_posted": {
            "en": "2016-01-28",
            "fr": "2016-01-28"
        },
        "to": {
            "en": "All staff",
            "fr": "Tous les employ\u00e9s"
        },
        "by": {
            "en": "Michel Lessard, Chief Information Officer, Information Systems Branch",
            "fr": "Michel Lessard, dirigeant principal de l'information, Direction g\u00e9n\u00e9rale des syst\u00e8mes d'information"
        }
    }
}