{
    "dcr_id": "1479326112285",
    "lang": "en",
    "title": {
        "en": "Reminder - Science Ethics Course - November 29",
        "fr": "Rappel - Cours d'\u00e9thique en sciences - Le 29 novembre"
    },
    "modified": "2020-02-10 00:00:00.0",
    "issued": "2016-11-17 00:00:00.0",
    "type_name": "intra-intra/news-nouv",
    "node_id": "1279030006975",
    "layout_name": "1 column",
    "dc_date_created": "2016-11-16",
    "breadcrumb_label": "",
    "meta": {
        "issued": {
            "en": "2016-11-17",
            "fr": "2016-11-17"
        },
        "modified": {
            "en": "2020-02-10",
            "fr": "2020-02-10"
        },
        "format": {
            "en": "gcformat",
            "fr": "gcformat"
        },
        "title": {
            "en": "Reminder - Science Ethics Course - November 29",
            "fr": "Rappel - Cours d'\u00e9thique en sciences - Le 29 novembre"
        },
        "subject": {
            "en": "communications",
            "fr": "communications"
        },
        "description": {
            "en": "The next sessions for the Science Ethics Course will both be held on Tuesday, November 29.",
            "fr": "Les prochaines s\u00e9ances du cours d\u2019\u00e9thique en sciences auront lieu le mardi 29 novembre."
        },
        "language": {
            "en": "eng",
            "fr": "fra"
        },
        "audience": {
            "en": "gcaudience",
            "fr": "gcaudience"
        },
        "creator": {
            "en": "Agriculture and Agri-Food Canada",
            "fr": "Agriculture et Agroalimentaire Canada"
        },
        "spatial": {
            "en": "gcregions",
            "fr": "gcregions"
        },
        "service": {
            "en": "AAFC_AgriSource",
            "fr": "AAC_AgriSource"
        },
        "accessRights": {
            "en": "3",
            "fr": "3"
        }
    },
    "body": {
        "en": "<br>\n<br>\n<p>\n\t<span style=\"line-height: 115%;\"><font color=\"#000000\">With Values and Ethics Awareness Month underway, numerous activities continue throughout November that bolster the \u201cintegrity\u201d theme chosen for this year\u2019s event. Integrity is one of the fundamental values of the Public Service, as outlined in the <a rel=\"external\" href=\"http://www.agr.gc.ca/eng/about-us/values-and-ethics-code-for-agriculture-and-agri-food-canada/?id=1448297869529\">Values and Ethics Code for Agriculture and Agri-Food Canada</a>.<br>\n\t<br>\n\tThe next sessions for the <strong>Science Ethics Course (AGR-850) </strong>will both be held on <strong>Tuesday, November 29</strong>. Developed by the Science Ethics Committee, this course aims to promote a high standard of ethical practice amongst employees conducting and managing science and scientific activities. Come hear about new trends and emerging issues in ethical science-based practices such as fake conferences and plagiarism. For more information, please consult the <a rel=\"external\" href=\"https://collab.agr.gc.ca/gv/sec-ces/SitePages/Home.aspx\">Science Ethics Committee Knowledge Workspace page</a> to access their <a rel=\"external\" href=\"https://collab.agr.gc.ca/gv/sec-ces/Lists/Calendar/calendar.aspx\">calendar of events</a>.<br>\n\t<br>\n\t<strong>Language:</strong> English<br>\n\t<strong>Date:</strong> Tuesday, November 29<br>\n\t<strong>Time:</strong> 10:00 a.m. \u2013 12:00 p.m. (EST)<br>\n\t<strong>Location:</strong> VC 70100163325\u00a0<br>\n\t<br>\n\t<strong>Language:</strong> French<br>\n\t<strong>Date:</strong> Tuesday, November 29<br>\n\t<strong>Time:</strong> 2:00 \u2013 4:00 p.m. (EST)<br>\n\t<strong>Location:</strong> VC 70100163325<br>\n\t<br>\n\tAs a reminder, we continue to promote various products and tools to support employees with ethical decision making, including:</font></span></p>\n<ul>\n<li>\n\t\t<span style=\"line-height: 115%;\"><font color=\"#000000\">a tips sheet on values and ethics entitled \u201c<a href=\"https://intranet.agr.gc.ca/agrisource/AgriDoc.do?id=102090053&amp;lang=eng\" target=\"_blank\">Walking the Talk</a>\u201d;</font></span></li>\n<li>\n\t\t<span style=\"line-height: 115%;\"><font color=\"#000000\">an outline on <a href=\"https://intranet.agr.gc.ca/agrisource/AgriDoc.do?id=102171463&amp;lang=eng\" target=\"_blank\">Post-Employment Obligations</a>;</font></span></li>\n<li>\n\t\t<span style=\"line-height: 115%;\"><font color=\"#000000\">new web pages on AgriSource to focus on the <a href=\"http://intranet.agr.gc.ca/agrisource/eng/the-department/values-and-ethics/acceptance-of-gifts-hospitality-and-other-benefits?id=1477328632493\">Acceptance of Gifts, Hospitality or Other Benefits</a> from third parties, and <a href=\"http://intranet.agr.gc.ca/agrisource/eng/the-department/values-and-ethics/interacting-with-lobbyists?id=1477328516831\">Interacting with Lobbyists</a>; and</font></span></li>\n<li>\n\t\t<span style=\"line-height: 115%;\"><font color=\"#000000\">the recently launched <strong>Values and Ethics online module</strong> as part of the mandatory <a href=\"http://intranet.agr.gc.ca/agrisource/eng/branches-and-offices/corporate-management-branch/services/security-awareness-training?id=1325695839878\">Security Awareness Web-based Training (AGR-620)</a>.</font></span></li>\n</ul>\n<p>\n\t<span style=\"line-height: 115%;\"><font color=\"#000000\">With the support of your management, we encourage you to participate in open or Branch specific Values and Ethics Awareness Month activities. Remember to check the <a href=\"https://intranet.agr.gc.ca/agrisource/AgriDoc.do?id=102712584&amp;lang=eng\" target=\"_blank\">calendar of events</a>periodically for updates.<br>\n\t<br>\n\tFor more information please contact your branch <a href=\"https://intranet.agr.gc.ca/agrisource/AgriDoc.do?id=3719691&amp;lang=eng\" target=\"_blank\">Ethics Advisory Board member</a>or the Values and Ethics Policy Centre by email at <a href=\"mailto:ValuesandEthics-ValeursetEthique@agr.gc.ca\">ValuesandEthics-ValeursetEthique@agr.gc.ca</a> or by phone at 1-866-894-5464 (toll-free).</font></span></p>\n<p>\n\t<span style=\"line-height: 115%;\">\u00a0</span></p>\n<p>\u00a0</p>\n\n\t\t",
        "fr": "<br>\n<br>\n<p>\n\tLe Mois de la sensibilisation aux valeurs et \u00e0 l\u2019\u00e9thique est en cours, et de nombreuses activit\u00e9s sont pr\u00e9vues en novembre pour explorer le th\u00e8me choisi cette ann\u00e9e, \u00e0 savoir l\u2019int\u00e9grit\u00e9. L\u2019int\u00e9grit\u00e9 est une des valeurs fondamentales de la fonction publique, comme l\u2019indique le <a rel=\"external\" href=\"http://www.agr.gc.ca/fra/a-propos-de-nous/code-de-valeurs-et-d-ethique-d-agriculture-et-agroalimentaire-canada/?id=1448297869529\">Code de valeurs et d'\u00e9thique d'Agriculture et Agroalimentaire Canada</a>.<br>\n\t<br>\n\tLes prochaines s\u00e9ances du <strong>cours d\u2019\u00e9thique en sciences (AGR-850)</strong> auront lieu <strong>le mardi\u00a029\u00a0novembre.</strong> Cr\u00e9\u00e9 par le Comit\u00e9 sur l\u2019\u00e9thique en sciences, ce cours vise \u00e0 promouvoir des normes rigoureuses de comportement conforme \u00e0 l'\u00e9thique aupr\u00e8s des employ\u00e9s qui m\u00e8nent et g\u00e8rent des activit\u00e9s scientifiques. Venez-vous renseigner sur les nouvelles tendances et les probl\u00e8mes \u00e9mergents li\u00e9s aux pratiques scientifiques \u00e9thiques, comme les fausses conf\u00e9rences et le plagiat. Pour obtenir de plus amples renseignements, allez \u00e0 la <a rel=\"external\" href=\"https://collab.agr.gc.ca/gv/sec-ces/SitePages/Home.aspx\">page du Comit\u00e9 sur l\u2019\u00e9thique en sciences</a>\u00a0dans l'Espace de travaiol de savoir\u00a0\u00a0pour consulter le <a href=\"https://intranet.agr.gc.ca/agrisource/AgriDoc.do?id=102721287&amp;lang=fra\" target=\"_blank\">calendrier des activit\u00e9s</a>.<br>\n\t<br>\n\t<strong>Langue\u00a0:</strong> Anglais<br>\n\t<strong>Date\u00a0:</strong> Mardi\u00a029\u00a0novembre<br>\n\t<strong>Heure\u00a0:</strong> 10\u00a0h \u2013 12\u00a0h (HNE)<br>\n\t<strong>Lieu\u00a0:</strong> VC\u00a070100163325\u00a0<br>\n\t<br>\n\t<strong>Langue\u00a0:</strong> Fran\u00e7ais<br>\n\t<strong>Date\u00a0:</strong> Mardi\u00a029\u00a0novembre<br>\n\t<strong>Heure\u00a0:</strong> 14\u00a0h \u2013 16\u00a0h (HNE)<br>\n\t<strong>Lieu\u00a0:</strong> VC\u00a070100163325<br>\n\t<br>\n\tNous continuons aussi de faire la promotion de divers produits et outils qui aident les employ\u00e9s \u00e0 prendre des d\u00e9cisions fond\u00e9es sur l\u2019\u00e9thique, notamment\u00a0:</p>\n<ul>\n<li>\n\t\tune feuille de conseils sur les valeurs et l\u2019\u00e9thique intitul\u00e9e \u00ab\u00a0<a href=\"https://intranet.agr.gc.ca/agrisource/AgriDoc.do?id=102450654&amp;lang=fra\" target=\"_blank\">Pr\u00eacher par l\u2019exemple</a> \u00bb;</li>\n<li>\n\t\tun aper\u00e7u des <a href=\"https://intranet.agr.gc.ca/agrisource/AgriDoc.do?id=102200937&amp;lang=fra\" target=\"_blank\">Obligations relatives \u00e0 l\u2019apr\u00e8s mandat</a>;</li>\n<li>\n\t\tde nouvelles pages dans AgriSource portant sur <a href=\"http://intranet.agr.gc.ca/agrisource/fra/le-ministere/valeurs-et-ethique/acceptation-de-cadeaux-de-marques-dhospitalite-et-dautres-avantages?id=1477328632493\">l\u2019Acceptation de cadeaux, de marques d'hospitalit\u00e9 et d'autres avantages</a> provenant de tierces parties et <a href=\"http://intranet.agr.gc.ca/agrisource/fra/le-ministere/valeurs-et-ethique/interaction-avec-les-lobbyistes?id=1477328516831\">les interactions avec les lobbyistes</a>; et</li>\n<li>\n\t\tle nouveau <strong>module en ligne sur les valeurs et l\u2019\u00e9thique</strong> pour la <a href=\"http://intranet.agr.gc.ca/agrisource/fra/directions-generales-et-bureaux/direction-generale-de-la-gestion-integree/services/formation-sur-la-sensibilisation-a-la-securite?id=1325695839878\">Formation en ligne sur la sensibilisation \u00e0 la s\u00e9curit\u00e9 (AGR-620)</a> obligatoire.</li>\n</ul>\n<p>\n\tAvec l\u2019appui de votre \u00e9quipe de direction, nous vous encourageons \u00e0 participer aux activit\u00e9s ouvertes \u00e0 tous ou aux activit\u00e9s de votre direction g\u00e9n\u00e9rale ax\u00e9es sur le Mois de la sensibilisation aux valeurs et \u00e0 l\u2019\u00e9thique. N\u2019oubliez pas de consulter r\u00e9guli\u00e8rement le <a href=\"https://intranet.agr.gc.ca/agrisource/AgriDoc.do?id=102721287&amp;lang=fra\" target=\"_blank\">calendrier des activit\u00e9s</a>.<br>\n\t<br>\n\tPour de plus amples renseignements, veuillez communiquer avec le membre du <a href=\"https://intranet.agr.gc.ca/agrisource/AgriDoc.do?id=3719694&amp;lang=fra\" target=\"_blank\">Conseil consultatif en mati\u00e8re d\u2019\u00e9thiques</a> repr\u00e9sentant votre direction g\u00e9n\u00e9rale ou avec le Centre de la politique sur les valeurs et l\u2019\u00e9thique, par courriel \u00e0 <a href=\"mailto:ValuesandEthics-ValeursetEthique@agr.gc.ca\">ValuesandEthics-ValeursetEthique@agr.gc.ca</a> ou par t\u00e9l\u00e9phone au 1-866-894-5464 (sans frais).</p>\n\t\t"
    },
    "breadcrumb": {
        "en": "Reminder - Science Ethics Course - November 29",
        "fr": "Rappel - Cours d'\u00e9thique en sciences - Le 29 novembre"
    },
    "news": {
        "date_posted": {
            "en": "2016-11-17",
            "fr": "2016-11-17"
        },
        "to": {
            "en": "All staff",
            "fr": "Tous les employ\u00e9s"
        },
        "by": {
            "en": "Human Resources, Corporate Management Branch and Science and Technology Branch",
            "fr": "Ressources humaines, Direction g\u00e9n\u00e9rale de la gestion int\u00e9gr\u00e9e et Direction g\u00e9n\u00e9rale des sciences et de la technologie"
        }
    }
}