{
    "dcr_id": "1515521906872",
    "lang": "en",
    "title": {
        "en": "This Week in The Harvest - Take Our Kids to Work Day - Charlottetown 2017 Edition",
        "fr": "Au menu de La Moisson cette semaine - Journ\u00e9e \u00ab Invitons nos jeunes au travail \u00bb de 2017 - Charlottetown"
    },
    "modified": "2018-01-11 00:00:00.0",
    "issued": "2018-01-11 00:00:00.0",
    "type_name": "intra-intra/news-nouv",
    "node_id": "1279030006975",
    "layout_name": null,
    "dc_date_created": "2018-01-09",
    "breadcrumb_label": "",
    "meta": {
        "issued": {
            "en": "2018-01-11",
            "fr": "2018-01-11"
        },
        "modified": {
            "en": "2018-01-11",
            "fr": "2018-01-11"
        },
        "format": {
            "en": "gcformat",
            "fr": "gcformat"
        },
        "title": {
            "en": "This Week in The Harvest - Take Our Kids to Work Day - Charlottetown 2017 Edition",
            "fr": "Au menu de La Moisson cette semaine - Journ\u00e9e \u00ab Invitons nos jeunes au travail \u00bb de 2017 - Charlottetown"
        },
        "subject": {
            "en": "communications",
            "fr": "communications"
        },
        "description": {
            "en": "In case you missed it, here's what's new in The Harvest this week.",
            "fr": "Au cas o\u00f9 vous l'auriez manqu\u00e9, voici le menu que la section La Moisson vous offre cette semaine."
        },
        "language": {
            "en": "eng",
            "fr": "fra"
        },
        "audience": {
            "en": "gcaudience",
            "fr": "gcaudience"
        },
        "creator": {
            "en": "Agriculture and Agri-Food Canada",
            "fr": "Agriculture et Agroalimentaire Canada"
        },
        "spatial": {
            "en": "gcregions",
            "fr": "gcregions"
        },
        "service": {
            "en": "AAFC_AgriSource",
            "fr": "AAC_AgriSource"
        },
        "accessRights": {
            "en": "3",
            "fr": "3"
        }
    },
    "body": {
        "en": "<br>\n<br>\n<p>In case you missed it, here\u2019s what\u2019s new in <a href=\"https://collab.agr.gc.ca/apps/harvest-moisson\">The Harvest</a> this week:</p>\n<p><strong>Feature story: </strong><a href=\"https://collab.agr.gc.ca/apps/harvest-moisson\">Take Our Kids to Work Day \u2013 Charlottetown 2017 Edition</a> \u2013 What is it like to spend part of your school day at your parents\u2019 workplace? \u201cPretty cool,\u201d was the reply from four grade 9 students taking part in Take Our Kids to Work Day at the Charlottetown Research and Development Centre (RDC) on November 1, 2017.</p>\n<p><strong>Poll: </strong><a href=\"https://collab.agr.gc.ca/apps/harvest-moisson\">Did you make a New Year\u2019s Resolution related to your work this year?</a><strong> </strong></p>\n<p><strong>Feature photo:</strong> <a href=\"https://collab.agr.gc.ca/apps/harvest-moisson/gallery/Lists/Posts/Post.aspx?ID=129\">Snowy Okanagan Mountains</a>, By Sudarsana Poojari, Science and Technology Branch, Summerland, British Columbia.</p>\n<p><strong>Did you know?</strong> Over 70% of the world's <a href=\"https://collab.agr.gc.ca/apps/harvest-moisson/Pages/didyouknow.aspx\">oat exports</a> are from Canada.</p>\n<p>You can get involved by posting a comment or \u201cliking\u201d an article. You can also check out what your colleagues are liking and saying.</p>\n<p>Should you have story ideas, scenic or artistic agriculture-related photos, or interesting facts, please share them with us by clicking on \u201cContribute\u201d in the top menu bar.</p>\n<p><img src=\"https://intranet.agr.gc.ca/resources/prod/news/images/HarvestTakeKidstoWork.png\" class=\"center-block\" alt=\"The Harvest - Take Our Kids to Work Day\"></p>\n\n\t\t",
        "fr": "<br>\n<br>\n<p>Au cas o\u00f9 vous l\u2019auriez manqu\u00e9, voici le menu que la section <a href=\"https://collab.agr.gc.ca/apps/harvest-moisson\">La Moisson</a> vous offre cette semaine :</p>\n<p><strong>Article vedette :</strong> <a href=\"https://collab.agr.gc.ca/apps/harvest-moisson\">Journ\u00e9e \u00ab Invitons nos jeunes au travail \u00bb de 2017 \u2013 Charlottetown</a> \u2013 Comment c\u2019est, passer une partie de votre journ\u00e9e scolaire au milieu de travail d\u2019un parent? \u00ab Tr\u00e8s cool \u00bb \u00e9tait la r\u00e9ponse des \u00e9l\u00e8ves de la 9e ann\u00e9e qui ont particip\u00e9 \u00e0 la journ\u00e9e \u00ab Invitons nos jeunes au travail \u00bb au Centre de recherche et de d\u00e9veloppement (CRD) de Charlottetown, le 1er novembre 2017.<strong> </strong></p>\n<p><strong>Sondage : </strong><a href=\"https://collab.agr.gc.ca/apps/harvest-moisson\">Avez-vous pris une r\u00e9solution li\u00e9e \u00e0 votre travail pour la nouvelle ann\u00e9e?</a></p>\n<p><strong>Photo vedette :</strong> <a href=\"https://collab.agr.gc.ca/apps/harvest-moisson/gallery/Lists/Posts/Post.aspx?ID=129\">Montagnes enneig\u00e9es de l\u2019Okanagan</a>, Par Sudarsana Poojari, Direction g\u00e9n\u00e9rale des sciences et des technologies, Summerland (Colombie-Britannique).</p>\n<p><strong>Le saviez-vous?</strong> Plus de 70 % de <a href=\"https://collab.agr.gc.ca/apps/harvest-moisson/Pages/didyouknow.aspx\">l'avoine export\u00e9e</a> dans le monde provient du Canada.</p>\n<p>Vous pouvez participer en affichant des commentaires ou en utilisant la fonction \u00ab J\u2019aime \u00bb ou \u00ab Partager \u00bb pour exprimer votre appr\u00e9ciation d\u2019un article. Vous pouvez aussi aller voir ce que vos coll\u00e8gues aiment et ont \u00e0 dire.</p>\n<p>Si vous avez des id\u00e9es d\u2019articles, des photos de paysages ou \u00e0 caract\u00e8re artistique li\u00e9es \u00e0 l\u2019agriculture ou encore des faits int\u00e9ressants, veuillez nous en faire part en cliquant sur \u00ab Collaborer \u00bb dans la barre de menu en haut de la page.</p>\n<p><img src=\"https://intranet.agr.gc.ca/resources/prod/news/images/HarvestTakeKidstoWork.png\" class=\"center-block\" alt=\"La Moisson - Journ\u00e9e \u00ab Invitons nos jeunes au travail \u00bb\"></p>\n\t\t"
    },
    "breadcrumb": {
        "en": "This Week in The Harvest - Take Our Kids to Work Day - Charlottetown 2017 Edition",
        "fr": "Au menu de La Moisson cette semaine - Journ\u00e9e \u00ab Invitons nos jeunes au travail \u00bb de 2017 - Charlottetown"
    },
    "news": {
        "date_posted": {
            "en": "2018-01-11",
            "fr": "2018-01-11"
        },
        "to": {
            "en": "All staff",
            "fr": "Tous les employ\u00e9s"
        },
        "by": {
            "en": "Corporate Communications, Public Affairs Branch",
            "fr": "Communications minist\u00e9rielles, Direction g\u00e9n\u00e9rale des affaires publiques"
        }
    }
}