{
    "dcr_id": "1515506841473",
    "lang": "en",
    "title": {
        "en": "Student Orientation Session - January 15",
        "fr": "S\u00e9ance d\u2019orientation pour les \u00e9tudiants - Le 15 janvier"
    },
    "modified": "2018-01-11 00:00:00.0",
    "issued": "2018-01-11 00:00:00.0",
    "type_name": "intra-intra/news-nouv",
    "node_id": "1279030006975",
    "layout_name": null,
    "dc_date_created": "2018-01-09",
    "breadcrumb_label": "",
    "meta": {
        "issued": {
            "en": "2018-01-11",
            "fr": "2018-01-11"
        },
        "modified": {
            "en": "2018-01-11",
            "fr": "2018-01-11"
        },
        "format": {
            "en": "gcformat",
            "fr": "gcformat"
        },
        "title": {
            "en": "Student Orientation Session - January 15",
            "fr": "S\u00e9ance d\u2019orientation pour les \u00e9tudiants - Le 15 janvier"
        },
        "subject": {
            "en": "communications",
            "fr": "communications"
        },
        "description": {
            "en": "The Student Panel of Representatives for Orientation, Unity, and Training, in partnership with the Young Professionals Network, is planning an orientation session for AAFC students across the country.",
            "fr": "Le Programme de l'orientation, de l'unit\u00e9 et de la sensibilisation des stagiaires et \u00e9tudiants, en collaboration avec le R\u00e9seau des jeunes professionnels, organise une s\u00e9ance d'orientation pour les \u00e9tudiants d'AAC partout au pays."
        },
        "language": {
            "en": "eng",
            "fr": "fra"
        },
        "audience": {
            "en": "gcaudience",
            "fr": "gcaudience"
        },
        "creator": {
            "en": "Agriculture and Agri-Food Canada",
            "fr": "Agriculture et Agroalimentaire Canada"
        },
        "spatial": {
            "en": "gcregions",
            "fr": "gcregions"
        },
        "service": {
            "en": "AAFC_AgriSource",
            "fr": "AAC_AgriSource"
        },
        "accessRights": {
            "en": "3",
            "fr": "3"
        }
    },
    "body": {
        "en": "<br>\n<br>\n<p>The Student Panel of Representatives for Orientation, Unity, and Training (<abbr title=\"Student Panel of Representatives for Orientation, Unity, and Training\">SPROUT</abbr>), in partnership with the Young Professionals Network (<abbr title=\"Young Professionals Network\">YPN</abbr>), is planning an orientation session for AAFC students across the country. Students will be provided with the opportunity to hear from the Young Professionals Network Champion, Michel Lessard as well as former students to learn useful tips for a successful term!</p>\n<h2><strong>Event information</strong></h2>\n<p><strong>Date and Time: </strong>Monday, January 15 |<strong> </strong>11:00 a.m. to 1:00 p.m. (ET)<br>\n<strong>Location: </strong>Ottawa: NHCAP T3-1-351; Winnipeg: 167 Lombard (167L-10-A)</p>\n<p>Available across Canada by videoconference.<br><strong>Videoconference:</strong> 610789947</p>\n<p>Registration is not required. If you have questions, you can contact <abbr title=\"Student Panel of Representatives for Orientation, Unity, and Training\">SPROUT</abbr> at <a href=\"mailto:aafc.sprout-pousse.aac@agr.gc.ca\">aafc.sprout-pousse.aac@agr.gc.ca</a>.</p>\n<p>For those outside of the National Capital Region, we're asking that hiring managers book a room with videoconference so their students can participate.</p>\n<p>An agenda for the orientation session can be found on the <a href=\"https://collab.agr.gc.ca/co/se-ee/SitePages/Home.aspx\">SPROUT Knowledge Workspace site</a>.</p>\n<p>We encourage students old and new to participate in this orientation session!</p>\n<p><img src=\"https://intranet.agr.gc.ca/resources/prod/news/images/YPN-SPROUT-EN.png\" class=\"center-block\" alt=\"SPROUT/YPN\"></p>\n\n\t\t",
        "fr": "<br>\n<br>\n<p>Le Programme de l\u2019orientation, de l\u2019unit\u00e9 et de la sensibilisation des stagiaires et \u00e9tudiants (<abbr title=\"Programme de l\u2019orientation, de l\u2019unit\u00e9 et de la sensibilisation des stagiaires et \u00e9tudiants\">POUSSE</abbr>), en collaboration avec le R\u00e9seau des jeunes professionnels (<abbr title=\"R\u00e9seau des jeunes professionnels \">RJP</abbr>), organise une s\u00e9ance d\u2019orientation pour les \u00e9tudiants d\u2019AAC partout au pays. \u00c0 cette occasion, les \u00e9tudiants entendront le champion du R\u00e9seau des jeunes professionnels, Michel Lessard, et d\u2019anciens \u00e9tudiants et obtiendront des conseils utiles pour faire de leur stage une exp\u00e9rience fructueuse.</p>\n<h2><strong>Renseignements sur l\u2019\u00e9v\u00e9nement</strong></h2>\n<p><strong>Date et heure : </strong>Le lundi 15 janvier | de 11 h \u00e0 13 h (HE)<br>\n<strong>Lieu : </strong>Ottawa : CACPA T3-1-351; Winnipeg : 167 Lombard (167L-10-A)</p>\n<p>Offert partout au Canada par vid\u00e9oconf\u00e9rence.<br><strong>Vid\u00e9oconf\u00e9rence :</strong> 610789947</p>\n<p>Il n\u2019est pas n\u00e9cessaire de s\u2019inscrire. Si vous avez des questions, vous pouvez contacter\u00a0<abbr title=\"Programme de l\u2019orientation, de l\u2019unit\u00e9 et de la sensibilisation des stagiaires et \u00e9tudiants\">POUSSE</abbr> \u00e0 <a href=\"mailto:aafc.sprout-pousse.aac@agr.gc.ca\">aafc.sprout-pousse.aac@agr.gc.ca</a>.</p>\n<p>\u00c0 l\u2019ext\u00e9rieur de la r\u00e9gion de la capitale nationale, nous demandons aux gestionnaires recruteurs de r\u00e9server une salle de vid\u00e9oconf\u00e9rence pour permettre \u00e0 leurs \u00e9tudiants de participer \u00e0 la s\u00e9ance.</p>\n<p>Vous trouverez le programme de la s\u00e9ance d\u2019orientation dans <a href=\"https://collab.agr.gc.ca/co/se-ee/SitePages/Home.aspx\">l\u2019Espace de travail du savoir pour POUSSE</a>.</p>\n<p>Nous encourageons tous les \u00e9tudiants \u2013 ceux qui font un premier stage \u00e0 AAC et ceux qui y reviennent \u2013 \u00e0 participer \u00e0 la s\u00e9ance d\u2019orientation!</p>\n<p><img src=\"https://intranet.agr.gc.ca/resources/prod/news/images/YPN-SPROUT-FR.png\" class=\"center-block\" alt=\"SPROUT/YPN\"></p>\n\t\t"
    },
    "breadcrumb": {
        "en": "Student Orientation Session - January 15",
        "fr": "S\u00e9ance d\u2019orientation pour les \u00e9tudiants - Le 15 janvier"
    },
    "news": {
        "date_posted": {
            "en": "2018-01-11",
            "fr": "2018-01-11"
        },
        "to": {
            "en": "All staff",
            "fr": "Tous les employ\u00e9s"
        },
        "by": {
            "en": "SPROUT - The Student Panel of Representatives for Orientation, Unity, and Training",
            "fr": "POUSSE - Le Programme de l'orientation, de l'unit\u00e9 et de la sensibilisation des stagiaires et \u00e9tudiants"
        }
    }
}