{
    "dcr_id": "1515596622149",
    "lang": "en",
    "title": {
        "en": "Phoenix Overpayments",
        "fr": "Trop-pay\u00e9s de Ph\u00e9nix"
    },
    "modified": "2018-01-11 00:00:00.0",
    "issued": "2018-01-10 00:00:00.0",
    "type_name": "intra-intra/news-nouv",
    "node_id": "1279030006975",
    "layout_name": null,
    "dc_date_created": "2018-01-10",
    "breadcrumb_label": "",
    "meta": {
        "issued": {
            "en": "2018-01-10",
            "fr": "2018-01-10"
        },
        "modified": {
            "en": "2018-01-11",
            "fr": "2018-01-11"
        },
        "format": {
            "en": "gcformat",
            "fr": "gcformat"
        },
        "title": {
            "en": "Phoenix Overpayments",
            "fr": "Trop-pay\u00e9s de Ph\u00e9nix"
        },
        "subject": {
            "en": "communications",
            "fr": "communications"
        },
        "description": {
            "en": "A number of AAFC employees have been overpaid as a result of ongoing challenges with the pay system. I recognize that this is stressful, and I want to assure you that we are doing everything possible to ensure that no employee will be out-of-pocket.",
            "fr": "Un certain nombre d'employ\u00e9s d'AAC ont re\u00e7u des paiements de salaire en trop dans la foul\u00e9e des difficult\u00e9s li\u00e9es au syst\u00e8me de paye Ph\u00e9nix. Je sais que cette situation peut causer du stress, et je vous assure que nous faisons tout notre possible pour que personne n'ait \u00e0 subir de perte financi\u00e8re."
        },
        "language": {
            "en": "eng",
            "fr": "fra"
        },
        "audience": {
            "en": "gcaudience",
            "fr": "gcaudience"
        },
        "creator": {
            "en": "Agriculture and Agri-Food Canada",
            "fr": "Agriculture et Agroalimentaire Canada"
        },
        "spatial": {
            "en": "gcregions",
            "fr": "gcregions"
        },
        "service": {
            "en": "AAFC_AgriSource",
            "fr": "AAC_AgriSource"
        },
        "accessRights": {
            "en": "3",
            "fr": "3"
        }
    },
    "body": {
        "en": "<br>\n<br>\n<p>A number of AAFC employees have been overpaid as a result of ongoing challenges with the pay system. I recognize that this is stressful, and I want to assure you that we are doing everything possible to ensure that no employee will be out-of-pocket.</p>\n<p>If you were overpaid in 2017, it is essential that you\u00a0inform the Contact Centre of your overpayment (by calling\u00a01-855-686-4729 or by submitting a <a href=\"https://www.tpsgc-pwgsc.gc.ca/remuneration-compensation/services-paye-pay-services/systeme-paye-employes-pay-system-employees/retroaction-phenix-phoenix-feedback-eng.html\">Phoenix Feedback Form</a>) by January 19, 2018. You must do this even if you have previously identified that you have an overpayment to your manager or the AAFC Pay Liaison Team. By doing this, it will ensure that you will receive a correct T4 or R1 to submit your 2017 income tax return. Registering before January 19, 2018, will ensure that every effort is made that you will only have to repay the net overpayment rather than the gross which includes any deductions that were withheld (i.e. income tax, CPP and EI).</p>\n<p>Employees are reminded that the deadline for filing 2017 income tax return is April 30, 2018.</p>\n<p>Further, if you were overpaid in 2016, once your Phoenix file is brought up to date, your 2016 T4 or R1 will automatically be amended and sent to the tax authorities for reassessment. They will then credit your tax account for the deductions that had been withheld as a result of your 2016 overpayment. It is important for employees to ensure that any suspected 2016 overpayment is registered in Phoenix as this will enable it to be tracked and resolved.</p>\n<p>You will be contacted in writing by the Pay Centre regarding flexible options for repaying your overpayment. It is important to note that you will not be required to repay any amount until at least July 2018, by which time the tax authorities will have credited your tax account for the deductions that had been withheld as a result of your overpayment.</p>\n<p>Your manager can also help point you to the services and support tools that are available, including flexible repayment options, dedicated support from <a href=\"http://www.canada.ca/en/revenue-agency/campaigns/about-canada-revenue-agency-cra/frequently-asked-questions-tax-implications-phoenix-payroll-issues.html\">Canada Revenue Agency</a> for public servants with tax-related questions, and the <a href=\"https://www.canada.ca/en/treasury-board-secretariat/services/pay/submit-claim-pocket-expenses-phoenix.html\">Treasury Board of Canada Secretariat Claims Office</a>\u00a0to deal with out-of-pocket expenses such as up to $200.00 for tax preparation advice.</p>\n<p>I also ask that you continue to identify and track your pay issues with your manager and the AAFC Pay Liaison Team (<a href=\"mailto:paytransfer-transfertpaye@agr.gc.ca\">paytransfer-transfertpaye@agr.gc.ca</a>) as we work together to resolve pay issues and stabilize the pay system. Visit AgriSource for all information related to the <a href=\"http://intranet.agr.gc.ca/agrisource/eng?id=1511367056518\">Phoenix Pay System</a>.</p>\n<p><img src=\"https://intranet.agr.gc.ca/resources/prod/news/images/pheonix1-eng.png\" class=\"center-block\" alt=\"Phoenix banner\"></p>\n\n\t\t",
        "fr": "<br>\n<br>\n<p>Un certain nombre d'employ\u00e9s d'AAC ont re\u00e7u des paiements de salaire en trop dans la foul\u00e9e des difficult\u00e9s li\u00e9es au syst\u00e8me de paye Ph\u00e9nix. Je sais que cette situation peut causer du stress, et je vous assure que nous faisons tout notre possible pour que personne n'ait \u00e0 subir de perte financi\u00e8re.</p>\n<p>Si vous avez re\u00e7u un paiement de salaire en trop en 2017, vous devez en informer le Centre de contact (en appelant au 1-855-686-4729 ou en soumettant un <a href=\"https://www.tpsgc-pwgsc.gc.ca/remuneration-compensation/services-paye-pay-services/systeme-paye-employes-pay-system-employees/retroaction-phenix-phoenix-feedback-fra.html\">formulaire de r\u00e9troaction de Ph\u00e9nix</a>) d'ici le 19 janvier 2018. Vous devez le faire m\u00eame si vous en avez d\u00e9j\u00e0 inform\u00e9 votre gestionnaire ou l'\u00e9quipe de liaison du service de la paye d'AAC. Vous vous assurerez ainsi de recevoir le bon feuillet T4 ou Relev\u00e9 1 pour pr\u00e9senter votre d\u00e9claration de revenus de 2017. L'enregistrement de votre trop-pay\u00e9 avant le 19 janvier 2018 assurera que tous les efforts sont d\u00e9ploy\u00e9s pour que vous n'ayez \u00e0 rembourser que le trop-pay\u00e9 net plut\u00f4t que le trop-pay\u00e9 brut qui comprend les retenues pr\u00e9lev\u00e9es (c.-\u00e0-d. imp\u00f4t sur le revenu, RPC et AE).</p>\n<p>Nous rappelons aux employ\u00e9s qu'il est important de produire leur d\u00e9claration de revenus de 2017 avant la date limite du 30 avril 2018.</p>\n<p>En plus, si vous avez re\u00e7u un paiement de salaire en trop en 2016, une fois la mise \u00e0 jour de votre dossier dans Ph\u00e9nix, votre feuillet T4 ou Relev\u00e9 1 de 2016 sera automatiquement modifi\u00e9 et envoy\u00e9 aux autorit\u00e9s fiscales aux fins de r\u00e9\u00e9valuation. Elles porteront ensuite au cr\u00e9dit de votre compte d'imp\u00f4t les retenues qui ont \u00e9t\u00e9 pr\u00e9lev\u00e9es en raison de votre trop-pay\u00e9 de 2016. Les employ\u00e9s doivent imp\u00e9rativement faire enregistrer dans Ph\u00e9nix tout paiement en trop pr\u00e9sum\u00e9 en 2016 afin qu'il soit trait\u00e9 et r\u00e9gl\u00e9.</p>\n<p>Le Centre des services de paye communiquera avec vous par \u00e9crit afin d'\u00e9tablir un plan de remboursement souple de votre trop-pay\u00e9. Il convient de noter que vous n'aurez pas \u00e0 effectuer de remboursement d'ici juillet 2018 au moins. D'ici l\u00e0, les autorit\u00e9s fiscales auront port\u00e9 au cr\u00e9dit de votre compte d'imp\u00f4t les retenues qui avaient \u00e9t\u00e9 pr\u00e9lev\u00e9es en raison de votre trop-pay\u00e9.</p>\n<p>Votre gestionnaire peut aussi vous indiquer les services et outils de soutien offerts, notamment des options de remboursement plus souples, l'aide offerte par l'<a href=\"http://www.canada.ca/fr/agence-revenu/campagnes/a-propos-agence-revenu-canada-arc/foire-questions-repercussions-fiscales-liees-problemes-systeme-paye-phenix.html\">Agence du revenu du Canada</a> aux fonctionnaires ayant des questions de nature fiscale et l'aide offerte par le <a href=\"https://www.canada.ca/fr/secretariat-conseil-tresor/services/remuneration/presenter-demande-depenses-personnelles-phenix.html\">Bureau des r\u00e9clamations du Secr\u00e9tariat du Conseil du Tr\u00e9sor</a> pour traiter les d\u00e9penses remboursables comme les frais maximum de 200 dollars pour l'obtention de conseils sur la pr\u00e9paration de votre d\u00e9claration de revenus.</p>\n<p>Je vous prie aussi de continuer \u00e0 relever vos probl\u00e8mes de paye et \u00e0 en assurer le suivi aupr\u00e8s de votre gestionnaire et de l'\u00e9quipe de liaison du service de la paye d'AAC (<a href=\"mailto:paytransfer-transfertpaye@agr.gc.ca\">paytransfer-transfertpaye@agr.gc.ca</a>) alors que nous collaborons pour r\u00e9soudre les probl\u00e8mes de paye et stabiliser le syst\u00e8me de paye. Consultez AgriSoure pour toute l'information li\u00e9e au <a href=\"http://intranet.agr.gc.ca/agrisource/fra?id=1511367056518\">Syst\u00e8me de paye de Ph\u00e9nix</a>.</p>\n<p><img src=\"https://intranet.agr.gc.ca/resources/prod/news/images/pheonix1-fra.png\" class=\"center-block\" alt=\"Ph\u00e9nix - Banni\u00e8re\"></p>\n\t\t"
    },
    "breadcrumb": {
        "en": "Phoenix Overpayments",
        "fr": "Trop-pay\u00e9s de Ph\u00e9nix"
    },
    "news": {
        "date_posted": {
            "en": "2018-01-10",
            "fr": "2018-01-10"
        },
        "to": {
            "en": "All staff",
            "fr": "Tous les employ\u00e9s"
        },
        "by": {
            "en": "Pierre Corriveau, Assistant Deputy Minister, Corporate Management Branch",
            "fr": "Pierre Corriveau, Sous-ministre adjoint, Direction g\u00e9n\u00e9rale de la gestion int\u00e9gr\u00e9e"
        }
    }
}