{
    "dcr_id": "1516118139101",
    "lang": "en",
    "title": {
        "en": "This Week in The Harvest - Winds of Charitability",
        "fr": "Au menu de La Moisson cette semaine - Un vent de g\u00e9n\u00e9rosit\u00e9"
    },
    "modified": "2018-01-18 00:00:00.0",
    "issued": "2018-01-18 00:00:00.0",
    "type_name": "intra-intra/news-nouv",
    "node_id": "1279030006975",
    "layout_name": null,
    "dc_date_created": "2018-01-16",
    "breadcrumb_label": "",
    "meta": {
        "issued": {
            "en": "2018-01-18",
            "fr": "2018-01-18"
        },
        "modified": {
            "en": "2018-01-18",
            "fr": "2018-01-18"
        },
        "format": {
            "en": "gcformat",
            "fr": "gcformat"
        },
        "title": {
            "en": "This Week in The Harvest - Winds of Charitability",
            "fr": "Au menu de La Moisson cette semaine - Un vent de g\u00e9n\u00e9rosit\u00e9"
        },
        "subject": {
            "en": "communications",
            "fr": "communications"
        },
        "description": {
            "en": "In case you missed it, here's what's new in The Harvest this week.",
            "fr": "Au cas o\u00f9 vous l'auriez manqu\u00e9, voici le menu que la section La Moisson vous offre cette semaine."
        },
        "language": {
            "en": "eng",
            "fr": "fra"
        },
        "audience": {
            "en": "gcaudience",
            "fr": "gcaudience"
        },
        "creator": {
            "en": "Agriculture and Agri-Food Canada",
            "fr": "Agriculture et Agroalimentaire Canada"
        },
        "spatial": {
            "en": "gcregions",
            "fr": "gcregions"
        },
        "service": {
            "en": "AAFC_AgriSource",
            "fr": "AAC_AgriSource"
        },
        "accessRights": {
            "en": "3",
            "fr": "3"
        }
    },
    "body": {
        "en": "<br>\n<br>\n<p>In case you missed it, here\u2019s what\u2019s new in <a href=\"https://collab.agr.gc.ca/apps/harvest-moisson\">The Harvest</a> this week:</p>\n<p><strong>Feature story: </strong><a href=\"https://collab.agr.gc.ca/apps/harvest-moisson\">Winds of Charitability</a> \u2013 In the dark of night on the 18<sup>th</sup> of September, 2017, the tiny Caribbean island of Dominica suffered a direct hit from Hurricane Maria, a category 5 storm. It\u2019s estimated that 90 percent of the buildings on this island of just under 75,000 people were severely damaged or destroyed. </p>\n<p><strong>Poll: </strong><a href=\"https://collab.agr.gc.ca/apps/harvest-moisson\">Did you make a New Year\u2019s Resolution related to your work this year?</a><strong> </strong></p>\n<p><strong>Feature photo:</strong> <a href=\"https://collab.agr.gc.ca/apps/harvest-moisson/gallery/Lists/Posts/Post.aspx?ID=135\">Winter Scene</a>, By Carolyn Amundsen, Science and Technology Branch, Lethbridge, Alberta.</p>\n<p><strong>Did you know?</strong> Canadian households spent an average of $293 on <a href=\"https://collab.agr.gc.ca/apps/harvest-moisson/Pages/didyouknow.aspx\">cheese</a> in 2016.</p>\n<p>You can get involved by posting a comment or \u201cliking\u201d an article. You can also check out what your colleagues are liking and saying.</p>\n<p>Should you have story ideas, scenic or artistic agriculture-related photos, or interesting facts, please share them with us by clicking on \u201cContribute\u201d in the top menu bar.</p>\n<p>\n<img src=\"https://intranet.agr.gc.ca/resources/prod/news/images/Dr-MervinSt-LuceFamily.png\" class=\"center-block\" alt=\"Dr. Mervin St. Luce and his family.\"></p>\n\n\t\t",
        "fr": "<br>\n<br>\n<p>Au cas o\u00f9 vous l\u2019auriez manqu\u00e9, voici le menu que la section <a href=\"https://collab.agr.gc.ca/apps/harvest-moisson\">La Moisson</a> vous offre cette semaine :</p>\n<p><strong>Article vedette :</strong> <a href=\"https://collab.agr.gc.ca/apps/harvest-moisson\">Un vent de g\u00e9n\u00e9rosit\u00e9</a> \u2013 Au cours de la nuit du 18 septembre 2017, la petite \u00eele de la Dominique dans les Antilles a \u00e9t\u00e9 frapp\u00e9e directement par l\u2019ouragan Maria, une temp\u00eate de cat\u00e9gorie 5. On estime que 90 pour cent des immeubles de cette \u00eele comptant un peu moins de 75 000 habitants ont \u00e9t\u00e9 endommag\u00e9s gravement ou d\u00e9truits. </p>\n<p><strong>Sondage : </strong><a href=\"https://collab.agr.gc.ca/apps/harvest-moisson\">Avez-vous pris une r\u00e9solution li\u00e9e \u00e0 votre travail pour la nouvelle ann\u00e9e?</a></p>\n<p><strong>Photo vedette :</strong> <a href=\"https://collab.agr.gc.ca/apps/harvest-moisson/gallery/Lists/Posts/Post.aspx?ID=135\">Paysage d\u2019hiver</a>, Carolyn Amundsen, Direction g\u00e9n\u00e9rale des sciences et de la technologie, Lethbridge (Alberta).</p>\n<p><strong>Le saviez-vous?</strong> Les m\u00e9nages canadiens ont d\u00e9pens\u00e9 en moyenne 293 $ en <a href=\"https://collab.agr.gc.ca/apps/harvest-moisson/Pages/didyouknow.aspx\">fromage</a> en 2016.</p>\n<p>Vous pouvez participer en affichant des commentaires ou en utilisant la fonction \u00ab J\u2019aime \u00bb ou \u00ab Partager \u00bb pour exprimer votre appr\u00e9ciation d\u2019un article. Vous pouvez aussi aller voir ce que vos coll\u00e8gues aiment et ont \u00e0 dire.</p>\n<p>Si vous avez des id\u00e9es d\u2019articles, des photos de paysages ou \u00e0 caract\u00e8re artistique li\u00e9es \u00e0 l\u2019agriculture ou encore des faits int\u00e9ressants, veuillez nous en faire part en cliquant sur \u00ab Collaborer \u00bb dans la barre de menu en haut de la page.</p>\n<p>\n<img src=\"https://intranet.agr.gc.ca/resources/prod/news/images/Dr-MervinSt-LuceFamily.png\" class=\"center-block\" alt=\"Mervin St. Luce avec sa famille. \"></p>\n\t\t"
    },
    "breadcrumb": {
        "en": "This Week in The Harvest - Winds of Charitability",
        "fr": "Au menu de La Moisson cette semaine - Un vent de g\u00e9n\u00e9rosit\u00e9"
    },
    "news": {
        "date_posted": {
            "en": "2018-01-18",
            "fr": "2018-01-18"
        },
        "to": {
            "en": "All staff",
            "fr": "Tous les employ\u00e9s"
        },
        "by": {
            "en": "Corporate Communications, Public Affairs Branch",
            "fr": "Communications minist\u00e9rielles, Direction g\u00e9n\u00e9rale des affaires publiques"
        }
    }
}