{
    "dcr_id": "1516898661262",
    "lang": "en",
    "title": {
        "en": "Deputy Minister's Outreach to Kentville",
        "fr": "Visite de sensibilisation du sous-ministre \u00e0 Kentville "
    },
    "modified": "2018-01-25 00:00:00.0",
    "issued": "2018-01-25 00:00:00.0",
    "type_name": "intra-intra/news-nouv",
    "node_id": "1279030006975",
    "layout_name": null,
    "dc_date_created": "2018-01-25",
    "breadcrumb_label": "",
    "meta": {
        "issued": {
            "en": "2018-01-25",
            "fr": "2018-01-25"
        },
        "modified": {
            "en": "2018-01-25",
            "fr": "2018-01-25"
        },
        "format": {
            "en": "gcformat",
            "fr": "gcformat"
        },
        "title": {
            "en": "Deputy Minister's Outreach to Kentville",
            "fr": "Visite de sensibilisation du sous-ministre \u00e0 Kentville "
        },
        "subject": {
            "en": "communications",
            "fr": "communications"
        },
        "description": {
            "en": "On January 10, 2018, I had the opportunity to visit the Kentville Research and Development Centre, located about 100 km from Halifax, Nova Scotia.",
            "fr": "Le 10 janvier 2018, j'ai eu la chance de visiter le Centre de recherche et de d\u00e9veloppement de Kentville situ\u00e9 \u00e0 environ 100 km d\u2019Halifax."
        },
        "language": {
            "en": "eng",
            "fr": "fra"
        },
        "audience": {
            "en": "gcaudience",
            "fr": "gcaudience"
        },
        "creator": {
            "en": "Agriculture and Agri-Food Canada",
            "fr": "Agriculture et Agroalimentaire Canada"
        },
        "spatial": {
            "en": "gcregions",
            "fr": "gcregions"
        },
        "service": {
            "en": "AAFC_AgriSource",
            "fr": "AAC_AgriSource"
        },
        "accessRights": {
            "en": "3",
            "fr": "3"
        }
    },
    "body": {
        "en": "<br>\n<br>\n<p>On January 10, 2018, I had the opportunity to visit the Kentville Research and Development Centre (<abbr title=\"Research and Development Centre\">RDC</abbr>), located about 100 km from Halifax, Nova Scotia.</p>\n<p>I had the pleasure of meeting with the Kentville <abbr title=\"Research and Development Centre\">RDC</abbr> staff and touring the facility. The staff at the research centre work closely with producers to support the Atlantic and Canadian horticulture sector.</p>\n<p>I especially enjoyed learning about plant physiology, grape and wine chemistry, and small fruit breeding.</p>\n<p>To view photos from my <a href=\"https://collab.agr.gc.ca/apps/dmtpg-vgpsm/Articles/Lists/Posts/Post.aspx?List=ca2c96e6%2D16f5%2D463c%2Da2ac%2D7e31b2b3f16d&amp;ID=28&amp;Web=22a9e7e7%2Db8b2%2D47a5%2Da7cf%2D7f1180c1ab01\">visit to Kentville</a>, go to the <a target=\"_blank\" href=\"https://collab.agr.gc.ca/apps/dmtpg-vgpsm/SitePages/Map.aspx\">new online map and photo gallery</a>. The map also tracks the research centres and regional offices Nada and I have been to over the past months. Our regional visits and meeting employees face-to-face are always a highlight.</p>\n<p><img src=\"https://intranet.agr.gc.ca/resources/prod/news/images/DMandGreenhouse.png\" class=\"center-block\"></p>\n\n\t\t",
        "fr": "<br>\n<br>\n<p>\nLe\n10\u00a0janvier\u00a02018, j\u2019ai eu la chance de visiter le Centre de recherche\net de d\u00e9veloppement (<abbr title=\"Centre de recherche et de d\u00e9veloppement\">CRD</abbr>) de Kentville situ\u00e9 \u00e0 environ 100\u00a0km d\u2019Halifax. </p>\n<p>J\u2019ai \u00e9t\u00e9\nravi de rencontrer le personnel du <abbr title=\"Centre de recherche et de d\u00e9veloppement\">CRD</abbr> et de visiter les installations. Les\nemploy\u00e9s du Centre travaillent en \u00e9troite collaboration avec les producteurs\nafin d\u2019appuyer le secteur horticole du Canada et celui de la r\u00e9gion de\nl\u2019Atlantique. </p>\n<p>\nJ\u2019ai\nparticuli\u00e8rement aim\u00e9 d\u00e9couvrir la phytophysiologie, la chimie des raisins et\ndu vin et l\u2019am\u00e9lioration g\u00e9n\u00e9tique des petits fruits.</p>\n<p>\nPour voir\ndes photos de ma <a href=\"https://collab.agr.gc.ca/apps/dmtpg-vgpsm/Articles/Lists/Posts/Post.aspx?List=ca2c96e6%2D16f5%2D463c%2Da2ac%2D7e31b2b3f16d&amp;ID=28&amp;Web=22a9e7e7%2Db8b2%2D47a5%2Da7cf%2D7f1180c1ab01\">visite \u00e0 Kentville</a>, allez voir la <a target=\"_blank\" href=\"https://collab.agr.gc.ca/apps/dmtpg-vgpsm/SitePages/Map.aspx\">nouvelle carte\nen ligne et la galerie de photos</a>. La carte indique \u00e9galement les centres de recherche et les bureaux\nr\u00e9gionaux que Nada et moi avons visit\u00e9s au cours des derniers mois. Nos visites\ndans les r\u00e9gions et nos rencontres avec les employ\u00e9s sont toujours les points\nles plus int\u00e9ressants.</p>\n<div style=\"left: -10000px; top: 0px; width: 1px; height: 1px; overflow: hidden; position: absolute;\" id=\"_mcePaste\" class=\"mcePaste\">\n</div>\n<p><img src=\"https://intranet.agr.gc.ca/resources/prod/news/images/DMandGreenhouse.png\" class=\"center-block\"></p>\n\t\t"
    },
    "breadcrumb": {
        "en": "Deputy Minister's Outreach to Kentville",
        "fr": "Visite de sensibilisation du sous-ministre \u00e0 Kentville"
    },
    "news": {
        "date_posted": {
            "en": "2018-01-25",
            "fr": "2018-01-25"
        },
        "to": {
            "en": "All staff",
            "fr": "Tous les employ\u00e9s"
        },
        "by": {
            "en": "Chris Forbes, Deputy Minister",
            "fr": "Chris Forbes, Sous-ministre"
        }
    }
}