{
    "dcr_id": "1517338955606",
    "lang": "en",
    "title": {
        "en": "Reminder - Scheduled Maintenance of ISB Services - Workstation and Phone Services for Tower 5 at NHCAP - February 10",
        "fr": "Rappel - Entretien pr\u00e9vu des services de la DGSI - Postes de travail et services t\u00e9l\u00e9phoniques de la tour 5 du CACPA - Le 10 f\u00e9vrier"
    },
    "modified": "2018-02-07 00:00:00.0",
    "issued": "2018-02-01 00:00:00.0",
    "type_name": "intra-intra/news-nouv",
    "node_id": "1279030006975",
    "layout_name": null,
    "dc_date_created": "2018-01-30",
    "breadcrumb_label": "Reminder - Scheduled Maintenance of ISB Services - Workstation and Phone Services for Tower 5 at...",
    "meta": {
        "issued": {
            "en": "2018-02-01",
            "fr": "2018-02-01"
        },
        "modified": {
            "en": "2018-02-07",
            "fr": "2018-02-07"
        },
        "format": {
            "en": "gcformat",
            "fr": "gcformat"
        },
        "title": {
            "en": "Reminder - Scheduled Maintenance of ISB Services - Workstation and Phone Services for Tower 5 at NHCAP - February 10",
            "fr": "Rappel - Entretien pr\u00e9vu des services de la DGSI - Postes de travail et services t\u00e9l\u00e9phoniques de la tour 5 du CACPA - Le 10 f\u00e9vrier"
        },
        "subject": {
            "en": "communications",
            "fr": "communications"
        },
        "description": {
            "en": "Please be advised that preventative maintenance of ISB services will be performed on Saturday, February 10, 2018.",
            "fr": "Veuillez noter qu'un entretien pr\u00e9ventif des services de la DGSI aura lieu le samedi 10 f\u00e9vrier 2018."
        },
        "language": {
            "en": "eng",
            "fr": "fra"
        },
        "audience": {
            "en": "gcaudience",
            "fr": "gcaudience"
        },
        "creator": {
            "en": "Agriculture and Agri-Food Canada",
            "fr": "Agriculture et Agroalimentaire Canada"
        },
        "spatial": {
            "en": "gcregions",
            "fr": "gcregions"
        },
        "service": {
            "en": "AAFC_AgriSource",
            "fr": "AAC_AgriSource"
        },
        "accessRights": {
            "en": "3",
            "fr": "3"
        }
    },
    "body": {
        "en": "<br>\n<br>\n<p>Please be advised that preventative maintenance of ISB services will be performed on Saturday, February 10, 2018.</p>\n<p>The downtime is needed to upgrade aging hardware and ensure that employees do not experience any unplanned service outages.</p>\n<p>Consequently, the following services may not be available during the following time:</p>\n<p><strong>Saturday, February 10 \u2013 9:00 a.m. until 7:00 p.m. (ET)</strong></p>\n<ul>\n<li>\n<p>Workstation and phone services for clients located in Tower 5 at the National Headquarters for the Agriculture Portfolio (NHCAP) including:</p>\n<ul>\n<li>Access to all corporate applications</li>\n<li>Access to email</li>\n<li>Access to Internet</li>\n<li>Access to network drives</li>\n<li>Access to 911</li>\n<li>Outbound calls (inbound calls will go to voice mail)</li>\n<li>Access to auto-attendant services</li>\n<li>Access to voice mail</li>\n</ul>\n</li>\n</ul>\n<p><strong>Note:</strong> As access to 911 will be interrupted, employees are encouraged not to use Tower 5 during the service downtime. <strong>Those who must use it should call the Security Control Centre at 3-3333 to gain access.</strong> Employees entering Tower 5 during the service downtime must have a mobile device to ensure health and safety considerations are met. Employees are responsible for ensuring that they have a mobile device available.</p>\n<p>Should you have any questions or concerns, please do not hesitate to contact IT Centre TI.</p>\n<p><strong>IT Centre TI<br>\n</strong>Telephone: 1-855-545-4411<br>\n<a href=\"http://assystweb:8080/assystnet\">My IT Centre TI</a></p>\n<p><img src=\"https://intranet.agr.gc.ca/resources/prod/news/images/ITCentreTI2.png\" class=\"center-block\"></p>\n\n\t\t",
        "fr": "<br>\n<br>\n<p>Veuillez noter qu\u2019un entretien pr\u00e9ventif des services de la DGSI aura lieu le samedi 10 f\u00e9vrier 2018.</p>\n<p>Cet entretien nous permettra de mettre \u00e0 niveau l'\u00e9quipement vieillissant\u00a0et de\u00a0pr\u00e9venir\u00a0toute interruption de service\u00a0impr\u00e9vue qui pourrait toucher les employ\u00e9s.</p>\n<p>En cons\u00e9quence, les services suivants pourraient ne pas \u00eatre accessibles pendant les p\u00e9riodes suivantes :</p>\n<p><strong>Samedi 10 f\u00e9vrier, de 9 h \u00e0 19 h (HE)</strong></p>\n<ul>\n<li>\n<p>Postes de travail et services t\u00e9l\u00e9phoniques des clients situ\u00e9s dans la tour 5 du Complexe de l\u2019administration centrale du portefeuille de l\u2019Agriculture (<abbr title=\"Complexe de l\u2019administration centrale du portefeuille de l\u2019Agriculture\">CACPA</abbr>), y compris :</p>\n<ul>\n<li>Acc\u00e8s \u00e0 toutes les applications organisationnelles</li>\n<li>Acc\u00e8s au courriel</li>\n<li>Acc\u00e8s \u00e0 Internet</li>\n<li>Acc\u00e8s aux lecteurs r\u00e9seau</li>\n<li>Acc\u00e8s au service 911</li>\n<li>Appels sortants (les appels entrants seront enregistr\u00e9s dans le syst\u00e8me de messagerie vocale)</li>\n<li>Acc\u00e8s aux services de r\u00e9ponse automatique</li>\n<li>Acc\u00e8s \u00e0 la messagerie \u00e9lectronique</li>\n</ul>\n</li>\n</ul>\n<p><strong>Remarque :</strong> Comme l\u2019acc\u00e8s au 911 sera interrompu, les employ\u00e9s doivent \u00e9viter de se rendre \u00e0 la tour 5 pendant l\u2019interruption de service. <strong>Les employ\u00e9s qui doivent y avoir acc\u00e8s doivent communiquer avec le Centre de contr\u00f4le de la s\u00e9curit\u00e9, au 3-3333 pour y avoir acc\u00e8s.</strong> Les employ\u00e9s qui entrent dans la tour 5 pendant l\u2019interruption du service doivent disposer d\u2019un appareil mobile pour se conformer aux exigences en mati\u00e8re de sant\u00e9 et de s\u00e9curit\u00e9. Il incombe aux employ\u00e9s de s\u2019assurer qu\u2019ils ont un appareil mobile \u00e0 leur disposition.</p>\n<p>Si vous avez des questions ou des pr\u00e9occupations, n\u2019h\u00e9sitez pas \u00e0 communiquer avec IT Centre TI.</p>\n<p><strong>IT Centre TI<br>\n</strong>T\u00e9l\u00e9phone : 1-855-545-4411<br>\n<a href=\"http://assystweb:8080/assystnet\">Mon IT Centre TI</a></p>\n<p><img src=\"https://intranet.agr.gc.ca/resources/prod/news/images/ITCentreTI2.png\" class=\"center-block\"></p>\n\t\t"
    },
    "breadcrumb": {
        "en": "Reminder - Scheduled Maintenance of ISB Services - Workstation and Phone Services for Tower 5 at...",
        "fr": "Rappel - Entretien pr\u00e9vu des services de la DGSI - Postes de travail et services t\u00e9l\u00e9phoniques..."
    },
    "news": {
        "date_posted": {
            "en": "2018-01-30",
            "fr": "2018-01-30"
        },
        "to": {
            "en": "All staff",
            "fr": "Tous les employ\u00e9s"
        },
        "by": {
            "en": "IT Centre TI",
            "fr": "IT Centre TI"
        }
    }
}