{
    "dcr_id": "1517338237301",
    "lang": "en",
    "title": {
        "en": "Scheduled Maintenance of ISB Services - Knowledge Workspace - February 2-4",
        "fr": "Entretien pr\u00e9vu des services de la DGSI - Espace de travail du savoir - Du 2 au 4 f\u00e9vrier"
    },
    "modified": "2018-02-01 00:00:00.0",
    "issued": "2018-02-01 00:00:00.0",
    "type_name": "intra-intra/news-nouv",
    "node_id": "1279030006975",
    "layout_name": null,
    "dc_date_created": "2018-01-30",
    "breadcrumb_label": "",
    "meta": {
        "issued": {
            "en": "2018-02-01",
            "fr": "2018-02-01"
        },
        "modified": {
            "en": "2018-02-01",
            "fr": "2018-02-01"
        },
        "format": {
            "en": "gcformat",
            "fr": "gcformat"
        },
        "title": {
            "en": "Scheduled Maintenance of ISB Services - Knowledge Workspace - February 2-4",
            "fr": "Entretien pr\u00e9vu des services de la DGSI - Espace de travail du savoir - Du 2 au 4 f\u00e9vrier"
        },
        "subject": {
            "en": "communications",
            "fr": "communications"
        },
        "description": {
            "en": "Please be advised that preventative maintenance of ISB services will be performed from Friday, February 2 to Sunday February 4, 2018.",
            "fr": "Veuillez noter qu'un entretien pr\u00e9ventif des services de la DGSI aura lieu du vendredi 2 f\u00e9vrier au dimanche 4 f\u00e9vrier 2018."
        },
        "language": {
            "en": "eng",
            "fr": "fra"
        },
        "audience": {
            "en": "gcaudience",
            "fr": "gcaudience"
        },
        "creator": {
            "en": "Agriculture and Agri-Food Canada",
            "fr": "Agriculture et Agroalimentaire Canada"
        },
        "spatial": {
            "en": "gcregions",
            "fr": "gcregions"
        },
        "service": {
            "en": "AAFC_AgriSource",
            "fr": "AAC_AgriSource"
        },
        "accessRights": {
            "en": "3",
            "fr": "3"
        }
    },
    "body": {
        "en": "<br>\n<br>\n<p>Please be advised that preventative maintenance of ISB services will be performed from Friday, February 2 to Sunday February 4, 2018.</p>\n<p>These downtimes were planned as part of an infrastructure management plan. By upgrading these systems, we\u00a0improve performance and\u00a0help ensure there are no major unplanned outages that affect employees.</p>\n<p>Consequently, the following services may not be available during the following times:</p>\n<p><strong>Friday, February 2 \u2013 7:00 p.m. until Sunday, February 4, 2018 \u2013 5:00 p.m. (ET)</strong></p>\n<ul>\n<li>Blueprint 2020 blog</li>\n<li>Blueprint 2020 Process Improvement (Lean)</li>\n<li>Blueprint 2020 Dragons\u2019 Den</li>\n<li>CFIA President\u2019s Blog</li>\n<li>Knowledge Workspace</li>\n<li>Market Access Support System (MISB-MASS)</li>\n<li>Proposal Submission System (STB-PSS)</li>\n</ul>\n<p>Should you have any questions or concerns, please do not hesitate to contact IT Centre TI.</p>\n<p><strong>IT Centre TI<br>\n</strong>Telephone: 1-855-545-4411<br>\n<a href=\"http://assystweb:8080/assystnet\">My IT Centre TI</a></p>\n<p><img src=\"https://intranet.agr.gc.ca/resources/prod/news/images/ITCentreTI2.png\" class=\"center-block\"></p>\n\n\t\t",
        "fr": "<br>\n<br>\n<p>Veuillez noter qu\u2019un entretien pr\u00e9ventif des services de la DGSI aura lieu du vendredi 2 f\u00e9vrier au dimanche 4 f\u00e9vrier 2018.</p>\n<p>Cette interruption est pr\u00e9vue dans un plan de gestion de l\u2019infrastructure. En mettant ces syst\u00e8mes \u00e0 niveau, nous am\u00e9liorons leur rendement et pr\u00e9venons les pannes majeures impr\u00e9vues qui entravent le travail des employ\u00e9s.</p>\n<p>En cons\u00e9quence, les services suivants pourraient ne pas \u00eatre accessibles pendant les p\u00e9riodes suivantes :</p>\n<p><strong>Du vendredi 2 f\u00e9vrier, 19 h, jusqu\u2019au dimanche 4 f\u00e9vrier, 17 h (HE)</strong></p>\n<ul>\n<li>Blogue sur Objectif 2020</li>\n<li>Objectif 2020 \u2013 Am\u00e9lioration des processus (Lean)</li>\n<li>Objectif 2020 \u2013 Dans l\u2019\u0153il du dragon</li>\n<li>Blogue du pr\u00e9sident de l\u2019ACIA</li>\n<li>Espace de travail du savoir</li>\n<li>Syst\u00e8me de soutien de l\u2019acc\u00e8s aux march\u00e9s (DGSIM-SSAM)</li>\n<li>Syst\u00e8me de soumission de propositions (DGST-SSP)</li>\n</ul>\n<p>Si vous avez des questions ou des pr\u00e9occupations \u00e0 ce sujet, n\u2019h\u00e9sitez pas \u00e0 communiquer avec le IT Centre TI.</p>\n<p><strong>IT Centre TI<br>\n</strong>T\u00e9l\u00e9phone : 1-855-545-4411<br>\n<a href=\"http://assystweb:8080/assystnet\">Mon IT Centre TI</a></p>\n<p><img src=\"https://intranet.agr.gc.ca/resources/prod/news/images/ITCentreTI2.png\" class=\"center-block\"></p>\n\t\t"
    },
    "breadcrumb": {
        "en": "Scheduled Maintenance of ISB Services - Knowledge Workspace - February 2-4",
        "fr": "Entretien pr\u00e9vu des services de la DGSI - Espace de travail du savoir - Du 2 au 4 f\u00e9vrier"
    },
    "news": {
        "date_posted": {
            "en": "2018-01-30",
            "fr": "2018-01-30"
        },
        "to": {
            "en": "All staff",
            "fr": "Tous les employ\u00e9s"
        },
        "by": {
            "en": "IT Centre TI",
            "fr": "IT Centre TI"
        }
    }
}