{
    "dcr_id": "1517845285871",
    "lang": "en",
    "title": {
        "en": "Reminder - Call for Nominations: 2018 Chief Information Officer Community Awards - Deadline is March 9",
        "fr": "Rappel - Appel de mises en candidature pour les Prix de m\u00e9rite de la collectivit\u00e9 des dirigeants principaux de l'information 2018 - La date limite est le 9 mars"
    },
    "modified": "2018-03-20 00:00:00.0",
    "issued": "2018-02-08 00:00:00.0",
    "type_name": "intra-intra/news-nouv",
    "node_id": "1279030006975",
    "layout_name": null,
    "dc_date_created": "2018-02-05",
    "breadcrumb_label": "Reminder - Call for Nominations: 2018 Chief Information Officer Community Awards - Deadline is March",
    "meta": {
        "issued": {
            "en": "2018-02-08",
            "fr": "2018-02-08"
        },
        "modified": {
            "en": "2018-03-20",
            "fr": "2018-02-21"
        },
        "format": {
            "en": "gcformat",
            "fr": "gcformat"
        },
        "title": {
            "en": "Reminder - Call for Nominations: 2018 Chief Information Officer Community Awards - Deadline is March 9",
            "fr": "Rappel - Appel de mises en candidature pour les Prix de m\u00e9rite de la collectivit\u00e9 des dirigeants principaux de l'information 2018 - La date limite est le 9 mars"
        },
        "subject": {
            "en": "communications",
            "fr": "communications"
        },
        "description": {
            "en": "We are pleased to announce that nominations are now being accepted for the 2018 Chief Information Officer Community Awards.",
            "fr": "Nous sommes heureux de vous annoncer l'ouverture du processus de mise en candidature pour les Prix de m\u00e9rite de la collectivit\u00e9 des dirigeants principaux de l'information 2018."
        },
        "language": {
            "en": "eng",
            "fr": "fra"
        },
        "audience": {
            "en": "gcaudience",
            "fr": "gcaudience"
        },
        "creator": {
            "en": "Agriculture and Agri-Food Canada",
            "fr": "Agriculture et Agroalimentaire Canada"
        },
        "spatial": {
            "en": "gcregions",
            "fr": "gcregions"
        },
        "service": {
            "en": "AAFC_AgriSource",
            "fr": "AAC_AgriSource"
        },
        "accessRights": {
            "en": "3",
            "fr": "3"
        }
    },
    "body": {
        "en": "<br>\n<br>\n<p>We are pleased to announce that nominations are now being accepted for the <strong>2018 Chief Information Officer Community (<abbr title=\"Information Officer Community\">CIOC</abbr>) Awards</strong>. Administered by the Treasury Board Secretariat (<abbr title=\"Treasury Board Secretariat\">TBS</abbr>), these awards acknowledge and honour excellence in both enterprise-wide and departmental projects and initiatives within the IM/IT community.</p>\n<p>The 2018 awards have been remodelled to recognize the many innovative initiatives and their impacts on the lives of Canadians, and highlight outstanding achievements in the functional communities that are supported by the Government of Canada Chief Information Officer Community. The 2018 <abbr title=\"Information Officer Community\">CIOC</abbr> Awards categories are:</p>\n<ul>\n<li>Excellence in Access to Information and Privacy (ATIP)</li>\n<li>Excellence in Client Focus Service Delivery</li>\n<li>Excellence in Community Development</li>\n<li>Excellence in Diversity and Inclusion</li>\n<li>Excellence in Innovation</li>\n<li>Excellence in Open Government</li>\n<li>Excellence in Project Management</li>\n<li>Excellence in Security Management</li>\n<li>GC CIO Award \u2013 Embracing the Digital Mindset</li>\n</ul>\n<p>Nominations will be accepted for any individual or team working within the Government of Canada. Any initiative being nominated must be completed or mostly completed by the end of March 2018. Team nominations may include partners from other federal departments. Additional information regarding the selection criteria, nomination and selection process, as well as the required forms and nomination guidelines, is available on the <a href=\"http://www.gcpedia.gc.ca/wiki/Chief_Information_Officer_Community_Awards\"><abbr title=\"Information Officer Community\">CIOC</abbr> Awards page</a> on GCpedia.</p>\n<p>The awards will be presented at the Developing Professionalism in Informatics Dinner in May 2018.</p>\n<p>Please submit your completed nomination package in either official language, endorsed by a <abbr title=\"Chief Information Officer\">CIO</abbr> or equivalent, to the Chief Information Officer Branch (<abbr title=\"Chief Information Officer Branch\">CIOB</abbr>)\u00a0Committee Secretariat by email to <a href=\"mailto:ciob-ddpi@tbs-sct.gc.ca\">ciob-ddpi@tbs-sct.gc.ca</a> no later than <strong>March 9, 2018.</strong></p>\n<p>If you have any questions or require additional information, please contact the <abbr title=\"Chief Information Officer Branch\">CIOB</abbr> Committee Secretariat at <a href=\"mailto:ciob-ddpi@tbs-sct.gc.ca\">ciob-ddpi@tbs-sct.gc.ca</a>.</p>\n<p>We encourage you to take the time to nominate your colleagues!</p>\n<p>\u00a0</p>\n<p><img src=\"https://intranet.agr.gc.ca/resources/prod/news/images/CIOCAwards.png\" class=\"center-block\"></p>\n\n\t\t",
        "fr": "<br>\n<br>\n<p>Nous sommes heureux de vous annoncer l\u2019ouverture du processus de mise en candidature pour les <strong>Prix de m\u00e9rite de la collectivit\u00e9 des dirigeants principaux de l\u2019information 2018.\u00a0</strong>Remis par le Secr\u00e9tariat du Conseil du Tr\u00e9sor, ces prix soulignent et r\u00e9compensent l\u2019excellence tant \u00e0 l\u2019\u00e9chelle organisationnelle, que dans le cadre des projets minist\u00e9riels et des initiatives au sein de la collectivit\u00e9 GI-TI.</p>\n<p>Les prix de 2018 ont \u00e9t\u00e9 repens\u00e9s afin de reconna\u00eetre les nombreuses initiatives innovatrices et leur incidence sur la vie des Canadiens et de soulinger les r\u00e9alisations remarquables des collectivit\u00e9s fonctionnelles qui sont appuy\u00e9es par la collectivit\u00e9 des dirigeants principaux de l\u2019information du gouvernement du Canada. Les cat\u00e9gories pour ces prix de 2018 sont les suivantes :</p>\n<ul>\n<li>Excellence dans la prestation de services ax\u00e9s sur la client\u00e8le</li>\n<li>Excellence de l\u2019acc\u00e8s \u00e0 l\u2019information et de la protection des renseignements personnels (AIPRP)</li>\n<li>Excellence en gestion de projets</li>\n<li>Excellence en mati\u00e8re de diversit\u00e9 et d\u2019inclusion</li>\n<li>Excellence en mati\u00e8re de gestion de la s\u00e9curit\u00e9</li>\n<li>Excellence en mati\u00e8re de gouvernement ouvert</li>\n<li>Excellence en mati\u00e8re de perfectionnement des collectivit\u00e9s</li>\n<li>Excellence en mati\u00e8re d\u2019innovation</li>\n<li>Prix du <abbr title=\"dirigeant principal de l\u2019information\">DPI</abbr> du GC - L\u2019adoption d\u2019un \u00e9tat d\u2019esprit num\u00e9rique</li>\n</ul>\n<p>Les candidatures de toute personne ou \u00e9quipe travaillant au gouvernement f\u00e9d\u00e9ral seront accept\u00e9es. Toute initiative faisant l\u2019objet d\u2019une mise en candidature doit \u00eatre achev\u00e9e ou achev\u00e9e en grande partie d\u2019ici la fin du mois de mars 2018. Les \u00e9quipes candidates peuvent inclure des partenaires d\u2019autres minist\u00e8res f\u00e9d\u00e9raux. Vous trouverez plus de renseignements sur les crit\u00e8res de s\u00e9lection, le processus de mise en candidature, le processus de s\u00e9lection, les formulaires \u00e0 remplir ainsi que les lignes directrices pour les mises en candidature sur le site GCpedia <a href=\"http://www.gcpedia.gc.ca/wiki/Les_Prix_de_m%C3%A9rite_des_collectivit%C3%A9s_du_Conseil_des_dirigeants_principaux_de_l%27information\">Prix de m\u00e9rite de la collectivit\u00e9 du <abbr title=\"dirigeant principal de l\u2019information\">DPI</abbr></a>.</p>\n<p>Les prix seront remis lors du d\u00eener de gala de D\u00e9veloppement du professionnalisme en informatique en mai 2018.</p>\n<p>Veuillez envoyer votre trousse de mise en candidature d\u00fbment remplie dans la langue officielle de votre choix, approuv\u00e9e par le Dirigeant principal de l\u2019information ou son \u00e9quivalent, par courriel au Secr\u00e9tariat des comit\u00e9s de la Direction du dirigeant principal de l\u2019information (<abbr title=\"Direction du dirigeant principal de l\u2019information\">DDPI</abbr>), \u00e0 <a href=\"mailto:ciob-ddpi@tbs-sct.gc.ca\">ciob-ddpi@tbs-sct.gc.ca</a>,\u00a0au plus tard le <strong>9 mars 2018</strong>.</p>\n<p>Si vous avez des questions ou si vous avez besoin de plus de renseignements, veuillez communiquer avec le Secr\u00e9tariat des comit\u00e9s de la <abbr title=\"Direction du dirigeant principal de l\u2019information\">DDPI</abbr>, \u00e0 l\u2019adresse <a href=\"mailto:ciob-ddpi@tbs-sct.gc.ca\">ciob-ddpi@tbs-sct.gc.ca</a>.</p>\n<p>Nous vous encourageons \u00e0 proposer la candidateur de vos coll\u00e8gues!</p>\n<p>\u00a0\u00a0<img src=\"https://intranet.agr.gc.ca/resources/prod/news/images/CIOCAwards.png\" class=\"center-block\"></p>\n\t\t"
    },
    "breadcrumb": {
        "en": "Reminder - Call for Nominations: 2018 Chief Information Officer Community Awards - Deadline is March",
        "fr": "Rappel - Appel de mises en candidature pour les Prix de m\u00e9rite de la collectivit\u00e9 des dirigeants..."
    },
    "news": {
        "date_posted": {
            "en": "2018-02-06",
            "fr": "2018-02-06"
        },
        "to": {
            "en": "All staff",
            "fr": "Tous les employ\u00e9s"
        },
        "by": {
            "en": "Human Resources, Corporate Management Branch",
            "fr": "Ressources humaines, Direction g\u00e9n\u00e9rale de la gestion int\u00e9gr\u00e9e"
        }
    }
}