{
    "dcr_id": "1518535452902",
    "lang": "en",
    "title": {
        "en": "February is Black History Month - Ray Edwards",
        "fr": "F\u00e9vrier est le Mois de l'histoire des Noirs - Ray Edwards"
    },
    "modified": "2018-02-15 00:00:00.0",
    "issued": "2018-02-15 00:00:00.0",
    "type_name": "intra-intra/news-nouv",
    "node_id": "1279030006975",
    "layout_name": null,
    "dc_date_created": "2018-02-13",
    "breadcrumb_label": "",
    "meta": {
        "issued": {
            "en": "2018-02-15",
            "fr": "2018-02-15"
        },
        "modified": {
            "en": "2018-02-15",
            "fr": "2018-02-15"
        },
        "format": {
            "en": "gcformat",
            "fr": "gcformat"
        },
        "title": {
            "en": "February is Black History Month - Ray Edwards",
            "fr": "F\u00e9vrier est le Mois de l'histoire des Noirs - Ray Edwards"
        },
        "subject": {
            "en": "communications",
            "fr": "communications"
        },
        "description": {
            "en": "As we mark the 22<sup>nd</sup> Black History Month, the Visible Minorities Network takes this time to recognize Ray Edwards and highlight his contributions to our communities and the agriculture sector, both locally and internationally.",
            "fr": "Afin de comm\u00e9morer le 22<sup>e</sup> Mois de l'histoire des Noirs, le R\u00e9seau des minorit\u00e9s visibles souhaite souligner la contribution de Ray Edwards \u00e0 nos collectivit\u00e9s ainsi qu'au secteur agricole, tant au Canada qu'\u00e0 l'\u00e9tranger."
        },
        "language": {
            "en": "eng",
            "fr": "fra"
        },
        "audience": {
            "en": "gcaudience",
            "fr": "gcaudience"
        },
        "creator": {
            "en": "Agriculture and Agri-Food Canada",
            "fr": "Agriculture et Agroalimentaire Canada"
        },
        "spatial": {
            "en": "gcregions",
            "fr": "gcregions"
        },
        "service": {
            "en": "AAFC_AgriSource",
            "fr": "AAC_AgriSource"
        },
        "accessRights": {
            "en": "3",
            "fr": "3"
        }
    },
    "body": {
        "en": "<br>\n<br>\n<p>As we mark the 22<sup>nd</sup> Black History Month, the Visible Minorities Network takes this time to recognize Ray Edwards and highlight his contributions to our communities and the agriculture sector, both locally and internationally.</p>\n<p><img src=\"https://intranet.agr.gc.ca/resources/prod/news/images/RayEdwards.png\" class=\"pull-right mrgn-lft-md\" alt=\"Ray Edwards\">Ray Edwards joined AAFC in 2010 and is presently the Director General of Service and Program Excellence. His team administers cost-shared agreements with the provinces and territories, and is the lead for the design of client-centered service innovations for the Department. </p>\n<p>Before joining AAFC, Ray held several executive-level positions at Health Canada including working on Canada's Anti-Drug Strategy and Marijuana policy, leading the departmental response to the H1N1 national health crisis and designing programs to address the mitigation of environmental impacts on human health domestically and internationally.</p>\n<p>Ray is a strong advocate for promoting diversity and inclusion within AAFC and received a Gold Harvest Award in 2017 for his leadership in this area. As one of the Co-chairs for the Inclusiveness Management Committee (<abbr title=\"Inclusiveness Management Committee\">IMC</abbr>), Ray led programs and activities that helped identify systematic barriers, recommended remedies and led initiatives to enhance inclusiveness throughout the department.</p>\n<p>On behalf of the <abbr title=\"Inclusiveness Management Committee\">IMC</abbr>, Ray arranged for members to meet with a coach to maximize their contributions to the network and enhance their own performance in the work environment. While this gesture may be considered a best practice in the business world,\u00a0to those he works with, it meant more than that. Ray also participates in AAFC\u2019s National Mentoring Program \u2013 fostering a learning culture through teamwork, knowledge sharing and coaching.</p>\n<p>Ray holds a bachelor of science in biology and genetics from the University of Toronto and is a certified executive coach. Throughout his career he has and continues to champion innovation, continuous improvement and workplace diversity and inclusion.</p>\n<p>For information on AAFC\u2019s Visible Minorities Network, please email the Network at <a href=\"mailto:VMN-RMV@AGR.GC.CA\">VMN-RMV@AGR.GC.CA</a> or visit <a href=\"https://collab.agr.gc.ca/co/vmn-rdmv/SitePages/Home.aspx\">Knowledge Workspace</a>.</p>\n<p>\u00a0</p>\n<p><strong>Fred Gorrell</strong><br>\nChampion, Visible Minorities Network</p>\n<p><strong>John Shi and Augustus Reeves</strong><br>\nCo-chairs of the Visible Minorities Network</p>\n<p>\u00a0</p>\n\n\t\t",
        "fr": "<br>\n<br>\n<p>Afin de comm\u00e9morer le 22<sup>e</sup> Mois de l\u2019histoire des Noirs, le R\u00e9seau des minorit\u00e9s visibles souhaite souligner la contribution de Ray Edwards \u00e0 nos collectivit\u00e9s ainsi qu\u2019au secteur agricole, tant au Canada qu\u2019\u00e0 l\u2019\u00e9tranger.</p>\n<p><img src=\"https://intranet.agr.gc.ca/resources/prod/news/images/RayEdwards.png\" class=\"pull-right mrgn-lft-md\" alt=\"Ray Edwards\">Ray Edwards est entr\u00e9 au service d\u2019AAC en 2010 et est actuellement le directeur g\u00e9n\u00e9ral de l\u2019Excellence du service et des programmes. Son \u00e9quipe administre des ententes de partage des co\u00fbts conclues avec les provinces et les territoires et dirige la conception des innovations en mati\u00e8re de service \u00e0 la client\u00e8le pour le Minist\u00e8re.</p>\n<p>Avant de se joindre \u00e0 l\u2019\u00e9quipe d\u2019AAC, Ray a occup\u00e9 plusieurs postes de cadre \u00e0 Sant\u00e9 Canada. Il a notamment travaill\u00e9 \u00e0 la Strat\u00e9gie antidrogue et \u00e0 la politique sur la marijuana du Canada, dirig\u00e9 la r\u00e9ponse minist\u00e9rielle \u00e0 la crise sanitaire nationale caus\u00e9e par le H1N1 et con\u00e7u des programmes visant \u00e0 att\u00e9nuer les effets environnementaux sur la sant\u00e9 des humains au pays et \u00e0 l\u2019\u00e9tranger.</p>\n<p>Ray est un ardent d\u00e9fenseur de la diversit\u00e9 et de l\u2019inclusion \u00e0 AAC et a re\u00e7u un prix Moisson d\u2019or en 2017 pour son leadership dans ce domaine. En tant que copr\u00e9sident du Comit\u00e9 de gestion de l\u2019inclusivit\u00e9 (<abbr title=\"Comit\u00e9 de gestion de l\u2019inclusivit\u00e9\">CGI</abbr>), Ray a dirig\u00e9 des programmes et des activit\u00e9s qui ont aid\u00e9 \u00e0 recenser les obstacles syst\u00e9matiques, il a recommand\u00e9 des solutions et a dirig\u00e9 des initiatives visant \u00e0 rendre le Minist\u00e8re plus inclusif dans son ensemble.</p>\n<p>Au nom du <abbr title=\"Comit\u00e9 de gestion de l\u2019inclusivit\u00e9\">CGI</abbr>, Ray a fait en sorte que les membres du comit\u00e9 rencontrent un accompagnateur pour qu\u2019ils optimisent leur contribution au r\u00e9seau et am\u00e9liorent leur propre rendement au travail. Bien que cet exercice soit consid\u00e9r\u00e9 comme une pratique exemplaire dans le milieu des affaires, pour les coll\u00e8gues de Ray, cela signifie beaucoup plus. Ray participe aussi au Programme national de mentorat d\u2019AAC; il fait la promotion d\u2019une culture de l\u2019apprentissage gr\u00e2ce au travail d\u2019\u00e9quipe, \u00e0 la mise en commun des connaissances et \u00e0 l\u2019encadrement.</p>\n<p>Ray est titulaire d\u2019un baccalaur\u00e9at \u00e8s sciences en biologie et en g\u00e9n\u00e9tique de l\u2019Universit\u00e9 de Toronto et est accompagnateur de gestionnaires agr\u00e9\u00e9. Tout au long de sa carri\u00e8re, il a plaid\u00e9 en faveur de l\u2019innovation, de l\u2019am\u00e9lioration continue et de la diversit\u00e9 et de l\u2019inclusion au travail.</p>\n<p>Pour de l\u2019information sur le R\u00e9seau des minorit\u00e9s visibles d\u2019AAC, veuillez envoyer un courriel au r\u00e9seau \u00e0 <a href=\"mailto:VMN-RMV@AGR.GC.CA\">VMN-RMV@AGR.GC.CA</a> ou visiter l\u2019<a href=\"https://collab.agr.gc.ca/co/vmn-rdmv/SitePages/Home.aspx\">Espace de travail du savoir</a>.</p>\n<p>\u00a0</p>\n<p><strong>Fred Gorrell</strong><br>\nChampion, R\u00e9seau des minorit\u00e9s visibles</p>\n<p><strong>John Shi et Augustus Reeves</strong><br>\nCopr\u00e9sidents du R\u00e9seau des minorit\u00e9s visibles</p>\n\t\t"
    },
    "breadcrumb": {
        "en": "February is Black History Month - Ray Edwards",
        "fr": "F\u00e9vrier est le Mois de l'histoire des Noirs - Ray Edwards"
    },
    "news": {
        "date_posted": {
            "en": "2018-02-15",
            "fr": "2018-02-15"
        },
        "to": {
            "en": "All staff",
            "fr": "Tous les employ\u00e9s"
        },
        "by": {
            "en": "Fred Gorrell, Champion for Visible Minorities Network",
            "fr": "Fred Gorrell, champion du R\u00e9seau des minorit\u00e9s visibles"
        }
    }
}