{
    "dcr_id": "1519235052177",
    "lang": "en",
    "title": {
        "en": "Scheduled Maintenance of ISB Services Including Email and BlackBerry Email - February 24-25",
        "fr": "Entretien pr\u00e9vu des services de la DGSI, y compris les services de courriel et de courriel BlackBerry - Du 24 au 25 f\u00e9vrier"
    },
    "modified": "2018-02-23 00:00:00.0",
    "issued": "2018-02-22 00:00:00.0",
    "type_name": "intra-intra/news-nouv",
    "node_id": "1279030006975",
    "layout_name": null,
    "dc_date_created": "2018-02-21",
    "breadcrumb_label": "",
    "meta": {
        "issued": {
            "en": "2018-02-22",
            "fr": "2018-02-22"
        },
        "modified": {
            "en": "2018-02-23",
            "fr": "2018-02-23"
        },
        "format": {
            "en": "gcformat",
            "fr": "gcformat"
        },
        "title": {
            "en": "Scheduled Maintenance of ISB Services Including Email and BlackBerry Email - February 24-25",
            "fr": "Entretien pr\u00e9vu des services de la DGSI, y compris les services de courriel et de courriel BlackBerry - Du 24 au 25 f\u00e9vrier"
        },
        "subject": {
            "en": "communications",
            "fr": "communications"
        },
        "description": {
            "en": "Please be advised that preventative maintenance of ISB services will be performed from Saturday, February 24, 2018 to Sunday, February 25, 2018.",
            "fr": "Veuillez noter qu'un entretien pr\u00e9ventif des services de la Direction g\u00e9n\u00e9rale des syst\u00e8mes d'information aura lieu du samedi 24 f\u00e9vrier 2018 au dimanche 25 f\u00e9vrier 2018."
        },
        "language": {
            "en": "eng",
            "fr": "fra"
        },
        "audience": {
            "en": "gcaudience",
            "fr": "gcaudience"
        },
        "creator": {
            "en": "Agriculture and Agri-Food Canada",
            "fr": "Agriculture et Agroalimentaire Canada"
        },
        "spatial": {
            "en": "gcregions",
            "fr": "gcregions"
        },
        "service": {
            "en": "AAFC_AgriSource",
            "fr": "AAC_AgriSource"
        },
        "accessRights": {
            "en": "3",
            "fr": "3"
        }
    },
    "body": {
        "en": "<br>\n<br>\n<p>Please be advised that preventative maintenance of ISB services will be performed from Saturday, February 24, 2018 to Sunday, February 25, 2018.</p>\n<p>The above downtime is part of a management plan to upgrade our infrastructure systems. These measures are performed regularly to improve performance and ensure that the department does not experience any outages that would affect employees and the delivery of our services.</p>\n<p>Consequently, the following services will not be available during the following times.</p>\n<p><strong>Saturday, February 24 \u2013 4:00\u00a0p.m. until Sunday, February 25, 2018 - 12:00 p.m. (ET)</strong></p>\n<ul style=\"list-style-type: disc;\">\n<li>All ISB services (e.g., applications, web pages/platforms, email, BlackBerry email) will experience a brief intermittent interruption during this time frame, including:\n\t\n<ul>\n<li>IDVS voice services in Towers 3 - 7 at the National Headquarters for the Agriculture Portfolio (<abbr title=\"National Headquarters for the Agriculture Portfolio\">NHCAP</abbr>):\n\t\t\n<ul>\n<li>Access to 911</li>\n<li>Outbound calls (inbound calls will go to voice mail)</li>\n<li>Access to auto-attendant services</li>\n<li>Access to voice mail</li>\n</ul>\n</li>\n</ul>\n</li>\n</ul>\n<p><strong>Note:</strong> As access to 911 will be interrupted, employees who plan to use Towers 3 - 7 at <abbr title=\"National Headquarters for the Agriculture Portfolio\">NHCAP</abbr> during this timeframe must have a mobile device to ensure health and safety considerations are met. Employees are responsible for ensuring that they have a mobile device available.</p>\n<p>Should you have any questions or concerns, please do not hesitate to contact IT Centre TI.</p>\n<p><strong>IT Centre TI<br>\n</strong>Telephone: 1-855-545-4411<br>\n<a href=\"http://assystweb.agr.gc.ca:8080/assystnet\">My IT Centre TI</a></p>\n<p><img src=\"https://intranet.agr.gc.ca/resources/prod/news/images/ITCentreTI2.png\" class=\"center-block\"></p>\n\n\t\t",
        "fr": "<br>\n<br>\n<p>Veuillez noter qu\u2019un entretien pr\u00e9ventif des services de la Direction g\u00e9n\u00e9rale des syst\u00e8mes d\u2019information aura lieu du samedi 24 f\u00e9vrier 2018 au dimanche 25 f\u00e9vrier 2018.</p>\n<p>Cette interruption est pr\u00e9vue dans le plan de gestion pour la mise \u00e0 niveau de nos syst\u00e8mes d\u2019infrastructure. Ce type d\u2019entretien est effectu\u00e9 r\u00e9guli\u00e8rement afin d\u2019am\u00e9liorer le rendement et de pr\u00e9venir toute panne pouvant avoir des r\u00e9percussions sur les employ\u00e9s et la prestation des services du Minist\u00e8re.</p>\n<p>En cons\u00e9quence, les services suivants ne seront pas accessibles pendant les p\u00e9riodes suivantes :</p>\n<p><strong>Du samedi 24 f\u00e9vrier 2018 \u00e0\u00a016 h au dimanche 25 f\u00e9vrier 2018 \u00e0\u00a012 h (HE)</strong></p>\n<ul>\n<li>Tous les services de la DGSI (p. ex. applications, pages/plateformes Web, courriel, courriel BlackBerry) seront interrompus bri\u00e8vement par intermittence pendant cette p\u00e9riode, dont les suivants :\n\t\n<ul>\n<li>La solution d\u2019interr\u00e9seautage voix-donn\u00e9es dans les tours 3 \u00e0 7 du Complexe de l\u2019administration centrale du portefeuille de l\u2019Agriculture (<abbr title=\"Complexe de l\u2019administration centrale du portefeuille de l\u2019Agriculture\">CACPA</abbr>) :\n\t\t\n<ul>\n<li>Acc\u00e8s au service 911</li>\n<li>Appels sortants (les appels entrants seront enregistr\u00e9s dans le syst\u00e8me de messagerie vocale)</li>\n<li>Acc\u00e8s aux services de r\u00e9ponse automatique</li>\n<li>Acc\u00e8s \u00e0 la messagerie vocale</li>\n</ul>\n</li>\n</ul>\n</li>\n</ul>\n<p><strong>Remarque :</strong> Comme l\u2019acc\u00e8s au service 911 sera interrompu, les employ\u00e9s qui pr\u00e9voient travailler dans les tours 3 \u00e0 7 du <abbr title=\"Complexe de l\u2019administration centrale du portefeuille de l\u2019Agriculture\">CACPA</abbr> pendant cette p\u00e9riode devront avoir un appareil mobile sur eux pour se conformer aux exigences en mati\u00e8re de sant\u00e9 et de s\u00e9curit\u00e9. Il incombe \u00e0 chaque employ\u00e9 d\u2019avoir un appareil mobile \u00e0 sa disposition.</p>\n<p>Si vous avez des questions ou des pr\u00e9occupations \u00e0 ce sujet, n\u2019h\u00e9sitez pas \u00e0 communiquer avec le Centre TI.</p>\n<p><strong>IT Centre TI<br>\n</strong>T\u00e9l\u00e9phone : 1-855-545-4411<br>\n<a href=\"http://assystweb.agr.gc.ca:8080/assystnet\">Mon IT Centre TI</a></p>\n<p><img src=\"https://intranet.agr.gc.ca/resources/prod/news/images/ITCentreTI2.png\" class=\"center-block\"></p>\n\t\t"
    },
    "breadcrumb": {
        "en": "Scheduled Maintenance of ISB Services Including Email and BlackBerry Email - February 24-25",
        "fr": "Entretien pr\u00e9vu des services de la DGSI, y compris les services de courriel et de courriel..."
    },
    "news": {
        "date_posted": {
            "en": "2018-02-21",
            "fr": "2018-02-21"
        },
        "to": {
            "en": "All staff",
            "fr": "Tous les employ\u00e9s"
        },
        "by": {
            "en": "IT Centre TI",
            "fr": "IT Centre TI"
        }
    }
}