{
    "dcr_id": "1519153100138",
    "lang": "en",
    "title": {
        "en": "Political Activities - What Would You Do?",
        "fr": "Activit\u00e9s politiques - Que feriez-vous?"
    },
    "modified": "2018-02-22 00:00:00.0",
    "issued": "2018-02-22 00:00:00.0",
    "type_name": "intra-intra/news-nouv",
    "node_id": "1279030006975",
    "layout_name": null,
    "dc_date_created": "2018-02-20",
    "breadcrumb_label": "",
    "meta": {
        "issued": {
            "en": "2018-02-22",
            "fr": "2018-02-22"
        },
        "modified": {
            "en": "2018-02-22",
            "fr": "2018-02-23"
        },
        "format": {
            "en": "gcformat",
            "fr": "gcformat"
        },
        "title": {
            "en": "Political Activities - What Would You Do?",
            "fr": "Activit\u00e9s politiques - Que feriez-vous?"
        },
        "subject": {
            "en": "communications",
            "fr": "communications"
        },
        "description": {
            "en": "As part of the Values and Ethics Awareness Month, we continue to focus on topics that emphasize the Public Service values in line with our theme, <i>What Would You Do?</i>",
            "fr": "Dans le cadre du Mois de la sensibilisation aux valeurs et \u00e0 l'\u00e9thique, nous continuons de mettre l'accent sur des sujets qui font ressortir les valeurs de la fonction publique li\u00e9es \u00e0 notre th\u00e8me, <i>Que feriez-vous?</i>"
        },
        "language": {
            "en": "eng",
            "fr": "fra"
        },
        "audience": {
            "en": "gcaudience",
            "fr": "gcaudience"
        },
        "creator": {
            "en": "Agriculture and Agri-Food Canada",
            "fr": "Agriculture et Agroalimentaire Canada"
        },
        "spatial": {
            "en": "gcregions",
            "fr": "gcregions"
        },
        "service": {
            "en": "AAFC_AgriSource",
            "fr": "AAC_AgriSource"
        },
        "accessRights": {
            "en": "3",
            "fr": "3"
        }
    },
    "body": {
        "en": "<br>\n<br>\n<p>As part of the Values and Ethics Awareness Month, we continue to focus on topics that emphasize the Public Service values in line with our theme, <em>What Would You Do?</em></p>\n<h2><em>What would you do if\u2026</em></h2>\n<p><em>\n<em>Your brother is a candidate in an upcoming provincial election and he asks you to write his campaign speech?</em></em></p>\n<p>\nAs a public servant, you have the right to engage in political activities; however, this right must be balanced with your responsibility to maintain the political impartiality of the federal Public Service by maintaining public confidence in its integrity and professionalism.</p>\n<p>\nTo make an informed decision about whether to engage in a specific non-candidacy political activity, consider:</p>\n<ul>\n<li>the nature of the political activity;</li>\n<li>the nature of your duties at the department;</li>\n<li>the level and visibility of your position at AAFC; and</li>\n<li>your personal or professional visibility in the community.</li>\n</ul>\n<p>You should also consider how these factors interact with each other in light of your specific circumstances.</p>\n<h2>\n<strong>Learn more</strong></h2>\n<p>\nThe Public Service Commission provides guidance on the participation of public service employees in <a href=\"https://www.canada.ca/en/public-service-commission/services/political-activities.html\">political activities</a>, including:</p>\n<ul>\n<li><a href=\"http://www2.psc-cfp.gc.ca/pat-oap/intro.do\">Political Activities Self-Assessment Tool</a></li>\n<li><a href=\"https://www.canada.ca/en/public-service-commission/services/political-activities/political-activities-not-related-candidacy.html\">Political activities not related to candidacy</a></li>\n</ul>\n<p>For more information, speak to your manager and/or consult the <a href=\"https://www.canada.ca/en/public-service-commission/corporate/about-us/contact-us.html\">Public Service Commission</a>, or contact an AAFC designated political activities representatives by email at <a href=\"mailto:politicalactivities-activitespolitiques@agr.gc.ca\">politicalactivities-activitespolitiques@agr.gc.ca</a> or by phone at 1-866-894-5464 (toll-free).</p>\n<p>\u00a0</p>\n<p><img src=\"https://intranet.agr.gc.ca/resources/prod/news/images/VEMonth2-EN.png\" class=\"center-block\"></p>\n\n\t\t",
        "fr": "<br>\n<br>\n<p>Dans le cadre du Mois de la sensibilisation aux valeurs et \u00e0 l\u2019\u00e9thique, nous continuons de mettre l\u2019accent sur des sujets qui font ressortir les valeurs de la fonction publique li\u00e9es \u00e0 notre th\u00e8me, <em>Que feriez-vous?</em></p>\n<h2>\n<em>Que feriez-vous si\u2026</em></h2>\n<p><em><em>Votre fr\u00e8re se pr\u00e9sente comme candidat \u00e0 une prochaine \u00e9lection provinciale et il vous demande de r\u00e9diger son discours de campagne?</em></em></p>\n<p>\nEn tant que fonctionnaire, vous avez le droit de prendre part \u00e0 des activit\u00e9s politiques; cependant, ce droit ne doit pas aller \u00e0 l\u2019encontre de votre devoir de pr\u00e9server l\u2019impartialit\u00e9 politique de la fonction publique f\u00e9d\u00e9rale en maintenant la confiance du public \u00e0 l'\u00e9gard de l\u2019int\u00e9grit\u00e9 et du professionnalisme de celle-ci.</p>\n<p>\nPour prendre une d\u00e9cision \u00e9clair\u00e9e quant \u00e0 la pertinence de participer \u00e0 une activit\u00e9 politique non li\u00e9e \u00e0 une candidature \u00e9lectorale, vous devez consid\u00e9rer :</p>\n<ul>\n<li>la nature d\u2019activit\u00e9 politique;</li>\n<li>la nature de vos fonctions au minist\u00e8re;</li>\n<li>le niveau et le degr\u00e9 de visibilit\u00e9 de votre poste \u00e0 AAC; et</li>\n<li>votre visibilit\u00e9 personnelle ou professionnelle dans la communaut\u00e9.</li>\n</ul>\n<p>Vous devez \u00e9galement tenir compte comment ces facteurs interagissent les uns avec les autres dans votre situation particuli\u00e8re.</p>\n<h2>\n<strong>Pour en savoir plus</strong></h2>\n<p>\nLa Commission de la fonction publique fournit des conseils sur la participation des employ\u00e9s de la fonction publique aux <a href=\"https://www.canada.ca/fr/commission-fonction-publique/services/activites-politiques.html\">activit\u00e9s politiques</a>, notamment les suivants\u00a0:</p>\n<ul>\n<li><a href=\"http://www2.psc-cfp.gc.ca/pat-oap/intro.do\">Outil d'auto\u00e9valuation des activit\u00e9s politiques</a></li>\n<li><a href=\"https://www.canada.ca/fr/commission-fonction-publique/services/activites-politiques/document-orientation-participation-activites-politiques-non-liees-candidature.html\">Activit\u00e9s politiques non li\u00e9es \u00e0 une candidature</a></li>\n</ul>\n<p>\n<span style=\"display: none;\" id=\"cke_bm_295E\">\u00a0</span>Pour plus d\u2019information, consultez votre gestionnaire et/ou la<strong> </strong><a href=\"https://www.canada.ca/fr/commission-fonction-publique/organisation/propos-nous/contactez-nous.html\">Commission de la fonction publique</a>, ou communiquez avec un repr\u00e9sentant d\u00e9sign\u00e9 d\u2019AAC pour les activit\u00e9s politiques par courriel \u00e0 <a href=\"mailto:politicalactivities-activitespolitiques@agr.gc.ca\">politicalactivities-activitespolitiques@agr.gc.ca</a> ou au num\u00e9ro sans frais 1-866-894-5464.</p>\n<p>\u00a0</p>\n<p><img src=\"https://intranet.agr.gc.ca/resources/prod/news/images/VEMonth2-FR.png\" class=\"center-block\"></p>\n\t\t"
    },
    "breadcrumb": {
        "en": "Political Activities - What Would You Do?",
        "fr": "Activit\u00e9s politiques - Que feriez-vous?"
    },
    "news": {
        "date_posted": {
            "en": "2018-02-22",
            "fr": "2018-02-22"
        },
        "to": {
            "en": "All staff",
            "fr": "Tous les employ\u00e9s"
        },
        "by": {
            "en": "Human Resources, Corporate Management Branch",
            "fr": "Ressources humaines, Direction g\u00e9n\u00e9rale de la gestion int\u00e9gr\u00e9e"
        }
    }
}