{
    "dcr_id": "1521835541494",
    "lang": "en",
    "title": {
        "en": "Improvements to AgriSource Main Menu",
        "fr": "Am\u00e9liorations apport\u00e9es au menu principal d'AgriSource"
    },
    "modified": "2018-03-29 00:00:00.0",
    "issued": "2018-03-29 00:00:00.0",
    "type_name": "intra-intra/news-nouv",
    "node_id": "1279030006975",
    "layout_name": null,
    "dc_date_created": "2018-03-26",
    "breadcrumb_label": "",
    "meta": {
        "issued": {
            "en": "2018-03-29",
            "fr": "2018-03-29"
        },
        "modified": {
            "en": "2018-03-29",
            "fr": "2018-03-29"
        },
        "format": {
            "en": "gcformat",
            "fr": "gcformat"
        },
        "title": {
            "en": "Improvements to AgriSource Main Menu",
            "fr": "Am\u00e9liorations apport\u00e9es au menu principal d'AgriSource"
        },
        "subject": {
            "en": "communications",
            "fr": "communications"
        },
        "description": {
            "en": "The Public Affairs Branch is continuing to enhance AgriSource, making it easier to use and find the information you are looking for.",
            "fr": "La Direction g\u00e9n\u00e9rale des affaires publiques continue d'am\u00e9liorer AgriSource pour en faciliter l'utilisation et vous aider \u00e0 trouver ce que vous cherchez plus ais\u00e9ment."
        },
        "language": {
            "en": "eng",
            "fr": "fra"
        },
        "audience": {
            "en": "gcaudience",
            "fr": "gcaudience"
        },
        "creator": {
            "en": "Agriculture and Agri-Food Canada",
            "fr": "Agriculture et Agroalimentaire Canada"
        },
        "spatial": {
            "en": "gcregions",
            "fr": "gcregions"
        },
        "service": {
            "en": "AAFC_AgriSource",
            "fr": "AAC_AgriSource"
        },
        "accessRights": {
            "en": "3",
            "fr": "3"
        }
    },
    "body": {
        "en": "<br>\n<br>\n<p>The Public Affairs Branch is continuing to enhance AgriSource, making it easier to use and find the information you are looking for. Based on feedback employees provided in the recent AgriSource survey, the main menu has been updated to include two new tabs: \u201cNews\u201d and \u201cFind People and Collaborate\u201d.</p>\n<p>The \u201cNews\u201d menu brings together, in one place, key sources of information (news@work, news clippings, news releases and more) so you can stay on top of the latest departmental initiatives and announcements.</p>\n<p>Under \u201cFind People and Collaborate\u201d, you will find tools for participating in a connected and cooperative work place, such as employee directories, GCconnex, and GCpedia. These tools will help us work collaboratively within the department and across the Government of Canada.</p>\n<p>The new menu tabs are a first step in adjusting the way AgriSource is set up to ensure the most commonly used tasks and services are easier to find. Stay tuned for more information in the coming months.</p>\n<p>If you have any feedback, please share it with us (<a href=\"mailto:aafc-ecommunications.commselectroniques-aac@canada.ca\">aafc-ecommunications.commselectroniques-aac@canada.ca</a>).</p>\n\n\t\t",
        "fr": "<br>\n<br>\n<p>La Direction g\u00e9n\u00e9rale des affaires publiques continue d\u2019am\u00e9liorer AgriSource pour en faciliter l\u2019utilisation et vous aider \u00e0 trouver ce que vous cherchez plus ais\u00e9ment. Apr\u00e8s examen des r\u00e9ponses des employ\u00e9s au r\u00e9cent sondage sur AgriSource, nous avons ajout\u00e9 deux rubriques au menu principal : \u00ab Nouvelles \u00bb et \u00ab Trouver des gens et collaborer \u00bb.</p>\n<p>La rubrique \u00ab Nouvelles \u00bb r\u00e9unit en un seul endroit d\u2019importantes sources d\u2019information (nouvelles@l\u2019ouvrage, coupures de presse, communiqu\u00e9s et plus encore) afin que vous puissiez demeurer au courant des plus r\u00e9centes initiatives et\u00a0annonces du Minist\u00e8re.</p>\n<p>Sous la rubrique \u00ab Trouver des gens et collaborer \u00bb, vous trouverez des outils pour\u00a0participer \u00e0 un environnement de travail ax\u00e9 sur la collaboration, comme les r\u00e9pertoires d\u2019employ\u00e9s, GCconnex et GCp\u00e9dia. Ces outils nous aideront \u00e0 collaborer au sein du Minist\u00e8re et \u00e0 l\u2019\u00e9chelle du gouvernement du Canada.</p>\n<p>Les nouvelles rubriques sont une premi\u00e8re \u00e9tape dans la r\u00e9organisation d\u2019AgriSource, dont le but est de permettre de trouver plus facilement les t\u00e2ches et les services les plus utilis\u00e9s. D\u2019autres pr\u00e9cisions seront fournies au cours des prochains mois.</p>\n<p>Si vous avez des commentaires \u00e0 ce sujet, veuillez nous les communiquer \u00e0 <a href=\"mailto:aafc-ecommunications.commselectroniques-aac@canada.ca\">aafc-ecommunications.commselectroniques-aac@canada.ca</a>.</p>\n<p>\u00a0</p>\n\t\t"
    },
    "breadcrumb": {
        "en": "Improvements to AgriSource Main Menu",
        "fr": "Am\u00e9liorations apport\u00e9es au menu principal d'AgriSource"
    },
    "news": {
        "date_posted": {
            "en": "2018-03-29",
            "fr": "2018-03-29"
        },
        "to": {
            "en": "All staff",
            "fr": "Tous les employ\u00e9s"
        },
        "by": {
            "en": "Public Affairs Branch",
            "fr": "Direction g\u00e9n\u00e9rale des affaires publiques"
        }
    }
}