{
    "dcr_id": "1521561836729",
    "lang": "en",
    "title": {
        "en": "This Week in The Harvest - Public Photos Help Scientists Identify New Beetle ",
        "fr": "Au menu de La Moisson cette semaine - Des photos prises par le public aident les chercheurs \u00e0 identifier un nouveau col\u00e9opt\u00e8re"
    },
    "modified": "2018-03-22 00:00:00.0",
    "issued": "2018-03-22 00:00:00.0",
    "type_name": "intra-intra/news-nouv",
    "node_id": "1279030006975",
    "layout_name": null,
    "dc_date_created": "2018-03-20",
    "breadcrumb_label": "",
    "meta": {
        "issued": {
            "en": "2018-03-22",
            "fr": "2018-03-22"
        },
        "modified": {
            "en": "2018-03-22",
            "fr": "2018-03-22"
        },
        "format": {
            "en": "gcformat",
            "fr": "gcformat"
        },
        "title": {
            "en": "This Week in The Harvest - Public Photos Help Scientists Identify New Beetle ",
            "fr": "Au menu de La Moisson cette semaine - Des photos prises par le public aident les chercheurs \u00e0 identifier un nouveau col\u00e9opt\u00e8re"
        },
        "subject": {
            "en": "communications",
            "fr": "communications"
        },
        "description": {
            "en": "In case you missed it, here's what's new in The Harvest this week.",
            "fr": "Au cas o\u00f9 vous l'auriez manqu\u00e9, voici le menu que la section La Moisson vous offre cette semaine."
        },
        "language": {
            "en": "eng",
            "fr": "fra"
        },
        "audience": {
            "en": "gcaudience",
            "fr": "gcaudience"
        },
        "creator": {
            "en": "Agriculture and Agri-Food Canada",
            "fr": "Agriculture et Agroalimentaire Canada"
        },
        "spatial": {
            "en": "gcregions",
            "fr": "gcregions"
        },
        "service": {
            "en": "AAFC_AgriSource",
            "fr": "AAC_AgriSource"
        },
        "accessRights": {
            "en": "3",
            "fr": "3"
        }
    },
    "body": {
        "en": "<br>\n<br>\n<p>In case you missed it, here\u2019s what\u2019s new in <a href=\"https://collab.agr.gc.ca/apps/harvest-moisson\">The Harvest</a> this week:</p>\n<p><strong>Feature story: </strong><a href=\"https://collab.agr.gc.ca/apps/harvest-moisson/\">Public Photos Help Scientists Identify New Beetle </a> \u2013 The number of digital photos of insects uploaded by the public to online communities, such as BugGuide.net, is increasing. This \u201ccrowdsource\u201d public data is helping AAFC scientists detect new insect species in Canada and document their potential spread throughout the country. </p>\n<p><strong>Quiz: </strong><a href=\"https://collab.agr.gc.ca/apps/harvest-moisson\">Approximately how many litres of sap are needed to make 1L of maple syrup?</a></p>\n<p><strong>Feature photo:</strong> <a href=\"https://collab.agr.gc.ca/apps/harvest-moisson/gallery/Lists/Posts/Post.aspx?ID=144\">Sundog in Winnipeg</a>, By Wanda Trent, Corporate Management Branch, Winnipeg, Manitoba.</p>\n<p><strong>Did you know?</strong> <a href=\"https://collab.agr.gc.ca/apps/harvest-moisson/Pages/DidYouKnow.aspx\">Rice does not need to grow in water, but since it can survive in water, it is planted in it to control weeds and other pests, creating higher yields.</a></p>\n<p>You can get involved by posting a comment or \u201cliking\u201d an article. You can also check out what your colleagues are liking and saying.</p>\n<p>Should you have story ideas, scenic or artistic agriculture-related photos, or interesting facts, please share them with us by clicking on \u201cContribute\u201d in the top menu bar.</p>\n<p><img src=\"https://intranet.agr.gc.ca/resources/prod/news/images/HarvestBeetle.png\" class=\"center-block\" alt=\"Beetle\"></p>\n\n\t\t",
        "fr": "<br>\n<br>\n<p>Au cas o\u00f9 vous l\u2019auriez manqu\u00e9, voici le menu que la section <a href=\"https://collab.agr.gc.ca/apps/harvest-moisson\">La Moisson</a> vous offre cette semaine :</p>\n<p><strong>Article vedette :</strong> <a href=\"https://collab.agr.gc.ca/apps/harvest-moisson/\">Des photos prises par le public aident les chercheurs \u00e0 identifier un nouveau col\u00e9opt\u00e8re</a><strong> </strong>\u2013\u00a0Le nombre de photos num\u00e9riques d\u2019insectes mises en ligne par le public sur des sites comme BugGuide.net est en hausse. Ces photos obtenues par \u00ab\u00a0collaboration\u00a0\u00bb aident les chercheurs d\u2019AAC \u00e0 d\u00e9tecter les nouvelles esp\u00e8ces d\u2019insectes au Canada et \u00e0 consigner des renseignements sur leur propagation \u00e9ventuelle dans l\u2019ensemble du pays.</p>\n<p><strong>Sondage : </strong><a href=\"https://collab.agr.gc.ca/apps/harvest-moisson\">Environ combien de litres de s\u00e8ve faut-il pour produire un litre de sirop d\u2019\u00e9rable?</a></p>\n<p><strong>Photo vedette :</strong> <a href=\"https://collab.agr.gc.ca/apps/harvest-moisson/gallery/Lists/Posts/Post.aspx?ID=144\">Faux soleil \u00e0 Winnipeg</a>, Par<em> </em>Wanda Trent, Direction g\u00e9n\u00e9rale de la gestion int\u00e9gr\u00e9e, Winnipeg (Manitoba).</p>\n<p><strong>Le saviez-vous?</strong> <a href=\"https://collab.agr.gc.ca/apps/harvest-moisson/Pages/DidYouKnow.aspx\">Le riz n\u2019a pas besoin de pousser dans l\u2019eau, mais comme il peut survivre dans l\u2019eau, on le plante dans celle-ci pour lutter contre les mauvaises herbes et d\u2019autres organismes nuisibles, ce qui donne de meilleurs rendements.</a></p>\n<p>Vous pouvez participer en affichant des commentaires ou en utilisant la fonction \u00ab J\u2019aime \u00bb ou \u00ab Partager \u00bb pour exprimer votre appr\u00e9ciation d\u2019un article. Vous pouvez aussi aller voir ce que vos coll\u00e8gues aiment et ont \u00e0 dire.</p>\n<p>Si vous avez des id\u00e9es d\u2019articles, des photos de paysages ou \u00e0 caract\u00e8re artistique li\u00e9es \u00e0 l\u2019agriculture ou encore des faits int\u00e9ressants, veuillez nous en faire part en cliquant sur \u00ab Collaborer \u00bb dans la barre de menu en haut de la page.</p>\n<p><img src=\"https://intranet.agr.gc.ca/resources/prod/news/images/HarvestBeetle.png\" class=\"center-block\" alt=\"Un col\u00e9opt\u00e8re\"></p>\n\t\t"
    },
    "breadcrumb": {
        "en": "This Week in The Harvest - Public Photos Help Scientists Identify New Beetle",
        "fr": "Au menu de La Moisson cette semaine - Des photos prises par le public aident les chercheurs \u00e0 identifier un nouveau col\u00e9opt\u00e8re"
    },
    "news": {
        "date_posted": {
            "en": "2018-03-22",
            "fr": "2018-03-22"
        },
        "to": {
            "en": "All staff",
            "fr": "Tous les employ\u00e9s"
        },
        "by": {
            "en": "Corporate Communications, Public Affairs Branch",
            "fr": "Communications minist\u00e9rielles, Direction g\u00e9n\u00e9rale des affaires publiques"
        }
    }
}