{
    "dcr_id": "1522182373644",
    "lang": "en",
    "title": {
        "en": "2018 Canadian Agricultural Outlook Now Available",
        "fr": "Le rapport Perspectives agricoles canadiennes 2018 est maintenant disponible"
    },
    "modified": "2018-03-29 00:00:00.0",
    "issued": "2018-03-29 00:00:00.0",
    "type_name": "intra-intra/news-nouv",
    "node_id": "1279030006975",
    "layout_name": null,
    "dc_date_created": "2018-03-27",
    "breadcrumb_label": "",
    "meta": {
        "issued": {
            "en": "2018-03-29",
            "fr": "2018-03-29"
        },
        "modified": {
            "en": "2018-03-29",
            "fr": "2018-03-29"
        },
        "format": {
            "en": "gcformat",
            "fr": "gcformat"
        },
        "title": {
            "en": "2018 Canadian Agricultural Outlook Now Available",
            "fr": "Le rapport Perspectives agricoles canadiennes 2018 est maintenant disponible"
        },
        "subject": {
            "en": "communications",
            "fr": "communications"
        },
        "description": {
            "en": "On March 27, AAFC released the 2018 Canadian Agricultural Outlook which shows Canada's agriculture and food industry is well positioned for continued success.",
            "fr": "Le 27 mars, AAC a publi\u00e9 les Perspectives agricoles canadiennes 2018, qui montrent que le secteur agroalimentaire du Canada est dans une position favorable pour continuer de prosp\u00e9rer."
        },
        "language": {
            "en": "eng",
            "fr": "fra"
        },
        "audience": {
            "en": "gcaudience",
            "fr": "gcaudience"
        },
        "creator": {
            "en": "Agriculture and Agri-Food Canada",
            "fr": "Agriculture et Agroalimentaire Canada"
        },
        "spatial": {
            "en": "gcregions",
            "fr": "gcregions"
        },
        "service": {
            "en": "AAFC_AgriSource",
            "fr": "AAC_AgriSource"
        },
        "accessRights": {
            "en": "3",
            "fr": "3"
        }
    },
    "body": {
        "en": "<br>\n<br>\n<p>On March 27, AAFC released the 2018 Canadian Agricultural Outlook which shows Canada\u2019s agriculture and food industry is well positioned for continued success.</p>\n<p>This report, prepared in consultation with provincial governments and Statistics Canada, provides a forecast of farm income for 2017 and 2018. It also looks ahead to longer term trends that could impact the sector.</p>\n<p>Net Cash Income is forecast to increase by five percent in 2017 to a new record, while 2018 would be the second largest on record. Net Worth per farm is also forecast to increase to record levels.</p>\n<p>For highlights of the report, visit the <a href=\"http://www.agr.gc.ca/eng/about-us/publications/economic-publications/2018-canadian-agricultural-outlook/?id=1522075641095\">2018 Canadian Agricultural Outlook</a> page, or <a href=\"https://intranet.agr.gc.ca/agrisource/AgriDoc.do?id=103983285&amp;lang=eng\" target=\"_blank\">view the full report</a>.</p>\n<p>\u00a0</p>\n<p>\n<img src=\"https://intranet.agr.gc.ca/resources/prod/news/images/AgOutlookHighlights-EN.png\" class=\"center-block\"></p>\n\n\t\t",
        "fr": "<br>\n<br>\n<p>Le 27 mars, AAC a publi\u00e9 les Perspectives agricoles canadiennes 2018, qui montrent que le secteur agroalimentaire du Canada est dans une position favorable pour continuer de prosp\u00e9rer.</p>\n<p>Le rapport, qui est pr\u00e9par\u00e9 avec la collaboration des gouvernements provinciaux et de Statistique Canada, fournit des pr\u00e9visions sur le revenu agricole pour 2017 et 2018, en plus d'envisager les tendances \u00e0 long terme qui pourraient avoir une incidence sur le secteur agricole.</p>\n<p>Il est pr\u00e9vu que le revenu mon\u00e9taire net augmentera de cinq pour cent en 2017 pour atteindre un nouveau record et qu\u2019en 2018 il atteindra le deuxi\u00e8me sommet record jamais enregistr\u00e9. La valeur nette de l\u2019exploitation agricole moyenne devrait aussi atteindre un sommet record.</p>\n<p>Pour conna\u00eetre les points saillants du rapport, visitez la page <a href=\"http://www.agr.gc.ca/fra/a-propos-de-nous/publications/publications-economiques/perspectives-agricoles-canadiennes-2018/?id=1522075641095\">Perspectives agricoles canadiennes 2018</a>\u00a0ou <a href=\"https://intranet.agr.gc.ca/agrisource/AgriDoc.do?id=103983287&amp;lang=fra\" target=\"_blank\">consultez le rapport</a>.</p>\n<p>\u00a0</p>\n<p><img src=\"https://intranet.agr.gc.ca/resources/prod/news/images/AgOutlookHighlights-FR.png\" class=\"center-block\"></p>\n\t\t"
    },
    "breadcrumb": {
        "en": "2018 Canadian Agricultural Outlook Now Available",
        "fr": "Le rapport Perspectives agricoles canadiennes 2018 est maintenant disponible"
    },
    "news": {
        "date_posted": {
            "en": "2018-03-29",
            "fr": "2018-03-29"
        },
        "to": {
            "en": "All staff",
            "fr": "Tous les employ\u00e9s"
        },
        "by": {
            "en": "Research and Analysis Directorate, Strategic Policy Branch",
            "fr": "Direction de la recherche et de l'analyse, Direction g\u00e9n\u00e9rale des politiques strat\u00e9giques"
        }
    }
}