{
    "dcr_id": "1522335332751",
    "lang": "en",
    "title": {
        "en": "Message from the Clerk: The results of the Public Service Employee Survey are in!",
        "fr": "Message du greffier : Les r\u00e9sultats du Sondage aupr\u00e8s des fonctionnaires f\u00e9d\u00e9raux de 2017 sont maintenant disponibles!"
    },
    "modified": "2018-03-29 00:00:00.0",
    "issued": "2018-03-29 00:00:00.0",
    "type_name": "intra-intra/news-nouv",
    "node_id": "1279030006975",
    "layout_name": null,
    "dc_date_created": "2018-03-29",
    "breadcrumb_label": "",
    "meta": {
        "issued": {
            "en": "2018-03-29",
            "fr": "2018-03-29"
        },
        "modified": {
            "en": "2018-03-29",
            "fr": "2018-03-29"
        },
        "format": {
            "en": "gcformat",
            "fr": "gcformat"
        },
        "title": {
            "en": "Message from the Clerk: The results of the Public Service Employee Survey are in!",
            "fr": "Message du greffier : Les r\u00e9sultats du Sondage aupr\u00e8s des fonctionnaires f\u00e9d\u00e9raux de 2017 sont maintenant disponibles!"
        },
        "subject": {
            "en": "communications",
            "fr": "communications"
        },
        "description": {
            "en": "The results of the 2017 Public Service Employee Survey were released on March 29, 2018.",
            "fr": "Les r\u00e9sultats du Sondage aupr\u00e8s des fonctionnaires f\u00e9d\u00e9raux de 2017 ont \u00e9t\u00e9 publi\u00e9s le 29 mars 2018."
        },
        "language": {
            "en": "eng",
            "fr": "fra"
        },
        "audience": {
            "en": "gcaudience",
            "fr": "gcaudience"
        },
        "creator": {
            "en": "Agriculture and Agri-Food Canada",
            "fr": "Agriculture et Agroalimentaire Canada"
        },
        "spatial": {
            "en": "gcregions",
            "fr": "gcregions"
        },
        "service": {
            "en": "AAFC_AgriSource",
            "fr": "AAC_AgriSource"
        },
        "accessRights": {
            "en": "3",
            "fr": "3"
        }
    },
    "body": {
        "en": "<br>\n<br>\n<p>The results of the <a href=\"https://www.canada.ca/en/treasury-board-secretariat/services/innovation/public-service-employee-survey.html\">2017 Public Service Employee Survey</a> were released on March 29, 2018. More than 60% of you shared your perspectives on your workplace culture, well-being, leadership, and personal level of engagement. Thank you for taking the time to participate.</p>\n<p>The results of the survey provide valuable insights into our strengths and the areas where there is room for improvement. We are pleased to see encouraging trends regarding the use of official languages, job satisfaction, and career development. More of you also feel you can be innovative and take initiative at work, a positive sign that we are becoming more open to new ways of working.</p>\n<p>For the first time, the survey included questions about the impact the pay system is having on public servants like yourself. The results confirm the challenges we face and the unacceptable emotional and financial hardship the pay system has had, and continues to have, on you and your families. Please know that many dedicated public servants are working hard to address the pay issues, and that your senior leadership is fully committed to providing assistance and support when and where it is needed. We are also analyzing the root causes of the problems and lessons learned to prevent this type of failure from happening again.</p>\n<p>The results regarding harassment and discrimination continue to underscore the need to have the right tools, policies, and supports in place. As we have said before, harassment has no place in the Public Service. We must all continue to work together to create a healthy, harassment-free, diverse, and inclusive workplace. The new Centre on Diversity, Inclusion and Wellness within the Public Service, announced in Budget 2018, will support your departments and agencies in doing just that.</p>\n<p>In the coming weeks, your managers and senior leaders will closely study the survey results and identify ways to address the findings. This work will only help strengthen our already strong and proud public service.</p>\n<p>Sincerely,</p>\n<p>\u00a0</p>\n<p><strong>Michael Wernick</strong><br>\nClerk of the Privy Council and Secretary to Cabinet</p>\n<p><strong>Anne Marie Smart</strong><br>\nChief Human Resources Officer</p>\n\n\t\t",
        "fr": "<br>\n<br>\n<p>Les r\u00e9sultats du <a href=\"https://www.canada.ca/fr/secretariat-conseil-tresor/services/innovation/sondage-fonctionnaires-federaux.html\">Sondage aupr\u00e8s des fonctionnaires f\u00e9d\u00e9raux de 2017</a> ont \u00e9t\u00e9 publi\u00e9s le 29 mars 2018. Plus de 60 % d'entre vous ont partag\u00e9 vos points de vue sur la culture, le bien-\u00eatre, le leadership et le niveau d'engagement personnel envers votre milieu de travail. Merci d'avoir pris le temps de participer.</p>\n<p>Les r\u00e9sultats de l'enqu\u00eate fournissent de pr\u00e9cieuses indications sur nos forces et les domaines dans lesquels des am\u00e9liorations sont possibles. Nous sommes heureux de constater des tendances encourageantes en ce qui concerne l'utilisation des langues officielles, la satisfaction au travail et le d\u00e9veloppement de carri\u00e8re. De plus en plus d'entre vous \u00eates d'avis que vous pouvez innover au travail et prendre l'initiative, un signe positif que nous devenons plus ouverts \u00e0 de nouvelles fa\u00e7ons de travailler.</p>\n<p>Pour la premi\u00e8re fois, le sondage comprenait des questions sur l'impact du syst\u00e8me de r\u00e9mun\u00e9ration sur les fonctionnaires. Les r\u00e9sultats sont venus confirmer l'ampleur du d\u00e9fi auquel nous sommes confront\u00e9s ainsi que l'\u00e9tendue des difficult\u00e9s \u00e9motionnelles et financi\u00e8res inacceptables que le syst\u00e8me de r\u00e9mun\u00e9ration continue de cr\u00e9er pour vous et vos familles. Sachez que de nombreux fonctionnaires d\u00e9vou\u00e9s travaillent d'arrache-pied pour r\u00e9gler les probl\u00e8mes de r\u00e9mun\u00e9ration, et que votre haute direction est pleinement d\u00e9termin\u00e9e \u00e0 fournir de l'aide et du soutien quand et o\u00f9 cela est n\u00e9cessaire. Nous analysons \u00e9galement les causes profondes des probl\u00e8mes et les le\u00e7ons apprises pour \u00e9viter que ce type d'\u00e9chec ne se reproduise.</p>\n<p>Les r\u00e9sultats concernant le harc\u00e8lement et la discrimination continuent de mettre en \u00e9vidence la n\u00e9cessit\u00e9 de faire en sorte que les bons outils, politiques et soutiens sont en place. Comme nous l'avons d\u00e9j\u00e0 dit, le harc\u00e8lement n'a pas sa place dans la fonction publique. Nous devons tous continuer \u00e0 travailler ensemble pour cr\u00e9er un milieu de travail sain, exempt de harc\u00e8lement, diversifi\u00e9 et inclusif. Le nouveau Centre pour la diversit\u00e9, l'inclusion et le mieux-\u00eatre dans la fonction publique, annonc\u00e9 dans le budget de 2018, aidera vos minist\u00e8res et organismes \u00e0 atteindre cet objectif.</p>\n<p>Au cours des prochaines semaines, vos gestionnaires et vos hauts dirigeants \u00e9tudieront de pr\u00e8s les r\u00e9sultats du sondage et trouveront des fa\u00e7ons d'aborder les r\u00e9sultats. Ce travail ne fera qu'aider \u00e0 renforcer notre fonction publique forte et fi\u00e8re.</p>\n<p>Sinc\u00e8rement,</p>\n<p>\u00a0</p>\n<p><strong>Michael Wernick</strong><br>\nGreffier du Conseil priv\u00e9 et secr\u00e9taire du Cabinet</p>\n<p><strong>Anne Marie Smart</strong><br>\nDirigeante principale des ressources humaines</p>\n\t\t"
    },
    "breadcrumb": {
        "en": "Message from the Clerk: The results of the Public Service Employee Survey are in!",
        "fr": "Message du greffier : Les r\u00e9sultats du Sondage aupr\u00e8s des fonctionnaires f\u00e9d\u00e9raux de 2017 sont maintenant disponibles!"
    },
    "news": {
        "date_posted": {
            "en": "2018-03-29",
            "fr": "2018-03-29"
        },
        "to": {
            "en": "All staff",
            "fr": "Tous les employ\u00e9s"
        },
        "by": {
            "en": "Michael Wernick, Clerk of the Privy Council and Secretary to Cabinet, and Anne Marie Smart, Chief Human Resources Officer",
            "fr": "Michael Wernick, Greffier du Conseil priv\u00e9 et secr\u00e9taire du Cabinet, et Anne Marie Smart, Dirigeante principale des ressources humaines"
        }
    }
}