{
    "dcr_id": "1522097717415",
    "lang": "en",
    "title": {
        "en": "Reminder - NCR - NHCAP - Testing of Fire Alarms",
        "fr": "Rappel - RCN - CACPA - V\u00e9rification de l'alarme-incendie"
    },
    "modified": "2018-04-04 00:00:00.0",
    "issued": "2018-03-29 00:00:00.0",
    "type_name": "intra-intra/news-nouv",
    "node_id": "1279030006975",
    "layout_name": null,
    "dc_date_created": "2018-03-27",
    "breadcrumb_label": "",
    "meta": {
        "issued": {
            "en": "2018-03-29",
            "fr": "2018-03-29"
        },
        "modified": {
            "en": "2018-04-04",
            "fr": "2018-04-04"
        },
        "format": {
            "en": "gcformat",
            "fr": "gcformat"
        },
        "title": {
            "en": "Reminder - NCR - NHCAP - Testing of Fire Alarms",
            "fr": "Rappel - RCN - CACPA - V\u00e9rification de l'alarme-incendie"
        },
        "subject": {
            "en": "communications",
            "fr": "communications"
        },
        "description": {
            "en": "This notice is to advise you of the Audible Fire Alarm Testing Friday, April 6, 2018 at 10:00 a.m.",
            "fr": "Le pr\u00e9sent avis a pour but de vous informer de la v\u00e9rification de l'alarme-incendie avec signal sonore \u00e0 10 h, le vendredi 6 avril 2018."
        },
        "language": {
            "en": "eng",
            "fr": "fra"
        },
        "audience": {
            "en": "gcaudience",
            "fr": "gcaudience"
        },
        "creator": {
            "en": "Agriculture and Agri-Food Canada",
            "fr": "Agriculture et Agroalimentaire Canada"
        },
        "spatial": {
            "en": "gcregions",
            "fr": "gcregions"
        },
        "service": {
            "en": "AAFC_AgriSource",
            "fr": "AAC_AgriSource"
        },
        "accessRights": {
            "en": "3",
            "fr": "3"
        }
    },
    "body": {
        "en": "<br>\n<br>\n<p>This notice is to advise you of the Audible Fire Alarm Testing Friday, April 6, 2018 at 10:00 a.m.</p>\n<p>Details of the tests are outlined in the\u00a0<a href=\"https://intranet.agr.gc.ca/agrisource/AgriDoc.do?id=103985853&amp;lang=eng\" target=\"_blank\">Maple Leaf Property Management notice</a>.</p>\n<p><img src=\"https://intranet.agr.gc.ca/resources/prod/news/images/TestingFireAlarms.png\" class=\"center-block\"></p>\n\n\t\t",
        "fr": "<br>\n<br>\n<p>Le pr\u00e9sent avis a pour but de vous informer de la v\u00e9rification de l\u2019alarme-incendie avec signal sonore \u00e0 10 h, le vendredi 6 avril 2018.</p>\n<p>Les d\u00e9tails de la v\u00e9rification sont pr\u00e9cis\u00e9s dans\u00a0<a href=\"https://intranet.agr.gc.ca/agrisource/AgriDoc.do?id=103985853&amp;lang=fra\" target=\"_blank\">l'annonce de Maple Leaf Property Management</a>.</p>\n<p><img src=\"https://intranet.agr.gc.ca/resources/prod/news/images/TestingFireAlarms.png\" class=\"center-block\"></p>\n\t\t"
    },
    "breadcrumb": {
        "en": "NCR - Reminder - NCR - NHCAP - Testing of Fire Alarms",
        "fr": "RCN - Rappel - RCN - CACPA - V\u00e9rification de l'alarme-incendie"
    },
    "news": {
        "date_posted": {
            "en": "2018-03-28",
            "fr": "2018-03-28"
        },
        "to": {
            "en": "NCR only",
            "fr": "RCN seulement"
        },
        "by": {
            "en": "Maple Leaf Property Management",
            "fr": "Maple Leaf Property Management"
        }
    }
}