{
    "dcr_id": "1522777741234",
    "lang": "en",
    "title": {
        "en": "The April Edition of CUE Now Available",
        "fr": "Le num\u00e9ro de l'AIDE-M\u00c9MOIRE d'avril est maintenant en ligne"
    },
    "modified": "2019-02-07 00:00:00.0",
    "issued": "2018-04-05 00:00:00.0",
    "type_name": "intra-intra/news-nouv",
    "node_id": "1279030006975",
    "layout_name": null,
    "dc_date_created": "2018-04-03",
    "breadcrumb_label": "",
    "meta": {
        "issued": {
            "en": "2018-04-05",
            "fr": "2018-04-05"
        },
        "modified": {
            "en": "2019-02-07",
            "fr": "2019-02-07"
        },
        "format": {
            "en": "gcformat",
            "fr": "gcformat"
        },
        "title": {
            "en": "The April Edition of CUE Now Available",
            "fr": "Le num\u00e9ro de l'AIDE-M\u00c9MOIRE d'avril est maintenant en ligne"
        },
        "subject": {
            "en": "communications",
            "fr": "communications"
        },
        "description": {
            "en": "The April edition of <I>CUE: a quick reference tool for managers</I> is now available.",
            "fr": "Le num\u00e9ro de l'<I>AIDE-M\u00c9MOIRE d'avril : un outil de r\u00e9f\u00e9rence rapide pour les gestionnaires</I> est maintenant disponible."
        },
        "language": {
            "en": "eng",
            "fr": "fra"
        },
        "audience": {
            "en": "gcaudience",
            "fr": "gcaudience"
        },
        "creator": {
            "en": "Agriculture and Agri-Food Canada",
            "fr": "Agriculture et Agroalimentaire Canada"
        },
        "spatial": {
            "en": "gcregions",
            "fr": "gcregions"
        },
        "service": {
            "en": "AAFC_AgriSource",
            "fr": "AAC_AgriSource"
        },
        "accessRights": {
            "en": "3",
            "fr": "3"
        }
    },
    "body": {
        "en": "<br>\n<br>\n<p>The April edition of <em>CUE: a quick reference tool for managers</em><strong> </strong>is now available.</p>\n<p>Included in this month\u2019s edition:</p>\n<ul>\n<li>An update on planned Windows and Office upgrades</li>\n<li>The latest on the Canadian Agriculture Partnership</li>\n<li>The status of NAFTA negotiations</li>\n</ul>\n<p><em>CUE</em> complements other internal communications like AgriSource, news@work, <a href=\"http://intranet.agr.gc.ca/agrisource/eng?id=1287261736402\">The Harvest</a>, the <a href=\"http://intranet.agr.gc.ca/agrisource/eng/the-department/deputy-ministers-corner?id=1288789122212&amp;utm_source=agrisource&amp;utm_medium=intranet&amp;utm_campaign=focus_on&amp;utm_content=ENGtext_link1\">DMs\u2019 Corner</a>, the <a href=\"https://twitter.com/chriswforbes\">DM\u2019s Twitter account</a> and <a href=\"http://www.agr.gc.ca/eng/stay-connected/?id=1360882689831\">AAFC social media</a> \u2013 all great sources of information about departmental news, events, and the achievements of our colleagues.</p>\n<p>The information you need and speaking points to help you deliver it to employees is at your fingertips. Download <a href=\"http://intranet.agr.gc.ca/agrisource/eng/branches-and-offices/public-affairs-branch/corporate-communications?id=1297348464656\"><em>CUE</em></a> and continue the dialogue with your team today!</p>\n<p><img src=\"https://intranet.agr.gc.ca/resources/prod/news/images/CUE-EN.png\" class=\"center-block\"></p>\n\n\t\t",
        "fr": "<br>\n<br>\n<p>Le num\u00e9ro de l\u2019<em>AIDE-M\u00c9MOIRE d\u2019avril : un outil de r\u00e9f\u00e9rence rapide pour les gestionnaires</em> est maintenant disponible.</p>\n<p>Dans ce num\u00e9ro :</p>\n<ul>\n<li>Le point sur les prochaines mises \u00e0 niveau de Microsoft Windows et Office</li>\n<li>Les derni\u00e8res nouvelles sur le Partenariat canadien pour l\u2019agriculture</li>\n<li>Mise \u00e0 jour des n\u00e9gociations de l\u2019ALENA</li>\n</ul>\n<p>L\u2019<em>AIDE-M\u00c9MOIRE</em> va de pair avec les autres moyens de communication internes comme AgriSource, nouvelles@l\u2019ouvrage, <a href=\"https://collab.agr.gc.ca/apps/harvest-moisson\">La Moisson</a>, le <a href=\"http://intranet.agr.gc.ca/agrisource/fra/notre-ministere/coin-des-sous-ministres?id=1288789122212\">coin des SM</a>, le <a href=\"https://twitter.com/chriswforbes\">compte Twitter des SM</a> et les <a href=\"http://www.agr.gc.ca/fra/restez-branches/?id=1360882689831\">m\u00e9dias sociaux d\u2019AAC</a> \u2013 tous d\u2019excellentes sources d\u2019information sur les activit\u00e9s et les \u00e9v\u00e9nements du Minist\u00e8re et les r\u00e9alisations de nos coll\u00e8gues.</p>\n<p>L\u2019information dont vous avez besoin et les notes d\u2019allocution pour la communiquer aux employ\u00e9s sont \u00e0 votre disposition. T\u00e9l\u00e9chargez l\u2019<a href=\"http://intranet.agr.gc.ca/agrisource/fra/directions-generales-et-bureaux/direction-generale-des-affaires-publiques/communications-ministerielles?id=1297348464656\"><em>AIDE-M\u00c9MOIRE</em></a>\u00a0et poursuivez la discussion avec votre \u00e9quipe d\u00e8s aujourd\u2019hui!</p>\n<p><img src=\"https://intranet.agr.gc.ca/resources/prod/news/images/CUE-FR.png\" class=\"center-block\"></p>\n\t\t"
    },
    "breadcrumb": {
        "en": "The April Edition of CUE Now Available",
        "fr": "Le num\u00e9ro de l'AIDE-M\u00c9MOIRE d'avril est maintenant en ligne"
    },
    "news": {
        "date_posted": {
            "en": "2018-04-05",
            "fr": "2018-04-05"
        },
        "to": {
            "en": "All staff",
            "fr": "Tous les employ\u00e9s"
        },
        "by": {
            "en": "Public Affairs Branch",
            "fr": "Direction g\u00e9n\u00e9rale des affaires publiques"
        }
    }
}