{
    "dcr_id": "1523449845538",
    "lang": "en",
    "title": {
        "en": "Deputy Minister's Outreach to Fredericton",
        "fr": "Visite du sous-ministre \u00e0 Fredericton"
    },
    "modified": "2018-04-12 00:00:00.0",
    "issued": "2018-04-12 00:00:00.0",
    "type_name": "intra-intra/news-nouv",
    "node_id": "1279030006975",
    "layout_name": null,
    "dc_date_created": "2018-04-11",
    "breadcrumb_label": "",
    "meta": {
        "issued": {
            "en": "2018-04-12",
            "fr": "2018-04-12"
        },
        "modified": {
            "en": "2018-04-12",
            "fr": "2018-04-12"
        },
        "format": {
            "en": "gcformat",
            "fr": "gcformat"
        },
        "title": {
            "en": "Deputy Minister's Outreach to Fredericton",
            "fr": "Visite du sous-ministre \u00e0 Fredericton"
        },
        "subject": {
            "en": "communications",
            "fr": "communications"
        },
        "description": {
            "en": "On March 26 and 27, 2018, I traveled to New Brunswick and visited the Fredericton Research and Development Centre where I had the pleasure of touring the facility and speaking with employees.",
            "fr": "Les 26 et 27 mars 2018, je me suis rendu au Nouveau-Brunswick et j'ai visit\u00e9 le Centre de recherche et de d\u00e9veloppement de Fredericton o\u00f9 j'ai eu le plaisir de faire le tour des installations et de parler aux employ\u00e9s."
        },
        "language": {
            "en": "eng",
            "fr": "fra"
        },
        "audience": {
            "en": "gcaudience",
            "fr": "gcaudience"
        },
        "creator": {
            "en": "Agriculture and Agri-Food Canada",
            "fr": "Agriculture et Agroalimentaire Canada"
        },
        "spatial": {
            "en": "gcregions",
            "fr": "gcregions"
        },
        "service": {
            "en": "AAFC_AgriSource",
            "fr": "AAC_AgriSource"
        },
        "accessRights": {
            "en": "3",
            "fr": "3"
        }
    },
    "body": {
        "en": "<br>\n<br>\n<p>On March 26 and 27, 2018, I traveled to New Brunswick and visited the Fredericton Research and Development Centre (<abbr title=\"Research and Development Centre\">RDC</abbr>) where I had the pleasure of touring the facility and speaking with employees.</p>\n<p>My visit included a tour of three of the Centre\u2019s science labs and the greenhouse where I learned about potato germplasm enhancement and breeding, and environmental sustainability of potato production, including soil health and water quality.</p>\n<p>To view photos from my visit to the Fredericton <abbr title=\"Research and Development Centre\">RDC</abbr>, check out the <a target=\"_blank\" href=\"https://collab.agr.gc.ca/apps/dmtpg-vgpsm/Articles/Lists/Posts/Post.aspx?List=ca2c96e6%2D16f5%2D463c%2Da2ac%2D7e31b2b3f16d&amp;ID=31&amp;Web=22a9e7e7%2Db8b2%2D47a5%2Da7cf%2D7f1180c1ab01\">online map and photo gallery</a>. The map also tracks the research centres and regional offices I have visited since becoming Deputy Minister almost a year ago.</p>\n<p>\u00a0</p>\n<p><img src=\"https://intranet.agr.gc.ca/resources/prod/news/images/DMOutreachFredericton.png\" class=\"center-block\"></p>\n\n\t\t",
        "fr": "<br>\n<br>\n<p>Les 26 et 27 mars 2018, je me suis rendu au Nouveau-Brunswick et j\u2019ai visit\u00e9 le Centre de recherche et de d\u00e9veloppement (<abbr title=\"Centre de recherche et de d\u00e9veloppement\">CRD</abbr>) de Fredericton o\u00f9 j\u2019ai eu le plaisir de faire le tour des installations et de parler aux employ\u00e9s.</p>\n<p>Mon d\u00e9placement comprenait la visite de trois des laboratoires scientifiques et de la serre du Centre o\u00f9 je me suis familiaris\u00e9 avec l\u2019am\u00e9lioration et la s\u00e9lection du mat\u00e9riel g\u00e9n\u00e9tique de pomme de terre, et la durabilit\u00e9 environnementale de la production des pommes de terre, y compris la sant\u00e9 des sols et la qualit\u00e9 de l\u2019eau.</p>\n<p>Pour voir les photos de ma visite au <abbr title=\"Centre de recherche et de d\u00e9veloppement\">CRD</abbr> de Fredericton, consultez <a target=\"_blank\" href=\"https://collab.agr.gc.ca/apps/dmtpg-vgpsm/Articles/Lists/Posts/Post.aspx?List=ca2c96e6%2D16f5%2D463c%2Da2ac%2D7e31b2b3f16d&amp;ID=31&amp;Web=22a9e7e7%2Db8b2%2D47a5%2Da7cf%2D7f1180c1ab01\">la carte et la galerie de photos</a>. La carte indique aussi les centres de recherche et les bureaux r\u00e9gionaux visit\u00e9s depuis que je suis devenu sous-ministre il y a pr\u00e8s d\u2019un an.</p>\n<p>\u00a0</p>\n<p><img src=\"https://intranet.agr.gc.ca/resources/prod/news/images/DMOutreachFredericton.png\" class=\"center-block\"></p>\n\t\t"
    },
    "breadcrumb": {
        "en": "Deputy Minister's Outreach to Fredericton",
        "fr": "Visite du sous-ministre \u00e0 Fredericton"
    },
    "news": {
        "date_posted": {
            "en": "2018-04-12",
            "fr": "2018-04-12"
        },
        "to": {
            "en": "All staff",
            "fr": "Tous les employ\u00e9s"
        },
        "by": {
            "en": "Chris Forbes, Deputy Minister",
            "fr": "Chris Forbes, sous-ministre"
        }
    }
}