{
    "dcr_id": "1523372161173",
    "lang": "en",
    "title": {
        "en": "This Week in The Harvest - Let's Talk: Connecting with Employees",
        "fr": "Au menu de La Moisson cette semaine - Prendre le pouls des employ\u00e9s d'AAC : parlons-en "
    },
    "modified": "2018-04-12 00:00:00.0",
    "issued": "2018-04-12 00:00:00.0",
    "type_name": "intra-intra/news-nouv",
    "node_id": "1279030006975",
    "layout_name": null,
    "dc_date_created": "2018-04-10",
    "breadcrumb_label": "",
    "meta": {
        "issued": {
            "en": "2018-04-12",
            "fr": "2018-04-12"
        },
        "modified": {
            "en": "2018-04-12",
            "fr": "2018-04-13"
        },
        "format": {
            "en": "gcformat",
            "fr": "gcformat"
        },
        "title": {
            "en": "This Week in The Harvest - Let's Talk: Connecting with Employees",
            "fr": "Au menu de La Moisson cette semaine - Prendre le pouls des employ\u00e9s d'AAC : parlons-en "
        },
        "subject": {
            "en": "communications",
            "fr": "communications"
        },
        "description": {
            "en": "In case you missed it, here's what's new in The Harvest this week.",
            "fr": "Au cas o\u00f9 vous l'auriez manqu\u00e9, voici le menu que la section La Moisson vous offre cette semaine."
        },
        "language": {
            "en": "eng",
            "fr": "fra"
        },
        "audience": {
            "en": "gcaudience",
            "fr": "gcaudience"
        },
        "creator": {
            "en": "Agriculture and Agri-Food Canada",
            "fr": "Agriculture et Agroalimentaire Canada"
        },
        "spatial": {
            "en": "gcregions",
            "fr": "gcregions"
        },
        "service": {
            "en": "AAFC_AgriSource",
            "fr": "AAC_AgriSource"
        },
        "accessRights": {
            "en": "3",
            "fr": "3"
        }
    },
    "body": {
        "en": "<br>\n<br>\n<p>In case you missed it, here\u2019s what\u2019s new in <a href=\"https://collab.agr.gc.ca/apps/harvest-moisson\">The Harvest</a> this week:</p>\n<p><strong>Feature story: </strong><a href=\"https://collab.agr.gc.ca/apps/harvest-moisson/\">Let\u2019s Talk: Connecting with Employees</a> \u2013 After almost a year serving as AAFC\u2019s Deputy Minister, Chris Forbes shares what connecting with employees means to him, why it\u2019s important and how you can get involved in the conversation. </p>\n<p><strong>Poll: </strong><a href=\"https://collab.agr.gc.ca/apps/harvest-moisson\"> How many books do you usually read in a year?</a></p>\n<p><strong>Feature photo:</strong> <a href=\"https://collab.agr.gc.ca/apps/harvest-moisson/gallery/Lists/Posts/Post.aspx?ID=152%20\">Blue Jay</a>, by Louise Taillefer, Science and Technology Branch, Ottawa, Ontario.</p>\n<p><strong>Did you know?</strong> <a href=\"https://collab.agr.gc.ca/apps/harvest-moisson/Pages/DidYouKnow.aspx\">Canada\u2019s maple syrup producers collect 40-60 litres of sap from each tree</a>: that is still only enough sap for one to 1.5 litres of syrup from each tree \u2013 and less than one-tenth of the tree\u2019s sugar. Taking more would rob the tree of nutrition.</p>\n<p>You can get involved by posting a comment or \u201cliking\u201d an article. You can also check out what your colleagues are liking and saying.</p>\n<p>Should you have story ideas, scenic or artistic agriculture-related photos, or interesting facts, please share them with us by clicking on \u201cContribute\u201d in the top menu bar.</p>\n<p>\u00a0<img src=\"https://intranet.agr.gc.ca/resources/prod/news/images/HarvestDM2.png\" class=\"center-block\" alt=\"Chris Forbes, Deputy Minister\"></p>\n\n\t\t",
        "fr": "<br>\n<br>\n<p>Au cas o\u00f9 vous l\u2019auriez manqu\u00e9, voici le menu que la section <a href=\"https://collab.agr.gc.ca/apps/harvest-moisson\">La Moisson</a> vous offre cette semaine :</p>\n<p><strong>Article vedette :</strong> <a href=\"https://collab.agr.gc.ca/apps/harvest-moisson/\">Prendre le pouls des employ\u00e9s d\u2019AAC : parlons-en</a><strong> </strong>\u2013 Apr\u00e8s presque une ann\u00e9e de service comme sous-ministre d\u2019AAC, Chris Forbes explique ce que le dialogue avec les employ\u00e9s signifie pour lui, pourquoi il est important et comment vous pouvez participer \u00e0 la conversation. </p>\n<p><strong>Sondage : </strong><a href=\"https://collab.agr.gc.ca/apps/harvest-moisson\">En g\u00e9n\u00e9ral, combien de livres lisez-vous par an?</a></p>\n<p><strong>Photo vedette :</strong> <a href=\"https://collab.agr.gc.ca/apps/harvest-moisson/gallery/Lists/Posts/Post.aspx?ID=152%20\">Geai bleu</a>, par Louise Taillefer, Direction g\u00e9n\u00e9rale des sciences et de la technologie, Ottawa (Ontario).</p>\n<p><strong>Le saviez-vous?</strong> <a href=\"https://collab.agr.gc.ca/apps/harvest-moisson/Pages/DidYouKnow.aspx\">Les ac\u00e9riculteurs canadiens recueillent de 40 \u00e0 60 litres de s\u00e8ve par arbre</a>, ce qui est \u00e0 peine suffisant pour produire 1,5 litre de sirop et repr\u00e9sente moins d\u2019un dixi\u00e8me de toute la s\u00e8ve de l\u2019arbre. S\u2019ils recueillaient plus de s\u00e8ve, ils priveraient l\u2019arbre de ses \u00e9l\u00e9ments nutritifs.</p>\n<p>Vous pouvez participer en affichant des commentaires ou en utilisant la fonction \u00ab J\u2019aime \u00bb ou \u00ab Partager \u00bb pour exprimer votre appr\u00e9ciation d\u2019un article. Vous pouvez aussi aller voir ce que vos coll\u00e8gues aiment et ont \u00e0 dire.</p>\n<p>Si vous avez des id\u00e9es d\u2019articles, des photos de paysages ou \u00e0 caract\u00e8re artistique li\u00e9es \u00e0 l\u2019agriculture ou encore des faits int\u00e9ressants, veuillez nous en faire part en cliquant sur \u00ab Collaborer \u00bb dans la barre de menu en haut de la page.</p>\n<p>\u00a0<img src=\"https://intranet.agr.gc.ca/resources/prod/news/images/HarvestDM2.png\" class=\"center-block\" alt=\"Chris Forbes, Sous-ministre\"></p>\n\t\t"
    },
    "breadcrumb": {
        "en": "This Week in The Harvest - Let's Talk: Connecting with Employees",
        "fr": "Au menu de La Moisson cette semaine - Prendre le pouls des employ\u00e9s d'AAC : parlons-en"
    },
    "news": {
        "date_posted": {
            "en": "2018-04-12",
            "fr": "2018-04-12"
        },
        "to": {
            "en": "All staff",
            "fr": "Tous les employ\u00e9s"
        },
        "by": {
            "en": "Corporate Communications, Public Affairs Branch",
            "fr": "Communications minist\u00e9rielles, Direction g\u00e9n\u00e9rale des affaires publiques"
        }
    }
}