{
    "dcr_id": "1523377201989",
    "lang": "en",
    "title": {
        "en": "Toward a Public Service Free of Harassment and Violence: Creating Conditions for Respect and Trust in the Workplace - April 17",
        "fr": "Vers une fonction publique exempte de harc\u00e8lement et de violence : les conditions qui favorisent le respect et la confiance au travail - Le 17 avril"
    },
    "modified": "2018-04-12 00:00:00.0",
    "issued": "2018-04-12 00:00:00.0",
    "type_name": "intra-intra/news-nouv",
    "node_id": "1279030006975",
    "layout_name": null,
    "dc_date_created": "2018-04-10",
    "breadcrumb_label": "Toward a Public Service Free of Harassment and Violence: Creating Conditions for Respect and...",
    "meta": {
        "issued": {
            "en": "2018-04-12",
            "fr": "2018-04-12"
        },
        "modified": {
            "en": "2018-04-12",
            "fr": "2018-04-12"
        },
        "format": {
            "en": "gcformat",
            "fr": "gcformat"
        },
        "title": {
            "en": "Toward a Public Service Free of Harassment and Violence: Creating Conditions for Respect and Trust in the Workplace - April 17",
            "fr": "Vers une fonction publique exempte de harc\u00e8lement et de violence : les conditions qui favorisent le respect et la confiance au travail - Le 17 avril"
        },
        "subject": {
            "en": "communications",
            "fr": "communications"
        },
        "description": {
            "en": "The Office of the Chief Human Resources Officer, in collaboration with the Canada School of Public Service, invites you to attend the learning event: Toward a Public Service Free of Harassment and Violence: Creating the Conditions for Respect and Trust in the Workplace.",
            "fr": "Le Bureau de la dirigeante principale des ressources humaines, en partenariat avec l'\u00c9cole de la fonction publique du Canada, vous invite \u00e0 l'activit\u00e9 d'apprentissage : Vers une fonction publique exempte de harc\u00e8lement et de violence : les conditions qui favorisent le respect et la confiance au travail."
        },
        "language": {
            "en": "eng",
            "fr": "fra"
        },
        "audience": {
            "en": "gcaudience",
            "fr": "gcaudience"
        },
        "creator": {
            "en": "Agriculture and Agri-Food Canada",
            "fr": "Agriculture et Agroalimentaire Canada"
        },
        "spatial": {
            "en": "gcregions",
            "fr": "gcregions"
        },
        "service": {
            "en": "AAFC_AgriSource",
            "fr": "AAC_AgriSource"
        },
        "accessRights": {
            "en": "3",
            "fr": "3"
        }
    },
    "body": {
        "en": "<br>\n<br>\n<p>The Office of the Chief Human Resources Officer, in collaboration with the Canada School of Public Service, invites you to attend the learning event: Toward a Public Service Free of Harassment and Violence: Creating the Conditions for Respect and Trust in the Workplace<em>.</em></p>\n<p>\nRespect and trust are the foundation of a healthy workplace. The moderated session will be in an open dialogue format, where guest speakers will discuss individual attitudes, behaviours and actions as well as the systemic conditions that support constructive relationships, free of harassment and violence.</p>\n<h2>\nGuest speakers</h2>\n<ul>\n<li>Andr\u00e9 Latreille, Ombudsman for Mental Health, Public Service and Procurement Canada</li>\n<li>Ren\u00e9e Leblanc, Director, Workforce Management and Health, Innovation, Science and Economic Development Canada</li>\n<li>Denis St-Jean, National and Safety Officer, Public Service alliance of Canada.</li>\n</ul>\n<h2><strong>Event information</strong></h2>\n<p><strong>Date and time</strong>: Tuesday, April 17 | 1:30 to 3:00 p.m. (ET)<br>\n<strong>Location</strong>: Collaboration Lounge, Acad\u00e9mie De-La-Salle, 373 Sussex Drive (Guigues Avenue entrance), Ottawa, Ontario; Available across Canada by webcast.<br>\n<strong>Language</strong>: Bilingual with interpretation in both official languages (in-person only)<br>\n<strong>Registration:</strong> <a href=\"https://papp.csps-efpc.gc.ca/Saba/Web/Main/goto/GuestOfferingDetails?offeringId=class000000000117816&amp;locale=en_US\">In-person (Ottawa)</a> | <a href=\"https://papp.csps-efpc.gc.ca/Saba/Web/Main/goto/GuestOfferingDetails?offeringId=class000000000117821&amp;locale=en_US\">Webcast</a></p>\n<p>Register through Canada School of Public Service with your MyAccount login name and password. If you do not have an account, please contact the <a href=\"http://www.csps-efpc.gc.ca/Contact_Us/index-eng.aspx#gi\">Client Contact Centre</a>.</p>\n<p>\n<strong>Note:</strong> The session will be streamed live for employees in Ottawa from NHCAP in room T6-1-136 (no registration is required).</p>\n<p><img src=\"https://intranet.agr.gc.ca/resources/prod/news/images/PowerChatHarassment-EN.png\" class=\"center-block\"></p>\n\n\t\t",
        "fr": "<br>\n<br>\n<p>Le Bureau de la dirigeante principale des ressources humaines, en partenariat avec l\u2019\u00c9cole de la fonction publique du Canada, vous invite \u00e0 l\u2019activit\u00e9 d'apprentissage : Vers une fonction publique exempte de harc\u00e8lement et de violence : les conditions qui favorisent le respect et la confiance au travail.</p>\n<p>\nLe respect et la confiance sont \u00e0 la base d\u2019un milieu de travail sain. Cette s\u00e9ance mod\u00e9r\u00e9e se fera sous forme de dialogue ouvert o\u00f9 les conf\u00e9renciers discuteront des attitudes et des comportements individuels, allant de pair avec les conditions organisationnelles qui favorisent des relations positives au travail, exemptes de harc\u00e8lement et de violence.</p>\n<h2>\nLes conf\u00e9renciers </h2>\n<ul>\n<li>Andr\u00e9 Latreille, ombudsman de la sant\u00e9 mentale. Services publics et Approvisionnement Canada</li>\n<li>Ren\u00e9e Leblanc, directrice, Gestion de la main-d\u2019\u0153uvre et de la sant\u00e9, Innovation, Sciences et D\u00e9veloppement \u00e9conomique Canada</li>\n<li>Denis St-Jean, agent national en sant\u00e9 et s\u00e9curit\u00e9, Alliance de la Fonction publique du Canada</li>\n</ul>\n<h2>Renseignement sur l\u2019activit\u00e9</h2>\n<p><b>Date et heure :</b> Le mardi 17 avril\u00a0| de 13 h 30 \u00e0 15 h (HE)<br><b>Lieu :</b> Salon de la collaboration, Acad\u00e9mie De-La-Salle, 373, promenade Sussex (entr\u00e9e de l\u2019avenue Guigues), Ottawa (Ontario) ; Offert partout au Canada par webdiffusion.<br><b>Langue :</b> Bilingue, avec interpr\u00e9tation dans les deux langues officielles (en personne seulement)<br><b>Inscription :</b> <a href=\"https://papp.csps-efpc.gc.ca/Saba/Web/Main/goto/GuestOfferingDetails?offeringId=class000000000117816&amp;locale=fr_CA\">En personne (Ottawa)</a> | <a href=\"https://papp.csps-efpc.gc.ca/Saba/Web/Main/goto/GuestOfferingDetails?offeringId=class000000000117821&amp;locale=fr_CA\">Webdiffusion</a></p>\n<p>Vous devez vous inscrire aupr\u00e8s de l\u2019\u00c9cole de la fonction publique du Canada avec votre nom d\u2019utilisateur et votre mot de passe MonDossier. Si vous n\u2019avez pas de compte, veuillez communiquer avec\u00a0le <a href=\"http://www.csps-efpc.gc.ca/Contact_Us/index-fra.aspx#gi\">Centre de contact avec la client\u00e8le</a>.</p>\n<p><strong>Remarque :</strong> La s\u00e9ance sera diffus\u00e9e en direct pour les employ\u00e9s \u00e0 Ottawa dans la salle T6-1-136 du CACPA (aucune inscription n\u2019est requise).</p>\n<p><img src=\"https://intranet.agr.gc.ca/resources/prod/news/images/PowerChatHarassment-FR.png\" class=\"center-block\"></p>\n\t\t"
    },
    "breadcrumb": {
        "en": "Toward a Public Service Free of Harassment and Violence: Creating Conditions for Respect and...",
        "fr": "Vers une fonction publique exempte de harc\u00e8lement et de violence : les conditions qui favorisent..."
    },
    "news": {
        "date_posted": {
            "en": "2018-04-12",
            "fr": "2018-04-12"
        },
        "to": {
            "en": "All staff",
            "fr": "Tous les employ\u00e9s"
        },
        "by": {
            "en": "Human Resources, Corporate Management Branch",
            "fr": "Ressources humaines, Direction g\u00e9n\u00e9rale de la gestion int\u00e9gr\u00e9e"
        }
    }
}