{
    "dcr_id": "1523299018127",
    "lang": "en",
    "title": {
        "en": "Reminder - Power Chat: Change Management for Mentally Healthy Workplaces - April 24",
        "fr": "Rappel - Discussion directe : Gestion du changement pour des milieux de travail sains sur le plan psychologique - Le 24 avril"
    },
    "modified": "2018-04-18 00:00:00.0",
    "issued": "2018-04-12 00:00:00.0",
    "type_name": "intra-intra/news-nouv",
    "node_id": "1279030006975",
    "layout_name": null,
    "dc_date_created": "2018-04-09",
    "breadcrumb_label": "",
    "meta": {
        "issued": {
            "en": "2018-04-12",
            "fr": "2018-04-12"
        },
        "modified": {
            "en": "2018-04-18",
            "fr": "2018-04-18"
        },
        "format": {
            "en": "gcformat",
            "fr": "gcformat"
        },
        "title": {
            "en": "Reminder - Power Chat: Change Management for Mentally Healthy Workplaces - April 24",
            "fr": "Rappel - Discussion directe : Gestion du changement pour des milieux de travail sains sur le plan psychologique - Le 24 avril"
        },
        "subject": {
            "en": "communications",
            "fr": "communications"
        },
        "description": {
            "en": "The Office of the Chief Human Resources Officer and the Federal Workplace Well-Being Network invite public service employees to attend a mental health learning event offered by the Canada School of Public Service.",
            "fr": "Le Bureau de la dirigeante principale des ressources humaines et le R\u00e9seau f\u00e9d\u00e9ral du mieux-\u00eatre en milieu de travail invitent les employ\u00e9s de la fonction publique \u00e0 une activit\u00e9 d'apprentissage sur la sant\u00e9 mentale \u00e0 l'\u00c9cole de la fonction publique du Canada."
        },
        "language": {
            "en": "eng",
            "fr": "fra"
        },
        "audience": {
            "en": "gcaudience",
            "fr": "gcaudience"
        },
        "creator": {
            "en": "Agriculture and Agri-Food Canada",
            "fr": "Agriculture et Agroalimentaire Canada"
        },
        "spatial": {
            "en": "gcregions",
            "fr": "gcregions"
        },
        "service": {
            "en": "AAFC_AgriSource",
            "fr": "AAC_AgriSource"
        },
        "accessRights": {
            "en": "3",
            "fr": "3"
        }
    },
    "body": {
        "en": "<br>\n<br>\n<p>The Office of the Chief Human Resources Officer and the Federal Workplace Well-Being Network invite public service employees to attend a mental health learning event offered by the Canada School of Public Service (<abbr title=\"Canada School of Public Service\">CSPS</abbr>).</p>\n<p>This discussion aims to help employees explore the impact of change on mental health.</p>\n<p>Panel members will share ways that individuals, teams and organizations can take action in support of a mentally healthy workplace, including the best practices, strategies and tools required to bring about positive change.</p>\n<h2><strong>Panel speakers</strong></h2>\n<ul>\n<li><strong>Jennifer Hollington</strong>, Assistant Deputy Minister, Communications and Public Affairs Branch, Health Canada and the Public Health Agency of Canada</li>\n<li><strong>Sandra Guttmann</strong>, General Counsel, Corporate Secretary and Labour Relations Officer, Association of Justice Counsel</li>\n<li><strong>Jennifer Richardson</strong>, Director, Corporate Health, Safety and Environment, Royal Canadian Mint</li>\n<li><strong>Margie Picillo</strong>, Senior Director, Talent, Planning and Executive Resourcing, Fisheries and Oceans Canada</li>\n<li><strong>Jonathan Steeves</strong>, Master Coach, Change Management Specialist, Director General Headquarters Transformation, National Defence</li>\n</ul>\n<h2><strong>Event information</strong>\n</h2>\n<p>\n<strong>Date and Time:</strong> April 24, 2018 | 1:30 to 3:00 p.m. (ET)\n<br>\n<strong>Location:</strong> Collaboration Lounge, Acad\u00e9mie De-La-Salle, 373 Sussex Drive (Guigues Avenue entrance), Ottawa, Ontario; Available across Canada by webcast.<br><strong>Registration: </strong><a href=\"https://papp.csps-efpc.gc.ca/Saba/Web/Main/goto/GuestOfferingDetails?offeringId=class000000000117716&amp;locale=en_US\">Ottawa</a> | <a href=\"https://papp.csps-efpc.gc.ca/Saba/Web/Main/goto/GuestOfferingDetails?offeringId=class000000000117717&amp;locale=en_US\">Webcast</a></p>\n<p>If attending in person or by webcast, please register your attendance with the\u00a0<abbr title=\"Canada School of Public Service\">CSPS</abbr> with your MyAccount login name and password. If you do not have an account, please contact the <a href=\"http://www.csps-efpc.gc.ca/Contact_Us/index-eng.aspx\">Client Contact Centre</a>.</p>\n<p>The session will also be streamed live for employees in Ottawa from NHCAP in rooms T7-1-211 and T7-4-211. You do not need to register with the <abbr title=\"Canada School of Public Service\">CSPS</abbr> if attending at these locations.</p>\n<p><img src=\"https://intranet.agr.gc.ca/resources/prod/news/images/PowerChatHealthyWorkplace-EN.png\" class=\"center-block\"></p>\n\n\t\t",
        "fr": "<br>\n<br>\n<p>Le Bureau de la\u00a0dirigeante principale des ressources humaines et le R\u00e9seau f\u00e9d\u00e9ral du mieux-\u00eatre en milieu de travail invitent les employ\u00e9s de la fonction publique \u00e0 une activit\u00e9 d\u2019apprentissage sur la sant\u00e9 mentale \u00e0 l\u2019\u00c9cole de la fonction publique du Canada.</p>\n<p>Cette discussion vise \u00e0 aider les employ\u00e9s \u00e0 comprendre l\u2019incidence du changement sur la sant\u00e9 mentale.</p>\n<p>Les membres du panel discuteront des mesures que peuvent prendre les personnes, les \u00e9quipes et les organisations pour favoriser un milieu de travail sain sur le plan psychologique, notamment au moyen de pratiques exemplaires, de strat\u00e9gies et d\u2019outils pouvant apporter des changements positifs.</p>\n<h2><strong>Membres du panel</strong></h2>\n<ul>\n<li><strong>Jennifer Hollington</strong>, sous-ministre adjointe, Direction g\u00e9n\u00e9rale des affaires publiques et des communications, Sant\u00e9 Canada et Agence de la sant\u00e9 publique du Canada</li>\n<li><strong>Sandra Guttmann</strong>, avocate g\u00e9n\u00e9rale, secr\u00e9taire g\u00e9n\u00e9rale et agente en relations de travail, Association des juristes de Justice</li>\n<li><strong>Jennifer Richardson</strong>, directrice, Sant\u00e9-s\u00e9curit\u00e9 au travail et environnement, Monnaie royale canadienne</li>\n<li><strong>Margie Picillo</strong>, directrice principale, Gestion du talent, de la planification et du ressourcement des cadres, P\u00eaches et Oc\u00e9ans Canada</li>\n<li><strong>Jonathan Steeves</strong>, ma\u00eetre-coach, sp\u00e9cialiste en gestion du changement, Bureau du directeur g\u00e9n\u00e9ral de la transformation du quartier g\u00e9n\u00e9ral, minist\u00e8re de la D\u00e9fense nationale</li>\n</ul>\n<h2><strong>Renseignements sur l\u2019\u00e9v\u00e9nement</strong></h2>\n<p>\n<strong>Date et heure :</strong> 24 avril 2018 | 13 h 30 \u00e0 15 h (HE)<br><strong>Lieu :</strong> Salon de la collaboration, Acad\u00e9mie De-La-Salle, 373, promenade Sussex (entr\u00e9e de l\u2019avenue Guigues), Ottawa (Ontario) ; Offert partout au Canada par webdiffusion.<br><strong>Inscription : </strong><a href=\"https://papp.csps-efpc.gc.ca/Saba/Web/Main/goto/GuestOfferingDetails?offeringId=class000000000117716&amp;locale=en_US\">Ottawa</a> | <a href=\"https://papp.csps-efpc.gc.ca/Saba/Web/Main/goto/GuestOfferingDetails?offeringId=class000000000117717&amp;locale=en_US\">Webdiffusion</a></p>\n<p>Pour assister \u00e0 la discussion en personne ou par webdiffusion, vous devez vous inscrire aupr\u00e8s de l\u2019\u00c9cole de la fonction publique du Canada au moyen de votre nom d\u2019utilisateur et de votre mot de passe MonDossier. Si vous n\u2019avez pas de compte, communiquez avec le <a href=\"http://www.csps-efpc.gc.ca/Contact_Us/index-fra.aspx\">Centre de contact avec la client\u00e8le</a>.</p>\n<p>La s\u00e9ance sera \u00e9galement diffus\u00e9e en direct pour les employ\u00e9s \u00e0 Ottawa, dans les salles T7-1-211 et T7-4-211 du CACPA. Vous n\u2019avez pas besoin de vous inscrire aupr\u00e8s de l\u2019\u00c9cole si vous assisterez \u00e0 la discussion dans l\u2019une de ces salles.</p>\n<p><img src=\"https://intranet.agr.gc.ca/resources/prod/news/images/PowerChatHealthyWorkplace-FR.png\" class=\"center-block\"></p>\n\t\t"
    },
    "breadcrumb": {
        "en": "Reminder - Power Chat: Change Management for Mentally Healthy Workplaces - April 24",
        "fr": "Rappel - Discussion directe : Gestion du changement pour des milieux de travail sains sur le plan..."
    },
    "news": {
        "date_posted": {
            "en": "2018-04-12",
            "fr": "2018-04-12"
        },
        "to": {
            "en": "All staff",
            "fr": "Tous les employ\u00e9s"
        },
        "by": {
            "en": "Human Resources, Corporate Management Branch",
            "fr": "Ressources humaines, Direction g\u00e9n\u00e9rale de la gestion int\u00e9gr\u00e9e"
        }
    }
}