{
    "dcr_id": "1523910614315",
    "lang": "en",
    "title": {
        "en": "AAFC's 2018-19 Main Estimates",
        "fr": "Budget principal des d\u00e9penses 2018-2019 d'AAC"
    },
    "modified": "2018-04-19 00:00:00.0",
    "issued": "2018-04-19 00:00:00.0",
    "type_name": "intra-intra/news-nouv",
    "node_id": "1279030006975",
    "layout_name": null,
    "dc_date_created": "2018-04-17",
    "breadcrumb_label": "",
    "meta": {
        "issued": {
            "en": "2018-04-19",
            "fr": "2018-04-19"
        },
        "modified": {
            "en": "2018-04-19",
            "fr": "2018-04-19"
        },
        "format": {
            "en": "gcformat",
            "fr": "gcformat"
        },
        "title": {
            "en": "AAFC's 2018-19 Main Estimates",
            "fr": "Budget principal des d\u00e9penses 2018-2019 d'AAC"
        },
        "subject": {
            "en": "communications",
            "fr": "communications"
        },
        "description": {
            "en": "The 2018-19 Main Estimates were recently tabled in Parliament. They present detailed information on each federal government department's and agency's estimated spending and authorities for this fiscal year.",
            "fr": "Le Budget principal des d\u00e9penses 2018-2019 a r\u00e9cemment \u00e9t\u00e9 d\u00e9pos\u00e9 devant le Parlement. Ce document renferme des renseignements d\u00e9taill\u00e9s sur les d\u00e9penses estimatives et les autorisations de d\u00e9penser de chaque minist\u00e8re et organisme du gouvernement f\u00e9d\u00e9ral pour cet exercice financier."
        },
        "language": {
            "en": "eng",
            "fr": "fra"
        },
        "audience": {
            "en": "gcaudience",
            "fr": "gcaudience"
        },
        "creator": {
            "en": "Agriculture and Agri-Food Canada",
            "fr": "Agriculture et Agroalimentaire Canada"
        },
        "spatial": {
            "en": "gcregions",
            "fr": "gcregions"
        },
        "service": {
            "en": "AAFC_AgriSource",
            "fr": "AAC_AgriSource"
        },
        "accessRights": {
            "en": "3",
            "fr": "3"
        }
    },
    "body": {
        "en": "<br>\n<br>\n<p>The 2018-19 Main Estimates were recently tabled in Parliament. They present detailed information on each federal government department\u2019s and agency\u2019s estimated spending and authorities for this fiscal year.</p>\n<p>The 2018-19 budgetary expenditures for AAFC are estimated at $2.5 billion ($1.0 billion in voted appropriations and $1.5 billion in statutory), with the majority of it supporting programs under the new five-year (2018-2023) Canadian Agricultural Partnership.</p>\n<p>Overall, AAFC\u2019s total authorities for 2018-19 have increased by $264.8 million from the previous year\u2019s total Main Estimates. This increase in funding is primarily attributable to:</p>\n<ul>\n<li>Increasing support for Business Risk Management programs under the Canadian Agricultural Partnership, primarily related to a forecast increase in AgriStability spending;\n</li>\n<li>Supporting the implementation of the Dairy Farm Investment Program and the Dairy Processing Investment Fund;</li>\n<li>Addressing retroactive collective bargaining obligations and other compensation adjustments.</li>\n</ul>\n<p>You are encouraged to read <a rel=\"external\" href=\"https://www.canada.ca/en/treasury-board-secretariat/services/planned-government-spending/government-expenditure-plan-main-estimates/2018-19-estimates.html\">AAFC\u2019s 2018-19 Main Estimates</a> and bookmark it for future reference.</p>\n<p>If you have any questions regarding the Main Estimates, please contact Angela Murphy, Acting Director General, Finance and Resource Management Services at <a href=\"mailto:angela.murphy@agr.gc.ca\">angela.murphy@agr.gc.ca</a>.</p>\n\n\t\t",
        "fr": "<br>\n<br>\n<p>Le Budget principal des d\u00e9penses 2018-2019 a r\u00e9cemment \u00e9t\u00e9 d\u00e9pos\u00e9 devant le Parlement. Ce document renferme des renseignements d\u00e9taill\u00e9s sur les d\u00e9penses estimatives et les autorisations de d\u00e9penser de chaque minist\u00e8re et organisme du gouvernement f\u00e9d\u00e9ral pour cet exercice financier.</p>\n<p>Les d\u00e9penses budg\u00e9taires d\u2019AAC pour l\u2019exercice 2018-2019 sont estim\u00e9es \u00e0 2,5 milliards de dollars (1,0 milliard de dollars en cr\u00e9dits vot\u00e9s et 1,5 milliard de dollars en cr\u00e9dits l\u00e9gislatifs), la majorit\u00e9 \u00e9tant affect\u00e9e aux programmes du Partenariat canadien pour l\u2019agriculture, le nouveau cadre strat\u00e9gique quinquennal (2018-2023).</p>\n<p>Dans l\u2019ensemble, les autorisations d\u2019AAC pour 2018-2019 ont augment\u00e9 de 264,8 millions de dollars par rapport au Budget principal des d\u00e9penses de l\u2019exercice pr\u00e9c\u00e9dent. Cette augmentation est principalement attribuable :</p>\n<ul>\n<li>au\u00a0soutien accru accord\u00e9 aux programmes de gestion des risques de l\u2019entreprise du Partenariat canadien pour l\u2019agriculture, principalement en raison de l\u2019augmentation pr\u00e9vue des d\u00e9penses d\u2019Agri-stabilit\u00e9;</li>\n<li>au\u00a0soutien accord\u00e9 \u00e0 la mise en \u0153uvre du Programme d\u2019investissement dans les fermes laiti\u00e8res et du Fonds d\u2019investissement dans la transformation des produits laitiers;</li>\n<li>au respect des obligations r\u00e9troactives li\u00e9es aux n\u00e9gociations collectives et \u00e0\u00a0l\u2019application d\u2019autres rajustements de la r\u00e9mun\u00e9ration.</li>\n</ul>\n<p>Nous vous invitons \u00e0 lire le <a rel=\"external\" href=\"https://www.canada.ca/fr/secretariat-conseil-tresor/services/depenses-prevues/plan-depenses-budget-principal/2018-19-budget-depenses.html\">Budget principal des d\u00e9penses 2018\u20112019 d\u2019AAC</a> et \u00e0 l\u2019ajouter \u00e0 vos favoris pour consultation ult\u00e9rieure.</p>\n<p>Pour toute question concernant le Budget principal des d\u00e9penses, veuillez communiquer avec Angela Murphy, directrice g\u00e9n\u00e9rale int\u00e9rimaire des Services des finances et de la gestion des ressources (<a href=\"mailto:angela.murphy@agr.gc.ca\">angela.murphy@agr.gc.ca</a>).</p>\n\t\t"
    },
    "breadcrumb": {
        "en": "AAFC's 2018-19 Main Estimates",
        "fr": "Budget principal des d\u00e9penses 2018-2019 d'AAC"
    },
    "news": {
        "date_posted": {
            "en": "2018-04-19",
            "fr": "2018-04-19"
        },
        "to": {
            "en": "All staff",
            "fr": "Tous les employ\u00e9s"
        },
        "by": {
            "en": "Finance and Resource Management Services, Corporate Management Branch",
            "fr": "Services des finances et de la gestion des ressources, Direction g\u00e9n\u00e9rale de la gstion int\u00e9gr\u00e9e"
        }
    }
}