{
    "dcr_id": "1524595794581",
    "lang": "en",
    "title": {
        "en": "Reminder - Mental Health Week Events - May 7-13",
        "fr": "Rappel - \u00c9v\u00e9nements de la Semaine de la sant\u00e9 mentale - Du 7 au 13 mai "
    },
    "modified": "2018-05-03 00:00:00.0",
    "issued": "2018-04-26 00:00:00.0",
    "type_name": "intra-intra/news-nouv",
    "node_id": "1279030006975",
    "layout_name": null,
    "dc_date_created": "2018-04-24",
    "breadcrumb_label": "",
    "meta": {
        "issued": {
            "en": "2018-04-26",
            "fr": "2018-04-26"
        },
        "modified": {
            "en": "2018-05-03",
            "fr": "2018-05-03"
        },
        "format": {
            "en": "gcformat",
            "fr": "gcformat"
        },
        "title": {
            "en": "Reminder - Mental Health Week Events - May 7-13",
            "fr": "Rappel - \u00c9v\u00e9nements de la Semaine de la sant\u00e9 mentale - Du 7 au 13 mai "
        },
        "subject": {
            "en": "communications",
            "fr": "communications"
        },
        "description": {
            "en": "May 7-13, 2018 is national Mental Health Week, and the Department has several events planned for employees across the country.",
            "fr": "La Semaine de la sant\u00e9 mentale se d\u00e9roulera du 7 au 13 mai 2018, et le Minist\u00e8re a organis\u00e9 de nombreuses activit\u00e9s pour les employ\u00e9s partout au pays."
        },
        "language": {
            "en": "eng",
            "fr": "fra"
        },
        "audience": {
            "en": "gcaudience",
            "fr": "gcaudience"
        },
        "creator": {
            "en": "Agriculture and Agri-Food Canada",
            "fr": "Agriculture et Agroalimentaire Canada"
        },
        "spatial": {
            "en": "gcregions",
            "fr": "gcregions"
        },
        "service": {
            "en": "AAFC_AgriSource",
            "fr": "AAC_AgriSource"
        },
        "accessRights": {
            "en": "3",
            "fr": "3"
        }
    },
    "body": {
        "en": "<br>\n<br>\n<p>Good mental health is more than being happy all the time. It is about feeling positive about who you are, having balance, and managing life\u2019s highs and lows. Mental illness touches all of us: one in five Canadians live with mental health problems, mental illnesses or addiction. Moreover, we all have mental health, just like we all have physical health.</p>\n<p>AAFC is committed to creating a healthy workplace, where every employee brings their talents, skills, and energy to work every day.</p>\n<p>May 7-13, 2018 is national Mental Health Week, and the Department has several events planned for employees across the country. We hope to see you there!</p>\n<p><strong>Thursday, May 3: </strong>Canada School of Public Service Armchair Discussion \u2013 Emotional Intelligence at Work: The Art of Maintaining Collective Well-Being</p>\n<p><strong>Monday, May 7: </strong>Employee and Family Assistance Program Orientation Sessions</p>\n<p><strong>Tuesday, May 8: </strong>Federal Speakers\u2019 Bureau on Mental Health: Michelle D\u2019Amico: A Personal Journey Through the Complex World of Teen Mental Illness</p>\n<p><strong>Tuesday, May 8 and Thursday, May 10: </strong>The Working Mind\u2122 Training</p>\n<p><strong>Wednesday, May 9: </strong>Ten Healthy Habits of Financial Management: How to Become Better Money Managers</p>\n<p><strong>Friday, May 11: </strong>Not Myself Today Campaign \u2013 2018 Launch Kiosk at NHCAP</p>\n<p>To register for these events and learn more about Mental Health Week, visit <a href=\"https://collab.agr.gc.ca/co/aafcwe-beaac/SitePages/2018%20Mental%20Health%20Week.aspx\">Workplace Wellness on Knowledge Workplace</a>.</p>\n<p><img src=\"https://intranet.agr.gc.ca/resources/prod/news/images/HealthyWorkplace.png\" class=\"center-block\"></p>\n<p>\u00a0</p>\n\n\t\t",
        "fr": "<br>\n<br>\n<p>Avoir une bonne sant\u00e9 mentale ne se r\u00e9sume pas \u00e0 \u00eatre continuellement joyeux. Il s\u2019agit d\u2019avoir une image positive de soi-m\u00eame, de mener une vie \u00e9quilibr\u00e9e et de savoir g\u00e9rer les hauts et les bas. Nous sommes tous concern\u00e9s par la maladie mentale : un Canadien sur cinq est aux prises avec un probl\u00e8me de sant\u00e9 mentale, une maladie mentale ou une d\u00e9pendance. De plus, nous avons tous une sant\u00e9 mentale, tout comme nous avons une sant\u00e9 physique.</p>\n<p>AAC s\u2019est engag\u00e9 \u00e0 cr\u00e9er un milieu de travail sain, o\u00f9 chaque employ\u00e9 met ses talents, ses comp\u00e9tences et son \u00e9nergie \u00e0 profit tous les jours.</p>\n<p>La Semaine de la sant\u00e9 mentale se d\u00e9roulera du 7 au 13 mai 2018, et le Minist\u00e8re a organis\u00e9 de nombreuses activit\u00e9s pour les employ\u00e9s partout au pays. Nous esp\u00e9rons vous y voir!</p>\n<p><strong>Le jeudi 3 mai :</strong> Discussion informelle de l\u2019\u00c9cole de la fonction publique du Canada \u2013 L\u2019intelligence \u00e9motionnelle au travail : l\u2019art d\u2019entretenir le bien-\u00eatre collectif</p>\n<p><strong>Le lundi 7 mai :</strong> S\u00e9ances d\u2019orientation du Programme d\u2019aide aux employ\u00e9s et \u00e0 la famille</p>\n<p><strong>Le mardi 8 mai :</strong> Michelle D\u2019Amico du Bureau des conf\u00e9renciers f\u00e9d\u00e9raux sur la sant\u00e9 mentale : Un parcours personnel dans le monde complexe de la maladie mentale chez les adolescents</p>\n<p><strong>Le mardi 8 mai et le jeudi 10 mai :</strong> Formation L\u2019esprit au travail (Working Mind\u2122)</p>\n<p><strong>Le mercredi 9 mai :</strong> Dix bonnes habitudes en gestion financi\u00e8re : Comment devenir de meilleurs gestionnaires de fonds</p>\n<p><strong>Le vendredi 11 mai :</strong> Campagne Je ne me reconnais pas 2018 \u2013 kiosque de lancement au CACPA</p>\n<p>Pour vous inscrire \u00e0 ces activit\u00e9s et pour en savoir plus sur la Semaine de la sant\u00e9 mentale, visitez la page sur le <a href=\"https://collab.agr.gc.ca/co/aafcwe-beaac/SitePages/2018%20Mental%20Health%20Week.aspx\">mieux-\u00eatre au travail dans l\u2019Espace de travail du savoir</a>.</p>\n<p><img src=\"https://intranet.agr.gc.ca/resources/prod/news/images/HealthyWorkplace.png\" class=\"center-block\"></p>\n\t\t"
    },
    "breadcrumb": {
        "en": "Reminder - Mental Health Week Events - May 7-13",
        "fr": "Rappel - \u00c9v\u00e9nements de la Semaine de la sant\u00e9 mentale - Du 7 au 13 mai"
    },
    "news": {
        "date_posted": {
            "en": "2018-04-26",
            "fr": "2018-04-26"
        },
        "to": {
            "en": "All staff",
            "fr": "Tous les employ\u00e9s"
        },
        "by": {
            "en": "Tom Rosser and Catherine Keir, AAFC's Co-Champions for Wellness",
            "fr": "Tom Rosser et Catherine Keir, co-champions du mieux-\u00eatre d'AAC"
        }
    }
}