{
    "dcr_id": "1524148400670",
    "lang": "en",
    "title": {
        "en": "Reminder - Student Orientation Session - May 10",
        "fr": "Rappel - S\u00e9ance d'orientation pour les \u00e9tudiants - Le 10 mai"
    },
    "modified": "2018-05-01 00:00:00.0",
    "issued": "2018-04-26 00:00:00.0",
    "type_name": "intra-intra/news-nouv",
    "node_id": "1279030006975",
    "layout_name": null,
    "dc_date_created": "2018-04-19",
    "breadcrumb_label": "",
    "meta": {
        "issued": {
            "en": "2018-04-26",
            "fr": "2018-04-26"
        },
        "modified": {
            "en": "2018-05-01",
            "fr": "2018-05-01"
        },
        "format": {
            "en": "gcformat",
            "fr": "gcformat"
        },
        "title": {
            "en": "Reminder - Student Orientation Session - May 10",
            "fr": "Rappel - S\u00e9ance d'orientation pour les \u00e9tudiants - Le 10 mai"
        },
        "subject": {
            "en": "communications",
            "fr": "communications"
        },
        "description": {
            "en": "The Student Panel of Representatives for Orientation, Unity, and Training, in partnership with the Young Professionals Network, is planning an orientation session for AAFC students across the country.",
            "fr": "Le Programme de l'orientation, de l'unit\u00e9 et de la sensibilisation des stagiaires et \u00e9tudiants, en collaboration avec le R\u00e9seau des jeunes professionnels, organise une s\u00e9ance d'orientation pour les \u00e9tudiants d'AAC partout au pays."
        },
        "language": {
            "en": "eng",
            "fr": "fra"
        },
        "audience": {
            "en": "gcaudience",
            "fr": "gcaudience"
        },
        "creator": {
            "en": "Agriculture and Agri-Food Canada",
            "fr": "Agriculture et Agroalimentaire Canada"
        },
        "spatial": {
            "en": "gcregions",
            "fr": "gcregions"
        },
        "service": {
            "en": "AAFC_AgriSource",
            "fr": "AAC_AgriSource"
        },
        "accessRights": {
            "en": "3",
            "fr": "3"
        }
    },
    "body": {
        "en": "<br>\n<br>\n<p>The Student Panel of Representatives for Orientation, Unity, and Training (<abbr title=\"Student Panel of Representatives for Orientation, Unity, and Training\">SPROUT</abbr>), in partnership with the Young Professionals Network (<abbr title=\"Young Professionals Network\">YPN</abbr>), is planning an orientation session for AAFC students across the country. Students will be provided with the opportunity to hear from the Deputy Minister, Chris Forbes, the <abbr title=\"Young Professionals Network\">YPN</abbr> Champion, Michel Lessard, and\u00a0former students to learn useful tips for a successful term!</p>\n<h2>Event information</h2>\n<p><strong>Date: </strong>Thursday, May 10<br><strong>Time: </strong>11:00 a.m. to 1:30 p.m. (ET)<br>\n<strong>Location: </strong>T3-1-351 at NHCAP (Ottawa), 167L-10-A at 167 Lombard (Winnipeg)<br>\n<strong>Videoconference:</strong> For those outside of the National Capital Region, we ask that hiring managers book a room with videoconference (<abbr title=\"videoconference\">VC</abbr>) capability so that their students can participate. The <abbr title=\"videoconference\">VC</abbr> number is: 76137732317 (guest PIN: 1871)</p>\n<p>An agenda for the orientation session can be found on the <a rel=\"external\" href=\"https://collab.agr.gc.ca/co/se-ee/SitePages/Home.aspx\"><abbr title=\"Student Panel of Representatives for Orientation, Unity, and Training\">SPROUT</abbr> Knowledge Workspace site</a>.</p>\n<p>We encourage students old and new to participate in this orientation session!</p>\n<p><img src=\"https://intranet.agr.gc.ca/resources/prod/news/images/YPN-SPROUT-EN.png\" class=\"center-block\" alt=\"\"></p>\n\n\t\t",
        "fr": "<br>\n<br>\n<p>Le Programme de l\u2019orientation, de l\u2019unit\u00e9 et de la sensibilisation des stagiaires et \u00e9tudiants (<abbr title=\"Programme de l\u2019orientation, de l\u2019unit\u00e9 et de la sensibilisation des stagiaires et \u00e9tudiants\">POUSSE</abbr>), en collaboration avec le R\u00e9seau des jeunes professionnels (<abbr title=\"R\u00e9seau des jeunes professionnels\">RJP</abbr>), organise une s\u00e9ance d\u2019orientation pour les \u00e9tudiants d\u2019AAC partout au pays. \u00c0 cette occasion, les \u00e9tudiants entendront le sous-ministre Chris Forbes, le champion du <abbr title=\"R\u00e9seau des jeunes professionnels\">RJP</abbr> Michel Lessard ainsi que d\u2019anciens \u00e9tudiants et obtiendront des conseils utiles pour faire de leur stage une exp\u00e9rience fructueuse.</p>\n<h2>Renseignements sur l\u2019\u00e9v\u00e9nement</h2>\n<p><strong>Date : </strong>Le jeudi 10 mai<br><strong>Heure : </strong>De 11 h \u00e0 13 h 30 (HE)<br>\n<strong>Lieu : </strong>T3-1-351 au CACPA (Ottawa), 167L-10-A au 167 Lombard (Winnipeg)<br>\n<strong>Vid\u00e9oconf\u00e9rence :</strong> \u00c0 l\u2019ext\u00e9rieur de la r\u00e9gion de la capitale nationale, nous demandons aux gestionnaires recruteurs de r\u00e9server une salle de vid\u00e9oconf\u00e9rence (<abbr title=\"vid\u00e9oconf\u00e9rence\">VC</abbr>) pour permettre \u00e0 leurs \u00e9tudiants de participer \u00e0 la s\u00e9ance. Num\u00e9ro de la <abbr title=\"vid\u00e9oconf\u00e9rence\">VC</abbr> : 76137732317 (NIP d\u2019invit\u00e9 : 1871).</p>\n<p>Vous trouverez le programme de la s\u00e9ance d\u2019orientation sur le <a href=\"https://collab.agr.gc.ca/co/se-ee/SitePages/Home.aspx\">site de <abbr title=\"Programme de l\u2019orientation, de l\u2019unit\u00e9 et de la sensibilisation des stagiaires et \u00e9tudiants\">POUSSE</abbr> dans l\u2019Espace de travail du savoir</a>.</p>\n<p>Nous encourageons tous les \u00e9tudiants \u2013 ceux qui font un premier stage \u00e0 AAC et ceux qui y reviennent \u2013 \u00e0 participer \u00e0 la s\u00e9ance d\u2019orientation!</p>\n<p><img src=\"https://intranet.agr.gc.ca/resources/prod/news/images/YPN-SPROUT-FR.png\" class=\"center-block\"></p>\n\t\t"
    },
    "breadcrumb": {
        "en": "Reminder - Student Orientation Session - May 10",
        "fr": "Rappel - S\u00e9ance d'orientation pour les \u00e9tudiants - Le 10 mai"
    },
    "news": {
        "date_posted": {
            "en": "2018-04-26",
            "fr": "2018-04-26"
        },
        "to": {
            "en": "All staff",
            "fr": "Tous les employ\u00e9s"
        },
        "by": {
            "en": "The Student Panel of Representatives for Orientation, Unity, and Training",
            "fr": "Programme de l'orientation, de l'unit\u00e9 et de la sensibilisation des stagiaires et \u00e9tudiants"
        }
    }
}