{
    "dcr_id": "1525781918352",
    "lang": "en",
    "title": {
        "en": "NCR - Living Library is Back - Looking for Volunteer \"Books\"",
        "fr": "RCN - La biblioth\u00e8que vivante est de retour - Appel de \u00ab livres \u00bb volontaires"
    },
    "modified": "2018-05-10 00:00:00.0",
    "issued": "2018-05-10 00:00:00.0",
    "type_name": "intra-intra/news-nouv",
    "node_id": "1279030006975",
    "layout_name": null,
    "dc_date_created": "2018-05-08",
    "breadcrumb_label": "",
    "meta": {
        "issued": {
            "en": "2018-05-10",
            "fr": "2018-05-10"
        },
        "modified": {
            "en": "2018-05-10",
            "fr": "2018-05-10"
        },
        "format": {
            "en": "gcformat",
            "fr": "gcformat"
        },
        "title": {
            "en": "NCR - Living Library is Back - Looking for Volunteer \"Books\"",
            "fr": "RCN - La biblioth\u00e8que vivante est de retour - Appel de \u00ab livres \u00bb volontaires"
        },
        "subject": {
            "en": "communications",
            "fr": "communications"
        },
        "description": {
            "en": "AAFC's Living Library pilot was such a great success last year that the event will return on June 14 during National Public Service Week. We are looking for employees to volunteer as \"books.\"",
            "fr": "Le projet pilote de biblioth\u00e8que vivante d'AAC a connu un grand succ\u00e8s l'an dernier, et nous entendons r\u00e9p\u00e9ter l'exp\u00e9rience, le 14 juin, dans le cadre de la Semaine nationale de la fonction publique. Nous sommes \u00e0 la recherche d'employ\u00e9s d\u00e9sireux de jouer le r\u00f4le de \u00ab livres \u00bb."
        },
        "language": {
            "en": "eng",
            "fr": "fra"
        },
        "audience": {
            "en": "gcaudience",
            "fr": "gcaudience"
        },
        "creator": {
            "en": "Agriculture and Agri-Food Canada",
            "fr": "Agriculture et Agroalimentaire Canada"
        },
        "spatial": {
            "en": "gcregions",
            "fr": "gcregions"
        },
        "service": {
            "en": "AAFC_AgriSource",
            "fr": "AAC_AgriSource"
        },
        "accessRights": {
            "en": "3",
            "fr": "3"
        }
    },
    "body": {
        "en": "<br>\n<br>\n<p>AAFC\u2019s Living Library pilot was such a great success last year that the event will return on June 14 during National Public Service Week (<abbr title=\"National Public Service Week\">NPSW</abbr>). We are looking for employees to volunteer as \u201cbooks.\u201d</p>\n<p>Each employee at AAFC brings their own valuable experiences and insight to work every day. This is an opportunity to share your story with your colleagues and explore the diversity within the Department.</p>\n<p>Do you have an interesting personal story to share with your colleagues? It could be from a religious or cultural perspective. It could even be one as a new Canadian. Do you have an intriguing career path? Or perhaps you have a set of best practices for improving inclusion, for example, for LGBTQ2+ colleagues or colleagues with a disability.</p>\n<p>Your valuable insight and experiences could allow others to benefit and learn from them. By simply opening up to and connecting with colleagues, you will help to celebrate differences and encourage understanding within AAFC.</p>\n<p>Please contact the Diversity and Inclusiveness Network Secretariat (<a href=\"mailto:AAFC.Diversity-Diversite.AAC@AGR.GC.CA\">AAFC.Diversity-Diversite.AAC@AGR.GC.CA</a>) before May 17 to be part of the book collection.</p>\n<p><strong>You would make a great employee \u201cbook\u201d if you are</strong><strong>:</strong></p>\n<ul>\n<li>working at NCR;</li>\n<li>available June 14 in the afternoon; and</li>\n<li>willing to speak and engage in dialogue with other employees from the NCR (in-person).</li>\n</ul>\n<h2><strong>About Living Library</strong></h2>\n<p>At the Living Library event, a collection of human \u201cbooks\u201d will tell stories of their experiences to small groups of \u201creaders.\u201d These conversations are a chance for employees to talk with others that they might otherwise not have a chance to talk to, and they also provide a fresh view into the diversity at AAFC.</p>\n<h2><strong>Learn more</strong></h2>\n<ul>\n<li>\n<p>AAFC\u2019s diversity networks and upcoming events: <a href=\"https://collab.agr.gc.ca/co/eedi-emedi/SitePages/Home.aspx\">Diversity and Inclusiveness</a></p>\n</li>\n</ul>\n<p>\u00a0</p>\n<p><img src=\"https://intranet.agr.gc.ca/resources/prod/news/images/DiversityandInclusivenessBanner.png\" class=\"center-block\" alt=\"\"></p>\n\n\t\t",
        "fr": "<br>\n<br>\n<p>Le projet pilote de biblioth\u00e8que vivante d\u2019AAC a connu un grand succ\u00e8s l\u2019an dernier, et nous entendons r\u00e9p\u00e9ter l\u2019exp\u00e9rience, le 14 juin, dans le cadre de la Semaine nationale de la fonction publique (<abbr title=\"Semaine nationale de la fonction publique\">SNFP</abbr>). Nous sommes \u00e0 la recherche d\u2019employ\u00e9s d\u00e9sireux de jouer le r\u00f4le de \u00ab livres \u00bb.</p>\n<p>\nLes employ\u00e9s d\u2019AAC mettent leurs exp\u00e9riences et leurs id\u00e9es \u00e0 contribution quotidiennement au travail. Nous vous offrons l\u2019occasion de raconter votre histoire \u00e0 vos coll\u00e8gues et d\u2019explorer la diversit\u00e9 au sein du Minist\u00e8re.</p>\n<p>\nVous avez une histoire personnelle int\u00e9ressante \u00e0 raconter \u00e0 vos coll\u00e8gues? Il pourrait s\u2019agir d\u2019une perspective religieuse ou culturelle ou m\u00eame de celle d\u2019un nouveau citoyen canadien. Vous avez un cheminement de carri\u00e8re int\u00e9ressant? Ou peut-\u00eatre avez-vous des pratiques<br>exemplaires \u00e0 proposer pour am\u00e9liorer l\u2019inclusion, par exemple, de vos coll\u00e8gues de la communaut\u00e9 LGBTQ2+ ou de vos coll\u00e8gues handicap\u00e9s.</p>\n<p>\nD\u2019autres personnes pourraient tirer profit et apprendre de vos id\u00e9es et de vos exp\u00e9riences. En dialoguant ouvertement avec vos coll\u00e8gues, vous aiderez \u00e0 c\u00e9l\u00e9brer les diff\u00e9rences et \u00e0 promouvoir la compr\u00e9hension au sein d\u2019AAC.</p>\n<p>Veuillez communiquer avec le secr\u00e9tariat du R\u00e9seau de la diversit\u00e9 et de l\u2019inclusivit\u00e9 (<a href=\"mailto:AAFC.Diversity-Diversite.AAC@AGR.GC.CA\">AAFC.Diversity-Diversite.AAC@AGR.GC.CA</a>) avant le 17 mai pour faire partie du groupe de livres.</p>\n<p><strong>Vous ferez un \u00ab livre \u00bb id\u00e9al si :</strong></p>\n<ul>\n<li>vous travaillez dans la RCN;</li>\n<li>vous \u00eates disponible le 14 juin en apr\u00e8s-midi;</li>\n<li>vous \u00eates dispos\u00e9(e) \u00e0 dialoguer avec d\u2019autres employ\u00e9s de la RCN (en personne).</li>\n</ul>\n<h2><strong>\u00c0 propos de la biblioth\u00e8que vivante</strong></h2>\n<p>\nLa biblioth\u00e8que vivante offre une tribune \u00e0 des \u00ab livres humains \u00bb pour raconter leurs exp\u00e9riences \u00e0 de petits groupes de \u00ab lecteurs \u00bb. Lors de ces conversations, les employ\u00e9s s\u2019entretiennent avec des personnes \u00e0 qui ils n\u2019auraient autrement pas la chance de parler et qui apportent un regard nouveau sur la diversit\u00e9 \u00e0 AAC.</p>\n<h2><strong>Pour plus d\u2019information</strong></h2>\n<ul>\n<li>\n<p>R\u00e9seaux de la diversit\u00e9 et \u00e9v\u00e9nements \u00e0 venir \u00e0 AAC : <a href=\"https://collab.agr.gc.ca/co/eedi-emedi/SitePages/Home.aspx\">Diversit\u00e9 et inclusivit\u00e9</a></p>\n</li>\n</ul>\n<p>\u00a0</p>\n<p>\u00a0</p>\n<ul>\n</ul>\n<p><img src=\"https://intranet.agr.gc.ca/resources/prod/news/images/DiversityandInclusivenessBanner.png\" class=\"center-block\"></p>\n<ul>\n</ul>\n\t\t"
    },
    "breadcrumb": {
        "en": "NCR - Living Library is Back - Looking for Volunteer \"Books\"",
        "fr": "RCN - La biblioth\u00e8que vivante est de retour - Appel de \u00ab livres \u00bb volontaires"
    },
    "news": {
        "date_posted": {
            "en": "2018-05-10",
            "fr": "2018-05-10"
        },
        "to": {
            "en": "NCR only",
            "fr": "RCN seulement"
        },
        "by": {
            "en": "Human Resources, Corporate Management Branch",
            "fr": "Ressources humaines, Direction g\u00e9n\u00e9rale de la gestion int\u00e9gr\u00e9e"
        }
    }
}