{
    "dcr_id": "1525177326492",
    "lang": "en",
    "title": {
        "en": "Celebrate Open Government Week - May 7-11",
        "fr": "C\u00e9l\u00e9brons la Semaine du gouvernement ouvert - Du 7 au 11 mai"
    },
    "modified": "2018-05-03 00:00:00.0",
    "issued": "2018-05-03 00:00:00.0",
    "type_name": "intra-intra/news-nouv",
    "node_id": "1279030006975",
    "layout_name": null,
    "dc_date_created": "2018-05-01",
    "breadcrumb_label": "",
    "meta": {
        "issued": {
            "en": "2018-05-03",
            "fr": "2018-05-03"
        },
        "modified": {
            "en": "2018-05-03",
            "fr": "2018-05-03"
        },
        "format": {
            "en": "gcformat",
            "fr": "gcformat"
        },
        "title": {
            "en": "Celebrate Open Government Week - May 7-11",
            "fr": "C\u00e9l\u00e9brons la Semaine du gouvernement ouvert - Du 7 au 11 mai"
        },
        "subject": {
            "en": "communications",
            "fr": "communications"
        },
        "description": {
            "en": "The first ever global Open Government Week is taking place May 7-11, 2018!",
            "fr": "La toute premi\u00e8re Semaine du gouvernement ouvert mondiale aura lieu du 7 au 11 mai 2018!"
        },
        "language": {
            "en": "eng",
            "fr": "fra"
        },
        "audience": {
            "en": "gcaudience",
            "fr": "gcaudience"
        },
        "creator": {
            "en": "Agriculture and Agri-Food Canada",
            "fr": "Agriculture et Agroalimentaire Canada"
        },
        "spatial": {
            "en": "gcregions",
            "fr": "gcregions"
        },
        "service": {
            "en": "AAFC_AgriSource",
            "fr": "AAC_AgriSource"
        },
        "accessRights": {
            "en": "3",
            "fr": "3"
        }
    },
    "body": {
        "en": "<br>\n<br>\n<p>The first ever global Open Government Week is taking place May 7-11, 2018! During this week, Canada will join countries around the world to celebrate transparency, accountability and participation in government.</p>\n<p>The Government of Canada and all of us at\u00a0AAFC have been hard at work on this front. In our department, we have developed annual Open Government implementation plans, released datasets on open.canada.ca, and developed a data inventory. Open Government is increasingly becoming a part of the way we work, so take advantage of the opportunity to learn more about it during Open Government Week.</p>\n<h2><strong>What you can do</strong></h2>\n<ul>\n<li>Test your knowledge of Open Government by taking part in our <a rel=\"external\" href=\"https://collab.agr.gc.ca/co/aafcogwg-gtaacgo/Lists/Quiz_2018/NewForm.aspx?Source=https%3A%2F%2Fcollab%2Eagr%2Egc%2Eca%2Fco%2Faafcogwg%2Dgtaacgo%2FLists%2FQuiz%5F2018%2Foverview%2Easpx\">quiz</a>. A prize ($5 Tim card) will be given out to the person with the most correct answers. If there are multiple employees with the highest mark, the winner\u2019s name will be drawn. Submit your answers by May 11, 2018.</li>\n<li>Visit the <a rel=\"external\" href=\"https://open.canada.ca/\">Open Government Portal</a> to see what AAFC or Government of Canada data is currently available. You can also <a rel=\"external\" href=\"https://open.canada.ca/en/suggested-datasets\">suggest a dataset</a> be added to the site.</li>\n<li>Join the conversation on Twitter using #OpenGovWeek and the linked hashtag, #OpenGovCan.</li>\n<li>Learn what Canada\u2019s doing for Open Government Week, including other <a rel=\"external\" href=\"https://open.canada.ca/en/content/open-government-week\">events</a> that are taking place near you.</li>\n</ul>\n<h2><strong>Learn more</strong></h2>\n<ul>\n<li><a rel=\"external\" href=\"https://collab.agr.gc.ca/co/aafcogwg-gtaacgo\">AAFC\u2019s Open Government Initiative</a></li>\n<li><a rel=\"external\" href=\"https://www.opengovweek.org/\">Open Government Week</a></li>\n<li>Send an email with your questions to the departmental Open Government Coordinator\u00a0(<a href=\"mailto:aafc.opengovernment-gouvernementouvert.aac@agr.gc.ca\">aafc.opengovernment-gouvernementouvert.aac@agr.gc.ca</a>)</li>\n<li>Visit <a rel=\"external\" href=\"http://publications.gc.ca/site/eng/home.html\">Government of Canada Publications</a> for publications produced by us, other departments, and agencies.</li>\n</ul>\n<p>\u00a0<img src=\"https://intranet.agr.gc.ca/resources/prod/news/images/OpenGov.png\" class=\"center-block\"></p>\n\n\t\t",
        "fr": "<br>\n<br>\n<p>La toute premi\u00e8re Semaine du gouvernement ouvert mondiale aura lieu du 7 au 11 mai 2018! Pendant cette semaine, le Canada se joindra \u00e0 d\u2019autres pays pour c\u00e9l\u00e9brer la transparence, la responsabilisation et la participation au gouvernement.</p>\n<p>Le gouvernement du Canada et Agriculture et Agroalimentaire Canada (AAC)\u00a0n\u2019ont pas m\u00e9nag\u00e9 leurs efforts \u00e0 cet \u00e9gard.\u00a0Dans notre minist\u00e8re, nous avons \u00e9labor\u00e9 des plans annuels de mise en \u0153uvre pour un gouvernement ouvert, nous avons publi\u00e9 des ensembles de donn\u00e9es sur ouvert.canada.ca, et nous avons \u00e9labor\u00e9 un inventaire de donn\u00e9es. Le principe du gouvernement ouvert est de plus en plus int\u00e9gr\u00e9 \u00e0 notre mode de fonctionnement, alors profitez-en pour en apprendre davantage sur le sujet pendant la Semaine du gouvernement ouvert.</p>\n<h2><strong>Ce que vous pouvez faire</strong></h2>\n<ul>\n<li>Mettez \u00e0 l\u2019essai vos connaissances sur le gouvernement ouvert en participant \u00e0 notre <a rel=\"external\" href=\"https://collab.agr.gc.ca/co/aafcogwg-gtaacgo/Lists/Quiz_2018/NewForm.aspx?Source=https%3A%2F%2Fcollab%2Eagr%2Egc%2Eca%2Fco%2Faafcogwg%2Dgtaacgo%2FLists%2FQuiz%5F2018%2Foverview%2Easpx\">jeu-questionnaire</a>. Un prix (carte-cadeau Tim Horton de 5 $) sera remis \u00e0 la personne qui aura accumul\u00e9 le plus grand nombre de bonnes r\u00e9ponses. Si de nombreux employ\u00e9s obtiennent la note la plus \u00e9lev\u00e9e, le nom du gagnant sera tir\u00e9 au sort. Soumettez vos r\u00e9ponses d\u2019ici le 11 mai 2018.</li>\n<li>Consultez le <a rel=\"external\" href=\"https://open.canada.ca/fr\">portail du gouvernement ouvert</a> pour voir quelles donn\u00e9es d\u2019AAC ou du gouvernement du Canada sont actuellement accessibles. Vous pouvez aussi <a rel=\"external\" href=\"https://ouvert.canada.ca/fr/jeux-de-donnees-suggeres\">sugg\u00e9rer l\u2019ajout d\u2019un ensemble de donn\u00e9es</a> au site.</li>\n<li>Joignez-vous \u00e0 la conversation sur Twitter en utilisant le mot-clic #OpenGovWeek et le mot-clic connexe #GouvertCan.</li>\n<li>D\u00e9couvrez ce que le Canada fait \u00e0 l\u2019occasion de la Semaine du gouvernement ouvert, y compris d\u2019autres <a rel=\"external\" href=\"https://ouvert.canada.ca/fr/contenu/semaine-du-gouvernement-ouvert\">\u00e9v\u00e9nements</a> qui sont organis\u00e9s pr\u00e8s de chez vous.</li>\n</ul>\n<h2><strong>Pour en savoir plus</strong></h2>\n<ul>\n<li><a rel=\"external\" href=\"https://collab.agr.gc.ca/co/aafcogwg-gtaacgo\">Initiative pour un gouvernement ouvert \u00e0 AAC</a></li>\n<li><a rel=\"external\" href=\"https://www.opengovweek.org/\">Semaine du gouvernement ouvert</a>\u00a0(en anglais seulement)</li>\n<li>Envoyez vos questions par courriel au coordonnateur\u00a0minist\u00e9riel du gouvernement ouvert (<a href=\"mailto:aafc.opengovernment-gouvernementouvert.aac@agr.gc.ca\">aafc.opengovernment-gouvernementouvert.aac@agr.gc.ca</a>).</li>\n<li>Consultez les <a rel=\"external\" href=\"http://publications.gc.ca/site/fra/accueil.html\">publications du gouvernement du Canada</a> pour obtenir des publications produites par nous et par d\u2019autres minist\u00e8res et organismes.</li>\n</ul>\n<p><img src=\"https://intranet.agr.gc.ca/resources/prod/news/images/OpenGov.png\" class=\"center-block\"></p>\n<ul>\n</ul>\n\t\t"
    },
    "breadcrumb": {
        "en": "Celebrate Open Government Week - May 7-11",
        "fr": "C\u00e9l\u00e9brons la Semaine du gouvernement ouvert - Du 7 au 11 mai"
    },
    "news": {
        "date_posted": {
            "en": "2018-05-03",
            "fr": "2018-05-03"
        },
        "to": {
            "en": "All staff",
            "fr": "Tous les employ\u00e9s"
        },
        "by": {
            "en": "Information Systems Branch",
            "fr": "Direction g\u00e9n\u00e9rale des syst\u00e8mes d'information"
        }
    }
}