{
    "dcr_id": "1525201819377",
    "lang": "en",
    "title": {
        "en": "Reminder - Mandatory Phoenix Training for All Employees and Managers ",
        "fr": "Rappel - Formation obligatoire sur Ph\u00e9nix pour tous les employ\u00e9s et gestionnaires"
    },
    "modified": "2018-05-03 00:00:00.0",
    "issued": "2018-05-03 00:00:00.0",
    "type_name": "intra-intra/news-nouv",
    "node_id": "1279030006975",
    "layout_name": null,
    "dc_date_created": "2018-05-01",
    "breadcrumb_label": "",
    "meta": {
        "issued": {
            "en": "2018-05-03",
            "fr": "2018-05-03"
        },
        "modified": {
            "en": "2018-05-03",
            "fr": "2018-05-03"
        },
        "format": {
            "en": "gcformat",
            "fr": "gcformat"
        },
        "title": {
            "en": "Reminder - Mandatory Phoenix Training for All Employees and Managers ",
            "fr": "Rappel - Formation obligatoire sur Ph\u00e9nix pour tous les employ\u00e9s et gestionnaires"
        },
        "subject": {
            "en": "communications",
            "fr": "communications"
        },
        "description": {
            "en": "Mandatory Phoenix courses have been developed for all Government of Canada employees.",
            "fr": "De cours obligatoires sur le syst\u00e8me Ph\u00e9nix ont \u00e9t\u00e9 pr\u00e9par\u00e9s pour tous les employ\u00e9s du gouvernement du Canada."
        },
        "language": {
            "en": "eng",
            "fr": "fra"
        },
        "audience": {
            "en": "gcaudience",
            "fr": "gcaudience"
        },
        "creator": {
            "en": "Agriculture and Agri-Food Canada",
            "fr": "Agriculture et Agroalimentaire Canada"
        },
        "spatial": {
            "en": "gcregions",
            "fr": "gcregions"
        },
        "service": {
            "en": "AAFC_AgriSource",
            "fr": "AAC_AgriSource"
        },
        "accessRights": {
            "en": "3",
            "fr": "3"
        }
    },
    "body": {
        "en": "<br>\n<br>\n<p>Mandatory\u00a0Phoenix courses have been developed for all Government of Canada employees.</p>\n<p>Whatever your role, level or employment status, these courses explain:</p>\n<ul>\n<li>how human resources information that affects your pay (such as your work schedule, leave and overtime) is fed into Phoenix</li>\n<li>what your responsibilities are to help make sure you are paid correctly and on time</li>\n</ul>\n<p>There are 3 online courses for all employees:</p>\n<ol>\n<li>Understanding the Pay Cycle, Pay Calendar and Pay Stub</li>\n<li>Overview of Relevant HR-to-Pay Interface</li>\n<li>Submitting Leave and Pay Requests</li>\n</ol>\n<p>Be sure to take the courses in order, because each one contains information you will need to know for the next one.</p>\n<p>If you\u2019re a manager, even if you already know the material covered in the courses for employees, you are required to take them. You\u2019ll understand your own pay better, and you\u2019ll benefit from knowing what your employees are learning.</p>\n<p>In addition, you must also take the mandatory online course How to Perform Leave and Pay-Related Transactions for Your Employees.</p>\n<p>These courses can be found on the <a href=\"http://www.gcpedia.gc.ca/wiki/HR_to_Pay_Stabilization/Training/GC_HRMS\">HR-to-Pay Stabilization Training</a> page, under \"employees\" and \"managers.\"</p>\n<p><strong>Note: </strong>Completion of these courses are being tracked through the GCPedia Phoenix training page, and reports are being provided by Treasury Board to Departments on a bi-weekly basis. Your personal Training Profile, in PeopleSoft, will be updated using these reports.</p>\n<h2>Learn more</h2>\n<ul>\n<li><a href=\"http://intranet.agr.gc.ca/agrisource/eng/human-resources/pay-and-benefits/phoenix-pay-system?id=1511367056518\">Phoenix Pay System</a></li>\n</ul>\n<p><img src=\"https://intranet.agr.gc.ca/resources/prod/news/images/pheonix2-eng.png\" class=\"center-block\"></p>\n<ul>\n</ul>\n\n\t\t",
        "fr": "<br>\n<br>\n<p>De cours obligatoires sur le syst\u00e8me Ph\u00e9nix ont \u00e9t\u00e9 pr\u00e9par\u00e9s pour tous les employ\u00e9s du gouvernement du Canada.</p>\n<p>Quel que soit votre r\u00f4le, niveau ou situation d\u2019emploi, ces cours vous expliqueront :</p>\n<ul>\n<li>comment les renseignements ayant une incidence sur votre paye (p. ex. horaire de travail, cong\u00e9s, heures suppl\u00e9mentaires) sont entr\u00e9s dans Ph\u00e9nix;</li>\n<li>vos responsabilit\u00e9s pour vous assurer d\u2019\u00eatre pay\u00e9s correctement et \u00e0 temps.</li>\n</ul>\n<p>Trois cours en ligne sont offerts aux employ\u00e9s :</p>\n<ol>\n<li>Comprendre le cycle de paye, le calendrier de paye et le talon de paye</li>\n<li>Vue d\u2019ensemble de l\u2019interface entre les syst\u00e8mes de gestion des RH et de la paye</li>\n<li>Soumettre des demandes de cong\u00e9 et de paye</li>\n</ol>\n<p>Assurez-vous de suivre les cours dans l\u2019ordre indiqu\u00e9 ci-dessus, car chacun fournit des renseignements n\u00e9cessaires pour suivre le prochain.</p>\n<p>Les gestionnaires doivent suivre les cours destin\u00e9s aux employ\u00e9s, m\u00eame s\u2019ils connaissent d\u00e9j\u00e0 la mati\u00e8re trait\u00e9e. Ils pourront ainsi mieux comprendre leur propre paye et savoir ce qu\u2019apprennent leurs employ\u00e9s.</p>\n<p>De plus, ils doivent suivre le cours en ligne obligatoire Comment effectuer des transactions li\u00e9es aux cong\u00e9s et \u00e0 la r\u00e9mun\u00e9ration de vos employ\u00e9s.</p>\n<p>Ces cours se trouvent \u00e0 la page <a href=\"http://www.gcpedia.gc.ca/wiki/HStabilisation_RH/SGRH\">Formation de la Stabilisation RH-\u00e0-Paye</a> sous \u00ab employ\u00e9s \u00bb ou \u00ab gestionnaires \u00bb.</p>\n<p><strong>Veuillez noter que l'ach\u00e8vement de ces cours est suivi par la page de formation GCPedia Phoenix, et les rapports sont fournis par le Conseil du Tr\u00e9sor aux minist\u00e8res toutes les deux semaines. Votre profil de formation personnel, dans PeopleSoft, sera mis \u00e0 jour \u00e0 l'aide de ces rapports.</strong></p>\n<h2>Plus d\u2019information</h2>\n<ul>\n<li><a href=\"http://intranet.agr.gc.ca/agrisource/fra/ressources-humaines/remuneration-et-avantages-sociaux/systeme-de-paye-phenix?id=1511367056518\">Syst\u00e8me de paye Ph\u00e9nix</a></li>\n</ul>\n<p><img src=\"https://intranet.agr.gc.ca/resources/prod/news/images/pheonix2-fra.png\" class=\"center-block\"></p>\n<ul>\n</ul>\n\t\t"
    },
    "breadcrumb": {
        "en": "Reminder - Mandatory Phoenix Training for All Employees and Managers",
        "fr": "Rappel - Formation obligatoire sur Ph\u00e9nix pour tous les employ\u00e9s et gestionnaires"
    },
    "news": {
        "date_posted": {
            "en": "2018-05-03",
            "fr": "2018-05-03"
        },
        "to": {
            "en": "All staff",
            "fr": "Tous les employ\u00e9s"
        },
        "by": {
            "en": "Human Resources, Corporate Management Branch",
            "fr": "Ressources humaines, Direction g\u00e9n\u00e9rale de la gestion int\u00e9gr\u00e9e"
        }
    }
}