{
    "dcr_id": "1526662650793",
    "lang": "en",
    "title": {
        "en": "Reminder - NCR - Register Now for Living Library Sessions - June 14",
        "fr": "Rappel - RCN - Inscrivez-vous \u00e0 une s\u00e9ance de la biblioth\u00e8que vivante - Le 14 juin"
    },
    "modified": "2018-06-07 00:00:00.0",
    "issued": "2018-05-24 00:00:00.0",
    "type_name": "intra-intra/news-nouv",
    "node_id": "1279030006975",
    "layout_name": null,
    "dc_date_created": "2018-05-18",
    "breadcrumb_label": "",
    "meta": {
        "issued": {
            "en": "2018-05-24",
            "fr": "2018-05-24"
        },
        "modified": {
            "en": "2018-06-07",
            "fr": "2018-06-07"
        },
        "format": {
            "en": "gcformat",
            "fr": "gcformat"
        },
        "title": {
            "en": "Reminder - NCR - Register Now for Living Library Sessions - June 14",
            "fr": "Rappel - RCN - Inscrivez-vous \u00e0 une s\u00e9ance de la biblioth\u00e8que vivante - Le 14 juin"
        },
        "subject": {
            "en": "communications",
            "fr": "communications"
        },
        "description": {
            "en": "Each employee at AAFC brings their own valuable experiences and insight to work every day. The Living Library is a great opportunity to allow employees to hear life experience stories from other colleagues, explore the diversity within the Department, and celebrate differences.",
            "fr": "Les employ\u00e9s d'AAC apportent tous une exp\u00e9rience et des connaissances pr\u00e9cieuses \u00e0 leur travail quotidien. La biblioth\u00e8que vivante est une excellente occasion pour les employ\u00e9s d'entendre les histoires personnelles de leurs coll\u00e8gues, de d\u00e9couvrir la diversit\u00e9 au sein du Minist\u00e8re et de c\u00e9l\u00e9brer les diff\u00e9rences."
        },
        "language": {
            "en": "eng",
            "fr": "fra"
        },
        "audience": {
            "en": "gcaudience",
            "fr": "gcaudience"
        },
        "creator": {
            "en": "Agriculture and Agri-Food Canada",
            "fr": "Agriculture et Agroalimentaire Canada"
        },
        "spatial": {
            "en": "gcregions",
            "fr": "gcregions"
        },
        "service": {
            "en": "AAFC_AgriSource",
            "fr": "AAC_AgriSource"
        },
        "accessRights": {
            "en": "3",
            "fr": "3"
        }
    },
    "body": {
        "en": "<br>\n<br>\n<p>Each employee at AAFC brings their own valuable experiences and insight to work every day. The Living Library is a great opportunity to allow employees to hear life experience stories from other colleagues, explore the diversity within the Department, and celebrate differences.</p>\n<h2><strong>About Living Library</strong></h2>\n<p>At the Living Library event, a collection of \u201cliving books\u201d will tell stories of their experiences to small groups of \u201creaders.\u201d These conversations are a chance for employees to talk with others that they might otherwise not have a chance to talk to, and they also provide a fresh view into the diversity at AAFC.</p>\n<h2><strong>How it works</strong></h2>\n<p>The Living Library will take place in the <strong>NHCAP Tower 6 cafeteria on June 14 from 1:30 to 3:00 p.m.</strong><strong>\u00a0</strong>During the event, there will be 3 time slots where readers can spend 20 minutes with a living book to hear their story and engage in conversation.</p>\n<p>Select \"Enroll\" at the top of the <a href=\"https://collab.agr.gc.ca/co/eedi-emedi/_layouts/15/listform.aspx?PageType=4&amp;ListId=%7B75B6FB46%2DC542%2D420D%2D9CDA%2DE40568F4BDAD%7D&amp;ID=13&amp;ContentTypeID=0x01020028CF0843C06A41A39C183B3C72AF843700783A8A43363245D7B5FF4BDD9F50FB5100D33B4E2F05FDC844860333200FE2A99B\">registration page</a> to participate as a reader before June 13. Registration is on a first-come, first-served basis. You will be contacted by phone or email to confirm three of the book choices.</p>\n<h2><strong>Available Living Books</strong></h2>\n<ul>\n<li>Escaping war and finding ways to deal with post-traumatic stress \u2013 Sandra Weinheimer (English/bilingual)</li>\n<li>Making a life and career transition from a refugee to a government executive \u2013 Abdillahi Roble (French/bilingual)</li>\n<li>Searching for identity and transitioning to the public life as an Indigenous youth \u2013 Samantha David (English/bilingual)</li>\n<li>Tips to plan an international trip and cultivating a global mindset \u2013 Daniel Champoux (French/bilingual)</li>\n<li>From surviving to thriving \u2013 How I escaped domestic violence and made a better life for myself and my daughters \u2013 Jennifer Desrochers (English)</li>\n<li>A career at the well: Capitalizing on a multidisciplinary, transnational and intercultural background \u2013 Lyn Fong (English/bilingual)</li>\n</ul>\n<h2><strong>Learn more</strong></h2>\n<ul>\n<li>To learn about AAFC\u2019s Diversity Networks and upcoming events, visit <a href=\"https://collab.agr.gc.ca/co/eedi-emedi/SitePages/Home.aspx\">Diversity and Inclusiveness on Knowledge Workspace</a>\u00a0 </li>\n<li>To use <a href=\"https://collab.agr.gc.ca/co/eedi-emedi/Documents/Toolkits/Living%20Library%20Event%20Planning%20Guide%20-%20EN.pdf\">Living Library Event Planning Guide</a> to host your future event</li>\n</ul>\n<p>For questions or for more information, contact the Diversity and Inclusiveness Network Secretariat at <a href=\"mailto:AAFC.Diversity-Diversite.AAC@AGR.GC.CA\">AAFC.Diversity-Diversite.AAC@AGR.GC.CA</a>.</p>\n<p>\u00a0</p>\n<p><img src=\"https://intranet.agr.gc.ca/resources/prod/news/images/DiversityandInclusivenessBanner.png\" class=\"center-block\"></p>\n\n\t\t",
        "fr": "<br>\n<br>\n<p>Les employ\u00e9s d\u2019AAC apportent tous une exp\u00e9rience et des connaissances pr\u00e9cieuses \u00e0 leur travail quotidien. La biblioth\u00e8que vivante est une excellente occasion pour les employ\u00e9s d\u2019entendre les histoires personnelles de leurs coll\u00e8gues, de d\u00e9couvrir la diversit\u00e9 au sein du Minist\u00e8re et de c\u00e9l\u00e9brer les diff\u00e9rences.</p>\n<h2><strong>Au sujet de la biblioth\u00e8que vivante </strong></h2>\n<p>\u00c0 la biblioth\u00e8que vivante, des \u00ab livres vivants \u00bb racontent leur histoire et leurs exp\u00e9riences de vie \u00e0 de petits groupes de \u00ab lecteurs \u00bb. Ces conversations permettent aux employ\u00e9s de s\u2019entretenir avec des personnes avec lesquelles ils n\u2019auraient peut-\u00eatre jamais la chance de discuter autrement. De plus, elles apportent une perspective nouvelle en ce qui concerne la diversit\u00e9 \u00e0 AAC.</p>\n<h2><strong>Comment \u00e7a fonctionne?</strong></h2>\n<p>La biblioth\u00e8que vivante aura lieu dans la <strong>caf\u00e9t\u00e9ria de la tour 6 du CACPA le 14 juin de 13 h 30 \u00e0 15 h. </strong>Pendant l\u2019\u00e9v\u00e9nement, il y aura trois plages horaires o\u00f9 les lecteurs pourront passer 20 minutes avec un livre vivant pour entendre son histoire et tenir une conversation.</p>\n<p>S\u00e9lectionnez \u00ab\u00a0S'inscrire \u00bb en haut de <a href=\"https://collab.agr.gc.ca/co/eedi-emedi/_layouts/15/listform.aspx?PageType=4&amp;ListId=%7B75B6FB46%2DC542%2D420D%2D9CDA%2DE40568F4BDAD%7D&amp;ID=13&amp;ContentTypeID=0x01020028CF0843C06A41A39C183B3C72AF843700783A8A43363245D7B5FF4BDD9F50FB5100D33B4E2F05FDC844860333200FE2A99B\">la page d\u2019inscription</a> pour participer en tant que lecteur avant 13 juin. L\u2019inscription se fera selon le principe du premier arriv\u00e9, premier servi. On communiquera avec vous par t\u00e9l\u00e9phone ou par courriel pour confirmer vos trois choix de livres.</p>\n<h2><strong>Livres vivants disponibles</strong></h2>\n<ul>\n<li>Comment elle a fui la guerre et trouv\u00e9 des moyens de composer avec le stress post-traumatique \u2013 Sandra Weinheimer (anglais/bilingue)</li>\n<li>Transition de vie et de carri\u00e8re d\u2019un r\u00e9fugi\u00e9 \u00e0 un cadre du gouvernement \u2013 Abdillahi Roble (fran\u00e7ais/bilingue)</li>\n<li>\u00c0 la recherche de son identit\u00e9 et transition \u00e0 la vie publique en tant que jeune Autochtone \u2013 Samantha David (anglais/bilingue)</li>\n<li>Conseils pour planifier un voyage \u00e0 l\u2019\u00e9tranger et cultiver un esprit d\u2019ouverture sur le monde \u2013 Daniel Champoux (fran\u00e7ais/ bilingue)</li>\n<li>De la survie \u00e0 l\u2019\u00e9panouissement \u2013 Comment j\u2019ai \u00e9chapp\u00e9 \u00e0 la violence conjugale et b\u00e2ti une meilleure vie pour moi et mes filles \u2013 Jennifer Desrochers (anglais)</li>\n<li>Au volant de sa carri\u00e8re : Miser sur ses ant\u00e9c\u00e9dents multidisciplinaires, transnationaux et interculturels \u2013 Lyn Fong (anglais/ bilingue)</li>\n</ul>\n<h2><strong>Pour en savoir plus</strong></h2>\n<ul>\n<li>Pour en apprendre davantage sur les r\u00e9seaux de la diversit\u00e9 d\u2019AAC et les activit\u00e9s \u00e0 venir, visitez la page de l\u2019<a href=\"https://collab.agr.gc.ca/co/eedi-emedi/SitePages/Home.aspx\">Espace de travail du savoir sur la diversit\u00e9 et l\u2019inclusion</a>.</li>\n<li>Utilisez le <a href=\"https://collab.agr.gc.ca/co/eedi-emedi/Documents/Toolkits/Living%20Library%20Event%20Planning%20Guide%20-%20FR.pdf\">guide de planification des activit\u00e9s de la biblioth\u00e8que vivante</a> pour organiser une activit\u00e9.</li>\n</ul>\n<p>Si vous avez des questions ou souhaitez obtenir de plus amples renseignements, communiquez avec le Secr\u00e9tariat des r\u00e9seaux de la diversit\u00e9 et de l\u2019inclusivit\u00e9 \u00e0 l\u2019adresse <a href=\"mailto:AAFC.Diversity-Diversite.AAC@AGR.GC.CA\">AAFC.Diversity-Diversite.AAC@AGR.GC.CA</a>.</p>\n<p>\u00a0</p>\n<p><img src=\"https://intranet.agr.gc.ca/resources/prod/news/images/DiversityandInclusivenessBanner.png\" class=\"center-block\"></p>\n\t\t"
    },
    "breadcrumb": {
        "en": "NCR - Reminder - NCR - Register Now for Living Library Sessions - June 14",
        "fr": "RCN - Rappel - RCN - Inscrivez-vous \u00e0 une s\u00e9ance de la biblioth\u00e8que vivante - Le 14 juin"
    },
    "news": {
        "date_posted": {
            "en": "2018-05-24",
            "fr": "2018-05-24"
        },
        "to": {
            "en": "NCR only",
            "fr": "RCN seulement"
        },
        "by": {
            "en": "Human Resources, Corporate Management Branch",
            "fr": "Ressources humaines, Direction g\u00e9n\u00e9rale de la gestion int\u00e9gr\u00e9e"
        }
    }
}