{
    "dcr_id": "1527610233700",
    "lang": "en",
    "title": {
        "en": "Check Out the Newly Redesigned My IT Centre TI Portal",
        "fr": "Voyez la nouvelle version am\u00e9lior\u00e9e du portail Mon IT Centre TI"
    },
    "modified": "2018-05-31 00:00:00.0",
    "issued": "2018-05-31 00:00:00.0",
    "type_name": "intra-intra/news-nouv",
    "node_id": "1279030006975",
    "layout_name": null,
    "dc_date_created": "2018-05-29",
    "breadcrumb_label": "",
    "meta": {
        "issued": {
            "en": "2018-05-31",
            "fr": "2018-05-31"
        },
        "modified": {
            "en": "2018-05-31",
            "fr": "2018-05-31"
        },
        "format": {
            "en": "gcformat",
            "fr": "gcformat"
        },
        "title": {
            "en": "Check Out the Newly Redesigned My IT Centre TI Portal",
            "fr": "Voyez la nouvelle version am\u00e9lior\u00e9e du portail Mon IT Centre TI"
        },
        "subject": {
            "en": "communications",
            "fr": "communications"
        },
        "description": {
            "en": "On June 4, 2018, we are launching a redesigned My IT Centre TI portal, used for IT-related service requests such as new software and mobile device requests.",
            "fr": "Le 4 juin 2018, nous lancerons la version am\u00e9lior\u00e9e du portail Mon IT Centre TI, qui sert \u00e0 transmettre les demandes de services de TI comme les demandes de nouveaux logiciels et d'appareils mobiles."
        },
        "language": {
            "en": "eng",
            "fr": "fra"
        },
        "audience": {
            "en": "gcaudience",
            "fr": "gcaudience"
        },
        "creator": {
            "en": "Agriculture and Agri-Food Canada",
            "fr": "Agriculture et Agroalimentaire Canada"
        },
        "spatial": {
            "en": "gcregions",
            "fr": "gcregions"
        },
        "service": {
            "en": "AAFC_AgriSource",
            "fr": "AAC_AgriSource"
        },
        "accessRights": {
            "en": "3",
            "fr": "3"
        }
    },
    "body": {
        "en": "<br>\n<br>\n<p>On June 4, 2018, we are launching a redesigned <a href=\"http://myitcentreti-monitcentreti/\">My IT Centre TI portal</a>, used for IT-related service requests such as new software and mobile device requests. In March, we took the first step of changing the overall portal <a href=\"http://intranet.agr.gc.ca/agrisource/eng/newswork/improvements-to-my-it-centre-ti-self-service-portal?id=1519948683900\">look</a>. Now we\u2019re introducing the rest of the improvements.</p>\n<p>We have redesigned the portal with you in mind, simplifying navigation options, enhancing the search tool, and building up a database of helpful information on our products and services, all meant to better serve your needs.</p>\n<h2><strong>What\u2019s different?</strong></h2>\n<p>Thanks to valuable input from employees across the department, we have:</p>\n<ul>\n<li>updated service groupings, simplified labels and added descriptions to help you better understand which option to select;</li>\n<li>introduced a message center listing department-wide service interruptions;</li>\n<li>incorporated frequently asked questions (FAQs) onto the <strong>Services </strong>page;</li>\n<li>improved the ability to track the progress of submitted tickets, request status updates, and close a completed request;</li>\n<li>enhanced the search functionality;</li>\n<li>added the ability to customize the homepage (e.g., bookmark frequently used FAQs or service offerings);</li>\n<li>grouped similar offerings, adding helpful drop-down and checkbox options, and</li>\n<li>enabled the option to submit portal feedback.</li>\n</ul>\n<p>Please note that you will have to access the portal to track the status of your ticket as IT Centre TI staff will communicate with you via email only when necessary.</p>\n<p>You may see additional changes in the coming months as we keep working on the portal.</p>\n<h2><strong>The Services page for My IT Centre IT</strong></h2>\n<p><strong>\u00a0<strong><img src=\"https://intranet.agr.gc.ca/resources/prod/news/images/ITPortalOldEnglish.png\" class=\"center-block\"></strong></strong></p>\n<p><strong>\u00a0</strong></p>\n<p><em><img src=\"https://intranet.agr.gc.ca/resources/prod/news/images/ITPortalNewEnglish.png\" class=\"center-block\"></em></p>\n<h2><strong>What stays the same?</strong></h2>\n<p>The way you use the portal stays the same; simply select the appropriate option on the left menu. To submit a request, click on \u201c<strong>Services</strong>\u201d, select your service request type, enter and/or attach pertinent information, and submit your request. To troubleshoot your issue, click on <strong>\u201cFAQs\u201d.</strong> To check the progress of your tickets select \u201c<strong>Track Progress</strong>\u201d. You can also use the search box at the top of the page to find particular <strong>FAQ</strong> or <strong>service offerings</strong>.</p>\n<h2><strong>Why the changes?</strong></h2>\n<p>We strive to work more efficiently and effectively to better serve you. While there are different ways you can contact us (<a href=\"https://collab.agr.gc.ca/co/itsm-gsti/Documents/Communiques/myitcentreti-monitcentreti/Portal%20channel%20reference%20doc.ppt\">see tips</a> on the best way to contact us depending on the type of your request), your service request submitted via the <a href=\"http://myitcentreti-monitcentreti/\">My IT Centre TI portal</a> will automatically be routed to the team best suited to address your issue, providing a faster resolution. Your valuable feedback is always useful for further improving the portal.</p>\n<p>This redesign is part of ongoing improvements to ISB services, such as:</p>\n<ul>\n<li>the addition of an <strong>IT Centre TI</strong> telephone system feature that notifies the caller of their position in the caller queue, which will replace voicemail, and</li>\n<li>the upcoming introduction of a self-serve network password reset tool.</li>\n</ul>\n<p>If you have any questions or feedback, please contact <strong>IT Centre TI</strong>.</p>\n<p>\n<img src=\"https://intranet.agr.gc.ca/resources/prod/news/images/ITCentreTI2.png\" class=\"center-block\">\u00a0</p>\n\n\t\t",
        "fr": "<br>\n<br>\n<p>Le 4 juin 2018, nous lancerons la version am\u00e9lior\u00e9e du <a href=\"http://myitcentreti-monitcentreti/\">portail Mon IT Centre TI</a>, qui sert \u00e0 transmettre les demandes de services de TI comme les demandes de nouveaux logiciels et d\u2019appareils mobiles. En mars, nous avons accompli la premi\u00e8re \u00e9tape qui consistait \u00e0 changer l\u2019<a href=\"http://intranet.agr.gc.ca/agrisource/fra/nouvelleslouvrage/ameliorations-apportees-au-portail-libre-service-mon-it-centre-ti?id=1519948683900\">apparence</a> g\u00e9n\u00e9rale du portail. Nous apportons maintenant le reste des am\u00e9liorations.</p>\n<p>Nous avons revu la conception du portail en tenant compte de vos besoins. Nous avons simplifi\u00e9 les options de navigation, am\u00e9lior\u00e9 l\u2019outil de recherche et cr\u00e9\u00e9 une base de donn\u00e9es contenant des renseignements utiles sur nos produits et nos services, tout cela afin de mieux vous servir.</p>\n<h2>\n<b>Qu\u2019est-ce qui a chang\u00e9?</b></h2>\n<p>\nGr\u00e2ce aux pr\u00e9cieux commentaires des employ\u00e9s de l\u2019ensemble du Minist\u00e8re, nous avons :</p>\n<ul>\n<li>mis \u00e0 jour les regroupements de services, simplifi\u00e9 les \u00e9tiquettes et ajout\u00e9 des descriptions pour qu\u2019il vous soit plus facile de d\u00e9terminer quelle option choisir; </li>\n<li>introduit un centre de messages o\u00f9 l\u2019on trouve une liste des interruptions de service pour l\u2019ensemble du Minist\u00e8re;</li>\n<li>ajout\u00e9 de l\u2019aide contextuelle (FAQ) sur la page des Services;</li>\n<li>am\u00e9lior\u00e9 la capacit\u00e9 de suivre le traitement des billets, de demander des mises \u00e0 jour sur l\u2019\u00e9tat des demandes et de fermer les demandes trait\u00e9es;</li>\n<li>am\u00e9lior\u00e9 la fonction de recherche;</li>\n<li>ajout\u00e9 la capacit\u00e9 de personnaliser la page d\u2019accueil (p. ex. de marquer par un signet les \u00e9l\u00e9ments de la Foire aux questions (FAQ) souvent consult\u00e9s ou les offres de services);</li>\n<li>regroup\u00e9 les offres similaires, ajout\u00e9 des options utiles dans les menus d\u00e9roulants et les cases \u00e0 cocher;\u00a0</li>\n<li>ajout\u00e9 l\u2019option de soumettre des commentaires sur le portail.</li>\n</ul>\n<p>Veuillez noter que vous devrez acc\u00e9der au portail pour suivre le traitement de votre billet car le IT Centre TI communiquera avec vous par courriel uniquement lorsque sera n\u00e9cessaire.</p>\n<p>Vous pourriez constater d\u2019autres changements au cours des prochains mois tandis que nous continuons d\u2019am\u00e9liorer le portail.</p>\n<h2><b>La page\u00a0des Services de Mon IT Centre IT</b></h2>\n<p>\u00a0<img src=\"https://intranet.agr.gc.ca/resources/prod/news/images/ITPortalOldFrench.png\" class=\"center-block\"><br><br><img src=\"https://intranet.agr.gc.ca/resources/prod/news/images/ITPortalnewFrench.png\" class=\"center-block\"></p>\n<h2><b>Qu\u2019est-ce qui n\u2019a pas chang\u00e9?</b></h2>\n<p>\nLa fa\u00e7on d\u2019utiliser le portail reste la m\u00eame. Il vous suffit de choisir l\u2019option appropri\u00e9e dans le menu de gauche. Pour soumettre une demande, cliquez sur \u00ab <b>Services </b>\u00bb, choisissez le type de demande de service, indiquez ou joignez les renseignements pertinents et soumettez votre demande. Pour corriger des probl\u00e8mes, cliquez sur la \u00ab <b>FAQ</b> \u00bb. Pour suivre le traitement de vos billets, s\u00e9lectionnez \u00ab <b>Suivi\u00bb</b>. Vous pouvez \u00e9galement utiliser la bo\u00eete de recherche en haut de la page pour trouver des sujets pr\u00e9cis dans la <b>Foire aux questions</b> ou des <b>offres de services</b> en particulier.</p>\n<h2>\n<b>Pourquoi de tels changements?</b></h2>\n<p>\nNous nous effor\u00e7ons de travailler plus efficacement afin de mieux vous servir. Bien qu\u2019il y ait plusieurs fa\u00e7ons de nous contacter (<a href=\"https://collab.agr.gc.ca/co/itsm-gsti/Documents/Communiques/myitcentreti-monitcentreti/180525-28%20-%20Portal%20channel%20reference%20doc%20-%20F.ppt\">consultez les astuces</a> sur la meilleure fa\u00e7on de nous contacter en fonction de l\u2019objet de votre demande), les demandes de service soumises par le <a href=\"http://myitcentreti-monitcentreti/\">portail Mon IT Centre TI</a> sont automatiquement achemin\u00e9es \u00e0 l\u2019\u00e9quipe la mieux plac\u00e9e pour vous aider, afin de r\u00e9soudre rapidement vos probl\u00e8mes. Vos commentaires sont toujours les bienvenus et nous aident \u00e0 am\u00e9liorer davantage le portail.</p>\n<p>\nLe remaniement du portail fait partie des am\u00e9liorations continues aux services de la DGSI, notamment :</p>\n<ul>\n<li>la nouvelle fonction du syst\u00e8me t\u00e9l\u00e9phonique du IT Centre TI indiquant \u00e0 l\u2019appelant sa position dans la file d\u2019attente, fonction qui remplacera l\u2019option de messagerie vocale;</li>\n<li>l\u2019introduction prochaine d\u2019un outil permettant de r\u00e9initialiser soi-m\u00eame son mot de passe r\u00e9seau.</li>\n</ul>\n<p>Si vous avez des questions ou des commentaires, n\u2019h\u00e9sitez pas \u00e0 communiquer avec le <b>IT Centre TI</b>.</p>\n<p>\n<br><img src=\"https://intranet.agr.gc.ca/resources/prod/news/images/ITCentreTI2.png\" class=\"center-block\"></p>\n\t\t"
    },
    "breadcrumb": {
        "en": "Check Out the Newly Redesigned My IT Centre TI Portal",
        "fr": "Voyez la nouvelle version am\u00e9lior\u00e9e du portail Mon IT Centre TI"
    },
    "news": {
        "date_posted": {
            "en": "2018-05-31",
            "fr": "2018-05-31"
        },
        "to": {
            "en": "All staff",
            "fr": "Tous les employ\u00e9s"
        },
        "by": {
            "en": "IT Centre TI",
            "fr": "IT Centre TI"
        }
    }
}