{
    "dcr_id": "1527624096698",
    "lang": "en",
    "title": {
        "en": "Reminder - Call for Nominations - Governor General's Awards in Commemoration of the Persons Case - Deadline: July 4",
        "fr": "Rappel - Appel de candidatures - Prix du Gouverneur g\u00e9n\u00e9ral en comm\u00e9moration de l'affaire \u00ab personne \u00bb - Date limite : le 4 juillet"
    },
    "modified": "2018-06-27 00:00:00.0",
    "issued": "2018-05-31 00:00:00.0",
    "type_name": "intra-intra/news-nouv",
    "node_id": "1279030006975",
    "layout_name": null,
    "dc_date_created": "2018-05-29",
    "breadcrumb_label": "Reminder - Call for Nominations - Governor General's Awards in Commemoration of the Persons Case - D",
    "meta": {
        "issued": {
            "en": "2018-05-31",
            "fr": "2018-05-31"
        },
        "modified": {
            "en": "2018-06-27",
            "fr": "2018-06-13"
        },
        "format": {
            "en": "gcformat",
            "fr": "gcformat"
        },
        "title": {
            "en": "Reminder - Call for Nominations - Governor General's Awards in Commemoration of the Persons Case - Deadline: July 4",
            "fr": "Rappel - Appel de candidatures - Prix du Gouverneur g\u00e9n\u00e9ral en comm\u00e9moration de l'affaire \u00ab personne \u00bb - Date limite : le 4 juillet"
        },
        "subject": {
            "en": "communications",
            "fr": "communications"
        },
        "description": {
            "en": "Status of Women Canada is now accepting nominations for the 2018 Governor General's Awards in Commemoration of the Persons Case!",
            "fr": "Condition f\u00e9minine Canada re\u00e7oit maintenant les candidatures pour l'\u00e9dition 2018 des Prix du Gouverneur g\u00e9n\u00e9ral en comm\u00e9moration de l'affaire \u00ab personne \u00bb!"
        },
        "language": {
            "en": "eng",
            "fr": "fra"
        },
        "audience": {
            "en": "gcaudience",
            "fr": "gcaudience"
        },
        "creator": {
            "en": "Agriculture and Agri-Food Canada",
            "fr": "Agriculture et Agroalimentaire Canada"
        },
        "spatial": {
            "en": "gcregions",
            "fr": "gcregions"
        },
        "service": {
            "en": "AAFC_AgriSource",
            "fr": "AAC_AgriSource"
        },
        "accessRights": {
            "en": "3",
            "fr": "3"
        }
    },
    "body": {
        "en": "<br>\n<br>\n<p>Status of Women Canada is now accepting nominations for the 2018 <a href=\"http://www.swc-cfc.gc.ca/commemoration/gg/index-en.html\">Governor General\u2019s Awards in Commemoration of the Persons Case</a>!</p>\n<p>Each year, the Governor General's Awards in Commemoration of the Persons Case recognize the important achievements of individuals who make a difference in the pursuit of equality for women in Canada. Together, we can realize the Famous Five\u2019s vision of an equitable Canada with opportunities for all. Nominees can be from all walks of life to reflect the diversity of Canadian society.</p>\n<p>Nominate someone you know who has been a champion of gender equality, either within the Government of Canada or beyond.</p>\n<p>The deadline for nominations for the 2018 awards is <strong>July 4.</strong></p>\n<p><strong><img src=\"https://intranet.agr.gc.ca/resources/prod/news/images/GovernorGeneralAwards-EN.png\" class=\"center-block\"></strong></p>\n\n\t\t",
        "fr": "<br>\n<br>\n<p>Condition f\u00e9minine Canada re\u00e7oit maintenant les candidatures pour l\u2019\u00e9dition 2018 des <a href=\"http://www.swc-cfc.gc.ca/commemoration/gg/index-fr.html\">Prix du Gouverneur g\u00e9n\u00e9ral en comm\u00e9moration de l\u2019affaire \u00ab personne \u00bb</a>!</p>\n<p>Les Prix du Gouverneur g\u00e9n\u00e9ral en comm\u00e9moration de l\u2019affaire \u00ab personne \u00bb sont remis chaque ann\u00e9e afin de rendre hommage aux personnes dont les remarquables r\u00e9alisations contribuent \u00e0 la promotion de l\u2019\u00e9galit\u00e9 des sexes au Canada. Ensemble, nous pouvons r\u00e9aliser la vision des Cinq femmes c\u00e9l\u00e8bres, c\u2019est-\u00e0-dire celle d\u2019un Canada \u00e9quitable qui offre des chances \u00e9gales \u00e0 tous. Les candidats peuvent provenir\u00a0 de tous les milieux afin d\u2019\u00eatre repr\u00e9sentatifs de la diversit\u00e9 du pays. </p>\n<p>Proposez la candidature d\u2019une personne que vous connaissez qui d\u00e9fend la cause de l\u2019\u00e9galit\u00e9 entre les sexes au sein du gouvernement du Canada ou \u00e0 l\u2019ext\u00e9rieur de la fonction publique.</p>\n<p>La date limite pour soumettre une candidature pour les prix de 2018 est le <strong>4 juillet</strong>.</p>\n<p><strong><br><img src=\"https://intranet.agr.gc.ca/resources/prod/news/images/GovernorGeneralAwards-FR.png\" class=\"center-block\"></strong></p>\n\t\t"
    },
    "breadcrumb": {
        "en": "Reminder - Call for Nominations - Governor General's Awards in Commemoration of the Persons Case - D",
        "fr": "Rappel - Appel de candidatures - Prix du Gouverneur g\u00e9n\u00e9ral en comm\u00e9moration de l'affaire..."
    },
    "news": {
        "date_posted": {
            "en": "2018-05-31",
            "fr": "2018-05-31"
        },
        "to": {
            "en": "All staff",
            "fr": "Tous les employ\u00e9s"
        },
        "by": {
            "en": "Status of Women Canada",
            "fr": "Condition f\u00e9minine Canada"
        }
    }
}