{
    "dcr_id": "1527082283195",
    "lang": "en",
    "title": {
        "en": "3 Tips for Protecting Yourself from Phone and Online Scams",
        "fr": "Trois conseils pour vous prot\u00e9ger contre les courriels et les appels frauduleux"
    },
    "modified": "2018-05-31 00:00:00.0",
    "issued": "2018-05-31 00:00:00.0",
    "type_name": "intra-intra/news-nouv",
    "node_id": "1279030006975",
    "layout_name": null,
    "dc_date_created": "2018-05-23",
    "breadcrumb_label": "",
    "meta": {
        "issued": {
            "en": "2018-05-31",
            "fr": "2018-05-31"
        },
        "modified": {
            "en": "2018-05-31",
            "fr": "2018-05-31"
        },
        "format": {
            "en": "gcformat",
            "fr": "gcformat"
        },
        "title": {
            "en": "3 Tips for Protecting Yourself from Phone and Online Scams",
            "fr": "Trois conseils pour vous prot\u00e9ger contre les courriels et les appels frauduleux"
        },
        "subject": {
            "en": "communications",
            "fr": "communications"
        },
        "description": {
            "en": "A recent scam has been targeting the offices of senior executives with emails and phone calls from suspects impersonating a minister, deputy minister, ministerial office employees, or government officials from another department. The suspect seeks a meeting or conversation, during which they request payment.",
            "fr": "Les bureaux de cadres sup\u00e9rieurs ont r\u00e9cemment \u00e9t\u00e9 la cible de courriels et d'appels frauduleux de la part de suspects se faisant passer pour un ministre, un sous-ministre, des employ\u00e9s d\u2019un cabinet de ministre ou des repr\u00e9sentants gouvernementaux d'un autre minist\u00e8re. Les suspects cherchent \u00e0 organiser une rencontre ou \u00e0 engager une conversation, pendant laquelle ils demandent un paiement."
        },
        "language": {
            "en": "eng",
            "fr": "fra"
        },
        "audience": {
            "en": "gcaudience",
            "fr": "gcaudience"
        },
        "creator": {
            "en": "Agriculture and Agri-Food Canada",
            "fr": "Agriculture et Agroalimentaire Canada"
        },
        "spatial": {
            "en": "gcregions",
            "fr": "gcregions"
        },
        "service": {
            "en": "AAFC_AgriSource",
            "fr": "AAC_AgriSource"
        },
        "accessRights": {
            "en": "3",
            "fr": "3"
        }
    },
    "body": {
        "en": "<br>\n<br>\n<p><img src=\"https://intranet.agr.gc.ca/resources/prod/news/images/phishing1.png\" class=\"pull-right mrgn-lft-md\" alt=\"\"></p>\n<p>A recent scam has been targeting the offices of senior executives with emails and phone calls from suspects impersonating a minister, deputy minister, ministerial office employees, or government officials from another department. The suspect seeks a meeting or conversation, during which they request payment.\n</p>\n<p>These calls may use \u201cID spoofing,\u201d which disguises the suspect\u2019s caller ID as a legitimate telephone number. In some cases, the number that appears may come from the Government of Canada electronic directory.</p>\n<p>Don\u2019t become a victim to an online or phone scam. If you believe that you have been targeted or a victim of a scam, contact Departmental Security Services at <a href=\"mailto:aafc.incident.security-incident.securite.aac@agr.gc.ca\">aafc.incident.security-incident.securite.aac@agr.gc.ca</a>\u00a0immediately.</p>\n<h2><strong>3 tips to spot impersonators</strong></h2>\n<ul>\n<li>Be wary of phone calls or emails in which money is being solicited or demanded, especially when being requested via wire transfer service.</li>\n<li>Verify the email address and domain name on incoming emails. Exercise caution with emails originating from unfamiliar domains. Do not open attachments from unknown external senders.</li>\n<li>Check the area and country codes of incoming calls to see if they are coming from outside of Canada.</li>\n</ul>\n<h2>\nLearn more</h2>\n<ul>\n<li>\n<a href=\"http://intranet.agr.gc.ca/agrisource/eng/branches-and-offices/corporate-management-branch/services/security-awareness/security-awareness-web-based-training?id=1325695839878\">Security Awareness Training</a></li>\n<li><a href=\"https://www.cse-cst.gc.ca/en/node/2084/html/27665\">Spotting Malicious Email Messages</a></li>\n<li><a href=\"http://intranet.agr.gc.ca/agrisource/eng/branches-and-offices/corporate-management-branch/services/departmental-security-services?id=1330360312384&amp;src=sl-ls\">Departmental Security Services</a></li>\n</ul>\n<p>\u00a0</p>\n<ul>\n</ul>\n\n\t\t",
        "fr": "<br>\n<br>\n<p><img src=\"https://intranet.agr.gc.ca/resources/prod/news/images/phishing1.png\" class=\"pull-right mrgn-lft-md\">Les bureaux de cadres sup\u00e9rieurs ont r\u00e9cemment \u00e9t\u00e9 la cible de courriels et d\u2019appels frauduleux de la part de suspects se faisant passer pour un ministre, un sous-ministre, des employ\u00e9s d\u2019un cabinet de ministre ou des repr\u00e9sentants gouvernementaux d\u2019un autre minist\u00e8re. Les suspects cherchent \u00e0 organiser une rencontre ou \u00e0 engager une conversation, pendant laquelle ils demandent un paiement. </p>\n<p>Les auteurs des appels peuvent recourir \u00e0 \u00ab l\u2019usurpation d\u2019identit\u00e9 \u00bb, qui fait para\u00eetre le num\u00e9ro de t\u00e9l\u00e9phone du suspect comme un num\u00e9ro l\u00e9gitime. Dans certains cas, le num\u00e9ro qui appara\u00eet peut provenir des annuaires \u00e9lectroniques du gouvernement du Canada.</p>\n<p>Ne soyez pas victime d\u2019un courriel ou d'un appel frauduleux. Si vous pensez avoir \u00e9t\u00e9 pris pour cible ou avoir \u00e9t\u00e9 victime d\u2019une fraude, veuillez communiquer imm\u00e9diatement avec les Services de s\u00e9curit\u00e9 minist\u00e9riels\u00a0\u00e0 <a href=\"mailto:aafc.incident.security-incident.securite.aac@agr.gc.ca\">aafc.incident.security-incident.securite.aac@agr.gc.ca</a>.</p>\n<h2><strong>Trois conseils pour d\u00e9tecter les fraudeurs</strong></h2>\n<ul>\n<li>M\u00e9fiez-vous des appels ou courriels dans lesquels de l\u2019argent est demand\u00e9 ou exig\u00e9, surtout lorsqu\u2019il s\u2019agit d\u2019une demande de virement de fonds.</li>\n<li>V\u00e9rifiez l\u2019adresse \u00e9lectronique et le nom de domaine des courriels re\u00e7us. Soyez prudent avec les courriels provenant de domaines m\u00e9connus. N\u2019ouvrez pas les pi\u00e8ces jointes des exp\u00e9diteurs externes inconnus.</li>\n<li>V\u00e9rifiez les indicatifs r\u00e9gionaux et nationaux des appels entrants pour voir si l\u2019appel provient de l\u2019ext\u00e9rieur du Canada.</li>\n</ul>\n<h2><strong>Pour en savoir plus</strong></h2>\n<ul>\n<li>\n<a href=\"http://intranet.agr.gc.ca/agrisource/fra/ressources-humaines/apprentissage-et-perfectionnement/formation/employes/sensibilisation-a-la-securite-agr-620?id=1325695839878\">Formation sur la sensibilisation \u00e0 la s\u00e9curit\u00e9</a> </li>\n<li><a href=\"https://www.cse-cst.gc.ca/fr/node/2084/html/27665\">Reconna\u00eetre les courriels malveillants</a></li>\n<li><a href=\"http://intranet.agr.gc.ca/agrisource/fra/directions-generales-et-bureaux/direction-generale-de-la-gestion-integree/services/services-de-securite-ministeriels?id=1330360312384\">Services de s\u00e9curit\u00e9 minist\u00e9riels</a></li>\n</ul>\n\t\t"
    },
    "breadcrumb": {
        "en": "3 Tips for Protecting Yourself from Phone and Online Scams",
        "fr": "Trois conseils pour vous prot\u00e9ger contre les courriels et les appels frauduleux"
    },
    "news": {
        "date_posted": {
            "en": "2018-05-31",
            "fr": "2018-05-31"
        },
        "to": {
            "en": "All staff",
            "fr": "Tous les employ\u00e9s"
        },
        "by": {
            "en": "Departmental Security Services, Corporate Management Branch",
            "fr": "Services de s\u00e9curit\u00e9 minist\u00e9riels, Direction g\u00e9n\u00e9rale de la gestion int\u00e9gr\u00e9e"
        }
    }
}