{
    "dcr_id": "1527601194807",
    "lang": "en",
    "title": {
        "en": "Windows and Office Upgrades Start in June!",
        "fr": "D\u00e9but des mises \u00e0 niveau de Windows et de MS Office en juin!"
    },
    "modified": "2018-05-31 00:00:00.0",
    "issued": "2018-05-31 00:00:00.0",
    "type_name": "intra-intra/news-nouv",
    "node_id": "1279030006975",
    "layout_name": null,
    "dc_date_created": "2018-05-29",
    "breadcrumb_label": "",
    "meta": {
        "issued": {
            "en": "2018-05-31",
            "fr": "2018-05-31"
        },
        "modified": {
            "en": "2018-05-31",
            "fr": "2018-05-31"
        },
        "format": {
            "en": "gcformat",
            "fr": "gcformat"
        },
        "title": {
            "en": "Windows and Office Upgrades Start in June!",
            "fr": "D\u00e9but des mises \u00e0 niveau de Windows et de MS Office en juin!"
        },
        "subject": {
            "en": "communications",
            "fr": "communications"
        },
        "description": {
            "en": "Starting in June 2018, AAFC will be modernizing all networked workstations (laptops, desktop computers) that currently have the Microsoft Office 2010 suite and the Windows 7 operating system.",
            "fr": "\u00c0 compter de juin 2018, AAC modernisera tous les postes de travail r\u00e9seaut\u00e9s (ordinateurs portatifs, ordinateurs de bureau) sur lesquels sont actuellement install\u00e9s la suite Microsoft Office 2010 et le syst\u00e8me d'exploitation Windows 7."
        },
        "language": {
            "en": "eng",
            "fr": "fra"
        },
        "audience": {
            "en": "gcaudience",
            "fr": "gcaudience"
        },
        "creator": {
            "en": "Agriculture and Agri-Food Canada",
            "fr": "Agriculture et Agroalimentaire Canada"
        },
        "spatial": {
            "en": "gcregions",
            "fr": "gcregions"
        },
        "service": {
            "en": "AAFC_AgriSource",
            "fr": "AAC_AgriSource"
        },
        "accessRights": {
            "en": "3",
            "fr": "3"
        }
    },
    "body": {
        "en": "<br>\n<br>\n<p>\nStarting in June 2018, AAFC will be modernizing all networked workstations (laptops, desktop computers) that currently have the Microsoft Office 2010 suite and the Windows 7 operating system. The Windows 7 operating system will be upgraded to Windows 10 and the MS Office 2010 suite will be upgraded to MS Office 2016.\n</p>\n<p>Overall, the Office suite change will not bring any noticeable differences to the software. The Windows change will bring a new look to the start menu; many who have Windows 10 on their personal computers will be familiar with it.</p>\n<h2><strong>What to expect</strong></h2>\n<p>The rollout timeframe is from June to August 2018. Employees will be organized into groups, with one or more groups being upgraded every day. Additional IT Centre staff will be on hand to help exclusively with the upgrade in case of potential issues.</p>\n<p>You will receive two emails from the CDOEM mailbox. The first will be sent one week before the migration, stating the week of your upgrade and listing links to helpful information that will make your transition as seamless as possible. The second email will be sent two days before the migration. It will confirm your upgrade date and outline next steps.</p>\n<h2><strong>Upgrade</strong></h2>\n<p>You will have two options for completing the upgrade on your scheduled date.</p>\n<p><img src=\"https://intranet.agr.gc.ca/resources/prod/news/images/WindowsUpgradeIcon.png\" class=\"pull-left mrgn-rght-md\" alt=\"\"></p>\n<p>1. You can start the upgrade yourself by locating the blue and yellow\u00a0icon\u00a0at left\u00a0on your desktop and then double-clicking on the icon. You will not be able to use the workstation during the upgrade, which may take up to two hours. As a result, we recommend you start the upgrade at the end of your working day.</p>\n<p>OR</p>\n<p>2. If you do not start the upgrade yourself, it will start automatically at 6 p.m. your local time.\n</p>\n<h2>\n<strong>Prepare</strong></h2>\n<p>You can prepare for the upgrades by learning more about the project:</p>\n<ul>\n<li><a href=\"https://collab.agr.gc.ca/co/cdoem-meecob/SitePages/CDOEM.aspx\">Microsoft Windows and Office Upgrades Knowledge Workspace page</a></li>\n<li><a href=\"http://intranet.agr.gc.ca/agrisource/eng/newswork/reminder-windows-and-office-upgrades-checking-software-compatibility-deadline-is-april-30?id=1523897490911\">Windows and Office Upgrades: Checking Software Compatibility</a></li>\n</ul>\n<p>Contact the <a href=\"mailto:aafc.cdoem-meebc.aac@canada.ca\">CDOEM project team</a> with any questions or concerns.</p>\n<p><img src=\"https://intranet.agr.gc.ca/resources/prod/news/images/WindowsLogo.png\" class=\"center-block\"></p>\n\n\t\t",
        "fr": "<br>\n<br>\n<p>\n\u00c0 compter de juin 2018, AAC modernisera tous les postes de travail r\u00e9seaut\u00e9s (ordinateurs portatifs, ordinateurs de bureau) sur lesquels sont actuellement install\u00e9s la suite Microsoft Office 2010 et le syst\u00e8me d\u2019exploitation Windows 7. Le syst\u00e8me d\u2019exploitation Windows 7 sera donc remplac\u00e9 par la version Windows 10 et la suite MS Office 2010 sera remplac\u00e9e par la version MS Office 2016.</p>\n<p>Dans l\u2019ensemble, la nouvelle suite MS Office ne comporte pas de diff\u00e9rences notables. Dans la nouvelle version de Windows, le menu D\u00e9marrer fait peau neuve; ceux qui ont Windows 10 install\u00e9 sur leur ordinateur personnel ont d\u00e9j\u00e0 pu se familiariser avec cette nouvelle pr\u00e9sentation.</p>\n<h2><strong>\u00c0 quoi s\u2019attendre</strong></h2>\n<p>Le d\u00e9ploiement se fera de juin \u00e0 ao\u00fbt 2018. Les employ\u00e9s seront r\u00e9partis dans des groupes et la mise \u00e0 niveau sera faite dans un ou plusieurs groupes chaque jour. D'autres\u00a0employ\u00e9s\u00a0du Centre TI seront affect\u00e9s exclusivement \u00e0 la r\u00e9solution des probl\u00e8mes potentiels li\u00e9s \u00e0 la mise \u00e0 niveau.</p>\n<p>Vous recevrez deux courriels de la bo\u00eete aux lettres du projet de la migration \u00e0 l\u2019environnement d\u2019exploitation commun des ordinateurs de bureau (<abbr title=\"migration \u00e0 l\u2019environnement d\u2019exploitation commun des ordinateurs de bureau\">MEECOB</abbr>). Le premier sera envoy\u00e9 une semaine avant la migration. Il confirmera la semaine de la mise \u00e0 niveau de votre poste de travail et fournira des liens contenant de l\u2019information utile qui facilitera votre transition le plus possible. Le deuxi\u00e8me courriel sera envoy\u00e9 deux jours avant la migration. Il confirmera la date de votre mise \u00e0 niveau et d\u00e9crira les prochaines \u00e9tapes.</p>\n<h2><strong>Mise \u00e0 niveau</strong></h2>\n<p>Deux options vous seront offertes pour faire la mise \u00e0 niveau \u00e0 la date pr\u00e9vue.</p>\n<p><img src=\"https://intranet.agr.gc.ca/resources/prod/news/images/WindowsUpgradeIcon.png\" class=\"pull-left mrgn-rght-md\">1. Vous pouvez commencer la mise \u00e0 niveau vous-m\u00eame en rep\u00e9rant l\u2019ic\u00f4ne bleue et jaune sur votre bureau et en double-cliquant sur celle-ci. Vous ne pourrez pas utiliser votre poste de travail durant la mise \u00e0 niveau, qui peut prendre jusqu\u2019\u00e0 deux heures. Par cons\u00e9quent, nous vous recommandons de d\u00e9marrer la mise \u00e0 niveau \u00e0 la fin de votre journ\u00e9e de travail.</p>\n<p>OU</p>\n<p>2. Si vous ne le faites pas vous-m\u00eame, la mise \u00e0 niveau commencera automatiquement \u00e0 18 h, heure locale.</p>\n<h2><strong>Pr\u00e9paration</strong></h2>\n<p>Renseignez-vous sur les mises \u00e0 niveau en consultant les liens suivants :</p>\n<ul>\n<li><a href=\"https://collab.agr.gc.ca/co/cdoem-meecob/SitePages/CDOEM.aspx\">Page de l'espace de travail du savoir sur les mises \u00e0 niveau Microsoft Windows et Office</a></li>\n<li><a href=\"http://intranet.agr.gc.ca/agrisource/fra/newswork/reminder-windows-and-office-upgrades-checking-software-compatibility-deadline-is-april-30?id=1523897490911\">Mises \u00e0 niveau Windows et Office : V\u00e9rifier la comptabilit\u00e9 des logiciels</a></li>\n</ul>\n<p>Communiquez avec <a href=\"mailto:aafc.cdoem-meebc.aac@canada.ca\">l\u2019\u00e9quipe de projet de la <abbr title=\"migration \u00e0 l\u2019environnement d\u2019exploitation commun des ordinateurs de bureau\">MEECOB</abbr></a> si vous avez des questions ou des pr\u00e9occupations.</p>\n<p><img src=\"https://intranet.agr.gc.ca/resources/prod/news/images/WindowsLogo.png\" class=\"center-block\"></p>\n\t\t"
    },
    "breadcrumb": {
        "en": "Windows and Office Upgrades Start in June!",
        "fr": "D\u00e9but des mises \u00e0 niveau de Windows et de MS Office en juin!"
    },
    "news": {
        "date_posted": {
            "en": "2018-05-30",
            "fr": "2018-05-30"
        },
        "to": {
            "en": "All staff",
            "fr": "Tous les employ\u00e9s"
        },
        "by": {
            "en": "Information Systems Branch",
            "fr": "Direction g\u00e9n\u00e9rale des syst\u00e8mes d'information"
        }
    }
}