{
    "dcr_id": "1528825768704",
    "lang": "en",
    "title": {
        "en": "Reminder - Presentation by Harvard Professor Steven Pinker on Human Progress - June 27",
        "fr": "Rappel - Steven Pinker, professeur \u00e0 l'Universit\u00e9 Harvard - Le progr\u00e8s humain - Le 27 juin"
    },
    "modified": "2018-06-20 00:00:00.0",
    "issued": "2018-06-14 00:00:00.0",
    "type_name": "intra-intra/news-nouv",
    "node_id": "1279030006975",
    "layout_name": null,
    "dc_date_created": "2018-06-12",
    "breadcrumb_label": "",
    "meta": {
        "issued": {
            "en": "2018-06-14",
            "fr": "2018-06-14"
        },
        "modified": {
            "en": "2018-06-20",
            "fr": "2018-06-20"
        },
        "format": {
            "en": "gcformat",
            "fr": "gcformat"
        },
        "title": {
            "en": "Reminder - Presentation by Harvard Professor Steven Pinker on Human Progress - June 27",
            "fr": "Rappel - Steven Pinker, professeur \u00e0 l'Universit\u00e9 Harvard - Le progr\u00e8s humain - Le 27 juin"
        },
        "subject": {
            "en": "communications",
            "fr": "communications"
        },
        "description": {
            "en": "Join us for a discussion with Harvard Professor Steven Pinker, a renowned and influential popular academic, who suggests that by quantifying progress we can see that the world is, in fact, becoming a better place to live.",
            "fr": "Joignez-vous \u00e0 nous pour une discussion avec Steven Pinker, professeur \u00e0 l'Universit\u00e9 Harvard et universitaire populaire, influent et de renom, qui affirme qu'en quantifiant le progr\u00e8s, nous pouvons constater que le monde est, en fait, en train de devenir un meilleur endroit o\u00f9 vivre."
        },
        "language": {
            "en": "eng",
            "fr": "fra"
        },
        "audience": {
            "en": "gcaudience",
            "fr": "gcaudience"
        },
        "creator": {
            "en": "Agriculture and Agri-Food Canada",
            "fr": "Agriculture et Agroalimentaire Canada"
        },
        "spatial": {
            "en": "gcregions",
            "fr": "gcregions"
        },
        "service": {
            "en": "AAFC_AgriSource",
            "fr": "AAC_AgriSource"
        },
        "accessRights": {
            "en": "3",
            "fr": "3"
        }
    },
    "body": {
        "en": "<br>\n<br>\n<p>As public servants we collectively work to make Canada and the world a better place to live. And yet all around us are signs that we are facing an insurmountable uphill battle \u2013 war, terrorism, poverty, weather extremes and climate change are all featured heavily in the news every day. But are these observations really true? Join us for a discussion with Harvard Professor Steven Pinker, a renowned and influential popular academic, who suggests that by quantifying progress we can see that the world is, in fact, becoming a better place to live. Together we will explore:</p>\n<ul>\n<li>How life, health, prosperity, safety, peace, knowledge, and happiness are all on the rise, despite the proliferation of negative news</li>\n<li>How the role of food and agriculture is contributing to human progress</li>\n<li>Solutions to global issues, such as human conflict and the environment, through the eyes of a multi-disciplinary scientist</li>\n</ul>\n<h2><strong>Event information</strong></h2>\n<p><strong>Date and Time:</strong> June 27, 2018\u00a0| 3:30 to 5:00 p.m. (ET)<br><strong>Language:</strong> English<br><strong>Location:</strong> T3-1-351, NHCAP<br><strong>Teleconference:</strong> 613-729-5408 or 1-855-470-7641; <strong>Conference ID: </strong>610943111#<br><strong>Videoconference:</strong> 610943111</p>\n<h2><strong>Speaker biography</strong></h2>\n<p><img src=\"https://intranet.agr.gc.ca/resources/prod/news/images/StevenPinker2.png\" class=\"pull-left mrgn-rght-md\" alt=\"Steven Pinker\">Steven Pinker<br>Harvard Professor</p>\n<p>Steven Pinker is an experimental psychologist who has become a highly influential public academic. He grew up in Montreal and earned his BA from McGill and his PhD from Harvard. Currently a professor at Harvard, he has also taught at Stanford and MIT. He is an elected member of the U.S. National Academy of Sciences. He has won numerous prizes for his research, his teaching, and his nine books and has made an appearance on <em>Time</em>\u2019s \u201c100 Most Influential People in the World Today\u201d and <em>Foreign Policy</em>\u2019s \u201cWorld\u2019s Top 100 Public Intellectuals.\u201d</p>\n\n\t\t",
        "fr": "<br>\n<br>\n<p>En tant que fonctionnaires, nous travaillons collectivement pour faire du Canada et du monde un meilleur endroit o\u00f9 vivre. Et pourtant, tout ce qui nous entoure est signe que nous faisons face \u00e0 une bataille insurmontable \u2013 la guerre, le terrorisme, la pauvret\u00e9, les conditions m\u00e9t\u00e9orologiques extr\u00eames et les changements climatiques font tous les jours l\u2019objet d\u2019une attention particuli\u00e8re dans les m\u00e9dias. Mais ces observations sont-elles bien vraies? Joignez-vous \u00e0 nous pour une discussion avec Steven\u00a0Pinker, professeur \u00e0 l\u2019Universit\u00e9\u00a0Harvard et universitaire populaire, influent et de renom, qui affirme qu\u2019en quantifiant le progr\u00e8s, nous pouvons constater que le monde est, en fait, en train de devenir un meilleur endroit o\u00f9 vivre. Ensemble, nous explorerons\u00a0:</p>\n<ul>\n<li>comment la vie, la sant\u00e9, la prosp\u00e9rit\u00e9, la s\u00e9curit\u00e9, la paix, le savoir et le bonheur sont \u00e0 la hausse, malgr\u00e9 la prolif\u00e9ration de nouvelles n\u00e9gatives\n</li>\n<li>comment l\u2019alimentation et l\u2019agriculture contribuent au progr\u00e8s humain</li>\n<li>les solutions aux probl\u00e8mes mondiaux tels que l\u2019environnement et les conflits humains du point de vue d\u2019un scientifique multidisciplinaire</li>\n</ul>\n<h2><b>Renseignements sur l\u2019activit\u00e9</b></h2>\n<p><strong>Date et heure :</strong> 27 juin 2018 | de 15 h 30 \u00e0 17 h (HE)<br><strong>Langue :</strong> Anglais<br><strong>Lieu :</strong> T3-1-351, CACPA<br><strong>T\u00e9l\u00e9conf\u00e9rence :</strong> 613-729-5408 ou 1-855-470-7641, <strong>N<sup>o</sup> de conf\u00e9rence :</strong>\u00a0 610943111#<br><strong>Vid\u00e9oconf\u00e9rence :</strong> 610943111</p>\n<h2><strong><strong><strong>Biographie du conf\u00e9rencier</strong></strong>\u00a0</strong>\u00a0 </h2>\n<p><img src=\"https://intranet.agr.gc.ca/resources/prod/news/images/StevenPinker2.png\" class=\"pull-left mrgn-rght-md\" alt=\"Steven Pinker\">Steven Pinker<br>Professeur \u00e0 l\u2019Universit\u00e9\u00a0Harvard</p>\n<p>Steven\u00a0Pinker est un psychologue exp\u00e9rimental qui est devenu un universitaire public tr\u00e8s influent. Il a grandi \u00e0 Montr\u00e9al et a obtenu son baccalaur\u00e9at \u00e8s arts \u00e0 l\u2019Universit\u00e9\u00a0McGill et son doctorat \u00e0 l\u2019Universit\u00e9\u00a0Harvard. Il est professeur \u00e0 l\u2019Universit\u00e9 Harvard et a \u00e9galement enseign\u00e9 \u00e0 l\u2019Universit\u00e9\u00a0Stanford et au Massachusetts Institute of Technology (<abbr title=\"Massachusetts Institute of Technology\">MIT</abbr>). Il est membre \u00e9lu de la National Academy of Sciences des \u00c9tats-Unis. Il a remport\u00e9 de nombreux prix pour ses recherches, ses enseignements et ses neuf livres et a d\u00e9j\u00e0 \u00e9t\u00e9 l\u2019une des \u00ab\u00a0100\u00a0personnalit\u00e9s les plus influentes du monde\u00a0\u00bb du magazine <i>Time</i> et l\u2019un des \u00ab\u00a0100\u00a0plus grands intellectuels du monde\u00a0\u00bb du magazine <i>Foreign Policy</i>. </p>\n\t\t"
    },
    "breadcrumb": {
        "en": "Reminder - Presentation by Harvard Professor Steven Pinker on Human Progress - June 27",
        "fr": "Rappel - Steven Pinker, professeur \u00e0 l'Universit\u00e9 Harvard - Le progr\u00e8s humain - Le 27 juin"
    },
    "news": {
        "date_posted": {
            "en": "2018-06-14",
            "fr": "2018-06-14"
        },
        "to": {
            "en": "All staff",
            "fr": "Tous les employ\u00e9s"
        },
        "by": {
            "en": "Strategic Policy Branch",
            "fr": "Direction g\u00e9n\u00e9rale des politiques strat\u00e9giques"
        }
    }
}