{
    "dcr_id": "1529082458032",
    "lang": "en",
    "title": {
        "en": "Reminder - National Public Service Week - Wrap-up and Survey",
        "fr": "Rappel - Semaine nationale de la fonction publique - R\u00e9capitulation et sondage"
    },
    "modified": "2018-06-27 00:00:00.0",
    "issued": "2018-06-15 00:00:00.0",
    "type_name": "intra-intra/news-nouv",
    "node_id": "1279030006975",
    "layout_name": null,
    "dc_date_created": "2018-06-15",
    "breadcrumb_label": "",
    "meta": {
        "issued": {
            "en": "2018-06-15",
            "fr": "2018-06-15"
        },
        "modified": {
            "en": "2018-06-27",
            "fr": "2018-06-27"
        },
        "format": {
            "en": "gcformat",
            "fr": "gcformat"
        },
        "title": {
            "en": "Reminder - National Public Service Week - Wrap-up and Survey",
            "fr": "Rappel - Semaine nationale de la fonction publique - R\u00e9capitulation et sondage"
        },
        "subject": {
            "en": "communications",
            "fr": "communications"
        },
        "description": {
            "en": "Thank you to everyone who participated in this year's National Public Service Week activities. What a great time to reflect on the valuable contributions made year-round by Agriculture and Agri-Food Canada employees!",
            "fr": "Je remercie tous ceux et celles qui ont particip\u00e9 aux activit\u00e9s de la Semaine nationale de la fonction publique. Cette semaine a \u00e9t\u00e9 l'occasion par excellence de r\u00e9fl\u00e9chir au pr\u00e9cieux travail accompli \u00e0 longueur d'ann\u00e9e par les employ\u00e9s d'Agriculture et Agroalimentaire Canada!"
        },
        "language": {
            "en": "eng",
            "fr": "fra"
        },
        "audience": {
            "en": "gcaudience",
            "fr": "gcaudience"
        },
        "creator": {
            "en": "Agriculture and Agri-Food Canada",
            "fr": "Agriculture et Agroalimentaire Canada"
        },
        "spatial": {
            "en": "gcregions",
            "fr": "gcregions"
        },
        "service": {
            "en": "AAFC_AgriSource",
            "fr": "AAC_AgriSource"
        },
        "accessRights": {
            "en": "3",
            "fr": "3"
        }
    },
    "body": {
        "en": "<br>\n<br>\n<p>Thank you to everyone who participated in this year's National Public Service Week (<abbr title=\"National Public Service Week\">NPSW</abbr>) activities. What a great time to reflect on the valuable contributions made year-round by Agriculture and Agri-Food Canada employees!</p>\n<p>Celebrations took place across the country throughout the week, including launch events, mental health sessions, and the ever-popular Appreciation-O-Grams.</p>\n<p>This year, we honoured the outstanding contributions of over 125 AAFC employees at the Departmental Awards Ceremony. You can read more about the achievements of our <a href=\"http://intranet.agr.gc.ca/agrisource/eng/human-resources/awards-and-recognition/2018-departmental-awards-ceremony?id=1527681253450\">2018 Departmental Awards recipients</a> and see this year\u2019s Gold Harvest Award video on AgriSource.</p>\n<p>Your feedback on the week\u2019s activities helps ensure that NPSW events continue to be meaningful for you. Please take a few minutes to <a href=\"https://na1se.voxco.com/SE/?st=pq65FgEug4RPX4iwntXfNDK3MNcaFry9eebh07eA%2fDM%3d&amp;LANG=EN\">complete the online survey</a> by Thursday, July 5.</p>\n<p>On behalf of the management team, thank you for your support of a successful NPSW.</p>\n<p>\u00a0</p>\n<p><strong>Chris Forbes</strong><br>\nDeputy Minister</p>\n\n\t\t",
        "fr": "<br>\n<br>\n<p>Je remercie tous ceux et celles qui ont particip\u00e9 aux activit\u00e9s de la Semaine nationale de la fonction publique (<abbr title=\"Semaine nationale de la fonction publique\">SNFP</abbr>). Cette semaine a \u00e9t\u00e9 l\u2019occasion par excellence de r\u00e9fl\u00e9chir au pr\u00e9cieux travail accompli \u00e0 longueur d\u2019ann\u00e9e par les employ\u00e9s d\u2019Agriculture et Agroalimentaire Canada!</p>\n<p>Des c\u00e9l\u00e9brations ont eu lieu d\u2019un bout \u00e0 l\u2019autre du pays pendant toute la semaine. Mentionnons entre autres des activit\u00e9s de lancement, des s\u00e9ances sur la sant\u00e9 mentale et les tr\u00e8s populaires Appr\u00e9ciation-O-grammes.</p>\n<p>Cette ann\u00e9e, nous avons soulign\u00e9 l\u2019excellent travail de plus de 125 employ\u00e9s lors de la c\u00e9r\u00e9monie de remise des prix du Minist\u00e8re. Vous pouvez vous renseigner sur les r\u00e9alisations de nos <a href=\"http://intranet.agr.gc.ca/agrisource/fra/ressources-humaines/prix-et-reconnaissance/ceremonie-de-remise-des-prix-de-2018?id=1527681253450\">laur\u00e9ats des prix du Minist\u00e8re de 2018</a> et regarder la vid\u00e9o sur les prix Moisson d\u2019or en allant sur AgriSource.</p>\n<p>Pour que les activit\u00e9s de la SNFP continuent d\u2019\u00eatre int\u00e9ressantes, nous avons besoin de vos commentaires. Veuillez donc prendre quelques minutes pour <a href=\"https://na1se.voxco.com/SE/?st=pq65FgEug4RPX4iwntXfNDK3MNcaFry9eebh07eA%2fDM%3d&amp;LANG=FR\">remplir le sondage en ligne</a> d\u2019ici le jeudi 5 juillet.</p>\n<p>Au nom de l\u2019\u00e9quipe de la direction, je vous remercie de votre appui et d\u2019avoir fait de la SNFP un succ\u00e8s.</p>\n<p>\u00a0</p>\n<p><strong>Chris Forbes</strong><br>\nSous-ministre</p>\n\t\t"
    },
    "breadcrumb": {
        "en": "Reminder - National Public Service Week - Wrap-up and Survey",
        "fr": "Rappel - Semaine nationale de la fonction publique - R\u00e9capitulation et sondage"
    },
    "news": {
        "date_posted": {
            "en": "2018-06-15",
            "fr": "2018-06-15"
        },
        "to": {
            "en": "All staff",
            "fr": "Tous les employ\u00e9s"
        },
        "by": {
            "en": "Chris Forbes, Deputy Minister",
            "fr": "Chris Forbes, sous-ministre"
        }
    }
}