{
    "dcr_id": "1530629492275",
    "lang": "en",
    "title": {
        "en": "Reminder - Getting Ready for Summer - Share Your Photos",
        "fr": "Rappel - Pr\u00eats pour l'\u00e9t\u00e9 - Partagez vos photos"
    },
    "modified": "2018-07-18 00:00:00.0",
    "issued": "2018-07-05 00:00:00.0",
    "type_name": "intra-intra/news-nouv",
    "node_id": "1279030006975",
    "layout_name": null,
    "dc_date_created": "2018-07-03",
    "breadcrumb_label": "",
    "meta": {
        "issued": {
            "en": "2018-07-05",
            "fr": "2018-07-05"
        },
        "modified": {
            "en": "2018-07-18",
            "fr": "2018-07-18"
        },
        "format": {
            "en": "gcformat",
            "fr": "gcformat"
        },
        "title": {
            "en": "Reminder - Getting Ready for Summer - Share Your Photos",
            "fr": "Rappel - Pr\u00eats pour l'\u00e9t\u00e9 - Partagez vos photos"
        },
        "subject": {
            "en": "communications",
            "fr": "communications"
        },
        "description": {
            "en": "Have you made any summer vacation plans yet? Be sure to keep your cameras at the ready; you just never know when you'll happen to come across breathtaking scenery!",
            "fr": "Avez-vous d\u00e9j\u00e0 fait des projets de vacances pour l'\u00e9t\u00e9? Assurez-vous d'avoir votre appareil photo \u00e0 port\u00e9e de la main, car l'occasion de photographier une sc\u00e8ne \u00e0 couper le souffle peut arriver \u00e0 tout moment!"
        },
        "language": {
            "en": "eng",
            "fr": "fra"
        },
        "audience": {
            "en": "gcaudience",
            "fr": "gcaudience"
        },
        "creator": {
            "en": "Agriculture and Agri-Food Canada",
            "fr": "Agriculture et Agroalimentaire Canada"
        },
        "spatial": {
            "en": "gcregions",
            "fr": "gcregions"
        },
        "service": {
            "en": "AAFC_AgriSource",
            "fr": "AAC_AgriSource"
        },
        "accessRights": {
            "en": "3",
            "fr": "3"
        }
    },
    "body": {
        "en": "<br>\n<br>\n<p>Have you made any summer vacation plans yet? Be sure to keep your cameras at the ready; you just never know when you'll happen to come across breathtaking scenery! We want your help documenting the season. Take a photo and share it with us.</p>\n<p>Submitted pictures could make an appearance in one of our internal communication products, including The Harvest, where photos can be liked, shared and commented on. We hope to see photos from every region for a full look at summer across Canada. Photographs should be of scenes and should not include people. Please submit your photos by clicking \u201cContribute\u201d in the top menu bar on <a rel=\"external\" href=\"https://collab.agr.gc.ca/apps/harvest-moisson\">The Harvest</a> site and suggest a title, provide a brief description of the image, and the place and date the photo was taken. You can also send your photos and descriptions by email to <a href=\"mailto:AAFC.TheHarvest-LaMoisson.AAC@agr.gc.ca\">AAFC.TheHarvest-LaMoisson.AAC@agr.gc.ca</a>.</p>\n<p>Thanks to all those who have contributed photos in the past. Check out the <a rel=\"external\" href=\"https://collab.agr.gc.ca/apps/harvest-moisson/Pages/photos.aspx\">galleries</a> in The Harvest and see the amazing photographic talent we have here at AAFC! And while you are visiting, take the time to read the <a rel=\"external\" href=\"https://collab.agr.gc.ca/apps/harvest-moisson/Pages/articles.aspx\">inspiring articles</a> about your colleagues!</p>\n<p>\u00a0<img src=\"https://intranet.agr.gc.ca/resources/prod/news/images/HarvestSummerPhoto.png\" class=\"center-block\" alt=\"Sunflower\"></p>\n\n\t\t",
        "fr": "<br>\n<br>\n<p>Avez-vous d\u00e9j\u00e0 fait des projets de vacances pour l\u2019\u00e9t\u00e9? Assurez-vous d'avoir votre appareil photo \u00e0 port\u00e9e de la main, car l'occasion de photographier une sc\u00e8ne \u00e0 couper le souffle peut arriver \u00e0 tout moment! Alors pourquoi ne pas capter ces images \u00e9poustouflantes \u00e0 l\u2019aide de votre appareil photo? Envoyez-nous ensuite vos photos.</p>\n<p>Les photos soumises pourraient \u00eatre affich\u00e9es dans un de nos produits de communication interne, dont La Moisson, o\u00f9 vous pouvez accorder la mention \u00ab J'aime \u00bb \u00e0 vos photos favorites et laisser des commentaires. Nous esp\u00e9rons recevoir des photos d'un oc\u00e9an \u00e0 l'autre pour montrer l\u2019\u00e9t\u00e9 canadien dans toutes ses nuances. Les photos doivent pr\u00e9senter une sc\u00e8ne, mais ne pas inclure de personnes. Veuillez envoyer vos photos en cliquant sur \u00ab Collaborer \u00bb dans la barre de menus du haut du site de <a rel=\"external\" href=\"https://collab.agr.gc.ca/apps/harvest-moisson\">La Moisson</a>. Veuillez sugg\u00e9rer un titre, fournir une br\u00e8ve description et indiquer la date et l'endroit o\u00f9 la photo a \u00e9t\u00e9 prise. Vous pouvez aussi envoyer vos photos et descriptions \u00e0 <a href=\"mailto:AAFC.TheHarvest-LaMoisson.AAC@agr.gc.ca\">AAFC.TheHarvest-LaMoisson.AAC@agr.gc.ca</a>.</p>\n<p>Nous remercions tous ceux qui nous ont envoy\u00e9 des photos dans le pass\u00e9. Allez jeter un coup d'\u0153il aux <a rel=\"external\" href=\"https://collab.agr.gc.ca/apps/harvest-moisson/Pages/photos.aspx\">galeries</a> de La Moisson et voyez l'\u00e9norme talent photographique que nous avons ici \u00e0 AAC! Et pendant que vous y \u00eates, prenez le temps de lire <a rel=\"external\" href=\"https://collab.agr.gc.ca/apps/harvest-moisson/Pages/articles.aspx\">les articles inspirants</a> sur vos coll\u00e8gues!</p>\n<p><img src=\"https://intranet.agr.gc.ca/resources/prod/news/images/HarvestSummerPhoto.png\" class=\"center-block\" alt=\"Un tournesol\"></p>\n\t\t"
    },
    "breadcrumb": {
        "en": "Reminder - Getting Ready for Summer - Share Your Photos",
        "fr": "Rappel - Pr\u00eats pour l'\u00e9t\u00e9 - Partagez vos photos"
    },
    "news": {
        "date_posted": {
            "en": "2018-07-05",
            "fr": "2018-07-05"
        },
        "to": {
            "en": "All staff",
            "fr": "Tous les employ\u00e9s"
        },
        "by": {
            "en": "Corporate Communications, Public Affairs Branch",
            "fr": "Communications minist\u00e9rielles, Direction g\u00e9n\u00e9rale des affaires publiques"
        }
    }
}