{
    "dcr_id": "1530026575038",
    "lang": "en",
    "title": {
        "en": "NCR - Conversation with the Deputy Minister - 2017 Public Service Employee Survey Session - July 6",
        "fr": "RCN - Conversation avec le sous-ministre - S\u00e9ance sur le Sondage aupr\u00e8s des fonctionnaires f\u00e9d\u00e9raux de 2017 - Le 6 juillet"
    },
    "modified": "2018-06-27 00:00:00.0",
    "issued": "2018-06-27 00:00:00.0",
    "type_name": "intra-intra/news-nouv",
    "node_id": "1279030006975",
    "layout_name": null,
    "dc_date_created": "2018-06-26",
    "breadcrumb_label": "",
    "meta": {
        "issued": {
            "en": "2018-06-27",
            "fr": "2018-06-27"
        },
        "modified": {
            "en": "2018-06-27",
            "fr": "2018-06-27"
        },
        "format": {
            "en": "gcformat",
            "fr": "gcformat"
        },
        "title": {
            "en": "NCR - Conversation with the Deputy Minister - 2017 Public Service Employee Survey Session - July 6",
            "fr": "RCN - Conversation avec le sous-ministre - S\u00e9ance sur le Sondage aupr\u00e8s des fonctionnaires f\u00e9d\u00e9raux de 2017 - Le 6 juillet"
        },
        "subject": {
            "en": "communications",
            "fr": "communications"
        },
        "description": {
            "en": "AAFC is holding a series of bilingual <I>Conversations with the Deputy Minister</I> over the summer months. The sessions will focus on the Department's 2017 Public Service Employee Survey results.",
            "fr": "AAC tiendra une s\u00e9rie de Conversations avec le sous-ministre au cours des mois d'\u00e9t\u00e9. Ces s\u00e9ances bilingues d'une heure porteront sur les r\u00e9sultats du Minist\u00e8re dans le cadre du Sondage aupr\u00e8s des fonctionnaires f\u00e9d\u00e9raux de 2017."
        },
        "language": {
            "en": "eng",
            "fr": "fra"
        },
        "audience": {
            "en": "gcaudience",
            "fr": "gcaudience"
        },
        "creator": {
            "en": "Agriculture and Agri-Food Canada",
            "fr": "Agriculture et Agroalimentaire Canada"
        },
        "spatial": {
            "en": "gcregions",
            "fr": "gcregions"
        },
        "service": {
            "en": "AAFC_AgriSource",
            "fr": "AAC_AgriSource"
        },
        "accessRights": {
            "en": "3",
            "fr": "3"
        }
    },
    "body": {
        "en": "<br>\n<br>\n<p>AAFC is holding a series of bilingual <em>Conversations with the Deputy Minister</em> over the summer months. The sessions will focus on the Department\u2019s <strong>2017 Public Service Employee Survey results</strong>. These one-hour sessions are an opportunity for AAFC employees to share their ideas and suggestions with the Deputy, which will in turn help inform the Department\u2019s response to the challenges and opportunities raised through the survey.</p>\n<p>The first session will take place on <strong>Friday, July 6, 2018, from 2:30 to 3:30 p.m. (ET)</strong> with Deputy Minister Chris Forbes.</p>\n<p>Registration is on a first-come, first-served basis. If you wish to attend, please submit your name, job title and branch to <a href=\"mailto:aafc.dmcommunications-communicationssm.aac@canada.ca\">aafc.dmcommunications-communicationssm.aac@canada.ca</a> by <strong>Tuesday, July 3</strong>. You will be sent an alternate date if this session becomes full. A meeting scheduler will be sent to confirm registration.</p>\n<p><img src=\"https://intranet.agr.gc.ca/resources/prod/news/images/ConversationDM-EN.png\" class=\"center-block\"></p>\n\n\t\t",
        "fr": "<br>\n<br>\n<p>AAC tiendra une s\u00e9rie de <em>Conversations avec le sous-ministre</em> au cours des mois d\u2019\u00e9t\u00e9. Ces s\u00e9ances bilingues d\u2019une heure porteront sur les <strong>r\u00e9sultats</strong> du Minist\u00e8re dans le cadre du <strong>Sondage aupr\u00e8s des fonctionnaires f\u00e9d\u00e9raux de 2017</strong>. Il s\u2019agit d\u2019une occasion pour les employ\u00e9s d\u2019AAC de faire part de leurs id\u00e9es et suggestions au sous-ministre et d\u2019\u00e9clairer ainsi les mesures \u00e0 prendre par le Minist\u00e8re pour donner suite aux probl\u00e8mes et aux possibilit\u00e9s qu\u2019a fait ressortir le sondage.</p>\n<p>La premi\u00e8re s\u00e9ance avec le sous-ministre, Chris Forbes, aura lieu le <strong>vendredi 6 juillet 2018, de 14 h 30 \u00e0 15 h 30 (HE)</strong>.</p>\n<p>L\u2019inscription se fait selon le principe du premier arriv\u00e9, premier servi. Si vous d\u00e9sirez participer, veuillez soumettre votre nom, votre titre de poste et le nom de votre direction g\u00e9n\u00e9rale par courriel \u00e0 <a href=\"mailto:aafc.dmcommunications-communicationssm.aac@canada.ca\">aafc.dmcommunications-communicationssm.aac@canada.ca</a> d\u2019ici le <strong>mardi 3 juillet</strong>. Une autre date vous sera propos\u00e9e si le nombre de places disponibles est atteint. Un avis de convocation sera envoy\u00e9 pour confirmer l\u2019inscription.</p>\n<p>\u00a0</p>\n<p><img src=\"https://intranet.agr.gc.ca/resources/prod/news/images/ConversationDM-FR.png\" class=\"center-block\"></p>\n\t\t"
    },
    "breadcrumb": {
        "en": "NCR - Conversation with the Deputy Minister - 2017 Public Service Employee Survey Session - July 6",
        "fr": "RCN - Conversation avec le sous-ministre - S\u00e9ance sur le Sondage de 2017 aupr\u00e8s des fonctionnaires f\u00e9d\u00e9raux - Le 6 juillet"
    },
    "news": {
        "date_posted": {
            "en": "2018-06-27",
            "fr": "2018-06-27"
        },
        "to": {
            "en": "NCR only",
            "fr": "RCN seulement"
        },
        "by": {
            "en": "Corporate Communications, Public Affairs Branch",
            "fr": "Communications minist\u00e9rielles, Direction g\u00e9n\u00e9rale des affaires publiques"
        }
    }
}