{
    "dcr_id": "1530818053267",
    "lang": "en",
    "title": {
        "en": "New AAFC Guidelines for Travel, Hospitality, Conference and Event Expenditures",
        "fr": "Nouvelles lignes directrices d'AAC sur les d\u00e9penses de voyages, d'accueil, de conf\u00e9rences et d'\u00e9v\u00e9nements"
    },
    "modified": "2018-07-12 00:00:00.0",
    "issued": "2018-07-12 00:00:00.0",
    "type_name": "intra-intra/news-nouv",
    "node_id": "1279030006975",
    "layout_name": null,
    "dc_date_created": "2018-07-06",
    "breadcrumb_label": "",
    "meta": {
        "issued": {
            "en": "2018-07-12",
            "fr": "2018-07-12"
        },
        "modified": {
            "en": "2018-07-12",
            "fr": "2018-07-12"
        },
        "format": {
            "en": "gcformat",
            "fr": "gcformat"
        },
        "title": {
            "en": "New AAFC Guidelines for Travel, Hospitality, Conference and Event Expenditures",
            "fr": "Nouvelles lignes directrices d'AAC sur les d\u00e9penses de voyages, d'accueil, de conf\u00e9rences et d'\u00e9v\u00e9nements"
        },
        "subject": {
            "en": "communications",
            "fr": "communications"
        },
        "description": {
            "en": "The new AAFC Guidelines for Travel, Hospitality, Conference and Event Expenditures are now available. This document provides clarification on changes to Treasury Board Secretariat's associated directive and to AAFC's Delegation of Authority.",
            "fr": "Les nouvelles Lignes directrices d'AAC sur les d\u00e9penses de voyages, d'accueil, de conf\u00e9rences et d'\u00e9v\u00e9nements sont maintenant disponibles. Elles donnent des pr\u00e9cisions sur les changements apport\u00e9s \u00e0 la Directive sur les d\u00e9penses de voyages, d'accueil, de conf\u00e9rences et d'\u00e9v\u00e9nements du Conseil du Tr\u00e9sor et \u00e0 la d\u00e9l\u00e9gation de pouvoirs d'AAC."
        },
        "language": {
            "en": "eng",
            "fr": "fra"
        },
        "audience": {
            "en": "gcaudience",
            "fr": "gcaudience"
        },
        "creator": {
            "en": "Agriculture and Agri-Food Canada",
            "fr": "Agriculture et Agroalimentaire Canada"
        },
        "spatial": {
            "en": "gcregions",
            "fr": "gcregions"
        },
        "service": {
            "en": "AAFC_AgriSource",
            "fr": "AAC_AgriSource"
        },
        "accessRights": {
            "en": "3",
            "fr": "3"
        }
    },
    "body": {
        "en": "<br>\n<br>\n<p>The new AAFC Guidelines for Travel, Hospitality, Conference and Event (<abbr title=\"Travel, Hospitality, Conference and Event\">THCE</abbr>) Expenditures are now available. This document provides clarification on changes to Treasury Board Secretariat\u2019s (<abbr title=\"Treasury Board Secretariat\">TBS</abbr>) associated directive and to AAFC\u2019s Delegation of Authority.</p>\n<p>The Guidelines will assist managers with delegation of financial authority in making sound decisions while planning and approving travel, hospitality, conference, and event expenditures. These guidelines replace the AAFC Guidelines for Hospitality Under $1,500 and are meant to work in conjunction with <abbr title=\"Treasury Board Secretariat\">TBS</abbr>\u2019 directive and guide on <abbr title=\"Travel, Hospitality, Conference and Event\">THCE</abbr> expenditures.</p>\n<p><a target=\"_blank\" href=\"http://intranet.agr.gc.ca/agrisourceprev/AgriDoc.do?id=3659041&amp;lang=eng\">AAFC Guidelines for <abbr title=\"Travel, Hospitality, Conference and Event\">THCE</abbr> Expenditures</a>\u00a0provide guidance on: </p>\n<ul>\n<li>The principles to take into consideration for <abbr title=\"Travel, Hospitality, Conference and Event\">THCE</abbr> expenditures</li>\n<li>The approval process and when re-approval is required</li>\n<li>Standards and approval requirements, including information on:\n<ul>\n<li>Conference approval requirements clarifications</li>\n<li>AAFC\u2019s categories of activities</li>\n<li>Approval authorities for senior management travel, hospitality, conference, membership, and training expenses</li>\n</ul>\n</li>\n</ul>\n<p>Please note that any exceptions to these guidelines will require Deputy Minister approval. Contact <a href=\"mailto:financialpolicy.politiquefinanciere@AGR.GC.CA\">Financial Policy</a> if you have any questions.</p>\n<h2><strong>Learn more</strong></h2>\n<ul>\n<li><a rel=\"internal\" href=\"http://intranet.agr.gc.ca/agrisource/eng?id=1327610986849\">Delegation of Authority</a> at AAFC</li>\n<li><a href=\"https://intranet.agr.gc.ca/agrisource/AgriDoc.do?id=4502752&amp;lang=eng\" target=\"_blank\">Decision Tree for approval of Travel, Hospitality, Conference and Events</a></li>\n<li>Treasury Board <a rel=\"external\" href=\"http://www.tbs-sct.gc.ca/pol/doc-eng.aspx?id=27228\">Directive on Travel, Hospitality, Conference and Event Expenditures</a></li>\n<li>Treasury Board <a rel=\"external\" href=\"https://www.tbs-sct.gc.ca/pol/doc-eng.aspx?id=32553\">Guide to Travel, Hospitality, Conference and Event Expenditures</a></li>\n</ul>\n\n\t\t",
        "fr": "<br>\n<br>\n<p>Les nouvelles Lignes directrices d\u2019AAC sur les d\u00e9penses de voyages, d\u2019accueil, de conf\u00e9rences et d\u2019\u00e9v\u00e9nements (<abbr title=\"voyages, d\u2019accueil, de conf\u00e9rences et d\u2019\u00e9v\u00e9nements\">VACE</abbr>) sont maintenant disponibles. Elles donnent des pr\u00e9cisions sur les changements apport\u00e9s \u00e0 la Directive sur les d\u00e9penses de voyages, d\u2019accueil, de conf\u00e9rences et d\u2019\u00e9v\u00e9nements du Conseil du Tr\u00e9sor et \u00e0 la d\u00e9l\u00e9gation de pouvoirs d\u2019AAC.</p>\n<p>Les lignes directrices aideront les gestionnaires ayant re\u00e7u une d\u00e9l\u00e9gation de pouvoirs financiers \u00e0 prendre des d\u00e9cisions \u00e9clair\u00e9es lors de la planification et de l\u2019approbation des d\u00e9penses de voyage, d\u2019accueil, de conf\u00e9rences et d\u2019\u00e9v\u00e9nements. Ces lignes directrices remplacent les Lignes directrices d\u2019AAC pour l\u2019accueil de moins de 1 500 $ et doivent \u00eatre utilis\u00e9es en parall\u00e8le avec la Directive et le Guide sur les d\u00e9penses de voyages, d\u2019accueil, de conf\u00e9rences et d\u2019\u00e9v\u00e9nements du Conseil du Tr\u00e9sor.</p>\n<p><a target=\"_blank\" href=\"http://intranet.agr.gc.ca/agrisourceprev/AgriDoc.do?id=3659122&amp;lang=fra\">Les Lignes directrices d\u2019AAC sur les d\u00e9penses de <abbr title=\"voyages, d\u2019accueil, de conf\u00e9rences et d\u2019\u00e9v\u00e9nements\">VACE</abbr></a>\u00a0donnent des pr\u00e9cisions sur :</p>\n<ul>\n<li>Les principes dont il faut tenir compte pour les d\u00e9penses de <abbr title=\"voyages, d\u2019accueil, de conf\u00e9rences et d\u2019\u00e9v\u00e9nements\">VACE</abbr></li>\n<li>Le processus d\u2019approbation et le moment o\u00f9 il faut obtenir une nouvelle approbation</li>\n<li>Les normes et exigences d\u2019approbation, notamment :\n<ul>\n<li>Les exigences quant \u00e0 l\u2019approbation des conf\u00e9rences</li>\n<li>Les cat\u00e9gories d\u2019activit\u00e9s d\u2019AAC</li>\n<li>Les pouvoirs d\u2019approbation pour les d\u00e9penses de voyages, d\u2019accueil, de conf\u00e9rences, d\u2019adh\u00e9sion et de formation de la haute direction</li>\n</ul>\n</li>\n</ul>\n<p>Veuillez noter que toute exception \u00e0 ces lignes directrices exigera l\u2019approbation du sous-ministre. Veuillez envoyer un courriel \u00e0 <a href=\"mailto:financialpolicy.politiquefinanciere@AGR.GC.CA\">Politique financi\u00e8re</a> si vous avez des questions.</p>\n<h2><strong>En savoir plus</strong></h2>\n<ul>\n<li><a rel=\"internal\" href=\"http://intranet.agr.gc.ca/agrisource/fra?id=1327610986849\">D\u00e9l\u00e9gation du pouvoir de signer</a> \u00e0 AAC</li>\n<li><a href=\"https://intranet.agr.gc.ca/agrisource/AgriDoc.do?id=4502756&amp;lang=fra\" target=\"_blank\">Arbre d\u00e9cisionnel pour l\u2019approbation des voyages, de l\u2019accueil, des conf\u00e9rences et des \u00e9v\u00e9nements</a></li>\n<li><a rel=\"external\" href=\"http://www.tbs-sct.gc.ca/pol/doc-fra.aspx?id=27228\">Directive sur les d\u00e9penses de voyages, d\u2019accueil, de conf\u00e9rences et d\u2019\u00e9v\u00e9nements</a> du Conseil du Tr\u00e9sor</li>\n<li><a rel=\"external\" href=\"https://www.tbs-sct.gc.ca/pol/doc-fra.aspx?id=32553\">Guide sur les d\u00e9penses de voyages, d\u2019accueil, de conf\u00e9rences et d\u2019\u00e9v\u00e9nements</a> du Conseil du Tr\u00e9sor</li>\n</ul>\n\t\t"
    },
    "breadcrumb": {
        "en": "New AAFC Guidelines for Travel, Hospitality, Conference and Event Expenditures",
        "fr": "Nouvelles lignes directrices d'AAC sur les d\u00e9penses de voyages, d'accueil, de conf\u00e9rences et d'\u00e9v\u00e9nements"
    },
    "news": {
        "date_posted": {
            "en": "2018-07-12",
            "fr": "2018-07-12"
        },
        "to": {
            "en": "All staff",
            "fr": "Tous les employ\u00e9s"
        },
        "by": {
            "en": "Finance and Resource Management Services, Corporate Management Branch",
            "fr": "Services des finances et de la gestion des ressources, Direction g\u00e9n\u00e9rale de la gestion int\u00e9gr\u00e9e"
        }
    }
}