{
    "dcr_id": "1531226477754",
    "lang": "en",
    "title": {
        "en": "Reminder - 6 Tips for Security in the Summer",
        "fr": "Rappel - Six conseils de s\u00e9curit\u00e9 pour l'\u00e9t\u00e9"
    },
    "modified": "2018-08-15 00:00:00.0",
    "issued": "2018-07-12 00:00:00.0",
    "type_name": "intra-intra/news-nouv",
    "node_id": "1279030006975",
    "layout_name": null,
    "dc_date_created": "2018-07-10",
    "breadcrumb_label": "",
    "meta": {
        "issued": {
            "en": "2018-07-12",
            "fr": "2018-07-12"
        },
        "modified": {
            "en": "2018-08-15",
            "fr": "2018-07-18"
        },
        "format": {
            "en": "gcformat",
            "fr": "gcformat"
        },
        "title": {
            "en": "Reminder - 6 Tips for Security in the Summer",
            "fr": "Rappel - Six conseils de s\u00e9curit\u00e9 pour l'\u00e9t\u00e9"
        },
        "subject": {
            "en": "communications",
            "fr": "communications"
        },
        "description": {
            "en": "Summer is a good time to remind ourselves of the importance of security in the workplace, especially as people embark on vacations.",
            "fr": "Le d\u00e9but des vacances estivales est une bonne occasion de se rappeler l'importance de respecter les mesures de s\u00e9curit\u00e9 au travail."
        },
        "language": {
            "en": "eng",
            "fr": "fra"
        },
        "audience": {
            "en": "gcaudience",
            "fr": "gcaudience"
        },
        "creator": {
            "en": "Agriculture and Agri-Food Canada",
            "fr": "Agriculture et Agroalimentaire Canada"
        },
        "spatial": {
            "en": "gcregions",
            "fr": "gcregions"
        },
        "service": {
            "en": "AAFC_AgriSource",
            "fr": "AAC_AgriSource"
        },
        "accessRights": {
            "en": "3",
            "fr": "3"
        }
    },
    "body": {
        "en": "<br>\n<br>\n<p>Summer is a good time to remind ourselves of the importance of security in the workplace, especially as people embark on vacations.</p>\n<p>1.<strong> Clean Desk: </strong>Clean your desk/office before you leave work for the day; ensure your desk is tidy and all documents are locked away.</p>\n<p>2.<strong> Occupant Away/Out of the Office: </strong>Use the \u201c<a href=\"https://intranet.agr.gc.ca/agrisource/AgriDoc.do?id=4364482&amp;lang=eng\" target=\"_blank\">Occupant Away</a>\u201d sign when you will be out of the office; whether it be for one day, the weekend, or your holiday. </p>\n<p>3. <strong>Password Protect Your Cell Phone/BlackBerry: </strong>Millions of cell phones and BlackBerrys are lost or stolen each year, but they are unusable if they are password protected. </p>\n<p>4.<strong> Keep Your Password List Safe: </strong>Your password list may be long; keep it safe. Never put it on a sticky note affixed to the side of your computer or in your top desk drawer. </p>\n<p>5.<strong> Social Media: </strong>Hackers constantly watch social media sites for information they can leverage to gain access to your digital system. Rethink the amount of personal information you are exposing to the public.</p>\n<p>6.<strong> Training: </strong>Ensure you have taken the mandatory security training: </p>\n<ul>\n<li>AAFC's <a href=\"http://intranet.agr.gc.ca/agrisource/eng/branches-and-offices/corporate-management-branch/services/security-awareness-training?id=1325695839878\">AGR-620 Security Awareness</a>; and</li>\n<li><a rel=\"external\" href=\"http://intranet.agr.gc.ca/agrisource/eng/human-resources/learning-and-development/training/employees/security-awareness-a230?id=1523285530838\">A230 Security Course</a> from the Canada School of Public Service.</li>\n</ul>\n<p>Security: Strength Through Collaboration</p>\n<p><img src=\"https://intranet.agr.gc.ca/resources/prod/news/images/DepartmentalSecurity.png\" class=\"center-block\"></p>\n\n\t\t",
        "fr": "<br>\n<br>\n<p>Le d\u00e9but des vacances estivales est une bonne occasion de se rappeler l'importance de respecter les mesures de s\u00e9curit\u00e9 au travail.</p>\n<p>1. <strong>Bureau propre </strong>: Nettoyez votre bureau avant de partir \u00e0 la fin de la journ\u00e9e; assurez\u00ad-vous de bien ranger vos effets personnels et de mettre vos documents sous cl\u00e9.</p>\n<p>2. <strong>Titulaire absent </strong>: Placez l'affiche \u00ab <a href=\"https://intranet.agr.gc.ca/agrisource/AgriDoc.do?id=4364482&amp;lang=fra\" target=\"_blank\">Titulaire absent</a> \u00bb sur votre bureau lorsque vous vous absentez pour une journ\u00e9e, la fin de semaine ou vos vacances.</p>\n<p>3. <strong>Mot de passe pour votre t\u00e9l\u00e9phone cellulaire ou appareil BlackBerry </strong>: Chaque ann\u00e9e, des millions de t\u00e9l\u00e9phones cellulaires et d'appareils BlackBerry sent perdus ou vol\u00e9s. S'ils sont prot\u00e9g\u00e9s par un mot de passe, ils sont inutilisables.</p>\n<p>4. <strong>Liste de mots de passe en lieu s\u00fbr </strong>: Votre liste de mots de passe peut \u00eatre longue; gardez-la donc en lieu s\u00fbr. Ne la r\u00e9digez jamais sur un feuillet autoadh\u00e9sif que vous collez sur le c\u00f4t\u00e9 de votre ordinateur ou dans le premier tiroir de votre bureau.</p>\n<p>5. <strong>M\u00e9dias sociaux </strong>: Les pirates informatiques surveillent constamment les sites des m\u00e9dias sociaux afin de glaner des renseignements dont ils peuvent se servir pour acc\u00e9der\u00a0\u00e0 vos donn\u00e9es num\u00e9ris\u00e9es. R\u00e9duisez la quantit\u00e9 de renseignements personnels que vous divulguez.</p>\n<p>6. <strong>Formation </strong>:<strong> </strong>Assurez-vous de suivre la formation obligatoire sur la s\u00e9curit\u00e9 :</p>\n<ul>\n<li><a href=\"http://intranet.agr.gc.ca/agrisource/fra/directions-generales-et-bureaux/direction-generale-de-la-gestion-integree/services/formation-sur-la-sensibilisation-a-la-securite?id=1325695839878\">Sensibilisation \u00e0 la s\u00e9curit\u00e9 (AGR-620)</a> d'AAC;</li>\n<li><a href=\"http://intranet.agr.gc.ca/agrisource/fra/ressources-humaines/apprentissage-et-perfectionnement/formation/employes/sensibilisation-a-la-securite-a230?id=1523285530838\">Cours sur la s\u00e9curit\u00e9 (A230)</a> de l'\u00c9cole de la fonction publique du Canada.</li>\n</ul>\n<p>S\u00e9curit\u00e9 : La collaboration fait notre force</p>\n<p>\u00a0<img src=\"https://intranet.agr.gc.ca/resources/prod/news/images/DepartmentalSecurity.png\" class=\"center-block\"></p>\n\t\t"
    },
    "breadcrumb": {
        "en": "Reminder - 6 Tips for Security in the Summer",
        "fr": "Rappel - Six conseils de s\u00e9curit\u00e9 pour l'\u00e9t\u00e9"
    },
    "news": {
        "date_posted": {
            "en": "2018-07-12",
            "fr": "2018-07-12"
        },
        "to": {
            "en": "All staff",
            "fr": "Tous les employ\u00e9s"
        },
        "by": {
            "en": "Departmental Security Services, Corporate Management Branch",
            "fr": "Services de s\u00e9curit\u00e9 minist\u00e9riels, Direction g\u00e9n\u00e9rale de la gestion int\u00e9gr\u00e9e"
        }
    }
}