{
    "dcr_id": "1532714750228",
    "lang": "en",
    "title": {
        "en": "Microsoft Windows and Office Upgrades: The Road So Far",
        "fr": "Mises \u00e0 niveau de Microsoft Windows et Office : Ce qui a \u00e9t\u00e9 accompli \u00e0 ce jour"
    },
    "modified": "2018-08-02 00:00:00.0",
    "issued": "2018-08-02 00:00:00.0",
    "type_name": "intra-intra/news-nouv",
    "node_id": "1279030006975",
    "layout_name": null,
    "dc_date_created": "2018-07-27",
    "breadcrumb_label": "",
    "meta": {
        "issued": {
            "en": "2018-08-02",
            "fr": "2018-08-02"
        },
        "modified": {
            "en": "2018-08-02",
            "fr": "2018-08-02"
        },
        "format": {
            "en": "gcformat",
            "fr": "gcformat"
        },
        "title": {
            "en": "Microsoft Windows and Office Upgrades: The Road So Far",
            "fr": "Mises \u00e0 niveau de Microsoft Windows et Office : Ce qui a \u00e9t\u00e9 accompli \u00e0 ce jour"
        },
        "subject": {
            "en": "communications",
            "fr": "communications"
        },
        "description": {
            "en": "The Windows 10 software upgrade project is officially underway! There have already been 2,020 workstations upgraded.",
            "fr": "Le projet de migration vers Windows 10 est officiellement en marche! Il y a d\u00e9j\u00e0 2 020 postes de travail qui ont \u00e9t\u00e9 mis \u00e0 niveau."
        },
        "language": {
            "en": "eng",
            "fr": "fra"
        },
        "audience": {
            "en": "gcaudience",
            "fr": "gcaudience"
        },
        "creator": {
            "en": "Agriculture and Agri-Food Canada",
            "fr": "Agriculture et Agroalimentaire Canada"
        },
        "spatial": {
            "en": "gcregions",
            "fr": "gcregions"
        },
        "service": {
            "en": "AAFC_AgriSource",
            "fr": "AAC_AgriSource"
        },
        "accessRights": {
            "en": "3",
            "fr": "3"
        }
    },
    "body": {
        "en": "<br>\n<br>\n<p>The Windows 10 software upgrade project is officially underway! There have already been 2,020 workstations upgraded.</p>\n<h2><strong>Known issues and fixes</strong></h2>\n<p>While the majority of employees have had smooth transitions, a couple of minor bugs have been reported.</p>\n<p><strong>Outstanding issues:</strong></p>\n<ul>\n<li>Some employees have experienced intermittent problems where audio and video stop working. This issue is currently being resolved.</li>\n<li>The day after migration, @canada.ca users are being prompted to enter their usernames and passwords. The username section is wrongly pre-filled with @agr.gc.ca user information, causing confusion and accounts to lock. Employees should ensure that the correct email address is displayed.</li>\n<li><strong>If you experience other issues, </strong><a href=\"http://assystweb.agr.gc.ca:8080/assystnet/application.jsp#serviceOfferings/1268\">log a ticket</a> via My IT Centre TI portal.</li>\n</ul>\n<p><strong>Resolved issues</strong>:</p>\n<ul>\n<li>Glitches with browser and program settings have been resolved with new default settings for Internet Explorer, Outlook, Adobe Reader.</li>\n<li>Desktop and taskbar icons for Internet Explorer and Outlook have been incorporated, replacing those for Edge and other programs.\u00a0</li>\n</ul>\n<h2><strong>What\u2019s next</strong></h2>\n<p>The remaining workstations will be migrated by September 2018, with the only exception being users of ccmMercury, the approval tracking software. They will not migrate to Windows/Office until they go through a ccmMercury upgrade planned for the fall.</p>\n<p>If you still have to migrate, make sure to carefully read and follow the instructions you receive as this will minimize potential issues. This includes validating the asset number of your workstation (the number shown on the sticker on your computer) and not shutting off your computer on the day of the upgrade. If you have templates, macros or Access databases and want to make sure those work correctly either before or after the upgrade, send an email the <a href=\"mailto:aafc.cdoem-meebc.aac@canada.ca\">CDOEM team</a> asking us to review them.</p>\n<p>If you do experience issues after the migration, please <a href=\"http://assystweb.agr.gc.ca:8080/assystnet/application.jsp#serviceOfferings/1268\">log a ticket</a> via My IT Centre TI portal. For any other questions about Windows and Office upgrades, please contact the <a href=\"mailto:aafc.cdoem-meebc.aac@canada.ca\">CDOEM team</a>. More information is available on the <a href=\"https://collab.agr.gc.ca/co/cdoem-meecob/SitePages/CDOEM.aspx\">CDOEM web page</a>.</p>\n<p><img src=\"https://intranet.agr.gc.ca/resources/prod/news/images/WindowsLogo.png\" class=\"center-block\"></p>\n\n\t\t",
        "fr": "<br>\n<br>\n<p>Le projet de migration vers Windows 10 est officiellement en marche! Il y a d\u00e9j\u00e0 2 020 postes de travail qui ont \u00e9t\u00e9 mis \u00e0 niveau.</p>\n<h2><strong>Probl\u00e8mes connus et correctifs</strong></h2>\n<p>La transition s\u2019est faite sans heurt pour la majorit\u00e9 des employ\u00e9s, mais quelques bogues mineurs ont \u00e9t\u00e9 signal\u00e9s.</p>\n<p><strong>Probl\u00e8mes en suspens</strong></p>\n<ul>\n<li>Il y a eu certains cas de probl\u00e8mes intermittents o\u00f9 l\u2019audio et la vid\u00e9o cessaient de fonctionner. On s\u2019affaire actuellement \u00e0 r\u00e9gler ces probl\u00e8mes.</li>\n<li>Le lendemain de la migration, les utilisateurs de compte @canada.ca sont invit\u00e9s \u00e0 entrer leur nom d\u2019utilisateur et leur mot de passe. Le champ du nom d\u2019utilisateur contient par erreur l\u2019information de l\u2019utilisateur de compte @agr.gc.ca, ce qui cr\u00e9e de la confusion et entra\u00eene le verrouillage des comptes. Les employ\u00e9s doivent s\u2019assurer que la bonne adresse de courriel est affich\u00e9e.</li>\n<li><strong>Si vous \u00e9prouvez d\u2019autres probl\u00e8mes</strong>,<strong> </strong><a href=\"http://assystweb.agr.gc.ca:8080/assystnet/application.jsp#serviceOfferings/1268\">ouvrez un billet</a> sur le portail de Mon IT Centre TI.</li>\n</ul>\n<p><strong>Probl\u00e8mes r\u00e9gl\u00e9s</strong></p>\n<ul>\n<li>Les p\u00e9pins techniques li\u00e9s aux param\u00e8tres du navigateur et des programmes ont \u00e9t\u00e9 r\u00e9gl\u00e9s au moyen de nouveaux param\u00e8tres par d\u00e9faut pour Internet Explorer, Outlook et Adobe Reader.</li>\n<li>Les ic\u00f4nes du bureau et de la barre d\u2019outils pour Internet Explorer et Outlook ont \u00e9t\u00e9 incorpor\u00e9s. Ils remplacent ceux d\u2019Edge et des autres programmes.</li>\n</ul>\n<h2><strong>Prochaines \u00e9tapes</strong></h2>\n<p>La migration des postes de travail restants aura lieu d\u2019ici septembre 2018, sauf dans le cas des utilisateurs du logiciel de suivi des approbations ccmMercury. Pour ces utilisateurs, la migration vers Windows/Office ne se fera pas avant la mise \u00e0 niveau de ccmMercury pr\u00e9vue pour l\u2019automne.</p>\n<p>Si la migration de votre poste de travail n\u2019a pas encore \u00e9t\u00e9 faite, assurez-vous de lire et de suivre les consignes que vous recevez pour r\u00e9duire au minimum les probl\u00e8mes \u00e9ventuels. Il s\u2019agit notamment de valider le num\u00e9ro d\u2019inventaire du poste de travail (num\u00e9ro de l\u2019autocollant sur votre ordinateur) et de ne pas \u00e9teindre votre ordinateur le jour de la mise \u00e0 niveau. Si vous avez des mod\u00e8les, des macros ou des bases de donn\u00e9es Access et que vous voulez en assurer le bon fonctionnement avant ou apr\u00e8s la mise \u00e0 niveau, envoyez un courriel \u00e0 l\u2019<a href=\"mailto:aafc.cdoem-meebc.aac@canada.ca\">\u00e9quipe de la MEECOB</a> pour lui demander de les examiner.</p>\n<p>Si vous \u00e9prouvez des probl\u00e8mes apr\u00e8s la migration, veuillez <a href=\"http://assystweb.agr.gc.ca:8080/assystnet/application.jsp#serviceOfferings/1268\">ouvrir un billet</a> sur le portail de Mon IT Centre TI. Pour toute autre question sur les mises \u00e0 niveau de Windows et d\u2019Office, veuillez communiquer avec l\u2019<a href=\"mailto:aafc.cdoem-meebc.aac@canada.ca\">\u00e9quipe de la MEECOB</a>. Vous trouverez de plus amples renseignements dans la <a href=\"https://collab.agr.gc.ca/co/cdoem-meecob/CDOEM%20%20Knowledge%20Workspace%20Information%20Page%20%20Fr/Home.aspx\">page de la MEECOB</a>.</p>\n<p><img src=\"https://intranet.agr.gc.ca/resources/prod/news/images/WindowsLogo.png\" class=\"center-block\"></p>\n\t\t"
    },
    "breadcrumb": {
        "en": "Microsoft Windows and Office Upgrades: The Road So Far",
        "fr": "Mises \u00e0 niveau de Microsoft Windows et Office : Ce qui a \u00e9t\u00e9 accompli \u00e0 ce jour"
    },
    "news": {
        "date_posted": {
            "en": "2018-08-02",
            "fr": "2018-08-02"
        },
        "to": {
            "en": "All staff",
            "fr": "Tous les employ\u00e9s"
        },
        "by": {
            "en": "Information Systems Branch",
            "fr": "Direction g\u00e9n\u00e9rale des syst\u00e8mes d'information"
        }
    }
}