{
    "dcr_id": "1532361433539",
    "lang": "en",
    "title": {
        "en": "Deputy Minister's Update - Federal, Provincial and Territorial Ministers of Agriculture Annual Conference 2018",
        "fr": "Nouvelles du sous-ministre - Conf\u00e9rence annuelle de 2018 des ministres f\u00e9d\u00e9ral, provinciaux et territoriaux de l'agriculture"
    },
    "modified": "2018-07-26 00:00:00.0",
    "issued": "2018-07-23 00:00:00.0",
    "type_name": "intra-intra/news-nouv",
    "node_id": "1279030006975",
    "layout_name": null,
    "dc_date_created": "2018-07-23",
    "breadcrumb_label": "",
    "meta": {
        "issued": {
            "en": "2018-07-23",
            "fr": "2018-07-23"
        },
        "modified": {
            "en": "2018-07-26",
            "fr": "2018-07-23"
        },
        "format": {
            "en": "gcformat",
            "fr": "gcformat"
        },
        "title": {
            "en": "Deputy Minister's Update - Federal, Provincial and Territorial Ministers of Agriculture Annual Conference 2018",
            "fr": "Nouvelles du sous-ministre - Conf\u00e9rence annuelle de 2018 des ministres f\u00e9d\u00e9ral, provinciaux et territoriaux de l'agriculture"
        },
        "subject": {
            "en": "communications",
            "fr": "communications"
        },
        "description": {
            "en": "On July 18-20, the Province of British Columbia hosted the Annual Conference of the Federal, Provincial and Territorial Ministers of Agriculture in Vancouver, British Columbia.",
            "fr": "La province de la Colombie-Britannique a accueilli la conf\u00e9rence annuelle des ministres f\u00e9d\u00e9ral, provinciaux et territoriaux de l'agriculture \u00e0 Vancouver du 18 au 20 juillet."
        },
        "language": {
            "en": "eng",
            "fr": "fra"
        },
        "audience": {
            "en": "gcaudience",
            "fr": "gcaudience"
        },
        "creator": {
            "en": "Agriculture and Agri-Food Canada",
            "fr": "Agriculture et Agroalimentaire Canada"
        },
        "spatial": {
            "en": "gcregions",
            "fr": "gcregions"
        },
        "service": {
            "en": "AAFC_AgriSource",
            "fr": "AAC_AgriSource"
        },
        "accessRights": {
            "en": "3",
            "fr": "3"
        }
    },
    "body": {
        "en": "<br>\n<br>\n<p>On July 18-20, the Province of British Columbia hosted the Annual Conference of the Federal, Provincial and Territorial (<abbr title=\"Federal, Provincial and Territorial\">FPT</abbr>) Ministers of Agriculture in Vancouver, British Columbia.</p>\n<p>Ministers of Agriculture from across Canada discussed a variety of topics critical to the growth and continued prosperity of the agricultural sector.</p>\n<p>I encourage you to read the <a rel=\"external\" href=\"https://www.canada.ca/en/agriculture-agri-food/news/2018/07/federal-provincial-and-territorial-ministers-of-agriculture-helping-the-sector-grow-innovate-and-prosper.html\">news release</a> for further details.</p>\n<p>AAFC will continue to work closely with our provincial and territorial counterparts and the agricultural sector to ensure that our programs are inclusive and reflect the diverse needs across Canada.</p>\n<p>The Annual Federal, Provincial and Territorial Ministers\u2019 Meeting is a testament to the collaboration and teamwork that exist at AAFC. Many thanks to all those involved for their hard work in delivering a successful meeting.<br>\n<br>\n<br>\n<strong>Chris Forbes</strong><br>\nDeputy Minister</p>\n\n\t\t",
        "fr": "<br>\n<br>\n<p>La province de la Colombie-Britannique a accueilli la conf\u00e9rence annuelle des ministres f\u00e9d\u00e9ral, provinciaux et territoriaux (<abbr title=\"f\u00e9d\u00e9ral, provinciaux et territoriaux\">FPT</abbr>) de l\u2019agriculture \u00e0 Vancouver du 18 au 20 juillet.</p>\n<p>Les ministres de l\u2019agriculture du Canada ont discut\u00e9 de divers enjeux importants pour la croissance et la prosp\u00e9rit\u00e9 soutenue du secteur agricole.</p>\n<p>Je vous invite \u00e0 lire le <a rel=\"external\" href=\"https://www.canada.ca/fr/agriculture-agroalimentaire/nouvelles/2018/07/les-ministres-federal-provinciaux-et-territoriaux-de-lagriculture-aident-le-secteur-a-croitre-a-innover-et-a-prosperer.html\">communiqu\u00e9 de presse</a> pour en savoir plus long.</p>\n<p>AAC continuera de collaborer \u00e9troitement avec ses homologues provinciaux et territoriaux et avec le secteur agricole pour s\u2019assurer que nos programmes sont inclusifs et r\u00e9pondent aux divers besoins du secteur au Canada.</p>\n<p>La conf\u00e9rence annuelle des ministres <abbr title=\"f\u00e9d\u00e9ral, provinciaux et territoriaux\">FPT</abbr> t\u00e9moigne de la collaboration et de l\u2019esprit d\u2019\u00e9quipe qui caract\u00e9risent AAC. Je tiens \u00e0 remercier tous ceux qui ont contribu\u00e9 \u00e0 la r\u00e9ussite de cette r\u00e9union.<br>\n<br>\n<br>\n<strong>Chris Forbes</strong><br>\nSous-ministre</p>\n\t\t"
    },
    "breadcrumb": {
        "en": "Deputy Minister's Update - Federal, Provincial and Territorial Ministers of Agriculture Annual Conference 2018",
        "fr": "Nouvelles du sous-ministre - Conf\u00e9rence annuelle de 2018 des ministres f\u00e9d\u00e9ral, provinciaux et territoriaux de l'agriculture"
    },
    "news": {
        "date_posted": {
            "en": "2018-07-23",
            "fr": "2018-07-23"
        },
        "to": {
            "en": "All staff",
            "fr": "Tous les employ\u00e9s"
        },
        "by": {
            "en": "Chris Forbes, Deputy Minister",
            "fr": "Chris Forbes, sous-ministre"
        }
    }
}