{
    "dcr_id": "1533051049473",
    "lang": "en",
    "title": {
        "en": "Reminder - It's Coming - Transition to the @canada.ca Email Re-Starting in September ",
        "fr": "Rappel - \u00c0 venir - La migration vers le syst\u00e8me de courriel @canada.ca reprend en septembre"
    },
    "modified": "2018-08-30 00:00:00.0",
    "issued": "2018-08-02 00:00:00.0",
    "type_name": "intra-intra/news-nouv",
    "node_id": "1279030006975",
    "layout_name": null,
    "dc_date_created": "2018-07-31",
    "breadcrumb_label": "",
    "meta": {
        "issued": {
            "en": "2018-08-02",
            "fr": "2018-08-02"
        },
        "modified": {
            "en": "2018-08-30",
            "fr": "2018-08-24"
        },
        "format": {
            "en": "gcformat",
            "fr": "gcformat"
        },
        "title": {
            "en": "Reminder - It's Coming - Transition to the @canada.ca Email Re-Starting in September ",
            "fr": "Rappel - \u00c0 venir - La migration vers le syst\u00e8me de courriel @canada.ca reprend en septembre"
        },
        "subject": {
            "en": "communications",
            "fr": "communications"
        },
        "description": {
            "en": "After a long pause, AAFC's migration to your.email@canada.ca is restarting in September 2018.",
            "fr": "Apr\u00e8s une longue pause, la migration vers votre.courriel@canada.ca d'AAC reprend en septembre 2018."
        },
        "language": {
            "en": "eng",
            "fr": "fra"
        },
        "audience": {
            "en": "gcaudience",
            "fr": "gcaudience"
        },
        "creator": {
            "en": "Agriculture and Agri-Food Canada",
            "fr": "Agriculture et Agroalimentaire Canada"
        },
        "spatial": {
            "en": "gcregions",
            "fr": "gcregions"
        },
        "service": {
            "en": "AAFC_AgriSource",
            "fr": "AAC_AgriSource"
        },
        "accessRights": {
            "en": "3",
            "fr": "3"
        }
    },
    "body": {
        "en": "<br>\n<br>\n<p>After a long pause, AAFC's <a rel=\"external\" href=\"https://collab.agr.gc.ca/co/et-tsc/ETI%20Wiki%20Page%20English/Home.aspx\">migration to your.email@canada.ca</a> is restarting in September 2018. As part of this Email Transformation Initiative (<abbr title=\"Email Transformation Initiative\">ETI</abbr>), all AAFC employees who currently have an @agr.gc.ca email address will be transferred to the new email address by the end of September.</p>\n<h2><strong>What to expect</strong></h2>\n<p>Over the coming weeks, affected employees will be receiving a series of email messages from <strong>your.email@canada.ca / </strong><strong>votre.courriel@canada.ca</strong> with instructions regarding the migration. The project team will advise them of the migration date five days before the switch. Please note that the assigned migration date cannot be changed.</p>\n<h2><strong>What to do</strong></h2>\n<p>To prepare for the switch, make sure you\u00a0<a href=\"https://intranet.agr.gc.ca/agrisource/AgriDoc.do?id=443328&amp;lang=eng\" target=\"_blank\">clean up your mailbox</a>. Keep the mailbox size well below 1.5GB, and ensure you have fewer than 999 folders.</p>\n<p>Do not delete the messages related to your transition to the new mail system. When you receive an email with the subject line <strong>Action Required: Enrol for </strong><strong>YOUR.EMAIL@CANADA.CA</strong>, make sure you follow the instructions and enrol, <strong>even if you have already done so before</strong>.</p>\n<p>To better understand the migration process, check out the Shared Services Canada <a rel=\"external\" href=\"http://service.ssc-spc.gc.ca/en/trans_ini/email/are-you-ready\">training resources</a> and <a rel=\"external\" href=\"https://collab.agr.gc.ca/co/et-tsc/ETI%20Wiki%20Page%20English/Home.aspx\">AAFC\u2019s <abbr title=\"Email Transformation Initiative\">ETI</abbr> page</a>.</p>\n<p>If you have any questions about the initiative, please contact the <a href=\"mailto:aafc.eti-itsc.aac@canada.ca\"><abbr title=\"Email Transformation Initiative\">ETI</abbr> project team</a>.</p>\n<p>\u00a0</p>\n<p><img src=\"https://intranet.agr.gc.ca/resources/prod/news/images/ETI-2018-EN.png\" class=\"center-block\"></p>\n\n\t\t",
        "fr": "<br>\n<br>\n<p>Apr\u00e8s une longue pause, la <a rel=\"external\" href=\"https://collab.agr.gc.ca/co/et-tsc/ETI%20Wiki%20Page/Home.aspx\">migration vers votre.courriel@canada.ca</a>\u00a0d\u2019AAC reprend en septembre 2018. Dans le cadre de l\u2019Initiative de transformation des services de courriel (<abbr title=\"Initiative de transformation des services de courriel\">ITSC</abbr>), l\u2019adresse de courriel des employ\u00e9s d\u2019AAC se terminant par @agr.gc.ca passera au format @canada.ca d\u2019ici la fin de septembre.</p>\n<h2><strong>\u00c0 quoi s\u2019attendre</strong></h2>\n<p>Au cours des prochaines semaines, les employ\u00e9s touch\u00e9s recevront une s\u00e9rie de courriels de <strong>your.email@canada.ca / votre.courriel@canada.ca</strong> renfermant des instructions sur la migration. L\u2019\u00e9quipe de projet les informera de la migration cinq jours avant. Veuillez prendre note que la date de migration pr\u00e9vue ne peut \u00eatre chang\u00e9e.</p>\n<h2><strong>Que faire</strong></h2>\n<p>Pour vous pr\u00e9parer \u00e0 la migration, vous devez\u00a0<a href=\"https://intranet.agr.gc.ca/agrisource/AgriDoc.do?id=3030649&amp;lang=fra\" target=\"_blank\">nettoyer votre bo\u00eete de courriels</a>. Assurez-vous que la taille de votre bo\u00eete de courriels est bien inf\u00e9rieure \u00e0 1.5Go, et conservez moins de 999 dossiers.</p>\n<p>Ne supprimez pas les messages li\u00e9s \u00e0 la transition vers le nouveau syst\u00e8me de courrier \u00e9lectronique.\u00a0Lorsque vous recevrez un courriel ayant pour objet <strong>Mesure \u00e0 prendre : Inscription \u00e0 </strong><strong>VOTRE.COURRIEL@CANADA.CA</strong>, suivez les instructions et inscrivez-vous, <strong>m\u00eame si vous l\u2019avez d\u00e9j\u00e0 fait</strong>.</p>\n<p>Pour mieux comprendre le processus de migration, consultez la page <a rel=\"external\" href=\"http://service.ssc-spc.gc.ca/fr/prog_trans/courriel/etes-vous-prets\">ressources de formation</a> de Services partag\u00e9s Canada et la <a rel=\"external\" href=\"https://collab.agr.gc.ca/co/et-tsc/ETI%20Wiki%20Page/Home.aspx\">page de l\u2019<abbr title=\"initiative de transformation des services de courriels\">ITSC</abbr> d\u2019AAC</a>.</p>\n<p>Si vous avez des questions sur cette initiative, communiquez avec l\u2019<a href=\"mailto:aafc.eti-itsc.aac@canada.ca\">\u00c9quipe de projet de l\u2019<abbr title=\"initiative de transformation des services de courriels\">ITSC</abbr></a>.</p>\n<p>\u00a0</p>\n<p><img src=\"https://intranet.agr.gc.ca/resources/prod/news/images/ETI-2018-FR.png\" class=\"center-block\"></p>\n\t\t"
    },
    "breadcrumb": {
        "en": "Reminder - It's Coming - Transition to the @canada.ca Email Re-Starting in September",
        "fr": "Rappel - \u00c0 venir - La migration vers le syst\u00e8me de courriel @canada.ca reprend en septembre"
    },
    "news": {
        "date_posted": {
            "en": "2018-08-02",
            "fr": "2018-08-02"
        },
        "to": {
            "en": "All staff",
            "fr": "Tous les employ\u00e9s"
        },
        "by": {
            "en": "Information Systems Branch",
            "fr": "Direction g\u00e9n\u00e9rale des syst\u00e8mes d'information"
        }
    }
}