{
    "dcr_id": "1535386356243",
    "lang": "en",
    "title": {
        "en": "Reminder - NCR - GCWCC Take Me With You - Senior Managers Wanted",
        "fr": "Rappel - RCN - Tirage Emmenez-moi avec vous de la CCMTGC - Cadres sup\u00e9rieurs recherch\u00e9s "
    },
    "modified": "2018-09-12 00:00:00.0",
    "issued": "2018-08-30 00:00:00.0",
    "type_name": "intra-intra/news-nouv",
    "node_id": "1279030006975",
    "layout_name": null,
    "dc_date_created": "2018-08-27",
    "breadcrumb_label": "",
    "meta": {
        "issued": {
            "en": "2018-08-30",
            "fr": "2018-08-30"
        },
        "modified": {
            "en": "2018-09-12",
            "fr": "2018-09-04"
        },
        "format": {
            "en": "gcformat",
            "fr": "gcformat"
        },
        "title": {
            "en": "Reminder - NCR - GCWCC Take Me With You - Senior Managers Wanted",
            "fr": "Rappel - RCN - Tirage Emmenez-moi avec vous de la CCMTGC - Cadres sup\u00e9rieurs recherch\u00e9s "
        },
        "subject": {
            "en": "communications",
            "fr": "communications"
        },
        "description": {
            "en": "The Young Professionals Network is seeking senior managers who are interested in showcasing their roles and responsibilities to an interested employee.",
            "fr": "Le R\u00e9seau des jeunes professionnels recherche des cadres sup\u00e9rieurs qui accepteraient de pr\u00e9senter leurs r\u00f4les et responsabilit\u00e9s \u00e0 un employ\u00e9."
        },
        "language": {
            "en": "eng",
            "fr": "fra"
        },
        "audience": {
            "en": "gcaudience",
            "fr": "gcaudience"
        },
        "creator": {
            "en": "Agriculture and Agri-Food Canada",
            "fr": "Agriculture et Agroalimentaire Canada"
        },
        "spatial": {
            "en": "gcregions",
            "fr": "gcregions"
        },
        "service": {
            "en": "AAFC_AgriSource",
            "fr": "AAC_AgriSource"
        },
        "accessRights": {
            "en": "3",
            "fr": "3"
        }
    },
    "body": {
        "en": "<br>\n<br>\n<p>The Young Professionals Network (<abbr title=\"Young Professionals Network\">YPN</abbr>) is seeking\u00a0senior managers who are interested in showcasing their roles and responsibilities to an interested employee.</p>\n<p>AAFC\u2019s <abbr title=\"Young Professionals Network\">YPN</abbr>, along with CFIA\u2019s Synapse, is organizing the<strong> GCWCC Take Me With You Draw</strong>. Take Me With You is an initiative that encourages employees at all levels to attend meetings that relate to their interests, career development goals, and the files they are working on.</p>\n<p>Employees\u00a0can purchase their raffle tickets during the first two<strong> </strong>weeks of October. CFIA employees will have the opportunity to enter for AAFC Executive draws, and vice-versa.</p>\n<p><strong>If you would like to donate your time to this event, indicate your interest to Chelsey Gerrard (<a href=\"mailto:chelsey.gerrard@canada.ca\">chelsey.gerrard@canada.ca</a>) with the following information by September 14, 2018:</strong></p>\n<ul>\n<li><strong><strong>Name</strong></strong></li>\n<li><strong><strong><strong>Department and Branch</strong></strong></strong></li>\n<li><strong><strong><strong><strong>Position title</strong></strong></strong></strong></li>\n<li><strong><strong><strong><strong><strong>Draw type(s) you are interested in providing:</strong></strong></strong></strong></strong>\n<ul>\n<li>attendance at one high-profile meeting</li>\n<li>half-day job shadowing</li>\n<li>full-day job shadowing</li>\n<li>lunch with me\n</li>\n</ul>\n</li>\n</ul>\n<p>\n<img src=\"https://intranet.agr.gc.ca/resources/prod/news/images/GCWCC2018-EN.png\" class=\"center-block\" alt=\"GCWCC: Cultivating our spirit of sharing.\"><br><img src=\"https://intranet.agr.gc.ca/resources/prod/news/images/YPN-EN.png\" class=\"center-block\" alt=\"YPN\"></p>\n\n\t\t",
        "fr": "<br>\n<br>\n<p>Le R\u00e9seau des jeunes professionnels (<abbr title=\"R\u00e9seau des jeunes professionnels\">RJP</abbr>) recherche des cadres sup\u00e9rieurs qui accepteraient de pr\u00e9senter leurs r\u00f4les et responsabilit\u00e9s \u00e0 un employ\u00e9.</p>\n<p>Le <abbr title=\"R\u00e9seau des jeunes professionnels\">RJP</abbr> d\u2019AAC, avec Synapse de l\u2019ACIA, organise <strong>le Tirage Emmenez-moi avec vous de la CCMTGC</strong>. Il s\u2019agit d\u2019une initiative qui encourage les employ\u00e9s de tous les niveaux \u00e0 assister \u00e0 des r\u00e9unions en lien avec leurs int\u00e9r\u00eats, leurs objectifs de perfectionnement professionnel et les dossiers sur lesquels ils travaillent.</p>\n<p>Les employ\u00e9s pourront se procurer leurs billets au cours des deux premi\u00e8res semaines d'octobre. Les participants seront admissibles \u00e0 accompagner les cadres sup\u00e9rieurs de l\u2019AAC et de l\u2019ACIA, peu importe leur lieu de travail.</p>\n<p><strong>Si vous souhaitez travailler \u00e0 cet \u00e9v\u00e9nement comme b\u00e9n\u00e9vole, veuillez envoyer un courriel \u00e0 Chelsey Gerrard (</strong><a href=\"mailto:chelsey.gerrard@canada.ca\"><strong>chelsey.gerrard@canada.ca</strong></a><strong>), au plus tard le14 septembre 2018, et y inscrire les renseignements suivants :</strong></p>\n<ul>\n<li><strong>Nom</strong></li>\n<li><strong>Minist\u00e8re ou organisme et direction g\u00e9n\u00e9rale</strong></li>\n<li><strong>Titre du poste\u00a0</strong></li>\n<li><strong>Type de prix</strong>\u00a0\u00a0\n<ul>\n<li>r\u00e9union de haut niveau</li>\n<li>activit\u00e9 de jumelage au travail d\u2019une demi-journ\u00e9e activit\u00e9 de jumelage au travail d\u2019une journ\u00e9e\u00a0</li>\n<li>d\u00eener avec un cadre sup\u00e9rieur</li>\n</ul>\n</li>\n</ul>\n<p><img src=\"https://intranet.agr.gc.ca/resources/prod/news/images/GCWCC2018-FR.png\" class=\"center-block\" alt=\"CCMTGC : Cultivons l'esprit de g\u00e9n\u00e9rosit\u00e9\">\u00a0</p>\n<p><img src=\"https://intranet.agr.gc.ca/resources/prod/news/images/YPN-FR.png\" class=\"center-block\" alt=\"RJP\"></p>\n\t\t"
    },
    "breadcrumb": {
        "en": "NCR - Reminder - NCR - GCWCC Take Me With You - Senior Managers Wanted",
        "fr": "RCN - Rappel - RCN - Tirage Emmenez-moi avec vous de la CCMTGC - Cadres sup\u00e9rieurs recherch\u00e9s"
    },
    "news": {
        "date_posted": {
            "en": "2018-08-30",
            "fr": "2018-08-30"
        },
        "to": {
            "en": "NCR only",
            "fr": "RCN seulement"
        },
        "by": {
            "en": "Young Professionals Network",
            "fr": "R\u00e9seau des jeunes professionnels"
        }
    }
}