{
    "dcr_id": "1535479206035",
    "lang": "en",
    "title": {
        "en": "Scheduled Maintenance (AgriSource) - September 5",
        "fr": "Entretien pr\u00e9vu (AgriSource) - 5 septembre"
    },
    "modified": "2018-08-29 00:00:00.0",
    "issued": "2018-08-29 00:00:00.0",
    "type_name": "intra-intra/news-nouv",
    "node_id": "1279030006975",
    "layout_name": null,
    "dc_date_created": "2018-08-28",
    "breadcrumb_label": "",
    "meta": {
        "issued": {
            "en": "2018-08-29",
            "fr": "2018-08-29"
        },
        "modified": {
            "en": "2018-08-29",
            "fr": "2018-08-29"
        },
        "format": {
            "en": "gcformat",
            "fr": "gcformat"
        },
        "title": {
            "en": "Scheduled Maintenance (AgriSource) - September 5",
            "fr": "Entretien pr\u00e9vu (AgriSource) - 5 septembre"
        },
        "subject": {
            "en": "communications",
            "fr": "communications"
        },
        "description": {
            "en": "Please be advised that preventative maintenance of ISB services will be performed on Wednesday, September 5, 2018.",
            "fr": "Veuillez noter qu'un entretien pr\u00e9ventif des services de la DGSI aura lieu le mercredi 5 septembre 2018."
        },
        "language": {
            "en": "eng",
            "fr": "fra"
        },
        "audience": {
            "en": "gcaudience",
            "fr": "gcaudience"
        },
        "creator": {
            "en": "Agriculture and Agri-Food Canada",
            "fr": "Agriculture et Agroalimentaire Canada"
        },
        "spatial": {
            "en": "gcregions",
            "fr": "gcregions"
        },
        "service": {
            "en": "AAFC_AgriSource",
            "fr": "AAC_AgriSource"
        },
        "accessRights": {
            "en": "3",
            "fr": "3"
        }
    },
    "body": {
        "en": "<br>\n<br>\n<p>Please be advised that preventative maintenance of ISB services will be performed on Wednesday, September 5, 2018.</p>\n<p>This downtime was planned as part of an infrastructure management plan. By upgrading the system, we are improving performance and making sure that we don\u2019t experience major unplanned outages that affect employees.</p>\n<p>Consequently, the following service will not be available:</p>\n<p><strong>Wednesday, September 5 \u2013 5:00 p.m. until 6:00 p.m. (ET)</strong></p>\n<ul style=\"list-style-type: disc;\">\n<li>\n<p>AgriSource</p>\n</li>\n</ul>\n<p>Should you have any questions or concerns, please do not hesitate to contact IT Centre TI.</p>\n<p>\u00a0</p>\n<p><strong>IT Centre TI<br>\n</strong>Telephone: 1-855-545-4411<br>\n<a href=\"http://assystweb.agr.gc.ca:8080/assystnet\">My IT Centre TI</a></p>\n<p><img src=\"https://intranet.agr.gc.ca/resources/prod/news/images/ITCentreTI2.png\" class=\"center-block\" alt=\"IT Centre TI\"></p>\n\n\t\t",
        "fr": "<br>\n<br>\n<p>Veuillez noter qu\u2019un entretien pr\u00e9ventif des services de la DGSI aura lieu le mercredi 5 septembre 2018.</p>\n<p>Cette interruption est pr\u00e9vue dans un plan de gestion de l\u2019infrastructure. En mettant\u00a0le syst\u00e8me \u00e0 niveau, nous am\u00e9liorons\u00a0son rendement et pr\u00e9venons des pannes majeures qui entravent le travail des employ\u00e9s.</p>\n<p>Par cons\u00e9quent, le service ci-dessous ne sera pas accessible :</p>\n<p><strong>Mercredi 5 septembre <b>\u2013</b>\u00a017 h \u00e0 18 h (HE)</strong></p>\n<ul>\n<li>AgriSource</li>\n</ul>\n<p>Pour toute question ou pr\u00e9occupation, n\u2019h\u00e9sitez pas \u00e0 communiquer avec le IT Centre TI.</p>\n<p>\u00a0</p>\n<p><strong>IT Centre TI<br>\n</strong>T\u00e9l\u00e9phone : 1-855-545-4411<br>\n<a href=\"http://assystweb.agr.gc.ca:8080/assystnet\">Mon IT Centre TI</a></p>\n<p><img src=\"https://intranet.agr.gc.ca/resources/prod/news/images/ITCentreTI2.png\" class=\"center-block\" alt=\"IT Centre TI\"></p>\n\t\t"
    },
    "breadcrumb": {
        "en": "Scheduled Maintenance (AgriSource) - September 5",
        "fr": "Entretien pr\u00e9vu (AgriSource) - 5 septembre"
    },
    "news": {
        "date_posted": {
            "en": "2018-08-28",
            "fr": "2018-08-28"
        },
        "to": {
            "en": "All staff",
            "fr": "Tous les employ\u00e9s"
        },
        "by": {
            "en": "IT Centre TI",
            "fr": "IT Centre TI"
        }
    }
}