{
    "dcr_id": "1535722656689",
    "lang": "en",
    "title": {
        "en": "Occupational Health and Safety Program Updates",
        "fr": "Mises \u00e0 jour du programme de sant\u00e9 et s\u00e9curit\u00e9 au travail"
    },
    "modified": "2018-09-05 00:00:00.0",
    "issued": "2018-09-05 00:00:00.0",
    "type_name": "intra-intra/news-nouv",
    "node_id": "1279030006975",
    "layout_name": null,
    "dc_date_created": "2018-08-31",
    "breadcrumb_label": "",
    "meta": {
        "issued": {
            "en": "2018-09-05",
            "fr": "2018-09-05"
        },
        "modified": {
            "en": "2018-09-05",
            "fr": "2018-09-05"
        },
        "format": {
            "en": "gcformat",
            "fr": "gcformat"
        },
        "title": {
            "en": "Occupational Health and Safety Program Updates",
            "fr": "Mises \u00e0 jour du programme de sant\u00e9 et s\u00e9curit\u00e9 au travail"
        },
        "subject": {
            "en": "communications",
            "fr": "communications"
        },
        "description": {
            "en": "The National Occupational Health and Safety Policy Committee is pleased to announce that Agriculture and Agri-Food Canada has updated its Policy as well as four components of its Hazard Prevention Program.",
            "fr": "Le Comit\u00e9 national d'orientation en sant\u00e9 et S\u00e9curit\u00e9 au travail a le plaisir de vous annoncer qu'Agriculture et Agro-alimentaire Canada a mis \u00e0 jour sa Politique ainsi que cinq \u00e9l\u00e9ments de son programme de pr\u00e9vention des risques."
        },
        "language": {
            "en": "eng",
            "fr": "fra"
        },
        "audience": {
            "en": "gcaudience",
            "fr": "gcaudience"
        },
        "creator": {
            "en": "Agriculture and Agri-Food Canada",
            "fr": "Agriculture et Agroalimentaire Canada"
        },
        "spatial": {
            "en": "gcregions",
            "fr": "gcregions"
        },
        "service": {
            "en": "AAFC_AgriSource",
            "fr": "AAC_AgriSource"
        },
        "accessRights": {
            "en": "3",
            "fr": "3"
        }
    },
    "body": {
        "en": "<br>\n<br>\n<p>The National Occupational Health and Safety Policy Committee\u00a0is pleased to announce that Agriculture and Agri-Food Canada has updated its Policy as well as four components of its Hazard Prevention Program:</p>\n<ul>\n<li>The <a rel=\"external\" href=\"https://collab.agr.gc.ca/gv/ohsct-ensst/_layouts/15/DocIdRedir.aspx?ID=AGR-6898154\">Occupational Health and Safety (<abbr title=\"Occupational Health and Safety\">OHS</abbr>) Policy</a> has expanded its objective to include a respectful and violence-free work environment. The Policy's scope has also been expanded to include persons granted access in addition to employees.</li>\n<li>The <a rel=\"external\" href=\"https://collab.agr.gc.ca/gv/ohsct-ensst/_layouts/15/DocIdRedir.aspx?ID=AGR-6898157\">First Aid and Automated External Defibrillator Program</a> now includes information on the Automated External Defibrillators installed in our facilities during the past few years.</li>\n<li>The <a rel=\"external\" href=\"https://collab.agr.gc.ca/gv/ohsct-ensst/_layouts/15/DocIdRedir.aspx?ID=AGR-6851746\">Working Alone Standard</a> has been refreshed and provides a general overview of the requirements to address situations where employees may need to work alone.</li>\n<li>The <a rel=\"external\" href=\"https://collab.agr.gc.ca/gv/ohsct-ensst/_layouts/15/DocIdRedir.aspx?ID=AGR-6898167\">Firearm Use Standard</a> replaces the 2014 Firearms Use Directive. For locations that use firearms, employer representatives shall ensure that all aspects of the Firearm Use Standard are implemented.</li>\n<li>The <a rel=\"external\" href=\"https://collab.agr.gc.ca/gv/ohsct-ensst/_layouts/15/DocIdRedir.aspx?ID=AGR-6853121\">Personal Listening Devices in the Workplace Guideline</a> has been refreshed and provides the information necessary for the employer to manage the use of personal listening devices in the work place.</li>\n</ul>\n<p>We will continue to promote occupational health and safety as an essential part of our corporate culture, and integrate <abbr title=\"Occupational Health and Safety\">OHS</abbr> into our management and business decision-making processes. For more information, consult the <a href=\"http://intranet.agr.gc.ca/agrisource/eng/human-resources/occupational-health-and-safety?id=1321562720661\">Occupational Health and Safety</a> AgriSource page.</p>\n<p>Should you have any questions, please contact your\u00a0<a href=\"https://intranet.agr.gc.ca/agrisource/AgriDoc.do?id=2055937&amp;lang=eng\" target=\"_blank\">Regional OHS Coordinator</a>.</p>\n<p>Remember the <abbr title=\"Occupational Health and Safety\">OHS</abbr> motto: Stop. Think. Act.</p>\n<p>\n<img src=\"https://intranet.agr.gc.ca/resources/prod/news/images/OHSLogoEN.png\" class=\"center-block\" alt=\"Make safety a habit. Stop. Think. Act.\"></p>\n\n\t\t",
        "fr": "<br>\n<br>\n<p>Le Comit\u00e9 national d\u2019orientation en mati\u00e8re de sant\u00e9 et de s\u00e9curit\u00e9 au travail\u00a0a le plaisir de vous annoncer qu\u2019Agriculture et Agroalimentaire Canada a mis \u00e0 jour sa politique ainsi que quatre \u00e9l\u00e9ments de son programme de pr\u00e9vention des risques :</p>\n<ul>\n<li>L\u2019objectif de la <a href=\"https://collab.agr.gc.ca/gv/ohsct-ensst/_layouts/15/DocIdRedir.aspx?ID=AGR-6898155\">Politique sur la sant\u00e9 et la s\u00e9curit\u00e9 au travail (SST)\u00a0(Word)</a> a \u00e9t\u00e9 \u00e9largi de fa\u00e7on \u00e0 inclure un milieu de travail respectueux et sans violence. La port\u00e9e de la Politique a aussi \u00e9t\u00e9 \u00e9largie afin d\u2019inclure les personnes admises sur les lieux de travail en plus des employ\u00e9s.</li>\n<li>Le <a href=\"https://collab.agr.gc.ca/gv/ohsct-ensst/_layouts/15/DocIdRedir.aspx?ID=AGR-6898156\">Programme sur les premiers soins et les d\u00e9fibrillateurs externes automatis\u00e9s (Word)</a> offre dor\u00e9navant de l\u2019information sur les d\u00e9fibrillateurs externes automatis\u00e9s qui ont \u00e9t\u00e9 install\u00e9s dans nos lieux de travail au cours des derni\u00e8res ann\u00e9es.</li>\n<li>La <a href=\"https://collab.agr.gc.ca/gv/ohsct-ensst/_layouts/15/DocIdRedir.aspx?ID=AGR-6851745\">Norme pour les employ\u00e9s travaillant seuls (Word)</a> a \u00e9t\u00e9 mise \u00e0 jour et offre un aper\u00e7u g\u00e9n\u00e9ral des mesures \u00e0 prendre pour les situations o\u00f9 les employ\u00e9s doivent travailler seuls.</li>\n<li>La <a href=\"https://collab.agr.gc.ca/gv/ohsct-ensst/_layouts/15/DocIdRedir.aspx?ID=AGR-6898166\">Norme concernant l\u2019utilisation des armes \u00e0 feu (Word)</a> remplace la Directive sur les armes \u00e0 feu de 2014. Pour les sites o\u00f9 des armes \u00e0 feu sont utilis\u00e9es, les repr\u00e9sentants de l\u2019employeur doivent s\u2019assurer que tous les aspects de la Norme sont mis en \u0153uvre.</li>\n<li>La <a href=\"https://collab.agr.gc.ca/gv/ohsct-ensst/_layouts/15/DocIdRedir.aspx?ID=AGR-6853120\">Ligne directrice sur l\u2019utilisation de dispositifs d\u2019\u00e9coute personnels au travail (Word)</a> a \u00e9t\u00e9 mise \u00e0 jour et fournit l\u2019information dont l\u2019employeur a besoin pour g\u00e9rer l\u2019utilisation au travail de ces dispositifs.</li>\n</ul>\n<p>Nous continuerons \u00e0 promouvoir la SST \u00e0 titre de composante essentielle de notre culture organisationnelle ainsi qu\u2019\u00e0 int\u00e9grer la SST dans nos processus op\u00e9rationnels et d\u00e9cisionnels. Pour plus d\u2019information, veuillez consulter la page AgriSource <a href=\"http://intranet.agr.gc.ca/agrisource/fra/ressources-humaines/sante-et-securite-au-travail?id=1321562720661\">Sant\u00e9 et s\u00e9curit\u00e9 au travail</a>.</p>\n<p>Pour toutes questions, veuillez contacter votre\u00a0<a href=\"https://intranet.agr.gc.ca/agrisource/AgriDoc.do?id=2093899&amp;lang=fra\" target=\"_blank\">Coordonnateur r\u00e9gional en SST</a>.</p>\n<p>N'oubliez pas la devise de la <abbr title=\"sant\u00e9 et s\u00e9curit\u00e9 au travail \">SST</abbr> : Arr\u00eatez. Pensez. Agissez.</p>\n<p>\n<img src=\"https://intranet.agr.gc.ca/resources/prod/news/images/OHSLogoFR.png\" class=\"center-block\" alt=\"Faire de la s\u00e9curit\u00e9 une habitude. Arr\u00eatez. Pensez. Agissez.\"></p>\n\t\t"
    },
    "breadcrumb": {
        "en": "Occupational Health and Safety Program Updates",
        "fr": "Mises \u00e0 jour du programme de sant\u00e9 et s\u00e9curit\u00e9 au travail"
    },
    "news": {
        "date_posted": {
            "en": "2018-09-05",
            "fr": "2018-09-05"
        },
        "to": {
            "en": "All staff",
            "fr": "Tous les employ\u00e9s"
        },
        "by": {
            "en": "Corporate Management Branch",
            "fr": "Direction g\u00e9n\u00e9rale de la gestion int\u00e9gr\u00e9e"
        }
    }
}