{
    "dcr_id": "1535138340592",
    "lang": "en",
    "title": {
        "en": "Exploring Possibilities for a New Pay Platform",
        "fr": "\u00c9tudes d'options pour un nouveau syst\u00e8me de paye"
    },
    "modified": "2018-08-29 00:00:00.0",
    "issued": "2018-08-29 00:00:00.0",
    "type_name": "intra-intra/news-nouv",
    "node_id": "1279030006975",
    "layout_name": null,
    "dc_date_created": "2018-08-24",
    "breadcrumb_label": "",
    "meta": {
        "issued": {
            "en": "2018-08-29",
            "fr": "2018-08-29"
        },
        "modified": {
            "en": "2018-08-29",
            "fr": "2018-08-29"
        },
        "format": {
            "en": "gcformat",
            "fr": "gcformat"
        },
        "title": {
            "en": "Exploring Possibilities for a New Pay Platform",
            "fr": "\u00c9tudes d'options pour un nouveau syst\u00e8me de paye"
        },
        "subject": {
            "en": "communications",
            "fr": "communications"
        },
        "description": {
            "en": "The ongoing public service pay problems are completely unacceptable, and the Government of Canada is committed to making this right for its employees.",
            "fr": "Les probl\u00e8mes persistants li\u00e9s au syst\u00e8me de paye de la fonction publique sont totalement inacceptables, et le gouvernement du Canada s'est engag\u00e9 \u00e0 prendre la bonne d\u00e9cision pour le bien ses employ\u00e9s."
        },
        "language": {
            "en": "eng",
            "fr": "fra"
        },
        "audience": {
            "en": "gcaudience",
            "fr": "gcaudience"
        },
        "creator": {
            "en": "Agriculture and Agri-Food Canada",
            "fr": "Agriculture et Agroalimentaire Canada"
        },
        "spatial": {
            "en": "gcregions",
            "fr": "gcregions"
        },
        "service": {
            "en": "AAFC_AgriSource",
            "fr": "AAC_AgriSource"
        },
        "accessRights": {
            "en": "3",
            "fr": "3"
        }
    },
    "body": {
        "en": "<br>\n<br>\n<p>The ongoing public service pay problems are completely unacceptable, and the Government of Canada is committed to making this right for its employees. Stabilization efforts to address the current pay challenges are critical and will continue as the government looks at developing options for the next generation system.</p>\n<p>Budget 2018 announced the government\u2019s intention to move away from Phoenix and develop a pay system that will meet the needs of its employees and function with the complexity of the federal government\u2019s human resources and pay structure. Under the leadership of Alex Benay, the Chief Information Officer of Canada, a multi-disciplinary team in the Treasury Board of Canada Secretariat has been established to deliver options for a human resources and pay alternative.</p>\n<p>The team will work closely with experts, unions, technology providers and, most importantly, Public Service employees. In due time, federal employees, including compensation advisors, will be testing the new system and will be involved at all stages of development and implementation, including training.</p>\n<p>In the meantime, AAFC employees are encouraged to consult the <a href=\"http://intranet.agr.gc.ca/agrisource/eng/human-resources/pay-and-benefits/phoenix-pay-system-issues?id=1511367056518\">Phoenix pay system issues</a> page on AgriSource for the latest information related to pay, including troubleshooting tips.</p>\n\n\t\t",
        "fr": "<br>\n<br>\n<p>Les probl\u00e8mes persistants li\u00e9s au syst\u00e8me de paye de la fonction publique sont totalement inacceptables, et le gouvernement du Canada s\u2019est engag\u00e9 \u00e0 prendre la bonne d\u00e9cision pour le bien ses employ\u00e9s. Les travaux de stabilisation du syst\u00e8me de paye afin de r\u00e9gler les probl\u00e8mes en cours se poursuivront pendant que le gouvernement se penche sur les options en vue de mettre au point un nouveau syst\u00e8me. </p>\n<p>Dans le Budget de 2018, le gouvernement a annonc\u00e9 qu\u2019il envisageait d\u2019\u00e9liminer le syst\u00e8me Ph\u00e9nix et d\u2019\u00e9laborer un syst\u00e8me de paye qui r\u00e9pond aux besoins des employ\u00e9s et qui s\u2019adapte \u00e0 la complexit\u00e9 des ressources humaines du gouvernement f\u00e9d\u00e9ral et de sa structure de r\u00e9mun\u00e9ration. Sous la direction d\u2019Alex Benay, dirigeant principal de l\u2019information du Canada, une \u00e9quipe multidisciplinaire du Secr\u00e9tariat du Conseil du Tr\u00e9sor a \u00e9t\u00e9 assembl\u00e9e pour offrir des solutions de rechange en mati\u00e8re de ressources humaines et de r\u00e9mun\u00e9ration.</p>\n<p>L\u2019\u00e9quipe travaillera \u00e9troitement avec les experts, les syndicats, les fournisseurs de technologie, et surtout avec les employ\u00e9s de la fonction publique. En temps utile, les employ\u00e9s f\u00e9d\u00e9raux, notamment les conseillers en r\u00e9mun\u00e9ration, mettront \u00e0 l\u2019essai le nouveau syst\u00e8me, et ils prendront part \u00e0 toutes les \u00e9tapes d\u2019\u00e9laboration et de mise en \u0153uvre, y compris celle de la formation.</p>\n<p>Dans l\u2019intervalle, les employ\u00e9s d\u2019AAC sont encourag\u00e9s \u00e0 consulter la page AgriSource sur <a href=\"http://intranet.agr.gc.ca/agrisource/fra/ressources-humaines/remuneration-et-avantages-sociaux/problemes-lies-au-systeme-de-paye-phenix?id=1511367056518\">les probl\u00e8mes li\u00e9s au syst\u00e8me de paye Ph\u00e9nix</a> afin d\u2019obtenir les derni\u00e8res nouvelles concernant la paye et des conseils de d\u00e9pannage.</p>\n\t\t"
    },
    "breadcrumb": {
        "en": "Exploring Possibilities for a New Pay Platform",
        "fr": "\u00c9tudes d'options pour un nouveau syst\u00e8me de paye"
    },
    "news": {
        "date_posted": {
            "en": "2018-08-29",
            "fr": "2018-08-29"
        },
        "to": {
            "en": "All staff",
            "fr": "Tous les employ\u00e9s"
        },
        "by": {
            "en": "Treasury Board Secretariat",
            "fr": "Secr\u00e9tariat du Conseil du Tr\u00e9sor"
        }
    }
}