{
    "dcr_id": "1536066577560",
    "lang": "en",
    "title": {
        "en": "Reminder - Legalizing Cannabis: Impacts on Our Workplace Webcast - September 17",
        "fr": "Rappel - L\u00e9galisation du cannabis : r\u00e9percussions sur notre milieu de travail Webdiffusion - 17 septembre"
    },
    "modified": "2018-09-13 00:00:00.0",
    "issued": "2018-09-06 00:00:00.0",
    "type_name": "intra-intra/news-nouv",
    "node_id": "1279030006975",
    "layout_name": null,
    "dc_date_created": "2018-09-04",
    "breadcrumb_label": "",
    "meta": {
        "issued": {
            "en": "2018-09-06",
            "fr": "2018-09-06"
        },
        "modified": {
            "en": "2018-09-13",
            "fr": "2018-09-12"
        },
        "format": {
            "en": "gcformat",
            "fr": "gcformat"
        },
        "title": {
            "en": "Reminder - Legalizing Cannabis: Impacts on Our Workplace Webcast - September 17",
            "fr": "Rappel - L\u00e9galisation du cannabis : r\u00e9percussions sur notre milieu de travail Webdiffusion - 17 septembre"
        },
        "subject": {
            "en": "communications",
            "fr": "communications"
        },
        "description": {
            "en": "How will the legalization of cannabis affect the workforce? Whether you're a manager or an employee, stay abreast of your roles and responsibilities with this learning event.",
            "fr": "Comment la l\u00e9galisation du cannabis touchera-t-elle le milieu de travail? Que vous soyez gestionnaire ou employ\u00e9, renseignez-vous sur vos r\u00f4les et responsabilit\u00e9s gr\u00e2ce \u00e0 cette activit\u00e9 d'apprentissage."
        },
        "language": {
            "en": "eng",
            "fr": "fra"
        },
        "audience": {
            "en": "gcaudience",
            "fr": "gcaudience"
        },
        "creator": {
            "en": "Agriculture and Agri-Food Canada",
            "fr": "Agriculture et Agroalimentaire Canada"
        },
        "spatial": {
            "en": "gcregions",
            "fr": "gcregions"
        },
        "service": {
            "en": "AAFC_AgriSource",
            "fr": "AAC_AgriSource"
        },
        "accessRights": {
            "en": "3",
            "fr": "3"
        }
    },
    "body": {
        "en": "<br>\n<br>\n<p>How will the legalization of cannabis affect the workforce? Whether you're a manager or an employee, stay abreast of your roles and responsibilities with this <a href=\"https://www.csps-efpc.gc.ca/events/lciw/index-eng.aspx?wbdisable=true\">learning event</a>.</p>\n<p>The Office of the Chief Human Resources Officer, in collaboration with the Centre for Labour and Employment Law, will explore the following topics:</p>\n<ul>\n<li>Cannabis use for recreational vs. medical purposes and the Duty to Accommodate</li>\n<li>Managers' roles and responsibilities regarding cannabis use by employees</li>\n<li>Employee duties and rights regarding cannabis use</li>\n<li>Recourse and corrective measures</li>\n<li>Jurisprudence and legislation</li>\n</ul>\n<h2><strong>Event information</strong></h2>\n<p><strong>Date and Time:</strong> September 17 | 1:30\u00a0to 3:00 p.m. (ET)<br><strong>Language: </strong>Bilingual with simultaneous interpretation<br><strong>Locations:</strong> Collaboration Lounge, Acad\u00e9mie De-La-Salle, 373 Sussex Drive (Guigues Avenue entrance), Ottawa, Ontario; Available across Canada by webcast<br><strong>Registration: </strong><a href=\"https://papp.csps-efpc.gc.ca/Saba/Web/Main/goto/GuestOfferingDetails?offeringId=class000000000120050&amp;locale=en_US\">Ottawa</a>\u00a0or <a href=\"https://papp.csps-efpc.gc.ca/Saba/Web/Main/goto/GuestOfferingDetails?offeringId=class000000000120081&amp;locale=en_US\">Webcast</a>\u00a0| The registration deadline is <strong>September 14</strong>.</p>\n<p>To maximize AAFC\u2019s videoconferencing capacity, employees are encouraged to gather with colleagues where possible to make use of boardrooms with videoconferencing facilities. Centres and teams are asked to please coordinate room bookings.</p>\n\n\t\t",
        "fr": "<br>\n<br>\n<p>Comment la l\u00e9galisation du cannabis touchera-t-elle le milieu de travail? Que vous soyez gestionnaire ou employ\u00e9, renseignez-vous sur vos r\u00f4les et responsabilit\u00e9s gr\u00e2ce \u00e0 cette <a href=\"https://www.csps-efpc.gc.ca/events/lciw/index-fra.aspx?wbdisable=true\">activit\u00e9 d'apprentissage</a>.</p>\n<p>Le Bureau de la dirigeante principale des ressources humaines, en partenariat avec le Centre du droit du travail et de l'emploi, abordera les sujets suivants :</p>\n<ul>\n<li>Le cannabis utilis\u00e9 \u00e0 des fins m\u00e9dicales ou r\u00e9cr\u00e9atives et l'obligation d'adaptation</li>\n<li>Le r\u00f4le et les responsabilit\u00e9s des gestionnaires concernant la consommation du cannabis par les employ\u00e9s</li>\n<li>Les obligations et droits des employ\u00e9s concernant la consommation du cannabis</li>\n<li>Les recours et les mesures correctives</li>\n<li>La jurisprudence et les lois</li>\n</ul>\n<h2><strong>Renseignements sur l'\u00e9v\u00e9nement</strong></h2>\n<p><strong>Date et heure : </strong>17 septembre |\u00a013 h 30 \u00e0 15 h (HE)<br><strong>Langues :</strong> Bilingue avec interpr\u00e9tation simultan\u00e9e<br><strong>Lieu : </strong>Salon de la collaboration, acad\u00e9mie De-La-Salle, 373, promenade Sussex (entr\u00e9e de l'avenue Guigues), Ottawa (Ontario); Offert partout au Canada par webdiffusion<br><strong>Inscription : </strong><a href=\"https://papp.csps-efpc.gc.ca/Saba/Web/Main/goto/GuestOfferingDetails?offeringId=class000000000120050&amp;locale=fr_CA\">Ottawa</a>\u00a0ou <a href=\"https://papp.csps-efpc.gc.ca/Saba/Web/Main/goto/GuestOfferingDetails?offeringId=class000000000120081&amp;locale=fr_CA\">Webdiffusion</a>\u00a0| La date limite d'inscription est le <strong>14 septembre.</strong></p>\n<p>Pour maximiser la capacit\u00e9 de vid\u00e9oconf\u00e9rence d\u2019AAC, les employ\u00e9s sont encourag\u00e9s \u00e0 se r\u00e9unir avec des coll\u00e8gues dans des salles de conf\u00e9rence munies d\u2019installations pour vid\u00e9oconf\u00e9rence. Les centres et les \u00e9quipes sont pri\u00e9s de coordonner la r\u00e9servation des salles.</p>\n\t\t"
    },
    "breadcrumb": {
        "en": "Reminder - Legalizing Cannabis: Impacts on Our Workplace Webcast - September 17",
        "fr": "Rappel - L\u00e9galisation du cannabis : r\u00e9percussions sur notre milieu de travail Webdiffusion - 17..."
    },
    "news": {
        "date_posted": {
            "en": "2018-09-06",
            "fr": "2018-09-06"
        },
        "to": {
            "en": "All staff",
            "fr": "Tous les employ\u00e9s"
        },
        "by": {
            "en": "Corporate Management Branch",
            "fr": "Direction g\u00e9n\u00e9rale de la gestion int\u00e9gr\u00e9e"
        }
    }
}