{
    "dcr_id": "1537978130606",
    "lang": "en",
    "title": {
        "en": "Reminder - Public Service Employee Survey - Complete it by October 5",
        "fr": "Rappel - Sondage aupr\u00e8s des fonctionnaires f\u00e9d\u00e9raux - Vous avez jusqu'au 5 octobre pour y r\u00e9pondre"
    },
    "modified": "2018-10-03 00:00:00.0",
    "issued": "2018-09-27 00:00:00.0",
    "type_name": "intra-intra/news-nouv",
    "node_id": "1279030006975",
    "layout_name": null,
    "dc_date_created": "2018-09-26",
    "breadcrumb_label": "",
    "meta": {
        "issued": {
            "en": "2018-09-27",
            "fr": "2018-09-27"
        },
        "modified": {
            "en": "2018-10-03",
            "fr": "2018-10-03"
        },
        "format": {
            "en": "gcformat",
            "fr": "gcformat"
        },
        "title": {
            "en": "Reminder - Public Service Employee Survey - Complete it by October 5",
            "fr": "Rappel - Sondage aupr\u00e8s des fonctionnaires f\u00e9d\u00e9raux - Vous avez jusqu'au 5 octobre pour y r\u00e9pondre"
        },
        "subject": {
            "en": "communications",
            "fr": "communications"
        },
        "description": {
            "en": "The deadline to complete the 2018 Public Service Employee Survey has been extended to October 5.",
            "fr": "La date limite pour compl\u00e9ter le Sondage aupr\u00e8s des fonctionnaires f\u00e9d\u00e9raux 2018 a \u00e9t\u00e9 prolong\u00e9e jusqu'au 5 octobre."
        },
        "language": {
            "en": "eng",
            "fr": "fra"
        },
        "audience": {
            "en": "gcaudience",
            "fr": "gcaudience"
        },
        "creator": {
            "en": "Agriculture and Agri-Food Canada",
            "fr": "Agriculture et Agroalimentaire Canada"
        },
        "spatial": {
            "en": "gcregions",
            "fr": "gcregions"
        },
        "service": {
            "en": "AAFC_AgriSource",
            "fr": "AAC_AgriSource"
        },
        "accessRights": {
            "en": "3",
            "fr": "3"
        }
    },
    "body": {
        "en": "<br>\n<br>\n<p>The deadline to complete the <strong>2018 Public Service Employee Survey (<abbr title=\"Public Service Employee Survey\">PSES</abbr>)</strong> has been extended to <strong>October 5</strong>.</p>\n<p>Join the many employees across the federal public service who have already participated. The <abbr title=\"Public Service Employee Survey\">PSES</abbr> results enable departments and agencies to identify and address people management issues in their organization. To get a more complete picture of what is happening in your workplace, we need to hear from you!</p>\n<p>The 2018 <abbr title=\"Public Service Employee Survey\">PSES</abbr> is being administered by Advanis, a Canadian market and social research firm, on behalf of the Office of the Chief Human Resources Officer of the Treasury Board of Canada Secretariat.</p>\n<p>Your responses are collected under the authority of the <em><a rel=\"external\" target=\"_blank\" href=\"https://email.advanis.net/clicked/advanis?to=http%3A%2F%2Flaws-lois.justice.gc.ca%2Feng%2Facts%2Ff-11%2F&amp;e=ricky.lee%40agr.gc.ca&amp;id=IAAgVQBYAHtTAyJDAisdNV0GHgswaw1QHUVQDW5VESQDYANBd1dgDlsARhIBWw%3D%3D\">Financial Administration Act</a></em> and will be protected in accordance with the <em><a rel=\"external\" target=\"_blank\" href=\"https://email.advanis.net/clicked/advanis?to=http%3A%2F%2Flaws-lois.justice.gc.ca%2Feng%2Facts%2Fp-21%2F&amp;e=ricky.lee%40agr.gc.ca&amp;id=IAAgVQBYAHtTAyJDAisdNV0GHgswaw1QHUVQDW5VESQDYANBd1dgDlsARhIBWw%3D%3D\">Privacy Act</a></em>. Individual responses and results for groups of less than ten respondents will not be reported or provided to departments or agencies. Learn more about the <a href=\"http://intranet.agr.gc.ca/agrisource/eng/our-department/people-strategy/public-service-employee-survey?id=1407756839813\">Public Service Employee Surveys</a>.</p>\n<p>The survey will take approximately 15 minutes to complete. <strong>Again, the deadline to submit your completed questionnaire is October 5, 2018.</strong></p>\n<p><img src=\"https://intranet.agr.gc.ca/resources/prod/news/images/PSES2018-EN.png\" class=\"center-block\"></p>\n\n\t\t",
        "fr": "<br>\n<br>\n<p>La date limite pour compl\u00e9ter <strong>le Sondage aupr\u00e8s des fonctionnaires f\u00e9d\u00e9raux 2018 (<abbr title=\"Sondage aupr\u00e8s des fonctionnaires f\u00e9d\u00e9raux\">SAFF</abbr>)</strong> a \u00e9t\u00e9 prolong\u00e9e jusqu'au <strong>5 octobre</strong>.</p>\n<p>Joignez-vous aux nombreux employ\u00e9s de la fonction publique f\u00e9d\u00e9rale qui l\u2019ont d\u00e9j\u00e0 rempli. Les r\u00e9sultats du <abbr title=\"Sondage aupr\u00e8s des fonctionnaires f\u00e9d\u00e9raux\">SAFF</abbr> permettent aux minist\u00e8res et aux organismes d'identifier et de r\u00e9soudre les probl\u00e8mes de gestion des personnes dans leur organisation. Pour avoir une vision plus compl\u00e8te de ce qui se passe dans votre milieu de travail, nous avons besoin de votre opinion!</p>\n<p>Le <abbr title=\"Sondage aupr\u00e8s des fonctionnaires f\u00e9d\u00e9raux\">SAFF</abbr> de 2018 est administr\u00e9 par Advanis, un cabinet Canadien de recherche \u00e0 caract\u00e8re social et d'\u00e9tudes de march\u00e9, au nom du Bureau de la dirigeante principale des ressources humaines du Secr\u00e9tariat du Conseil du Tr\u00e9sor du Canada.</p>\n<p>Vos r\u00e9ponses sont recueillies en vertu de la <em><a rel=\"external\" target=\"_blank\" href=\"https://email.advanis.net/clicked/advanis?to=http%3A%2F%2Flaws-lois.justice.gc.ca%2Ffra%2Flois%2Ff-11%2F&amp;e=ricky.lee%40agr.gc.ca&amp;id=IAAgVQBYAHtTAyJDAisdNV0GHgswaw1QHUVQDW5VESQDYANBd1dgDlsARhIBWw%3D%3D\">Loi sur la gestion des finances publiques</a></em> et seront prot\u00e9g\u00e9es conform\u00e9ment \u00e0 la <em><a rel=\"external\" target=\"_blank\" href=\"https://email.advanis.net/clicked/advanis?to=http%3A%2F%2Flaws-lois.justice.gc.ca%2Ffra%2Flois%2Fp-21%2F&amp;e=ricky.lee%40agr.gc.ca&amp;id=IAAgVQBYAHtTAyJDAisdNV0GHgswaw1QHUVQDW5VESQDYANBd1dgDlsARhIBWw%3D%3D\">Loi sur la protection des renseignements personnels</a></em>. Les r\u00e9ponses et les r\u00e9sultats individuels de groupes de moins de 10 personnes ne seront pas publi\u00e9s ni fournis aux minist\u00e8res et organismes. Consultez le <a href=\"http://intranet.agr.gc.ca/agrisource/fra/notre-ministere/strategie-de-gestion-des-personnes/sondage-aupres-des-fonctionnaires-federaux?id=1407756839813\">sondage aupr\u00e8s des fonctionnaires f\u00e9d\u00e9raux</a> pour en savoir plus.</p>\n<p>Il faut environ 15 minutes pour r\u00e9pondre au sondage. Nous vous rappelons<strong> que vous avez jusqu\u2019au 5 octobre 2018 pour le remplir.</strong></p>\n<p><img src=\"https://intranet.agr.gc.ca/resources/prod/news/images/PSES2018-FR.png\" class=\"center-block\"></p>\n\t\t"
    },
    "breadcrumb": {
        "en": "Reminder - Public Service Employee Survey - Complete it by October 5",
        "fr": "Rappel - Sondage aupr\u00e8s des fonctionnaires f\u00e9d\u00e9raux - Vous avez jusqu'au 5 octobre pour y r\u00e9pondre"
    },
    "news": {
        "date_posted": {
            "en": "2018-09-27",
            "fr": "2018-09-27"
        },
        "to": {
            "en": "All staff",
            "fr": "Tous les employ\u00e9s"
        },
        "by": {
            "en": "Office of the Chief Human Resources Officer",
            "fr": "Bureau de la dirigeante principale des ressources humaines"
        }
    }
}