{
    "dcr_id": "1537893958503",
    "lang": "en",
    "title": {
        "en": "AAFC Online Homepage Changes",
        "fr": "Modifications apport\u00e9es \u00e0 la page d'accueil d'AAC en direct "
    },
    "modified": "2018-09-27 00:00:00.0",
    "issued": "2018-09-27 00:00:00.0",
    "type_name": "intra-intra/news-nouv",
    "node_id": "1279030006975",
    "layout_name": null,
    "dc_date_created": "2018-09-25",
    "breadcrumb_label": "",
    "meta": {
        "issued": {
            "en": "2018-09-27",
            "fr": "2018-09-27"
        },
        "modified": {
            "en": "2018-09-27",
            "fr": "2018-09-27"
        },
        "format": {
            "en": "gcformat",
            "fr": "gcformat"
        },
        "title": {
            "en": "AAFC Online Homepage Changes",
            "fr": "Modifications apport\u00e9es \u00e0 la page d'accueil d'AAC en direct "
        },
        "subject": {
            "en": "communications",
            "fr": "communications"
        },
        "description": {
            "en": "On September 28, 2018 the look and feel of AAFC's homepage will be updated to make it easier for Canadians to find our services and information.",
            "fr": "Le 28 septembre 2018, l'aspect et la convivialit\u00e9 de la page d'accueil d'AAC seront mis \u00e0 jour pour que les Canadiens puissent trouver plus facilement nos services et nos renseignements."
        },
        "language": {
            "en": "eng",
            "fr": "fra"
        },
        "audience": {
            "en": "gcaudience",
            "fr": "gcaudience"
        },
        "creator": {
            "en": "Agriculture and Agri-Food Canada",
            "fr": "Agriculture et Agroalimentaire Canada"
        },
        "spatial": {
            "en": "gcregions",
            "fr": "gcregions"
        },
        "service": {
            "en": "AAFC_AgriSource",
            "fr": "AAC_AgriSource"
        },
        "accessRights": {
            "en": "3",
            "fr": "3"
        }
    },
    "body": {
        "en": "<br>\n<br>\n<p>On September 28, 2018 the look and feel of <a rel=\"external\" href=\"http://www.agr.gc.ca/eng/home/?id=1395690825741\">AAFC\u2019s homepage</a> will be updated to make it easier for Canadians to find our services and information.</p>\n<p>The updated homepage will:</p>\n<ul>\n<li>provide users with the information they need and want, based on analytics and research</li>\n<li>enable users to browse for more specialized information published by AAFC (for example, reports and other publications)</li>\n<li>provide a consistent and concise overview of AAFC\u2019s corporate information, mandate, services, and mandatory reporting requirements</li>\n</ul>\n<h2><strong>New features to better serve the information needs of Canadians</strong></h2>\n<p>The updates to our homepage are aligned with Treasury Board Secretariat\u2019s direction for digital services. All departments regardless of if they are migrating to Canada.ca or not have been asked to apply these changes to ensure a consistent online experience for Canadians across all Government of Canada websites. As AAFC will no longer be migrating to Canada.ca, our focus will be to ensure our web content is easy to find and intuitive for Canadians.</p>\n<p>New features include:</p>\n<ul>\n<li>a <strong>News carousel</strong> to promote recent AAFC announcements and priorities</li>\n<li><strong>Feature images</strong> to promote current high profile departmental activities, initiatives, programs and services</li>\n<li>a <strong>Services and information </strong>section to provide shortcuts to frequently accessed tasks, services and topics</li>\n<li>a <strong>What we are doing </strong>section to offer links to information about AAFC\u2019s program and policy development</li>\n</ul>\n<p>The introduction of these features comes with new opportunities to support the department\u2019s communications needs. Communications advisors in Public Affairs Branch will take these factors into consideration as they continue to work with you in meeting AAFC\u2019s communications objectives.</p>\n\n\t\t",
        "fr": "<br>\n<br>\n<p>Le 28 septembre 2018, l\u2019aspect et la convivialit\u00e9 de la <a rel=\"external\" href=\"http://www.agr.gc.ca/fra/accueil/?id=1395690825741\">page d\u2019accueil d\u2019AAC</a> seront mis \u00e0 jour pour que les Canadiens puissent trouver plus facilement nos services et nos renseignements.</p>\n<p>La page d\u2019accueil mise \u00e0 jour :</p>\n<ul>\n<li>fournira aux utilisateurs l\u2019information qu\u2019ils veulent et dont ils ont besoin gr\u00e2ce \u00e0 l\u2019analytique et \u00e0 la recherche;</li>\n<li>permettra aux utilisateurs de rechercher de l\u2019information sp\u00e9cialis\u00e9e publi\u00e9e par AAC (par exemple, des rapports et d\u2019autres publications);</li>\n<li>donnera un aper\u00e7u uniforme et concis des renseignements organisationnels, du mandat, des services et des exigences en mati\u00e8re de production de rapports d\u2019AAC.</li>\n</ul>\n<h2><strong>Nouvelles caract\u00e9ristiques pour mieux r\u00e9pondre aux besoins en information des Canadiens </strong></h2>\n<p>Les modifications apport\u00e9es \u00e0 notre page d\u2019accueil sont conformes \u00e0 la directive du Secr\u00e9tariat du Conseil du Tr\u00e9sor sur les services num\u00e9riques. Tous les minist\u00e8res, qu\u2019ils aient fait la migration au site Canada.ca ou non, doivent effectuer des modifications afin que l\u2019exp\u00e9rience en ligne des Canadiens soit la m\u00eame dans tous les sites Web du gouvernement du Canada. Comme AAC ne fera pas la migration au site Canada.ca, notre priorit\u00e9 est de veiller \u00e0 ce que le contenu Web d\u2019AAC soit facile \u00e0 trouver pour les Canadiens.</p>\n<p>Voici de nouvelles caract\u00e9ristiques :</p>\n<ul>\n<li>Un <strong>nouveau carrousel </strong>qui fait la promotion des r\u00e9centes annonces et priorit\u00e9s d\u2019AAC</li>\n<li>Des<strong> images</strong> qui font la promotion d\u2019activit\u00e9s, d\u2019initiatives, de programmes et de services de premier plan</li>\n<li>Une section \u00ab <strong>services et information </strong>\u00bb qui fournit des raccourcis vers des t\u00e2ches, des services et des sujets fr\u00e9quemment consult\u00e9s ou utilis\u00e9s </li>\n<li>Une section \u00ab <strong>ce que nous faisons </strong>\u00bb qui fournit des liens vers de l\u2019information sur l\u2019\u00e9laboration des programmes et des politiques d\u2019AAC </li>\n</ul>\n<p>La mise en \u0153uvre de ces nouvelles caract\u00e9ristiques nous donne l\u2019occasion de r\u00e9pondre aux besoins en mati\u00e8re de communications du Minist\u00e8re. Les conseillers en communications de la Direction g\u00e9n\u00e9rale des affaires publiques prendront ces facteurs en consid\u00e9ration tout en continuant de collaborer avec vous pour atteindre les objectifs de communication d\u2019AAC.</p>\n\t\t"
    },
    "breadcrumb": {
        "en": "AAFC Online Homepage Changes",
        "fr": "Modifications apport\u00e9es \u00e0 la page d'accueil d'AAC en direct"
    },
    "news": {
        "date_posted": {
            "en": "2018-09-27",
            "fr": "2018-09-27"
        },
        "to": {
            "en": "All staff",
            "fr": "Tous les employ\u00e9s"
        },
        "by": {
            "en": "Public Affairs Branch",
            "fr": "Direction g\u00e9n\u00e9rale des affaires publiques"
        }
    }
}