{
    "dcr_id": "1537285846081",
    "lang": "en",
    "title": {
        "en": "Winners of the Official Languages Scavenger Hunt",
        "fr": "Gagnants de la chasse au tr\u00e9sor des langues officielles"
    },
    "modified": "2018-09-20 00:00:00.0",
    "issued": "2018-09-20 00:00:00.0",
    "type_name": "intra-intra/news-nouv",
    "node_id": "1279030006975",
    "layout_name": null,
    "dc_date_created": "2018-09-18",
    "breadcrumb_label": "",
    "meta": {
        "issued": {
            "en": "2018-09-20",
            "fr": "2018-09-20"
        },
        "modified": {
            "en": "2018-09-20",
            "fr": "2018-09-20"
        },
        "format": {
            "en": "gcformat",
            "fr": "gcformat"
        },
        "title": {
            "en": "Winners of the Official Languages Scavenger Hunt",
            "fr": "Gagnants de la chasse au tr\u00e9sor des langues officielles"
        },
        "subject": {
            "en": "communications",
            "fr": "communications"
        },
        "description": {
            "en": "Over 70 employees, comprising 17 teams, participated in the second annual Hunt.",
            "fr": "Plus de 70 employ\u00e9s faisant partie de 17 \u00e9quipes ont particip\u00e9 \u00e0 la deuxi\u00e8me \u00e9dition de la chasse au tr\u00e9sor."
        },
        "language": {
            "en": "eng",
            "fr": "fra"
        },
        "audience": {
            "en": "gcaudience",
            "fr": "gcaudience"
        },
        "creator": {
            "en": "Agriculture and Agri-Food Canada",
            "fr": "Agriculture et Agroalimentaire Canada"
        },
        "spatial": {
            "en": "gcregions",
            "fr": "gcregions"
        },
        "service": {
            "en": "AAFC_AgriSource",
            "fr": "AAC_AgriSource"
        },
        "accessRights": {
            "en": "3",
            "fr": "3"
        }
    },
    "body": {
        "en": "<br>\n<br>\n<p>Congratulations to \u201cHey, Hay Fermier!\u201d and its members Carmen Roy, Cristina Jacobson, Ian Surridge, Joanne Gudmundson and Kyle McLean for winning the Official Languages Scavenger Hunt on September 13, 2018. Over 70 employees, comprising 17 teams, participated in the second annual Hunt.</p>\n<p>For the answers to the Scavenger Hunt and the names of the other teams, please visit the <a href=\"https://collab.agr.gc.ca/co/olcp_cplo/SitePages/Linguistic_Duality_Day_Journ%C3%A9e_de_la_dualit%C3%A9_linguistique.aspx\">Linguistic Duality Day</a> page. For all other information, tools, and resources, please visit the <a href=\"https://collab.agr.gc.ca/co/olcp_cplo/SitePages/Virtual_Kiosk_Kiosque_virtuel.aspx\">Official Languages Virtual Kiosk</a>.</p>\n<p>On behalf of the Official Languages Committee and the Official Languages Team, I would like to thank everyone for their participation and enthusiasm during the activities surrounding Linguistic Duality Day.</p>\n<p>Stay tuned for more official languages activities being held across the Department.</p>\n\n\t\t",
        "fr": "<br>\n<br>\n<p>F\u00e9licitations \u00e0 l\u2019\u00e9quipe \u00ab Hey, Hay Fermier! \u00bb et \u00e0 ses membres Carmen Roy, Cristina Jacobson, Ian Surridge, Joanne Gudmundson et Kyle McLean qui ont gagn\u00e9 la chasse au tr\u00e9sor des langues officielles le 13 septembre 2018. Plus de 70 employ\u00e9s faisant partie de 17 \u00e9quipes ont particip\u00e9 \u00e0 la deuxi\u00e8me \u00e9dition de la chasse au tr\u00e9sor.</p>\n<p>Pour conna\u00eetre les r\u00e9ponses \u00e0 la chasse au tr\u00e9sor et les noms des autres \u00e9quipes, veuillez consulter la page de la <a href=\"https://collab.agr.gc.ca/co/olcp_cplo/SitePages/Linguistic_Duality_Day_Journ%C3%A9e_de_la_dualit%C3%A9_linguistique.aspx\">Journ\u00e9e de la dualit\u00e9 linguistique</a>. Pour avoir acc\u00e8s aux autres renseignements, outils et ressources, veuillez visiter le <a href=\"https://collab.agr.gc.ca/co/olcp_cplo/SitePages/Virtual_Kiosk_Kiosque_virtuel.aspx\">kiosque virtuel des langues officielles</a>.</p>\n<p>Au nom du Comit\u00e9 des langues officielles et de l\u2019\u00e9quipe des langues officielles, je tiens \u00e0 remercier tous ceux qui ont particip\u00e9 avec enthousiasme aux activit\u00e9s de la Journ\u00e9e de la dualit\u00e9 linguistique.</p>\n<p>Restez \u00e0 l\u2019\u00e9coute pour d\u2019autres renseignements sur les prochaines activit\u00e9s du Minist\u00e8re dans le domaine des langues officielles.</p>\n\t\t"
    },
    "breadcrumb": {
        "en": "Winners of the Official Languages Scavenger Hunt",
        "fr": "Gagnants de la chasse au tr\u00e9sor des langues officielles"
    },
    "news": {
        "date_posted": {
            "en": "2018-09-20",
            "fr": "2018-09-20"
        },
        "to": {
            "en": "All staff",
            "fr": "Tous les employ\u00e9s"
        },
        "by": {
            "en": "Jane Taylor, Official Languages Champion",
            "fr": "Jane Taylor, Championne des langues officielles"
        }
    }
}