{
    "dcr_id": "1537965954634",
    "lang": "en",
    "title": {
        "en": "October is Healthy Workplace Month",
        "fr": "Octobre est le Mois de la sant\u00e9 au travail"
    },
    "modified": "2018-09-27 00:00:00.0",
    "issued": "2018-09-27 00:00:00.0",
    "type_name": "intra-intra/news-nouv",
    "node_id": "1279030006975",
    "layout_name": null,
    "dc_date_created": "2018-09-26",
    "breadcrumb_label": "",
    "meta": {
        "issued": {
            "en": "2018-09-27",
            "fr": "2018-09-27"
        },
        "modified": {
            "en": "2018-09-27",
            "fr": "2018-09-27"
        },
        "format": {
            "en": "gcformat",
            "fr": "gcformat"
        },
        "title": {
            "en": "October is Healthy Workplace Month",
            "fr": "Octobre est le Mois de la sant\u00e9 au travail"
        },
        "subject": {
            "en": "communications",
            "fr": "communications"
        },
        "description": {
            "en": "As AAFC Wellness Champions, we would like to bring to your attention that October is Healthy Workplace Month.",
            "fr": "En tant que champions du mieux-\u00eatre \u00e0 AAC, nous aimerions vous signaler qu'octobre est le Mois de la sant\u00e9 au travail."
        },
        "language": {
            "en": "eng",
            "fr": "fra"
        },
        "audience": {
            "en": "gcaudience",
            "fr": "gcaudience"
        },
        "creator": {
            "en": "Agriculture and Agri-Food Canada",
            "fr": "Agriculture et Agroalimentaire Canada"
        },
        "spatial": {
            "en": "gcregions",
            "fr": "gcregions"
        },
        "service": {
            "en": "AAFC_AgriSource",
            "fr": "AAC_AgriSource"
        },
        "accessRights": {
            "en": "3",
            "fr": "3"
        }
    },
    "body": {
        "en": "<br>\n<br>\n<p>As AAFC Wellness Champions, we would like to bring to your attention that October is Healthy Workplace Month. We want to emphasize the importance of a positive workplace, good mental health and a safe physical environment. During this month AAFC will be offering a variety of events, including:</p>\n<ul>\n<li><em>The Working Mind</em> mental health training for managers and employees</li>\n<li>Seminars on topics such as <em>Resilience</em>, <em>Boosting Your Positive Outlook</em> and <em>Healthy, Active Living</em></li>\n<li>Personal testimonial on <em>Parental Burnout and Depression</em></li>\n</ul>\n<p>We encourage you to take some time and participate in events that may be of interest to you. You can find details and registration information on the <a href=\"https://collab.agr.gc.ca/co/aafcwe-beaac/SitePages/Healthy%20Workplace%20Month.aspx?WikiPageMode=Edit&amp;amp;InitialTabId=Ribbon.EditingTools.CPEditTab&amp;amp;VisibilityContext=WSSWikiPage\">Workplace Wellness calendar</a> on Knowledge Workspace.</p>\n<p>We would also like to encourage local sites or teams to lead their own wellness activities. Go for a walk. Gather together as a group and share lunch. Host a friendly competition. Say thanks for a job well done or have a kindness/\u201dpay it forward\u201d day. It doesn\u2019t need to be complicated! Let us know about your activities so that we can share your stories and ideas.</p>\n<p>Health and wellness does not just happen in October - it is something that we need to be aware of throughout the year in our workplaces and in our personal lives. A healthy, supportive and respectful work environment is a cornerstone of a great department. It presents opportunities to excel and innovate and take pride in the work that each of you do for AAFC.</p>\n<p>Please stay tuned to <em>news@work</em> for weekly updates about events, articles and other resources to help us make a difference.</p>\n<p><img src=\"https://intranet.agr.gc.ca/resources/prod/news/images/HealthyWorkplaceMonth2018-EN.png\" class=\"center-block\"></p>\n\n\t\t",
        "fr": "<br>\n<br>\n<p>En tant que champions du mieux-\u00eatre \u00e0 AAC, nous aimerions vous signaler qu\u2019octobre est le Mois de la sant\u00e9 au travail. Nous tenons \u00e0 souligner l\u2019importance d\u2019un milieu de travail positif, d\u2019une bonne sant\u00e9 mentale et d\u2019un environnement physique s\u00e9curitaire. Au cours de ce mois, AAC offrira diverses activit\u00e9s, dont les suivantes :</p>\n<ul>\n<li>La formation sur la sant\u00e9 mentale <em>L\u2019esprit au travail</em> pour les gestionnaires et les employ\u00e9s</li>\n<li>Des s\u00e9minaires sur des sujets comme la r\u00e9silience, l\u2019optimisme et un mode de vie sain et actif</li>\n<li>Un t\u00e9moignage personnel sur le surmenage parental et la d\u00e9pression</li>\n</ul>\n<p>\nNous vous encourageons \u00e0 participer aux activit\u00e9s qui vous int\u00e9ressent. Consultez la page du <a href=\"https://collab.agr.gc.ca/co/aafcwe-beaac/SitePages/Healthy%20Workplace%20Month.aspx?WikiPageMode=Edit&amp;amp;InitialTabId=Ribbon.EditingTools.CPEditTab&amp;amp;VisibilityContext=WSSWikiPage\">calendrier du mieux-\u00eatre</a> dans l\u2019Espace de travail du savoir pour obtenir de plus amples renseignements et vous inscrire.</p>\n<p>\nDe plus, nous encourageons les \u00e9quipes \u00e0 organiser leurs propres activit\u00e9s de mieux-\u00eatre. Il peut s\u2019agit d\u2019allez faire une marche de partagez un d\u00eener en groupe, d\u2019organisez une comp\u00e9tition amicale. Vous pouvez prendre le temps de dire \u00a0merci pour un travail bien fait ou organisez une journ\u00e9e des bonnes actions \u00a0ou sous le th\u00e8me \u00ab\u00a0donnez au suivant \u00bb. Nul besoin d\u2019\u00eatre compliqu\u00e9! Faites-nous part de vos activit\u00e9s afin que nous puissions communiquer vos t\u00e9moignages et vos id\u00e9es.</p>\n<p>\nBien que l\u2019importance de la sant\u00e9 et du mieux-\u00eatre soit soulign\u00e9e en octobre, il est non moins important d\u2019en appliquer les principes tout au long de l\u2019ann\u00e9e, tant au travail que dans sa vie personnelle. Un environnement de travail sain, solidaire et respectueux est \u00e0 la base d\u2019un minist\u00e8re o\u00f9 il fait bon travailler. Un tel environnement nous permet d\u2019exceller, d\u2019innover et d\u2019\u00eatre fiers du travail accompli par chacun de nous, \u00e0 AAC.</p>\n<p>\nContinuez de consulter les <i>nouvelles@l\u2019ouvrage</i> pour avoir acc\u00e8s \u00e0 de l\u2019information sur les activit\u00e9s, \u00e0 des articles et \u00e0 d\u2019autres ressources qui aident \u00e0 offrir un meilleur environnement de travail.</p>\n<p><img src=\"https://intranet.agr.gc.ca/resources/prod/news/images/HealthyWorkplaceMonth2018-FR.png\" class=\"center-block\"></p>\n\t\t"
    },
    "breadcrumb": {
        "en": "October is Healthy Workplace Month",
        "fr": "Octobre est le Mois de la sant\u00e9 au travail"
    },
    "news": {
        "date_posted": {
            "en": "2018-09-27",
            "fr": "2018-09-27"
        },
        "to": {
            "en": "All staff",
            "fr": "Tous les employ\u00e9s"
        },
        "by": {
            "en": "Tom Rosser and Catherine Keir, AAFC Wellness Co-Champions",
            "fr": "Tom Rosser et Catherine Keir, champions du mieux-\u00eatre \u00e0 AAC"
        }
    }
}