{
    "dcr_id": "1537298109817",
    "lang": "en",
    "title": {
        "en": "Reminder - Mid-Year Review - Deadline is October 19",
        "fr": "Rappel - Examen de mi-exercice - La date limite est le 19 octobre"
    },
    "modified": "2018-10-17 00:00:00.0",
    "issued": "2018-09-26 00:00:00.0",
    "type_name": "intra-intra/news-nouv",
    "node_id": "1279030006975",
    "layout_name": null,
    "dc_date_created": "2018-09-25",
    "breadcrumb_label": "",
    "meta": {
        "issued": {
            "en": "2018-09-26",
            "fr": "2018-09-26"
        },
        "modified": {
            "en": "2018-10-17",
            "fr": "2018-10-03"
        },
        "format": {
            "en": "gcformat",
            "fr": "gcformat"
        },
        "title": {
            "en": "Reminder - Mid-Year Review - Deadline is October 19",
            "fr": "Rappel - Examen de mi-exercice - La date limite est le 19 octobre"
        },
        "subject": {
            "en": "communications",
            "fr": "communications"
        },
        "description": {
            "en": "Mid-year is just around the corner and now is the time to discuss your progress and realign (where necessary) your 2018-19 performance agreement objectives.",
            "fr": "La date limite d'examen de mi-exercice approche rapidement, et c'est maintenant le temps de discuter des progr\u00e8s r\u00e9alis\u00e9s et d'ajuster, au besoin, vos ententes de rendement de 2018-2019."
        },
        "language": {
            "en": "eng",
            "fr": "fra"
        },
        "audience": {
            "en": "gcaudience",
            "fr": "gcaudience"
        },
        "creator": {
            "en": "Agriculture and Agri-Food Canada",
            "fr": "Agriculture et Agroalimentaire Canada"
        },
        "spatial": {
            "en": "gcregions",
            "fr": "gcregions"
        },
        "service": {
            "en": "AAFC_AgriSource",
            "fr": "AAC_AgriSource"
        },
        "accessRights": {
            "en": "3",
            "fr": "3"
        }
    },
    "body": {
        "en": "<br>\n<br>\n<p>Mid-year is just around the corner and now is the time to discuss your progress and realign (where necessary) your 2018-19 performance agreement objectives.</p>\n<p>All mid-year performance review exercises must be completed by <strong>Friday,</strong> <strong>October 19.</strong></p>\n<p>The mid-year review provides an opportunity for managers/supervisors and employees alike to:</p>\n<ul>\n<li>record progress made against work objectives</li>\n<li>adjust work objectives to reflect changing priorities</li>\n<li>provide and obtain feedback</li>\n<li>review and update individual learning activities</li>\n</ul>\n<h2><strong>Employee Performance Agreements</strong></h2>\n<p>Updates to employee performance agreements and learning and development plans should be recorded in the <a href=\"https://portal-portail.tbs-sct.gc.ca/home-eng.aspx\">Public Service Performance Management Application</a> (<abbr title=\"Public Service Performance Management\">PSPM</abbr> App). For more information regarding employee performance, please see the <a href=\"http://intranet.agr.gc.ca/agrisource/eng/human-resources/performance-management?id=1287674550306\">Performance Management</a> AgriSource page or email <a href=\"mailto:AAFC.Performance-Rendement.AAC@agr.gc.ca\">aafc.performance-rendement.aac@agr.gc.ca</a>.</p>\n<h2><strong>Executive Performance Agreements</strong></h2>\n<p>Executives are to use the Executive Performance Agreement and Learning and Development Plan in the <a href=\"https://talent.tbs-sct.gc.ca/etms-sgtcs/login-eng.aspx\">Executive Talent Management System</a> (<abbr title=\"Executive Talent Management System\">ETMS</abbr>). Questions specifically related to the executive performance management process can be sent to <a href=\"mailto:EX@agr.gc.ca\">ex@agr.gc.ca</a>.</p>\n<p><img src=\"https://intranet.agr.gc.ca/resources/prod/news/images/Mid-YearReview2018-EN.png\" class=\"center-block\"></p>\n\n\t\t",
        "fr": "<br>\n<br>\n<p>La date limite d'examen de mi-exercice approche rapidement, et c\u2019est maintenant le temps de discuter des progr\u00e8s r\u00e9alis\u00e9s et d\u2019ajuster, au besoin, vos ententes de rendement de 2018-2019.</p>\n<p>\nLes\u00a0examens de mi-exercice doivent \u00eatre termin\u00e9es d\u2019ici le <strong>vendredi 19 octobre.</strong></p>\n<p>\nL'examen de mi-exercice offrent l\u2019occasion aux gestionnaires, superviseurs et employ\u00e9s de :</p>\n<ul>\n<li>\nfaire le bilan des progr\u00e8s r\u00e9alis\u00e9s par rapport \u00e0\u00a0leurs objectifs de travail</li>\n<li>modifier leurs objectifs de travail en fonction de l\u2019\u00e9volution des priorit\u00e9s</li>\n<li>fournir et obtenir de la r\u00e9troaction</li>\n<li>passer en revue et mettre \u00e0 jour les activit\u00e9s\u00a0d\u2019apprentissage</li>\n</ul>\n<h2><strong>Ententes de rendement des employ\u00e9s</strong></h2>\n<p>Les changements apport\u00e9s aux ententes de rendement et aux plans d\u2019apprentissage et de perfectionnement des employ\u00e9s doivent \u00eatre entr\u00e9s dans l\u2019<a href=\"https://portal-portail.tbs-sct.gc.ca/home-fra.aspx\">application de gestion du rendement de la fonction publique</a> (application de <abbr title=\"gestion du rendement de la fonction publique\">GRFP</abbr>). Pour obtenir de plus amples renseignements sur le processus de rendement des employ\u00e9s, consultez la page <a href=\"http://intranet.agr.gc.ca/agrisource/fra/ressources-humaines/gestion-du-rendement?id=1287674550306\">Gestion du rendement</a> dans AgriSource ou \u00e9crivez-nous \u00e0 <a href=\"mailto:aafc.performance-rendement.aac@agr.gc.ca\">aafc.performance-rendement.aac@agr.gc.ca</a>.</p>\n<h2><strong>Ententes de rendement des cadres sup\u00e9rieurs</strong></h2>\n<p>Les cadres sup\u00e9rieurs doivent utiliser l\u2019entente de rendement et le plan d\u2019apprentissage et de perfectionnement des cadres dans le <a href=\"https://talent.tbs-sct.gc.ca/etms-sgtcs/Connexion-fra.aspx\">Syst\u00e8me de la gestion des talents des cadres sup\u00e9rieurs</a>. Les questions relatives au processus de gestion du rendement des cadres sup\u00e9rieurs\u00a0peuvent \u00eatre achemin\u00e9es \u00e0 l\u2019adresse <a href=\"mailto:ex@agr.gc.ca\">ex@agr.gc.ca</a>.</p>\n<p><img src=\"https://intranet.agr.gc.ca/resources/prod/news/images/Mid-YearReview2018-FR.png\" class=\"center-block\"></p>\n\t\t"
    },
    "breadcrumb": {
        "en": "Reminder - Mid-Year Review - Deadline is October 19",
        "fr": "Rappel - Examen de mi-exercice - La date limite est le 19 octobre"
    },
    "news": {
        "date_posted": {
            "en": "2018-09-27",
            "fr": "2018-09-27"
        },
        "to": {
            "en": "All staff",
            "fr": "Tous les employ\u00e9s"
        },
        "by": {
            "en": "Human Resources, Corporate Management Branch",
            "fr": "Ressources humaines, Direction g\u00e9n\u00e9rale de la gestion int\u00e9gr\u00e9e"
        }
    }
}