{
    "dcr_id": "1538483055698",
    "lang": "en",
    "title": {
        "en": "Reminder - NCR - Calling All Bakers and Buyers for \"Cupcake Stars\" - October 22",
        "fr": "Rappel - RCN - Besoin de p\u00e2tissiers et d'amateurs pour l'\u00e9v\u00e9nement \u00ab petits g\u00e2teaux \u00e9toiles \u00bb le 22 octobre"
    },
    "modified": "2018-10-10 00:00:00.0",
    "issued": "2018-10-04 00:00:00.0",
    "type_name": "intra-intra/news-nouv",
    "node_id": "1279030006975",
    "layout_name": null,
    "dc_date_created": "2018-10-02",
    "breadcrumb_label": "",
    "meta": {
        "issued": {
            "en": "2018-10-04",
            "fr": "2018-10-04"
        },
        "modified": {
            "en": "2018-10-10",
            "fr": "2018-10-10"
        },
        "format": {
            "en": "gcformat",
            "fr": "gcformat"
        },
        "title": {
            "en": "Reminder - NCR - Calling All Bakers and Buyers for \"Cupcake Stars\" - October 22",
            "fr": "Rappel - RCN - Besoin de p\u00e2tissiers et d'amateurs pour l'\u00e9v\u00e9nement \u00ab petits g\u00e2teaux \u00e9toiles \u00bb le 22 octobre"
        },
        "subject": {
            "en": "communications",
            "fr": "communications"
        },
        "description": {
            "en": "Get out your aprons, warm up those ovens, and get your appetites ready because \"Cupcake Stars\" is coming back on Monday, October 22!",
            "fr": "Sortez vos tabliers, chauffez vos fourneaux et aiguisez votre app\u00e9tit parce que l'activit\u00e9 des \u00ab Petits g\u00e2teaux \u00e9toiles \u00bb sera de retour le lundi 22 octobre."
        },
        "language": {
            "en": "eng",
            "fr": "fra"
        },
        "audience": {
            "en": "gcaudience",
            "fr": "gcaudience"
        },
        "creator": {
            "en": "Agriculture and Agri-Food Canada",
            "fr": "Agriculture et Agroalimentaire Canada"
        },
        "spatial": {
            "en": "gcregions",
            "fr": "gcregions"
        },
        "service": {
            "en": "AAFC_AgriSource",
            "fr": "AAC_AgriSource"
        },
        "accessRights": {
            "en": "3",
            "fr": "3"
        }
    },
    "body": {
        "en": "<br>\n<br>\n<p>Get out your aprons, warm up those ovens, and get your appetites ready because<strong> \"Cupcake Stars\" is coming back on Monday, October 22!</strong></p>\n<h2><strong>Event information</strong></h2>\n<p><strong>Date:</strong> Monday, October 22<br><strong>Time: </strong>Sale starts at 12 p.m.<br><strong>Location:</strong> Tower 6 cafeteria<br><strong>Cost:</strong> $3 per cupcake</p>\n<h2><strong>Bakers needed!</strong></h2>\n<p>We are looking for volunteer bakers from across AAFC to make a batch of at least 24 homemade, decorated cupcakes, to help raise money for the Government of Canada Workplace Charitable Campaign.</p>\n<p>AAFC employees will vote for their \u201cFan Favourite\u201d cupcake, and this year\u2019s theme is Autumn (think falling leaves, pumpkins, Thanksgiving, Halloween), so get creative! If you would just like to just bake cupcakes and don't want the pressure of following the fall theme, that works too \u2013 it\u2019s all for charity! The voting will take place during the sale and the 3 bakers with the most votes will take home a prize.</p>\n<p><strong>If you're interested in being a baker</strong>, email Emily Smyth at <a href=\"mailto:emily.smyth@canada.ca\">emily.smyth@canada.ca</a> by <strong>Friday, October 12.</strong></p>\n<h2><strong>Hungry employees needed!</strong></h2>\n<p>Bring your sweet tooth and a storage container to transport your purchased goodies! Come out to vote for your \u201cFan Favourite\u201d and get your fill before they\u2019re gone.</p>\n<p>For more information, please see the <a href=\"https://collab.agr.gc.ca/co/gcwcc-support-ccmtgc/SitePages/NCR%20CAMPAIGN%20-%20Events%20-%20Cupcake%20Stars.aspx\">Cupcake Stars event page on Knowledge Workspace</a> or contact Tammy Moke at <a href=\"mailto:tammy.moke@canada.ca\">tammy.moke@canada.ca</a>.</p>\n<p>Note: 100% of proceeds will be donated to the GCWCC.</p>\n<p><img src=\"https://intranet.agr.gc.ca/resources/prod/news/images/PABCupcakeStars2018-EN.png\" class=\"center-block\" alt=\"\"><br><img src=\"https://intranet.agr.gc.ca/resources/prod/news/images/GCWCC2018-EN.png\" class=\"center-block\"></p>\n\n\t\t",
        "fr": "<br>\n<br>\n<p>Sortez vos tabliers, chauffez vos fourneaux et aiguisez votre app\u00e9tit parce que l\u2019activit\u00e9 des<b> \u00ab\u00a0Petits g\u00e2teaux \u00e9toiles\u00a0\u00bb sera de retour le lundi 22\u00a0octobre.</b></p>\n<h2>\n<b>Renseignements sur l\u2019activit\u00e9</b></h2>\n<p>\n<b>Date</b>\u00a0<b>: </b>Lundi 22\u00a0octobre<br><b>Heure\u00a0: </b>La vente commence \u00e0 midi<br><b>Lieu\u00a0:</b>\u00a0Caf\u00e9t\u00e9ria de la tour\u00a06<br><b>Co\u00fbt\u00a0:</b> 3\u00a0$ par petit g\u00e2teau</p>\n<h2>\n<b>Besoin de p\u00e2tissiers</b><b>\u00a0</b></h2>\n<p>\nNous faisons appel \u00e0 tous les employ\u00e9s d\u2019AAC pour trouver des p\u00e2tissiers et p\u00e2tissi\u00e8res b\u00e9n\u00e9voles qui accepteront de pr\u00e9parer, \u00e0 la maison, une fourn\u00e9e d\u2019au moins 24\u00a0petits g\u00e2teaux d\u00e9cor\u00e9s afin de nous aider \u00e0 amasser des fonds pour la Campagne de charit\u00e9 en milieu de travail du gouvernement du Canada.</p>\n<p>\nLes employ\u00e9s d\u2019AAC voteront pour leur petit g\u00e2teau pr\u00e9f\u00e9r\u00e9 dans la cat\u00e9gorie \u00ab\u00a0Choix du public\u00a0\u00bb. Le th\u00e8me de cette ann\u00e9e est l\u2019automne (pensez feuilles qui tombent, citrouilles, Action de gr\u00e2ce, Halloween). Vous devrez donc faire preuve de cr\u00e9ativit\u00e9. Si vous voulez pr\u00e9parer<br>une fourn\u00e9e de petits g\u00e2teaux, mais ne voulez pas les d\u00e9corer selon le th\u00e8me choisi, pas de probl\u00e8me! La vente vise \u00e0 amasser des fonds pour les organismes de charit\u00e9, alors nous acceptons tous les petits g\u00e2teaux. Vous pourrez voter pendant la vente. Les trois p\u00e2tissiers qui auront obtenu le plus grand nombre de votes gagneront un prix.</p>\n<p>\n<b>Si vous voulez pr\u00e9parer des petits g\u00e2teaux</b>, envoyez un courriel \u00e0 Emily\u00a0Smyth au <a href=\"mailto:emily.smyth@canada.ca\">emily.smyth@canada.ca</a> d\u2019ici le <b>vendredi 12\u00a0octobre.</b></p>\n<h2>\n<b>Besoin d\u2019employ\u00e9s affam\u00e9s</b></h2>\n<p>\nVous avez un faible pour les sucreries? Alors, venez vous sucrer le bec avant qu\u2019il n\u2019y ait plus de petits g\u00e2teaux et voter pour le \u00ab\u00a0Choix du public\u00a0\u00bb. N\u2019oubliez surtout pas d\u2019apporter un contenant pour y mettre vos achats!</p>\n<p>\nPour obtenir de plus amples renseignements, veuillez consulter la page sur les <a rel=\"external\" href=\"https://collab.agr.gc.ca/co/gcwcc-support-ccmtgc/SitePages/NCR%20CAMPAIGN%20-%20Events%20-%20Cupcake%20Stars.aspx\">Petits g\u00e2teaux \u00e9toiles dans l\u2019Espace de travail du savoir</a> ou communiquer avec Tammy\u00a0Moke au <a href=\"mailto:tammy.moke@canada.ca\">tammy.moke@canada.ca</a>.</p>\n<p>\nRemarque\u00a0: Tous les fonds amass\u00e9s seront vers\u00e9s \u00e0 la CCMTGC.\u00a0</p>\n<p><img src=\"https://intranet.agr.gc.ca/resources/prod/news/images/PABCupcakeStars2018-FR.png\" class=\"center-block\" alt=\"\"><br><img src=\"https://intranet.agr.gc.ca/resources/prod/news/images/GCWCC2018-FR.png\" class=\"center-block\"></p>\n\t\t"
    },
    "breadcrumb": {
        "en": "NCR - Reminder - NCR - Calling All Bakers and Buyers for \"Cupcake Stars\" - October 22",
        "fr": "RCN - Rappel - RCN - Besoin de p\u00e2tissiers et d'amateurs pour l'\u00e9v\u00e9nement \u00ab petits g\u00e2teaux \u00e9toiles \u00bb le..."
    },
    "news": {
        "date_posted": {
            "en": "2018-10-04",
            "fr": "2018-10-04"
        },
        "to": {
            "en": "NCR only",
            "fr": "RCN seulement"
        },
        "by": {
            "en": "Cupcake Stars Team, Public Affairs Branch",
            "fr": "\u00c9quipe des petits g\u00e2teaux \u00e9toiles, Direction g\u00e9n\u00e9rale des affaires publiques"
        }
    }
}