{
    "dcr_id": "1539199732469",
    "lang": "en",
    "title": {
        "en": "NCR - Securing Your Workspace and Personal Valuables",
        "fr": "RCN - Protection de votre poste de travail et de vos objets de valeur"
    },
    "modified": "2018-10-10 00:00:00.0",
    "issued": "2018-10-10 00:00:00.0",
    "type_name": "intra-intra/news-nouv",
    "node_id": "1279030006975",
    "layout_name": null,
    "dc_date_created": "2018-10-10",
    "breadcrumb_label": "",
    "meta": {
        "issued": {
            "en": "2018-10-10",
            "fr": "2018-10-10"
        },
        "modified": {
            "en": "2018-10-10",
            "fr": "2018-10-10"
        },
        "format": {
            "en": "gcformat",
            "fr": "gcformat"
        },
        "title": {
            "en": "NCR - Securing Your Workspace and Personal Valuables",
            "fr": "RCN - Protection de votre poste de travail et de vos objets de valeur"
        },
        "subject": {
            "en": "communications",
            "fr": "communications"
        },
        "description": {
            "en": "Due to a recent increase in thefts in NHCAP, Departmental Security Services would like to remind all employees of the following security tips regarding securing workspaces and personal valuables.",
            "fr": "En raison de la hausse r\u00e9cente du nombre de vols au CACPA, les Services de s\u00e9curit\u00e9 minist\u00e9riels souhaitent rappeler \u00e0 tous les employ\u00e9s les conseils de s\u00e9curit\u00e9 suivants en ce qui concerne la protection des postes de travail et des objets de valeur."
        },
        "language": {
            "en": "eng",
            "fr": "fra"
        },
        "audience": {
            "en": "gcaudience",
            "fr": "gcaudience"
        },
        "creator": {
            "en": "Agriculture and Agri-Food Canada",
            "fr": "Agriculture et Agroalimentaire Canada"
        },
        "spatial": {
            "en": "gcregions",
            "fr": "gcregions"
        },
        "service": {
            "en": "AAFC_AgriSource",
            "fr": "AAC_AgriSource"
        },
        "accessRights": {
            "en": "3",
            "fr": "3"
        }
    },
    "body": {
        "en": "<br>\n<br>\n<p>Due to a recent increase in thefts in NHCAP, Departmental Security Services would like to remind all employees of the following security tips regarding securing workspaces and personal valuables:</p>\n<ul>\n<li>Leave your desk clean and tidy when you are out of the office. Secure attractive handheld assets such as smartphones, cameras, global positioning systems (GPS) and/or any other electronic devices;</li>\n<li>Keep your personal valuables such as cell phones, purses, wallets and jackets secured and out of sight where possible;</li>\n<li>Avoid storing private cash such as from coffee funds, social committees, etc., in wardrobes or overhead storage units but rather secure it in a tamper-resistant cash box or approved secure cabinet;</li>\n<li>Inform your colleagues if you are going to be on leave and ask them not to leave any secure documents or items of value on your desk while you are away;</li>\n<li>An \u201cOccupant Away\u201d tent card should be placed on your desk informing others of your absence;</li>\n<li>Report immediately to Departmental Security Services any suspicious individual(s) found in your office space; and</li>\n<li>Report all thefts regardless of their value to <a href=\"mailto:aafc.securityincident-incidentsecurite.aac@canada.ca\">aafc.securityincident-incidentsecurite.aac@canada.ca</a></li>\n</ul>\n<p><img src=\"https://intranet.agr.gc.ca/resources/prod/news/images/DepartmentalSecurity.png\" class=\"center-block\"></p>\n\n\t\t",
        "fr": "<br>\n<br>\n<p>En raison de la hausse r\u00e9cente du nombre de vols au CACPA, les Services de s\u00e9curit\u00e9 minist\u00e9riels souhaitent rappeler \u00e0 tous les employ\u00e9s les conseils de s\u00e9curit\u00e9 suivants en ce qui concerne la protection des postes de travail et des objets de valeur :</p>\n<ul>\n<li>Veillez toujours \u00e0 ce que votre bureau soit propre et rang\u00e9 lorsque vous vous absentez. Mettez en s\u00e9curit\u00e9 les articles portatifs convoit\u00e9s comme les t\u00e9l\u00e9phones intelligents, les BlackBerry, les appareils photo, les GPS et autres dispositifs \u00e9lectroniques.</li>\n<li>Gardez vos objets de valeur comme les t\u00e9l\u00e9phones cellulaires, les sacs \u00e0 main, les portefeuilles et les manteaux en lieu s\u00fbr et \u00e0 l\u2019abri des regards dans la mesure du possible.</li>\n<li>\u00c9vitez de garder de l\u2019agent comptant (comme l\u2019argent pour le caf\u00e9, le comit\u00e9 social, etc.) dans les penderies et les armoires suspendues. Utilisez plut\u00f4t une bo\u00eete \u00e0 fermeture inviolable ou une armoire verrouillable approuv\u00e9e.</li>\n<li>Avisez vos coll\u00e8gues de vos cong\u00e9s et demandez-leur de ne pas laisser de documents ou d\u2019articles prot\u00e9g\u00e9s sur votre bureau pendant votre absence.</li>\n<li>Placez une carte \u00ab Titulaire absent \u00bb sur votre bureau.</li>\n<li>Signalez sans tarder aux Services de s\u00e9curit\u00e9 minist\u00e9riels toute personne suspecte se trouvant dans vos locaux.</li>\n<li>Signalez tous les vols, peu importe la valeur des objets subtilis\u00e9s \u00e0 <a href=\"mailto:aafc.securityincident-incidentsecurite.aac@canada.ca\">aafc.securityincident-incidentsecurite.aac@canada.ca</a></li>\n</ul>\n<p><img src=\"https://intranet.agr.gc.ca/resources/prod/news/images/DepartmentalSecurity.png\" class=\"center-block\"></p>\n\t\t"
    },
    "breadcrumb": {
        "en": "NCR - Securing Your Workspace and Personal Valuables",
        "fr": "RCN - Protection de votre poste de travail et de vos objets de valeur"
    },
    "news": {
        "date_posted": {
            "en": "2018-10-10",
            "fr": "2018-10-10"
        },
        "to": {
            "en": "NCR only",
            "fr": "RCN seulement"
        },
        "by": {
            "en": "Departmental Security Services, Corporate Management Branch",
            "fr": "Services de s\u00e9curit\u00e9 minist\u00e9riels, Direction g\u00e9n\u00e9rale de la gestion int\u00e9gr\u00e9e"
        }
    }
}