{
    "dcr_id": "1539092498953",
    "lang": "en",
    "title": {
        "en": "NCR - All-Star Basketball - October 12",
        "fr": "RCN - Match des \u00e9toiles de basketball - 12 octobre"
    },
    "modified": "2018-10-11 00:00:00.0",
    "issued": "2018-10-11 00:00:00.0",
    "type_name": "intra-intra/news-nouv",
    "node_id": "1279030006975",
    "layout_name": null,
    "dc_date_created": "2018-10-09",
    "breadcrumb_label": "",
    "meta": {
        "issued": {
            "en": "2018-10-11",
            "fr": "2018-10-11"
        },
        "modified": {
            "en": "2018-10-11",
            "fr": "2018-10-11"
        },
        "format": {
            "en": "gcformat",
            "fr": "gcformat"
        },
        "title": {
            "en": "NCR - All-Star Basketball - October 12",
            "fr": "RCN - Match des \u00e9toiles de basketball - 12 octobre"
        },
        "subject": {
            "en": "communications",
            "fr": "communications"
        },
        "description": {
            "en": "You won't want to miss All-Star basketball action with Team AAFC versus Team CFIA.",
            "fr": "Vous ne voulez surtout pas manquer le match des \u00e9toiles de basketball opposant l'\u00e9quipe AAC \u00e0 celle de l'ACIA."
        },
        "language": {
            "en": "eng",
            "fr": "fra"
        },
        "audience": {
            "en": "gcaudience",
            "fr": "gcaudience"
        },
        "creator": {
            "en": "Agriculture and Agri-Food Canada",
            "fr": "Agriculture et Agroalimentaire Canada"
        },
        "spatial": {
            "en": "gcregions",
            "fr": "gcregions"
        },
        "service": {
            "en": "AAFC_AgriSource",
            "fr": "AAC_AgriSource"
        },
        "accessRights": {
            "en": "3",
            "fr": "3"
        }
    },
    "body": {
        "en": "<br>\n<br>\n<p>You won\u2019t want to miss All-Star basketball action with Team AAFC versus Team CFIA. Come out and cheer for your talented colleagues.</p>\n<h2><strong>Event details</strong></h2>\n<p><strong>Time:</strong> Friday, October 12 | 11:40 a.m. to 1:20 p.m.<br><strong>Location:</strong> NHCAP Gymnasium <br><strong>Cost:</strong> Suggested donation of $5 (lunch, beverages, music, prizes, and entertainment included!)<br><strong>Spectator tickets:</strong> Reserve tickets in advance from Bruce Radburn at 613-773-2572 or at <a href=\"mailto:bruce.radburn@canada.ca\">bruce.radburn@canada.ca</a>. </p>\n<p>Come out early to get your preferred seats! Seating is allocated on a first-come, first-serve basis. </p>\n<p>\n<img src=\"https://intranet.agr.gc.ca/resources/prod/news/images/GCWCCAll-StarSports2.png\" class=\"center-block\" alt=\"\"><br><img src=\"https://intranet.agr.gc.ca/resources/prod/news/images/GCWCC2018-EN.png\" class=\"center-block\"></p>\n\n\t\t",
        "fr": "<br>\n<br>\n<p>Vous ne voulez\u00a0surtout pas manquer le match des \u00e9toiles de basketball opposant l\u2019\u00e9quipe d'AAC \u00e0 celle de l\u2019ACIA. Venez encourager vos coll\u00e8gues talentueux. </p>\n<h2>\n<b>Renseignements sur l\u2019\u00e9v\u00e9nement</b></h2>\n<p>\n<b>Heure\u00a0:</b> Vendredi 12\u00a0octobre | 11\u00a0h\u00a040 \u00e0 13\u00a0h\u00a020<br><b>Lieu\u00a0:</b> Gymnase du CACPA<br><b>Co\u00fbt\u00a0:</b> Don sugg\u00e9r\u00e9 de 5\u00a0$ (d\u00eener, boissons, musique, prix et divertissements inclus)<br><strong>Billets pour spectateurs\u00a0: </strong>R\u00e9servez vos billets en communiquant avec Bruce\u00a0Radburn au 613\u2011773\u20112572 ou \u00e0\u00a0<a href=\"mailto:bruce.radburn@canada.ca\">bruce.radburn@canada.ca</a>.</p>\n<p>\nArrivez t\u00f4t pour avoir les meilleures places. Celles-ci seront attribu\u00e9es selon le principe du premier arriv\u00e9, premier servi.</p>\n<p><img src=\"https://intranet.agr.gc.ca/resources/prod/news/images/GCWCCAll-StarSports2.png\" class=\"center-block\"><br><img src=\"https://intranet.agr.gc.ca/resources/prod/news/images/GCWCC2018-FR.png\" class=\"center-block\"></p>\n\t\t"
    },
    "breadcrumb": {
        "en": "NCR - All-Star Basketball - October 12",
        "fr": "RCN - Match des \u00e9toiles de basketball - 12 octobre"
    },
    "news": {
        "date_posted": {
            "en": "2018-10-11",
            "fr": "2018-10-11"
        },
        "to": {
            "en": "NCR only",
            "fr": "RCN seulement"
        },
        "by": {
            "en": "GCWCC 2018 All-Star Event Organizing Committee",
            "fr": "Comit\u00e9 organisateur des matchs des \u00e9toiles de la CCMTGC de 2018"
        }
    }
}