{
    "dcr_id": "1539706985013",
    "lang": "en",
    "title": {
        "en": "Biotechnology in Food Safety, Tree Fruit Crops, Pest Management and More: October Additions to the Canadian Agriculture Library Collection",
        "fr": "Biotechnologie et s\u00e9curit\u00e9 alimentaire, culture des fruits de verger, lutte contre les organismes nuisibles et plus encore : Nouveaut\u00e9s d'octobre dans la collection de la Biblioth\u00e8que canadienne de l'agriculture "
    },
    "modified": "2018-10-18 00:00:00.0",
    "issued": "2018-10-18 00:00:00.0",
    "type_name": "intra-intra/news-nouv",
    "node_id": "1279030006975",
    "layout_name": null,
    "dc_date_created": "2018-10-17",
    "breadcrumb_label": "Biotechnology in Food Safety, Tree Fruit Crops, Pest Management and More: October Additions to the..",
    "meta": {
        "issued": {
            "en": "2018-10-18",
            "fr": "2018-10-18"
        },
        "modified": {
            "en": "2018-10-18",
            "fr": "2018-10-18"
        },
        "format": {
            "en": "gcformat",
            "fr": "gcformat"
        },
        "title": {
            "en": "Biotechnology in Food Safety, Tree Fruit Crops, Pest Management and More: October Additions to the Canadian Agriculture Library Collection",
            "fr": "Biotechnologie et s\u00e9curit\u00e9 alimentaire, culture des fruits de verger, lutte contre les organismes nuisibles et plus encore : Nouveaut\u00e9s d'octobre dans la collection de la Biblioth\u00e8que canadienne de l'agriculture "
        },
        "subject": {
            "en": "communications",
            "fr": "communications"
        },
        "description": {
            "en": "It is harvest time, the leaves are changing colour and the Canadian Agriculture Library has a cornucopia of new titles just for you.",
            "fr": "C'est le temps des r\u00e9coltes, les feuilles changent de couleur et la Biblioth\u00e8que canadienne de l'agriculture a une abondance de nouveaux titres juste pour vous."
        },
        "language": {
            "en": "eng",
            "fr": "fra"
        },
        "audience": {
            "en": "gcaudience",
            "fr": "gcaudience"
        },
        "creator": {
            "en": "Agriculture and Agri-Food Canada",
            "fr": "Agriculture et Agroalimentaire Canada"
        },
        "spatial": {
            "en": "gcregions",
            "fr": "gcregions"
        },
        "service": {
            "en": "AAFC_AgriSource",
            "fr": "AAC_AgriSource"
        },
        "accessRights": {
            "en": "3",
            "fr": "3"
        }
    },
    "body": {
        "en": "<br>\n<br>\n<p>It is harvest time, the leaves are changing colour and the Canadian Agriculture Library (<abbr title=\"Canadian Agriculture Library\">CAL)</abbr> has a cornucopia of new titles just for you. Check out the <strong><a href=\"http://collab.agr.gc.ca/co/lis-sib/_layouts/15/DocIdRedir.aspx?ID=AGR-7082968\">October\u00a0additions to the collection</a></strong>.</p>\n<p>You can access electronic content from your desktop by clicking on links found in the list, or submit a request to borrow physical items.</p>\n<p>For more information, contact <abbr title=\"Canadian Agriculture Library\">CAL</abbr>\u00a0(<a href=\"mailto:cal-bca-ref@agr.gc.ca\">cal-bca-ref@agr.gc.ca</a>).</p>\n<p><img src=\"https://intranet.agr.gc.ca/resources/prod/news/images/CALbanner-EN.png\" class=\"center-block\"></p>\n\n\t\t",
        "fr": "<br>\n<br>\n<p>C\u2019est le temps des r\u00e9coltes, les feuilles changent de couleur et la Biblioth\u00e8que canadienne de l'agriculture (<abbr title=\"Biblioth\u00e8que canadienne de l'agriculture \">BCA</abbr>) a une abondance de nouveaux titres juste pour vous. Consultez <strong><a href=\"https://collab.agr.gc.ca/co/kis-sis/_layouts/15/DocIdRedir.aspx?ID=AGR-7099683\">les ajouts d'octobre \u00e0 la collection</a></strong>.</p>\n<p>Vous pouvez consulter le contenu \u00e9lectronique \u00e0 partir de votre ordinateur en cliquant sur le lien du document souhait\u00e9 ou faire une demande d'emprunt de la version imprim\u00e9e.</p>\n<p>Pour de plus amples renseignements, communiquez avec la <abbr title=\"Biblioth\u00e8que canadienne de l'agriculture \">BCA</abbr> (<a href=\"mailto:cal-bca-ref@agr.gc.ca\">cal-bca-ref@agr.gc.ca</a>).</p>\n<p><img src=\"https://intranet.agr.gc.ca/resources/prod/news/images/CALbanniere-FR.png\" class=\"center-block\"></p>\n\t\t"
    },
    "breadcrumb": {
        "en": "Biotechnology in Food Safety, Tree Fruit Crops, Pest Management and More: October Additions to the..",
        "fr": "Biotechnologie et s\u00e9curit\u00e9 alimentaire, culture des fruits de verger, lutte contre les organismes..."
    },
    "news": {
        "date_posted": {
            "en": "2018-10-18",
            "fr": "2018-10-16"
        },
        "to": {
            "en": "All staff",
            "fr": "Tous les employ\u00e9s"
        },
        "by": {
            "en": "Canadian Agriculture Library",
            "fr": "Biblioth\u00e8que canadienne de l'agriculture"
        }
    }
}