{
    "dcr_id": "1539181144695",
    "lang": "en",
    "title": {
        "en": "PSAC Union Dues System",
        "fr": "Syst\u00e8me de cotisations syndicales de l'AFPC"
    },
    "modified": "2018-10-11 00:00:00.0",
    "issued": "2018-10-11 00:00:00.0",
    "type_name": "intra-intra/news-nouv",
    "node_id": "1279030006975",
    "layout_name": null,
    "dc_date_created": "2018-10-10",
    "breadcrumb_label": "",
    "meta": {
        "issued": {
            "en": "2018-10-11",
            "fr": "2018-10-11"
        },
        "modified": {
            "en": "2018-10-11",
            "fr": "2018-10-11"
        },
        "format": {
            "en": "gcformat",
            "fr": "gcformat"
        },
        "title": {
            "en": "PSAC Union Dues System",
            "fr": "Syst\u00e8me de cotisations syndicales de l'AFPC"
        },
        "subject": {
            "en": "communications",
            "fr": "communications"
        },
        "description": {
            "en": "As part of the Government's efforts to stabilize Phoenix, the Treasury Board Secretariat and Public Services and Procurement Canada have been working closely with the Public Service Alliance of Canada, and other unions to put systems in place to ensure union dues processing is accurate and timely.",
            "fr": "Dans le cadre des efforts d\u00e9ploy\u00e9s par le gouvernement pour stabiliser Ph\u00e9nix, le Secr\u00e9tariat du Conseil du Tr\u00e9sor du Canada et Services publics et Approvisionnement Canada ont collabor\u00e9 \u00e9troitement avec l'Alliance de la Fonction publique du Canada et d'autres syndicats pour mettre en place des syst\u00e8mes qui nous permettront de nous assurer que les cotisations syndicales sont trait\u00e9es de fa\u00e7on exacte et en temps opportun."
        },
        "language": {
            "en": "eng",
            "fr": "fra"
        },
        "audience": {
            "en": "gcaudience",
            "fr": "gcaudience"
        },
        "creator": {
            "en": "Agriculture and Agri-Food Canada",
            "fr": "Agriculture et Agroalimentaire Canada"
        },
        "spatial": {
            "en": "gcregions",
            "fr": "gcregions"
        },
        "service": {
            "en": "AAFC_AgriSource",
            "fr": "AAC_AgriSource"
        },
        "accessRights": {
            "en": "3",
            "fr": "3"
        }
    },
    "body": {
        "en": "<br>\n<br>\n<p>As part of the Government\u2019s efforts to stabilize Phoenix, the Treasury Board Secretariat\u00a0and Public Services and Procurement Canada have been working closely with the Public Service Alliance of Canada (<abbr title=\"Public Service Alliance of Canada\">PSAC</abbr>), and other unions to put systems in place to ensure union dues processing is accurate and timely.</p>\n<p>Beginning on the <strong>November 14, 2018 pay</strong>, most employees represented by <abbr title=\"Public Service Alliance of Canada\">PSAC</abbr> will see a different amount for their union dues deductions. <abbr title=\"Public Service Alliance of Canada\">PSAC</abbr> will be sending letters to employees in the coming weeks that will provide more information on their monthly union deductions, or on amounts they owe or that they have overpaid. Employees can also <a rel=\"external\" href=\"http://psacunion.ca/membership-dues-inquiries-form?_ga=2.166046774.902908760.1539088678-826530595.1528825560\">contact <abbr title=\"Public Service Alliance of Canada\">PSAC</abbr></a>.</p>\n<h2><strong>Recovery and refunds of union dues</strong></h2>\n<p>In cases where an employee may owe additional dues, amounts will be recovered in small payments over several pays at a rate that does not exceed one month\u2019s dues at a time. There will also be cases where an employee has overpaid <abbr title=\"Public Service Alliance of Canada\">PSAC</abbr>. In these instances, the employee can expect to see those amounts refunded in their pay.</p>\n<p><abbr title=\"Public Service Alliance of Canada\">PSAC</abbr> will grant longer repayment schedules for employees who are facing extreme financial difficulties on a case-by-case basis. If this is the case, employees should contact <abbr title=\"Public Service Alliance of Canada\">PSAC</abbr> to discuss their situation.</p>\n<h2><strong>Learn more</strong></h2>\n<p><abbr title=\"Public Service Alliance of Canada\">PSAC</abbr> has posted <a rel=\"external\" href=\"http://psacunion.ca/dues/FAQ\">frequently asked questions</a> on their website to help answer employee questions.</p>\n<p>As automation improvements are made for dues collection for all other unions, employees will be provided with more information.</p>\n\n\t\t",
        "fr": "<br>\n<br>\n<p>Dans le cadre des efforts d\u00e9ploy\u00e9s par le gouvernement pour stabiliser Ph\u00e9nix, le Secr\u00e9tariat du Conseil du Tr\u00e9sor du Canada\u00a0et Services publics et Approvisionnement Canada ont collabor\u00e9 \u00e9troitement avec l\u2019Alliance de la Fonction publique du Canada (<abbr title=\"Alliance de la Fonction publique du Canada \">AFPC</abbr>) et d\u2019autres syndicats pour mettre en place des syst\u00e8mes qui nous permettront de nous assurer que les cotisations syndicales sont trait\u00e9es de fa\u00e7on exacte et en temps opportun.</p>\n<p>\u00c0 compter de la paye du <strong>14 novembre 2018</strong>, la plupart des employ\u00e9s repr\u00e9sent\u00e9s par l\u2019AFPC verront un montant diff\u00e9rent pour la retenue de leurs cotisations syndicales. L\u2019AFPC enverra des lettres aux employ\u00e9s au cours des prochaines semaines pour leur fournir plus de renseignements sur leurs retenues mensuelles de cotisations syndicales, ou sur les montants qui leur sont dus ou qu\u2019ils ont pay\u00e9s en trop.\u00a0Les employ\u00e9s peuvent \u00e9galement <a rel=\"external\" href=\"http://syndicatafpc.ca/renseignements-sur-cotisations?_ga=2.166046774.902908760.1539088678-826530595.1528825560\">communiquer avec l\u2019<abbr title=\"Alliance de la Fonction publique du Canada \">AFPC</abbr></a>.</p>\n<h2>Recouvrement et remboursement des cotisations syndicales</h2>\n<p>Dans les cas o\u00f9 un employ\u00e9 doit payer des cotisations suppl\u00e9mentaires, les montants seront recouvr\u00e9s par petites sommes qui s\u2019\u00e9chelonneront sur plusieurs p\u00e9riodes de paye \u00e0 un taux ne d\u00e9passant pas un mois de cotisations \u00e0 la fois. Dans les cas o\u00f9 un employ\u00e9 a pay\u00e9 des cotisations en trop \u00e0 l\u2019<abbr title=\"Alliance de la Fonction publique du Canada \">AFPC</abbr>, l\u2019employ\u00e9 peut s\u2019attendre \u00e0 voir ces montants rembours\u00e9s sur sa paye.</p>\n<p>L\u2019<abbr title=\"Alliance de la Fonction publique du Canada \">AFPC</abbr> accordera des d\u00e9lais de remboursement plus longs pour les employ\u00e9s confront\u00e9s \u00e0 des difficult\u00e9s financi\u00e8res extr\u00eames, au cas par cas. Les employ\u00e9s vis\u00e9s doivent communiquer avec l\u2019<abbr title=\"Alliance de la Fonction publique du Canada \">AFPC</abbr> pour discuter de leur situation.</p>\n<h2>Pour en savoir plus</h2>\n<p>L\u2019<abbr title=\"Alliance de la Fonction publique du Canada \">AFPC</abbr> a publi\u00e9 des <a rel=\"external\" href=\"http://syndicatafpc.ca/cotisations/FAQ?_ga=2.120365952.902908760.1539088678-826530595.1528825560\">questions fr\u00e9quemment pos\u00e9es</a> sur son site Web afin de r\u00e9pondre aux questions des employ\u00e9s.</p>\n<p>Nous fournirons d\u2019autres pr\u00e9cisions aux employ\u00e9s \u00e0 mesure que nous apporterons des am\u00e9liorations \u00e0 l\u2019automatisation de la collecte des cotisations pour tous les autres syndicats.</p>\n\t\t"
    },
    "breadcrumb": {
        "en": "PSAC Union Dues System",
        "fr": "Syst\u00e8me de cotisations syndicales de l'AFPC"
    },
    "news": {
        "date_posted": {
            "en": "2018-10-11",
            "fr": "2018-10-11"
        },
        "to": {
            "en": "All staff",
            "fr": "Tous les employ\u00e9s"
        },
        "by": {
            "en": "Christine Walker, Assistant Deputy Minister, Corporate Management",
            "fr": "Christine Walker, sous-ministre adjointe, Gestion int\u00e9gr\u00e9e"
        }
    }
}