{
    "dcr_id": "1540918453902",
    "lang": "en",
    "title": {
        "en": "Trans-Pacific Trade Deal Bill Ratified",
        "fr": "Ratification du projet de loi sur l'Accord de Partenariat transpacifique "
    },
    "modified": "2018-11-01 00:00:00.0",
    "issued": "2018-11-01 00:00:00.0",
    "type_name": "intra-intra/news-nouv",
    "node_id": "1279030006975",
    "layout_name": null,
    "dc_date_created": "2018-10-30",
    "breadcrumb_label": "",
    "meta": {
        "issued": {
            "en": "2018-11-01",
            "fr": "2018-11-01"
        },
        "modified": {
            "en": "2018-11-01",
            "fr": "2018-11-01"
        },
        "format": {
            "en": "gcformat",
            "fr": "gcformat"
        },
        "title": {
            "en": "Trans-Pacific Trade Deal Bill Ratified",
            "fr": "Ratification du projet de loi sur l'Accord de Partenariat transpacifique "
        },
        "subject": {
            "en": "communications",
            "fr": "communications"
        },
        "description": {
            "en": "On October 29, 2018, Canada announced that it had completed the necessary procedures to ratify and implement the new Comprehensive and Progressive Agreement for Trans-Pacific Partnership.",
            "fr": "Le 29 octobre 2018, le Canada a annonc\u00e9 qu'il avait suivi les proc\u00e9dures n\u00e9cessaires \u00e0 la ratification et \u00e0 la mise en oeuvre de l'Accord de Partenariat transpacifique global et progressiste."
        },
        "language": {
            "en": "eng",
            "fr": "fra"
        },
        "audience": {
            "en": "gcaudience",
            "fr": "gcaudience"
        },
        "creator": {
            "en": "Agriculture and Agri-Food Canada",
            "fr": "Agriculture et Agroalimentaire Canada"
        },
        "spatial": {
            "en": "gcregions",
            "fr": "gcregions"
        },
        "service": {
            "en": "AAFC_AgriSource",
            "fr": "AAC_AgriSource"
        },
        "accessRights": {
            "en": "3",
            "fr": "3"
        }
    },
    "body": {
        "en": "<br>\n<br>\n<p>On October 29, 2018, Canada announced that it had completed the necessary procedures to ratify and implement the new Comprehensive and Progressive Agreement for Trans-Pacific Partnership (<abbr title=\"Comprehensive and Progressive Agreement for Trans-Pacific Partnership\">CPTPP</abbr>). The <abbr title=\"Comprehensive and Progressive Agreement for Trans-Pacific Partnership\">CPTPP</abbr> is a trading bloc of 11 countries with almost 500 million consumers and a combined economy worth $13.5 trillion.</p>\n<p>The <abbr title=\"Comprehensive and Progressive Agreement for Trans-Pacific Partnership\">CPTPP</abbr> will enter into force 60 days after six countries have ratified the agreement. Canada officially became country number five, meaning it will be among the first group of countries to bring the agreement into force, ensuring it retains \u201cfirst-mover advantage\u201d in the many thriving markets of Asia-Pacific.</p>\n<p>In terms of agriculture, the greatest gains will be in Japan and Vietnam, where Canada currently faces high tariffs and does not have preferential market access through free trade agreements. The <abbr title=\"Comprehensive and Progressive Agreement for Trans-Pacific Partnership\">CPTPP</abbr> will provide opportunities for a wide range of Canadian products \u2013 including meat, grains, pulses, maple syrup, wines and spirits, seafood and agri-food \u2013 throughout the region.</p>\n<p>The <abbr title=\"Comprehensive and Progressive Agreement for Trans-Pacific Partnership\">CPTPP</abbr> also includes modern trade rules in areas such as biotechnology. Notably, the Agreement emphasizes the importance of transparency and science-based approval processes for biotechnology products to minimize adverse impacts to trade.</p>\n<p>Once the <abbr title=\"Comprehensive and Progressive Agreement for Trans-Pacific Partnership\">CPTPP</abbr> is implemented, 99% of Canada\u2019s current exports to <abbr title=\"Comprehensive and Progressive Agreement for Trans-Pacific Partnership\">CPTPP</abbr> markets will enter tariff free. Overall, 86% of <abbr title=\"Comprehensive and Progressive Agreement for Trans-Pacific Partnership\">CPTPP</abbr> countries\u2019 tariff lines will become tariff free.</p>\n<p>With the <abbr title=\"Comprehensive and Progressive Agreement for Trans-Pacific Partnership\">CPTPP</abbr>, Canada will be the only G7 country with trade agreements with all other members of the G7.</p>\n<p>The milestone achievement affirms Canada\u2019s strong commitment to Canadian companies, industries and the millions of Canadians in agriculture and outside of it. Increased market access will level the playing field to allow them to compete and succeed globally.</p>\n<p>For more information, please visit the <a rel=\"external\" href=\"https://www.international.gc.ca/trade-commerce/trade-agreements-accords-commerciaux/agr-acc/cptpp-ptpgp/index.aspx?lang=eng\"><abbr title=\"Comprehensive and Progressive Agreement for Trans-Pacific Partnership\">CPTPP</abbr> web page</a>.</p>\n\n\t\t",
        "fr": "<br>\n<br>\n<p>Le 29 octobre 2018, le Canada a annonc\u00e9 qu\u2019il avait suivi les proc\u00e9dures n\u00e9cessaires \u00e0 la ratification et \u00e0 la mise en \u0153uvre de l\u2019Accord de Partenariat transpacifique global et progressiste (<abbr title=\"Partenariat transpacifique global et progressiste\">PTPGP</abbr>). Cet accord repr\u00e9sente une zone d\u2019\u00e9changes commerciaux de 11 pays comptant pr\u00e8s de 500 millions de consommateurs et ayant une \u00e9conomie combin\u00e9e de 13 500 milliards de dollars.</p>\n<p>Le <abbr title=\"Partenariat transpacifique global et progressiste\">PTPGP</abbr> entrera en vigueur 60 jours apr\u00e8s sa ratification par six pays. Le Canada est officiellement devenu le cinqui\u00e8me pays, ce qui signifie qu\u2019il fera partie du premier groupe de pays \u00e0 mettre l\u2019accord en \u0153uvre, ce qui lui permettra de conserver l\u2019avantage du premier venu dans de nombreux march\u00e9s florissants de la r\u00e9gion de l\u2019Asie-Pacifique.</p>\n<p>Sur le plan de l\u2019agriculture, les gains les plus importants seront r\u00e9alis\u00e9s au Japon et au Vietnam, o\u00f9 le Canada fait actuellement face \u00e0 des droits de douane \u00e9lev\u00e9s et ne jouit pas d\u2019un acc\u00e8s pr\u00e9f\u00e9rentiel dans le cadre d\u2019accords de libre-\u00e9change. Le <abbr title=\"Partenariat transpacifique global et progressiste\">PTPGP</abbr> offrira des d\u00e9bouch\u00e9s pour un large \u00e9ventail de produits canadiens,\u00a0notamment la viande, les grains, les l\u00e9gumineuses, le sirop d\u2019\u00e9rable, les vins et spiritueux, les fruits de mer et les produits agroalimentaires, dans l\u2019ensemble de la r\u00e9gion.</p>\n<p>Le <abbr title=\"Partenariat transpacifique global et progressiste\">PTPGP</abbr> comprend \u00e9galement des r\u00e8gles commerciales modernes pour des domaines tels que la biotechnologie. Plus particuli\u00e8rement, l\u2019accord met l\u2019accent sur l\u2019importance de la transparence et des processus d\u2019approbation fond\u00e9s sur la science pour les produits de la biotechnologie afin de r\u00e9duire au minimum les r\u00e9percussions n\u00e9fastes sur le commerce. </p>\n<p>Une fois le <abbr title=\"Partenariat transpacifique global et progressiste\">PTPGP</abbr> mis en \u0153uvre, 99 % des exportations actuelles du Canada vers les march\u00e9s du <abbr title=\"Partenariat transpacifique global et progressiste\">PTPGP</abbr> entreront en franchise de droits. Dans l\u2019ensemble, 86 % des lignes tarifaires des pays du <abbr title=\"Partenariat transpacifique global et progressiste\">PTPGP</abbr> seront en franchise de droits. </p>\n<p>Gr\u00e2ce au <abbr title=\"Partenariat transpacifique global et progressiste\">PTPGP</abbr>, le Canada sera le seul pays du G7 \u00e0 avoir conclu un accord commercial avec tous les autres membres du G7.</p>\n<p>Cet \u00e9v\u00e9nement marquant affirme l\u2019engagement solide du Canada envers les entreprises et les industries canadiennes, ainsi qu\u2019envers les millions de Canadiens qui \u0153uvrent dans le secteur de l\u2019agriculture et les autres secteurs. Un acc\u00e8s accru aux march\u00e9s uniformisera les r\u00e8gles du jeu, ce qui leur permettra de faire face \u00e0 la concurrence et de r\u00e9ussir \u00e0 l\u2019\u00e9chelle internationale. </p>\n<p>Pour de plus amples renseignements, veuillez\u00a0consulter la <a rel=\"external\" href=\"https://www.international.gc.ca/trade-commerce/trade-agreements-accords-commerciaux/agr-acc/cptpp-ptpgp/index.aspx?lang=fra%20\">page Web du <abbr title=\"Partenariat transpacifique global et progressiste\">PTPGP</abbr></a>. </p>\n\t\t"
    },
    "breadcrumb": {
        "en": "Trans-Pacific Trade Deal Bill Ratified",
        "fr": "Ratification du projet de loi sur l'Accord de Partenariat transpacifique"
    },
    "news": {
        "date_posted": {
            "en": "2018-11-01",
            "fr": "2018-11-01"
        },
        "to": {
            "en": "All staff",
            "fr": "Tous les employ\u00e9s"
        },
        "by": {
            "en": "Trade Agreements and Negotiations, Market and Industry Services Branch",
            "fr": "Direction des accords commerciaux et des n\u00e9gociations, Direction g\u00e9n\u00e9rale des services \u00e0 l'industrie et aux march\u00e9s"
        }
    }
}