{
    "dcr_id": "1540925819764",
    "lang": "en",
    "title": {
        "en": "Reminder - Indigenous Learning Series: Cultural Protocols - A Matter of Respect - November 13",
        "fr": "Rappel - S\u00e9rie d'apprentissage sur les questions autochtones : protocoles culturels - une question de respect - 13 novembre"
    },
    "modified": "2018-11-07 00:00:00.0",
    "issued": "2018-11-01 00:00:00.0",
    "type_name": "intra-intra/news-nouv",
    "node_id": "1279030006975",
    "layout_name": null,
    "dc_date_created": "2018-10-30",
    "breadcrumb_label": "",
    "meta": {
        "issued": {
            "en": "2018-11-01",
            "fr": "2018-11-01"
        },
        "modified": {
            "en": "2018-11-07",
            "fr": "2018-11-07"
        },
        "format": {
            "en": "gcformat",
            "fr": "gcformat"
        },
        "title": {
            "en": "Reminder - Indigenous Learning Series: Cultural Protocols - A Matter of Respect - November 13",
            "fr": "Rappel - S\u00e9rie d'apprentissage sur les questions autochtones : protocoles culturels - une question de respect - 13 novembre"
        },
        "subject": {
            "en": "communications",
            "fr": "communications"
        },
        "description": {
            "en": "A solid understanding and acknowledgment of cultural protocols is vital to establishing meaningful and lasting working relationships with Indigenous communities and groups - relationships based on mutual respect and trust as a matter of practice.",
            "fr": "Une bonne compr\u00e9hension et une reconnaissance des protocoles culturels sont cruciales pour \u00e9tablir des relations professionnelles s\u00e9rieuses et durables avec les communaut\u00e9s et les groupes autochtones; des relations fond\u00e9es sur le respect mutuel et la confiance."
        },
        "language": {
            "en": "eng",
            "fr": "fra"
        },
        "audience": {
            "en": "gcaudience",
            "fr": "gcaudience"
        },
        "creator": {
            "en": "Agriculture and Agri-Food Canada",
            "fr": "Agriculture et Agroalimentaire Canada"
        },
        "spatial": {
            "en": "gcregions",
            "fr": "gcregions"
        },
        "service": {
            "en": "AAFC_AgriSource",
            "fr": "AAC_AgriSource"
        },
        "accessRights": {
            "en": "3",
            "fr": "3"
        }
    },
    "body": {
        "en": "<br>\n<br>\n<p>A solid understanding and acknowledgment of cultural protocols is vital to establishing meaningful and lasting working relationships with Indigenous communities and groups\u2014relationships based on mutual respect and trust as a matter of practice.</p>\n<p>As a public servant, you may be asked to work with Indigenous communities, groups or associations for a wide variety of reasons, including, but not limited to the following:</p>\n<ul>\n<li>fulfilling the <a rel=\"external\" href=\"http://www.aadnc-aandc.gc.ca/eng/1100100014664/1100100014675\">Duty to Consult</a></li>\n<li>soliciting advice and guidance</li>\n<li>learning from Elders and other members of the community</li>\n<li>discussing a project</li>\n<li>supporting the delivery of services</li>\n</ul>\n<p>Join us to learn about these important topics and bring any colleagues who would benefit from this conversation. Registration is now open.</p>\n<h2><strong>Event information</strong></h2>\n<p><strong>Date and Time</strong>: November 13 | 1:30 to 3:00 p.m. (ET)<br>\n<strong>Location: </strong>Collaboration Lounge, Acad\u00e9mie De-La-Salle, 373 Sussex Drive (Guigues Avenue entrance), Ottawa, Ontario; Available across Canada by webcast<br>\n<strong>Language</strong>: Bilingual with interpretation in both official languages<br>\n<strong>Registration: </strong><a rel=\"external\" href=\"https://papp.csps-efpc.gc.ca/Saba/Web/Main/goto/GuestOfferingDetails?offeringId=class000000000120923&amp;locale=en_US\">Ottawa</a> or <a rel=\"external\" href=\"https://papp.csps-efpc.gc.ca/Saba/Web/Main/goto/GuestOfferingDetails?offeringId=class000000000120925&amp;locale=en_US\">Webcast</a> | The registration deadline is <strong>November 13</strong>.</p>\n<p>If attending in person or by webcast, please register your attendance with the Canada School of Public Service (<abbr title=\"Canada School of Public Service\">CSPS</abbr>) with your MyAccount login name and password. If you do not have an account, please contact the <a rel=\"external\" href=\"https://www.csps-efpc.gc.ca/Contact_Us/index-eng.aspx#gi\">Client Contact Centre</a>.</p>\n<p>For more information, please visit the <a rel=\"external\" href=\"https://www.csps-efpc.gc.ca/events/ils/index-eng.aspx\"><abbr title=\"Canada School of Public Service\">CSPS</abbr> website</a>.</p>\n<p>\u00a0</p>\n<p><img src=\"https://intranet.agr.gc.ca/resources/prod/news/images/IndigenousLearningSeries-EN.png\" class=\"center-block\"></p>\n\n\t\t",
        "fr": "<br>\n<br>\n<p>Une bonne compr\u00e9hension et une reconnaissance des protocoles culturels sont cruciales pour \u00e9tablir des relations professionnelles s\u00e9rieuses et durables avec les communaut\u00e9s et les groupes autochtones; des relations fond\u00e9es sur le respect mutuel et la confiance.</p>\n<p>\u00c0 titre de fonctionnaire, vous pourriez devoir travailler aupr\u00e8s de communaut\u00e9s, de groupes ou d'associations autochtones pour diverses raisons, notamment\u00a0:</p>\n<ul>\n<li>respecter l'<a rel=\"external\" href=\"http://www.aadnc-aandc.gc.ca/fra/1100100014664/1100100014675\">obligation de consulter</a>;</li>\n<li>demander des conseils;</li>\n<li>apprendre des A\u00een\u00e9s et des autres membres de la communaut\u00e9;</li>\n<li>discuter d'un projet;</li>\n<li>soutenir la prestation de service.</li>\n</ul>\n<p>Soyez des n\u00f4tres pour en apprendre davantage sur ces sujets importants et invitez tout coll\u00e8gue qui pourrait b\u00e9n\u00e9ficier de cette conversation. Les inscriptions sont en cours.</p>\n<h2><strong>Renseignements sur l'\u00e9v\u00e9nement</strong></h2>\n<p><strong>Date et heure : </strong>13 novembre | 13 h 30 \u00e0 15 h (HE)<br>\n<strong>Lieu: </strong>Salon de la collaboration, acad\u00e9mie De-La-Salle, 373, promenade Sussex (entr\u00e9e de l'avenue Guigues), Ottawa (Ontario) ; offert partout au Canada par webdiffusion<br>\n<strong>Langue : </strong>Bilingue, avec interpr\u00e9tation\u00a0dans les deux\u00a0langues officielles<br>\n<strong>Inscription : </strong><a rel=\"external\" href=\"https://papp.csps-efpc.gc.ca/Saba/Web/Main/goto/GuestOfferingDetails?offeringId=class000000000120923&amp;locale=fr_CA\">Ottawa</a> ou <a rel=\"external\" href=\"https://papp.csps-efpc.gc.ca/Saba/Web/Main/goto/GuestOfferingDetails?offeringId=class000000000120925&amp;locale=fr_CA\">Webdiffusion</a> | La date limite d'inscription est le <strong>13 novembre</strong>.</p>\n<p>Pour assister \u00e0 la discussion en personne ou par webdiffusion, vous devez vous inscrire aupr\u00e8s de l\u2019\u00c9cole de la fonction publique du Canada (<abbr title=\"\u00c9cole de la fonction publique du Canada\">EFPC</abbr>) au moyen de votre nom d\u2019utilisateur et de votre mot de passe MonDossier. Si vous n\u2019avez pas de compte, communiquez avec le <a rel=\"external\" href=\"https://www.csps-efpc.gc.ca/Contact_Us/index-fra.aspx#gi\">Centre de contact avec la client\u00e8le</a>.</p>\n<p>Pour de plus amples renseignements, veuillez consulter le <a rel=\"external\" href=\"https://www.csps-efpc.gc.ca/events/ils/index-fra.aspx\">site Web de l'<abbr title=\"\u00c9cole de la fonction publique du Canada\">EFPC</abbr></a>.</p>\n<p>\u00a0</p>\n<p><img src=\"https://intranet.agr.gc.ca/resources/prod/news/images/IndigenousLearningSeries-FR.png\" class=\"center-block\">\u00a0</p>\n\t\t"
    },
    "breadcrumb": {
        "en": "Reminder - Indigenous Learning Series: Cultural Protocols - A Matter of Respect - November 13",
        "fr": "Rappel - S\u00e9rie d'apprentissage sur les questions autochtones : protocoles culturels - une..."
    },
    "news": {
        "date_posted": {
            "en": "2018-11-01",
            "fr": "2018-11-01"
        },
        "to": {
            "en": "All staff",
            "fr": "Tous les employ\u00e9s"
        },
        "by": {
            "en": "Canada School of Public Service",
            "fr": "\u00c9cole de la fonction publique du Canada"
        }
    }
}