{
    "dcr_id": "1541101205521",
    "lang": "en",
    "title": {
        "en": "Reminder - Leadership Opportunity on the Student Panel of Representatives for Orientation, Unity and Training",
        "fr": "Rappel - Poste de leadership dans le Programme de l'orientation, de l'unit\u00e9 et de la sensibilisation des stagiaires et \u00e9tudiants"
    },
    "modified": "2018-11-14 00:00:00.0",
    "issued": "2018-11-08 00:00:00.0",
    "type_name": "intra-intra/news-nouv",
    "node_id": "1279030006975",
    "layout_name": null,
    "dc_date_created": "2018-11-02",
    "breadcrumb_label": "Reminder - Leadership Opportunity on the Student Panel of Representatives for Orientation, Unity...",
    "meta": {
        "issued": {
            "en": "2018-11-08",
            "fr": "2018-11-08"
        },
        "modified": {
            "en": "2018-11-14",
            "fr": "2018-11-14"
        },
        "format": {
            "en": "gcformat",
            "fr": "gcformat"
        },
        "title": {
            "en": "Reminder - Leadership Opportunity on the Student Panel of Representatives for Orientation, Unity and Training",
            "fr": "Rappel - Poste de leadership dans le Programme de l'orientation, de l'unit\u00e9 et de la sensibilisation des stagiaires et \u00e9tudiants"
        },
        "subject": {
            "en": "communications",
            "fr": "communications"
        },
        "description": {
            "en": "The Student Panel of Representatives for Orientation, Unity, and Training, AAFC's Student Network, is taking applications for a new vice-chair.",
            "fr": "Le Programme de l'orientation, de l'unit\u00e9 et de la sensibilisation des stagiaires et \u00e9tudiants, le r\u00e9seau des \u00e9tudiants d'AAC, accepte les demandes pour le poste de nouveau vice-pr\u00e9sident."
        },
        "language": {
            "en": "eng",
            "fr": "fra"
        },
        "audience": {
            "en": "gcaudience",
            "fr": "gcaudience"
        },
        "creator": {
            "en": "Agriculture and Agri-Food Canada",
            "fr": "Agriculture et Agroalimentaire Canada"
        },
        "spatial": {
            "en": "gcregions",
            "fr": "gcregions"
        },
        "service": {
            "en": "AAFC_AgriSource",
            "fr": "AAC_AgriSource"
        },
        "accessRights": {
            "en": "3",
            "fr": "3"
        }
    },
    "body": {
        "en": "<br>\n<br>\n<p>The Student Panel of Representatives for Orientation, Unity, and Training (<abbr title=\"Student Panel of Representatives for Orientation, Unity, and Training\">SPROUT</abbr>), AAFC\u2019s Student Network, is taking applications for a new vice-chair. Join us and help students overcome the challenges they face, all while gaining experience and widening your own professional network!</p>\n<p>In the role of <abbr title=\"Student Panel of Representatives for Orientation, Unity, and Training\">SPROUT</abbr> vice-chair, you will work closely with the <abbr title=\"Student Panel of Representatives for Orientation, Unity, and Training\">SPROUT</abbr> chair to advance student programming within AAFC. This involves:</p>\n<ul>\n<li>organizing events for students, such as the departmental orientation sessions</li>\n<li>active engagement on the Young Professionals Network executive committee by volunteering to plan events and informing the strategic direction of the network</li>\n<li>developing initiatives, events and programs to enhance the student experience at AAFC in the NCR and regionally</li>\n<li>sitting on the Interdepartmental Student Committee to maintain AAFC\u2019s relationships with student networks across the federal public service</li>\n</ul>\n<h2><strong>Apply now</strong></h2>\n<p>Indeterminate employees who are interested in this opportunity are invited to email Austin Mowat (<a href=\"mailto:austin.mowat@canada.ca\">austin.mowat@canada.ca</a>) by <strong>November 23</strong> with the following information:</p>\n<ul>\n<li>Your name</li>\n<li>Your relevant experience</li>\n<li>Your manager\u2019s approval. A 3 to 4\u2011hour time commitment and personal time (if needed) per week is required for this position.<br>\n\t* This leadership opportunity can be included in your performance agreement.</li>\n</ul>\n<p>Learn more about <abbr title=\"Student Panel of Representatives for Orientation, Unity, and Training\">SPROUT</abbr> on <a href=\"https://collab.agr.gc.ca/co/se-ee/SitePages/Home.aspx\">Knowledge Workspace</a>. Should you have any questions, contact Austin at the email above or by telephone at 613-773-2317.</p>\n<p>Thank you and good luck!</p>\n<p><img src=\"https://intranet.agr.gc.ca/resources/prod/news/images/SPROUT-EN.png\" class=\"center-block\"></p>\n\n\t\t",
        "fr": "<br>\n<br>\n<p>Le Programme de l\u2019orientation, de l\u2019unit\u00e9 et de la sensibilisation des stagiaires et \u00e9tudiants (<abbr title=\"Programme de l\u2019orientation, de l\u2019unit\u00e9 et de la sensibilisation des stagiaires et \u00e9tudiants\">POUSSE</abbr>), le r\u00e9seau des \u00e9tudiants d\u2019AAC, accepte les demandes pour le poste de nouveau vice\u2011pr\u00e9sident. Joignez-vous \u00e0 nous et aidez les \u00e9tudiants \u00e0 surmonter les d\u00e9fis auxquels ils doivent faire face, tout en acqu\u00e9rant de l\u2019exp\u00e9rience et en \u00e9largissant votre propre r\u00e9seau professionnel!</p>\n<p>Comme vice-pr\u00e9sident du <abbr title=\"Programme de l\u2019orientation, de l\u2019unit\u00e9 et de la sensibilisation des stagiaires et \u00e9tudiants\">POUSSE</abbr>, vous travaillerez en \u00e9troite collaboration avec le pr\u00e9sident du <abbr title=\"Programme de l\u2019orientation, de l\u2019unit\u00e9 et de la sensibilisation des stagiaires et \u00e9tudiants\">POUSSE</abbr> pour faire la promotion des programmes \u00e9tudiants \u00e0 AAC. Ce r\u00f4le comprend les t\u00e2ches suivantes :</p>\n<ul>\n<li>organiser des activit\u00e9s pour les \u00e9tudiants, comme les s\u00e9ances d\u2019orientation minist\u00e9rielle;</li>\n<li>participer activement au comit\u00e9 ex\u00e9cutif du R\u00e9seau des jeunes professionnels en vous portant volontaire pour planifier des \u00e9v\u00e9nements et \u00e9clairer l\u2019orientation strat\u00e9gique du r\u00e9seau;</li>\n<li>mettre au point des initiatives, des \u00e9v\u00e9nements et des programmes pour am\u00e9liorer l\u2019exp\u00e9rience \u00e9tudiante \u00e0 AAC dans la RCN et dans les r\u00e9gions;</li>\n<li>si\u00e9ger au Comit\u00e9 interminist\u00e9riel des \u00e9tudiants pour entretenir les relations qu\u2019AAC a \u00e9tablies avec les r\u00e9seaux d\u2019\u00e9tudiants de la fonction publique f\u00e9d\u00e9rale.</li>\n</ul>\n<h2><strong>Postulez d\u00e8s maintenant</strong></h2>\n<p>Les employ\u00e9s nomm\u00e9s pour une p\u00e9riode ind\u00e9termin\u00e9e que cette possibilit\u00e9 int\u00e9resse sont invit\u00e9s \u00e0 envoyer un courriel \u00e0 Austin Mowat, \u00e0 <a href=\"mailto:austin.mowat@canada.ca\">austin.mowat@canada.ca</a>, d\u2019ici le <strong>23 novembre</strong>, avec les renseignements suivants :</p>\n<ul>\n<li>votre nom;</li>\n<li>votre exp\u00e9rience pertinente;</li>\n<li>L\u2019approbation de votre gestionnaire. Vous devrez consacrer de 3 \u00e0 4 heures par semaine et du temps personnel (au besoin) pour remplir les fonctions de ce poste.<br>\n\t**Cette responsabilit\u00e9 peut \u00eatre inscrite dans votre entente de rendement.</li>\n</ul>\n<p>\nRenseignez-vous davantage sur le <abbr title=\"Programme de l\u2019orientation, de l\u2019unit\u00e9 et de la sensibilisation des stagiaires et \u00e9tudiants\">POUSSE</abbr> dans <u><a href=\"https://collab.agr.gc.ca/co/se-ee/SitePages/Home.aspx\">l\u2019Espace de travail du savoir</a></u>. Pour toutes questions, communiquez avec Austin par courriel, \u00e0 l\u2019adresse susmentionn\u00e9e, ou par t\u00e9l\u00e9phone, au 613\u2011773\u20112317.</p>\n<p>Merci et bonne chance!</p>\n<p><img src=\"https://intranet.agr.gc.ca/resources/prod/news/images/SPROUT-FR.png\" class=\"center-block\"></p>\n\t\t"
    },
    "breadcrumb": {
        "en": "Reminder - Leadership Opportunity on the Student Panel of Representatives for Orientation, Unity...",
        "fr": "Rappel - Poste de leadership dans le Programme de l'orientation, de l'unit\u00e9 et de la..."
    },
    "news": {
        "date_posted": {
            "en": "2018-11-08",
            "fr": "2018-11-08"
        },
        "to": {
            "en": "All staff",
            "fr": "Tous les employ\u00e9s"
        },
        "by": {
            "en": "Student Panel of Representatives for Orientation, Unity, and Training",
            "fr": "Programme de l'orientation, de l'unit\u00e9 et de la sensibilisation des stagiaires et \u00e9tudiants"
        }
    }
}