{
    "dcr_id": "1541539031651",
    "lang": "en",
    "title": {
        "en": "Veterans' Week: Let's Show #CanadaRemembers - November 5-11",
        "fr": "Semaine des v\u00e9t\u00e9rans : Montrons que #LeCanadaSeSouvient - Du 5 au 11 novembre"
    },
    "modified": "2018-11-14 00:00:00.0",
    "issued": "2018-11-07 00:00:00.0",
    "type_name": "intra-intra/news-nouv",
    "node_id": "1279030006975",
    "layout_name": null,
    "dc_date_created": "2018-11-06",
    "breadcrumb_label": "",
    "meta": {
        "issued": {
            "en": "2018-11-07",
            "fr": "2018-11-07"
        },
        "modified": {
            "en": "2018-11-14",
            "fr": "2018-11-07"
        },
        "format": {
            "en": "gcformat",
            "fr": "gcformat"
        },
        "title": {
            "en": "Veterans' Week: Let's Show #CanadaRemembers - November 5-11",
            "fr": "Semaine des v\u00e9t\u00e9rans : Montrons que #LeCanadaSeSouvient - Du 5 au 11 novembre"
        },
        "subject": {
            "en": "communications",
            "fr": "communications"
        },
        "description": {
            "en": "Veterans' Week is from November 5 to 11, and there are many ways we can get involved and show our gratitude for our country's veterans.",
            "fr": "La Semaine des v\u00e9t\u00e9rans aura lieu du 5 au 11 novembre, et il existe de nombreuses fa\u00e7ons d'exprimer toute notre reconnaissance aux v\u00e9t\u00e9rans de notre pays."
        },
        "language": {
            "en": "eng",
            "fr": "fra"
        },
        "audience": {
            "en": "gcaudience",
            "fr": "gcaudience"
        },
        "creator": {
            "en": "Agriculture and Agri-Food Canada",
            "fr": "Agriculture et Agroalimentaire Canada"
        },
        "spatial": {
            "en": "gcregions",
            "fr": "gcregions"
        },
        "service": {
            "en": "AAFC_AgriSource",
            "fr": "AAC_AgriSource"
        },
        "accessRights": {
            "en": "3",
            "fr": "3"
        }
    },
    "body": {
        "en": "<br>\n<br>\n<p>Veterans\u2019 Week is from November 5 to 11, and there are many ways we can get involved and show our gratitude for our country\u2019s veterans.</p>\n<p>2018 marks the 100<sup>th</sup> anniversary of Canada\u2019s Hundred Days,\u00a0or the last three months of the First World War, during which time a series of Canadian Corps victories on the Western Front solidified their reputation as elite shock troops. It is also the 100<sup>th</sup> anniversary of the Armistice that ended the First World War.</p>\n<p>At sundown on November 11, to honour these important milestones, Bells of Peace will ring out in communities from coast to coast to coast as a symbol of the great joy that was felt a century ago when the Allies achieved victory and peace was restored.</p>\n<p>This Veterans\u2019 Week, a new <a rel=\"external\" href=\"http://www.veterans.gc.ca/eng/remembrance/get-involved/remembrance-day\">Our Freedom video</a>,<em> </em>designed to make remembrance more personal and to encourage Canadians to engage in acts of remembrance, will appear across every social media site you can think of \u2013 Facebook, Instagram, Snapchat, YouTube, Twitter and Spotify\u2014and on major news sites.</p>\n<p>Ways you can show #CanadaRemembers:</p>\n<ul>\n<li>Participate in a ceremony at your local cenotaph or other war memorial</li>\n<li>Wear a poppy with pride</li>\n<li>Join the conversation on social media! Use the <a rel=\"external\" href=\"http://www.veterans.gc.ca/eng/remembrance/get-involved/remembrance-day/social-media/acts-of-remembrance\">acts of remembrance</a> to post what remembrance means to you and include the Veterans\u2019 Week hashtags <strong>#CanadaRemembers</strong> and <strong>#Canadas100days</strong></li>\n<li>Contact a local veterans\u2019 association and invite a veteran to be a guest speaker at your office or local group</li>\n<li>Thank a veteran through <a rel=\"external\" href=\"http://www.veterans.gc.ca/eng/remembrance/get-involved/postcard-for-peace\">Postcards for Peace</a></li>\n<li>Learn more about those who have served our country through <a rel=\"external\" href=\"http://www.veterans.gc.ca/eng/remembrance/get-involved/remembrance-day/video-gallery\">Heroes Remember</a> videos</li>\n</ul>\n<p>Visit the <a rel=\"external\" href=\"http://www.veterans.gc.ca/eng/remembrance/get-involved/remembrance-day\">Veterans\u2019 Week page</a> to learn about other ways to get involved with remembrance and to view the calendar of events.</p>\n<p>Together, let\u2019s show that Canada remembers and inspire our friends, neighbours, and families to do the same.</p>\n<p>Lest we forget.</p>\n<p><img src=\"https://intranet.agr.gc.ca/resources/prod/news/images/VeteransWeek2018-EN.png\" class=\"center-block\"></p>\n\n\t\t",
        "fr": "<br>\n<br>\n<p>La Semaine des v\u00e9t\u00e9rans aura lieu du 5 au 11 novembre, et il existe de nombreuses fa\u00e7ons d\u2019exprimer toute notre reconnaissance aux v\u00e9t\u00e9rans de notre pays.</p>\n<p>En 2018, nous soulignons le 100<sup>e</sup> anniversaire des cent jours du Canada, c\u2019est-\u00e0-dire\u00a0 les trois derniers mois de la Premi\u00e8re Guerre mondiale au cours desquels une s\u00e9rie de victoires du Corps canadien sur le front occidental a affermi la r\u00e9putation du Corps comme troupe d\u2019assaut d\u2019\u00e9lite. C\u2019est aussi le 100<sup>e</sup> anniversaire de l\u2019armistice qui a mis fin \u00e0 la Premi\u00e8re Guerre mondiale.</p>\n<p>Le 11 novembre au cr\u00e9puscule, les Cloches de la paix sonneront dans les collectivit\u00e9s d\u2019un oc\u00e9an \u00e0 l\u2019autre pour honorer ces jalons importants et\u00a0symboliser la grande joie ressentie il y a un si\u00e8cle lorsque les alli\u00e9s ont remport\u00e9 la victoire et que la paix a \u00e9t\u00e9 r\u00e9tablie.</p>\n<p>Au cours de la Semaine des v\u00e9t\u00e9rans, une nouvelle vid\u00e9o intitul\u00e9e <a rel=\"external\" href=\"http://www.veterans.gc.ca/fra/remembrance/get-involved/remembrance-day\">Notre libert\u00e9</a>, con\u00e7ue pour rendre la comm\u00e9moration plus personnelle et encourager les Canadiens et les Canadiennes \u00e0 poser des actes comm\u00e9moratifs, sera diffus\u00e9e sur tous les sites de m\u00e9dias sociaux auxquels vous pouvez penser \u2013 Facebook, Instagram, Snapchat, YouTube, Twitter et Spotify \u2013 et sur les principaux sites de nouvelles.</p>\n<p>Voici comment vous pouvez montrer que le Canada se souvient :</p>\n<ul>\n<li>Participez \u00e0 une c\u00e9r\u00e9monie \u00e0 votre c\u00e9notaphe local ou \u00e0 un autre monument comm\u00e9moratif de guerre</li>\n<li>Portez fi\u00e8rement un coquelicot</li>\n<li>Joignez-vous \u00e0 la conversation sur les m\u00e9dias sociaux! Posez des <a rel=\"external\" href=\"http://www.veterans.gc.ca/fra/remembrance/get-involved/remembrance-day/social-media/acts-of-remembrance\">actes comm\u00e9moratifs</a> en montrant ce que perp\u00e9tuer le souvenir signifie pour vous, et utilisez les mots\u2011clics <strong>#LeCanadasesouvient</strong> et <strong>#100joursduCanada</strong></li>\n<li>Communiquez avec une association locale de v\u00e9t\u00e9rans et invitez un v\u00e9t\u00e9ran \u00e0 venir s\u2019adresser aux employ\u00e9s de votre bureau ou \u00e0 votre groupe</li>\n<li>Remerciez un v\u00e9t\u00e9ran au moyen des <a rel=\"external\" href=\"http://www.veterans.gc.ca/fra/remembrance/get-involved/postcard-for-peace\">Cartes postales de la paix</a></li>\n<li>Regardez les\u00a0vid\u00e9os <a rel=\"external\" href=\"http://www.veterans.gc.ca/fra/remembrance/get-involved/remembrance-day/video-gallery\">Des h\u00e9ros se racontent</a> pour en apprendre plus sur ceux et celles qui ont servi notre pays</li>\n</ul>\n<p>Visitez le <a rel=\"external\" href=\"http://www.veterans.gc.ca/fra/remembrance/get-involved/remembrance-day\">site Web de la Semaine des v\u00e9t\u00e9rans</a> pour d\u00e9couvrir d\u2019autres fa\u00e7ons de participer aux activit\u00e9s de comm\u00e9moration et voir le calendrier des activit\u00e9s.</p>\n<p>Ensemble, montrons que le Canada se souvient et incitons nos amis, nos voisins et nos familles \u00e0 faire de m\u00eame.</p>\n<p>N\u2019oublions jamais.</p>\n<p><img src=\"https://intranet.agr.gc.ca/resources/prod/news/images/VeteransWeek2018-FR.png\" class=\"center-block\" alt=\"\"></p>\n\t\t"
    },
    "breadcrumb": {
        "en": "Veterans' Week: Let's Show #CanadaRemembers - November 5-11",
        "fr": "Semaine des v\u00e9t\u00e9rans : Montrons que #LeCanadaSeSouvient - Du 5 au 11 novembre"
    },
    "news": {
        "date_posted": {
            "en": "2018-11-07",
            "fr": "2018-11-07"
        },
        "to": {
            "en": "All staff",
            "fr": "Tous les employ\u00e9s"
        },
        "by": {
            "en": "Veterans Affairs Canada",
            "fr": "Anciens Combattants Canada"
        }
    }
}