{
    "dcr_id": "1542832100008",
    "lang": "en",
    "title": {
        "en": "New Date: AAFC All-Staff Meeting - December 10",
        "fr": "Nouvelle date : R\u00e9union du personnel d'AAC - 10 d\u00e9cembre"
    },
    "modified": "2018-12-04 00:00:00.0",
    "issued": "2018-11-27 00:00:00.0",
    "type_name": "intra-intra/news-nouv",
    "node_id": "1279030006975",
    "layout_name": null,
    "dc_date_created": "2018-11-21",
    "breadcrumb_label": "",
    "meta": {
        "issued": {
            "en": "2018-11-27",
            "fr": "2018-11-27"
        },
        "modified": {
            "en": "2018-12-04",
            "fr": "2018-12-04"
        },
        "format": {
            "en": "gcformat",
            "fr": "gcformat"
        },
        "title": {
            "en": "New Date: AAFC All-Staff Meeting - December 10",
            "fr": "Nouvelle date : R\u00e9union du personnel d'AAC - 10 d\u00e9cembre"
        },
        "subject": {
            "en": "communications",
            "fr": "communications"
        },
        "description": {
            "en": "Please join Minister Lawrence MacAulay, Deputy Minister Chris Forbes and Associate Deputy Minister Annette Gibbons for an AAFC All-Staff Meeting.",
            "fr": "Veuillez vous joindre au ministre Lawrence MacAulay, au sous-ministre Chris Forbes et \u00e0 la sous-ministre d\u00e9l\u00e9gu\u00e9e Annette Gibbons pour assister \u00e0 une r\u00e9union du personnel d'AAC."
        },
        "language": {
            "en": "eng",
            "fr": "fra"
        },
        "audience": {
            "en": "gcaudience",
            "fr": "gcaudience"
        },
        "creator": {
            "en": "Agriculture and Agri-Food Canada",
            "fr": "Agriculture et Agroalimentaire Canada"
        },
        "spatial": {
            "en": "gcregions",
            "fr": "gcregions"
        },
        "service": {
            "en": "AAFC_AgriSource",
            "fr": "AAC_AgriSource"
        },
        "accessRights": {
            "en": "3",
            "fr": "3"
        }
    },
    "body": {
        "en": "<br>\n<br>\n<p>Please join Minister Lawrence MacAulay, Deputy Minister Chris Forbes and Associate Deputy Minister Annette Gibbons for an AAFC All-Staff Meeting.</p>\n<p><strong>Date and Time:</strong> Monday, December 10, 2018, 11:00 a.m. to 11:30 a.m. (ET)</p>\n<p>While no actual scheduler is being sent, we encourage you to <strong>block off the time in your Outlook calendar</strong>.</p>\n<p><strong>Location:</strong> NHCAP - T3-1-351 (limited seating available)</p>\n<p><strong>We encourage staff to gather with colleagues where possible to make use of boardrooms with videoconferencing facilities. Research Centres, regional offices and teams are asked to please coordinate room bookings.</strong> </p>\n<p>The meeting will also stream in the NHCAP T6 Cafeteria.</p>\n<p><strong>Virtual Options:</strong> </p>\n<ul>\n<li>Videoconference* (Bilingual): 6811087856</li>\n<li>Teleconference (Bilingual): 613-954-9003 or 1-866-206-0153 \u00a0ID: 1632480#</li>\n<li>Teleconference (English): 613-960-7518 or 1-866-805-7923 \u00a0ID: 3770900#</li>\n<li>Teleconference (French): 613-960-7519 or 1-877-413-4814 \u00a0ID: 7814682#</li>\n</ul>\n<p>*<strong>Note:</strong> To access simultaneous interpretation by videoconference, please:</p>\n<ol>\n<li>Sign into the videoconference.</li>\n<li>Select \"mute microphone\" on the videoconference remote.</li>\n<li>Lower the volume completely on the TV.</li>\n<li>Follow the instructions above to connect the telephone to the teleconference in the language of choice.</li>\n</ol>\n<p>To maximize AAFC's videoconferencing capacity, we ask that individuals refrain from connecting via their own PC. </p>\n<p>If you experience difficulties in connecting, please contact the IT Centre at 1-855-545-4411 or <a href=\"mailto:service@itcentreti.collaboration.gc.ca\">service@itcentreti.collaboration.gc.ca</a>.</p>\n<p>Please note that to avoid accidental noise, all lines will be muted.</p>\n<p>We look forward to your participation at this AAFC event.</p>\n\n\t\t",
        "fr": "<br>\n<br>\n<p>Veuillez vous joindre au ministre Lawrence MacAulay, au sous-ministre Chris Forbes et \u00e0 la sous-ministre d\u00e9l\u00e9gu\u00e9e Annette Gibbons pour assister \u00e0 une r\u00e9union du personnel d'AAC.</p>\n<p><strong>Date et heure :</strong> Lundi 10 d\u00e9cembre 2018, de 11 h \u00e0 11 h 30 (HE)</p>\n<p>Puisque nous n'enverrons pas de convocation, nous vous sugg\u00e9rons de r\u00e9server la plage horaire dans votre calendrier Outlook.</p>\n<p><strong>Lieu :</strong> CACPA - T3-1-351 (les places sont limit\u00e9es)</p>\n<p><strong>Nous vous encourageons \u00e0 vous regrouper dans les salles munies d'installations pour vid\u00e9oconf\u00e9rence, si possible. Les centres de recherche, les bureaux r\u00e9gionaux et les \u00e9quipes sont pri\u00e9s de coordonner la r\u00e9servation des salles.</strong></p>\n<p>Cette r\u00e9union sera aussi diffus\u00e9e dans la caf\u00e9t\u00e9ria de la T6 du CACPA.</p>\n<p><strong>Options virtuelles :</strong></p>\n<ul>\n<li>Vid\u00e9oconf\u00e9rence* (bilingue) : 6811087856</li>\n<li>T\u00e9l\u00e9conf\u00e9rence (bilingue) : 613-954-9003 ou 1-866-206-0153, code : 1632480#</li>\n<li>T\u00e9l\u00e9conf\u00e9rence (anglais) : 613-960-7518 ou 1-866-805-7923, code : 3770900#</li>\n<li>T\u00e9l\u00e9conf\u00e9rence (fran\u00e7ais) : 613-960-7519 ou 1-877-413-4814, code : 7814682#</li>\n</ul>\n<p>*<strong>Remarque :</strong> Pour avoir acc\u00e8s \u00e0 l'interpr\u00e9tation simultan\u00e9e par vid\u00e9oconf\u00e9rence : </p>\n<ol>\n<li>Connectez-vous \u00e0 la vid\u00e9oconf\u00e9rence.</li>\n<li>S\u00e9lectionnez \u00ab mute microphone \u00bb (d\u00e9sactiver le micro) sur la t\u00e9l\u00e9commande pour vid\u00e9oconf\u00e9rence.</li>\n<li>Baissez compl\u00e8tement le volume du t\u00e9l\u00e9viseur.</li>\n<li>Suivez les directives ci-dessus pour connecter le t\u00e9l\u00e9phone \u00e0 la t\u00e9l\u00e9conf\u00e9rence dans la langue de votre choix.</li>\n</ol>\n<p>Afin d'optimiser les services de vid\u00e9oconf\u00e9rence, nous vous demandons d'\u00e9viter de vous connecter par l'interm\u00e9diaire de votre ordinateur.</p>\n<p>Si vous \u00e9prouvez des difficult\u00e9s, veuillez communiquer avec le Centre de TI au 1 855-545 4411 ou par courriel \u00e0 <a href=\"mailto:service@itcentreti.collaboration.gc.ca\">service@itcentreti.collaboration.gc.ca</a>.</p>\n<p>Veuillez noter que pour \u00e9viter les bruits accidentels, toutes les lignes seront mises en sourdine.</p>\n<p>Nous esp\u00e9rons vous compter parmi les participants \u00e0 cette activit\u00e9 d'AAC.</p>\n\t\t"
    },
    "breadcrumb": {
        "en": "New Date: AAFC All-Staff Meeting - December 10",
        "fr": "Nouvelle date : R\u00e9union du personnel d'AAC - 10 d\u00e9cembre"
    },
    "news": {
        "date_posted": {
            "en": "2018-11-23",
            "fr": "2018-11-23"
        },
        "to": {
            "en": "All staff",
            "fr": "Tous les employ\u00e9s"
        },
        "by": {
            "en": "Steve Jurgutis, Acting Assistant Deputy Minister, Public Affairs Branch",
            "fr": "Steve Jurgutis, sous-ministre adjoint par int\u00e9rim, Direction g\u00e9n\u00e9rale des affaires publiques"
        }
    }
}