{
    "dcr_id": "1542813990348",
    "lang": "en",
    "title": {
        "en": "Workplace Hazardous Materials Information System 2015 Guideline",
        "fr": "Ligne directrice du Syst\u00e8me d'information sur les mati\u00e8res dangereuses utilis\u00e9es au travail 2015"
    },
    "modified": "2018-11-28 00:00:00.0",
    "issued": "2018-11-28 00:00:00.0",
    "type_name": "intra-intra/news-nouv",
    "node_id": "1279030006975",
    "layout_name": null,
    "dc_date_created": "2018-11-21",
    "breadcrumb_label": "",
    "meta": {
        "issued": {
            "en": "2018-11-28",
            "fr": "2018-11-28"
        },
        "modified": {
            "en": "2018-11-28",
            "fr": "2018-11-29"
        },
        "format": {
            "en": "gcformat",
            "fr": "gcformat"
        },
        "title": {
            "en": "Workplace Hazardous Materials Information System 2015 Guideline",
            "fr": "Ligne directrice du Syst\u00e8me d'information sur les mati\u00e8res dangereuses utilis\u00e9es au travail 2015"
        },
        "subject": {
            "en": "communications",
            "fr": "communications"
        },
        "description": {
            "en": "The National Occupational Health and Safety Policy Committee is pleased to announce that AAFC has added the Workplace Hazardous Materials Information System 2015 as a new component of its Hazard Prevention Program.",
            "fr": "Le comit\u00e9 national d'orientation en sant\u00e9 et s\u00e9curit\u00e9 au travail est heureux de vous annoncer qu'AAC a ajout\u00e9 le syst\u00e8me d'information sur les mati\u00e8res dangereuses utilis\u00e9es au travail comme nouvelle composante de son programme de pr\u00e9vention des risques."
        },
        "language": {
            "en": "eng",
            "fr": "fra"
        },
        "audience": {
            "en": "gcaudience",
            "fr": "gcaudience"
        },
        "creator": {
            "en": "Agriculture and Agri-Food Canada",
            "fr": "Agriculture et Agroalimentaire Canada"
        },
        "spatial": {
            "en": "gcregions",
            "fr": "gcregions"
        },
        "service": {
            "en": "AAFC_AgriSource",
            "fr": "AAC_AgriSource"
        },
        "accessRights": {
            "en": "3",
            "fr": "3"
        }
    },
    "body": {
        "en": "<br>\n<br>\n<p>The National Occupational Health and Safety Policy Committee is pleased to announce that AAFC has added the Workplace Hazardous Materials Information System (<abbr title=\"Workplace Hazardous Materials Information System\">WHMIS</abbr>) 2015 as a new component of its Hazard Prevention Program.</p>\n<p>WHMIS is a national hazard communication system that provides information on the safe use of hazardous materials in Canadian workplaces. A guideline has been created to provide standardized practices within the Department in order to comply with the <abbr title=\"Workplace Hazardous Materials Information System\">WHMIS</abbr> 2015 requirements.</p>\n<p>The <a href=\"https://collab.agr.gc.ca/gv/ohsct-ensst/_layouts/15/DocIdRedir.aspx?ID=AGR-7059995\"><abbr title=\"Workplace Hazardous Materials Information System\">WHMIS</abbr> 2015 Guideline</a> provides information about:</p>\n<ul>\n<li>your role and responsibilities as an employee, manager or supervisor;</li>\n<li><abbr title=\"Workplace Hazardous Materials Information System\">WHMIS</abbr> training; and</li>\n<li>identifying hazardous materials.</li>\n</ul>\n<p>We will continue to promote occupational health and safety (<abbr title=\"occupational health and safety\">OHS</abbr>) as an essential part of our corporate culture, and integrate <abbr title=\"occupational health and safety\">OHS</abbr> into our management and business decision-making processes.</p>\n<p>For more information, consult the <a href=\"http://intranet.agr.gc.ca/agrisource/eng/human-resources/occupational-health-and-safety?id=1321562720661\">Occupational Health and Safety</a> AgriSource page or contact your <a href=\"https://collab.agr.gc.ca/gv/ohsct-ensst/_layouts/15/DocIdRedir.aspx?ID=AGR-6971972\">Regional <abbr title=\"occupational health and safety\">OHS</abbr> Coordinator</a>.</p>\n<p>Remember the <abbr title=\"occupational health and safety\">OHS</abbr> motto: Stop. Think. Act.</p>\n<p><img src=\"https://intranet.agr.gc.ca/resources/prod/news/images/OHSLogoEN.png\" class=\"center-block\"></p>\n\n\t\t",
        "fr": "<br>\n<br>\n<p>Le comit\u00e9 national d\u2019orientation en sant\u00e9 et s\u00e9curit\u00e9 au travail est heureux de vous annoncer qu\u2019AAC a ajout\u00e9 le syst\u00e8me d\u2019information sur les mati\u00e8res dangereuses utilis\u00e9es au travail (<abbr title=\"syst\u00e8me d\u2019information sur les mati\u00e8res dangereuses utilis\u00e9es au travail \">SIMDUT</abbr>) comme nouvelle composante de son programme de pr\u00e9vention des risques.</p>\n<p>Le <abbr title=\"syst\u00e8me d\u2019information sur les mati\u00e8res dangereuses utilis\u00e9es au travail \">SIMDUT</abbr> est un syst\u00e8me national de communication des dangers qui fournit de l\u2019information sur l\u2019utilisation s\u00e9curitaire des mati\u00e8res dangereuses sur les lieux de travail canadiens. La Ligne directrice a \u00e9t\u00e9 cr\u00e9\u00e9e pour fournir des pratiques normalis\u00e9es au sein du Minist\u00e8re afin de se conformer aux exigences du <abbr title=\"syst\u00e8me d\u2019information sur les mati\u00e8res dangereuses utilis\u00e9es au travail \">SIMDUT</abbr> 2015.</p>\n<p>La <a href=\"https://collab.agr.gc.ca/gv/ohsct-ensst/_layouts/15/DocIdRedir.aspx?ID=AGR-7059994\">Ligne directrice de <abbr title=\"syst\u00e8me d\u2019information sur les mati\u00e8res dangereuses utilis\u00e9es au travail \">SIMDUT</abbr> 2015</a> fournit des renseignements sur :</p>\n<ul>\n<li>votre r\u00f4le et vos responsabilit\u00e9s en tant qu\u2019employ\u00e9, gestionnaire ou superviseur;</li>\n<li>la formation <abbr title=\"syst\u00e8me d\u2019information sur les mati\u00e8res dangereuses utilis\u00e9es au travail \">SIMDUT</abbr>;</li>\n<li>l\u2019identification des mati\u00e8res dangereuses.</li>\n</ul>\n<p>Nous continuerons \u00e0 promouvoir la sant\u00e9 et la s\u00e9curit\u00e9 au travail (<abbr title=\"sant\u00e9 et la s\u00e9curit\u00e9 au travail \">SST</abbr>) \u00e0 titre de composante essentielle de notre culture organisationnelle ainsi qu\u2019\u00e0 int\u00e9grer la <abbr title=\"sant\u00e9 et la s\u00e9curit\u00e9 au travail \">SST</abbr> dans nos processus op\u00e9rationnels et d\u00e9cisionnels.</p>\n<p>\nPour de plus amples renseignements, veuillez consulter la page AgriSource portant sur la <u><a href=\"http://intranet.agr.gc.ca/agrisource/fra/ressources-humaines/sante-et-securite-au-travail?id=1321562720661\">Sant\u00e9 et s\u00e9curit\u00e9 au travail</a></u> ou communiquer avec votre <u><a rel=\"external\" href=\"https://collab.agr.gc.ca/gv/ohsct-ensst/SiteAssets/SitePages/OHS%20Team%20(%20Corporate%20and%20Regional%20OHS%20Teams)/%C3%88quipe%20de%20sant%C3%A9%20et%20de%20s%C3%A9curite%20au%20travail_FR.docx\">coordonnateur r\u00e9gional en <abbr title=\"sant\u00e9 et la s\u00e9curit\u00e9 au travail \">SST</abbr></a></u>.</p>\n<p>N'oubliez pas la devise de la <abbr title=\"sant\u00e9 et s\u00e9curit\u00e9 au travail \">SST</abbr> : Arr\u00eatez. Pensez. Agissez.</p>\n<p><img src=\"https://intranet.agr.gc.ca/resources/prod/news/images/OHSLogoFR.png\" class=\"center-block\"></p>\n\t\t"
    },
    "breadcrumb": {
        "en": "Workplace Hazardous Materials Information System 2015 Guideline",
        "fr": "Ligne directrice du Syst\u00e8me d'information sur les mati\u00e8res dangereuses utilis\u00e9es au travail 2015"
    },
    "news": {
        "date_posted": {
            "en": "2018-11-28",
            "fr": "2018-11-28"
        },
        "to": {
            "en": "All staff",
            "fr": "Tous les employ\u00e9s"
        },
        "by": {
            "en": "AAFC's National Occupational Health and Safety Policy Committee",
            "fr": "Comit\u00e9 national d'orientation en sant\u00e9 et s\u00e9curit\u00e9 au travail"
        }
    }
}