{
    "dcr_id": "1542125497023",
    "lang": "en",
    "title": {
        "en": "This Week in The Harvest - In the Top 20 Worldwide! Potential Avenues for Reducing Food Waste",
        "fr": "Au menu de La Moisson cette semaine - Au top 20 mondial! Des pistes \u00e0 explorer pour r\u00e9duire le gaspillage alimentaire"
    },
    "modified": "2018-11-15 00:00:00.0",
    "issued": "2018-11-15 00:00:00.0",
    "type_name": "intra-intra/news-nouv",
    "node_id": "1279030006975",
    "layout_name": null,
    "dc_date_created": "2018-11-14",
    "breadcrumb_label": "",
    "meta": {
        "issued": {
            "en": "2018-11-15",
            "fr": "2018-11-15"
        },
        "modified": {
            "en": "2018-11-15",
            "fr": "2018-11-15"
        },
        "format": {
            "en": "gcformat",
            "fr": "gcformat"
        },
        "title": {
            "en": "This Week in The Harvest - In the Top 20 Worldwide! Potential Avenues for Reducing Food Waste",
            "fr": "Au menu de La Moisson cette semaine - Au top 20 mondial! Des pistes \u00e0 explorer pour r\u00e9duire le gaspillage alimentaire"
        },
        "subject": {
            "en": "communications",
            "fr": "communications"
        },
        "description": {
            "en": "In case you missed it, here's what's new in The Harvest this week.",
            "fr": "Au cas o\u00f9 vous l'auriez manqu\u00e9, voici le menu que la section La Moisson vous offre cette semaine."
        },
        "language": {
            "en": "eng",
            "fr": "fra"
        },
        "audience": {
            "en": "gcaudience",
            "fr": "gcaudience"
        },
        "creator": {
            "en": "Agriculture and Agri-Food Canada",
            "fr": "Agriculture et Agroalimentaire Canada"
        },
        "spatial": {
            "en": "gcregions",
            "fr": "gcregions"
        },
        "service": {
            "en": "AAFC_AgriSource",
            "fr": "AAC_AgriSource"
        },
        "accessRights": {
            "en": "3",
            "fr": "3"
        }
    },
    "body": {
        "en": "<br>\n<br>\n<p>In case you missed it, here\u2019s what\u2019s new in <a rel=\"external\" href=\"https://collab.agr.gc.ca/apps/harvest-moisson\">The Harvest</a> this week:</p>\n<p><strong>Feature story: </strong><a rel=\"external\" href=\"https://collab.agr.gc.ca/apps/harvest-moisson\">In the Top 20 Worldwide! Potential Avenues for Reducing Food Waste</a><strong> - </strong>There are times when our scientists\u2019 successes go unnoticed. But did you know that S\u00e9bastien Villeneuve and Martin Mondor, of the Saint-Hyacinthe Research and Development Centre, made a name for themselves internationally last year?</p>\n<p><strong>Poll</strong><strong>: </strong><a rel=\"external\" href=\"https://collab.agr.gc.ca/apps/harvest-moisson\">What social media platform do you spend the most time on?</a></p>\n<p><strong>Feature photo:</strong><strong> </strong><a rel=\"external\" href=\"https://collab.agr.gc.ca/apps/harvest-moisson/gallery/Lists/Posts/Post.aspx?ID=249\">Fallen Leaves</a>, by Srinivas Sura, Science and Technology Branch, Morden, Manitoba.</p>\n<p><strong>Did you know?</strong> <a rel=\"external\" href=\"https://collab.agr.gc.ca/apps/harvest-moisson/Pages/didyouknow.aspx\">Saint-Hyacinthe Research Centre\u2019s industrial program</a> has helped to create more than 2,000 products in its test kitchen for 1,200 companies since 1987. Each time we visit the grocery store, we have a bit of the Saint-Hyacinthe Research Centre in our grocery cart.</p>\n<p>You can get involved by posting a comment or \u201cliking\u201d an article. You can also check out what your colleagues are liking and saying.</p>\n<p>Should you have story ideas, scenic or artistic agriculture-related photos, or interesting facts, please share them with us by clicking on \u201cContribute\u201d in the top menu bar.</p>\n<p><img src=\"https://intranet.agr.gc.ca/resources/prod/news/images/HarvestReducingFoodWaste.png\" class=\"center-block\" alt=\"AAFC scientists: Martin Mondor and S\u00e9bastien Villeneuve\"></p>\n\n\t\t",
        "fr": "<br>\n<br>\n<p>Au cas o\u00f9 vous l\u2019auriez manqu\u00e9, voici le menu que la section <a rel=\"external\" href=\"https://collab.agr.gc.ca/apps/harvest-moisson\">La Moisson</a> vous offre cette semaine :</p>\n<p><strong>Article vedette :</strong> <a rel=\"external\" href=\"https://collab.agr.gc.ca/apps/harvest-moisson\">Au top 20 mondial! Des pistes \u00e0 explorer pour r\u00e9duire le gaspillage alimentaire</a> \u2013 Il arrive parfois que les succ\u00e8s de nos chercheurs passent inaper\u00e7us. Mais saviez-vous que S\u00e9bastien Villeneuve et Martin Mondor, du Centre de recherche et de d\u00e9veloppement de Saint-Hyacinthe, se sont d\u00e9marqu\u00e9s internationalement l\u2019an dernier?</p>\n<p><strong>Sondage : </strong><a rel=\"external\" href=\"https://collab.agr.gc.ca/apps/harvest-moisson\">Sur quelle plateforme de m\u00e9dias sociaux passez-vous le plus de temps?</a></p>\n<p><strong>Photo vedette :</strong> <a rel=\"external\" href=\"https://collab.agr.gc.ca/apps/harvest-moisson/gallery/Lists/Posts/Post.aspx?ID=249\">Lit de feuilles</a>, par Srinivas Sura, Direction g\u00e9n\u00e9rale des sciences et de la technologie, Morden (Manitoba).</p>\n<p><strong>Le saviez-vous?</strong> <a rel=\"external\" href=\"https://collab.agr.gc.ca/apps/harvest-moisson/Pages/DidYouKnow.aspx\">Depuis 1987, le programme industriel du Centre de recherche de Saint-Hyacinthe</a> a particip\u00e9 \u00e0 la cr\u00e9ation de plus de 2 000 produits dans sa cuisine exp\u00e9rimentale pour 1 200 entreprises. Chaque fois que nous allons \u00e0 l\u2019\u00e9picerie, notre panier contient un peu du Centre de recherche de Saint-Hyacinthe.</p>\n<p>Vous pouvez participer en affichant des commentaires ou en utilisant la fonction \u00ab J\u2019aime \u00bb ou \u00ab Partager \u00bb pour exprimer votre appr\u00e9ciation d\u2019un article. Vous pouvez aussi aller voir ce que vos coll\u00e8gues aiment et ont \u00e0 dire.</p>\n<p>Si vous avez des id\u00e9es d\u2019articles, des photos de paysages ou \u00e0 caract\u00e8re artistique li\u00e9es \u00e0 l\u2019agriculture ou encore des faits int\u00e9ressants, veuillez nous en faire part en cliquant sur \u00ab Collaborer \u00bb dans la barre de menu en haut de la page.</p>\n<p><img src=\"https://intranet.agr.gc.ca/resources/prod/news/images/HarvestReducingFoodWaste.png\" class=\"center-block\" alt=\"Des chercheurs d'AAC : Martin Mondor et S\u00e9bastien Villeneuve\"></p>\n\t\t"
    },
    "breadcrumb": {
        "en": "This Week in The Harvest - In the Top 20 Worldwide! Potential Avenues for Reducing Food Waste",
        "fr": "Au menu de La Moisson cette semaine - Au top 20 mondial! Des pistes \u00e0 explorer pour r\u00e9duire le..."
    },
    "news": {
        "date_posted": {
            "en": "2018-11-15",
            "fr": "2018-11-15"
        },
        "to": {
            "en": "All staff",
            "fr": "Tous les employ\u00e9s"
        },
        "by": {
            "en": "Corporate Communications, Public Affairs Branch",
            "fr": "Communications minist\u00e9rielles, Direction g\u00e9n\u00e9rale des affaires publiques"
        }
    }
}