{
    "dcr_id": "1543334331479",
    "lang": "en",
    "title": {
        "en": "Any More Ideas? Last Call for the First Round of the Idea Farm",
        "fr": "Vous avez d'autres id\u00e9es? Dernier appel pour la premi\u00e8re ronde de pr\u00e9sentations de la P\u00e9pini\u00e8re d'id\u00e9es"
    },
    "modified": "2018-11-29 00:00:00.0",
    "issued": "2018-11-29 00:00:00.0",
    "type_name": "intra-intra/news-nouv",
    "node_id": "1279030006975",
    "layout_name": null,
    "dc_date_created": "2018-11-27",
    "breadcrumb_label": "Any more ideas? Last call for the first round of the Idea Farm",
    "meta": {
        "issued": {
            "en": "2018-11-29",
            "fr": "2018-11-29"
        },
        "modified": {
            "en": "2018-11-29",
            "fr": "2018-11-29"
        },
        "format": {
            "en": "gcformat",
            "fr": "gcformat"
        },
        "title": {
            "en": "Any More Ideas? Last Call for the First Round of the Idea Farm",
            "fr": "Vous avez d'autres id\u00e9es? Dernier appel pour la premi\u00e8re ronde de pr\u00e9sentations de la P\u00e9pini\u00e8re d'id\u00e9es"
        },
        "subject": {
            "en": "communications",
            "fr": "communications"
        },
        "description": {
            "en": "The deadline for Idea Farm submissions is Friday, November 30, so make sure to submit your idea or comment on existing ideas now!",
            "fr": "Vous avez jusqu'au vendredi 30 novembre pour faire vos suggestions \u00e0 la P\u00e9pini\u00e8re d'id\u00e9es. Pr\u00e9sentez votre id\u00e9e ou commentez les id\u00e9es pr\u00e9sent\u00e9es d\u00e8s maintenant!"
        },
        "language": {
            "en": "eng",
            "fr": "fra"
        },
        "audience": {
            "en": "gcaudience",
            "fr": "gcaudience"
        },
        "creator": {
            "en": "Agriculture and Agri-Food Canada",
            "fr": "Agriculture et Agroalimentaire Canada"
        },
        "spatial": {
            "en": "gcregions",
            "fr": "gcregions"
        },
        "service": {
            "en": "AAFC_AgriSource",
            "fr": "AAC_AgriSource"
        },
        "accessRights": {
            "en": "3",
            "fr": "3"
        }
    },
    "body": {
        "en": "<br>\n<br>\n<p>The deadline for Idea Farm submissions is Friday, November 30, so make sure to <a rel=\"external\" href=\"https://collab.agr.gc.ca/co/AAFCif-FiAAC/SitePages/Submit%20an%20Idea.aspx\">submit your idea</a> or <a rel=\"external\" href=\"https://collab.agr.gc.ca/co/AAFCif-FiAAC/SitePages/Comment%20on%20Submitted%20Ideas.aspx\">comment on existing ideas</a> now!</p>\n<p>Please note you can submit an idea even if you can\u2019t commit to leading the project. You can choose your level of involvement.</p>\n<p>We\u2019re thrilled and impressed with the ideas (over 50!) \u2014 and many comments \u2014 received so far.</p>\n<p>The AAFC Idea Farm is a mechanism to support employee-initiated ideas for new approaches, tools and technologies designed to improve the way we do business.</p>\n<p>We hope to announce some early project ideas in December selected for advancement. The remaining submissions will be reviewed in the new year.</p>\n<p>For more information about the Idea Farm, contact the Idea Farm Team at <a href=\"mailto:aafc.idea-idee.aac@canada.ca\">aafc.idea-idee.aac@canada.ca</a> or visit the <a rel=\"external\" href=\"https://collab.agr.gc.ca/co/AAFCif-FiAAC/SitePages/Home.aspx\">Idea Farm Knowledge Workspace page</a>.</p>\n<p>Thank you for sharing your ideas and creativity!</p>\n\n\t\t",
        "fr": "<br>\n<br>\n<p>Vous avez jusqu\u2019au vendredi 30 novembre pour faire vos suggestions \u00e0 la P\u00e9pini\u00e8re d\u2019id\u00e9es.\u00a0<a href=\"https://collab.agr.gc.ca/co/AAFCif-FiAAC/SitePages/Submit%20an%20Idea.aspx\">Pr\u00e9sentez votre id\u00e9e</a> ou <a href=\"https://collab.agr.gc.ca/co/AAFCif-FiAAC/SitePages/Comment%20on%20Submitted%20Ideas.aspx\">commentez les id\u00e9es pr\u00e9sent\u00e9es</a> d\u00e8s maintenant!</p>\n<p>Vous pouvez pr\u00e9senter une id\u00e9e m\u00eame si vous ne pouvez pas vous engager \u00e0\u00a0mener le projet. Vous pouvez choisir votre niveau de participation.</p>\n<p>Nous sommes enchant\u00e9s et impressionn\u00e9s par les id\u00e9es (plus de 50!) et les nombreux commentaires re\u00e7us jusqu\u2019\u00e0 maintenant.</p>\n<p>La P\u00e9pini\u00e8re d\u2019id\u00e9es d\u2019AAC est un m\u00e9canisme qui permet aux employ\u00e9s de proposer de nouvelles approches et technologies et de nouveaux outils pour am\u00e9liorer nos fa\u00e7ons de faire.</p>\n<p>Nous esp\u00e9rons annoncer la s\u00e9lection d\u2019id\u00e9es de projet en d\u00e9cembre. Les autres suggestions seront examin\u00e9es au cours de la prochaine ann\u00e9e.</p>\n<p>Pour de plus amples renseignements sur la P\u00e9pini\u00e8re d\u2019id\u00e9es, communiquez avec notre \u00e9quipe \u00e0 <a href=\"mailto:aafc.idea-idee.aac@canada.ca\">aafc.idea-idee.aac@canada.ca</a> ou visitez la <a href=\"https://collab.agr.gc.ca/co/AAFCif-FiAAC/SitePages/Home.aspx\">page de la P\u00e9pini\u00e8re d'id\u00e9es dans l'Espace de travail du savoir</a>.</p>\n<p>Merci de mettre vos id\u00e9es et votre cr\u00e9ativit\u00e9 \u00e0 profit!</p>\n\t\t"
    },
    "breadcrumb": {
        "en": "Any more ideas? Last call for the first round of the Idea Farm",
        "fr": "Vous avez d'autres id\u00e9es? Dernier appel pour la premi\u00e8re ronde de pr\u00e9sentations de la P\u00e9pini\u00e8re..."
    },
    "news": {
        "date_posted": {
            "en": "2018-11-29",
            "fr": "2018-11-29"
        },
        "to": {
            "en": "All staff",
            "fr": "Tous les employ\u00e9s"
        },
        "by": {
            "en": "Idea Farm Team",
            "fr": "\u00c9quipe de la P\u00e9pini\u00e8re d'id\u00e9es"
        }
    }
}