{
    "dcr_id": "1543942974911",
    "lang": "en",
    "title": {
        "en": "NCR - GCWCC - Wrap-Up and Final Chance to Donate!",
        "fr": "RCN - CCMTGC - Bilan et derni\u00e8re chance de faire un don!"
    },
    "modified": "2018-12-06 00:00:00.0",
    "issued": "2018-12-06 00:00:00.0",
    "type_name": "intra-intra/news-nouv",
    "node_id": "1279030006975",
    "layout_name": null,
    "dc_date_created": "2018-12-04",
    "breadcrumb_label": "",
    "meta": {
        "issued": {
            "en": "2018-12-06",
            "fr": "2018-12-06"
        },
        "modified": {
            "en": "2018-12-06",
            "fr": "2018-12-06"
        },
        "format": {
            "en": "gcformat",
            "fr": "gcformat"
        },
        "title": {
            "en": "NCR - GCWCC - Wrap-Up and Final Chance to Donate!",
            "fr": "RCN - CCMTGC - Bilan et derni\u00e8re chance de faire un don!"
        },
        "subject": {
            "en": "communications",
            "fr": "communications"
        },
        "description": {
            "en": "I'm happy to report that as of December 6, AAFC's Government of Canada Workplace Charitable Campaign has raised $168,640.",
            "fr": "Je suis heureuse de signaler qu'en date du 6 d\u00e9cembre, AAC a recueilli 168 640 $ pour la Campagne de charit\u00e9 en milieu de travail du gouvernement du Canada."
        },
        "language": {
            "en": "eng",
            "fr": "fra"
        },
        "audience": {
            "en": "gcaudience",
            "fr": "gcaudience"
        },
        "creator": {
            "en": "Agriculture and Agri-Food Canada",
            "fr": "Agriculture et Agroalimentaire Canada"
        },
        "spatial": {
            "en": "gcregions",
            "fr": "gcregions"
        },
        "service": {
            "en": "AAFC_AgriSource",
            "fr": "AAC_AgriSource"
        },
        "accessRights": {
            "en": "3",
            "fr": "3"
        }
    },
    "body": {
        "en": "<br>\n<br>\n<p>I\u2019m happy to report that as of\u00a0December 6, AAFC\u2019s Government of Canada Workplace Charitable Campaign (<abbr title=\"Government of Canada Workplace Charitable Campaign\">GCWCC</abbr>) has raised $168,640. Our sincerest thanks go to all of you for the powerful effect you have had on those in need.</p>\n<p>Your generosity supports many people who rely on the services provided by the numerous organizations funded through the <abbr title=\"Government of Canada Workplace Charitable Campaign\">GCWCC</abbr>. The effects are real, and your gifts make a difference in the lives of many.</p>\n<p><strong>If you haven\u2019t yet had a chance to donate, you can make a donation through ePledge until December 7. </strong>For additional deadlines and tax receipting information, see <a rel=\"external\" href=\"https://collab.agr.gc.ca/co/gcwcc-support-ccmtgc/SitePages/NCR%20CAMPAIGN%20-%20About.aspx\">Knowledge Workspace</a>.</p>\n<p>For a glimpse of some of the fun we\u2019ve had in the NCR over the past few months, check out the photo gallery on <a rel=\"external\" href=\"https://collab.agr.gc.ca/co/gcwcc-support-ccmtgc/SitePages/Photo%20Gallery.aspx\">the <abbr title=\"Government of Canada Workplace Charitable Campaign\">GCWCC</abbr> Knowledge Workspace page</a>.</p>\n<p>Thank you to everyone who dedicated so much time and effort to the campaign. As volunteers, canvassers, event organizers, and participants, you have all helped to make a difference in our communities.</p>\n<p><img src=\"https://intranet.agr.gc.ca/resources/prod/news/images/GCWCC12018-EN.png\" class=\"center-block\"></p>\n\n\t\t",
        "fr": "<br>\n<br>\n<p>Je suis heureuse de signaler qu\u2019en date du\u00a06 d\u00e9cembre, AAC a recueilli 168 640 $ pour la Campagne de charit\u00e9 en milieu de travail du gouvernement du Canada (<abbr title=\"Campagne de charit\u00e9 en milieu de travail du gouvernement du Canada\">CCMTGC</abbr>). Nous vous remercions tous et toutes sinc\u00e8rement de votre contribution inestimable pour les personnes dans le besoin.</p>\n<p>Gr\u00e2ce \u00e0 votre g\u00e9n\u00e9rosit\u00e9, de nombreuses\u00a0personnes pourront compter sur les services des innombrables organismes financ\u00e9s par la <abbr title=\"Campagne de charit\u00e9 en milieu de travail du gouvernement du Canada\">CCMTGC</abbr>. Les r\u00e9percussions sont r\u00e9elles et vos dons changent des vies.</p>\n<p>\n<strong>Si vous n'avez pas encore eu la chance de faire un don, vous pouvez le faire au moyen du\u00a0Don en ligne jusqu\u2019au 7 d\u00e9cembre</strong>. Pour conna\u00eetre les autres dates butoirs et obtenir des renseignements au sujet des re\u00e7us \u00e0 des fins fiscales, veuillez consulter la page de <a rel=\"external\" href=\"https://collab.agr.gc.ca/co/gcwcc-support-ccmtgc/SitePages/NCR%20CAMPAIGN%20-%20About.aspx\">la <abbr title=\"Campagne de charit\u00e9 en milieu de travail du gouvernement du Canada\">CCMTGC</abbr> dans l\u2019Espace de travail du savoir</a>.</p>\n<p>Pour avoir un aper\u00e7u du plaisir que nous avons eu dans la RCN au cours des derniers mois, visitez la galerie de photos sur la page <a href=\"https://collab.agr.gc.ca/co/gcwcc-support-ccmtgc/SitePages/Photo%20Gallery.aspx\">de la <abbr title=\"Campagne de charit\u00e9 en milieu de travail du gouvernement du Canada\">CCMTGC</abbr> dans l'Espace de travail du savoir</a>.</p>\n<p>Merci \u00e0 tous ceux qui ont consacr\u00e9 temps et efforts \u00e0 la campagne. En tant que b\u00e9n\u00e9voles, solliciteurs, organisateurs d\u2019activit\u00e9s et participants, vous avez contribu\u00e9 au succ\u00e8s de la campagne de cette ann\u00e9e.</p>\n<p><img src=\"https://intranet.agr.gc.ca/resources/prod/news/images/GCWCC12018-FR.png\" class=\"center-block\"></p>\n<p>\u00a0</p>\n\t\t"
    },
    "breadcrumb": {
        "en": "NCR - GCWCC - Wrap-Up and Final Chance to Donate!",
        "fr": "RCN - CCMTGC - Bilan et derni\u00e8re chance de faire un don!"
    },
    "news": {
        "date_posted": {
            "en": "2018-12-06",
            "fr": "2018-12-06"
        },
        "to": {
            "en": "NCR only",
            "fr": "RCN seulement"
        },
        "by": {
            "en": "Christine Walker, AAFC GCWCC Champion in the NCR",
            "fr": "Christine Walker, championne de la CCMTGC \u00e0 AAC dans la RCN"
        }
    }
}