{
    "dcr_id": "1544618763610",
    "lang": "en",
    "title": {
        "en": "Pay Schedule for the Holiday Period",
        "fr": "Calendrier de la paye pour la p\u00e9riode des F\u00eates"
    },
    "modified": "2018-12-13 00:00:00.0",
    "issued": "2018-12-13 00:00:00.0",
    "type_name": "intra-intra/news-nouv",
    "node_id": "1279030006975",
    "layout_name": null,
    "dc_date_created": "2018-12-12",
    "breadcrumb_label": "",
    "meta": {
        "issued": {
            "en": "2018-12-13",
            "fr": "2018-12-13"
        },
        "modified": {
            "en": "2018-12-13",
            "fr": "2018-12-13"
        },
        "format": {
            "en": "gcformat",
            "fr": "gcformat"
        },
        "title": {
            "en": "Pay Schedule for the Holiday Period",
            "fr": "Calendrier de la paye pour la p\u00e9riode des F\u00eates"
        },
        "subject": {
            "en": "communications",
            "fr": "communications"
        },
        "description": {
            "en": "Public Services and Procurement Canada would like to provide departments important deadlines associated with pay period 26 (December 26, 2018) given the changes to the pay schedule as a result of the statutory holidays on December 25 and December 26.",
            "fr": "Services publics et Approvisionnement Canada souhaite fournir aux minist\u00e8res des dates limites importantes associ\u00e9es \u00e0 la p\u00e9riode de paye 26 (26 d\u00e9cembre 2018) \u00e9tant donn\u00e9 les changements apport\u00e9s au calendrier de paye en raison des jours f\u00e9ri\u00e9s des 25 et 26 d\u00e9cembre."
        },
        "language": {
            "en": "eng",
            "fr": "fra"
        },
        "audience": {
            "en": "gcaudience",
            "fr": "gcaudience"
        },
        "creator": {
            "en": "Agriculture and Agri-Food Canada",
            "fr": "Agriculture et Agroalimentaire Canada"
        },
        "spatial": {
            "en": "gcregions",
            "fr": "gcregions"
        },
        "service": {
            "en": "AAFC_AgriSource",
            "fr": "AAC_AgriSource"
        },
        "accessRights": {
            "en": "3",
            "fr": "3"
        }
    },
    "body": {
        "en": "<br>\n<br>\n<p>Public Services and Procurement Canada (<abbr title=\"Public Services and Procurement Canada\">PSPC</abbr>) would like to provide departments important deadlines associated with pay period 26 (December 26, 2018) given the changes to the pay schedule as a result of the statutory holidays on December 25 and December 26.</p>\n<p>To ensure access to resources and systems, a smooth post-pay process and to guarantee that the existing remittance schedule is met, <abbr title=\"Public Services and Procurement Canada\">PSPC</abbr> is changing the pay schedule for the holiday period by shifting the established pay runs.</p>\n<p>\nEmployees: Enter time and labour for hours worked on December 11 and 12 <br><strong>Deadline \u2013 Thursday, December 13, 8:30 p.m. (ET)</strong></p>\n<p>Section 34 approvers: Approve an employee\u2019s time and labour entries for December 11 and 12<br><strong>Deadline<strong> \u2013</strong> <strong>Friday, December 14, 2:00 p.m. (ET)</strong></strong>\n</p>\n<p>Section 33 authorizers: Authorize an employee\u2019s time and labour entries for December 11 and 12<br><strong>Deadline <strong>\u2013 Friday, December 14,\u00a0 9:00 p.m. (ET)</strong></strong></p>\n<h2><strong>Schedule for entering transactions \u2013 Payments to appear on the January 9, 2019 pay stub</strong><strong> </strong></h2>\n<p>Employees: Enter time and labour transactions into Phoenix Employee Self Service<br><strong>Deadline<strong> \u2013 Thursday, December 27,\u00a08:30 p.m. (ET)</strong></strong>\n</p>\n<p>Section 34 approvers: Enter time and labour transactions into Phoenix Manager Self Service<strong><br>Deadline \u2013 Friday, December 28,\u00a02:00 p.m. (ET)</strong></p>\n<p>\nSection 33 authorizers: Authorize time and labour transactions in Phoenix<strong><br>Deadline \u2013 <strong>Friday, December 28,\u00a09:00 p.m. (ET)</strong></strong></p>\n<p>In addition to the information provided above, refer to the <a rel=\"external\" href=\"http://gcintranet.tpsgc-pwgsc.gc.ca/gc/rem/calendrier-schedule/index-eng.html\">Pay Processing Schedules</a> for December 2018 exceptions and special notes for clients.</p>\n<p><img src=\"https://intranet.agr.gc.ca/resources/prod/news/images/pheonix2-eng.png\" class=\"center-block\"></p>\n\n\t\t",
        "fr": "<br>\n<br>\n<p>Services publics et Approvisionnement Canada (<abbr title=\"Services publics et Approvisionnement Canada\">SPAC</abbr>) souhaite fournir aux minist\u00e8res des dates limites importantes associ\u00e9es \u00e0 la p\u00e9riode de paye 26 (26 d\u00e9cembre 2018) \u00e9tant donn\u00e9 les changements apport\u00e9s au calendrier de paye en raison des jours f\u00e9ri\u00e9s des 25 et 26 d\u00e9cembre.</p>\n<p>Pour veiller \u00e0 la disponibilit\u00e9 des ressources et des syst\u00e8mes, au bon d\u00e9roulement du processus post\u00e9rieur \u00e0 la paye et au respect du calendrier de versements existant, <abbr title=\"Services publics et Approvisionnement Canada\">SPAC</abbr> modifie le calendrier de la paye pour la p\u00e9riode des F\u00eates en changeant les dates des passages de paye \u00e9tablis.</p>\n<p>Employ\u00e9s : Saisir les entr\u00e9es de temps pour\u00a0les 11 et 12 d\u00e9cembre <br><strong>\u00c9ch\u00e9ance - Jeudi 13 d\u00e9cembre, 20 h 30 (HE)</strong></p>\n<p>\nApprobateurs (article 34) : Approuver les entr\u00e9es de temps de l\u2019employ\u00e9 pour les 11 et 12 d\u00e9cembre<strong><br><strong>\u00c9ch\u00e9ance - </strong><strong>Vendredi 14 d\u00e9cembre, 14 h (HE)</strong></strong></p>\n<p>\nApprobateurs (article 33) : Autoriser les entr\u00e9es de temps\u00a0de l\u2019employ\u00e9 pour les 11 et 12 d\u00e9cembre\u00a0<strong> <br><strong>\u00c9ch\u00e9ance -\u00a0<strong>Vendredi</strong></strong><strong> 14 d\u00e9cembre, 21 h (HE)</strong></strong></p>\n<h2><strong>Calendrier pour l\u2019entr\u00e9e des mouvements \u2013 Les paiements figureront sur l\u2019\u00e9tat des gains du 9 janvier 2019</strong></h2>\n<p>\nEmploy\u00e9s : Entrer les mouvements dans le module Gestion Temps du Libre-service pour les employ\u00e9s de Ph\u00e9nix<strong><br><strong>\u00c9ch\u00e9ance - </strong><strong>Jeudi 27 d\u00e9cembre, 20 h 30 (HE)</strong></strong></p>\n<p>\nGestionnaires (article 34) : Entrer les mouvements dans le module Gestion Temps du Libre-service pour les gestionnaires de Ph\u00e9nix <br><strong><strong>\u00c9ch\u00e9ance - </strong><strong>Vendredi 28 d\u00e9cembre, 14 h (HE)</strong></strong></p>\n<p>\nApprobateurs (article 33) : Autoriser les mouvements dans le module Gestion Temps de Ph\u00e9nix<strong><br><strong>\u00c9ch\u00e9ance - </strong><strong>Vendredi 28 d\u00e9cembre, 21 h (HE)</strong></strong></p>\n<p>En plus des renseignements fournis ci-dessus, veuillez consulter les <a rel=\"external\" href=\"http://gcintranet.tpsgc-pwgsc.gc.ca/gc/rem/calendrier-schedule/index-fra.html\">calendriers de traitement de la paye</a> afin de prendre connaissance des exceptions pour le mois de d\u00e9cembre 2018 et des notes sp\u00e9ciales aux clients.</p>\n<p><img src=\"https://intranet.agr.gc.ca/resources/prod/news/images/pheonix2-fra.png\" class=\"center-block\" alt=\"\"></p>\n\t\t"
    },
    "breadcrumb": {
        "en": "Pay Schedule for the Holiday Period",
        "fr": "Calendrier de la paye pour la p\u00e9riode des F\u00eates"
    },
    "news": {
        "date_posted": {
            "en": "2018-12-13",
            "fr": "2018-12-13"
        },
        "to": {
            "en": "All staff",
            "fr": "Tous les employ\u00e9s"
        },
        "by": {
            "en": "Public Services and Procurement Canada",
            "fr": "Services publics et Approvisionnement Canada"
        }
    }
}