{
    "dcr_id": "1544813506890",
    "lang": "en",
    "title": {
        "en": "Reminder - Share Your Vision of an Accessible and Inclusive Public Service",
        "fr": "Rappel - Partagez votre vision d'une fonction publique accessible et inclusive"
    },
    "modified": "2019-01-23 00:00:00.0",
    "issued": "2018-12-20 00:00:00.0",
    "type_name": "intra-intra/news-nouv",
    "node_id": "1279030006975",
    "layout_name": null,
    "dc_date_created": "2018-12-17",
    "breadcrumb_label": "",
    "meta": {
        "issued": {
            "en": "2018-12-20",
            "fr": "2018-12-20"
        },
        "modified": {
            "en": "2019-01-23",
            "fr": "2019-01-09"
        },
        "format": {
            "en": "gcformat",
            "fr": "gcformat"
        },
        "title": {
            "en": "Reminder - Share Your Vision of an Accessible and Inclusive Public Service",
            "fr": "Rappel - Partagez votre vision d'une fonction publique accessible et inclusive"
        },
        "subject": {
            "en": "communications",
            "fr": "communications"
        },
        "description": {
            "en": "The Persons with Disabilities Network is pleased to invite you to complete a survey designed by the Office of Public Service Accessibility to help inform the development of a potential accessibility strategy across the public service.",
            "fr": "Le R\u00e9seau des personnes handicap\u00e9es vous invite \u00e0 r\u00e9pondre \u00e0 un sondage con\u00e7u par le Bureau de l'accessibilit\u00e9 au sein de la fonction publique afin d'aider \u00e0 \u00e9clairer l'\u00e9laboration d'une \u00e9ventuelle strat\u00e9gie sur l'accessibilit\u00e9 dans la fonction publique."
        },
        "language": {
            "en": "eng",
            "fr": "fra"
        },
        "audience": {
            "en": "gcaudience",
            "fr": "gcaudience"
        },
        "creator": {
            "en": "Agriculture and Agri-Food Canada",
            "fr": "Agriculture et Agroalimentaire Canada"
        },
        "spatial": {
            "en": "gcregions",
            "fr": "gcregions"
        },
        "service": {
            "en": "AAFC_AgriSource",
            "fr": "AAC_AgriSource"
        },
        "accessRights": {
            "en": "3",
            "fr": "3"
        }
    },
    "body": {
        "en": "<br>\n<br>\n<p>The Persons with Disabilities Network is pleased to invite you to complete a survey designed by the Office of Public Service Accessibility to help inform the development of a potential accessibility strategy across the public service.</p>\n<p>Bill C-81, the Accessible Canada Act, has the potential to dramatically improve quality of life for employees with disabilities and to change the way the Government of Canada conducts its business. The Act also provides an opportunity for the Canadian federal public service to establish itself as the gold standard for accessible and inclusive workplaces. Together, let\u2019s develop an accessibility strategy that meets the needs of all public servants. By making it more accessible and inclusive for the few, we will improve it for everyone. We value your input and we want to hear from you. Don\u2019t miss this opportunity to have your say in the development of the Federal Public Service Accessibility Strategy. Give us your feedback in the format with which you are most comfortable:</p>\n<ul>\n<li>Survey: <a rel=\"external\" href=\"https://questionnaire.simplesurvey.com/f/l/psas-safp?idlang=EN\">Web-based Survey</a> or <a rel=\"external\" href=\"http://www.gcpedia.gc.ca/gcwiki/images/8/8f/Initial_Survey_on_Public_Service_Accessibility_EN.docx\">Text version of survey</a></li>\n<li>Email: <a href=\"mailto:accessibility.accessibilite@tbs-sct.gc.ca\">accessibility.accessibilite@tbs-sct.gc.ca</a></li>\n<li>Twitter: #LetsTalkAccessibility</li>\n<li>Host a discussion with your colleagues: <a rel=\"external\" href=\"http://www.gcpedia.gc.ca/gcwiki/images/a/a7/Public_Service_Accessibility_Engagement_Deck_EN.pptx\">Public Service Accessibility Engagement Deck</a> or <a rel=\"external\" href=\"http://www.gcpedia.gc.ca/gcwiki/images/d/db/Public_Service_Accessibility_Strategy_Word_EN.docx\">Public Service Accessibility Engagement Text Version</a></li>\n<li>GCpedia: <a rel=\"external\" href=\"http://www.gcpedia.gc.ca/wiki/The_Office_of_Public_Service_Accessibility_/_Bureau_de_l%E2%80%99accessibilit%C3%A9_au_sein_de_la_fonction_publique?setlang=en&amp;uselang=en\">Office of Public Service Accessibility</a></li>\n</ul>\n<p><img src=\"https://intranet.agr.gc.ca/resources/prod/news/images/LetsTalkAccessibility-EN.png\" class=\"center-block\"></p>\n\n\t\t",
        "fr": "<br>\n<br>\n<p>Le R\u00e9seau des personnes handicap\u00e9es vous invite \u00e0 r\u00e9pondre \u00e0 un sondage con\u00e7u par le Bureau de l'accessibilit\u00e9 au sein de la fonction publique afin d\u2019aider \u00e0 \u00e9clairer l\u2019\u00e9laboration d\u2019une \u00e9ventuelle strat\u00e9gie sur l\u2019accessibilit\u00e9 dans la fonction publique.</p>\n<p>Le projet de loi C-81, Loi canadienne sur l\u2019accessibilit\u00e9, pourrait am\u00e9liorer consid\u00e9rablement la vie des fonctionnaires f\u00e9d\u00e9raux handicap\u00e9s et changer la fa\u00e7on dont le gouvernement du Canada m\u00e8ne ses activit\u00e9s. La Loi offre \u00e9galement \u00e0 la fonction publique f\u00e9d\u00e9rale canadienne l\u2019occasion de s\u2019\u00e9tablir comme la norme d\u2019excellence en mati\u00e8re de milieux de travail accessibles et inclusifs. Ensemble, \u00e9laborons une strat\u00e9gie d\u2019accessibilit\u00e9 qui r\u00e9pond aux besoins de tous les fonctionnaires. En am\u00e9liorant l\u2019accessibilit\u00e9 et l\u2019inclusion pour quelques personnes, nous am\u00e9liorerons les choses pour tout le monde. Nous accordons de l\u2019importance \u00e0 vos commentaires et nous voulons vous entendre. Ne manquez pas cette occasion de participer \u00e0 l\u2019\u00e9laboration de la Strat\u00e9gie sur l\u2019accessibilit\u00e9 dans la fonction publique f\u00e9d\u00e9rale. Faites-nous part de vos commentaires dans le format qui vous convient le mieux:</p>\n<ul>\n<li>Sondage: <a rel=\"external\" href=\"https://questionnaire.simplesurvey.com/f/l/psas-safp?idlang=FR\">Sondage web</a> ou <a rel=\"external\" href=\"http://www.gcpedia.gc.ca/gcwiki/images/d/d2/Initial_Survey_on_Public_Service_Accessibility_FR.DOCX\">Version textuelle du sondage</a></li>\n<li>Courriel: <a href=\"mailto:accessibility.accessibilite@tbs-sct.gc.ca\">accessibility.accessibilite@tbs-sct.gc.ca</a></li>\n<li>Twitter: #ParlonsAccessibilit\u00e9</li>\n<li>Organisez une discussion avec vos coll\u00e8gues: <a rel=\"external\" href=\"http://www.gcpedia.gc.ca/gcwiki/images/f/f0/Public_Service_Accessibility_Engagement_Deck_FR.pptx\">Document de discussion sur l'accessibilit\u00e9 au sein de la fonction publique</a> ou <a rel=\"external\" href=\"http://www.gcpedia.gc.ca/gcwiki/images/a/aa/Public_Service_Accessibility_Strategy_Word_FR.docx\">Version textuelle de la discussion sur l'accessibilit\u00e9 au sein de la fonction publique</a></li>\n<li>GCpedia: <a rel=\"external\" href=\"http://www.gcpedia.gc.ca/wiki/The_Office_of_Public_Service_Accessibility_/_Bureau_de_l%E2%80%99accessibilit%C3%A9_au_sein_de_la_fonction_publique?setlang=fr&amp;uselang=fr\">Bureau de l'accessibilit\u00e9 au sein de la fonction publique</a></li>\n</ul>\n<p><img src=\"https://intranet.agr.gc.ca/resources/prod/news/images/LetsTalkAccessibility-FR.png\" class=\"center-block\"></p>\n\t\t"
    },
    "breadcrumb": {
        "en": "Reminder - Share Your Vision of an Accessible and Inclusive Public Service",
        "fr": "Rappel - Partagez votre vision d'une fonction publique accessible et inclusive"
    },
    "news": {
        "date_posted": {
            "en": "2018-12-20",
            "fr": "2018-12-20"
        },
        "to": {
            "en": "All staff",
            "fr": "Tous les employ\u00e9s"
        },
        "by": {
            "en": "Persons with Disabilities Network",
            "fr": "R\u00e9seau des personnes handicap\u00e9es"
        }
    }
}