{
    "dcr_id": "1544539074211",
    "lang": "en",
    "title": {
        "en": "Reminder - Survey on Indigenous Awareness Learning Needs",
        "fr": "Rappel - Sondage sur les besoins d'apprentissage concernant la sensibilisation aux cultures autochtones"
    },
    "modified": "2018-12-20 00:00:00.0",
    "issued": "2018-12-11 00:00:00.0",
    "type_name": "intra-intra/news-nouv",
    "node_id": "1279030006975",
    "layout_name": null,
    "dc_date_created": "2018-12-11",
    "breadcrumb_label": "",
    "meta": {
        "issued": {
            "en": "2018-12-11",
            "fr": "2018-12-11"
        },
        "modified": {
            "en": "2018-12-20",
            "fr": "2018-12-20"
        },
        "format": {
            "en": "gcformat",
            "fr": "gcformat"
        },
        "title": {
            "en": "Reminder - Survey on Indigenous Awareness Learning Needs",
            "fr": "Rappel - Sondage sur les besoins d'apprentissage concernant la sensibilisation aux cultures autochtones"
        },
        "subject": {
            "en": "communications",
            "fr": "communications"
        },
        "description": {
            "en": "AAFC is conducting a survey to identify employees' learning needs related to Indigenous cultures and histories, and the unique barriers, opportunities and challenges that exist for Indigenous peoples in agriculture.",
            "fr": "AAC m\u00e8ne un sondage pour d\u00e9terminer les besoins d'apprentissage des employ\u00e9s d'AAC en ce qui concerne les cultures et l'histoire des Autochtones, ainsi que les obstacles, les possibilit\u00e9s et les difficult\u00e9s uniques avec lesquels les peuples autochtones doivent composer en agriculture."
        },
        "language": {
            "en": "eng",
            "fr": "fra"
        },
        "audience": {
            "en": "gcaudience",
            "fr": "gcaudience"
        },
        "creator": {
            "en": "Agriculture and Agri-Food Canada",
            "fr": "Agriculture et Agroalimentaire Canada"
        },
        "spatial": {
            "en": "gcregions",
            "fr": "gcregions"
        },
        "service": {
            "en": "AAFC_AgriSource",
            "fr": "AAC_AgriSource"
        },
        "accessRights": {
            "en": "3",
            "fr": "3"
        }
    },
    "body": {
        "en": "<br>\n<br>\n<p>AAFC is conducting a survey to identify employees\u2019 learning needs related to Indigenous cultures and histories, and the unique barriers, opportunities and challenges that exist for Indigenous peoples in agriculture. The survey is being administered by the Indigenous Support and Awareness Office (<abbr title=\"Indigenous Support and Awareness Office\">ISAO</abbr>) of AAFC.</p>\n<p>The results of the Indigenous Awareness Learning Needs Survey will allow the department to develop tailored learning activities that will form part of AAFC\u2019s new Indigenous Awareness Learning Series. The series will be designed to address <a rel=\"external\" href=\"http://www.trc.ca/websites/trcinstitution/index.php?p=890\">Truth and Reconciliation Commission</a> (<abbr title=\"Truth and Reconciliation Commission\">TRC</abbr>) Call to Action #57, which is related to education for public servants on this important topic.</p>\n<p>We encourage you to <a rel=\"external\" href=\"https://agr.survey-sondage.ca/f/s.aspx?s=abb4b037-28d9-419c-a810-f2cf0040d393\">complete this anonymous online survey</a> before December 24 to ensure your voice is heard and your learning needs will be met.</p>\n<p>The learning series is one of many ways the department is working towards the recommendations of the <abbr title=\"Truth and Reconciliation Commission\">TRC</abbr>. For more information about this initiative, please contact the <abbr title=\"Indigenous Support and Awareness Office\">ISAO</abbr> (Donna DoRego Vital at <a href=\"mailto:donna.doregovital@canada.ca\">donna.doregovital@canada.ca</a> or 613-773-2498).</p>\n<p>Thank you for your participation.</p>\n<p>\u00a0</p>\n<p><strong>Chris Forbes</strong><br>\nDeputy Minister</p>\n<p><strong>Annette Gibbons </strong><br>\nAssociate Deputy Minister</p>\n<p><strong>Indigenous Support and Awareness Office</strong></p>\n\n\t\t",
        "fr": "<br>\n<br>\n<p>AAC m\u00e8ne un sondage pour d\u00e9terminer les besoins d\u2019apprentissage des employ\u00e9s d\u2019AAC en ce qui concerne les cultures et l\u2019histoire des Autochtones, ainsi que les obstacles, les possibilit\u00e9s et les difficult\u00e9s uniques avec lesquels les peuples autochtones doivent composer en agriculture. Le sondage est administr\u00e9 par le Bureau d\u2019aide et de sensibilisation aux Autochtones (<abbr title=\"Bureau d\u2019aide et de sensibilisation aux Autochtones\">BASA</abbr>) d\u2019AAC.</p>\n<p>Les r\u00e9sultats du sondage sur les besoins d\u2019apprentissage sur la sensibilisation aux cultures autochtones permettra au Minist\u00e8re de cr\u00e9er des activit\u00e9s d\u2019apprentissage sur mesure qui feront partie de la nouvelle s\u00e9rie de cours de sensibilisation aux cultures autochtones d\u2019AAC. La s\u00e9rie de cours sera con\u00e7ue en r\u00e9ponse \u00e0 l\u2019appel \u00e0 l\u2019action no 57 de la <a rel=\"external\" href=\"http://www.trc.ca/websites/trcinstitution/index.php?p=891\">Commission de v\u00e9rit\u00e9 et de r\u00e9conciliation</a> (<abbr title=\"Commission de v\u00e9rit\u00e9 et de r\u00e9conciliation\">CVR</abbr>), qui porte sur l\u2019\u00e9ducation des fonctionnaires sur ce sujet important.</p>\n<p>Nous vous invitons \u00e0 <a rel=\"external\" href=\"https://agr.survey-sondage.ca/f/s.aspx?s=abb4b037-28d9-419c-a810-f2cf0040d393\">remplir le sondage en ligne anonyme</a> avant le 24 d\u00e9cembre, pour faire conna\u00eetre votre opinion et vous assurer que vos besoins en apprentissage sont pris en compte.</p>\n<p>La s\u00e9rie d\u2019apprentissage est l\u2019un des nombreux moyens auxquels le Minist\u00e8re a recours pour donner suite aux recommandations de la <abbr title=\"Commission de v\u00e9rit\u00e9 et de r\u00e9conciliation\">CVR</abbr>. Pour obtenir de plus amples renseignements sur cette initiative, veuillez communiquer avec le <abbr title=\"Bureau d\u2019aide et de sensibilisation aux Autochtones\">BASA</abbr> (Donna DoRego Vital par courriel \u00e0 <a href=\"mailto:donna.doregovital@canada.ca\">donna.doregovital@canada.ca</a> ou au 613\u2011773\u20112498).</p>\n<p>Je vous remercie de votre participation.</p>\n<p>\u00a0</p>\n<p><strong>Chris Forbes</strong><br>\nSous-ministre</p>\n<p><strong>Annette Gibbons </strong><br>\nSous-ministre d\u00e9l\u00e9gu\u00e9e</p>\n<p><strong>Bureau d\u2019aide et de sensibilisation aux Autochtones</strong></p>\n\t\t"
    },
    "breadcrumb": {
        "en": "Reminder - Survey on Indigenous Awareness Learning Needs",
        "fr": "Rappel - Sondage sur les besoins d'apprentissage concernant la sensibilisation aux cultures..."
    },
    "news": {
        "date_posted": {
            "en": "2018-12-11",
            "fr": "2018-12-11"
        },
        "to": {
            "en": "All staff",
            "fr": "Tous les employ\u00e9s"
        },
        "by": {
            "en": "Chris Forbes, Deputy Minister, Annette Gibbons, Associate Deputy Minister, and the Indigenous Support and Awareness Office",
            "fr": "Chris Forbes, sous-ministre, Annette Gibbons, sous-ministre d\u00e9l\u00e9gu\u00e9e, et le Bureau d'aide et de sensibilisation aux Autochtones"
        }
    }
}