{
    "dcr_id": "1544012005741",
    "lang": "en",
    "title": {
        "en": "Leading up to the Holiday Season - Key Dates for Pay",
        "fr": "D'ici le temps des F\u00eates - Dates importantes pour la paye"
    },
    "modified": "2018-12-13 00:00:00.0",
    "issued": "2018-12-06 00:00:00.0",
    "type_name": "intra-intra/news-nouv",
    "node_id": "1279030006975",
    "layout_name": null,
    "dc_date_created": "2018-12-05",
    "breadcrumb_label": "",
    "meta": {
        "issued": {
            "en": "2018-12-06",
            "fr": "2018-12-06"
        },
        "modified": {
            "en": "2018-12-13",
            "fr": "2018-12-13"
        },
        "format": {
            "en": "gcformat",
            "fr": "gcformat"
        },
        "title": {
            "en": "Leading up to the Holiday Season - Key Dates for Pay",
            "fr": "D'ici le temps des F\u00eates - Dates importantes pour la paye"
        },
        "subject": {
            "en": "communications",
            "fr": "communications"
        },
        "description": {
            "en": "As we near the holiday season, it is important to remember that deadlines for submitting Phoenix pay transactions change to an earlier time frame.",
            "fr": "\u00c0 l'approche du temps des F\u00eates, il est important de ne pas oublier que les \u00e9ch\u00e9ances pour pr\u00e9senter les mouvements de paye dans Ph\u00e9nix sont devanc\u00e9es."
        },
        "language": {
            "en": "eng",
            "fr": "fra"
        },
        "audience": {
            "en": "gcaudience",
            "fr": "gcaudience"
        },
        "creator": {
            "en": "Agriculture and Agri-Food Canada",
            "fr": "Agriculture et Agroalimentaire Canada"
        },
        "spatial": {
            "en": "gcregions",
            "fr": "gcregions"
        },
        "service": {
            "en": "AAFC_AgriSource",
            "fr": "AAC_AgriSource"
        },
        "accessRights": {
            "en": "3",
            "fr": "3"
        }
    },
    "body": {
        "en": "<br>\n<br>\n<p>As we near the holiday season, it is important to remember that deadlines for submitting Phoenix pay transactions change to an earlier time frame.</p>\n<p>In order to ensure no disruption in pay and ensure all transactions are recorded on your 2018 T4 slips, all employees must submit their requests, such as hours worked,\u00a0leave, acting pay or overtime by December 10, 8:30 p.m. Managers (Section 34) must approve these requests by December 11, 2:00 p.m. and Section 33 Financial Officers are required to approve all requests by December 11, 9:00 p.m.</p>\n<p>If you have questions about these dates, please contact AAFC's Liaison to the Pay Centre (<a href=\"mailto:paytransfer-transfertpaye@agr.gc.ca\">paytransfer-transfertpaye@agr.gc.ca</a>) for assistance.</p>\n<p><img src=\"https://intranet.agr.gc.ca/resources/prod/news/images/pheonix2-eng.png\" class=\"center-block\" alt=\"\"></p>\n\n\t\t",
        "fr": "<br>\n<br>\n<p>\u00c0 l\u2019approche du temps des F\u00eates, il est important de ne pas oublier que les \u00e9ch\u00e9ances pour pr\u00e9senter les mouvements de paye dans Ph\u00e9nix sont devanc\u00e9es.</p>\n<p>\nAfin que la paye ne soit pas perturb\u00e9e et que tous les mouvements soient enregistr\u00e9s sur les relev\u00e9s T4 de 2018, les employ\u00e9s doivent pr\u00e9senter leurs demandes (p. ex. heures travaill\u00e9es, cong\u00e9, r\u00e9mun\u00e9ration d\u2019int\u00e9rim ou heures suppl\u00e9mentaires) d\u2019ici le 10 d\u00e9cembre \u00e0 20 h 30. Les gestionnaires (article 34) doivent approuver ces demandes au plus tard le 11 d\u00e9cembre \u00e0 14 h, tandis que les agents financiers (article 33) doivent les approuver au plus tard le 11 d\u00e9cembre \u00e0 21 h.</p>\n<p>Si vous avez des questions sur ces \u00e9ch\u00e9ances, veuillez communiquer avec l\u2019\u00e9quipe d\u2019AAC qui assure la liaison avec le Centre des services de paye (<a href=\"mailto:paytransfer-transfertpaye@agr.gc.ca\">paytransfer-transfertpaye@agr.gc.ca</a>).</p>\n<p><img src=\"https://intranet.agr.gc.ca/resources/prod/news/images/pheonix2-fra.png\" class=\"center-block\"></p>\n\t\t"
    },
    "breadcrumb": {
        "en": "Leading up to the Holiday Season - Key Dates for Pay",
        "fr": "D'ici le temps des F\u00eates - Dates importantes pour la paye"
    },
    "news": {
        "date_posted": {
            "en": "2018-12-06",
            "fr": "2018-12-06"
        },
        "to": {
            "en": "All staff",
            "fr": "Tous les employ\u00e9s"
        },
        "by": {
            "en": "Corporate Management Branch",
            "fr": "Direction g\u00e9n\u00e9rale de la gestion int\u00e9gr\u00e9e"
        }
    }
}