{
    "dcr_id": "1545168862938",
    "lang": "en",
    "title": {
        "en": "Holiday Message from AAFC's Wellness Co-Champions",
        "fr": "Message du temps des F\u00eates de la part des cochampions du mieux-\u00eatre d'AAC"
    },
    "modified": "2018-12-20 00:00:00.0",
    "issued": "2018-12-20 00:00:00.0",
    "type_name": "intra-intra/news-nouv",
    "node_id": "1279030006975",
    "layout_name": null,
    "dc_date_created": "2018-12-19",
    "breadcrumb_label": "",
    "meta": {
        "issued": {
            "en": "2018-12-20",
            "fr": "2018-12-20"
        },
        "modified": {
            "en": "2018-12-20",
            "fr": "2018-12-20"
        },
        "format": {
            "en": "gcformat",
            "fr": "gcformat"
        },
        "title": {
            "en": "Holiday Message from AAFC's Wellness Co-Champions",
            "fr": "Message du temps des F\u00eates de la part des cochampions du mieux-\u00eatre d'AAC"
        },
        "subject": {
            "en": "communications",
            "fr": "communications"
        },
        "description": {
            "en": "The holiday season is upon us and we hope you have the opportunity to relax and enjoy quality time with your family and friends.",
            "fr": "La p\u00e9riode des F\u00eates arrive \u00e0 grands pas. Nous esp\u00e9rons que vous aurez l'occasion de vous d\u00e9tendre et de passer du temps de qualit\u00e9 avec vos amis et vos proches."
        },
        "language": {
            "en": "eng",
            "fr": "fra"
        },
        "audience": {
            "en": "gcaudience",
            "fr": "gcaudience"
        },
        "creator": {
            "en": "Agriculture and Agri-Food Canada",
            "fr": "Agriculture et Agroalimentaire Canada"
        },
        "spatial": {
            "en": "gcregions",
            "fr": "gcregions"
        },
        "service": {
            "en": "AAFC_AgriSource",
            "fr": "AAC_AgriSource"
        },
        "accessRights": {
            "en": "3",
            "fr": "3"
        }
    },
    "body": {
        "en": "<br>\n<br>\n<p>The holiday season is upon us and we hope you have the opportunity to relax and enjoy quality time with your family and friends.</p>\n<p>While we wish everyone a very happy season, we also know that it can be a stressful time for some. It is important to take care of yourself and also support others who may be dealing with difficult situations. We invite you to read the <a rel=\"external\" href=\"https://collab.agr.gc.ca/co/aafcwe-beaac/SitePages/Tools%20and%20Resources.aspx\">Mental Health Matters newsletter, Holiday 2018 edition</a>. It was created by Competition Bureau employees to discuss some of the reasons the holidays can be difficult and help reduce the impact on mental health during this time - a message that is relevant for all of us as well.</p>\n<p>We wish you and yours a very happy, safe and healthy holiday season.</p>\n<p><img src=\"https://intranet.agr.gc.ca/resources/prod/news/images/HealthyWorkplace.png\" class=\"center-block\"></p>\n\n\t\t",
        "fr": "<br>\n<br>\n<p>La p\u00e9riode des F\u00eates arrive \u00e0 grands pas. Nous esp\u00e9rons que vous aurez l\u2019occasion de vous d\u00e9tendre et de passer du temps de qualit\u00e9 avec vos amis et vos proches.</p>\n<p>\nM\u00eame si nous souhaitons \u00e0 tous de passer de tr\u00e8s joyeuses F\u00eates, nous savons \u00e9galement que cette p\u00e9riode de l\u2019ann\u00e9e peut \u00eatre stressante pour certaines personnes. Il est important de prendre soin de vous et de soutenir les personnes qui pourraient se trouver dans des situations difficiles. Nous vous invitons \u00e0 lire <u><a href=\"https://collab.agr.gc.ca/co/aafcwe-beaac/SitePages/Tools%20and%20Resources.aspx\">l\u2019\u00e9dition des F\u00eates\u00a02018 du bulletin La sant\u00e9 mentale, c\u2019est important</a></u>. Ce bulletin a \u00e9t\u00e9 cr\u00e9\u00e9 par les employ\u00e9s du Bureau de la concurrence pour aborder les raisons pour lesquelles les F\u00eates peuvent \u00eatre une p\u00e9riode difficile pour certains et aider \u00e0 r\u00e9duire les effets n\u00e9gatifs sur la sant\u00e9 mentale\u2009; c\u2019est un message qui nous concerne tous.</p>\n<p>\nNous vous offrons, \u00e0 vous et \u00e0 vos proches, nos meilleurs v\u0153ux de bonheur, de sant\u00e9 et de bien\u2011\u00eatre pour la p\u00e9riode des F\u00eates.</p>\n<p><img src=\"https://intranet.agr.gc.ca/resources/prod/news/images/HealthyWorkplace.png\" class=\"center-block\"></p>\n\t\t"
    },
    "breadcrumb": {
        "en": "Holiday Message from AAFC's Wellness Co-Champions",
        "fr": "Message du temps des F\u00eates de la part des cochampions du mieux-\u00eatre d'AAC"
    },
    "news": {
        "date_posted": {
            "en": "2018-12-20",
            "fr": "2018-12-20"
        },
        "to": {
            "en": "All staff",
            "fr": "Tous les employ\u00e9s"
        },
        "by": {
            "en": "Tom Rosser and Catherine Keir, AAFC Wellness Co-Champions",
            "fr": "Tom Rosser et Catherine Keir, cochampions du mieux-\u00eatre \u00e0 AAC"
        }
    }
}