{
    "dcr_id": "1546609333830",
    "lang": "en",
    "title": {
        "en": "Public Service Alliance of Canada - Changes to Membership Dues - January 2019",
        "fr": "Alliance de la fonction publique du Canada - Rajustement des cotisations syndicales - janvier 2019"
    },
    "modified": "2019-01-10 00:00:00.0",
    "issued": "2019-01-10 00:00:00.0",
    "type_name": "intra-intra/news-nouv",
    "node_id": "1279030006975",
    "layout_name": null,
    "dc_date_created": "2019-01-04",
    "breadcrumb_label": "",
    "meta": {
        "issued": {
            "en": "2019-01-10",
            "fr": "2019-01-10"
        },
        "modified": {
            "en": "2019-01-10",
            "fr": "2019-01-10"
        },
        "format": {
            "en": "gcformat",
            "fr": "gcformat"
        },
        "title": {
            "en": "Public Service Alliance of Canada - Changes to Membership Dues - January 2019",
            "fr": "Alliance de la fonction publique du Canada - Rajustement des cotisations syndicales - janvier 2019"
        },
        "subject": {
            "en": "communications",
            "fr": "communications"
        },
        "description": {
            "en": "The Public Service Alliance of Canada has informed us of changes in monthly membership dues, effective January 1, 2019.",
            "fr": "L'Alliance de la fonction publique du Canada nous a signal\u00e9 que les cotisations syndicales mensuelles avaient \u00e9t\u00e9 rajust\u00e9es \u00e0 compter du 1<sup>er</sup> janvier 2019."
        },
        "language": {
            "en": "eng",
            "fr": "fra"
        },
        "audience": {
            "en": "gcaudience",
            "fr": "gcaudience"
        },
        "creator": {
            "en": "Agriculture and Agri-Food Canada",
            "fr": "Agriculture et Agroalimentaire Canada"
        },
        "spatial": {
            "en": "gcregions",
            "fr": "gcregions"
        },
        "service": {
            "en": "AAFC_AgriSource",
            "fr": "AAC_AgriSource"
        },
        "accessRights": {
            "en": "3",
            "fr": "3"
        }
    },
    "body": {
        "en": "<br>\n<br>\n<p>The Public Service Alliance of Canada (<abbr title=\"Public Service Alliance of Canada\">PSAC</abbr>) has informed us of changes in monthly membership dues, effective January 1, 2019.</p>\n<p>The <abbr title=\"Public Service Alliance of Canada\">PSAC</abbr> recognizes that employees will have questions specific to their adjustments. Please direct your employees to the <a rel=\"external\" href=\"http://psacunion.ca/uniondues\"><abbr title=\"Public Service Alliance of Canada\">PSAC</abbr> website</a>.</p>\n\n\t\t",
        "fr": "<br>\n<br>\n<p>L\u2019Alliance de la fonction publique du Canada (<abbr title=\"Alliance de la fonction publique du Canada\">AFPC</abbr>) nous a signal\u00e9 que les cotisations syndicales mensuelles avaient \u00e9t\u00e9 rajust\u00e9es \u00e0 compter du 1<sup>er</sup> janvier 2019.</p>\n<p>L\u2019<abbr title=\"Alliance de la fonction publique du Canada\">AFPC</abbr> reconna\u00eet que les employ\u00e9s auront des questions \u00e0 poser au sujet du rajustement de leurs cotisations syndicales. Veuillez diriger vos employ\u00e9s vers le <a rel=\"external\" href=\"http://syndicatafpc.ca/uniondues?_ga=2.12658366.862656808.1546540826-2020773675.1546540826\">site Web de l'<abbr title=\"Alliance de la fonction publique du Canada\">AFPC</abbr></a>.</p>\n\t\t"
    },
    "breadcrumb": {
        "en": "Public Service Alliance of Canada - Changes to Membership Dues - January 2019",
        "fr": "Alliance de la fonction publique du Canada - Rajustement des cotisations syndicales - janvier 2019"
    },
    "news": {
        "date_posted": {
            "en": "2019-01-10",
            "fr": "2019-01-10"
        },
        "to": {
            "en": "All staff",
            "fr": "Tous les employ\u00e9s"
        },
        "by": {
            "en": "Corporate Management Branch",
            "fr": "Direction g\u00e9n\u00e9rale de la gestion int\u00e9gr\u00e9e"
        }
    }
}