{
    "dcr_id": "1547649801849",
    "lang": "en",
    "title": {
        "en": "Canada's Agriculture Day 2019: Canadian Centre for Food Integrity 2018 Public Trust Research - Key Findings",
        "fr": "Jour de l'agriculture canadienne 2019 : \u00c9tude de 2018 du Centre canadien pour l'int\u00e9grit\u00e9 des aliments sur la confiance du public - principales conclusions"
    },
    "modified": "2019-02-07 00:00:00.0",
    "issued": "2019-01-17 00:00:00.0",
    "type_name": "intra-intra/news-nouv",
    "node_id": "1279030006975",
    "layout_name": null,
    "dc_date_created": "2019-01-16",
    "breadcrumb_label": "Canada's Agriculture Day 2019: Canadian Centre for Food Integrity 2018 Public Trust Research...",
    "meta": {
        "issued": {
            "en": "2019-01-17",
            "fr": "2019-01-17"
        },
        "modified": {
            "en": "2019-02-07",
            "fr": "2019-02-07"
        },
        "format": {
            "en": "gcformat",
            "fr": "gcformat"
        },
        "title": {
            "en": "Canada's Agriculture Day 2019: Canadian Centre for Food Integrity 2018 Public Trust Research - Key Findings",
            "fr": "Jour de l'agriculture canadienne 2019 : \u00c9tude de 2018 du Centre canadien pour l'int\u00e9grit\u00e9 des aliments sur la confiance du public - principales conclusions"
        },
        "subject": {
            "en": "communications",
            "fr": "communications"
        },
        "description": {
            "en": "Join the Deputy Minister Chris Forbes for a presentation by Ashley Bruner, Research Coordinator, Canadian Centre for Food Integrity, on recent key findings in public trust research.",
            "fr": "Joignez-vous au sous-ministre Chris Forbes pour assister \u00e0 une pr\u00e9sentation d'Ashley Bruner, coordonnatrice de la recherche au Centre canadien pour l'int\u00e9grit\u00e9 des aliments sur la confiance du public, au sujet des principales conclusions d'une \u00e9tude r\u00e9cente sur la confiance du public."
        },
        "language": {
            "en": "eng",
            "fr": "fra"
        },
        "audience": {
            "en": "gcaudience",
            "fr": "gcaudience"
        },
        "creator": {
            "en": "Agriculture and Agri-Food Canada",
            "fr": "Agriculture et Agroalimentaire Canada"
        },
        "spatial": {
            "en": "gcregions",
            "fr": "gcregions"
        },
        "service": {
            "en": "AAFC_AgriSource",
            "fr": "AAC_AgriSource"
        },
        "accessRights": {
            "en": "3",
            "fr": "3"
        }
    },
    "body": {
        "en": "<br>\n<br>\n<p>Join the Deputy Minister Chris Forbes for a presentation by Ashley Bruner, Research Coordinator, Canadian Centre for Food Integrity (<abbr title=\"Canadian Centre for Food Integrity \">CCFI</abbr>), on recent key findings in public trust research.</p>\n<h2><strong>Event information</strong></h2>\n<p><strong>\nDate: </strong>Monday, February 11<br>\n<strong>Time: </strong>2:00 to 3:00 p.m. (ET)<br>\n<strong>Location: </strong>NHCAP (T3-1-351)</p>\n<p><b>By videoconference*: </b>6811146032 (no PIN required)</p>\n<p>\n<b>By teleconference: </b></p>\n<ul>\n<li>\nLive bilingual audio (no translation): 613-954-9003 or 1-866-206-0153\u00a0 ID: 3880152#</li>\n<li>English audio (French dialogue will be translated into English): 613-954-9003 or 1-866-206-0153\u00a0 ID: 9705178#</li>\n<li>French audio (English dialogue will be translated into French): 613-960-7518 or 1-866-805-7923\u00a0 ID: 9162293#</li>\n</ul>\n<p>*<b>Note:</b> To access simultaneous interpretation by videoconference, please:</p>\n<ol>\n<li>\nSign into the videoconference.</li>\n<li>Select \"mute microphone\" on the videoconference remote.</li>\n<li>Lower the volume completely on the TV.</li>\n<li>Follow the instructions above to connect the telephone to the teleconference in the language of your choice.</li>\n</ol>\n<p>If you experience difficulties in connecting, please contact the IT Centre TI\u00a0at 1-855-545-4411 or <u><a href=\"mailto:service@itcentreti.collaboration.gc.ca\">service@itcentreti.collaboration.gc.ca</a></u>.</p>\n<p>\nPlease note that to avoid accidental noise, all lines will be muted.</p>\n<p>\n<strong>Question and answers: </strong>If you would like to ask the presenter a question, please email\u00a0<a href=\"mailto:alec.nicholls@canada.ca\">alec.nicholls@canada.ca</a>\u00a0as it will not be possible to\u00a0accept any over videoconference or telephone.\n</p>\n<h2>\n<strong>Speaker biography</strong></h2>\n<p><img src=\"https://intranet.agr.gc.ca/resources/prod/news/images/AgDayAshleyBruner1.png\" class=\"pull-left mrgn-rght-md\" alt=\"Ashley Bruner\">After completing a Masters of Public Policy at Simon Fraser University, Ashley joined one of Canada\u2019s largest market research companies - Ipsos. For the past six years, most recently as a senior research manager in public affairs, she has worked on hundreds of research projects for clients in the public, private, and non-profit sectors. Ashley has experience with a wide range of research methodologies ranging from online, telephone, focus groups, in-depth interviews, and town halls.</p>\n<p>Ashley understands that every single data point represents a real person\u2019s opinions and views. With this, she is excited to leverage <abbr title=\"Canadian Centre for Food Integrity \">CCFI</abbr> research findings into actionable insights to help Canada\u2019s food system stakeholders better understand and meet the needs of the public they serve.</p>\n<p>\n<img src=\"https://intranet.agr.gc.ca/resources/prod/news/images/AgDay-EN2019.png\" class=\"center-block\" alt=\"\"></p>\n\n\t\t",
        "fr": "<br>\n<br>\n<p>\nJoignez-vous au sous-ministre Chris Forbes pour assister \u00e0 une pr\u00e9sentation d\u2019Ashley Bruner, coordonnatrice de la recherche au Centre canadien pour l\u2019int\u00e9grit\u00e9 des aliments (<abbr title=\"Centre canadien pour l\u2019int\u00e9grit\u00e9 des aliments \">CCIA</abbr>) sur la confiance du public, au sujet des principales conclusions d\u2019une \u00e9tude r\u00e9cente sur la confiance du public.</p>\n<h2><strong>Renseignements sur l\u2019\u00e9v\u00e9nement</strong></h2>\n<p>\n<strong>\nDate : </strong>Lundi 11 f\u00e9vrier<br><strong>Heure : </strong>14 h \u00e0 15 h (HE)<br><strong>Lieu : </strong>CACPA (T3-1-351)</p>\n<p>\n<b>Par vid\u00e9oconf\u00e9rence*\u00a0: </b>6811146032 (aucun NIP requis)</p>\n<p>\n<b>Par t\u00e9l\u00e9conf\u00e9rence :</b><b>\u00a0</b></p>\n<ul>\n<li>\nPr\u00e9sentation bilingue (aucune traduction) : 613-954-9003 ou 1-866-206-0153, code : 3880152#</li>\n<li>Pr\u00e9sentation en anglais (les conversations en fran\u00e7ais seront traduites en anglais) : 613-954-9003 ou 1-866-206-0153, code : 9705178#</li>\n<li>Pr\u00e9sentation en fran\u00e7ais (les conversations en anglais seront traduites en fran\u00e7ais) : 613-960-7518 ou 1-866-805-7923, code : 9162293#</li>\n</ul>\n<p>\n*<b>Remarque :</b> Pour avoir acc\u00e8s \u00e0 l'interpr\u00e9tation simultan\u00e9e par vid\u00e9oconf\u00e9rence : </p>\n<ol>\n<li>\nConnectez-vous \u00e0 la vid\u00e9oconf\u00e9rence.</li>\n<li>S\u00e9lectionnez \u00ab mute microphone \u00bb (d\u00e9sactiver le micro) sur la t\u00e9l\u00e9commande pour vid\u00e9oconf\u00e9rence.</li>\n<li>Baissez compl\u00e8tement le volume du t\u00e9l\u00e9viseur.</li>\n<li>Suivez les directives ci-dessus pour\u00a0connecter le t\u00e9l\u00e9phone \u00e0 la t\u00e9l\u00e9conf\u00e9rence dans la langue de votre choix.</li>\n</ol>\n<p>\nSi vous \u00e9prouvez des difficult\u00e9s, veuillez communiquer avec le IT Centre TI au 1-855-545-4411 ou par courriel \u00e0 <u><a href=\"mailto:service@itcentreti.collaboration.gc.ca\">service@itcentreti.collaboration.gc.ca</a>.</u></p>\n<p>\nVeuillez noter que pour \u00e9viter les bruits accidentels, toutes les lignes seront mises en sourdine.</p>\n<p>\n<b>Questions et r\u00e9ponses : </b>Si vous d\u00e9sirez poser une question \u00e0 la conf\u00e9renci\u00e8re, veuillez l\u2019envoyer par courriel \u00e0 <a href=\"mailto:alec.nicholls@canada.ca\">alec.nicholls@canada.ca</a>, car il ne sera pas possible d\u2019y r\u00e9pondre par vid\u00e9oconf\u00e9rence ou au t\u00e9l\u00e9phone.</p>\n<h2>\n<strong>Notice biographique de la conf\u00e9renci\u00e8re</strong></h2>\n<p>\n<img src=\"https://intranet.agr.gc.ca/resources/prod/news/images/AgDayAshleyBruner1.png\" class=\"pull-left mrgn-rght-md\" alt=\"Ashley Bruner\">Apr\u00e8s avoir obtenu une ma\u00eetrise en politiques publiques de l\u2019Universit\u00e9 Simon Fraser, Ashley est entr\u00e9e au service d\u2019Ipsos, une des plus grandes entreprises du Canada sp\u00e9cialis\u00e9es dans les \u00e9tudes de march\u00e9. Au cours des six derni\u00e8res ann\u00e9es, plus r\u00e9cemment en tant que gestionnaire principale de la recherche en affaires publiques, elle a travaill\u00e9 \u00e0 des centaines de projets de recherche pour des clients des secteurs public, priv\u00e9 et sans but lucratif. Ashley a l\u2019exp\u00e9rience d\u2019un large \u00e9ventail de m\u00e9thodes de recherche, comme les sondages en ligne et au t\u00e9l\u00e9phone, les groupes de r\u00e9flexion, les entrevues en profondeur et les forums de discussion.</p>\n<p>Ashley comprend que chaque point de donn\u00e9es simple repr\u00e9sente les opinions et les points de vue d\u2019une personne r\u00e9elle. Ainsi, elle a h\u00e2te de convertir les conclusions de l\u2019\u00e9tude du CCIA en id\u00e9es r\u00e9alisables pour aider les intervenants du syst\u00e8me alimentaire du Canada \u00e0 mieux comprendre et satisfaire les besoins du public qu\u2019ils servent.</p>\n<p>\n<img src=\"https://intranet.agr.gc.ca/resources/prod/news/images/AgDay-FR2019.png\" class=\"center-block\"></p>\n\t\t"
    },
    "breadcrumb": {
        "en": "Canada's Agriculture Day 2019: Canadian Centre for Food Integrity 2018 Public Trust Research...",
        "fr": "Jour de l'agriculture canadienne 2019 : \u00c9tude de 2018 du Centre canadien pour..."
    },
    "news": {
        "date_posted": {
            "en": "2019-01-17",
            "fr": "2019-01-17"
        },
        "to": {
            "en": "All staff",
            "fr": "Tous les employ\u00e9s"
        },
        "by": {
            "en": "Public Affairs Branch",
            "fr": "Direction g\u00e9n\u00e9rale des affaires publiques"
        }
    }
}