{
    "dcr_id": "1547151222153",
    "lang": "en",
    "title": {
        "en": "The End of the Road: Windows and Email Projects",
        "fr": "La fin du parcours : projets li\u00e9s \u00e0 Windows et au courrier \u00e9lectronique"
    },
    "modified": "2019-01-16 00:00:00.0",
    "issued": "2019-01-16 00:00:00.0",
    "type_name": "intra-intra/news-nouv",
    "node_id": "1279030006975",
    "layout_name": null,
    "dc_date_created": "2019-01-11",
    "breadcrumb_label": "",
    "meta": {
        "issued": {
            "en": "2019-01-16",
            "fr": "2019-01-16"
        },
        "modified": {
            "en": "2019-01-16",
            "fr": "2019-01-16"
        },
        "format": {
            "en": "gcformat",
            "fr": "gcformat"
        },
        "title": {
            "en": "The End of the Road: Windows and Email Projects",
            "fr": "La fin du parcours : projets li\u00e9s \u00e0 Windows et au courrier \u00e9lectronique"
        },
        "subject": {
            "en": "communications",
            "fr": "communications"
        },
        "description": {
            "en": "After a few busy months, both the Email Transformation Initiative and Windows and Office upgrades have been successfully completed.",
            "fr": "Apr\u00e8s quelques mois f\u00e9briles, l'Initiative de transformation des services de courriel et les mises \u00e0 niveau de Windows et d'Office ont \u00e9t\u00e9 r\u00e9alis\u00e9es avec succ\u00e8s."
        },
        "language": {
            "en": "eng",
            "fr": "fra"
        },
        "audience": {
            "en": "gcaudience",
            "fr": "gcaudience"
        },
        "creator": {
            "en": "Agriculture and Agri-Food Canada",
            "fr": "Agriculture et Agroalimentaire Canada"
        },
        "spatial": {
            "en": "gcregions",
            "fr": "gcregions"
        },
        "service": {
            "en": "AAFC_AgriSource",
            "fr": "AAC_AgriSource"
        },
        "accessRights": {
            "en": "3",
            "fr": "3"
        }
    },
    "body": {
        "en": "<br>\n<br>\n<p>After a few busy months, both the Email Transformation Initiative and Windows and Office upgrades have been successfully completed.</p>\n<p>Overall, we:</p>\n<ul>\n<li>Migrated 8,500 mailboxes to the @canada.ca email address</li>\n<li>Upgraded 8,000 desktops to Windows 10 and Microsoft Office 2016</li>\n<li>Updated 3,000 workstations</li>\n</ul>\n<p>Our thanks go to you for your patience as we brought many changes to your desktop this year. We know there were some challenges along the way, but most employees experienced limited impact. We kept you up-to-date on developments through <em>news@work</em> articles, personal emails and your Branch representatives on our working group.</p>\n<p>As we fold these projects into ongoing operational activities, we have discontinued the generic mailboxes, the IT Centre TI phone menu options and the IT Centre TI portal menu items associated specifically with these projects. Employees needing help can now go to existing IT Centre TI portal service offerings to report:</p>\n<ul>\n<li><a rel=\"external\" href=\"http://assystweb.agr.gc.ca:8080/assystnet/application.jsp#services/205\">Email issues</a></li>\n<li><a rel=\"external\" href=\"http://assystweb.agr.gc.ca:8080/assystnet/application.jsp#serviceOfferings/1313\">Computer (Windows10) issues</a></li>\n</ul>\n<p>Looking forward, changes like these will be coming more frequently. As technology changes more rapidly, the Government of Canada will be adapting and finding new ways of delivering IM/IT services. We will do our part to keep you informed, so please continue to watch for and read <em>news@work</em> articles and emails to ensure you know what to do to prepare.</p>\n\n\t\t",
        "fr": "<br>\n<br>\n<p>Apr\u00e8s quelques mois f\u00e9briles, l\u2019Initiative de transformation des services de courriel et les mises \u00e0 niveau de Windows et d\u2019Office ont \u00e9t\u00e9 r\u00e9alis\u00e9es avec succ\u00e8s.</p>\n<p>Dans l\u2019ensemble, nous avons :</p>\n<ul>\n<li>fait la migration de 8 500 bo\u00eetes aux lettres \u00e0 l\u2019adresse @canada.ca;</li>\n<li>mis \u00e0 niveau 8 000 ordinateurs de bureau \u00e0 Windows 10 et \u00e0 Microsoft Office 2016;</li>\n<li>modernis\u00e9 3 000 postes de travail.</li>\n</ul>\n<p>Nous vous remercions de la patience dont vous avez fait preuve pendant que nous apportions de nombreuses modifications \u00e0 vos ordinateurs de bureau cette ann\u00e9e. Il y a certes eu des d\u00e9fis \u00e0 relever en cours de route, mais les r\u00e9percussions sur les employ\u00e9s ont \u00e9t\u00e9 limit\u00e9es dans la plupart des cas. Nous vous avons tenus au courant de l\u2019avancement des projets au moyen d\u2019articles dans <em>nouvelles@l\u2019ouvrage</em> et de courriels personnels, et par l\u2019entremise des repr\u00e9sentants de vos directions g\u00e9n\u00e9rales au sein de notre groupe de travail.</p>\n<p>En int\u00e9grant ces projets aux activit\u00e9s op\u00e9rationnelles courantes, nous avons abandonn\u00e9 les bo\u00eetes aux lettres g\u00e9n\u00e9riques, les options du menu t\u00e9l\u00e9phonique du IT Centre TI et les \u00e9l\u00e9ments de menu du portail du IT Centre TI associ\u00e9s aux projets en question. Les employ\u00e9s qui ont besoin d\u2019aide peuvent maintenant recourir aux services offerts sur le portail du IT Centre TI pour signaler les\u00a0:</p>\n<ul>\n<li><a href=\"http://assystweb.agr.gc.ca:8080/assystnet/application.jsp#services/205\">Probl\u00e8mes de courriel</a></li>\n<li><a href=\"http://assystweb.agr.gc.ca:8080/assystnet/application.jsp#serviceOfferings/1313\">Probl\u00e8mes d\u2019ordinateur (Windows10)</a></li>\n</ul>\n<p>Dor\u00e9navant, les changements comme ceux-ci arriveront plus fr\u00e9quemment. \u00c9tant donn\u00e9 que la technologie \u00e9volue plus rapidement, le gouvernement du Canada s\u2019adaptera et trouvera de nouveaux modes de prestation des services de GI-TI. Nous veillerons \u00e0 vous tenir au courant. Par cons\u00e9quent, veuillez continuer de surveiller et de lire les articles de <em>nouvelles@l\u2019ouvrage</em> et les courriels pour savoir comment vous pr\u00e9parer.</p>\n\t\t"
    },
    "breadcrumb": {
        "en": "The End of the Road: Windows and Email Projects",
        "fr": "La fin du parcours : projets li\u00e9s \u00e0 Windows et au courrier \u00e9lectronique"
    },
    "news": {
        "date_posted": {
            "en": "2019-01-16",
            "fr": "2019-01-16"
        },
        "to": {
            "en": "All staff",
            "fr": "Tous les employ\u00e9s"
        },
        "by": {
            "en": "Information Systems Branch",
            "fr": "Direction g\u00e9n\u00e9rale des syst\u00e8mes d'information"
        }
    }
}