{
    "dcr_id": "1547572580680",
    "lang": "en",
    "title": {
        "en": "This Week in The Harvest - Courage and Passion: AAFC Scientists Among Women Innovators Profiled at Canadian Museum of Nature",
        "fr": "Au menu de La Moisson cette semaine - Des chercheuses d'AAC parmi les femmes innovatrices en vedette au Mus\u00e9e canadien de la nature"
    },
    "modified": "2019-01-17 00:00:00.0",
    "issued": "2019-01-17 00:00:00.0",
    "type_name": "intra-intra/news-nouv",
    "node_id": "1279030006975",
    "layout_name": null,
    "dc_date_created": "2019-01-15",
    "breadcrumb_label": "This Week in The Harvest - Courage and Passion: AAFC Scientists Among Women Innovators Profiled...",
    "meta": {
        "issued": {
            "en": "2019-01-17",
            "fr": "2019-01-17"
        },
        "modified": {
            "en": "2019-01-17",
            "fr": "2019-01-17"
        },
        "format": {
            "en": "gcformat",
            "fr": "gcformat"
        },
        "title": {
            "en": "This Week in The Harvest - Courage and Passion: AAFC Scientists Among Women Innovators Profiled at Canadian Museum of Nature",
            "fr": "Au menu de La Moisson cette semaine - Des chercheuses d'AAC parmi les femmes innovatrices en vedette au Mus\u00e9e canadien de la nature"
        },
        "subject": {
            "en": "communications",
            "fr": "communications"
        },
        "description": {
            "en": "In case you missed it, here's what's new in The Harvest this week.",
            "fr": "Au cas o\u00f9 vous l'auriez manqu\u00e9, voici le menu que la section La Moisson vous offre cette semaine."
        },
        "language": {
            "en": "eng",
            "fr": "fra"
        },
        "audience": {
            "en": "gcaudience",
            "fr": "gcaudience"
        },
        "creator": {
            "en": "Agriculture and Agri-Food Canada",
            "fr": "Agriculture et Agroalimentaire Canada"
        },
        "spatial": {
            "en": "gcregions",
            "fr": "gcregions"
        },
        "service": {
            "en": "AAFC_AgriSource",
            "fr": "AAC_AgriSource"
        },
        "accessRights": {
            "en": "3",
            "fr": "3"
        }
    },
    "body": {
        "en": "<br>\n<br>\n<p>In case you missed it, here\u2019s what\u2019s new in <a rel=\"external\" href=\"https://collab.agr.gc.ca/apps/harvest-moisson\">The Harvest</a> this week:</p>\n<p><strong>Feature story:</strong> <a rel=\"external\" href=\"https://collab.agr.gc.ca/apps/harvest-moisson\">Courage and Passion: AAFC Scientists Among Women Innovators Profiled at Canadian Museum of Nature</a> \u2013 Women have made vital contributions to science throughout history but, far too often, have not received the recognition they deserve. With AAFC\u2019s help, the Canadian Museum of Nature is working to change this through their exhibit, <em>Courage and Passion: Canadian Women in Natural Sciences.</em></p>\n<p><strong>Quiz</strong><strong>: </strong><a rel=\"external\" href=\"https://collab.agr.gc.ca/apps/harvest-moisson\">Canada\u2019s Department of Agriculture has been making significant contributions to science and innovation since\u2026?</a></p>\n<p><strong>Feature photo:</strong><strong> </strong><a rel=\"external\" href=\"https://collab.agr.gc.ca/apps/harvest-moisson/gallery/Lists/Posts/Post.aspx?ID=269\"> Agassiz RDC Owl</a>, by Martin Fraser, Corporate Management Branch, Agassiz, British Columbia.</p>\n<p><strong>Did you know?</strong> <a rel=\"external\" href=\"https://collab.agr.gc.ca/apps/harvest-moisson/Pages/didyouknow.aspx\">AAFC is partnering with universities to create a process called \"vectoring,\"</a> which sees bumblebees deliver a microbial agent directly to greenhouse plants during pollination to control pests. The biopesticide is harmless to bees, plants and people.</p>\n<p>You can get involved by posting a comment or \u201cliking\u201d an article. You can also check out what your colleagues are liking and saying.</p>\n<p>Should you have story ideas, scenic or artistic agriculture-related photos, or interesting facts, please share them with us by clicking on \u201cContribute\u201d in the top menu bar.</p>\n<p>\n<img src=\"https://intranet.agr.gc.ca/resources/prod/news/images/HarvestMuseumNature.png\" class=\"center-block\" alt=\"Display featuring artifacts from AAFC.\"></p>\n\n\t\t",
        "fr": "<br>\n<br>\n<p>Au cas o\u00f9 vous l\u2019auriez manqu\u00e9, voici le menu que la section <a rel=\"external\" href=\"https://collab.agr.gc.ca/apps/harvest-moisson\">La Moisson</a> vous offre cette semaine :</p>\n<p><strong>Article vedette :</strong> <a rel=\"external\" href=\"https://collab.agr.gc.ca/apps/harvest-moisson\">Courage et passion : Des chercheuses d\u2019AAC parmi les femmes innovatrices en vedette au Mus\u00e9e canadien de la nature</a>\u2013 Les femmes ont apport\u00e9 une contribution essentielle \u00e0 la science tout au long de l\u2019histoire, mais elles ont rarement obtenu la reconnaissance qu\u2019elles m\u00e9ritaient. Avec l\u2019aide d\u2019AAC, le Mus\u00e9e canadien de la nature travaille \u00e0 corriger cette situation au moyen de son exposition intitul\u00e9e <em>Courage et passion : Les femmes en sciences naturelles au Canada.</em></p>\n<p><strong>Jeu-questionnaire : </strong><a rel=\"external\" href=\"https://collab.agr.gc.ca/apps/harvest-moisson\">Le minist\u00e8re de l\u2019Agriculture du Canada contribue \u00e9norm\u00e9ment \u00e0 la science et \u00e0 l\u2019innovation depuis\u2026?</a></p>\n<p><strong>Photo vedette :</strong> <a rel=\"external\" href=\"https://collab.agr.gc.ca/apps/harvest-moisson/gallery/Lists/Posts/Post.aspx?ID=269\">Hibou au CRD d\u2019Agassiz</a><strong>, </strong>par Martin Fraser, Direction g\u00e9n\u00e9rale de la gestion int\u00e9gr\u00e9e, Agassiz (Colombie-Britannique).</p>\n<p><strong>Le saviez-vous?</strong> <a rel=\"external\" href=\"https://collab.agr.gc.ca/apps/harvest-moisson/Pages/didyouknow.aspx\">AAC, en partenariat avec des universit\u00e9s, a mis au point un proc\u00e9d\u00e9 o\u00f9 des bourdons \u00ab vecteurs \u00bb</a> \u00e9pandent un biopesticide directement sur des plantes en serre au moment de la pollinisation pour lutter contre les principaux insectes ravageurs dans les cultures. Le biopesticide n'est pas nuisible pour les abeilles, les v\u00e9g\u00e9taux, ou les humains..</p>\n<p>Vous pouvez participer en affichant des commentaires ou en utilisant la fonction \u00ab J\u2019aime \u00bb ou \u00ab Partager \u00bb pour exprimer votre appr\u00e9ciation d\u2019un article. Vous pouvez aussi aller voir ce que vos coll\u00e8gues aiment et ont \u00e0 dire.</p>\n<p>Si vous avez des id\u00e9es d\u2019articles, des photos de paysages ou \u00e0 caract\u00e8re artistique li\u00e9es \u00e0 l\u2019agriculture ou encore des faits int\u00e9ressants, veuillez nous en faire part en cliquant sur \u00ab Collaborer \u00bb dans la barre de menu en haut de la page.</p>\n<p>\n<img src=\"https://intranet.agr.gc.ca/resources/prod/news/images/HarvestMuseumNature.png\" class=\"center-block\" alt=\"Exposition d\u2019art\u00e9facts d\u2019AAC.\"></p>\n\t\t"
    },
    "breadcrumb": {
        "en": "This Week in The Harvest - Courage and Passion: AAFC Scientists Among Women Innovators Profiled...",
        "fr": "Au menu de La Moisson cette semaine - Des chercheuses d'AAC parmi les femmes innovatrices en..."
    },
    "news": {
        "date_posted": {
            "en": "2019-01-17",
            "fr": "2019-01-17"
        },
        "to": {
            "en": "All staff",
            "fr": "Tous les employ\u00e9s"
        },
        "by": {
            "en": "Corporate Communications, Public Affairs Branch",
            "fr": "Communications minist\u00e9rielles, Direction g\u00e9n\u00e9rale des affaires publiques"
        }
    }
}