{
    "dcr_id": "1547040928423",
    "lang": "en",
    "title": {
        "en": "Pay - New Calendar Year",
        "fr": "Paye - nouvelle ann\u00e9e civile"
    },
    "modified": "2019-01-10 00:00:00.0",
    "issued": "2019-01-10 00:00:00.0",
    "type_name": "intra-intra/news-nouv",
    "node_id": "1279030006975",
    "layout_name": null,
    "dc_date_created": "2019-01-09",
    "breadcrumb_label": "",
    "meta": {
        "issued": {
            "en": "2019-01-10",
            "fr": "2019-01-10"
        },
        "modified": {
            "en": "2019-01-10",
            "fr": "2019-01-10"
        },
        "format": {
            "en": "gcformat",
            "fr": "gcformat"
        },
        "title": {
            "en": "Pay - New Calendar Year",
            "fr": "Paye - nouvelle ann\u00e9e civile"
        },
        "subject": {
            "en": "communications",
            "fr": "communications"
        },
        "description": {
            "en": "Reminder that at the beginning of a new calendar year, employees are likely to see a lower net pay amount on their first pay stub that may differ from the last pay stub of the previous calendar year.",
            "fr": "La pr\u00e9sente sert de rappel qu'au d\u00e9but d'une nouvelle ann\u00e9e civile, il est probable que les employ\u00e9s remarquent une paye nette moindre que celle du talon de paye pr\u00e9c\u00e9dent, \u00e9mis lors de l'ann\u00e9e civile pr\u00e9c\u00e9dente."
        },
        "language": {
            "en": "eng",
            "fr": "fra"
        },
        "audience": {
            "en": "gcaudience",
            "fr": "gcaudience"
        },
        "creator": {
            "en": "Agriculture and Agri-Food Canada",
            "fr": "Agriculture et Agroalimentaire Canada"
        },
        "spatial": {
            "en": "gcregions",
            "fr": "gcregions"
        },
        "service": {
            "en": "AAFC_AgriSource",
            "fr": "AAC_AgriSource"
        },
        "accessRights": {
            "en": "3",
            "fr": "3"
        }
    },
    "body": {
        "en": "<br>\n<br>\n<p>Reminder that at the beginning of a new calendar year, employees are likely to see a lower net pay amount on their first pay stub that may differ from the last pay stub of the previous calendar year.</p>\n<p>Common reasons for the difference in net pay amounts may relate to updated Federal, Provincial and Territorial tax and deductions amounts and percentages. For CPP, QPP, QPIP, and EI, many employees reach their maximum level of contributions during the year. When this happens these employees will see an increase in their net pay amount for the remainder of the year. With the start of a new tax year, employees restart making contributions to these plans until such time as they reach the maximum contribution level for the year, which has an impact on the net pay amounts.</p>\n<p>Please note, other factors that might impact net pay may include changes to the province of work or residence, changes in salary, deductions, taxable allowances and benefits, etc.</p>\n<p>\u00a0</p>\n\n\t\t",
        "fr": "<br>\n<br>\n<p>La pr\u00e9sente sert de rappel qu\u2019au d\u00e9but d\u2019une nouvelle ann\u00e9e civile, il est probable que les employ\u00e9s remarquent une paye nette moindre que celle du talon de paye pr\u00e9c\u00e9dent, \u00e9mis lors de l\u2019ann\u00e9e civile pr\u00e9c\u00e9dente.</p>\n<p>Les principales raisons expliquant la diff\u00e9rence entre les montants de la paye nette peuvent concerner la mise \u00e0 jour des taux d\u2019imposition et des montants de retenues associ\u00e9s aux diff\u00e9rents r\u00e9gimes f\u00e9d\u00e9raux, provinciaux et territoriaux. En ce qui concerne le RPC, le RRQ, le RQAP et l\u2019AE, bon nombre d\u2019employ\u00e9s atteignent le plafond des cotisations au cours de l\u2019ann\u00e9e, et ceux-ci peuvent alors constater une augmentation du montant de leur paye nette jusqu\u2019\u00e0 la fin de l\u2019ann\u00e9e. Avec le d\u00e9but d\u2019une nouvelle ann\u00e9e d\u2019imposition, les employ\u00e9s recommencent \u00e0 verser des cotisations \u00e0 ces r\u00e9gimes jusqu\u2019\u00e0 ce qu\u2019ils atteignent le plafond des cotisations pour l\u2019ann\u00e9e, ce qui a une incidence sur les montants de la paye nette.</p>\n<p>Veuillez noter que d\u2019autres facteurs pourraient avoir des r\u00e9percussions sur la paye nette, notamment un changement de province de travail ou de r\u00e9sidence, un changement apport\u00e9 au salaire, aux retenues, aux allocations et avantages imposables, etc.</p>\n<p>\u00a0</p>\n\t\t"
    },
    "breadcrumb": {
        "en": "Pay - New Calendar Year",
        "fr": "Paye - nouvelle ann\u00e9e civile"
    },
    "news": {
        "date_posted": {
            "en": "2019-01-10",
            "fr": "2019-01-10"
        },
        "to": {
            "en": "All staff",
            "fr": "Tous les employ\u00e9s"
        },
        "by": {
            "en": "Public Services and Procurement Canada",
            "fr": "Services publics et Approvisionnement Canada"
        }
    }
}