{
    "dcr_id": "1548777083017",
    "lang": "en",
    "title": {
        "en": "Reminder - February is Black History Month",
        "fr": "Rappel - F\u00e9vrier, le Mois de l'histoire des Noirs"
    },
    "modified": "2019-02-06 00:00:00.0",
    "issued": "2019-01-31 00:00:00.0",
    "type_name": "intra-intra/news-nouv",
    "node_id": "1279030006975",
    "layout_name": null,
    "dc_date_created": "2019-01-29",
    "breadcrumb_label": "",
    "meta": {
        "issued": {
            "en": "2019-01-31",
            "fr": "2019-01-31"
        },
        "modified": {
            "en": "2019-02-06",
            "fr": "2019-02-06"
        },
        "format": {
            "en": "gcformat",
            "fr": "gcformat"
        },
        "title": {
            "en": "Reminder - February is Black History Month",
            "fr": "Rappel - F\u00e9vrier, le Mois de l'histoire des Noirs"
        },
        "subject": {
            "en": "communications",
            "fr": "communications"
        },
        "description": {
            "en": "Black History Month takes place every year in February. It is a time to honour the legacy of Black Canadians, past and present, who have done so much to help make Canada the culturally diverse, compassionate, and prosperous nation we know today.",
            "fr": "Chaque ann\u00e9e en f\u00e9vrier, on souligne le Mois de l'histoire des Noirs. C'est une occasion pour nous d'honorer l'h\u00e9ritage des Canadiens de race noire d'hier et d'aujourd'hui qui ont beaucoup contribu\u00e9 \u00e0 b\u00e2tir le Canada culturellement diversifi\u00e9, empreint de compassion et prosp\u00e8re que nous connaissons aujourd'hui."
        },
        "language": {
            "en": "eng",
            "fr": "fra"
        },
        "audience": {
            "en": "gcaudience",
            "fr": "gcaudience"
        },
        "creator": {
            "en": "Agriculture and Agri-Food Canada",
            "fr": "Agriculture et Agroalimentaire Canada"
        },
        "spatial": {
            "en": "gcregions",
            "fr": "gcregions"
        },
        "service": {
            "en": "AAFC_AgriSource",
            "fr": "AAC_AgriSource"
        },
        "accessRights": {
            "en": "3",
            "fr": "3"
        }
    },
    "body": {
        "en": "<br>\n<br>\n<p>Black History Month takes place every year in February. It is a time to honour the legacy of Black Canadians, past and present, who have done so much to help make Canada the culturally diverse, compassionate, and prosperous nation we know today. This year\u2019s theme is Black Canadian Youth: Boundless, Rooted and Proud.</p>\n<p>Black History Month is also an opportunity for us to learn about the experiences of Black Canadians in our society and acknowledge their contributions.</p>\n<h2><strong>What you can do</strong></h2>\n<ul>\n<li>Participate\u00a0in\u00a0the <a rel=\"external\" href=\"https://www.csps-efpc.gc.ca/events/cbhm/index-eng.aspx\">\"Black Canadian Youth: Boundless, Rooted and Proud\" learning event</a>\u00a0by the Canada School of Public Service\u00a0on February 26</li>\n<li>Broaden your knowledge of <a rel=\"external\" href=\"https://www.canada.ca/en/canadian-heritage/campaigns/black-history-month/about.html\">Black History Month</a> and <a rel=\"external\" href=\"https://www.canada.ca/en/canadian-heritage/campaigns/black-history-month/key-events.html\">key events in Black Canadian history</a></li>\n<li>Celebrate diversity with your colleagues by participating in or coordinating a potluck lunch in your office. Find out if a potluck is taking place in your area by visiting the <a rel=\"external\" href=\"https://collab.agr.gc.ca/co/vmn-rdmv/SitePages/Calendar.aspx\">Visible Minorities Network's event calendar on Knowledge Workspace\n</a></li>\n<li>Check out The Harvest throughout the month as we explore what a day in the life of an AAFC employee looks like and learn a Black History Month-themed fact</li>\n<li>Make inclusion and diversity part of your daily life, year\u2011round</li>\n</ul>\n<p>For information on AAFC\u2019s Visible Minorities Network (<abbr title=\"Visible Minorities Network\">VMN</abbr>), please email the Network at <a href=\"mailto:aafc.vmn-rmv.aac@canada.ca\">aafc.vmn-rmv.aac@canada.ca</a> or visit the <a rel=\"external\" href=\"https://collab.agr.gc.ca/co/vmn-rdmv/SitePages/Home.aspx\"><abbr title=\"Visible Minorities Network\">VMN</abbr> Knowledge Workspace site</a>.</p>\n<p>Learn more about AAFC\u2019s Diversity Networks and their upcoming events on the <a rel=\"external\" href=\"https://collab.agr.gc.ca/co/eedi-emedi/SitePages/Home.aspx\">Diversity and Inclusion Knowledge Workspace site</a>.</p>\n<p><img src=\"https://intranet.agr.gc.ca/resources/prod/news/images/BlackHistoryMonth2019.png\" class=\"center-block\"></p>\n\n\t\t",
        "fr": "<br>\n<br>\n<p>Chaque ann\u00e9e en f\u00e9vrier, on souligne le Mois de l\u2019histoire des Noirs. C\u2019est une occasion pour nous d\u2019honorer l\u2019h\u00e9ritage des Canadiens de race noire d\u2019hier et d\u2019aujourd\u2019hui qui ont beaucoup contribu\u00e9 \u00e0 b\u00e2tir le Canada culturellement diversifi\u00e9, empreint de compassion et prosp\u00e8re que nous connaissons aujourd\u2019hui. Le th\u00e8me de cette ann\u00e9e est \u00ab Les jeunes Canadiens noirs : sans limites, enracin\u00e9s et fiers \u00bb.</p>\n<p>Le Mois de l\u2019histoire des Noirs est aussi l\u2019occasion d\u2019en apprendre davantage sur les exp\u00e9riences des Canadiens noirs dans notre soci\u00e9t\u00e9 et de reconna\u00eetre leur contribution.</p>\n<h2><strong>Ce que vous pouvez faire</strong></h2>\n<ul>\n<li>\nParticipez \u00e0 la\u00a0<a rel=\"external\" href=\"https://www.csps-efpc.gc.ca/events/cbhm/index-fra.aspx\">s\u00e9ance\u00a0d'apprentissage \u00ab Les jeunes Canadiens noirs : sans limites, enracin\u00e9s et\u00a0fiers \u00bb</a>\u00a0de l'\u00c9cole de la fonction publique du Canada le\u00a026 f\u00e9vrier</li>\n<li>\u00c9largissez vos connaissances du <a rel=\"external\" href=\"https://www.canada.ca/fr/patrimoine-canadien/campagnes/mois-histoire-des-noirs/a-propos.html\">Mois de l\u2019histoire des Noirs</a> et des <a rel=\"external\" href=\"https://www.canada.ca/fr/patrimoine-canadien/campagnes/mois-histoire-des-noirs/principaux-evenements.html\">principaux \u00e9v\u00e9nements de l\u2019histoire des Noirs au Canada</a>.</li>\n<li>C\u00e9l\u00e9brez la diversit\u00e9 avec vos coll\u00e8gues en participant \u00e0 un repas-partage ou en coordonnant un repas-partage dans votre bureau. V\u00e9rifiez si un repas-partage a lieu dans votre r\u00e9gion en consultant le <a rel=\"external\" href=\"https://collab.agr.gc.ca/co/vmn-rdmv/SitePages/Calendar.aspx\">calendrier des activit\u00e9s du R\u00e9seau des minorit\u00e9s visibles\u00a0dans l\u2019Espace de travail du savoir</a>.</li>\n<li>En suivant La Moisson au cours du mois, vous d\u00e9couvrirez une journ\u00e9e dans la vie d\u2019un employ\u00e9 d\u2019AAC et apprendrez un fait sur le th\u00e8me du Mois de l\u2019histoire des Noirs.</li>\n<li>Int\u00e9grez l\u2019inclusivit\u00e9 et la diversit\u00e9 dans votre quotidien, tout au long de l\u2019ann\u00e9e.</li>\n</ul>\n<p>Pour en savoir plus sur le R\u00e9seau des minorit\u00e9s visibles (<abbr title=\"R\u00e9seau des minorit\u00e9s visibles \">RMV</abbr>) d\u2019AAC, faites parvenir un courriel \u00e0 <a href=\"mailto:aafc.vmn-rmv.aac@canada.ca\">aafc.vmn-rmv.aac@canada.ca</a> ou rendez-vous sur le <a rel=\"external\" href=\"https://collab.agr.gc.ca/co/vmn-rdmv/SitePages/Home.aspx\">site du <abbr title=\"R\u00e9seau des minorit\u00e9s visibles \">RMV</abbr> dans l\u2019Espace de travail du savoir</a>.</p>\n<p>Renseignez-vous sur les r\u00e9seaux de la diversit\u00e9 d\u2019AAC et sur leurs prochaines activit\u00e9s en visitant le <a rel=\"external\" href=\"https://collab.agr.gc.ca/co/eedi-emedi/SitePages/Home.aspx\">site de la Diversit\u00e9 et de l\u2019inclusivit\u00e9 dans l\u2019Espace de travail du savoir</a>.</p>\n<p><img src=\"https://intranet.agr.gc.ca/resources/prod/news/images/BlackHistoryMonth2019.png\" class=\"center-block\"></p>\n\t\t"
    },
    "breadcrumb": {
        "en": "Reminder - February is Black History Month",
        "fr": "Rappel - F\u00e9vrier, le Mois de l'histoire des Noirs"
    },
    "news": {
        "date_posted": {
            "en": "2019-01-31",
            "fr": "2019-01-31"
        },
        "to": {
            "en": "All staff",
            "fr": "Tous les employ\u00e9s"
        },
        "by": {
            "en": "Carole Bidal, Champion for Visible Minorities Network",
            "fr": "Carole Bidal, championne du R\u00e9seau des minorit\u00e9s visibles"
        }
    }
}