{
    "dcr_id": "1548342575440",
    "lang": "en",
    "title": {
        "en": "The Deadline to Enter 2018 Leave Without Pay is January 25",
        "fr": "La date limite pour entrer tout cong\u00e9 non pay\u00e9 de 2018 est le 25 janvier"
    },
    "modified": "2019-01-28 00:00:00.0",
    "issued": "2019-01-24 00:00:00.0",
    "type_name": "intra-intra/news-nouv",
    "node_id": "1279030006975",
    "layout_name": null,
    "dc_date_created": "2019-01-24",
    "breadcrumb_label": "",
    "meta": {
        "issued": {
            "en": "2019-01-24",
            "fr": "2019-01-24"
        },
        "modified": {
            "en": "2019-01-28",
            "fr": "2019-01-24"
        },
        "format": {
            "en": "gcformat",
            "fr": "gcformat"
        },
        "title": {
            "en": "The Deadline to Enter 2018 Leave Without Pay is January 25",
            "fr": "La date limite pour entrer tout cong\u00e9 non pay\u00e9 de 2018 est le 25 janvier"
        },
        "subject": {
            "en": "communications",
            "fr": "communications"
        },
        "description": {
            "en": "Employees will have until January 25, 2019 to enter any outstanding 2018 leave without pay through self-service to ensure that these are included on the 2018 tax slips.",
            "fr": "Les employ\u00e9s auront jusqu'au 25 janvier 2019 pour entrer tout cong\u00e9 non pay\u00e9 de 2018 qui n'a pas encore \u00e9t\u00e9 trait\u00e9 \u00e0 l'aide du libre-service afin de s'assurer que ces cong\u00e9s soient inclus dans les feuillets de renseignements fiscaux de 2018."
        },
        "language": {
            "en": "eng",
            "fr": "fra"
        },
        "audience": {
            "en": "gcaudience",
            "fr": "gcaudience"
        },
        "creator": {
            "en": "Agriculture and Agri-Food Canada",
            "fr": "Agriculture et Agroalimentaire Canada"
        },
        "spatial": {
            "en": "gcregions",
            "fr": "gcregions"
        },
        "service": {
            "en": "AAFC_AgriSource",
            "fr": "AAC_AgriSource"
        },
        "accessRights": {
            "en": "3",
            "fr": "3"
        }
    },
    "body": {
        "en": "<br>\n<br>\n<p>Employees will have until January 25, 2019 to enter any outstanding 2018 leave without pay (<abbr title=\"leave without pay\">LWOP</abbr>) through self-service to ensure that these are included on the 2018 tax slips.</p>\n<p>Managers and financial officers will have until January 28, 2019 to approve and authorize any 2018 <abbr title=\"leave without pay\">LWOP</abbr> in Time and Labour.</p>\n\n\t\t",
        "fr": "<br>\n<br>\n<p>Les employ\u00e9s auront jusqu\u2019au 25 janvier 2019 pour entrer tout cong\u00e9 non pay\u00e9 (<abbr title=\"cong\u00e9 non pay\u00e9\">CNP</abbr>) de 2018 qui n\u2019a pas encore \u00e9t\u00e9 trait\u00e9 \u00e0 l\u2019aide du libre-service afin de s\u2019assurer que ces cong\u00e9s soient inclus dans les feuillets de renseignements fiscaux de 2018.</p>\n<p>Les gestionnaires et les agents financiers auront jusqu\u2019au 28 janvier 2019 pour approuver et autoriser tous les <abbr title=\"cong\u00e9 non pay\u00e9\">CNP</abbr> dans le module Gestion temps.</p>\n\t\t"
    },
    "breadcrumb": {
        "en": "The Deadline to Enter 2018 Leave Without Pay is January 25",
        "fr": "La date limite pour entrer tout cong\u00e9 non pay\u00e9 de 2018 est le 25 janvier"
    },
    "news": {
        "date_posted": {
            "en": "2019-01-24",
            "fr": "2019-01-24"
        },
        "to": {
            "en": "All staff",
            "fr": "Tous les employ\u00e9s"
        },
        "by": {
            "en": "Public Services and Procurement Canada",
            "fr": "Services publics et Approvisionnement Canada"
        }
    }
}