{
    "dcr_id": "1548261183690",
    "lang": "en",
    "title": {
        "en": "Revisions to AAFC Guidelines for Travel, Hospitality, Conference and Event Expenditures",
        "fr": "Modifications apport\u00e9es aux Lignes directrices sur les d\u00e9penses de voyages, d'accueil, de conf\u00e9rences et d'\u00e9v\u00e9nements"
    },
    "modified": "2019-01-30 00:00:00.0",
    "issued": "2019-01-30 00:00:00.0",
    "type_name": "intra-intra/news-nouv",
    "node_id": "1279030006975",
    "layout_name": null,
    "dc_date_created": "2019-01-24",
    "breadcrumb_label": "",
    "meta": {
        "issued": {
            "en": "2019-01-30",
            "fr": "2019-01-30"
        },
        "modified": {
            "en": "2019-01-30",
            "fr": "2019-01-30"
        },
        "format": {
            "en": "gcformat",
            "fr": "gcformat"
        },
        "title": {
            "en": "Revisions to AAFC Guidelines for Travel, Hospitality, Conference and Event Expenditures",
            "fr": "Modifications apport\u00e9es aux Lignes directrices sur les d\u00e9penses de voyages, d'accueil, de conf\u00e9rences et d'\u00e9v\u00e9nements"
        },
        "subject": {
            "en": "communications",
            "fr": "communications"
        },
        "description": {
            "en": "We would like to advise you of revised departmental guidelines for the planning and approval of hospitality.",
            "fr": "Nous aimerions vous faire part des lignes directrices minist\u00e9rielles r\u00e9vis\u00e9es concernant la planification et l'approbation des activit\u00e9s d'accueil."
        },
        "language": {
            "en": "eng",
            "fr": "fra"
        },
        "audience": {
            "en": "gcaudience",
            "fr": "gcaudience"
        },
        "creator": {
            "en": "Agriculture and Agri-Food Canada",
            "fr": "Agriculture et Agroalimentaire Canada"
        },
        "spatial": {
            "en": "gcregions",
            "fr": "gcregions"
        },
        "service": {
            "en": "AAFC_AgriSource",
            "fr": "AAC_AgriSource"
        },
        "accessRights": {
            "en": "3",
            "fr": "3"
        }
    },
    "body": {
        "en": "<br>\n<br>\n<p>We would like to advise you of revised departmental guidelines for the planning and approval of hospitality. These guidelines become effective April 1, 2019 and apply to any hospitality taking place in the new fiscal year. Hospitality should support the delivery of departmental programs and services while being prudent and showing the utmost respect for taxpayers\u2019 dollars.<strong> </strong></p>\n<p>While planning hospitality for an event/activity, the following new guidelines must be applied:</p>\n<ul>\n<li>Maximum of two refreshments provided per full-day meeting, including morning coffee or coffee on arrival;</li>\n<li>Breakfast is not provided;</li>\n<li>Refreshments include only non-alcoholic beverages, such as coffee/tea/water;</li>\n<li>Standard cost per person or lower is applicable for food and beverage costs;\n</li>\n<li>\nCost per person must include gratuities and applicable service charges and taxes.</li>\n</ul>\n<p>As a reminder, these existing guidelines continue to apply:</p>\n<ul>\n<li>\nAlcoholic beverages are only provided in exceptional situations involving foreign dignitaries; and</li>\n<li>Hospitality should be avoided when event attendees are only or mostly government employees.</li>\n</ul>\n<p><strong>Authority requests outside these guidelines should include a solid justification and require Deputy Minister approval as exceptions</strong> to the <a href=\"http://intranet.agr.gc.ca/agrisource/eng/branches-and-offices/corporate-management-branch/services/hospitality?id=1332165156241\">AAFC Guidelines for Travel, Hospitality, Conference and Event Expenditures</a>.</p>\n<p>If you have any questions, please contact Financial Policy at <a href=\"mailto:aafc.financialpolicy-politiquefinanciere.aac@canada.ca\">aafc.financialpolicy-politiquefinanciere.aac@canada.ca</a>. </p>\n\n\t\t",
        "fr": "<br>\n<br>\n<p>Nous aimerions vous faire part des lignes directrices minist\u00e9rielles r\u00e9vis\u00e9es concernant la planification et l\u2019approbation des activit\u00e9s d\u2019accueil. Ces lignes directrices entrent en vigueur le 1<sup>er</sup> avril 2019 et s\u2019appliquent \u00e0 toute activit\u00e9 d\u2019accueil qui aura lieu au cours du nouvel exercice financier. Les d\u00e9penses d\u2019accueil doivent appuyer la prestation des programmes et des services minist\u00e9riels, mais elles doivent \u00eatre g\u00e9r\u00e9es avec prudence et dans le plus grand respect de l\u2019argent des contribuables.<b> </b></p>\n<p>Au moment de planifier l\u2019accueil offert lors d\u2019un \u00e9v\u00e9nement ou une activit\u00e9, les nouvelles lignes directrices suivantes doivent \u00eatre appliqu\u00e9es :</p>\n<ul>\n<li>Un maximum de deux rafra\u00eechissements sont fournis par journ\u00e9e enti\u00e8re de r\u00e9union, y compris le caf\u00e9 du matin ou \u00e0 l\u2019arriv\u00e9e.</li>\n<li>Le petit d\u00e9jeuner n\u2019est pas fourni.</li>\n<li>Les rafra\u00eechissements comprennent uniquement des boissons non alcoolis\u00e9es, comme le caf\u00e9, le th\u00e9 ou l\u2019eau.</li>\n<li>Le co\u00fbt standard par personne, ou moins, est appliqu\u00e9 pour les co\u00fbts des aliments et boissons.</li>\n<li>Le co\u00fbt par personne doit comprendre les pourboires, les frais de service et les taxes applicables.</li>\n</ul>\n<p>\u00c0 titre de rappel, ces lignes directrices actuelles continuent de s\u2019appliquer :\n\t\t\n\t\n\t</p>\n<ul>\n<li>Les boissons alcoolis\u00e9es ne sont offertes que dans les situations exceptionnelles o\u00f9 des dignitaires \u00e9trangers sont accueillis.</li>\n<li>Il faut \u00e9viter les d\u00e9penses d\u2019accueil lorsque tous les participants \u00e0 un \u00e9v\u00e9nement ou la plupart d\u2019entre eux sont des fonctionnaires.</li>\n</ul>\n<p><strong>Les demandes d\u2019autorisation non conformes \u00e0 ces lignes directrices doivent comprendre une justification solide et n\u00e9cessitent l\u2019approbation du sous-ministre \u00e0 titre d\u2019exceptions</strong> aux <a href=\"http://intranet.agr.gc.ca/agrisource/fra/directions-generales-et-bureaux/direction-generale-de-la-gestion-integree/services/accueil?id=1332165156241\">Lignes directrices d\u2019AAC sur les d\u00e9penses de voyages, d\u2019accueil, de conf\u00e9rences et d\u2019\u00e9v\u00e9nements</a>.</p>\n<p>\nPour toute question, veuillez communiquer avec la Section des politiques financi\u00e8res par courriel \u00e0 <u><a href=\"mailto:aafc.financialpolicy-politiquefinanciere.aac@canada.ca\">aafc.financialpolicy-politiquefinanciere.aac@canada.ca</a></u>.</p>\n\t\t"
    },
    "breadcrumb": {
        "en": "Revisions to AAFC Guidelines for Travel, Hospitality, Conference and Event Expenditures",
        "fr": "Modifications apport\u00e9es aux Lignes directrices sur les d\u00e9penses de voyages, d'accueil, de..."
    },
    "news": {
        "date_posted": {
            "en": "2019-01-30",
            "fr": "2019-01-30"
        },
        "to": {
            "en": "All staff",
            "fr": "Tous les employ\u00e9s"
        },
        "by": {
            "en": "Christine Walker, Assistant Deputy Minister, Corporate Managment Branch",
            "fr": "Christine Walker, sous-ministre adjointe, Direction g\u00e9n\u00e9rale de la gestion int\u00e9gr\u00e9e"
        }
    }
}