{
    "dcr_id": "1548176634506",
    "lang": "en",
    "title": {
        "en": "2019 Summer Student Hiring - Start Now",
        "fr": "Embauche d'\u00e9tudiants pour l'\u00e9t\u00e9 2019 - commencez maintenant"
    },
    "modified": "2019-01-24 00:00:00.0",
    "issued": "2019-01-24 00:00:00.0",
    "type_name": "intra-intra/news-nouv",
    "node_id": "1279030006975",
    "layout_name": null,
    "dc_date_created": "2019-01-22",
    "breadcrumb_label": "2019 Summer Student Hiring - Start Now!",
    "meta": {
        "issued": {
            "en": "2019-01-24",
            "fr": "2019-01-24"
        },
        "modified": {
            "en": "2019-01-24",
            "fr": "2019-01-24"
        },
        "format": {
            "en": "gcformat",
            "fr": "gcformat"
        },
        "title": {
            "en": "2019 Summer Student Hiring - Start Now",
            "fr": "Embauche d'\u00e9tudiants pour l'\u00e9t\u00e9 2019 - commencez maintenant"
        },
        "subject": {
            "en": "communications",
            "fr": "communications"
        },
        "description": {
            "en": "Despite the freezing temperatures...it is time to start planning for student hiring for summer 2019.",
            "fr": "Malgr\u00e9 le froid sib\u00e9rien, il est temps de commencer \u00e0 planifier l'embauche d'\u00e9tudiants pour l'\u00e9t\u00e9 2019."
        },
        "language": {
            "en": "eng",
            "fr": "fra"
        },
        "audience": {
            "en": "gcaudience",
            "fr": "gcaudience"
        },
        "creator": {
            "en": "Agriculture and Agri-Food Canada",
            "fr": "Agriculture et Agroalimentaire Canada"
        },
        "spatial": {
            "en": "gcregions",
            "fr": "gcregions"
        },
        "service": {
            "en": "AAFC_AgriSource",
            "fr": "AAC_AgriSource"
        },
        "accessRights": {
            "en": "3",
            "fr": "3"
        }
    },
    "body": {
        "en": "<br>\n<br>\n<p>Despite the freezing temperatures\u2026it is time to start planning for student hiring for summer 2019.</p>\n<p>Students can generate fresh ideas and new perspectives on issues and hiring a student supports the renewal of the Public Service. Don\u2019t miss your opportunity to attract the best and brightest to AAFC.</p>\n<p>A number of <a href=\"http://intranet.agr.gc.ca/agrisource/eng/human-resources/staffing/student-employment?id=1331559125372\">staffing options</a> help make recruiting new students or retaining current students easier.</p>\n<h2><strong>Tips for hiring students</strong></h2>\n<ul>\n<li>Initiate student requests <strong>12-14 weeks</strong> before the anticipated start date to ensure you have enough time and the most hiring options.</li>\n<li>Plan for security checks. Security clearance for students could take up to three weeks.</li>\n<li>Return the signed letter of offer with all required documents to Human Resources (<abbr title=\"Human Resources \">HR</abbr>) at least <strong>15 working days</strong> prior to the student\u2019s start date.</li>\n<li>Administer the oath on, or before, the student\u2019s first day at work.</li>\n</ul>\n<p>Above all, hiring managers should maintain ongoing communications with the\u00a0<abbr title=\"Human Resources \">HR</abbr> team. Your <a href=\"http://intranet.agr.gc.ca/agrisource/eng/human-resources?id=1287773203527\"><abbr title=\"Human Resources \">HR</abbr> Centre</a> is available to guide you through the hiring processes to ensure a positive onboarding experience for students.</p>\n<p>As one of Canada\u2019s best diversity employers, managers are encouraged to consider requesting students from diversity groups for their hiring needs. Hiring through the Indigenous Student Recruitment Initiative (<abbr title=\"Indigenous Student Recruitment Initiative \">ISRI</abbr>) is one of the many ways the Department demonstrates our ongoing commitment to diversity and inclusiveness. Managers can contact Erle Einarsson at <a href=\"mailto:aafc.isri-irea.aac@canada.ca\">aafc.isri-irea.aac@canada.ca</a> to request an Indigenous student.</p>\n<p><strong>NEW:</strong> The Public Service Commission now allows us to hire FSWEP students for a period of up to\u00a0one year (three terms). Managers simply need to notify <abbr title=\"Human Resources\">HR</abbr> of any work schedule change for each session. Contact the <a href=\"http://intranet.agr.gc.ca/agrisource/eng/human-resources?id=1287773203527\"><abbr title=\"Human Resources\">HR</abbr> Centre</a> for more details.</p>\n<h2><strong>Learn more</strong></h2>\n<ul>\n<li><a href=\"http://intranet.agr.gc.ca/agrisource/eng/human-resources/staffing/student-employment?id=1331559125372\">Student Employment</a> at AAFC</li>\n<li><a href=\"https://intranet.agr.gc.ca/agrisource/AgriDoc.do?id=103453444&amp;lang=eng\" target=\"_blank\">Frequently Asked Questions about student hiring</a></li>\n<li><a href=\"https://intranet.agr.gc.ca/agrisource/AgriDoc.do?id=104496599&amp;lang=eng\" target=\"_blank\">Student Hiring Process - Timeline</a></li>\n</ul>\n\n\t\t",
        "fr": "<br>\n<br>\n<p>Malgr\u00e9 le froid sib\u00e9rien, il est temps de commencer \u00e0 planifier l\u2019embauche d\u2019\u00e9tudiants pour l\u2019\u00e9t\u00e9 2019.</p>\n<p>Les \u00e9tudiants peuvent apporter de nouveaux points de vue et des id\u00e9es fra\u00eeches. De plus, l\u2019embauche d\u2019\u00e9tudiants appuie le renouvellement de la fonction publique. Ne manquez pas votre chance d\u2019attirer les meilleurs \u00e9tudiants \u00e0 AAC.</p>\n<p>Plusieurs <a href=\"http://intranet.agr.gc.ca/agrisource/fra/ressources-humaines/dotation/emplois-pour-etudiants?id=1331559125372\">options de dotation</a> sont \u00e0 votre disposition pour faciliter le recrutement de nouveaux \u00e9tudiants ou le maintien des \u00e9tudiants en poste.</p>\n<h2><strong>Conseils pour l\u2019embauche d\u2019\u00e9tudiants</strong></h2>\n<ul>\n<li>Pr\u00e9sentez les demandes d\u2019embauche d\u2019\u00e9tudiants de <strong>12 \u00e0 14 semaines</strong> avant la date de d\u00e9but d\u2019emploi pr\u00e9vue afin d\u2019avoir assez de temps et le plus d\u2019options d\u2019embauche possible.</li>\n<li>Pr\u00e9voyez les v\u00e9rifications de s\u00e9curit\u00e9. Le processus d\u2019attribution d\u2019une cote de s\u00e9curit\u00e9 peut prendre jusqu\u2019\u00e0 trois semaines.</li>\n<li>Retourner la lettre d\u2019offre sign\u00e9e et tous les documents requis aux Ressources humaines (<abbr title=\"Ressources humaines \">RH</abbr>) au moins <strong>15 jours ouvrables</strong> avant la date de d\u00e9but d\u2019emploi de l\u2019\u00e9tudiant.</li>\n<li>Faites pr\u00eater serment aux \u00e9tudiants \u00e0\u00a0leur premier jour de travail ou avant.</li>\n</ul>\n<p>Avant tout, les gestionnaires doivent maintenir une communication constante avec l\u2019\u00e9quipe des <abbr title=\"Ressources humaines \">RH</abbr>. Votre <a href=\"http://intranet.agr.gc.ca/agrisource/fra/ressources-humaines?id=1287773203527\">Centre <abbr title=\"Ressources humaines \">RH</abbr></a> est l\u00e0 pour vous guider dans le processus d\u2019embauche et veiller \u00e0 ce que l\u2019int\u00e9gration des \u00e9tudiants se fasse positivement.</p>\n<p>Comme AAC est l\u2019un des meilleurs employeurs pour la diversit\u00e9 au Canada, nous incitons les gestionnaires \u00e0 demander des \u00e9tudiants de groupes repr\u00e9sentatifs de la diversit\u00e9 pour r\u00e9pondre \u00e0 leurs besoins en personnel. L\u2019embauche dans le cadre de l\u2019Initiative de recrutement d\u2019\u00e9tudiants autochtones (<abbr title=\"Initiative de recrutement d\u2019\u00e9tudiants autochtones\">IREA</abbr>) est l\u2019une des nombreuses fa\u00e7ons de d\u00e9montrer l\u2019engagement continu du Minist\u00e8re \u00e0 l\u2019\u00e9gard de la diversit\u00e9 et de l\u2019inclusivit\u00e9. Les gestionnaires peuvent communiquer avec Erle Einarsson (<a href=\"mailto:aafc.isri-irea.aac@canada.ca\">aafc.isri-irea.aac@canada.ca</a>) pour demander un \u00e9tudiant autochtone.</p>\n<p><strong>NOUVEAU : </strong>La Commission de la fonction publique\u00a0nous permet maintenant d\u2019embaucher les \u00e9tudiants du PFETE pour une p\u00e9riode d\u2019au plus un an (trois stages). Les gestionnaires n\u2019ont qu\u2019\u00e0 faire part aux RH de toute modification apport\u00e9e \u00e0 l\u2019horaire de travail de chaque stage. Veuillez communiquer avec le <a href=\"http://intranet.agr.gc.ca/agrisource/fra/ressources-humaines?id=1287773203527\">Centre <abbr title=\"Ressources humaines \">RH</abbr></a> pour obtenir d\u2019autres pr\u00e9cisions.</p>\n<h2><strong>Pour en savoir plus</strong></h2>\n<ul>\n<li><a href=\"http://intranet.agr.gc.ca/agrisource/fra/ressources-humaines/dotation/emplois-pour-etudiants?id=1331559125372\">Emplois pour \u00e9tudiants \u00e0 AAC</a></li>\n<li><a href=\"https://intranet.agr.gc.ca/agrisource/AgriDoc.do?id=103453444&amp;lang=fra\" target=\"_blank\">Foire aux questions sur l\u2019embauche des \u00e9tudiants</a></li>\n<li><a href=\"https://intranet.agr.gc.ca/agrisource/AgriDoc.do?id=104502735&amp;lang=fra\" target=\"_blank\">Processus d\u2019embauche des \u00e9tudiants - \u00e9ch\u00e9ancier</a></li>\n</ul>\n\t\t"
    },
    "breadcrumb": {
        "en": "2019 Summer Student Hiring - Start Now!",
        "fr": "Embauche d'\u00e9tudiants pour l'\u00e9t\u00e9 2019 - commencez maintenant"
    },
    "news": {
        "date_posted": {
            "en": "2019-01-24",
            "fr": "2019-01-24"
        },
        "to": {
            "en": "All staff",
            "fr": "Tous les employ\u00e9s"
        },
        "by": {
            "en": "Human Resources, Corporate Management Branch",
            "fr": "Ressources humaines, Direction g\u00e9n\u00e9rale de la gestion int\u00e9gr\u00e9e"
        }
    }
}