{
    "dcr_id": "1549384495623",
    "lang": "en",
    "title": {
        "en": "This Week in The Harvest - Girls and Science: What a Team!",
        "fr": "Au menu de La Moisson cette semaine - Les filles et la science, toute une alliance!"
    },
    "modified": "2019-02-07 00:00:00.0",
    "issued": "2019-02-07 00:00:00.0",
    "type_name": "intra-intra/news-nouv",
    "node_id": "1279030006975",
    "layout_name": null,
    "dc_date_created": "2019-02-06",
    "breadcrumb_label": "",
    "meta": {
        "issued": {
            "en": "2019-02-07",
            "fr": "2019-02-07"
        },
        "modified": {
            "en": "2019-02-07",
            "fr": "2019-02-07"
        },
        "format": {
            "en": "gcformat",
            "fr": "gcformat"
        },
        "title": {
            "en": "This Week in The Harvest - Girls and Science: What a Team!",
            "fr": "Au menu de La Moisson cette semaine - Les filles et la science, toute une alliance!"
        },
        "subject": {
            "en": "communications",
            "fr": "communications"
        },
        "description": {
            "en": "In case you missed it, here's what's new in The Harvest this week.",
            "fr": "Au cas o\u00f9 vous l'auriez manqu\u00e9, voici le menu que la section La Moisson vous offre cette semaine."
        },
        "language": {
            "en": "eng",
            "fr": "fra"
        },
        "audience": {
            "en": "gcaudience",
            "fr": "gcaudience"
        },
        "creator": {
            "en": "Agriculture and Agri-Food Canada",
            "fr": "Agriculture et Agroalimentaire Canada"
        },
        "spatial": {
            "en": "gcregions",
            "fr": "gcregions"
        },
        "service": {
            "en": "AAFC_AgriSource",
            "fr": "AAC_AgriSource"
        },
        "accessRights": {
            "en": "3",
            "fr": "3"
        }
    },
    "body": {
        "en": "<br>\n<br>\n<p>In case you missed it, here\u2019s what\u2019s new in <a href=\"https://collab.agr.gc.ca/apps/harvest-moisson\">The Harvest</a> this week:</p>\n<p><strong>Feature story:</strong> <a href=\"https://collab.agr.gc.ca/apps/harvest-moisson\">Girls and Science: What a Team!</a> \u2013 Last fall, the Saint-Hyacinthe Research and Development Centre had some special visitors: 30 students interested in science! To share their passion for their work, experts in various scientific fields, both women and men, rolled up their sleeves to organize a special day with the theme \u201cGirls and science: what a team!\u201d</p>\n<p><strong>Quiz: </strong><a href=\"https://collab.agr.gc.ca/apps/harvest-moisson\">February 5 marks the start of the Chinese New Year! 2019 is the year of the...?</a></p>\n<p><strong>Feature photo: </strong><a href=\"https://collab.agr.gc.ca/apps/harvest-moisson/gallery/Lists/Posts/Post.aspx?ID=251\">Christmas Cactus</a>, by Kosala Rajapaksha, Science and Technology Branch, Saskatoon, Saskatchewan.</p>\n<p><strong>Did you know?</strong> <a href=\"https://collab.agr.gc.ca/apps/harvest-moisson/Pages/DidYouKnow.aspx\">The Great Wall of China was built using sticky rice</a>, creating a super-strong mortar that remains the best available material for restoring ancient buildings to this day.</p>\n<p>You can get involved by posting a comment or \u201cliking\u201d an article. You can also check out what your colleagues are liking and saying.</p>\n<p>Should you have story ideas, scenic or artistic agriculture-related photos, or interesting facts, please share them with us by clicking on \u201cContribute\u201d in the top menu bar.</p>\n<p>\n<img src=\"https://intranet.agr.gc.ca/resources/prod/news/images/HarvestStHy.png\" class=\"center-block\" alt=\"Students at the booth for IViDiS, an artificial digestive system used for research.\"></p>\n\n\t\t",
        "fr": "<br>\n<br>\n<p>Au cas o\u00f9 vous l\u2019auriez manqu\u00e9, voici le menu que la section <a href=\"https://collab.agr.gc.ca/apps/harvest-moisson\">La Moisson</a> vous offre cette semaine :</p>\n<p><strong>Article vedette :</strong> <a href=\"https://collab.agr.gc.ca/apps/harvest-moisson\">Les filles et la science, toute une alliance!</a> \u2013 Au cours de l\u2019automne, le Centre de recherche et de d\u00e9veloppement de Saint-Hyacinthe a re\u00e7u de la grande visite. Une trentaine d\u2019\u00e9tudiantes et d\u2019\u00e9tudiants int\u00e9ress\u00e9s par la science! Dans le but de transmettre leur passion pour leur travail scientifique, des femmes, mais aussi des hommes experts de plusieurs domaines ont mis la main \u00e0 la p\u00e2te pour organiser une journ\u00e9e toute sp\u00e9ciale sur le th\u00e8me <em>Les filles et la science : toute une alliance!</em></p>\n<p><strong>Jeu-questionnaire : </strong><a href=\"https://collab.agr.gc.ca/apps/harvest-moisson\">Le 5 f\u00e9vrier marquera le d\u00e9but du Nouvel an chinois! 2019 est l\u2019ann\u00e9e...?</a></p>\n<p><strong>Photo vedette :</strong> <a href=\"https://collab.agr.gc.ca/apps/harvest-moisson/gallery/Lists/Posts/Post.aspx?ID=251\">Cactus de No\u00ebl</a><strong>, </strong>par Kosala Rajapaksha, Direction g\u00e9n\u00e9rale des sciences et de la technologie, Saskatoon (Saskatchewan).</p>\n<p><strong>Le saviez-vous?</strong> <a href=\"https://collab.agr.gc.ca/apps/harvest-moisson/Pages/DidYouKnow.aspx\">La Grande Muraille de Chine a \u00e9t\u00e9 b\u00e2tie au moyen de riz collant,</a> un mortier tr\u00e8s r\u00e9sistant qui demeure le meilleur mat\u00e9riau \u00e0 ce jour pour restaurer d\u2019anciens \u00e9difices.</p>\n<p>Vous pouvez participer en affichant des commentaires ou en utilisant la fonction \u00ab J\u2019aime \u00bb ou \u00ab Partager \u00bb pour exprimer votre appr\u00e9ciation d\u2019un article. Vous pouvez aussi aller voir ce que vos coll\u00e8gues aiment et ont \u00e0 dire.</p>\n<p>Si vous avez des id\u00e9es d\u2019articles, des photos de paysages ou \u00e0 caract\u00e8re artistique li\u00e9es \u00e0 l\u2019agriculture ou encore des faits int\u00e9ressants, veuillez nous en faire part en cliquant sur \u00ab Collaborer \u00bb dans la barre de menu en haut de la page.</p>\n<p>\n<img src=\"https://intranet.agr.gc.ca/resources/prod/news/images/HarvestStHy.png\" class=\"center-block\" alt=\"\u00c9tudiantes au kiosque de l\u2019IViDiS,  un syst\u00e8me digestif artificiel utilis\u00e9 dans le cadre de plusieurs recherches.\"></p>\n\t\t"
    },
    "breadcrumb": {
        "en": "This Week in The Harvest - Girls and Science: What a Team!",
        "fr": "Au menu de La Moisson cette semaine - Les filles et la science, toute une alliance!"
    },
    "news": {
        "date_posted": {
            "en": "2019-02-07",
            "fr": "2019-02-07"
        },
        "to": {
            "en": "All staff",
            "fr": "Tous les employ\u00e9s"
        },
        "by": {
            "en": "Corporate Communications, Public Affairs Branch",
            "fr": "Communications minist\u00e9rielles, Direction g\u00e9n\u00e9rale des affaires publiques"
        }
    }
}