{
    "dcr_id": "1549383027311",
    "lang": "en",
    "title": {
        "en": "Reminder - AAFC's Positive Space Initiative - Register for Upcoming Sessions",
        "fr": "Rappel - Initiative Espace positif d'AAC - Inscrivez-vous \u00e0 l'une des prochaines s\u00e9ances"
    },
    "modified": "2019-02-20 00:00:00.0",
    "issued": "2019-02-07 00:00:00.0",
    "type_name": "intra-intra/news-nouv",
    "node_id": "1279030006975",
    "layout_name": null,
    "dc_date_created": "2019-02-05",
    "breadcrumb_label": "",
    "meta": {
        "issued": {
            "en": "2019-02-07",
            "fr": "2019-02-07"
        },
        "modified": {
            "en": "2019-02-20",
            "fr": "2019-02-14"
        },
        "format": {
            "en": "gcformat",
            "fr": "gcformat"
        },
        "title": {
            "en": "Reminder - AAFC's Positive Space Initiative - Register for Upcoming Sessions",
            "fr": "Rappel - Initiative Espace positif d'AAC - Inscrivez-vous \u00e0 l'une des prochaines s\u00e9ances"
        },
        "subject": {
            "en": "communications",
            "fr": "communications"
        },
        "description": {
            "en": "At AAFC, you should feel safe to bring your whole self to work. Learn how you can help to foster an inclusive workplace for everyone by participating in upcoming sessions of the Gender and Sexual Diversity Inclusiveness Network's Positive Space training.",
            "fr": "\u00c0 AAC, vous devriez vous sentir \u00e0 l'aise d'\u00eatre enti\u00e8rement vous-m\u00eame. D\u00e9couvrez comment vous pouvez promouvoir un milieu de travail inclusif pour tous en participant \u00e0 l'une des prochaines s\u00e9ances de formation sur l'Espace positif du R\u00e9seau de l'inclusivit\u00e9 et de la diversit\u00e9 des genres et de la sexualit\u00e9."
        },
        "language": {
            "en": "eng",
            "fr": "fra"
        },
        "audience": {
            "en": "gcaudience",
            "fr": "gcaudience"
        },
        "creator": {
            "en": "Agriculture and Agri-Food Canada",
            "fr": "Agriculture et Agroalimentaire Canada"
        },
        "spatial": {
            "en": "gcregions",
            "fr": "gcregions"
        },
        "service": {
            "en": "AAFC_AgriSource",
            "fr": "AAC_AgriSource"
        },
        "accessRights": {
            "en": "3",
            "fr": "3"
        }
    },
    "body": {
        "en": "<br>\n<br>\n<p>At AAFC, you should feel safe to bring your whole self to work. Learn how you can help to foster an inclusive workplace for everyone by participating in upcoming sessions of the Gender and Sexual Diversity Inclusiveness Network\u2019s (<abbr title=\"Gender and Sexual Diversity Inclusiveness Network\">GSDIN</abbr>) Positive Space training. This important awareness training is not only applicable in the workplace, but in all aspects of our lives as colleagues, managers, friends, and family members.</p>\n<p>In addition to the sessions below, the <abbr title=\"Gender and Sexual Diversity Inclusiveness Network\">GSDIN</abbr> can work with you to organize a session for teams or groups of 15 or more.</p>\n<h2><strong>Event information</strong></h2>\n<h3><strong>Gender and Sexual Diversity in the Workplace</strong></h3>\n<p>Designed as an introduction to LGBTQ2+ awareness, those who participate will:</p>\n<ul>\n<li>develop a broader perspective of and appreciation for gender and sexual diversity</li>\n<li>gain an understanding of the challenges faced by LGBTQ2+ persons in the workplace</li>\n<li>challenge their own biases and behaviours in an effort to be more inclusive.</li>\n</ul>\n<p>Watch the <a rel=\"external\" href=\"https://youtu.be/i6QZSFDMvvM\">Positive Space video</a> to learn more about this training and how it helps to create a more inclusive workplace for AAFC employees.</p>\n<p><strong>Date and Time:</strong> February 25 | 9:00 to 11:00 a.m. (ET)<br><strong>Language:</strong> French<br><strong>Location:</strong> NHCAP (T3-1-313); available across Canada via videoconference<br><strong>Registration:</strong> <a href=\"https://collab.agr.gc.ca/co/lgbt-glbt/Lists/Events/DispForm.aspx?ID=71&amp;Source=https%3A%2F%2Fcollab%2Eagr%2Egc%2Eca%2Fco%2Flgbt%2Dglbt%2FSitePages%2FEvent%2520Calendar%2Easpx\">In-person and videoconference</a></p>\n<p><strong>Date and Time:</strong> February 25 | 1:00 to 3:00 p.m. (ET)<br><strong>Language:</strong> English<br><strong>Location:</strong> NHCAP (T3-1-313); available across Canada via videoconference<br><strong>Registration:</strong> <a href=\"https://collab.agr.gc.ca/co/lgbt-glbt/Lists/Events/DispForm.aspx?ID=72&amp;Source=https%3A%2F%2Fcollab%2Eagr%2Egc%2Eca%2Fco%2Flgbt%2Dglbt%2FSitePages%2FEvent%2520Calendar%2Easpx\">In-person and videoconference</a></p>\n<h3><strong>Positive Space Champion Training</strong></h3>\n<p>Take your LGBTQ2+ awareness to a new level and become a diversity and inclusiveness champion in the workplace. Participants will:</p>\n<ul>\n<li>gain a better understanding of the range and diversity of LGBTQ2+ lives</li>\n<li>obtain a sense of the range of issues that they may encounter as a Positive Space champion</li>\n<li>increase their knowledge of the expectations of a Positive Space champion.</li>\n</ul>\n<p><strong>Note:</strong> We recommend participating in the Gender and Sexual Diversity in the Workplace training session prior to participating in the Positive Space Champion Training.</p>\n<p><strong>Date and Time:</strong> February 26 | 1:00 to 4:00 p.m. (ET)<br><strong>Language:</strong> Bilingual<br><strong>Location:</strong> NHCAP (T5-4-211)<br><strong>Registration:</strong> <a href=\"https://collab.agr.gc.ca/co/lgbt-glbt/Lists/Events/DispForm.aspx?ID=73&amp;Source=https%3A%2F%2Fcollab%2Eagr%2Egc%2Eca%2Fco%2Flgbt%2Dglbt%2FSitePages%2FEvent%2520Calendar%2Easpx\">In-person only</a></p>\n<h2><strong>Learn more</strong></h2>\n<p>Visit the <a href=\"https://collab.agr.gc.ca/co/lgbt-glbt/SitePages/Home.aspx\"><abbr title=\"Gender and Sexual Diversity Inclusiveness Network\">GSDIN</abbr> on Knowledge Workspace</a> to learn more about the Network. If you have any questions or require more information on how to request Positive Space training, contact the <abbr title=\"Gender and Sexual Diversity Inclusiveness Network\">GSDIN</abbr> at <a href=\"mailto:aafc.gsdin-ridgs.aac@canada.ca\">aafc.gsdin-ridgs.aac@canada.ca</a>. </p>\n<p><img src=\"https://intranet.agr.gc.ca/resources/prod/news/images/PSI.png\" class=\"center-block\"></p>\n\n\t\t",
        "fr": "<br>\n<br>\n<p>\u00c0 AAC, vous devriez vous sentir \u00e0 l\u2019aise d\u2019\u00eatre enti\u00e8rement vous-m\u00eame. D\u00e9couvrez comment vous pouvez promouvoir un milieu de travail inclusif pour tous en participant \u00e0 l\u2019une des prochaines s\u00e9ances de formation sur l\u2019Espace positif du R\u00e9seau de l\u2019inclusivit\u00e9 et de la diversit\u00e9 des genres et de la sexualit\u00e9 (<abbr title=\"R\u00e9seau de l\u2019inclusivit\u00e9 et de la diversit\u00e9 des genres et de la sexualit\u00e9\">RIDGS</abbr>). Cette importante formation ne s\u2019applique pas uniquement au travail; elle s\u2019applique \u00e0 tous les aspects de notre vie en tant que coll\u00e8gues, gestionnaires, amis et membres de la famille.</p>\n<p>En plus des s\u00e9ances indiqu\u00e9es ci-apr\u00e8s, le <abbr title=\"R\u00e9seau de l\u2019inclusivit\u00e9 et de la diversit\u00e9 des genres et de la sexualit\u00e9\">RIDGS</abbr> peut organiser des s\u00e9ances avec vous pour des \u00e9quipes ou des groupes de 15 personnes ou plus.</p>\n<h2><strong>Renseignements sur l\u2019activit\u00e9</strong></h2>\n<h3><strong>La diversit\u00e9 des genres et de la sexualit\u00e9 en milieu de travail </strong></h3>\n<p>Cette formation, qui se veut une s\u00e9ance d\u2019introduction et de sensibilisation \u00e0 la communaut\u00e9 LGBTQ2, permettra aux participants :</p>\n<ul>\n<li>d\u2019acqu\u00e9rir une perspective plus globale et une meilleure connaissance de la diversit\u00e9 des genres et de la sexualit\u00e9;</li>\n<li>d\u2019approfondir leur compr\u00e9hension des difficult\u00e9s auxquelles les membres de la communaut\u00e9 LGBTQ2 font face en milieu de travail;</li>\n<li>de remettre en question leurs propres pr\u00e9jug\u00e9s et comportements afin d\u2019\u00eatre plus inclusifs.</li>\n</ul>\n<p>Regardez la <a rel=\"external\" href=\"https://youtu.be/BL8tyZKcTHA\">vid\u00e9o de l\u2019Espace positif</a> afin d\u2019en apprendre davantage sur cette formation ainsi que sur la fa\u00e7on dont cette derni\u00e8re aide \u00e0 cr\u00e9er un milieu de travail plus inclusif pour le personnel d\u2019AAC.</p>\n<p><strong>Date et heure</strong><strong> :</strong> 25 f\u00e9vrier | 9 h \u00e0 11 h (HE)<br>\n<strong>Langue :</strong> Fran\u00e7ais<br>\n<strong>Lieu :</strong> CACPA (T3-1-313); diffus\u00e9 partout au Canada par vid\u00e9oconf\u00e9rence<br>\n<strong>Inscription :</strong> <a href=\"https://collab.agr.gc.ca/co/lgbt-glbt/Lists/Events/DispForm.aspx?ID=71&amp;Source=https%3A%2F%2Fcollab%2Eagr%2Egc%2Eca%2Fco%2Flgbt%2Dglbt%2FSitePages%2FEvent%2520Calendar%2Easpx\">en personne et par vid\u00e9oconf\u00e9rence</a></p>\n<p><strong>Date et heure :</strong> 25 f\u00e9vrier | 13 h \u00e0 15 h (HE)<br>\n<strong>Langue :</strong> Anglais<br>\n<strong>Lieu :</strong> CACPA (T3-1-313); diffus\u00e9 partout au Canada par vid\u00e9oconf\u00e9rence<br>\n<strong>Inscription :</strong> <a href=\"https://collab.agr.gc.ca/co/lgbt-glbt/Lists/Events/DispForm.aspx?ID=72&amp;Source=https%3A%2F%2Fcollab%2Eagr%2Egc%2Eca%2Fco%2Flgbt%2Dglbt%2FSitePages%2FEvent%2520Calendar%2Easpx\">en personne et par vid\u00e9oconf\u00e9rence</a></p>\n<h3><strong>Formation Champions de l\u2019Espace positif </strong></h3>\n<p>Approfondissez votre connaissance de la communaut\u00e9 LGBTQ2 et devenez un champion de la diversit\u00e9 et de l\u2019inclusivit\u00e9 en milieu de travail. Cette formation permettra aux participants :</p>\n<ul>\n<li>de mieux comprendre l\u2019\u00e9tendue de la communaut\u00e9 LGBTQ2 et la diversit\u00e9 des membres qui la composent;</li>\n<li>d\u2019obtenir une id\u00e9e de la port\u00e9e des divers enjeux auxquels ils font face comme champions de l\u2019initiative Espace positif;</li>\n<li>d\u2019approfondir leur connaissance des attentes \u00e0 l\u2019\u00e9gard d\u2019un champion de l\u2019initiative Espace positif.</li>\n</ul>\n<p><strong>Remarque :</strong> Nous recommandons de suivre la formation La diversit\u00e9 des genres et de la sexualit\u00e9 en milieu de travail avant de participer \u00e0 la formation Champions de l\u2019Espace positif.</p>\n<p><strong>Date et heure :</strong> 26 f\u00e9vrier | 13 h \u00e0 16 h (HE)<br>\n<strong>Langue :</strong> Bilingue<br>\n<strong>Lieu :</strong> CACPA (T5-4-211)<br>\n<strong>Inscription :</strong> <a href=\"https://collab.agr.gc.ca/co/lgbt-glbt/Lists/Events/DispForm.aspx?ID=73&amp;Source=https%3A%2F%2Fcollab%2Eagr%2Egc%2Eca%2Fco%2Flgbt%2Dglbt%2FSitePages%2FEvent%2520Calendar%2Easpx\">en personne</a></p>\n<h2><strong>Pour en savoir plus</strong></h2>\n<p>Visitez la page du <a href=\"https://collab.agr.gc.ca/co/lgbt-glbt/SitePages/Home.aspx\"><abbr title=\"R\u00e9seau de l\u2019inclusivit\u00e9 et de la diversit\u00e9 des genres et de la sexualit\u00e9\">RIDGS</abbr> dans l\u2019Espace de travail du savoir</a> pour en savoir plus sur le R\u00e9seau. Si vous avez des questions ou avez besoin de plus amples renseignements sur la fa\u00e7on d\u2019obtenir la formation sur l\u2019Espace positif, communiquez avec le <abbr title=\"R\u00e9seau de l\u2019inclusivit\u00e9 et de la diversit\u00e9 des genres et de la sexualit\u00e9\">RIDGS</abbr> \u00e0 <a href=\"mailto:aafc.gsdin-ridgs.aac@canada.ca\">aafc.gsdin-ridgs.aac@canada.ca</a>. </p>\n<p><img src=\"https://intranet.agr.gc.ca/resources/prod/news/images/PSI.png\" class=\"center-block\"></p>\n\t\t"
    },
    "breadcrumb": {
        "en": "Reminder - AAFC's Positive Space Initiative - Register for Upcoming Sessions",
        "fr": "Rappel - Initiative Espace positif d'AAC - Inscrivez-vous \u00e0 l'une des prochaines s\u00e9ances"
    },
    "news": {
        "date_posted": {
            "en": "2019-02-07",
            "fr": "2019-02-07"
        },
        "to": {
            "en": "All staff",
            "fr": "Tous les employ\u00e9s"
        },
        "by": {
            "en": "Gender and Sexual Diversity Inclusiveness Network",
            "fr": "R\u00e9seau de l'inclusivit\u00e9 et de la diversit\u00e9 des genres et de la sexualit\u00e9"
        }
    }
}