{
    "dcr_id": "1549665120594",
    "lang": "en",
    "title": {
        "en": "Speaker Series: \"Biomimicry\" - February 20",
        "fr": "S\u00e9rie de conf\u00e9rences : \u00ab Biomim\u00e9tisme \u00bb - 20 f\u00e9vrier"
    },
    "modified": "2019-02-18 00:00:00.0",
    "issued": "2019-02-14 00:00:00.0",
    "type_name": "intra-intra/news-nouv",
    "node_id": "1279030006975",
    "layout_name": null,
    "dc_date_created": "2019-02-12",
    "breadcrumb_label": "",
    "meta": {
        "issued": {
            "en": "2019-02-14",
            "fr": "2019-02-14"
        },
        "modified": {
            "en": "2019-02-18",
            "fr": "2019-02-18"
        },
        "format": {
            "en": "gcformat",
            "fr": "gcformat"
        },
        "title": {
            "en": "Speaker Series: \"Biomimicry\" - February 20",
            "fr": "S\u00e9rie de conf\u00e9rences : \u00ab Biomim\u00e9tisme \u00bb - 20 f\u00e9vrier"
        },
        "subject": {
            "en": "communications",
            "fr": "communications"
        },
        "description": {
            "en": "Do you know what biomimicry is? It is defined as \"Innovation as Inspired by Nature\", and it may provide sustainable solutions to challenges such as replicating natural flavours, colours and textures, nutrient absorption and issues related to food sustainability.",
            "fr": "Savez-vous ce qu'est le biomim\u00e9tisme? Il est d\u00e9fini comme \u00ab Innovation inspir\u00e9e par la nature \u00bb et peut fournir des solutions durables aux d\u00e9fis tels que la reproduction des ar\u00f4mes, couleurs et textures naturels, l'absorption des nutriments et les probl\u00e8mes li\u00e9s \u00e0 la durabilit\u00e9 des aliments."
        },
        "language": {
            "en": "eng",
            "fr": "fra"
        },
        "audience": {
            "en": "gcaudience",
            "fr": "gcaudience"
        },
        "creator": {
            "en": "Agriculture and Agri-Food Canada",
            "fr": "Agriculture et Agroalimentaire Canada"
        },
        "spatial": {
            "en": "gcregions",
            "fr": "gcregions"
        },
        "service": {
            "en": "AAFC_AgriSource",
            "fr": "AAC_AgriSource"
        },
        "accessRights": {
            "en": "3",
            "fr": "3"
        }
    },
    "body": {
        "en": "<br>\n<br>\n<p>Do you know what biomimicry is? It is defined as \u201cInnovation as Inspired by Nature,\u201d and it may provide sustainable solutions to challenges such as replicating natural flavours, colours and textures, nutrient absorption and issues related to food sustainability.</p>\n<p>Join us for a presentation by Professor Rickey Yada on the breadth and potential\u00a0of biomimicry-based solutions. This includes 3D printing of foods, culturing of meat as a\u00a0sustainable food solution, trends in nutrition and human health, and challenges with these products and technologies.</p>\n<p>For more information, please contact Samuel Bonti-Ankomah (<a href=\"mailto:Samuel.Bonti-Ankomah@canada.ca\">Samuel.Bonti-Ankomah@canada.ca</a>) or Douglas Ruby (<a href=\"mailto:Douglas.Ruby@canada.ca\">Douglas.Ruby@canada.ca</a>).</p>\n<h2><strong>Event information </strong></h2>\n<p><strong>Date: </strong>Wednesday, February 20<br><strong>Time: </strong>11:00 a.m.\u00a0to 12:00 p.m. (ET)<br><strong>Location: </strong>NHCAP (T3-1-313)<br><strong>Videoconference: </strong>76137731343; <strong>Guest PIN:</strong> 9018</p>\n<h2><strong>Speaker biography </strong></h2>\n<p><img src=\"https://intranet.agr.gc.ca/resources/prod/news/images/RickeyYada.png\" class=\"pull-left mrgn-rght-md\" alt=\"Rickey Yada\">Rickey Yada is Dean of the Faculty of Land and Food Systems and a professor of food science at the University of British Columbia (UBC) in Vancouver, BC. Dr. Yada has also held a number of leadership roles at the University of Guelph. He was Chair of the Department of Food Science, Assistant Vice President Research (Agri-Food Programs), a Canada Research Chair in food protein structure, Scientific Director of the Advanced Foods and Materials Network, and a founding member of the Food Institute, University of Guelph.</p>\n<p>He has written over 220 refereed journal publications and several book chapters. Dr. Yada is a Past President and Fellow of the Canadian Institute of Food Science and Technology, Past President and Fellow of the International Academy of International Union of Food Science and Technology, a Fellow of the Institute of Food Technologists and has an honorary DSc from the University of Guelph.</p>\n<h2><strong>About the\u00a0speaker series</strong></h2>\n<p>This\u00a0speaker series brings in leading expert guest speakers on critical policy issues affecting the agriculture and agri-food sector. The invited presenters benefit AAFC by raising awareness of alternative perspectives, information and potential approaches on key research areas affecting the sector.</p>\n<p>\u00a0</p>\n\n\t\t",
        "fr": "<br>\n<br>\n<p>Savez-vous ce qu\u2019est le biomim\u00e9tisme\u2009? Il est d\u00e9fini comme \u00ab Innovation inspir\u00e9e par la nature \u00bb et peut fournir des solutions durables aux d\u00e9fis tels que la reproduction des ar\u00f4mes, couleurs et textures naturels, l\u2019absorption des nutriments et les probl\u00e8mes li\u00e9s \u00e0 la durabilit\u00e9 des aliments.</p>\n<p>Nous vous invitons \u00e0 assister \u00e0 un expos\u00e9 du professeur Rickey Yada, sur l\u2019ampleur et le potentiel des solutions ax\u00e9es sur le biomim\u00e9tisme. Cela inclut l\u2019impression 3D des aliments, la culture de la viande en tant que solutions durables aux aliments, les tendances en mati\u00e8re de nutrition et de sant\u00e9 humaine, ainsi que les d\u00e9fis li\u00e9s \u00e0 ces produits et technologies.</p>\n<p>Pour obtenir de plus amples renseignements, veuillez communiquer avec Samuel Bonti-Ankomah (<a href=\"mailto:Samuel.Bonti-Ankomah@canada.ca\">Samuel.Bonti-Ankomah@canada.ca</a>), ou Douglas Ruby (<a href=\"mailto:Douglas.Ruby@canada.ca\">Douglas.Ruby@canada.ca</a>).</p>\n<h2><strong>Renseignements sur l\u2019\u00e9v\u00e9nement</strong></h2>\n<p><strong>Date </strong>: Mercredi<strong> </strong>20 f\u00e9vrier<br><strong>Heure </strong>:<strong> </strong>11 h \u00e0 12 h (HE)<br><strong>Lieu </strong>: CACPA (T3-1-313)<br><strong>Vid\u00e9oconf\u00e9rence </strong>: 76137731343,<strong> NIP d\u2019invit\u00e9 </strong>: 9018</p>\n<h2><strong>Notice biographique du conf\u00e9rencier</strong></h2>\n<p><img src=\"https://intranet.agr.gc.ca/resources/prod/news/images/RickeyYada.png\" class=\"pull-left mrgn-rght-md\" alt=\"Rickey Yada\">Rickey Yada est doyen de la Facult\u00e9 des sciences de l\u2019agriculture et de l\u2019alimentation et professeur des sciences de l\u2019alimentation \u00e0 l\u2019Universit\u00e9 de la Colombie-Britannique \u00e0 Vancouver, en Colombie-Britannique. M. Yada a \u00e9galement occup\u00e9 plusieurs postes de direction \u00e0 l\u2019Universit\u00e9 de Guelph. Il a \u00e9t\u00e9 professeur au d\u00e9partement des sciences de l\u2019alimentation, directeur du d\u00e9partement des sciences de l\u2019alimentation, vice-pr\u00e9sident adjoint \u00e0 la recherche, titulaire d\u2019une chaire de recherche du Canada en structure des prot\u00e9ines alimentaires, directeur scientifique du R\u00e9seau des aliments et des mat\u00e9riaux d\u2019avant-garde et membre fondateur de la Food Institute de l\u2019Universit\u00e9 de Guelph.<em></em></p>\n<p>Il est l\u2019auteur de plus de 220 articles r\u00e9vis\u00e9s par des pairs publi\u00e9s dans des revues et de plusieurs chapitres de livres. M. Yada est l\u2019ancien pr\u00e9sident et membre de l\u2019Institut canadien de science et technologie alimentaires, l\u2019ancien pr\u00e9sident et membre de l\u2019Acad\u00e9mie internationale de l\u2019Union internationale de science et de technologie alimentaires, membre de l\u2019Institute of Food Technologists et a un doctorat honorifique en sciences de l\u2019Universit\u00e9 de Guelph.</p>\n<h2><strong>\u00c0 propos de la s\u00e9rie de conf\u00e9rences</strong></h2>\n<p>Dans le cadre de la s\u00e9rie de conf\u00e9rences, des conf\u00e9renciers experts sont invit\u00e9s \u00e0 venir discuter d\u2019enjeux strat\u00e9giques critiques ayant une influence sur le secteur de l\u2019agriculture et de l\u2019agroalimentaire. Ces conf\u00e9rences permettent au personnel de l\u2019ACIA de conna\u00eetre d\u2019autres points de vue, d\u2019obtenir de l\u2019information et de prendre connaissance des approches potentielles concernant les secteurs de recherche cl\u00e9s qui ont une incidence sur l\u2019agriculture et l\u2019agroalimentaire.</p>\n\t\t"
    },
    "breadcrumb": {
        "en": "Speaker Series: \"Biomimicry\" - February 20",
        "fr": "S\u00e9rie de conf\u00e9rences : \u00ab Biomim\u00e9tisme \u00bb - 20 f\u00e9vrier"
    },
    "news": {
        "date_posted": {
            "en": "2019-02-14",
            "fr": "2019-02-14"
        },
        "to": {
            "en": "All staff",
            "fr": "Tous les employ\u00e9s"
        },
        "by": {
            "en": "Research and Analysis Directorate, Strategic Policy Branch",
            "fr": "Direction de la recherche et de l'analyse, Direction g\u00e9n\u00e9rale des politiques strat\u00e9giques"
        }
    }
}