{
    "dcr_id": "1549318597040",
    "lang": "en",
    "title": {
        "en": "Prevent the Spread of Flu - If You're Sick, Stay Home!",
        "fr": "Pr\u00e9venir la propagation de la grippe - Si vous \u00eates malade, restez \u00e0 la maison"
    },
    "modified": "2019-02-07 00:00:00.0",
    "issued": "2019-02-07 00:00:00.0",
    "type_name": "intra-intra/news-nouv",
    "node_id": "1279030006975",
    "layout_name": null,
    "dc_date_created": "2019-02-05",
    "breadcrumb_label": "",
    "meta": {
        "issued": {
            "en": "2019-02-07",
            "fr": "2019-02-07"
        },
        "modified": {
            "en": "2019-02-07",
            "fr": "2019-02-07"
        },
        "format": {
            "en": "gcformat",
            "fr": "gcformat"
        },
        "title": {
            "en": "Prevent the Spread of Flu - If You're Sick, Stay Home!",
            "fr": "Pr\u00e9venir la propagation de la grippe - Si vous \u00eates malade, restez \u00e0 la maison"
        },
        "subject": {
            "en": "communications",
            "fr": "communications"
        },
        "description": {
            "en": "With flu season still upon us, it is important to take a few minutes to remind ourselves of some preventative measures we can all take to limit the spread of viruses in the office.",
            "fr": "Nous sommes encore en pleine saison de la grippe. Il est donc important de prendre le temps de penser aux mesures pr\u00e9ventives que nous pouvons prendre pour limiter la propagation des virus dans le milieu de travail."
        },
        "language": {
            "en": "eng",
            "fr": "fra"
        },
        "audience": {
            "en": "gcaudience",
            "fr": "gcaudience"
        },
        "creator": {
            "en": "Agriculture and Agri-Food Canada",
            "fr": "Agriculture et Agroalimentaire Canada"
        },
        "spatial": {
            "en": "gcregions",
            "fr": "gcregions"
        },
        "service": {
            "en": "AAFC_AgriSource",
            "fr": "AAC_AgriSource"
        },
        "accessRights": {
            "en": "3",
            "fr": "3"
        }
    },
    "body": {
        "en": "<br>\n<br>\n<p>The flu is a contagious disease caused by viruses that infect the respiratory tract including nose, throat, and lungs. It is mainly spread from person to person through droplets produced while coughing or sneezing. It can also be transmitted by indirect contact by touching a contaminated object or surface and then touching your own mouth, eyes or nose before washing your hands.</p>\n<p>It can take\u00a0one to\u00a0four days for symptoms to appear after exposure to the virus, and symptoms include fever (39\u00b0C and above), cough, and muscle aches.</p>\n<p>With flu season still upon us, it is important to take a few minutes to remind ourselves of some preventative measures we can all take to limit the spread of viruses in the office.</p>\n<ul>\n<li><strong><strong>If you are sick, stay home. </strong></strong></li>\n<li>Get the flu shot. Consult your provincial and municipal public health officials for information on coverage and availability.</li>\n<li><a rel=\"external\" href=\"http://www.ccohs.ca/oshanswers/diseases/washing_hands.html\">Wash hands frequently</a> and after any contact with fluids from coughing or sneezing. </li>\n<li>Cover your mouth and nose with your arm (not your hand) when coughing or sneezing.</li>\n<li>Keep your hands away from your face.</li>\n</ul>\n<p>For more detailed information and tips, visit the <a rel=\"external\" href=\"https://www.canada.ca/en/public-health/services/diseases/flu-influenza.html\">Government of Canada flu facts page</a> or the <a rel=\"external\" href=\"https://www.ccohs.ca/topics/hazards/health/pandemics/\">Canadian Centre for Occupational Health and Safety page</a>.</p>\n\n\t\t",
        "fr": "<br>\n<br>\n<p>La grippe est une maladie contagieuse caus\u00e9e par des virus qui infectent les voies respiratoires, y compris le nez, la gorge et les poumons. Le virus de la grippe est principalement r\u00e9pandu d'une personne \u00e0 l'autre par l\u2019entremise de gouttelettes qui sont dispers\u00e9es dans l\u2019air lorsqu\u2019une personne infect\u00e9e tousse, \u00e9ternue ou parle. Il peut \u00e9galement \u00eatre transmis par contact indirect, par exemple, lorsqu\u2019une personne touche un objet ou une surface contamin\u00e9e, puis qu\u2019elle porte ses mains \u00e0 sa bouche, \u00e0 ses yeux ou \u00e0 son nez avant de s\u2019\u00eatre lav\u00e9es mains.</p>\n<p>Les sympt\u00f4mes peuvent mettre de un \u00e0 quatre jours apr\u00e8s l\u2019exposition au virus avant d\u2019appara\u00eetre, notamment la fi\u00e8vre (39 \u00b0C et plus), une toux et des douleurs musculaires.</p>\n<p>Nous sommes encore en pleine saison de la grippe. Il est donc important de prendre le temps de penser aux mesures pr\u00e9ventives que nous pouvons prendre pour limiter la propagation des virus dans le milieu de travail.</p>\n<ul>\n<li><strong>Si vous \u00eates malade, restez \u00e0 la maison.</strong></li>\n<li>Faites-vous vacciner contre la grippe. Consultez vos agents de sant\u00e9 publique provinciaux et municipaux pour obtenir des renseignements sur la couverture et la disponibilit\u00e9.</li>\n<li>Lavez-vous les mains fr\u00e9quemment et apr\u00e8s tout contact avec des fluides provenant de la toux ou des \u00e9ternuements. (<a rel=\"external\" href=\"https://www.cchst.ca/oshanswers/diseases/washing_hands.html\">Lavage fr\u00e9quent des mains</a> avec soin pour pr\u00e9venir l'irritation cutan\u00e9e.)</li>\n<li>Couvrez-vous la bouche et le nez avec le bras plut\u00f4t qu\u2019avec la main lorsque vous toussez ou que vous \u00e9ternuez.</li>\n<li>\u00c9loignez vos mains de votre visage.</li>\n</ul>\n<p>Pour de plus amples renseignements et des conseils, visitez le <a rel=\"external\" href=\"https://www.canada.ca/fr/sante-publique/services/maladies/grippe-influenza.html\">site du Gouvernement du Canada Grippe (influenza) : Sympt\u00f4mes et traitement</a> ou le <a rel=\"external\" href=\"https://www.cchst.ca/topics/hazards/health/pandemics/index.html\">Centre canadien d\u2019hygi\u00e8ne et de s\u00e9curit\u00e9 au travail</a>.</p>\n\t\t"
    },
    "breadcrumb": {
        "en": "Prevent the Spread of Flu - If You're Sick, Stay Home!",
        "fr": "Pr\u00e9venir la propagation de la grippe - Si vous \u00eates malade, restez \u00e0 la maison"
    },
    "news": {
        "date_posted": {
            "en": "2019-02-07",
            "fr": "2019-02-07"
        },
        "to": {
            "en": "All staff",
            "fr": "Tous les employ\u00e9s"
        },
        "by": {
            "en": "Corporate Management Branch",
            "fr": "Direction g\u00e9n\u00e9rale de la gestion int\u00e9gr\u00e9e"
        }
    }
}