{
    "dcr_id": "1549921067703",
    "lang": "en",
    "title": {
        "en": "Reminder - RAD Seminar: Agri Benchmark Pulse Report - February 26",
        "fr": "Rappel - S\u00e9minaire de la DRA : Rapport d'agri benchmark sur l'industrie des l\u00e9gumineuses - 26 f\u00e9vrier"
    },
    "modified": "2019-02-20 00:00:00.0",
    "issued": "2019-02-14 00:00:00.0",
    "type_name": "intra-intra/news-nouv",
    "node_id": "1279030006975",
    "layout_name": null,
    "dc_date_created": "2019-02-12",
    "breadcrumb_label": "",
    "meta": {
        "issued": {
            "en": "2019-02-14",
            "fr": "2019-02-14"
        },
        "modified": {
            "en": "2019-02-20",
            "fr": "2019-02-20"
        },
        "format": {
            "en": "gcformat",
            "fr": "gcformat"
        },
        "title": {
            "en": "Reminder - RAD Seminar: Agri Benchmark Pulse Report - February 26",
            "fr": "Rappel - S\u00e9minaire de la DRA : Rapport d'agri benchmark sur l'industrie des l\u00e9gumineuses - 26 f\u00e9vrier"
        },
        "subject": {
            "en": "communications",
            "fr": "communications"
        },
        "description": {
            "en": "Want to learn about global pulse production, trade and key players in the pulse industry? The Research and Analysis Directorate invites you to a presentation by Dr. Yelto Zimmer, Managing Director of agri benchmark.",
            "fr": "Vous souhaitez en savoir plus sur l'industrie mondiale des l\u00e9gumineuses? La Direction de la recherche et de l'analyse vous invite \u00e0 assister \u00e0 une pr\u00e9sentation donn\u00e9e par Yelto Zimmer (Ph. D.), directeur g\u00e9n\u00e9ral d'agri benchmark."
        },
        "language": {
            "en": "eng",
            "fr": "fra"
        },
        "audience": {
            "en": "gcaudience",
            "fr": "gcaudience"
        },
        "creator": {
            "en": "Agriculture and Agri-Food Canada",
            "fr": "Agriculture et Agroalimentaire Canada"
        },
        "spatial": {
            "en": "gcregions",
            "fr": "gcregions"
        },
        "service": {
            "en": "AAFC_AgriSource",
            "fr": "AAC_AgriSource"
        },
        "accessRights": {
            "en": "3",
            "fr": "3"
        }
    },
    "body": {
        "en": "<br>\n<br>\n<p>Want to learn about global pulse production, trade and key players in the pulse industry? The Research and Analysis Directorate invites you to a presentation by Dr. Yelto Zimmer, Managing Director of agri benchmark. The presentation will provide analysis on the cost of production of pulses and on the pulse sector in Siberia and Kazakhstan. It will also touch on European Union policies that promote pulse production.\n</p>\n<h2>Event information\n</h2>\n<p>\n<strong>Date:</strong> Tuesday, February 26\n<br>\n<strong>Time:</strong> 10:30 a.m.\u00a0to 12:00 p.m. (ET)\n<br><strong>Location:</strong> NHCAP (T7-6-244)\n<br>\n<strong>Teleconference:</strong> 1-877-413-4788 or 613-960-7513; <strong>Conference ID:</strong> 6842920\n</p>\n<p>For more information, please contact Michael Li (<a href=\"mailto:Michaeldelun.li@canada.ca\">Michaeldelun.li@canada.ca</a>).\n \n</p>\n<p><img src=\"https://intranet.agr.gc.ca/resources/prod/news/images/YeltoZimmer.png\" class=\"pull-left mrgn-rght-md\" alt=\"Yelto Zimmer\">Dr. Yelto Zimmer is the Managing Director of agri benchmark, and is based in Braunschweig, Germany. He has been with the organization for the past 14 years and specializes in cost of production of cash crops. Dr. Zimmer holds a PhD from Georg-August University in G\u00f6ttingen, Germany and is a member of the editorial board of the International Journal of Agricultural Management.\n</p>\n<h2>About agri benchmark\n</h2>\n<p>\nThe agri benchmark network is a global, non-profit\u00a0group of agricultural economists, advisors, producers and specialists in key sectors of agricultural and horticultural value chains. The network has developed internationally standardised methods to analyze farms, production systems and their profitability.</p>\n\n\t\t",
        "fr": "<br>\n<br>\n<p>Vous souhaitez en savoir plus sur l\u2019industrie mondiale des l\u00e9gumineuses? La Direction de la recherche et de l\u2019analyse vous invite \u00e0 assister \u00e0 une pr\u00e9sentation donn\u00e9e par Yelto Zimmer (Ph. D.), directeur g\u00e9n\u00e9ral d\u2019agri benchmark. La pr\u00e9sentation donnera un aper\u00e7u de la production, du commerce et des principaux intervenants dans l\u2019industrie des l\u00e9gumineuses et fournira une analyse du co\u00fbt de production dans plusieurs pays. De plus, il y aura une discussion sur l\u2019industrie des l\u00e9gumineuses en Sib\u00e9rie et au Kazakhstan et sur les politiques de l\u2019Union europ\u00e9enne qui encouragent la production de l\u00e9gumineuses.\n\u00a0\n</p>\n<h2>\nInformation sur l\u2019activit\u00e9\n</h2>\n<p>\n<strong>Date\u00a0:</strong> Mardi 26 f\u00e9vrier\n<br>\n<strong>Heure :</strong> 10 h 30 \u00e0 12 h (HE)\n<br><strong>Lieu :</strong> CACPA (T7-6-244)\n<br>\n<strong>T\u00e9l\u00e9conf\u00e9rence :</strong> 1-877-413-4788 ou 613-960-7513; <strong>ID de la conf\u00e9rence :</strong> 6842920\n\u00a0\n</p>\n<p>\nPour de plus amples renseignements, veuillez communiquer avec Michael Li (<a href=\"mailto:Michaeldelun.li@canada.ca\">Michaeldelun.li@canada.ca</a>). \n</p>\n<p>\n<img src=\"https://intranet.agr.gc.ca/resources/prod/news/images/YeltoZimmer.png\" class=\"pull-left mrgn-rght-md\" alt=\"Yelto Zimmer\">Yelto Zimmer est le directeur g\u00e9n\u00e9ral d\u2019agri benchmark et est bas\u00e9 \u00e0 Braunschweig, en Allemagne. Il fait partie de cette organisation depuis 14 ans et se sp\u00e9cialise dans le co\u00fbt de production des cultures commerciales. M. Zimmer est titulaire d\u2019un Ph. D. de l\u2019Universit\u00e9 Georg-August de G\u00f6ttingen, en Allemagne, et est membre du comit\u00e9 de r\u00e9daction de l\u2019International Journal of Agricultural Management.\n</p>\n<h2>Au sujet d\u2019agri benchmark\n</h2>\n<p>agri benchmark est un r\u00e9seau mondial sans but lucratif qui r\u00e9unit des \u00e9conomistes, des conseillers, des producteurs et des sp\u00e9cialistes d\u2019industries cl\u00e9s des cha\u00eenes de valeur de l\u2019agriculture et de l\u2019horticulture. Ce r\u00e9seau a mis au point des m\u00e9thodes normalis\u00e9es \u00e0 l\u2019\u00e9chelle internationale pour analyser les exploitations agricoles/syst\u00e8mes de production et leur rentabilit\u00e9.</p>\n\t\t"
    },
    "breadcrumb": {
        "en": "Reminder - RAD Seminar: Agri Benchmark Pulse Report - February 26",
        "fr": "Rappel - S\u00e9minaire de la DRA : Rapport d'agri benchmark sur l'industrie des l\u00e9gumineuses - 26..."
    },
    "news": {
        "date_posted": {
            "en": "2019-02-14",
            "fr": "2019-02-14"
        },
        "to": {
            "en": "All staff",
            "fr": "Tous les employ\u00e9s"
        },
        "by": {
            "en": "Research and Analysis Directorate, Strategic Policy Branch",
            "fr": "Direction de la recherche et de l'analyse, Direction g\u00e9n\u00e9rale des politiques strat\u00e9giques"
        }
    }
}