{
    "dcr_id": "1549485260562",
    "lang": "en",
    "title": {
        "en": "Values and Ethics Awareness Month: Training and Tools for Employees",
        "fr": "Mois de la sensibilisation aux valeurs et \u00e0 l'\u00e9thique : Formation et outils pour les employ\u00e9s"
    },
    "modified": "2019-02-14 00:00:00.0",
    "issued": "2019-02-14 00:00:00.0",
    "type_name": "intra-intra/news-nouv",
    "node_id": "1279030006975",
    "layout_name": null,
    "dc_date_created": "2019-02-08",
    "breadcrumb_label": "",
    "meta": {
        "issued": {
            "en": "2019-02-14",
            "fr": "2019-02-14"
        },
        "modified": {
            "en": "2019-02-14",
            "fr": "2019-02-14"
        },
        "format": {
            "en": "gcformat",
            "fr": "gcformat"
        },
        "title": {
            "en": "Values and Ethics Awareness Month: Training and Tools for Employees",
            "fr": "Mois de la sensibilisation aux valeurs et \u00e0 l'\u00e9thique : Formation et outils pour les employ\u00e9s"
        },
        "subject": {
            "en": "communications",
            "fr": "communications"
        },
        "description": {
            "en": "As we continue to reflect on the value and meaning of respect in the workplace throughout the month of February, initiatives and products continue to be promoted to assist you with ethical decision making.",
            "fr": "Tout au long de f\u00e9vrier, nous r\u00e9fl\u00e9chirons \u00e0 la valeur et au sens du respect en milieu de travail, et continuerons de promouvoir des initiatives et des produits pour vous aider \u00e0 prendre des d\u00e9cisions \u00e9thiques."
        },
        "language": {
            "en": "eng",
            "fr": "fra"
        },
        "audience": {
            "en": "gcaudience",
            "fr": "gcaudience"
        },
        "creator": {
            "en": "Agriculture and Agri-Food Canada",
            "fr": "Agriculture et Agroalimentaire Canada"
        },
        "spatial": {
            "en": "gcregions",
            "fr": "gcregions"
        },
        "service": {
            "en": "AAFC_AgriSource",
            "fr": "AAC_AgriSource"
        },
        "accessRights": {
            "en": "3",
            "fr": "3"
        }
    },
    "body": {
        "en": "<br>\n<br>\n<p>As we continue to reflect on the value and meaning of respect in the workplace throughout the month of February, initiatives and products continue to be promoted to assist you with ethical decision making.</p>\n<h2><strong>What training can I take?</strong></h2>\n<p>Book yourself a calendar timeslot and take the online Values and Ethics module as part of the mandatory <strong>Security Awareness Web-based Training (AGR-620)</strong>. As well, the <strong>Values and Ethics Foundations for Employees (C255)</strong>, offered by the Canada School of Public Service, is a mandatory online course for new employees. This training will help you identify and apply key principles related to values and ethics through interactive exercises and scenarios.</p>\n<h2><strong>What tools are available?</strong></h2>\n<p>If you are faced with an ethical situation, explore the <a href=\"https://intranet.agr.gc.ca/agrisource/AgriDoc.do?id=103763251&amp;lang=eng\" target=\"_blank\">resources and tools</a>\u00a0that help guide employees and managers in finding appropriate options for resolving issues in the workplace. In addition, the Canadian Agriculture Library (<abbr title=\"Canadian Agriculture Library\">CAL</abbr>) has developed a <a href=\"https://collab.agr.gc.ca/co/kis-sis/Documents/values_ethics_resource_list_2018.pdf\">list of resources on the subject of values and ethics</a>. This list includes books and e-books from the <abbr title=\"Canadian Agriculture Library\">CAL</abbr>\u2019s collection.</p>\n<p>Also, take a few minutes to view the <strong><a rel=\"external\" href=\"https://vimeo.com/222424327/d4da65576d\">\"Integrity &amp; Respect: One small gesture\"</a></strong><em> </em>video produced by Statistics Canada, featuring the positive impact that demonstrating respect can have in any given situation.</p>\n<p>Treating everyone with respect contributes to a safe and healthy workplace.</p>\n<p>For more information related to values and ethics please email the Values and Ethics Policy Centre (<a href=\"mailto:aafc.valuesandethics-valeursetethique.aac@canada.ca\">aafc.valuesandethics-valeursetethique.aac@canada.ca</a>) or call 1-866-894-5464 (toll-free).</p>\n<p><img src=\"https://intranet.agr.gc.ca/resources/prod/news/images/ValuesEthics2019-EN.png\" class=\"center-block\" alt=\"Values and Ethics Awareness Month\"></p>\n\n\t\t",
        "fr": "<br>\n<br>\n<p>\nTout au long de f\u00e9vrier, nous r\u00e9fl\u00e9chirons \u00e0 la valeur et au sens du respect en milieu de travail, et continuerons de promouvoir des initiatives et des produits pour vous aider \u00e0 prendre des d\u00e9cisions \u00e9thiques.</p>\n<h2><strong>Quelle formation puis-je suivre?</strong></h2>\n<p>R\u00e9servez-vous un cr\u00e9neau horaire et suivez le module en ligne sur les valeurs et l\u2019\u00e9thique dans le cadre de la <strong>Formation en ligne obligatoire sur la sensibilisation \u00e0 la s\u00e9curit\u00e9 (AGR-620)</strong>. De plus, le cours <strong>Fondements des valeurs et de l\u2019\u00e9thique pour les employ\u00e9s (C255)</strong>, offert en ligne par l\u2019\u00c9cole de la fonction publique du Canada, est obligatoire pour les nouveaux employ\u00e9s. Au moyen d\u2019exercices et de sc\u00e9narios interactifs, cette formation vous aidera \u00e0 cerner et \u00e0 appliquer les principes cl\u00e9s des valeurs et de l\u2019\u00e9thique.</p>\n<h2><strong>Quels sont les outils disponibles?</strong></h2>\n<p>Si vous faites face \u00e0 un probl\u00e8me d\u2019ordre \u00e9thique, prenez connaissance des\u00a0<a href=\"https://intranet.agr.gc.ca/agrisource/AgriDoc.do?id=103778818&amp;lang=fra\" target=\"_blank\">ressources et outils</a>\u00a0qui aident les employ\u00e9s et les gestionnaires \u00e0 trouver les solutions appropri\u00e9es pour r\u00e9soudre les probl\u00e8mes en milieu de travail. De plus, la Biblioth\u00e8que canadienne de l\u2019agriculture (<abbr title=\"Biblioth\u00e8que canadienne de l\u2019agriculture \">BCA</abbr>) a dress\u00e9 une <a href=\"https://collab.agr.gc.ca/co/kis-sis/Documents/Values%20and%20Ethics-%202019%20-fr.pdf\">liste de ressources sur les valeurs et l\u2019\u00e9thique</a>. Cette liste comprend une s\u00e9lection de livres imprim\u00e9s et \u00e9lectroniques de la collection de la <abbr title=\"Biblioth\u00e8que canadienne de l\u2019agriculture \">BCA</abbr>.</p>\n<p>Prenez aussi quelques minutes pour visionner la vid\u00e9o cr\u00e9\u00e9e par Statistique Canada, intitul\u00e9e <strong><a href=\"https://vimeo.com/222511392/87d7e6c863\">\u00ab Int\u00e9grit\u00e9 et respect : un petit geste \u00bb</a></strong><em> </em>d\u00e9montrant que le respect peut avoir une incidence positive dans toute situation.</p>\n<p>Traiter autrui avec respect contribue \u00e0 un milieu de travail sain et s\u00e9curitaire.</p>\n<p>Pour en savoir plus sur les valeurs et l\u2019\u00e9thique, veuillez envoyer un courriel au Centre de la politique sur les valeurs et l\u2019\u00e9thique (<a href=\"mailto:aafc.valuesandethics-valeursetethique.aac@canada.ca\">aafc.valuesandethics-valeursetethique.aac@canada.ca</a>)\u00a0ou composez le 1-866-894-5464 (sans frais).</p>\n<p><img src=\"https://intranet.agr.gc.ca/resources/prod/news/images/ValuesEthics2019-FR.png\" class=\"center-block\" alt=\"Mois de la sensibilisation aux valeurs et \u00e0 l'\u00e9thique\"></p>\n\t\t"
    },
    "breadcrumb": {
        "en": "Values and Ethics Awareness Month: Training and Tools for Employees",
        "fr": "Mois de la sensibilisation aux valeurs et \u00e0 l'\u00e9thique : Formation et outils pour les employ\u00e9s"
    },
    "news": {
        "date_posted": {
            "en": "2019-02-14",
            "fr": "2019-02-14"
        },
        "to": {
            "en": "All staff",
            "fr": "Tous les employ\u00e9s"
        },
        "by": {
            "en": "Human Resources, Corporate Management Branch",
            "fr": "Ressources humaines, Direction g\u00e9n\u00e9rale de la gestion int\u00e9gr\u00e9e"
        }
    }
}