{
    "dcr_id": "1549652358146",
    "lang": "en",
    "title": {
        "en": "Bill C-91 - \"An Act Respecting Indigenous Languages\" ",
        "fr": "Projet de loi C-91 - \u00ab Loi concernant les langues autochtones \u00bb"
    },
    "modified": "2019-02-14 00:00:00.0",
    "issued": "2019-02-14 00:00:00.0",
    "type_name": "intra-intra/news-nouv",
    "node_id": "1279030006975",
    "layout_name": null,
    "dc_date_created": "2019-02-08",
    "breadcrumb_label": "",
    "meta": {
        "issued": {
            "en": "2019-02-14",
            "fr": "2019-02-14"
        },
        "modified": {
            "en": "2019-02-14",
            "fr": "2019-02-14"
        },
        "format": {
            "en": "gcformat",
            "fr": "gcformat"
        },
        "title": {
            "en": "Bill C-91 - \"An Act Respecting Indigenous Languages\" ",
            "fr": "Projet de loi C-91 - \u00ab Loi concernant les langues autochtones \u00bb"
        },
        "subject": {
            "en": "communications",
            "fr": "communications"
        },
        "description": {
            "en": "Last week, Minister Pablo Rodriguez, Minister of Canadian Heritage and Multiculturalism, introduced in the House of Commons the Bill on the reclamation, revitalization, maintenance and strengthening of Indigenous languages in Canada.",
            "fr": "La semaine derni\u00e8re, l'honorable Pablo Rodriguez, ministre du Patrimoine canadien et du Multiculturalisme, a pr\u00e9sent\u00e9 devant la Chambre des communes le projet de loi concernant la r\u00e9appropriation, la revitalisation, le maintien et le renforcement des langues autochtones au Canada."
        },
        "language": {
            "en": "eng",
            "fr": "fra"
        },
        "audience": {
            "en": "gcaudience",
            "fr": "gcaudience"
        },
        "creator": {
            "en": "Agriculture and Agri-Food Canada",
            "fr": "Agriculture et Agroalimentaire Canada"
        },
        "spatial": {
            "en": "gcregions",
            "fr": "gcregions"
        },
        "service": {
            "en": "AAFC_AgriSource",
            "fr": "AAC_AgriSource"
        },
        "accessRights": {
            "en": "3",
            "fr": "3"
        }
    },
    "body": {
        "en": "<br>\n<br>\n<p>Last week, Minister Pablo Rodriguez, Minister of Canadian Heritage and Multiculturalism, introduced in the House of Commons\u00a0a Bill on the reclamation, revitalization, maintenance and strengthening of Indigenous languages in Canada.</p>\n<p>Indigenous languages are an integral part of Canada\u2019s Indigenous and cultural identity. In this <a rel=\"external\" href=\"https://en.iyil2019.org/\">International Year of Indigenous Languages</a>, UNESCO has pointed out that three quarters of the 90 living Indigenous languages in Canada are in the process of disappearing forever. It is therefore urgent that action be taken to prevent this from happening.</p>\n<p>The Bill, entitled\u00a0\"<i>An Act respecting Indigenous languages</i>,\" was co-developed with Indigenous Peoples and is the result of an intensive, national <a rel=\"external\" href=\"https://www.canada.ca/en/canadian-heritage/campaigns/indigenous-languages-legislation.html\">mobilization</a> exercise that took place over almost two years. I wish to sincerely thank all employees who worked, either directly or indirectly, on the development of this legislation. We have many reasons to be proud of the work that has been accomplished, particularly because this is the very first Bill of this complexity and it was co-developed on the basis of this model in Canada.</p>\n<p>The Bill represents for the Government of Canada a major step on the path toward reconciliation with Indigenous Peoples. Find out more on the <a rel=\"external\" href=\"https://www.canada.ca/en/canadian-heritage/news/2019/02/government-of-canadaintroduces-historiclegislationonindigenous-languages.html\">Canadian Heritage website</a>.</p>\n\n\t\t",
        "fr": "<br>\n<br>\n<p>La semaine derni\u00e8re, l\u2019honorable Pablo Rodriguez, ministre du Patrimoine canadien et du Multiculturalisme, a pr\u00e9sent\u00e9 devant la Chambre des communes le projet de loi concernant la r\u00e9appropriation, la revitalisation, le maintien et le renforcement des langues autochtones au Canada.</p>\n<p>Les langues autochtones font partie int\u00e9grante de l\u2019identit\u00e9 autochtone et de l\u2019identit\u00e9 culturelle du Canada. En cette <a rel=\"external\" href=\"https://fr.iyil2019.org/\">ann\u00e9e internationale des langues autochtones</a>, l\u2019UNESCO nous rappelle que les trois quarts des 90 langues autochtones toujours vivantes au Canada sont en voie de s\u2019\u00e9teindre \u00e0 jamais. Il y a donc urgence d\u2019agir afin d\u2019\u00e9viter que cela ne se produise.</p>\n<p>Le projet de loi intitul\u00e9 \u00ab Loi concernant les langues autochtones \u00bb a \u00e9t\u00e9 co-d\u00e9velopp\u00e9 avec les peuples autochtones et est le r\u00e9sultat d\u2019un exercice national intensif de <a rel=\"external\" href=\"https://www.canada.ca/fr/patrimoine-canadien/campagnes/legislation-langues-autochtones.html\">mobilisation</a> qui s\u2019est \u00e9tal\u00e9 sur pr\u00e8s de deux ans. Patrimoine canadien est fier du travail collaboratif accompli et du fait qu\u2019il s\u2019agisse du tout premier projet de loi de cette complexit\u00e9 et co-d\u00e9velopp\u00e9 selon ce mod\u00e8le au Canada.</p>\n<p>Ce projet de loi repr\u00e9sente pour le gouvernement du Canada un important pas vers la voie de la r\u00e9conciliation avec les peuples autochtones. Obtenez plus de d\u00e9tails sur le <a rel=\"external\" href=\"https://www.canada.ca/fr/patrimoine-canadien/nouvelles/2019/02/le-gouvernement-du-canada-presente-un-projet-de-loi-historique-sur-les-langues-autochtones.html\">site Web de Patrimoine canadien</a>.</p>\n\t\t"
    },
    "breadcrumb": {
        "en": "Bill C-91 - \"An Act Respecting Indigenous Languages\"",
        "fr": "Projet de loi C-91 - \u00ab Loi concernant les langues autochtones \u00bb"
    },
    "news": {
        "date_posted": {
            "en": "2019-02-14",
            "fr": "2019-02-14"
        },
        "to": {
            "en": "All staff",
            "fr": "Tous les employ\u00e9s"
        },
        "by": {
            "en": "Canadian Heritage",
            "fr": "Patrimoine canadien"
        }
    }
}