{
    "dcr_id": "1549979075008",
    "lang": "en",
    "title": {
        "en": "Deployment of Telematics Devices in AAFC's Vehicle Fleet",
        "fr": "D\u00e9ploiement de dispositifs t\u00e9l\u00e9matiques dans le parc automobile d'AAC"
    },
    "modified": "2019-02-14 00:00:00.0",
    "issued": "2019-02-14 00:00:00.0",
    "type_name": "intra-intra/news-nouv",
    "node_id": "1279030006975",
    "layout_name": null,
    "dc_date_created": "2019-02-12",
    "breadcrumb_label": "",
    "meta": {
        "issued": {
            "en": "2019-02-14",
            "fr": "2019-02-14"
        },
        "modified": {
            "en": "2019-02-14",
            "fr": "2019-02-14"
        },
        "format": {
            "en": "gcformat",
            "fr": "gcformat"
        },
        "title": {
            "en": "Deployment of Telematics Devices in AAFC's Vehicle Fleet",
            "fr": "D\u00e9ploiement de dispositifs t\u00e9l\u00e9matiques dans le parc automobile d'AAC"
        },
        "subject": {
            "en": "communications",
            "fr": "communications"
        },
        "description": {
            "en": "Beginning this week, AAFC is participating in a Telematics Pilot Project in partnership with Natural Resources Canada.",
            "fr": "D\u00e9butant cette semaine, l'AAC participera \u00e0 un projet pilote de t\u00e9l\u00e9matique en collaboration avec Ressources naturelles Canada."
        },
        "language": {
            "en": "eng",
            "fr": "fra"
        },
        "audience": {
            "en": "gcaudience",
            "fr": "gcaudience"
        },
        "creator": {
            "en": "Agriculture and Agri-Food Canada",
            "fr": "Agriculture et Agroalimentaire Canada"
        },
        "spatial": {
            "en": "gcregions",
            "fr": "gcregions"
        },
        "service": {
            "en": "AAFC_AgriSource",
            "fr": "AAC_AgriSource"
        },
        "accessRights": {
            "en": "3",
            "fr": "3"
        }
    },
    "body": {
        "en": "<br>\n<br>\n<p>Beginning this week, AAFC is participating in a Telematics Pilot Project in partnership with Natural Resources Canada. Telematics devices will be installed in 226 conventionally-fueled vehicles located in the Ontario and Qu\u00e9bec regions and in 17 plug-in electric vehicles located at 13 research centres across Canada. This usage data will help the department make investment decisions about future electric and hybrid vehicle purchases as well as help us to reduce fuel consumption and greenhouse gas emissions.</p>\n<p>Implementation will be phased in, starting\n<img src=\"https://intranet.agr.gc.ca/resources/prod/news/images/Telematics-EN.png\" class=\"pull-right mrgn-lft-md\" alt=\"\u201cNo Log Book Required . . . because this vehicle is equipped with a telematics device.\u201d\"></p>\n<ul>\n<li>February 13, 2019 in St-Jean-sur-Richelieu, Saint-Hyacinthe and Montr\u00e9al;</li>\n<li>February 20, 2019 in Sainte-Foy, Normandin and Harrow;</li>\n<li>February 27, 2019 in Ottawa; and</li>\n<li>March 6, 2019 in Lennoxville, London, Vineland, and Guelph as well as on electric vehicles in the Atlantic region and British Columbia.\n</li>\n</ul>\n<p>\nNo log books are required\u00a0for vehicles equipped with telematics devices. All fleet usage is captured electronically. You will know which vehicles are included in the pilot project because there will be a key tag which reads: \u201cNo Log Book Required . . . because this vehicle is equipped with a telematics device.\u201d</p>\n<p>The information collected will not include personal information. To find out more, read <a href=\"https://collab.agr.gc.ca/br-dg/cmb-dggi/_layouts/15/DocIdRedir.aspx?ID=AGR-7555304\">Privacy Notice: Data Collection with Telematics Devices</a>.\n</p>\n<p>Intentionally removing any of the devices is not permitted. The devices send an alert if and when they are disconnected and managers will be notified.</p>\n<p>To learn about the department\u2019s commitment to reduce greenhouse gas emissions in its facilities and fleet, please\u00a0visit the\u00a0<a href=\"http://intranet.agr.gc.ca/agrisource/eng/our-department/departmental-overview/greening-government-operations/greenhouse-gas-reduction?id=1331576954368\">Greenhouse gas reduction AgriSource page</a>.</p>\n<p>Please contact Michelle Bruce at <a href=\"mailto:michelle.bruce@canada.ca\">michelle.bruce@canada.ca</a> if you have any questions.</p>\n\n\t\t",
        "fr": "<br>\n<br>\n<p>D\u00e9butant cette semaine, l\u2019AAC participera \u00e0 un projet pilote de t\u00e9l\u00e9matique en collaboration avec Ressources naturelles Canada.\u00a0Des dispositifs t\u00e9l\u00e9matiques seront install\u00e9s sur 226 v\u00e9hicules \u00e0 essence conventionnels en Ontario et au Qu\u00e9bec et sur 17 v\u00e9hicules \u00e9lectriques rechargeables \u00e0 13 centres de recherche au Canada. Les donn\u00e9es sur l\u2019utilisation des v\u00e9hicules aideront le Minist\u00e8re \u00e0 prendre des d\u00e9cisions concernant les achats futurs de v\u00e9hicules \u00e9lectriques et hybrides et nous aideront \u00e0 r\u00e9duire la consommation de carburant et les \u00e9missions de gaz \u00e0 effet de serre.</p>\n<p>La mise en oeuvre se fera progressivement, \u00e0 compter :<img src=\"https://intranet.agr.gc.ca/resources/prod/news/images/Telematics-FR.png\" class=\"pull-right mrgn-lft-md\" alt=\"\u00ab Aucun carnet de route requis . . . car ce v\u00e9hicule est dot\u00e9 d\u2019un dispositif t\u00e9l\u00e9matique. \u00bb\"></p>\n<ul>\n<li>du 13 f\u00e9vrier 2019 \u00e0 Saint-Jean-sur-Richelieu, \u00e0 Saint-Hyacinthe et \u00e0 Montr\u00e9al;</li>\n<li>du 20 f\u00e9vrier 2019 \u00e0 Sainte-Foy, \u00e0 Normandin et \u00e0 Harrow;</li>\n<li>du 27 f\u00e9vrier 2019 \u00e0 Ottawa;</li>\n<li>du 6 mars 2019 \u00e0 Lennoxville, \u00e0 London, \u00e0 Vineland, \u00e0 Guelph et pour les v\u00e9hicules \u00e9lectriques dans la r\u00e9gion de l\u2019Atlantique et en Colombie-Britannique.</li>\n</ul>\n<p>\n\tAucun carnet de route n\u2019est requis pour les v\u00e9hicules dot\u00e9s de dispositifs t\u00e9l\u00e9matiques. Toutes les donn\u00e9es sur l\u2019utilisation des v\u00e9hicules sont saisies \u00e9lectroniquement. Vous saurez quels v\u00e9hicules sont vis\u00e9s par le projet pilote, car ils auront une \u00e9tiquette de cl\u00e9 portant la mention : \u00ab Aucun carnet de route requis . . . car ce v\u00e9hicule est dot\u00e9 d\u2019un dispositif t\u00e9l\u00e9matique. \u00bb</p>\n<p>Les donn\u00e9es recueillies n\u2019incluront aucun renseignement personnel. Pour en savoir plus, lisez <a href=\"https://collab.agr.gc.ca/br-dg/cmb-dggi/_layouts/15/DocIdRedir.aspx?ID=AGR-7555303\">\u00c9nonc\u00e9 de confidentialit\u00e9 : collecte de donn\u00e9es au moyen d\u2019appareils t\u00e9l\u00e9matiques</a>.</p>\n<p>Il est interdit aux employ\u00e9s de retirer intentionnellement l\u2019un ou l\u2019autre des dispositifs. Les dispositifs \u00e9mettront un signal d\u2019alerte d\u00e8s qu\u2019ils sont d\u00e9connect\u00e9s et les gestionnaires seront avis\u00e9s.</p>\n<p>\nPour comprendre l\u2019engagement du Minist\u00e8re de r\u00e9duire les \u00e9missions de gaz \u00e0 effet de serre de ses installations et de son parc automobile, veuillez consulter la <a href=\"http://intranet.agr.gc.ca/agrisource/fra/notre-ministere/vue-densemble-du-ministere/ecologisation-des-operations-gouvernementales/reduction-des-emissions-de-gaz-a-effet-de-serre?id=1331576954368\">page R\u00e9duction des \u00e9missions de gaz \u00e0 effet de serre dans AgriSource</a>.</p>\n<p>Veuillez communiquer avec Michelle Bruce (<a href=\"mailto:michelle.bruce@canada.ca\">michelle.bruce@canada.ca</a>) si vous avez des questions.</p>\n\t\t"
    },
    "breadcrumb": {
        "en": "Deployment of Telematics Devices in AAFC's Vehicle Fleet",
        "fr": "D\u00e9ploiement de dispositifs t\u00e9l\u00e9matiques dans le parc automobile d'AAC"
    },
    "news": {
        "date_posted": {
            "en": "2019-02-14",
            "fr": "2019-02-14"
        },
        "to": {
            "en": "All staff",
            "fr": "Tous les employ\u00e9s"
        },
        "by": {
            "en": "Corporate Management Branch",
            "fr": "Direction g\u00e9n\u00e9rale de la gestion int\u00e9gr\u00e9e"
        }
    }
}