{
    "dcr_id": "1550584209193",
    "lang": "en",
    "title": {
        "en": "Scheduled Maintenance of ISB Services - February 28",
        "fr": "Entretien pr\u00e9vu des services de la DGSI - 28 f\u00e9vrier"
    },
    "modified": "2019-02-20 00:00:00.0",
    "issued": "2019-02-20 00:00:00.0",
    "type_name": "intra-intra/news-nouv",
    "node_id": "1279030006975",
    "layout_name": null,
    "dc_date_created": "2019-02-19",
    "breadcrumb_label": "",
    "meta": {
        "issued": {
            "en": "2019-02-20",
            "fr": "2019-02-20"
        },
        "modified": {
            "en": "2019-02-20",
            "fr": "2019-02-20"
        },
        "format": {
            "en": "gcformat",
            "fr": "gcformat"
        },
        "title": {
            "en": "Scheduled Maintenance of ISB Services - February 28",
            "fr": "Entretien pr\u00e9vu des services de la DGSI - 28 f\u00e9vrier"
        },
        "subject": {
            "en": "communications",
            "fr": "communications"
        },
        "description": {
            "en": "Please be advised that preventative maintenance of ISB services will be performed on Thursday, February 28, 2019.",
            "fr": "Veuillez noter qu'un entretien pr\u00e9ventif des services de la DGSI aura lieu le jeudi 28 f\u00e9vrier 2019."
        },
        "language": {
            "en": "eng",
            "fr": "fra"
        },
        "audience": {
            "en": "gcaudience",
            "fr": "gcaudience"
        },
        "creator": {
            "en": "Agriculture and Agri-Food Canada",
            "fr": "Agriculture et Agroalimentaire Canada"
        },
        "spatial": {
            "en": "gcregions",
            "fr": "gcregions"
        },
        "service": {
            "en": "AAFC_AgriSource",
            "fr": "AAC_AgriSource"
        },
        "accessRights": {
            "en": "3",
            "fr": "3"
        }
    },
    "body": {
        "en": "<br>\n<br>\n<p>Please be advised that preventative maintenance of ISB services will be performed on Thursday, February 28, 2019.</p>\n<p>The following downtime is part of a management plan to upgrade our infrastructure systems.\u00a0These measures are performed regularly to improve performance and to ensure that the department does not experience any outages that would affect employees and the delivery of our services.</p>\n<p>Consequently, the following services may not be available during the following time:</p>\n<p><strong>Thursday, February 28 \u2013 1:00 a.m. until 6:00 a.m. (ET)</strong></p>\n<ul>\n<li>AgriApps</li>\n<li>\nHomebase</li>\n</ul>\n<p>Should you have any questions or concerns, please do not hesitate to contact IT Centre TI.</p>\n<p>\u00a0</p>\n<p><strong>IT Centre TI</strong><br>\nTelephone: 1-855-545-4411<br>\n<a href=\"http://assystweb:8080/assystnet/\">My IT Centre TI</a></p>\n<p><img src=\"https://intranet.agr.gc.ca/resources/prod/news/images/ITCentreTI2.png\" class=\"center-block\" alt=\"IT Centre TI\"></p>\n\n\t\t",
        "fr": "<br>\n<br>\n<p>Veuillez noter qu\u2019un entretien pr\u00e9ventif des services de la DGSI aura lieu le jeudi 28 f\u00e9vrier 2019.</p>\n<p>Cette interruption est pr\u00e9vue dans un plan de gestion pour la mise \u00e0 niveau de nos syst\u00e8mes d\u2019infrastructure. Ce type d\u2019entretien est effectu\u00e9 r\u00e9guli\u00e8rement afin d\u2019am\u00e9liorer le rendement et de pr\u00e9venir toute panne pouvant avoir des r\u00e9percussions sur les employ\u00e9s et la prestation des services du Minist\u00e8re.</p>\n<p>En cons\u00e9quence, les services suivants ne seront pas disponibles pendant la p\u00e9riode suivante :</p>\n<p><strong>Jeudi 28 f\u00e9vrier \u2013\u00a01 h \u00e0 6 h (HE)</strong></p>\n<ul>\n<li>AgriApps</li>\n<li>Homebase</li>\n</ul>\n<p>Si vous avez des questions ou des pr\u00e9occupations \u00e0 ce sujet, n\u2019h\u00e9sitez pas \u00e0 communiquer avec le IT Centre TI.</p>\n<p>\u00a0</p>\n<p><strong>IT Centre TI</strong><br>\nT\u00e9l\u00e9phone : 1-855-545-4411<br>\n<a href=\"http://assystweb:8080/assystnet/#homepage\">Mon IT Centre TI</a></p>\n<p><img src=\"https://intranet.agr.gc.ca/resources/prod/news/images/ITCentreTI2.png\" class=\"center-block\" alt=\"IT Centre TI\"></p>\n\t\t"
    },
    "breadcrumb": {
        "en": "Scheduled Maintenance of ISB Services - February 28",
        "fr": "Entretien pr\u00e9vu des services de la DGSI - 28 f\u00e9vrier"
    },
    "news": {
        "date_posted": {
            "en": "2019-02-20",
            "fr": "2019-02-20"
        },
        "to": {
            "en": "All staff",
            "fr": "Tous les employ\u00e9s"
        },
        "by": {
            "en": "IT Centre TI",
            "fr": "IT Centre TI"
        }
    }
}