{
    "dcr_id": "1550497677645",
    "lang": "en",
    "title": {
        "en": "Reminder - Elder Care - An Invitation to Discuss and Learn More - March 8",
        "fr": "Rappel - Soins aux a\u00een\u00e9s - une invitation \u00e0 discuter et \u00e0 se renseigner - 8 mars"
    },
    "modified": "2019-02-27 00:00:00.0",
    "issued": "2019-02-20 00:00:00.0",
    "type_name": "intra-intra/news-nouv",
    "node_id": "1279030006975",
    "layout_name": null,
    "dc_date_created": "2019-02-18",
    "breadcrumb_label": "",
    "meta": {
        "issued": {
            "en": "2019-02-20",
            "fr": "2019-02-20"
        },
        "modified": {
            "en": "2019-02-27",
            "fr": "2019-02-27"
        },
        "format": {
            "en": "gcformat",
            "fr": "gcformat"
        },
        "title": {
            "en": "Reminder - Elder Care - An Invitation to Discuss and Learn More - March 8",
            "fr": "Rappel - Soins aux a\u00een\u00e9s - une invitation \u00e0 discuter et \u00e0 se renseigner - 8 mars"
        },
        "subject": {
            "en": "communications",
            "fr": "communications"
        },
        "description": {
            "en": "With an aging population, elder care responsibilities are becoming a reality for an increasing number of Canadians.",
            "fr": "Compte tenu du vieillissement de la population, les responsabilit\u00e9s li\u00e9es aux soins aux a\u00een\u00e9s deviennent une r\u00e9alit\u00e9 pour un nombre croissant de Canadiens."
        },
        "language": {
            "en": "eng",
            "fr": "fra"
        },
        "audience": {
            "en": "gcaudience",
            "fr": "gcaudience"
        },
        "creator": {
            "en": "Agriculture and Agri-Food Canada",
            "fr": "Agriculture et Agroalimentaire Canada"
        },
        "spatial": {
            "en": "gcregions",
            "fr": "gcregions"
        },
        "service": {
            "en": "AAFC_AgriSource",
            "fr": "AAC_AgriSource"
        },
        "accessRights": {
            "en": "3",
            "fr": "3"
        }
    },
    "body": {
        "en": "<br>\n<br>\n<p>With an aging population, elder care responsibilities are becoming a reality for an increasing number of Canadians. This multifaceted role is quite different from any other, and many individuals find it challenging to identify and learn about the critical issues they will face as a caregiver for older loved ones.</p>\n<p>The <strong>Women in Science Network</strong> is happy to invite all AAFC employees to a seminar on elder care, hosted by Morneau Shepell, the departmental <a href=\"http://intranet.agr.gc.ca/agrisource/eng/human-resources/employee-and-family-assistance-program?id=1287673689033\">Employee and Family Assistance Program</a> provider.</p>\n<p>The seminar will enhance caregivers\u2019 decision-making abilities and help shape their experience of caregiving into a positive and rewarding one.</p>\n<h2>Event information</h2>\n<p><strong>Date: </strong>Friday, March 8<br>\n<strong>English presentation:</strong> 12:00 to 1:00 p.m. (ET)<br>\n<strong>French presentation:</strong> 1:30\u00a0to 2:30 p.m. (ET)</p>\n<p>You can participate:</p>\n<ul>\n<li><strong>In person:</strong> NHCAP (T6-1-136)</li>\n<li><strong>By videoconference:</strong> 611170752 (no PIN required)</li>\n<li><strong>By teleconference:</strong> 613-960-7511 or 1-877-413-4782, <strong>conference ID number:</strong> 3255632#</li>\n</ul>\n<p>A guide on senior care is available on the <a href=\"https://collab.agr.gc.ca/co/wis-fes/Documents/Forms/AllItems.aspx?RootFolder=%2Fco%2Fwis%2Dfes%2FDocuments%2FEFAP%2DPAEF%2FCare%20for%20the%20aging%20%2D%20Prendre%20soin%20d%E2%80%99une%20personne%20%C3%A2g%C3%A9e&amp;InitialTabId=Ribbon%2ERead&amp;VisibilityContext=WSSTabPersistence\">Women in Science Knowledge Workspace page</a>.</p>\n<p>Visit <a href=\"https://collab.agr.gc.ca/co/eedi-emedi/SitePages/Home.aspx\">Diversity and Inclusiveness on Knowledge Workspace</a> to learn more about AAFC\u2019s diversity networks, including the Women in Science Network.</p>\n<p><img src=\"https://intranet.agr.gc.ca/resources/prod/news/images/WomenInScience-EN2019.png\" class=\"center-block\" alt=\"Women in Science Network\"></p>\n\n\t\t",
        "fr": "<br>\n<br>\n<p>Compte tenu du vieillissement de la population, les responsabilit\u00e9s li\u00e9es aux soins aux a\u00een\u00e9s deviennent une r\u00e9alit\u00e9 pour un nombre croissant de Canadiens. Ce r\u00f4le polyvalent est unique en son genre, et beaucoup de gens ont de la difficult\u00e9 \u00e0 cerner et \u00e0 comprendre les probl\u00e8mes importants auxquels ils feront face lorsqu\u2019ils devront donner des soins \u00e0 des proches qui sont \u00e2g\u00e9s.</p>\n<p>Le <strong>R\u00e9seau des femmes en sciences</strong> est heureux d\u2019inviter les employ\u00e9s d\u2019AAC \u00e0 une pr\u00e9sentation sur les soins aux a\u00een\u00e9s organis\u00e9e par Morneau Shepell, le fournisseur du <a href=\"http://intranet.agr.gc.ca/agrisource/fra/ressources-humaines/programme-daide-aux-employes-et-a-la-famille?id=1287673689033\">Programme d'aide aux employ\u00e9s et \u00e0 la famille</a> du Minist\u00e8re.</p>\n<p>La pr\u00e9sentation am\u00e9liorera la capacit\u00e9 des aidants \u00e0 prendre des d\u00e9cisions et aidera \u00e0 rendre positive et gratifiante leur exp\u00e9rience de la prestation de soins.</p>\n<h2><strong>Renseignements sur l\u2019activit\u00e9</strong></h2>\n<p><strong>Date : </strong>Vendredi 8 mars<br>\n<strong>Pr\u00e9sentation en anglais :</strong> 12 \u00e0 13 h (HE)<br>\n<strong>Pr\u00e9sentation en fran\u00e7ais :</strong> 13 h 30 \u00e0 14 h 30 (HE)</p>\n<p>Vous pouvez participer :</p>\n<ul>\n<li><strong>En personne :</strong> CACPA (T6-1-136)</li>\n<li><strong>Par Vid\u00e9oconf\u00e9rence :</strong> 611170752 (aucun NIP requis)</li>\n<li><strong>Par t\u00e9l\u00e9conf\u00e9rence :</strong> 613-960-7511 ou 1-877-413-4782, <strong>ID de la conf\u00e9rence :</strong>\u00a03255632#</li>\n</ul>\n<p>Vous trouverez un guide sur les soins aux a\u00een\u00e9s sur le site du <a href=\"https://collab.agr.gc.ca/co/wis-fes/Documents/Forms/AllItems.aspx?RootFolder=%2Fco%2Fwis%2Dfes%2FDocuments%2FEFAP%2DPAEF%2FCare%20for%20the%20aging%20%2D%20Prendre%20soin%20d%E2%80%99une%20personne%20%C3%A2g%C3%A9e&amp;InitialTabId=Ribbon%2ERead&amp;VisibilityContext=WSSTabPersistence\">R\u00e9seau des femmes en sciences dans l'Espace de travail du savoir</a>.</p>\n<p>Visitez la page\u00a0<a href=\"https://collab.agr.gc.ca/co/eedi-emedi/SitePages/Home.aspx\">Diversit\u00e9 et inclusivit\u00e9 dans l\u2019Espace de travail du savoir</a> pour en apprendre plus sur les r\u00e9seaux de la diversit\u00e9 d\u2019AAC, y compris le R\u00e9seau des femmes en sciences.</p>\n<p><img src=\"https://intranet.agr.gc.ca/resources/prod/news/images/WomenInScience-FR2019.png\" class=\"center-block\" alt=\"R\u00e9seau des femmes en sciences\"></p>\n\t\t"
    },
    "breadcrumb": {
        "en": "Reminder - Elder Care - An Invitation to Discuss and Learn More - March 8",
        "fr": "Rappel - Soins aux a\u00een\u00e9s - une invitation \u00e0 discuter et \u00e0 se renseigner - 8 mars"
    },
    "news": {
        "date_posted": {
            "en": "2019-02-20",
            "fr": "2019-02-20"
        },
        "to": {
            "en": "All staff",
            "fr": "Tous les employ\u00e9s"
        },
        "by": {
            "en": "Women in Science Network",
            "fr": "R\u00e9seau des femmes en sciences"
        }
    }
}