{
    "dcr_id": "1550001032316",
    "lang": "en",
    "title": {
        "en": "The 'Single-Mindedness' Requirement - Women in Science Panel - February 21",
        "fr": "\u00ab L'importance de la \u00ab d\u00e9termination \u00bb \u00bb - Panel de Femmes en sciences - 21 f\u00e9vrier"
    },
    "modified": "2019-02-14 00:00:00.0",
    "issued": "2019-02-13 00:00:00.0",
    "type_name": "intra-intra/news-nouv",
    "node_id": "1279030006975",
    "layout_name": null,
    "dc_date_created": "2019-02-12",
    "breadcrumb_label": "",
    "meta": {
        "issued": {
            "en": "2019-02-13",
            "fr": "2019-02-13"
        },
        "modified": {
            "en": "2019-02-14",
            "fr": "2019-02-14"
        },
        "format": {
            "en": "gcformat",
            "fr": "gcformat"
        },
        "title": {
            "en": "\"The 'Single-Mindedness' Requirement\" - Women in Science Panel - February 21",
            "fr": "\u00ab L'importance de la \u00ab d\u00e9termination \u00bb \u00bb - Panel de Femmes en sciences - 21 f\u00e9vrier"
        },
        "subject": {
            "en": "communications",
            "fr": "communications"
        },
        "description": {
            "en": "The Summerland Research and Development Centre is pleased to host a Conversation Caf\u00e9 featuring women in science.",
            "fr": "Le Centre de recherche et de d\u00e9veloppement de Summerland a le plaisir de tenir un caf\u00e9-causerie sur le th\u00e8me des Femmes en sciences."
        },
        "language": {
            "en": "eng",
            "fr": "fra"
        },
        "audience": {
            "en": "gcaudience",
            "fr": "gcaudience"
        },
        "creator": {
            "en": "Agriculture and Agri-Food Canada",
            "fr": "Agriculture et Agroalimentaire Canada"
        },
        "spatial": {
            "en": "gcregions",
            "fr": "gcregions"
        },
        "service": {
            "en": "AAFC_AgriSource",
            "fr": "AAC_AgriSource"
        },
        "accessRights": {
            "en": "3",
            "fr": "3"
        }
    },
    "body": {
        "en": "<br>\n<br>\n<p>The Summerland Research and Development Centre is pleased to host a Conversation Caf\u00e9 featuring women in science. The Caf\u00e9 consists of five videoconference seminars exploring the challenges and opportunities for women in science.</p>\n<p>Join our second panel featuring Dr. Jos\u00e9e Owen, Dr.\u00a0Masoumeh Bejaei and Nancy Gardner for a conversation on becoming a high-achieving scientist while maintaining a good work-life balance. Among others, we will be exploring questions around the barriers to career advancement for women.</p>\n<h2>Event information</h2>\n<p><strong>Session 2: </strong>Thursday, February 21<strong> <br>Time: </strong>10:00 to 11:00 a.m. (PT)<br><strong>Videoconference:</strong> 72504946375, <strong>Guest PIN:</strong> 0066#<br><strong>Teleconference:</strong> 613-729-5408 or 1-855-470-7641. Please enter the virtual meeting room number: 72504946375#, followed by 0066# when prompted.</p>\n<p>Sign-up is not necessary!</p>\n<p>Come with an open mind and listen as a distinguished panel of AAFC personnel bring you their thoughts and ideas about the environment in which they work. Following the speakers, the floor will open up to the audience for a lively, post-panel discussion. If you need a spot to drink your coffee\u2026this is the definitely the place.</p>\n<p>If you have questions about the panel or cannot connect to the videoconference, please contact: <a href=\"mailto:dawn.bassett@canada.ca\">dawn.bassett@canada.ca</a>.</p>\n<p>More information about women in science can be found on <a href=\"https://collab.agr.gc.ca/co/wis-fes/SitePages/Home.aspx\">Knowledge Workspace</a>.</p>\n<p><img src=\"https://intranet.agr.gc.ca/resources/prod/news/images/WomenInScience-EN2019.png\" class=\"center-block\"></p>\n\n\t\t",
        "fr": "<br>\n<br>\n<p>Le Centre de recherche et de d\u00e9veloppement de Summerland a le plaisir de tenir un caf\u00e9-causerie sur le th\u00e8me des Femmes en sciences. Le caf\u00e9-causerie consiste en cinq vid\u00e9oconf\u00e9rences qui explorent les difficult\u00e9s et les possibilit\u00e9s pour les femmes en science.</p>\n<p>Joingnez-vous \u00e0 la discussion avec notre panel compos\u00e9 de Mesdames Jos\u00e9e Owen (Ph. D.), Masoumeh Bejaei (Ph. D.) et Nancy Gardner sur la fa\u00e7on de devenir une scientifique tr\u00e8s performante tout en maintenant un bon \u00e9quilibre travail-vie personnelle. Il sera notamment question des barri\u00e8res \u00e0 l\u2019avancement professionnel pour les femmes.</p>\n<h2><strong>Renseignements sur l'\u00e9v\u00e9nement</strong></h2>\n<p><strong>S\u00e9ance 2 : </strong>Jeudi 21 f\u00e9vrier<br><strong>Heure : </strong>10 h \u00e0 11 h (HP)<br><strong>Vid\u00e9oconf\u00e9rence</strong> : 72504946375, <strong>NIP d\u2019invit\u00e9 :</strong>\u00a00066#<br><strong>T\u00e9l\u00e9conf\u00e9rence :</strong> 613-729-5408\u00a0ou 1-855-470-7641. Veuillez composer le num\u00e9ro de la salle de r\u00e9union virtuelle 72504946375# suivi de 0066# lorsque demand\u00e9.</p>\n<p>Venez avec un esprit ouvert \u00e9couter d\u2019\u00e9minentes pan\u00e9listes d\u2019AAC qui vous feront part de leurs r\u00e9flexions et de leurs id\u00e9es sur le milieu dans lequel elles travaillent. Une discussion ouverte anim\u00e9e suivra leurs expos\u00e9s. Si vous cherchez l\u2019endroit id\u00e9al pour prendre votre caf\u00e9, vous l\u2019avez trouv\u00e9.</p>\n<p>Si vous avez des questions concernant le groupe d\u2019experts ou si vous ne pouvez pas vous connecter \u00e0 la vid\u00e9oconf\u00e9rence, veuillez communiquer avec <a href=\"mailto:dawn.bassett@canada.ca\">dawn.bassett@canada.ca</a>.</p>\n<p>Pour de plus amples renseignements sur les femmes en science, consultez <a href=\"https://collab.agr.gc.ca/co/wis-fes/SitePages/Home.aspx\">l\u2019Espace du savoir</a>.</p>\n<p><img src=\"https://intranet.agr.gc.ca/resources/prod/news/images/WomenInScience-FR2019.png\" class=\"center-block\"></p>\n\t\t"
    },
    "breadcrumb": {
        "en": "\"The 'Single-Mindedness' Requirement\" - Women in Science Panel - February 21",
        "fr": "\u00ab L'importance de la \u00ab d\u00e9termination \u00bb \u00bb - Panel de Femmes en sciences - 21 f\u00e9vrier"
    },
    "news": {
        "date_posted": {
            "en": "2019-02-13",
            "fr": "2019-02-13"
        },
        "to": {
            "en": "All staff",
            "fr": "Tous les employ\u00e9s"
        },
        "by": {
            "en": "Women in Science Network",
            "fr": "R\u00e9seau des femmes en sciences"
        }
    }
}