{
    "dcr_id": "1550003549224",
    "lang": "en",
    "title": {
        "en": "Reminder - Vacation and Leave Cash Out for Years 2018 and 2019",
        "fr": "Rappel - Paiement en argent des cong\u00e9s annuels et autres pour les ann\u00e9es 2018 et 2019"
    },
    "modified": "2019-04-25 00:00:00.0",
    "issued": "2019-02-14 00:00:00.0",
    "type_name": "intra-intra/news-nouv",
    "node_id": "1279030006975",
    "layout_name": null,
    "dc_date_created": "2019-02-12",
    "breadcrumb_label": "",
    "meta": {
        "issued": {
            "en": "2019-02-14",
            "fr": "2019-02-14"
        },
        "modified": {
            "en": "2019-04-25",
            "fr": "2019-04-17"
        },
        "format": {
            "en": "gcformat",
            "fr": "gcformat"
        },
        "title": {
            "en": "Reminder - Vacation and Leave Cash Out for Years 2018 and 2019",
            "fr": "Rappel - Paiement en argent des cong\u00e9s annuels et autres pour les ann\u00e9es 2018 et 2019"
        },
        "subject": {
            "en": "communications",
            "fr": "communications"
        },
        "description": {
            "en": "Following consultations with bargaining agents, the Treasury Board Secretariat has decided to postpone the automatic cash out of vacation and leave for 2018 and 2019, unless requested by the employee.",
            "fr": "Comme suite \u00e0 des consultations avec les agents n\u00e9gociateurs, le Secr\u00e9tariat du Conseil du Tr\u00e9sor a d\u00e9cid\u00e9 de retarder la r\u00e9mun\u00e9ration automatique des cong\u00e9s annuels et compensatoires pour 2018 et 2019, sauf sur demande de l'employ\u00e9(e)."
        },
        "language": {
            "en": "eng",
            "fr": "fra"
        },
        "audience": {
            "en": "gcaudience",
            "fr": "gcaudience"
        },
        "creator": {
            "en": "Agriculture and Agri-Food Canada",
            "fr": "Agriculture et Agroalimentaire Canada"
        },
        "spatial": {
            "en": "gcregions",
            "fr": "gcregions"
        },
        "service": {
            "en": "AAFC_AgriSource",
            "fr": "AAC_AgriSource"
        },
        "accessRights": {
            "en": "3",
            "fr": "3"
        }
    },
    "body": {
        "en": "<br>\n<br>\n<p>Following consultations with bargaining agents, the Treasury Board Secretariat has decided to postpone the automatic cash out of vacation and leave for 2018 and 2019, unless requested by the employee.</p>\n<p>The next automatic cash out date of excess hours will be, in most cases, on March 31, 2020, or as stipulated in the relevant collective agreement.</p>\n<h2><strong>To request a cash out</strong></h2>\n<ol>\n<li>Complete the <a href=\"http://publiservice-app.pwgsc.gc.ca/forms/pdf/GC178.pdf\">GC178 form</a>. In the comments section, indicate the number of hours of leave to be paid out.</li>\n<li>Obtain approval from the delegated manager.</li>\n<li>Send the completed form to <a href=\"mailto:aafc.hrtrustedsource-sourcefiablerh.aac@canada.ca\">aafc.hrtrustedsource-sourcefiablerh.aac@canada.ca</a>.</li>\n</ol>\n\n\t\t",
        "fr": "<br>\n<br>\n<p>Comme suite \u00e0 des consultations avec les agents n\u00e9gociateurs, le Secr\u00e9tariat du Conseil du Tr\u00e9sor a d\u00e9cid\u00e9 de retarder le paiement automatique des cong\u00e9s annuels et autres pour 2018 et 2019, sauf sur demande de l\u2019employ\u00e9(e).</p>\n<p>La prochaine date de paiement automatique des heures exc\u00e9dentaires sera, dans la plupart des cas, le 31 mars 2020, ou selon la convention collective pertinente.</p>\n<h2><strong>Pour demander un paiement en argent</strong></h2>\n<ol>\n<li>Remplissez le <a href=\"http://publiservice-app.pwgsc.gc.ca/forms/pdf/GC178.pdf\">formulaire GC178</a> et indiquez dans la section des commentaires le nombre <span style='line-height: 107%; font-family: \"Times New Roman\",serif; font-size: 12pt; mso-fareast-font-family: \"Times New Roman\"; mso-ansi-language: FR; mso-fareast-language: EN-US; mso-bidi-language: AR-SA;' lang=\"FR\">d\u2019heures de cong\u00e9 \u00e0 payer.</span></li>\n<li>Obtenez l\u2019approbation du gestionnaire d\u00e9l\u00e9gataire.</li>\n<li>Envoyez le formulaire d\u00fbment rempli \u00e0 <a href=\"mailto:aafc.hrtrustedsource-sourcefiablerh.aac@canada.ca\">aafc.hrtrustedsource-sourcefiablerh.aac@canada.ca</a>.</li>\n</ol>\n\t\t"
    },
    "breadcrumb": {
        "en": "Reminder - Vacation and Leave Cash Out for Years 2018 and 2019",
        "fr": "Rappel - Paiement en argent des cong\u00e9s annuels et autres pour les ann\u00e9es 2018 et 2019"
    },
    "news": {
        "date_posted": {
            "en": "2019-02-14",
            "fr": "2019-02-14"
        },
        "to": {
            "en": "All staff",
            "fr": "Tous les employ\u00e9s"
        },
        "by": {
            "en": "Human Resources, Corporate Management Branch",
            "fr": "Ressources humaines, Direction g\u00e9n\u00e9rale de la gestion int\u00e9gr\u00e9e"
        }
    }
}