{
    "dcr_id": "1551811039098",
    "lang": "en",
    "title": {
        "en": "March Edition of CUE Now Available",
        "fr": "Le num\u00e9ro de mars de l'AIDE-M\u00c9MOIRE est maintenant en ligne"
    },
    "modified": "2019-04-17 00:00:00.0",
    "issued": "2019-03-07 00:00:00.0",
    "type_name": "intra-intra/news-nouv",
    "node_id": "1279030006975",
    "layout_name": null,
    "dc_date_created": "2019-03-05",
    "breadcrumb_label": "",
    "meta": {
        "issued": {
            "en": "2019-03-07",
            "fr": "2019-03-07"
        },
        "modified": {
            "en": "2019-04-17",
            "fr": "2019-04-17"
        },
        "format": {
            "en": "gcformat",
            "fr": "gcformat"
        },
        "title": {
            "en": "March Edition of CUE Now Available",
            "fr": "Le num\u00e9ro de mars de l'AIDE-M\u00c9MOIRE est maintenant en ligne"
        },
        "subject": {
            "en": "communications",
            "fr": "communications"
        },
        "description": {
            "en": "The March edition of <I>CUE: a quick reference tool for managers</I> is now available.",
            "fr": "Le num\u00e9ro de mars de l'<I>AIDE-M\u00c9MOIRE : un outil de r\u00e9f\u00e9rence rapide pour les gestionnaires</I> est maintenant disponible."
        },
        "language": {
            "en": "eng",
            "fr": "fra"
        },
        "audience": {
            "en": "gcaudience",
            "fr": "gcaudience"
        },
        "creator": {
            "en": "Agriculture and Agri-Food Canada",
            "fr": "Agriculture et Agroalimentaire Canada"
        },
        "spatial": {
            "en": "gcregions",
            "fr": "gcregions"
        },
        "service": {
            "en": "AAFC_AgriSource",
            "fr": "AAC_AgriSource"
        },
        "accessRights": {
            "en": "3",
            "fr": "3"
        }
    },
    "body": {
        "en": "<br>\n<br>\n<p>The March edition of <strong><em>CUE: a quick reference tool for managers </em></strong>is now available, in PDF and HTML formats. It includes the information you need at your fingertips, in a format that helps you deliver it to employees.</p>\n<p>Bookmark the <a href=\"http://intranet.agr.gc.ca/agrisource/eng/branches-and-offices/public-affairs-branch/corporate-communications?id=1297348464656\">Corporate Communications page</a><em>,</em> as CUE\u00a0is updated throughout the month when new information becomes available.</p>\n<p>Included in this edition:</p>\n<ul>\n<li>Canadian Honours System</li>\n<li>Managers\u2019 Community Learning Day \u2013 May 1</li>\n<li>Value Creation in the Cereals Sector</li>\n<li>Canadian Agricultural Strategic Priorities Program</li>\n<li>African Swine Fever</li>\n</ul>\n<p><img src=\"https://intranet.agr.gc.ca/resources/prod/news/images/CUE-EN.png\" class=\"center-block\"></p>\n\n\t\t",
        "fr": "<br>\n<br>\n<p>Le num\u00e9ro de mars de l\u2019<strong><em>AIDE-M\u00c9MOIRE</em></strong> <strong><em>: un outil de r\u00e9f\u00e9rence rapide pour les gestionnaires</em></strong> est maintenant disponible en format PDF et HTML. Il vous donne l\u2019information dont vous avez besoin, dans un format qui vous aide \u00e0 la communiquer aux employ\u00e9s.</p>\n<p>Ajoutez la <a href=\"http://intranet.agr.gc.ca/agrisource/fra/directions-generales-et-bureaux/direction-generale-des-affaires-publiques/communications-ministerielles?id=1297348464656\">page Communications minist\u00e9rielles</a>\u00a0\u00e0 vos favoris, car\u00a0le contenu de l\u2019<em>AIDE-M\u00c9MOIRE </em>est mis \u00e0 jour au fur et \u00e0 mesure que de nouveaux renseignements sont obtenus.</p>\n<p>Dans ce num\u00e9ro :</p>\n<ul>\n<li>R\u00e9gime canadien de distinctions honorifiques</li>\n<li>Journ\u00e9e d\u2019apprentissage de la communaut\u00e9 des gestionnaires \u2013\u00a01<sup>er</sup> mai</li>\n<li>Cr\u00e9ation de valeur dans le secteur des c\u00e9r\u00e9ales</li>\n<li>Programme des priorit\u00e9s strat\u00e9giques de l\u2019agriculture canadienne</li>\n<li>Peste porcine africaine</li>\n</ul>\n<p><img src=\"https://intranet.agr.gc.ca/resources/prod/news/images/CUE-FR.png\" class=\"center-block\"></p>\n\t\t"
    },
    "breadcrumb": {
        "en": "March Edition of CUE Now Available",
        "fr": "Le num\u00e9ro de mars de l'AIDE-M\u00c9MOIRE est maintenant en ligne"
    },
    "news": {
        "date_posted": {
            "en": "2019-03-07",
            "fr": "2019-03-07"
        },
        "to": {
            "en": "All staff",
            "fr": "Tous les employ\u00e9s"
        },
        "by": {
            "en": "Public Affairs Branch",
            "fr": "Direction g\u00e9n\u00e9rale des affaires publiques"
        }
    }
}