{
    "dcr_id": "1551294511198",
    "lang": "en",
    "title": {
        "en": "Reminder - Phoenix: Reimbursement for Tax Advice",
        "fr": "Rappel - Ph\u00e9nix : remboursement pour conseils fiscaux"
    },
    "modified": "2019-04-25 00:00:00.0",
    "issued": "2019-02-28 00:00:00.0",
    "type_name": "intra-intra/news-nouv",
    "node_id": "1279030006975",
    "layout_name": null,
    "dc_date_created": "2019-02-27",
    "breadcrumb_label": "",
    "meta": {
        "issued": {
            "en": "2019-02-28",
            "fr": "2019-02-28"
        },
        "modified": {
            "en": "2019-04-25",
            "fr": "2019-04-18"
        },
        "format": {
            "en": "gcformat",
            "fr": "gcformat"
        },
        "title": {
            "en": "Reminder - Phoenix: Reimbursement for Tax Advice",
            "fr": "Rappel - Ph\u00e9nix : remboursement pour conseils fiscaux"
        },
        "subject": {
            "en": "communications",
            "fr": "communications"
        },
        "description": {
            "en": "The Government of Canada wants to ensure that employees who encountered Phoenix pay issues are treated fairly, and that they understand the tax implications caused by errors in their pay.",
            "fr": "Le gouvernement du Canada veut s'assurer que les employ\u00e9s qui ont \u00e9prouv\u00e9 des probl\u00e8mes de paye li\u00e9s \u00e0 Ph\u00e9nix sont trait\u00e9s \u00e9quitablement et qu'ils comprennent les r\u00e9percussions fiscales r\u00e9sultant d'erreurs dans leur paye."
        },
        "language": {
            "en": "eng",
            "fr": "fra"
        },
        "audience": {
            "en": "gcaudience",
            "fr": "gcaudience"
        },
        "creator": {
            "en": "Agriculture and Agri-Food Canada",
            "fr": "Agriculture et Agroalimentaire Canada"
        },
        "spatial": {
            "en": "gcregions",
            "fr": "gcregions"
        },
        "service": {
            "en": "AAFC_AgriSource",
            "fr": "AAC_AgriSource"
        },
        "accessRights": {
            "en": "3",
            "fr": "3"
        }
    },
    "body": {
        "en": "<br>\n<br>\n<p>The Government of Canada wants to ensure that employees who encountered Phoenix pay issues are treated fairly, and that they understand the tax implications caused by errors in their pay.</p>\n<p>If you require assistance from an accountant or another qualified tax professional to sort out your income tax, you may seek up to $200 in reimbursement for tax advisory services.</p>\n<p>We recognize that each employee has a different situation. Please take a look at the <a rel=\"external\" href=\"https://www.canada.ca/en/treasury-board-secretariat/services/pay/submit-claim-fees-tax-advisory-services.html\">Phoenix claims page</a> to see whether other claims processes apply to your situation.</p>\n<p>You may be in a unique situation. We want to ensure no one affected by Phoenix suffers financial losses.</p>\n<p>We encourage you reach out to\u00a0<a href=\"mailto:aafc.claimsphoenix-reclamationsphenix.aac@canada.ca\">aafc.claimsphoenix-reclamationsphenix.aac@canada.ca</a> if you have additional questions or concerns.</p>\n<p><img src=\"https://intranet.agr.gc.ca/resources/prod/news/images/pheonix2-eng.png\" class=\"center-block\"></p>\n\n\t\t",
        "fr": "<br>\n<br>\n<p>Le gouvernement du Canada veut s\u2019assurer que les employ\u00e9s qui ont \u00e9prouv\u00e9 des probl\u00e8mes de paye li\u00e9s \u00e0 Ph\u00e9nix sont trait\u00e9s \u00e9quitablement et qu\u2019ils comprennent les r\u00e9percussions fiscales r\u00e9sultant d\u2019erreurs dans leur paye.</p>\n<p>Si vous avez besoin de l\u2019aide d\u2019un comptable ou d\u2019un autre fiscaliste qualifi\u00e9 pour mettre de l\u2019ordre dans votre d\u00e9claration de revenus, vous pouvez obtenir un remboursement d\u2019au plus 200 $ pour ces services.</p>\n<p>Nous reconnaissons que chaque employ\u00e9 ait une situation diff\u00e9rente. Veuillez consulter la <a rel=\"external\" href=\"https://www.canada.ca/fr/secretariat-conseil-tresor/services/remuneration/presenter-reclamation-services-conseils-fiscaux.html\">page des r\u00e9clamations concernant Ph\u00e9nix</a> pour voir si d\u2019autres processus de r\u00e9clamations s\u2019appliquent \u00e0 votre situation.</p>\n<p>Vous vous trouvez peut-\u00eatre dans une situation unique. Nous voulons nous assurer que toutes les personnes touch\u00e9es par Ph\u00e9nix ne subissent pas de pertes financi\u00e8res.</p>\n<p>Nous vous encourageons \u00e0 communiquer avec\u00a0<a href=\"mailto:aafc.claimsphoenix-reclamationsphenix.aac@canada.ca\">aafc.claimsphoenix-reclamationsphenix.aac@canada.ca</a> si vous avez d\u2019autres questions ou pr\u00e9occupations.</p>\n<p><img src=\"https://intranet.agr.gc.ca/resources/prod/news/images/pheonix2-fra.png\" class=\"center-block\"></p>\n\t\t"
    },
    "breadcrumb": {
        "en": "Reminder - Phoenix: Reimbursement for Tax Advice",
        "fr": "Rappel - Ph\u00e9nix : remboursement pour conseils fiscaux"
    },
    "news": {
        "date_posted": {
            "en": "2019-02-28",
            "fr": "2019-02-28"
        },
        "to": {
            "en": "All staff",
            "fr": "Tous les employ\u00e9s"
        },
        "by": {
            "en": "Treasury Board of Canada Secretariat",
            "fr": "Secr\u00e9tariat du Conseil du Tr\u00e9sor du Canada"
        }
    }
}