{
    "dcr_id": "1551104603833",
    "lang": "en",
    "title": {
        "en": "CANCELLED - Scheduled Maintenance of ISB Services (Listserv) - March 13",
        "fr": "ANNUL\u00c9 - Entretien pr\u00e9vu des services de la DGSI (Listserv) - 13 mars"
    },
    "modified": "2019-03-12 00:00:00.0",
    "issued": "2019-02-27 00:00:00.0",
    "type_name": "intra-intra/news-nouv",
    "node_id": "1279030006975",
    "layout_name": null,
    "dc_date_created": "2019-02-25",
    "breadcrumb_label": "",
    "meta": {
        "issued": {
            "en": "2019-02-27",
            "fr": "2019-02-27"
        },
        "modified": {
            "en": "2019-03-12",
            "fr": "2019-03-07"
        },
        "format": {
            "en": "gcformat",
            "fr": "gcformat"
        },
        "title": {
            "en": "CANCELLED - Scheduled Maintenance of ISB Services (Listserv) - March 13",
            "fr": "ANNUL\u00c9 - Entretien pr\u00e9vu des services de la DGSI (Listserv) - 13 mars"
        },
        "subject": {
            "en": "communications",
            "fr": "communications"
        },
        "description": {
            "en": "Please be advised that preventative maintenance of ISB services will be performed on Wednesday, March 13, 2019.",
            "fr": "Veuillez prendre note qu'un entretien pr\u00e9ventif des services de la DGSI aura lieu le mercredi 13 mars 2019."
        },
        "language": {
            "en": "eng",
            "fr": "fra"
        },
        "audience": {
            "en": "gcaudience",
            "fr": "gcaudience"
        },
        "creator": {
            "en": "Agriculture and Agri-Food Canada",
            "fr": "Agriculture et Agroalimentaire Canada"
        },
        "spatial": {
            "en": "gcregions",
            "fr": "gcregions"
        },
        "service": {
            "en": "AAFC_AgriSource",
            "fr": "AAC_AgriSource"
        },
        "accessRights": {
            "en": "3",
            "fr": "3"
        }
    },
    "body": {
        "en": "<br>\n<br>\n<p>Please be advised that preventative maintenance of ISB services will be performed on Wednesday, March 13, 2019.</p>\n<p>Consequently, <strong>Listserv</strong> may not be available between <strong>8:30\u00a0and 10:00 a.m. (ET)</strong> on that day.</p>\n<p>These measures are performed regularly to improve performance and to ensure that the department does not experience any outages that would affect employees and the delivery of our services.</p>\n<p>Should you have any questions or concerns, please do not hesitate to contact IT Centre TI.</p>\n<p>\u00a0</p>\n<p><strong>IT Centre TI</strong><br>\nTelephone: 1-855-545-4411<br>\n<a href=\"http://assystweb:8080/assystnet/#homepage\">My IT Centre TI</a></p>\n<p><img src=\"https://intranet.agr.gc.ca/resources/prod/news/images/ITCentreTI2.png\" class=\"center-block\" alt=\"IT Centre TI\"></p>\n\n\t\t",
        "fr": "<br>\n<br>\n<p>Veuillez prendre note qu\u2019un entretien pr\u00e9ventif des services de la DGSI aura lieu le mercredi\u00a013 mars 2019.</p>\n<p>Par cons\u00e9quent, <strong>Listserv</strong> pourrait ne pas \u00eatre disponible entre <strong>8 h 30 et 10 h (HE) </strong>ce jour-l\u00e0.</p>\n<p>L\u2019interruption suivante fait partie d\u2019un plan de gestion pour mettre \u00e0 niveau nos syst\u00e8mes d\u2019infrastructure. Ces entretiens sont faits r\u00e9guli\u00e8rement pour am\u00e9liorer le rendement des syst\u00e8mes et veiller \u00e0 ce que le Minist\u00e8re ne subisse pas de panne pouvant nuire aux employ\u00e9s et \u00e0 la prestation de nos services.</p>\n<p>Pour toutes questions ou pr\u00e9occupations, n\u2019h\u00e9sitez pas \u00e0 communiquer avec le IT Centre TI.</p>\n<p>\u00a0</p>\n<p><strong>IT Centre TI</strong><br>\nT\u00e9l\u00e9phone : 1-855-545-4411<br>\n<a href=\"http://assystweb:8080/assystnet/#homepage\">Mon IT Centre TI</a></p>\n<p><img src=\"https://intranet.agr.gc.ca/resources/prod/news/images/ITCentreTI2.png\" class=\"center-block\" alt=\"IT Centre TI\"></p>\n\t\t"
    },
    "breadcrumb": {
        "en": "CANCELLED - Scheduled Maintenance of ISB Services (Listserv) - March 13",
        "fr": "ANNUL\u00c9 - Entretien pr\u00e9vu des services de la DGSI (Listserv) - 13 mars"
    },
    "news": {
        "date_posted": {
            "en": "2019-02-27",
            "fr": "2019-02-27"
        },
        "to": {
            "en": "All staff",
            "fr": "Tous les employ\u00e9s"
        },
        "by": {
            "en": "IT Centre TI",
            "fr": "IT Centre TI"
        }
    }
}