{
    "dcr_id": "1551199821360",
    "lang": "en",
    "title": {
        "en": "The Rendez-vous de la Francophonie - Join the Activities!",
        "fr": "Les Rendez-vous de la Francophonie, participez aux activit\u00e9s!"
    },
    "modified": "2019-02-28 00:00:00.0",
    "issued": "2019-02-28 00:00:00.0",
    "type_name": "intra-intra/news-nouv",
    "node_id": "1279030006975",
    "layout_name": null,
    "dc_date_created": "2019-02-26",
    "breadcrumb_label": "",
    "meta": {
        "issued": {
            "en": "2019-02-28",
            "fr": "2019-02-28"
        },
        "modified": {
            "en": "2019-02-28",
            "fr": "2019-02-28"
        },
        "format": {
            "en": "gcformat",
            "fr": "gcformat"
        },
        "title": {
            "en": "The Rendez-vous de la Francophonie - Join the Activities!",
            "fr": "Les Rendez-vous de la Francophonie, participez aux activit\u00e9s!"
        },
        "subject": {
            "en": "communications",
            "fr": "communications"
        },
        "description": {
            "en": "The Journ\u00e9e Internationale de la Francophonie, celebrated every March 20, gives rise to the month-long celebrations and activities collectively known as the Rendez-vous de la Francophonie to help promote the French language and its multiple cultural expressions",
            "fr": "La Journ\u00e9e internationale de la Francophonie, c\u00e9l\u00e9br\u00e9e le 20 mars chaque ann\u00e9e, a donn\u00e9 lieu \u00e0 un mois de c\u00e9l\u00e9brations et d'activit\u00e9s appel\u00e9es commun\u00e9ment les Rendez-vous de la Francophonie, qui visent \u00e0 promouvoir la langue fran\u00e7aise et ses multiples expressions culturelles."
        },
        "language": {
            "en": "eng",
            "fr": "fra"
        },
        "audience": {
            "en": "gcaudience",
            "fr": "gcaudience"
        },
        "creator": {
            "en": "Agriculture and Agri-Food Canada",
            "fr": "Agriculture et Agroalimentaire Canada"
        },
        "spatial": {
            "en": "gcregions",
            "fr": "gcregions"
        },
        "service": {
            "en": "AAFC_AgriSource",
            "fr": "AAC_AgriSource"
        },
        "accessRights": {
            "en": "3",
            "fr": "3"
        }
    },
    "body": {
        "en": "<br>\n<br>\n<p>The Journ\u00e9e Internationale de la Francophonie, celebrated every March 20, gives rise to the month-long celebrations and activities collectively known as the <a rel=\"external\" href=\"https://rvf.ca/en\">Rendez-vous de la Francophonie</a>\u00a0to help promote the French language and its multiple cultural expressions. This year\u2019s theme highlights the importance of our country\u2019s official languages, the strength of those who speak these languages and their commitment to ensuring that bilingualism is entrenched as one of the fundamental values of our society. To mark this month, I encourage you to participate in one of the organized <a rel=\"external\" href=\"https://rvf.ca/en/calendar\">activities</a>.</p>\n<p>Take advantage of this month to also enjoy a wide variety of Franco-Canadian films \u2500 discover <a rel=\"external\" href=\"https://www.onf.ca/selections/robitaille-damien/espace-francophonie/\">the National Film Board\u2019s films (in French only)</a>\u00a0honouring Canada\u2019s Francophonie.</p>\n<p>Lastly, don\u2019t forget to take part in the yearly spelling contest! The Canadian Foundation for Cross-Cultural Dialogue, Canada Post, and the Language Portal of Canada invite you to participate in this year's\u00a0<a rel=\"external\" href=\"https://rvf.ca/en/contests/write-it-right\">spelling challenge</a>!</p>\n<p>Come join us in these dynamic activities. Happy Rendez-vous!</p>\n<p><img src=\"https://intranet.agr.gc.ca/resources/prod/news/images/RVF20191.png\" class=\"center-block\" alt=\"\"></p>\n\n\t\t",
        "fr": "<br>\n<br>\n<p>La Journ\u00e9e internationale de la Francophonie, c\u00e9l\u00e9br\u00e9e le 20 mars chaque ann\u00e9e, a donn\u00e9 lieu \u00e0 un mois de c\u00e9l\u00e9brations et d\u2019activit\u00e9s appel\u00e9es commun\u00e9ment les <a rel=\"external\" href=\"https://rvf.ca/fr\">Rendez-vous de la Francophonie</a>, qui visent \u00e0 promouvoir la langue fran\u00e7aise et ses multiples expressions culturelles. Le th\u00e8me de cette ann\u00e9e fait ressortir l\u2019importance des langues officielles de notre pays, la force de ceux qui les parlent et leur r\u00e9solution \u00e0 ancrer le bilinguisme dans les valeurs fondamentales de notre soci\u00e9t\u00e9. Pour souligner ce mois, je vous encourage \u00e0 participer \u00e0 l\u2019une des <a rel=\"external\" href=\"https://rvf.ca/fr/calendrier\">activit\u00e9s</a> organis\u00e9es.</p>\n<p>Profitez des activit\u00e9s du mois pour voir une foule de films franco-canadiens \u2013 d\u00e9couvrez les <a rel=\"external\" href=\"https://www.onf.ca/selections/robitaille-damien/espace-francophonie/\">films de l\u2019Office national du film</a> qui rendent hommage \u00e0 la francophonie canadienne.</p>\n<p>Enfin, n\u2019oubliez pas de prendre part au concours d\u2019orthographe annuel! La Fondation canadienne pour le dialogue des cultures, Postes Canada et le Portail linguistique du Canada vous invitent \u00e0 participer \u00e0 la <a rel=\"external\" href=\"https://rvf.ca/fr/concours/ecris-moi-sans-fautes\">dict\u00e9e</a> de cette ann\u00e9e.</p>\n<p>Venez participer \u00e0 ces activit\u00e9s dynamiques. Bons Rendez-vous!</p>\n<p><img src=\"https://intranet.agr.gc.ca/resources/prod/news/images/RVF20191.png\" class=\"center-block\" alt=\"\"></p>\n\t\t"
    },
    "breadcrumb": {
        "en": "The Rendez-vous de la Francophonie - Join the Activities!",
        "fr": "Les Rendez-vous de la Francophonie, participez aux activit\u00e9s!"
    },
    "news": {
        "date_posted": {
            "en": "2019-02-28",
            "fr": "2019-02-28"
        },
        "to": {
            "en": "All staff",
            "fr": "Tous les employ\u00e9s"
        },
        "by": {
            "en": "Jane Taylor, Official Languages Champion",
            "fr": "Jane Taylor, championne des langues officielles"
        }
    }
}