{
    "dcr_id": "1552674941423",
    "lang": "en",
    "title": {
        "en": "Reminder - Speaker Series: \"The Avoidable Crisis of Food Waste\" - March 29",
        "fr": "Rappel - S\u00e9rie de conf\u00e9rences : \u00ab The Avoidable Crisis of Food Waste&nbsp;\u00bb (La crise \u00e9vitable du gaspillage alimentaire) - 29 mars"
    },
    "modified": "2019-03-27 00:00:00.0",
    "issued": "2019-03-19 00:00:00.0",
    "type_name": "intra-intra/news-nouv",
    "node_id": "1279030006975",
    "layout_name": null,
    "dc_date_created": "2019-03-15",
    "breadcrumb_label": "",
    "meta": {
        "issued": {
            "en": "2019-03-19",
            "fr": "2019-03-19"
        },
        "modified": {
            "en": "2019-03-27",
            "fr": "2019-03-27"
        },
        "format": {
            "en": "gcformat",
            "fr": "gcformat"
        },
        "title": {
            "en": "Reminder - Speaker Series: \"The Avoidable Crisis of Food Waste\" - March 29",
            "fr": "Rappel - S\u00e9rie de conf\u00e9rences : \u00ab The Avoidable Crisis of Food Waste\u00a0\u00bb (La crise \u00e9vitable du gaspillage alimentaire) - 29 mars"
        },
        "subject": {
            "en": "communications",
            "fr": "communications"
        },
        "description": {
            "en": "We are excited to welcome Dr. Martin Gooch and Dan Laplain from Value Chain Management International for a fascinating discussion on the methodology and results from a recent ground-breaking research project on food loss and waste in Canada.",
            "fr": "Nous sommes ravis d'accueillir Martin Gooch (Ph. D.) et Dan Laplain, de Value Chain Management International, qui pr\u00e9senteront un expos\u00e9 fascinant sur la m\u00e9thode et les r\u00e9sultats d'un r\u00e9cent projet de recherche novateur sur les pertes et le gaspillage alimentaires au Canada."
        },
        "language": {
            "en": "eng",
            "fr": "fra"
        },
        "audience": {
            "en": "gcaudience",
            "fr": "gcaudience"
        },
        "creator": {
            "en": "Agriculture and Agri-Food Canada",
            "fr": "Agriculture et Agroalimentaire Canada"
        },
        "spatial": {
            "en": "gcregions",
            "fr": "gcregions"
        },
        "service": {
            "en": "AAFC_AgriSource",
            "fr": "AAC_AgriSource"
        },
        "accessRights": {
            "en": "3",
            "fr": "3"
        }
    },
    "body": {
        "en": "<br>\n<br>\n<p>We are excited to welcome Dr. Martin Gooch and Dan Laplain from Value Chain Management International (<abbr title=\"Value Chain Management International\">VCMI</abbr>) for a fascinating discussion on the methodology and results from a recent ground-breaking research project on food loss and waste in Canada.</p>\n<p>The discussion will explore key results from <em>The Avoidable Crisis of Food Waste</em> report, with an emphasis on data sources, collection, analysis and tools used in measuring food loss and waste at the various stages of the Canadian food supply chain. The discussion will also cover the challenges during this food loss and waste measurement exercise and areas for improvement.</p>\n<h2><strong>Event information </strong></h2>\n<p><strong>Presenters:</strong> Dr. Martin Gooch and Dan Laplain<br><strong>Date: </strong>Friday, March 29<br><strong>Time: </strong>1:30 to 2:30 p.m. (ET)<br><strong>Location: </strong>NHCAP (T3-1-370)<br><strong>Videoconference: </strong>76137731343;<strong> Guest PIN: </strong>9018</p>\n<h2><strong>Speaker biographies </strong></h2>\n<p>\nDr. Gooch is the Chief Executive Officer and Partner of <abbr title=\"Value Chain Management International\">VCMI</abbr>. He has 30 years\u2019 management experience in the international agribusiness industry, having worked and completed research projects in many countries (e.g., the UK, New Zealand, Australia, Canada, the U.S., Asia and the Caribbean). He holds qualifications in crop and animal production and farm management.\n</p>\n<p>Dan Laplain is a Senior Associate at <abbr title=\"Value Chain Management International\">VCMI</abbr>. He has over 30 years\u2019 progressive operations, quality and project management experience in a variety of industries. He is a recognized expert in developing, marketing and delivering lean six sigma quality management and process improvement initiatives, with a specific focus on improving the performance of value streams and chains.</p>\n<p><abbr title=\"Value Chain Management International\">VCMI</abbr>, an Ontario-based global food advisory group, has released several publications on food loss and waste since 2010. <abbr title=\"Value Chain Management International\">VCMI</abbr> is a pioneer and leader in identifying and reducing food waste along the value chain.</p>\n<p>For more information, please contact Nathalie Bouchard (<a href=\"mailto:nathalie.bouchard3@canada.ca\">nathalie.bouchard3@canada.ca</a>) or Douglas Ruby (<a href=\"mailto:douglas.ruby@canada.ca\">douglas.ruby@canada.ca</a>).</p>\n\n\t\t",
        "fr": "<br>\n<br>\n<p>Nous sommes ravis d\u2019accueillir Martin Gooch (Ph. D.) et Dan Laplain, de Value Chain Management International (<abbr title=\"Value Chain Management International \">VCMI</abbr>), qui pr\u00e9senteront un expos\u00e9 fascinant sur la m\u00e9thode et les r\u00e9sultats d\u2019un r\u00e9cent projet de recherche novateur sur les pertes et le gaspillage alimentaires au Canada. </p>\n<p>Les conf\u00e9renciers couvriront les principaux r\u00e9sultats du rapport <em>The Avoidable Crisis of Food Waste</em> (<em>La crise \u00e9vitable du gaspillage alimentaire</em>), ainsi que les sources de donn\u00e9es, la collecte, l\u2019analyse et les outils utilis\u00e9s pour mesurer les pertes et le gaspillage aux diverses \u00e9tapes de la cha\u00eene d\u2019approvisionnement alimentaire au Canada. Ils aborderont aussi les difficult\u00e9s rencontr\u00e9es dans la mesure des pertes et du gaspillage alimentaires, et certains aspects \u00e0 am\u00e9liorer. </p>\n<h2><strong>Renseignements sur l\u2019\u00e9v\u00e9nement </strong></h2>\n<p><strong>Pr\u00e9sentateurs </strong>: Martin Gooch (Ph. D.) et Dan Laplain<br><strong>Date :</strong> Vendredi 29 mars<br><strong>Heure</strong> <strong>:</strong> 13 h 30\u00a0\u00e0 14 h 30 (HE)<br><strong>Lieu : </strong>CACPA (T3-1-370)<br><strong>Vid\u00e9oconf\u00e9rence</strong> : 76137731343,<strong> NIP d\u2019invit\u00e9</strong> : 9018</p>\n<h2><strong>Notices biographiques des conf\u00e9renciers </strong></h2>\n<p>Martin Gooch (Ph. D.) est chef de la direction et associ\u00e9 de <abbr title=\"Value Chain Management International \">VCMI</abbr>. Il poss\u00e8de 30 ans d\u2019exp\u00e9rience de la gestion dans l\u2019industrie agroalimentaire internationale, ayant travaill\u00e9 et r\u00e9alis\u00e9 des projets de recherche dans divers pays (Royaume-Uni, Nouvelle-Z\u00e9lande, Australie, Canada, \u00c9tats-Unis, Asie et Cara\u00efbes). Il a des comp\u00e9tences en production v\u00e9g\u00e9tale et animale et en gestion agricole. </p>\n<p>Dan Laplain est associ\u00e9 principal de <abbr title=\"Value Chain Management International \">VCMI</abbr>. Il poss\u00e8de plus de 30 ans d\u2019exp\u00e9rience en op\u00e9rations progressives, en gestion de la qualit\u00e9 et en gestion de projets dans diverses industries. Il est un expert reconnu de l\u2019\u00e9laboration, du marketing et de la mise en \u0153uvre d\u2019initiatives de gestion de la qualit\u00e9 et d\u2019am\u00e9lioration des processus par la m\u00e9thode Lean Six Sigma, en particulier l\u2019am\u00e9lioration du rendement des flux et des cha\u00eenes de valeur.</p>\n<p><abbr title=\"Value Chain Management International \">VCMI</abbr>, un groupe consultatif mondial sur les cha\u00eenes de valeur alimentaires bas\u00e9 en Ontario, a publi\u00e9 plusieurs ouvrages sur les pertes et le gaspillage alimentaires depuis 2010. <abbr title=\"Value Chain Management International \">VCMI</abbr> est un pionnier et un chef de file dans les efforts visant \u00e0 cerner et r\u00e9duire le gaspillage alimentaire tout au long de la cha\u00eene de valeur.</p>\n<p>Pour en savoir plus, veuillez communiquer avec Nathalie Bouchard (<a href=\"mailto:nathalie.bouchard3@canada.ca\">nathalie.bouchard3@canada.ca</a>) ou Douglas Ruby (<a href=\"mailto:douglas.ruby@canada.ca\">douglas.ruby@canada.ca</a>).</p>\n\t\t"
    },
    "breadcrumb": {
        "en": "Reminder - Speaker Series: \"The Avoidable Crisis of Food Waste\" - March 29",
        "fr": "Rappel - S\u00e9rie de conf\u00e9rences : \u00ab The Avoidable Crisis of Food Waste\u00a0\u00bb (La crise \u00e9vitable du..."
    },
    "news": {
        "date_posted": {
            "en": "2019-03-19",
            "fr": "2019-03-19"
        },
        "to": {
            "en": "All staff",
            "fr": "Tous les employ\u00e9s"
        },
        "by": {
            "en": "Research and Analysis Directorate, Strategic Policy Branch",
            "fr": "Direction de la recherche et de l'analyse, Direction g\u00e9n\u00e9rale des politiques strat\u00e9giques"
        }
    }
}