{
    "dcr_id": "1552312500974",
    "lang": "en",
    "title": {
        "en": "Reminder - Leave Process and Deadlines for Fiscal Year End",
        "fr": "Rappel - Processus li\u00e9s aux cong\u00e9s et dates limites pour la fin de l'exercice"
    },
    "modified": "2019-03-27 00:00:00.0",
    "issued": "2019-03-14 00:00:00.0",
    "type_name": "intra-intra/news-nouv",
    "node_id": "1279030006975",
    "layout_name": null,
    "dc_date_created": "2019-03-11",
    "breadcrumb_label": "",
    "meta": {
        "issued": {
            "en": "2019-03-14",
            "fr": "2019-03-14"
        },
        "modified": {
            "en": "2019-03-27",
            "fr": "2019-03-20"
        },
        "format": {
            "en": "gcformat",
            "fr": "gcformat"
        },
        "title": {
            "en": "Reminder - Leave Process and Deadlines for Fiscal Year End",
            "fr": "Rappel - Processus li\u00e9s aux cong\u00e9s et dates limites pour la fin de l'exercice"
        },
        "subject": {
            "en": "communications",
            "fr": "communications"
        },
        "description": {
            "en": "Paid-leave requests must be entered in the PeopleSoft Self Service application and approved/denied by your manager no later than Friday, March 29, 2019.",
            "fr": "Les demandes de cong\u00e9 pay\u00e9 doivent \u00eatre entr\u00e9es dans PeopleSoft au moyen de la fonction libre-service et \u00eatre approuv\u00e9es ou refus\u00e9es par votre gestionnaire au plus tard le vendredi 29 mars 2019."
        },
        "language": {
            "en": "eng",
            "fr": "fra"
        },
        "audience": {
            "en": "gcaudience",
            "fr": "gcaudience"
        },
        "creator": {
            "en": "Agriculture and Agri-Food Canada",
            "fr": "Agriculture et Agroalimentaire Canada"
        },
        "spatial": {
            "en": "gcregions",
            "fr": "gcregions"
        },
        "service": {
            "en": "AAFC_AgriSource",
            "fr": "AAC_AgriSource"
        },
        "accessRights": {
            "en": "3",
            "fr": "3"
        }
    },
    "body": {
        "en": "<br>\n<br>\n<p>In preparation for the new fiscal year, please make sure the following are up to date:</p>\n<ul>\n<li>Paid-leave requests for the fiscal year 2018-19; and</li>\n<li>Extra duty pay/shift work report requested as time (compensatory leave) forms up to and including March 31, 2019.</li>\n</ul>\n<p>Paid-leave requests must be entered in the <a rel=\"external\" href=\"https://psoft.agr.gc.ca/psp/peoplesoft8/?cmd=login&amp;languageCd=ENG\">PeopleSoft</a> Self Service application and approved/denied by your manager <strong>no later than Friday, March 29, 2019</strong>.</p>\n<p>For employees who do not have access to PeopleSoft or who are requesting overtime as compensatory leave:</p>\n<ol>\n<li>Obtain approval for your <a rel=\"external\" href=\"http://publiservice-app.pwgsc.gc.ca/forms/index.cfm?fuseaction=search.details&amp;lang=e&amp;display=5943\">extra duty pay/shift work report and overtime form</a>.</li>\n<li>Complete a <a rel=\"external\" href=\"http://www.tpsgc-pwgsc.gc.ca/remuneration-compensation/services-paye-pay-services/form/documents/446-5-v5-eng.pdf\">Pay Action Request</a>.</li>\n<li>Email the forms to the Public Service Pay Centre through the Trusted Source at\u00a0<a href=\"mailto:aafc.hrtrustedsource-sourcefiablerh.aac@canada.ca\">aafc.hrtrustedsource-sourcefiablerh.aac@canada.ca</a> no later than <strong>March 29, 2019</strong>.</li>\n</ol>\n<p>Tips and more detailed instructions are available on the <a href=\"http://intranet.agr.gc.ca/agrisource/eng/human-resources/pay-and-benefits?id=1288028994039\">Pay, Benefits, and Phoenix\u00a0AgriSource page</a>. Please direct any questions to the <a rel=\"external\" target=\"_blank\" href=\"https://www.tpsgc-pwgsc.gc.ca/remuneration-compensation/services-paye-pay-services/paye-centre-pay/cn-cu-eng.html\">Public Service Pay Centre</a>.</p>\n<h2><strong>Reduction of tax withholding on lump-sum payments</strong></h2>\n<p>Employees who would like to receive a payment related to unused vacation leave credits may wish to have less or no income tax deducted at source.</p>\n<ol>\n<li>Send a request to Canada Revenue Agency to obtain a <a rel=\"external\" href=\"https://www.canada.ca/en/revenue-agency/services/tax/businesses/topics/payroll/payroll-deductions-contributions/income-tax/reducing-remuneration-subject-income-tax/letter-authority.html\">Letter of Authority</a>.\n\t\n<ul style=\"list-style-type: circle;\">\n<li>If working in the province of Quebec, send a request to the Minist\u00e8re du Revenu du Qu\u00e9bec to obtain a Letter of Authority for less or no Quebec provincial income tax to be deducted at the source.</li>\n</ul>\n</li>\n<li>Complete the <a rel=\"external\" href=\"http://publiservice-app.pwgsc.gc.ca/forms/pdf/GC178.pdf\">GC178 form</a> and obtain approval from the delegated manager.</li>\n<li>Complete a <a href=\"http://www.tpsgc-pwgsc.gc.ca/remuneration-compensation/services-paye-pay-services/form/documents/446-5-v5-eng.pdf\">Pay Action Request</a>.</li>\n<li>Send the completed documents to the Public Service Pay Centre at <a href=\"mailto:centredepaye.paycentre@tpsgc-pwgsc.gc.ca\">centredepaye.paycentre@tpsgc-pwgsc.gc.ca</a>. </li>\n</ol>\n<p><strong>Note:</strong> Letters of Authority received after the payment is made cannot be processed.</p>\n<p>For more information please contact the <a rel=\"external\" target=\"_blank\" href=\"http://www.tpsgc-pwgsc.gc.ca/remuneration-compensation/services-paye-pay-services/paye-centre-pay/cn-cu-eng.html\">Pay Centre</a>.</p>\n\n\t\t",
        "fr": "<br>\n<br>\n<p>En vue du prochain exercice, veuillez vous assurer que les documents suivants sont \u00e0 jour :</p>\n<ul>\n<li>Demandes de cong\u00e9 pay\u00e9 pour 2018-19;</li>\n<li>Rapports sur la paye pour services suppl\u00e9mentaires/travail par \u00e9quipe demand\u00e9s en temps (cong\u00e9 compensatoire) jusqu\u2019au 31 mars 2019 inclusivement.</li>\n</ul>\n<p>Les demandes de cong\u00e9 pay\u00e9 doivent \u00eatre entr\u00e9es dans <a href=\"https://psoft.agr.gc.ca/psp/peoplesoft8/?cmd=login&amp;languageCd=CFR\">PeopleSoft</a> au moyen de la fonction libre\u2011service et \u00eatre approuv\u00e9es ou refus\u00e9es par votre gestionnaire <strong>au plus tard le vendredi 29 mars 2019</strong>.</p>\n<p>Les employ\u00e9s qui n\u2019ont pas acc\u00e8s \u00e0 PeopleSoft ou qui demandent leurs heures suppl\u00e9mentaires en temps compensatoire doivent :</p>\n<ol>\n<li>Faire approuver leur formulaire <a rel=\"external\" href=\"http://publiservice-app.tpsgc.gc.ca/forms/index.cfm?fuseaction=search.details&amp;lang=f&amp;display=5943\">Rapport sur la paye pour services suppl\u00e9mentaires/travail par \u00e9quipe</a>.</li>\n<li>Remplir le formulaire <a rel=\"external\" href=\"https://www.tpsgc-pwgsc.gc.ca/remuneration-compensation/services-paye-pay-services/form/documents/446-5-v5-fra.pdf\">Demande d\u2019intervention de paye</a>.</li>\n<li>Envoyer ces formulaires au Centre des services de paye de la fonction publique par la source fiable \u00e0 <a href=\"mailto:aafc.hrtrustedsource-sourcefiablerh.aac@canada.ca\">aafc.hrtrustedsource-sourcefiablerh.aac@canada.ca</a>\u00a0au plus tard le <strong>29 mars 2019</strong>.</li>\n</ol>\n<p>Vous trouverez des conseils et des directives plus d\u00e9taill\u00e9es sur la page\u00a0<a href=\"http://intranet.agr.gc.ca/agrisource/fra/ressources-humaines/remuneration-avantages-sociaux-et-phenix?id=1511367056518\">R\u00e9mun\u00e9ration, avantages sociaux, et Ph\u00e9nix d\u2019AgriSource</a>. Si vous avez des questions, vous pouvez communiquer avec le <a rel=\"external\" target=\"_blank\" href=\"http://www.tpsgc-pwgsc.gc.ca/remuneration-compensation/services-paye-pay-services/paye-centre-pay/cn-cu-fra.html\">Centre des services de paye de la fonction publique</a>.</p>\n<h2><strong>R\u00e9duction de la retenue d\u2019imp\u00f4t sur les paiements forfaitaires</strong></h2>\n<p>Les employ\u00e9s qui veulent se faire payer des cr\u00e9dits de cong\u00e9 annuel inutilis\u00e9s et faire retenir moins d\u2019imp\u00f4t ou ne faire retenir aucun imp\u00f4t \u00e0 la source sur le paiement doivent :</p>\n<ol>\n<li>Demander une <a rel=\"external\" href=\"https://www.canada.ca/fr/agence-revenu/services/impot/entreprises/sujets/retenues-paie/retenues-paie-cotisations/impot-revenu/reduction-remuneration-assujettie-retenues-impot/lettre-autorisation.html\">lettre d\u2019autorisation</a> \u00e0 l\u2019Agence du revenu du Canada.\n\t\n<ul style=\"list-style-type: circle;\">\n<li>Les employ\u00e9s qui travaillent au Qu\u00e9bec et qui souhaitent faire retenir moins d\u2019imp\u00f4t provincial ou ne faire retenir aucun imp\u00f4t provincial sur leur paiement doivent obtenir une lettre d\u2019autorisation du minist\u00e8re du Revenu du Qu\u00e9bec.</li>\n</ul>\n</li>\n<li>Remplir le <a rel=\"external\" href=\"http://publiservice-app.pwgsc.gc.ca/forms/pdf/GC178.pdf\">formulaire GC178</a> et obtenir l\u2019approbation du gestionnaire d\u00e9l\u00e9gataire.</li>\n<li>Remplir le formulaire <a rel=\"external\" href=\"https://www.tpsgc-pwgsc.gc.ca/remuneration-compensation/services-paye-pay-services/form/documents/446-5-v5-fra.pdf\">Demande d\u2019intervention de paye</a>.</li>\n<li>Envoyer les documents d\u00fbment remplis au Centre des services de paye de la fonction publique \u00e0 <a href=\"mailto:centredepaye.paycentre@tpsgc-pwgsc.gc.ca\">centredepaye.paycentre@tpsgc-pwgsc.gc.ca</a>. </li>\n</ol>\n<p><strong>Nota :</strong> Les lettres d\u2019autorisation re\u00e7ues apr\u00e8s le versement du paiement ne peuvent pas \u00eatre prises en compte.</p>\n<p>Pour de plus amples renseignements, veuillez communiquer avec le <a rel=\"external\" target=\"_blank\" href=\"http://www.tpsgc-pwgsc.gc.ca/remuneration-compensation/services-paye-pay-services/paye-centre-pay/cn-cu-fra.html\">Centre des services de paye</a>.</p>\n\t\t"
    },
    "breadcrumb": {
        "en": "Reminder - Leave Process and Deadlines for Fiscal Year End",
        "fr": "Rappel - Processus li\u00e9s aux cong\u00e9s et dates limites pour la fin de l'exercice"
    },
    "news": {
        "date_posted": {
            "en": "2019-03-14",
            "fr": "2019-03-14"
        },
        "to": {
            "en": "All staff",
            "fr": "Tous les employ\u00e9s"
        },
        "by": {
            "en": "Human Resources, Corporate Management Branch",
            "fr": "Ressources humaines, Direction g\u00e9n\u00e9rale de la gestion int\u00e9gr\u00e9e"
        }
    }
}