{
    "dcr_id": "1552412279157",
    "lang": "en",
    "title": {
        "en": "Reminder - Upcoming Workshops: Problem-Solving Through Coaching ",
        "fr": "Rappel - Atelier \u00e0 venir : Coaching en r\u00e9solution de probl\u00e8mes "
    },
    "modified": "2019-03-20 00:00:00.0",
    "issued": "2019-03-14 00:00:00.0",
    "type_name": "intra-intra/news-nouv",
    "node_id": "1279030006975",
    "layout_name": null,
    "dc_date_created": "2019-03-12",
    "breadcrumb_label": "",
    "meta": {
        "issued": {
            "en": "2019-03-14",
            "fr": "2019-03-14"
        },
        "modified": {
            "en": "2019-03-20",
            "fr": "2019-03-20"
        },
        "format": {
            "en": "gcformat",
            "fr": "gcformat"
        },
        "title": {
            "en": "Reminder - Upcoming Workshops: Problem-Solving Through Coaching ",
            "fr": "Rappel - Atelier \u00e0 venir : Coaching en r\u00e9solution de probl\u00e8mes "
        },
        "subject": {
            "en": "communications",
            "fr": "communications"
        },
        "description": {
            "en": "Whether you're dealing with a quandary of your own or trying to help someone else with an issue, it's important to be ready with the skills to help solve the problem.",
            "fr": "Que vous deviez composer avec une situation difficile ou que vous essayiez d'aider quelqu'un \u00e0 r\u00e9gler un probl\u00e8me, il importe que vous soyez dot\u00e9 des comp\u00e9tences en r\u00e9solution de probl\u00e8mes n\u00e9cessaires."
        },
        "language": {
            "en": "eng",
            "fr": "fra"
        },
        "audience": {
            "en": "gcaudience",
            "fr": "gcaudience"
        },
        "creator": {
            "en": "Agriculture and Agri-Food Canada",
            "fr": "Agriculture et Agroalimentaire Canada"
        },
        "spatial": {
            "en": "gcregions",
            "fr": "gcregions"
        },
        "service": {
            "en": "AAFC_AgriSource",
            "fr": "AAC_AgriSource"
        },
        "accessRights": {
            "en": "3",
            "fr": "3"
        }
    },
    "body": {
        "en": "<br>\n<br>\n<p>Whether you\u2019re dealing with a quandary of your own or trying to help someone else with an issue, it\u2019s important to be ready with the skills to help solve the problem.</p>\n<p>The Visible Minorities Network invites you to attend a session that will equip you with an approach to move forward and help find solutions to problems. The workshop encourages participants to feel empowered to think through complex situations, explore new possibilities, and make decisions more confidently. It will also provide simple communication tools and tips for helping others, including how and when to provide support. Participants will even get a chance to practice their new skills with others during the workshop.</p>\n<p>This learning session will benefit employees and managers alike. Join us and learn how having these problem-solving skills can lead to improved relationships and contribute to a more positive, supportive environment, both at work and at home.</p>\n<h2><strong>Event information</strong></h2>\n<p><strong>English session:</strong> Tuesday, March 26 | 1:00 to 3:30 p.m. (ET)<br><strong>French session:</strong> Thursday, March 28 | 1:00 to 3:30 p.m. (ET)<br><strong>Location:</strong> NHCAP (T6-1-136)<br><strong>Teleconference:</strong> 1-855-470-7641, <strong>Conference ID:</strong> 76137731775, <strong>Guest PIN:</strong> 7650#<br><strong>Videoconference:</strong> 76137731775, <strong>Guest PIN:</strong> 7650#<br><strong>Registration:</strong>\u00a0<a rel=\"external\" href=\"https://collab.agr.gc.ca/co/vmn-rdmv/Lists/Events/DispForm.aspx?ID=14&amp;Source=https%3A%2F%2Fcollab%2Eagr%2Egc%2Eca%2Fco%2Fvmn%2Drdmv%2FSitePages%2FCalendar%2Easpx%20\">English session</a>, <a rel=\"external\" href=\"https://collab.agr.gc.ca/co/vmn-rdmv/Lists/Events/DispForm.aspx?ID=18&amp;Source=https%3A%2F%2Fcollab%2Eagr%2Egc%2Eca%2Fco%2Fvmn%2Drdmv%2FSitePages%2FCalendar%2Easpx%20\">French session</a>\u00a0| The registration deadline is <strong>March 22</strong></p>\n<p>If you have any questions regarding this workshop, please contact the<strong> </strong>Visible Minorities Network at <a href=\"mailto:aafc.vmn-rmv.aac@canada.ca\">aafc.vmn-rmv.aac@canada.ca</a>. </p>\n<p><img src=\"https://intranet.agr.gc.ca/resources/prod/news/images/VisbleMinoritiesNetwork-EN2019.png\" class=\"center-block\">\u00a0</p>\n\n\t\t",
        "fr": "<br>\n<br>\n<p>Que vous deviez composer avec une situation difficile ou que vous essayiez d\u2019aider quelqu\u2019un \u00e0 r\u00e9gler un probl\u00e8me, il importe que vous soyez dot\u00e9 des comp\u00e9tences en r\u00e9solution de probl\u00e8mes n\u00e9cessaires.</p>\n<p>Le R\u00e9seau des minorit\u00e9s visibles vous invite \u00e0 assister \u00e0 une s\u00e9ance qui vous dotera de moyens pour vous aider \u00e0 trouver des solutions\u00a0\u00e0 des\u00a0probl\u00e8mes. L\u2019atelier aide les participants \u00e0 se sentir habilit\u00e9s pour r\u00e9fl\u00e9chir \u00e0 des situations complexes, explorer de nouvelles possibilit\u00e9s et prendre des d\u00e9cisions avec plus de confiance. Il comporte aussi des outils de communication simples et des conseils pour aider les autres, et savoir comment et quand fournir du soutien. Les participants auront aussi l\u2019occasion de mettre en pratique leurs nouvelles comp\u00e9tences aupr\u00e8s d\u2019autres personnes pendant l\u2019atelier.</p>\n<p>Cette s\u00e9ance d\u2019apprentissage profitera autant aux employ\u00e9s qu\u2019aux gestionnaires. En participant, vous verrez comment ces comp\u00e9tences en r\u00e9solution de probl\u00e8mes peuvent am\u00e9liorer vos relations et contribuer \u00e0 un environnement positif et de soutien, au travail et \u00e0 la maison.</p>\n<h2><strong>Renseignements sur les s\u00e9ances</strong></h2>\n<p><strong>S\u00e9ance en anglais :</strong> Mardi 26 mars |\u00a013 h \u00e0 15 h 30 (HE)<br><strong><strong>S\u00e9ance en f</strong>ran\u00e7ais :</strong> Jeudi 28 mars | 13 h \u00e0 15 h 30 (HE)<br><strong>Lieu :</strong> CACPA (T6-1-136)<br><strong>T\u00e9l\u00e9conf\u00e9rence :</strong> 1-855-470-7641, <strong>code de conf\u00e9rence : </strong>76137731775, <strong>NIP invit\u00e9 :</strong>\u00a07650#<br><strong>Vid\u00e9oconf\u00e9rence :</strong> 76137731775, <strong>NIP invit\u00e9 :</strong> 7650#<br><strong>Inscription : </strong><a rel=\"external\" href=\"https://collab.agr.gc.ca/co/vmn-rdmv/Lists/Events/DispForm.aspx?ID=14&amp;Source=https%3A%2F%2Fcollab%2Eagr%2Egc%2Eca%2Fco%2Fvmn%2Drdmv%2FSitePages%2FCalendar%2Easpx%20\">s\u00e9ance en anglais</a>, <a rel=\"external\" href=\"https://collab.agr.gc.ca/co/vmn-rdmv/Lists/Events/DispForm.aspx?ID=18&amp;Source=https%3A%2F%2Fcollab%2Eagr%2Egc%2Eca%2Fco%2Fvmn%2Drdmv%2FSitePages%2FCalendar%2Easpx%20\">s\u00e9ance en fran\u00e7ais</a>\u00a0| la date limite d\u2019inscription est le\u00a0<strong>22 mars</strong></p>\n<p>Si vous avez des questions au sujet de cet atelier, veuillez communiquer avec le R\u00e9seau des minorit\u00e9s visibles par courriel \u00e0 <a href=\"mailto:aafc.vmn-rmv.aac@canada.ca\">aafc.vmn-rmv.aac@canada.ca</a>. </p>\n<p>\n<img src=\"https://intranet.agr.gc.ca/resources/prod/news/images/VisbleMinoritiesNetwork-FR2019.png\" class=\"center-block\"></p>\n\t\t"
    },
    "breadcrumb": {
        "en": "Reminder - Upcoming Workshops: Problem-Solving Through Coaching",
        "fr": "Rappel - Atelier \u00e0 venir : Coaching en r\u00e9solution de probl\u00e8mes"
    },
    "news": {
        "date_posted": {
            "en": "2019-03-14",
            "fr": "2019-03-14"
        },
        "to": {
            "en": "All staff",
            "fr": "Tous les employ\u00e9s"
        },
        "by": {
            "en": "Carole Bidal, Champion for the Visible Minorities Network",
            "fr": "Carole Bidal, championne du R\u00e9seau des minorit\u00e9s visibles"
        }
    }
}