{
    "dcr_id": "1552065470503",
    "lang": "en",
    "title": {
        "en": "AAFC Recognized as One of Canada's Best Diversity Employers for the Third Year in a Row",
        "fr": "AAC reconnu une troisi\u00e8me ann\u00e9e cons\u00e9cutive comme l'un des meilleurs employeurs au Canada au titre de la diversit\u00e9 "
    },
    "modified": "2019-03-08 00:00:00.0",
    "issued": "2019-03-08 00:00:00.0",
    "type_name": "intra-intra/news-nouv",
    "node_id": "1279030006975",
    "layout_name": null,
    "dc_date_created": "2019-03-08",
    "breadcrumb_label": "",
    "meta": {
        "issued": {
            "en": "2019-03-08",
            "fr": "2019-03-08"
        },
        "modified": {
            "en": "2019-03-08",
            "fr": "2019-03-08"
        },
        "format": {
            "en": "gcformat",
            "fr": "gcformat"
        },
        "title": {
            "en": "AAFC Recognized as One of Canada's Best Diversity Employers for the Third Year in a Row",
            "fr": "AAC reconnu une troisi\u00e8me ann\u00e9e cons\u00e9cutive comme l'un des meilleurs employeurs au Canada au titre de la diversit\u00e9 "
        },
        "subject": {
            "en": "communications",
            "fr": "communications"
        },
        "description": {
            "en": "We are proud to announce that AAFC has been recognized as one of Canada's Best Diversity Employers for the third year in a row.",
            "fr": "Nous sommes fiers d'annoncer qu'AAC a \u00e9t\u00e9 reconnu comme l'un des meilleurs employeurs au Canada au titre de la diversit\u00e9 pour une troisi\u00e8me ann\u00e9e cons\u00e9cutive."
        },
        "language": {
            "en": "eng",
            "fr": "fra"
        },
        "audience": {
            "en": "gcaudience",
            "fr": "gcaudience"
        },
        "creator": {
            "en": "Agriculture and Agri-Food Canada",
            "fr": "Agriculture et Agroalimentaire Canada"
        },
        "spatial": {
            "en": "gcregions",
            "fr": "gcregions"
        },
        "service": {
            "en": "AAFC_AgriSource",
            "fr": "AAC_AgriSource"
        },
        "accessRights": {
            "en": "3",
            "fr": "3"
        }
    },
    "body": {
        "en": "<br>\n<br>\n<p>We are proud to announce that AAFC has been recognized as one of Canada's Best Diversity Employers for the third year in a row.</p>\n<p>This is a great achievement for the department and a testament to the hard work of employees who innovate in areas which support and create diversity and inclusion in our workplace.</p>\n<p>Some examples of these efforts include:</p>\n<ul>\n<li>AAFC\u2019s <a rel=\"external\" href=\"https://collab.agr.gc.ca/co/eedi-emedi/SitePages/Diversity%20Networks.aspx#_blank\">five Diversity and Inclusion Networks</a> who advance awareness; contribute to departmental initiatives and provide a safe space and mentorship for their members;</li>\n<li>integrating the Indigenous Student Recruitment Initiative, the Indigenous Support and Awareness Office and AAFC\u2019s departmental Elder into the fabric of the department;</li>\n<li>reaching out to young Canadians to raise awareness of careers in science and the wide range of careers available in the Government of Canada;</li>\n<li>helping under-represented groups to fully participate in the agricultural sector such as with our Pathfinder service and our AgriDiversity program;</li>\n<li>ensuring that diversity and inclusion remain a priority for senior management.</li>\n</ul>\n<p>Additional examples can be found on the <a rel=\"external\" href=\"http://www.agr.gc.ca/eng/about-us/planning-and-reporting/public-service-renewal-results-for-agriculture-and-agri-food-canada/diversity-and-inclusiveness/?id=1510759633689#_blank\">Public Service Renewal Results for AAFC: Diversity and Inclusiveness web page</a>. You can also visit the <a rel=\"external\" href=\"https://collab.agr.gc.ca/co/eedi-emedi/SitePages/Diversity%20Networks.aspx#_blank\">Diversity and Inclusiveness Knowledge Workspace page</a> for tools, training and information.</p>\n<p>We encourage you to keep the momentum going by contributing ideas, participating in discussions or joining an employee network \u2013 such as the Gender and Sexual Diversity Inclusiveness Network, the Persons with Disabilities Network, the Indigenous Network Circle, the Visible Minorities Network and the Women in Science Network.</p>\n<p>By embracing diversity and inclusion, our department ensures broader discussions, better decisions, and a more positive workplace.</p>\n<p>Thank you for your continued support.</p>\n<p>\u00a0</p>\n<p><strong>Chris Forbes</strong><br>\nDeputy Minister</p>\n<p><strong>Annette Gibbons </strong><br>\nAssociate Deputy Minister</p>\n\n\t\t",
        "fr": "<br>\n<br>\n<p>Nous sommes fiers d\u2019annoncer qu\u2019AAC a \u00e9t\u00e9 reconnu comme l\u2019un des meilleurs employeurs au Canada au titre de la diversit\u00e9 pour une troisi\u00e8me ann\u00e9e cons\u00e9cutive.</p>\n<p>Il s\u2019agit d\u2019une grande r\u00e9alisation pour le Minist\u00e8re et d\u2019un t\u00e9moignage du travail acharn\u00e9 d\u2019employ\u00e9s qui innovent dans les efforts visant \u00e0 favoriser et \u00e0 cr\u00e9er la diversit\u00e9 et l\u2019inclusion dans notre milieu de travail.</p>\n<p>Voici des exemples de ces efforts :</p>\n<ul>\n<li>les <a rel=\"external\" href=\"https://collab.agr.gc.ca/co/eedi-emedi/SitePages/Diversity%20Networks.aspx#_blank\">cinq r\u00e9seaux de la diversit\u00e9 et de l\u2019inclusivit\u00e9</a> d\u2019AAC qui favorisent la sensibilisation, contribuent aux initiatives minist\u00e9rielles et offrent aux membres un espace s\u00e9curitaire et un mentorat;</li>\n<li>int\u00e9grer dans l\u2019ensemble d\u2019AAC l\u2019Initiative de recrutement d\u2019\u00e9tudiants autochtones, le Bureau d\u2019aide et de sensibilisation aux Autochtones et l\u2019Ain\u00e9 du Minist\u00e8re;</li>\n<li>sensibiliser les jeunes Canadiens aux carri\u00e8res en sciences et \u00e0 la vaste gamme de possibilit\u00e9s de carri\u00e8res au gouvernement du Canada;</li>\n<li>aider les groupes sous-repr\u00e9sent\u00e9s \u00e0 participer pleinement au secteur agricole, notamment gr\u00e2ce \u00e0 notre service Explorateur pour les Autochtones et \u00e0 notre programme Agri-diversit\u00e9;</li>\n<li>veiller \u00e0 ce que la diversit\u00e9 et l\u2019inclusion demeurent une priorit\u00e9 pour la haute direction.</li>\n</ul>\n<p>D\u2019autres exemples sont publi\u00e9s sur la <a rel=\"external\" href=\"http://www.agr.gc.ca/fra/a-propos-de-nous/planification-et-rapports/resultats-du-renouvellement-de-la-fonction-publique-d-agriculture-et-agroalimentaire-canada/initiatives-de-diversite-et-dinclusion/?id=1510759633689\">page Web des R\u00e9sultats du renouvellement de la fonction publique d\u2019AAC : Initiatives de diversit\u00e9 et d\u2019inclusion</a>. Vous trouverez aussi des outils, des formations et des renseignements sur la <a rel=\"external\" href=\"https://collab.agr.gc.ca/co/eedi-emedi/SitePages/Diversity%20Networks.aspx#_blank\">page de la diversit\u00e9 et de l\u2019inclusivit\u00e9 dans l\u2019Espace de travail du savoir</a>.</p>\n<p>Nous vous encourageons \u00e0 poursuivre sur cette lanc\u00e9e en apportant des id\u00e9es, en participant \u00e0 des discussions ou en vous joignant \u00e0 un r\u00e9seau d\u2019employ\u00e9s, comme le R\u00e9seau de l\u2019inclusivit\u00e9 et de la diversit\u00e9 des genres et de la sexualit\u00e9, le R\u00e9seau des personnes handicap\u00e9es, le Cercle de r\u00e9seautage des employ\u00e9s autochtones, le R\u00e9seau des minorit\u00e9s visibles et le R\u00e9seau des femmes en sciences.</p>\n<p>En appuyant la diversit\u00e9 et l\u2019inclusion, le Minist\u00e8re favorise des discussions plus larges, de meilleures d\u00e9cisions et un milieu de travail plus positif.</p>\n<p>Nous vous remercions de votre soutien continu.</p>\n<p>\u00a0</p>\n<p><strong>Chris Forbes</strong><br>\nSous-ministre</p>\n<p><strong>Annette Gibbons </strong><br>\nSous-ministre d\u00e9l\u00e9gu\u00e9e</p>\n\t\t"
    },
    "breadcrumb": {
        "en": "AAFC Recognized as One of Canada's Best Diversity Employers for the Third Year in a Row",
        "fr": "AAC reconnu une troisi\u00e8me ann\u00e9e cons\u00e9cutive comme l'un des meilleurs employeurs au Canada au titre de la diversit\u00e9"
    },
    "news": {
        "date_posted": {
            "en": "2019-03-08",
            "fr": "2019-03-08"
        },
        "to": {
            "en": "All staff",
            "fr": "Tous les employ\u00e9s"
        },
        "by": {
            "en": "Chris Forbes, Deputy Minister, and Annette Gibbons, Associate Deputy Minister",
            "fr": "Chris Forbes, sous-ministre, et Annette Gibbons, sous-ministre d\u00e9l\u00e9gu\u00e9e"
        }
    }
}