{
    "dcr_id": "1553622048894",
    "lang": "en",
    "title": {
        "en": "This Week in The Harvest - Making Connections: Bringing Government, Academia and Industry Together",
        "fr": "Au menu de La Moisson cette semaine - \u00c9tablir des liens en regroupant le gouvernement, le milieu universitaire et le secteur"
    },
    "modified": "2019-03-28 00:00:00.0",
    "issued": "2019-03-28 00:00:00.0",
    "type_name": "intra-intra/news-nouv",
    "node_id": "1279030006975",
    "layout_name": null,
    "dc_date_created": "2019-03-27",
    "breadcrumb_label": "",
    "meta": {
        "issued": {
            "en": "2019-03-28",
            "fr": "2019-03-28"
        },
        "modified": {
            "en": "2019-03-28",
            "fr": "2019-03-28"
        },
        "format": {
            "en": "gcformat",
            "fr": "gcformat"
        },
        "title": {
            "en": "This Week in The Harvest - Making Connections: Bringing Government, Academia and Industry Together",
            "fr": "Au menu de La Moisson cette semaine - \u00c9tablir des liens en regroupant le gouvernement, le milieu universitaire et le secteur"
        },
        "subject": {
            "en": "communications",
            "fr": "communications"
        },
        "description": {
            "en": "In case you missed it, here's what's new in <I>The Harvest</I> this week.",
            "fr": "Au cas o\u00f9 vous l'auriez manqu\u00e9, voici le menu que la section <I>La Moisson</I> vous offre cette semaine."
        },
        "language": {
            "en": "eng",
            "fr": "fra"
        },
        "audience": {
            "en": "gcaudience",
            "fr": "gcaudience"
        },
        "creator": {
            "en": "Agriculture and Agri-Food Canada",
            "fr": "Agriculture et Agroalimentaire Canada"
        },
        "spatial": {
            "en": "gcregions",
            "fr": "gcregions"
        },
        "service": {
            "en": "AAFC_AgriSource",
            "fr": "AAC_AgriSource"
        },
        "accessRights": {
            "en": "3",
            "fr": "3"
        }
    },
    "body": {
        "en": "<br>\n<br>\n<p>In case you missed it, here\u2019s what\u2019s new in <a rel=\"external\" href=\"https://collab.agr.gc.ca/apps/harvest-moisson\"><em>The Harvest</em></a> this week:</p>\n<p><strong>Feature story:</strong> <a rel=\"external\" href=\"https://collab.agr.gc.ca/apps/harvest-moisson\">Making Connections: Bringing Government, Academia and Industry Together</a> \u2013 The agri-food industry, academia, and government scientists: each of these groups has different needs, challenges and strengths. Regional Research Users\u2019 Meetings are meant to enable collaboration between these groups. These meetings, hosted by AAFC, are intended to identify gaps in research, foster discussion between the three groups, and help to build partnerships.</p>\n<p><strong>Poll: </strong><a rel=\"external\" href=\"https://collab.agr.gc.ca/apps/harvest-moisson\">What is your favourite first sign of spring?</a></p>\n<p><strong>Feature photo: </strong><a rel=\"external\" href=\"https://collab.agr.gc.ca/apps/harvest-moisson/gallery/Lists/Posts/Post.aspx?ID=280\">Sunday Snack</a>, by Tim Dawson, Programs Branch, Winnipeg, Manitoba.</p>\n<p><strong>Did you know?</strong> <a rel=\"external\" href=\"https://collab.agr.gc.ca/apps/harvest-moisson/Pages/DidYouKnow.aspx\">Egg yolks are one of the few foods that naturally contain Vitamin D</a>, along with mushrooms and fatty fish. Most Vitamin D is created by the skin in a chemical reaction that is dependent on sun exposure.</p>\n<p>You can get involved by posting a comment or \u201cliking\u201d an article. You can also check out what your colleagues are liking and saying.</p>\n<p>Should you have story ideas, scenic or artistic agriculture-related photos, or interesting facts, please share them with us by clicking on \u201cContribute\u201d in the top menu bar.</p>\n<p>\n<img src=\"https://intranet.agr.gc.ca/resources/prod/news/images/HarvestRRUM.png\" class=\"center-block\" alt=\"Participants at the first Regional Research Users\u2019 Meeting meeting in Guelph. \"></p>\n\n\t\t",
        "fr": "<br>\n<br>\n<p>Au cas o\u00f9 vous l\u2019auriez manqu\u00e9, voici le menu que la section <a rel=\"external\" href=\"https://collab.agr.gc.ca/apps/harvest-moisson\"><em>La Moisson</em></a> vous offre cette semaine :</p>\n<p><strong>Article vedette :</strong> <a rel=\"external\" href=\"https://collab.agr.gc.ca/apps/harvest-moisson\">\u00c9tablir des liens en regroupant le gouvernement, le milieu universitaire et le secteur</a> \u2013 Le secteur agroalimentaire, le milieu universitaire et le gouvernement ont tous des besoins, des d\u00e9fis et des avantages particuliers. Les r\u00e9unions r\u00e9gionales des utilisateurs de la recherche facilitent la collaboration entre ces groupes. Ces r\u00e9unions organis\u00e9es par AAC visent \u00e0 cerner les lacunes de la recherche, \u00e0 susciter des discussions entre les trois groupes et \u00e0 \u00e9tablir des partenariats.</p>\n<p><strong>Sondage : </strong><a rel=\"external\" href=\"https://collab.agr.gc.ca/apps/harvest-moisson\">Quel est votre signe annonciateur pr\u00e9f\u00e9r\u00e9 du printemps?</a></p>\n<p><strong>Photo vedette :</strong> <a rel=\"external\" href=\"https://collab.agr.gc.ca/apps/harvest-moisson/gallery/Lists/Posts/Post.aspx?ID=280\">R\u00e9gal du dimanche</a>, par Tim Dawson, Direction g\u00e9n\u00e9rale des programmes, Winnipeg (Manitoba).</p>\n<p><strong>Le saviez-vous?</strong> <a rel=\"external\" href=\"https://collab.agr.gc.ca/apps/harvest-moisson/Pages/DidYouKnow.aspx\">Le jaune d\u2019\u0153uf est l\u2019un des rares aliments qui contiennent de la vitamine D \u00e0 l\u2019\u00e9tat naturel</a>, comme les champignons et les poissons gras. La majeure partie de la vitamine D est cr\u00e9\u00e9e par la peau gr\u00e2ce \u00e0 une r\u00e9action chimique qui n\u00e9cessite une exposition au soleil.</p>\n<p>Vous pouvez participer en affichant des commentaires ou en utilisant la fonction \u00ab J\u2019aime \u00bb ou \u00ab Partager \u00bb pour exprimer votre appr\u00e9ciation d\u2019un article. Vous pouvez aussi aller voir ce que vos coll\u00e8gues aiment et ont \u00e0 dire.</p>\n<p>Si vous avez des id\u00e9es d\u2019articles, des photos de paysages ou \u00e0 caract\u00e8re artistique li\u00e9es \u00e0 l\u2019agriculture ou encore des faits int\u00e9ressants, veuillez nous en faire part en cliquant sur \u00ab Collaborer \u00bb dans la barre de menu en haut de la page.</p>\n<p>\n<img src=\"https://intranet.agr.gc.ca/resources/prod/news/images/HarvestRRUM.png\" class=\"center-block\" alt=\"Participants \u00e0 la premi\u00e8re r\u00e9union r\u00e9gionale des utilisateurs de la recherche \u00e0 Guelph. \"></p>\n\t\t"
    },
    "breadcrumb": {
        "en": "This Week in The Harvest - Making Connections: Bringing Government, Academia and Industry Together",
        "fr": "Au menu de La Moisson cette semaine - \u00c9tablir des liens en regroupant le gouvernement, le milieu..."
    },
    "news": {
        "date_posted": {
            "en": "2019-03-28",
            "fr": "2019-03-28"
        },
        "to": {
            "en": "All staff",
            "fr": "Tous les employ\u00e9s"
        },
        "by": {
            "en": "Corporate Communications, Public Affairs Branch",
            "fr": "Communications minist\u00e9rielles, Direction g\u00e9n\u00e9rale des affaires publiques"
        }
    }
}