{
    "dcr_id": "1553104511919",
    "lang": "en",
    "title": {
        "en": "NCR - Parking Lot Safety - NHCAP ",
        "fr": "RCN - S\u00e9curit\u00e9 dans les stationnements - CACPA "
    },
    "modified": "2019-03-20 00:00:00.0",
    "issued": "2019-03-20 00:00:00.0",
    "type_name": "intra-intra/news-nouv",
    "node_id": "1279030006975",
    "layout_name": null,
    "dc_date_created": "2019-03-20",
    "breadcrumb_label": "",
    "meta": {
        "issued": {
            "en": "2019-03-20",
            "fr": "2019-03-20"
        },
        "modified": {
            "en": "2019-03-20",
            "fr": "2019-03-20"
        },
        "format": {
            "en": "gcformat",
            "fr": "gcformat"
        },
        "title": {
            "en": "NCR - Parking Lot Safety - NHCAP ",
            "fr": "RCN - S\u00e9curit\u00e9 dans les stationnements - CACPA "
        },
        "subject": {
            "en": "communications",
            "fr": "communications"
        },
        "description": {
            "en": "After a recent accident in the NHCAP parking lot, I would like to remind all employees to drive safely and with caution in the parking lots and parkade.",
            "fr": "Apr\u00e8s un accident survenu r\u00e9cemment dans le stationnement de la CACPA, j'aimerais rappeler \u00e0 tous les employ\u00e9s de conduire prudemment et avec attention dans les parcs de stationnement en surface et couverts."
        },
        "language": {
            "en": "eng",
            "fr": "fra"
        },
        "audience": {
            "en": "gcaudience",
            "fr": "gcaudience"
        },
        "creator": {
            "en": "Agriculture and Agri-Food Canada",
            "fr": "Agriculture et Agroalimentaire Canada"
        },
        "spatial": {
            "en": "gcregions",
            "fr": "gcregions"
        },
        "service": {
            "en": "AAFC_AgriSource",
            "fr": "AAC_AgriSource"
        },
        "accessRights": {
            "en": "3",
            "fr": "3"
        }
    },
    "body": {
        "en": "<br>\n<br>\n<p>After a recent accident in the NHCAP parking lot, I would like to remind all employees to drive safely and with caution in the parking lots and parkade. This includes using turn signals, obeying traffic signs, respecting speed limits and being aware of pedestrians, cyclists and other vehicles.<br>\n<br>\nThe parking lot at NHCAP is privately owned and managed. Should you have any specific concerns related to the parking lot and/or parkade, we encourage you to contact the National Service Call Centre at 1-800-463-1850.</p>\n\n\t\t",
        "fr": "<br>\n<br>\n<p>Apr\u00e8s un accident survenu r\u00e9cemment dans le stationnement de la CACPA, j\u2019aimerais rappeler \u00e0 tous les employ\u00e9s de conduire prudemment et avec attention dans les parcs de stationnement en surface et couverts. Cela comprend l\u2019utilisation des clignotants, le respect des panneaux de signalisation, le respect des limites de vitesse et la vigilance \u00e0 l\u2019\u00e9gard des pi\u00e9tons, des cyclistes et des autres v\u00e9hicules.<br>\n<br>\nLe stationnement du CACPA appartient \u00e0 des int\u00e9r\u00eats priv\u00e9s. Si vous avez des pr\u00e9occupations particuli\u00e8res concernant les parcs de stationnement en surface et couvert, nous vous encourageons \u00e0 communiquer avec le Centre national d\u2019appels de service, au 1\u2011800\u2011463\u20111850.</p>\n\t\t"
    },
    "breadcrumb": {
        "en": "NCR - Parking Lot Safety - NHCAP",
        "fr": "RCN - S\u00e9curit\u00e9 dans les stationnements - CACPA"
    },
    "news": {
        "date_posted": {
            "en": "2019-03-20",
            "fr": "2019-03-20"
        },
        "to": {
            "en": "NCR only",
            "fr": "RCN seulement"
        },
        "by": {
            "en": "Christine Walker, Assistant Deputy Minister, Corporate Management Branch",
            "fr": "Christine Walker, sous-ministre adjointe, Direction g\u00e9n\u00e9rale de la gestion int\u00e9gr\u00e9e"
        }
    }
}