{
    "dcr_id": "1553017079883",
    "lang": "en",
    "title": {
        "en": "Reminder - How to Compare a Tax Slip with the Year-To-Date Amounts on Your Pay Stub",
        "fr": "Rappel - Comment comparer les montants d\u00e9clar\u00e9s dans un feuillet de renseignements fiscaux avec le total cumulatif des montants inscrits sur votre talon de paye"
    },
    "modified": "2019-04-25 00:00:00.0",
    "issued": "2019-03-21 00:00:00.0",
    "type_name": "intra-intra/news-nouv",
    "node_id": "1279030006975",
    "layout_name": null,
    "dc_date_created": "2019-03-19",
    "breadcrumb_label": "",
    "meta": {
        "issued": {
            "en": "2019-03-21",
            "fr": "2019-03-21"
        },
        "modified": {
            "en": "2019-04-25",
            "fr": "2019-03-27"
        },
        "format": {
            "en": "gcformat",
            "fr": "gcformat"
        },
        "title": {
            "en": "Reminder - How to Compare a Tax Slip with the Year-To-Date Amounts on Your Pay Stub",
            "fr": "Rappel - Comment comparer les montants d\u00e9clar\u00e9s dans un feuillet de renseignements fiscaux avec le total cumulatif des montants inscrits sur votre talon de paye"
        },
        "subject": {
            "en": "communications",
            "fr": "communications"
        },
        "description": {
            "en": "Public Services and Procurement Canada would like to remind employees that tax slips are now available in Phoenix Self Service within the Compensation Web Applications webpage.",
            "fr": "Services publics et Approvisionnement Canada souhaite rappeler aux employ\u00e9s que les feuillets de renseignements fiscaux sont maintenant disponibles dans la fonction libre-service de Ph\u00e9nix, laquelle est accessible \u00e0 partir de la page Web des Applications Web de la r\u00e9mun\u00e9ration."
        },
        "language": {
            "en": "eng",
            "fr": "fra"
        },
        "audience": {
            "en": "gcaudience",
            "fr": "gcaudience"
        },
        "creator": {
            "en": "Agriculture and Agri-Food Canada",
            "fr": "Agriculture et Agroalimentaire Canada"
        },
        "spatial": {
            "en": "gcregions",
            "fr": "gcregions"
        },
        "service": {
            "en": "AAFC_AgriSource",
            "fr": "AAC_AgriSource"
        },
        "accessRights": {
            "en": "3",
            "fr": "3"
        }
    },
    "body": {
        "en": "<br>\n<br>\n<p>Public Services and Procurement Canada would like to remind employees that tax slips are now available in Phoenix Self Service within the <a href=\"http://gcintranet.tpsgc-pwgsc.gc.ca/gc/rem/awr-cwa-eng.html\">Compensation Web Applications (<abbr title=\"Compensation Web Applications\">CWA</abbr>)</a> webpage.</p>\n<p>Please note that if adjustments are made to your earnings or benefits that impact a previous year\u2019s tax slip, an amended slip will be produced and sent directly to the Canada Revenue Agency\u00a0and/or Revenu Qu\u00e9bec who will automatically reassess your tax return(s).</p>\n<p>Employees should, however, monitor their account in Phoenix Self Service for any amended tax slip(s) and use the amended tax slip(s) to file their income tax return, if they have not already filed.</p>\n<p>Should employees wish to compare their year-to-date (<abbr title=\"year-to-date\">YTD</abbr>) amounts with their tax slip(s) they should use the <abbr title=\"year-to-date\">YTD</abbr> amounts from their <abbr title=\"Compensation Web Applications\">CWA</abbr> December 24, 2018 pay stub only.</p>\n<p>It is important to only use the <abbr title=\"Compensation Web Applications\">CWA</abbr> pay stub for comparison purposes as it provides <abbr title=\"year-to-date\">YTD</abbr> amounts for taxable gross, Income Tax, Canada Pension Plan/Quebec Pension Plan, Employment Insurance, Provincial Parental Insurance Plan, superannuation and other deductions that can be used to compare amounts reported on a tax slip.</p>\n<h2><strong>Note for employees who live in Quebec and work in another province</strong></h2>\n<p>Employees who live in Quebec but work in another province will receive a RL-1 tax slip in addition to a T4. The RL-1 will only report taxable benefits and, if applicable, additional Quebec Income Tax.</p>\n<p>For questions regarding tax slips, please contact the Client Contact Centre at 1-855-686-4729.</p>\n<p>For additional information and tax tips, go to the <a href=\"http://intranet.agr.gc.ca/agrisource/eng/human-resources/pay-benefits-and-phoenix?id=1511367056518\">Pay, Benefits, and Phoenix AgriSource page</a>.</p>\n\n\t\t",
        "fr": "<br>\n<br>\n<p>Services publics et Approvisionnement Canada souhaite rappeler aux employ\u00e9s que les feuillets de renseignements fiscaux sont maintenant disponibles dans la fonction libre-service de Ph\u00e9nix, laquelle est accessible \u00e0 partir de la page Web des <a href=\"http://gcintranet.tpsgc-pwgsc.gc.ca/gc/rem/awr-cwa-fra.html\">Applications Web de la r\u00e9mun\u00e9ration (<abbr title=\"Applications Web de la r\u00e9mun\u00e9ration \">AWR</abbr>)</a>.</p>\n<p>Veuillez noter que si des rajustements sont apport\u00e9s \u00e0 vos gains ou avantages sociaux et que ces rajustements ont une incidence sur le feuillet de renseignements fiscaux d\u2019une ann\u00e9e ant\u00e9rieure, un feuillet modifi\u00e9 sera produit et envoy\u00e9 directement \u00e0 l\u2019Agence du revenu du Canada et/ou \u00e0 Revenu Qu\u00e9bec, qui r\u00e9\u00e9valueront automatiquement votre d\u00e9claration de revenus.</p>\n<p>Les employ\u00e9s devraient toutefois surveiller leur compte dans le libre-service de Ph\u00e9nix pour voir tout feuillet de renseignements fiscaux modifi\u00e9 et utiliser ce dernier pour produire leur d\u00e9claration de revenus s\u2019ils ne l\u2019ont pas d\u00e9j\u00e0 fait.</p>\n<p>Les employ\u00e9s qui souhaitent comparer leurs montants de cumul annuel avec ceux figurant dans leurs feuillets de renseignements fiscaux, devraient utiliser les montants de cumul annuel qui sont affich\u00e9s sur leur talon de paye du 24 d\u00e9cembre 2018 dans les <abbr title=\"Applications Web de la r\u00e9mun\u00e9ration \">AWR</abbr> seulement.</p>\n<p>Il est important de n\u2019utiliser que le talon de paye des <abbr title=\"Applications Web de la r\u00e9mun\u00e9ration \">AWR</abbr> pour faire la comparaison, puisqu\u2019il donne les montants de cumul annuel des gains imposables, de l\u2019imp\u00f4t f\u00e9d\u00e9ral, du R\u00e9gime de pensions du Canada/R\u00e9gime des rentes du Qu\u00e9bec, de l\u2019assurance-emploi, du r\u00e9gime provincial d\u2019assurance parentale, de la pension de retraite et des autres retenues qui peuvent \u00eatre utilis\u00e9es pour comparer les montants avec ceux d\u00e9clar\u00e9s dans les feuillets de renseignements fiscaux.</p>\n<h2><strong>Remarque pour les employ\u00e9s qui habitent au Qu\u00e9bec et qui travaillent dans une autre province</strong></h2>\n<p>Les employ\u00e9s qui habitent au Qu\u00e9bec mais qui travaillent dans une autre province recevront un feuillet RL-1 en plus de leur feuillet T4. Le feuillet RL-1 ne d\u00e9clarera que\u00a0les avantages imposables et, le cas \u00e9ch\u00e9ant, la retenue suppl\u00e9mentaire pour l\u2019imp\u00f4t sur le revenu du Qu\u00e9bec.</p>\n<p>Si vous avez des questions concernant les feuillets de renseignements fiscaux, veuillez communiquer avec le Centre de contact avec la client\u00e8le au 1-855-686-4729.</p>\n<p>Pour obtenir d\u2019autres pr\u00e9cisions et des conseils fiscaux, consultez la <a href=\"http://intranet.agr.gc.ca/agrisource/fra?id=1511367056518\">page R\u00e9mun\u00e9ration, avantages sociaux, et Ph\u00e9nix</a>.</p>\n\t\t"
    },
    "breadcrumb": {
        "en": "Reminder - How to Compare a Tax Slip with the Year-To-Date Amounts on Your Pay Stub",
        "fr": "Rappel - Comment comparer les montants d\u00e9clar\u00e9s dans un feuillet de renseignements fiscaux avec..."
    },
    "news": {
        "date_posted": {
            "en": "2019-03-21",
            "fr": "2019-03-21"
        },
        "to": {
            "en": "All staff",
            "fr": "Tous les employ\u00e9s"
        },
        "by": {
            "en": "Public Services and Procurement Canada",
            "fr": "Services publics et Approvisionnement Canada"
        }
    }
}