{
    "dcr_id": "1553013272458",
    "lang": "en",
    "title": {
        "en": "This Week in The Harvest - Minister Bibeau Tours NHCAP and the Ottawa Research Centre",
        "fr": "Au menu de La Moisson cette semaine - Visite de la ministre Bibeau au CACPA et au Centre de recherche d'Ottawa "
    },
    "modified": "2019-03-21 00:00:00.0",
    "issued": "2019-03-21 00:00:00.0",
    "type_name": "intra-intra/news-nouv",
    "node_id": "1279030006975",
    "layout_name": null,
    "dc_date_created": "2019-03-19",
    "breadcrumb_label": "",
    "meta": {
        "issued": {
            "en": "2019-03-21",
            "fr": "2019-03-21"
        },
        "modified": {
            "en": "2019-03-21",
            "fr": "2019-03-21"
        },
        "format": {
            "en": "gcformat",
            "fr": "gcformat"
        },
        "title": {
            "en": "This Week in The Harvest - Minister Bibeau Tours NHCAP and the Ottawa Research Centre",
            "fr": "Au menu de La Moisson cette semaine - Visite de la ministre Bibeau au CACPA et au Centre de recherche d'Ottawa "
        },
        "subject": {
            "en": "communications",
            "fr": "communications"
        },
        "description": {
            "en": "In case you missed it, here's what's new in <I>The Harvest</I> this week.",
            "fr": "Au cas o\u00f9 vous l'auriez manqu\u00e9, voici le menu que la section <I>La Moisson</I> vous offre cette semaine."
        },
        "language": {
            "en": "eng",
            "fr": "fra"
        },
        "audience": {
            "en": "gcaudience",
            "fr": "gcaudience"
        },
        "creator": {
            "en": "Agriculture and Agri-Food Canada",
            "fr": "Agriculture et Agroalimentaire Canada"
        },
        "spatial": {
            "en": "gcregions",
            "fr": "gcregions"
        },
        "service": {
            "en": "AAFC_AgriSource",
            "fr": "AAC_AgriSource"
        },
        "accessRights": {
            "en": "3",
            "fr": "3"
        }
    },
    "body": {
        "en": "<br>\n<br>\n<p>In case you missed it, here\u2019s what\u2019s new in <a rel=\"external\" href=\"https://collab.agr.gc.ca/apps/harvest-moisson\">The Harvest</a> this week:</p>\n<p><strong>Feature story:</strong> <a rel=\"external\" href=\"https://collab.agr.gc.ca/apps/harvest-moisson\">Minister Bibeau Tours NHCAP and the Ottawa Research Centre</a> \u2013 On March 1, the Honourable Marie-Claude Bibeau was appointed as Minister of Agriculture and Agri-Food Canada. She toured Tower 7 of the NHCAP building on March 6, visiting several floors and talking with employees.</p>\n<p><strong>Poll: </strong><a rel=\"external\" href=\"https://collab.agr.gc.ca/apps/harvest-moisson\">What is your favourite first sign of spring?</a></p>\n<p><strong>Feature photo: </strong><a rel=\"external\" href=\"https://collab.agr.gc.ca/apps/harvest-moisson/gallery/Lists/Posts/Post.aspx?ID=271\">Snow Bunting</a><em>, </em>by Sheri Lytle, Corporate Management Branch, Ottawa, Ontario.</p>\n<p><strong>Did you know?</strong> <a rel=\"external\" href=\"https://collab.agr.gc.ca/apps/harvest-moisson/Pages/DidYouKnow.aspx\">The paper-making business is tearing up convention</a>. Investments in innovation are working to put a new paper on the market that will be made from wheat and flax straw. The innovation would provide farmers with income from a byproduct that would otherwise be considered waste.</p>\n<p>You can get involved by posting a comment or \u201cliking\u201d an article. You can also check out what your colleagues are liking and saying.</p>\n<p>Should you have story ideas, scenic or artistic agriculture-related photos, or interesting facts, please share them with us by clicking on \u201cContribute\u201d in the top menu bar.</p>\n<p><img src=\"https://intranet.agr.gc.ca/resources/prod/news/images/HarvestMinisterBibeau.png\" class=\"center-block\" alt=\"Minister Bibeau\"></p>\n\n\t\t",
        "fr": "<br>\n<br>\n<p>Au cas o\u00f9 vous l\u2019auriez manqu\u00e9, voici le menu que la section <a rel=\"external\" href=\"https://collab.agr.gc.ca/apps/harvest-moisson\"><em>La Moisson</em></a> vous offre cette semaine :</p>\n<p><strong>Article vedette :</strong> <a rel=\"external\" href=\"https://collab.agr.gc.ca/apps/harvest-moisson\">Visite de la ministre Bibeau au CACPA et au Centre de recherche d\u2019Ottawa</a> \u2013 Le 1<sup>er</sup> mars, l\u2019honorable Marie-Claude Bibeau a \u00e9t\u00e9 nomm\u00e9e ministre d\u2019Agriculture et Agroalimentaire Canada. La ministre a visit\u00e9 la tour 7 du CACPA le 6 mars. Elle s\u2019est rendue sur plusieurs \u00e9tages pour parler avec les employ\u00e9s.</p>\n<p><strong>Sondage : </strong><a rel=\"external\" href=\"https://collab.agr.gc.ca/apps/harvest-moisson\">Quel est votre signe annonciateur pr\u00e9f\u00e9r\u00e9 du printemps?</a></p>\n<p><strong>Photo vedette :</strong> <a rel=\"external\" href=\"https://collab.agr.gc.ca/apps/harvest-moisson/gallery/Lists/Posts/Post.aspx?ID=271\">Bruant des neiges</a>, par Sheri Lytle, Direction g\u00e9n\u00e9rale de la gestion int\u00e9gr\u00e9e, Ottawa (Ontario).</p>\n<p><strong>Le saviez-vous?</strong> <a rel=\"external\" href=\"https://collab.agr.gc.ca/apps/harvest-moisson/Pages/DidYouKnow.aspx\">La fabrication de papier repousse les conventions \u00e9tablies</a>. Des investissements dans un projet innovateur permettront de mettre sur le march\u00e9 un nouveau papier fabriqu\u00e9 \u00e0 partir de paille provenant du bl\u00e9 et du lin. Gr\u00e2ce \u00e0 cette initiative, les agriculteurs pourront tirer des revenus d'un sous-produit qui serait autrement consid\u00e9r\u00e9 comme un d\u00e9chet.</p>\n<p>Vous pouvez participer en affichant des commentaires ou en utilisant la fonction \u00ab J\u2019aime \u00bb ou \u00ab Partager \u00bb pour exprimer votre appr\u00e9ciation d\u2019un article. Vous pouvez aussi aller voir ce que vos coll\u00e8gues aiment et ont \u00e0 dire.</p>\n<p>Si vous avez des id\u00e9es d\u2019articles, des photos de paysages ou \u00e0 caract\u00e8re artistique li\u00e9es \u00e0 l\u2019agriculture ou encore des faits int\u00e9ressants, veuillez nous en faire part en cliquant sur \u00ab Collaborer \u00bb dans la barre de menu en haut de la page.</p>\n<p>\n<img src=\"https://intranet.agr.gc.ca/resources/prod/news/images/HarvestMinisterBibeau.png\" class=\"center-block\" alt=\"Ministre Bibeau \"></p>\n\t\t"
    },
    "breadcrumb": {
        "en": "This Week in The Harvest - Minister Bibeau Tours NHCAP and the Ottawa Research Centre",
        "fr": "Au menu de La Moisson cette semaine - Visite de la ministre Bibeau au CACPA et au Centre de..."
    },
    "news": {
        "date_posted": {
            "en": "2019-03-21",
            "fr": "2019-03-21"
        },
        "to": {
            "en": "All staff",
            "fr": "Tous les employ\u00e9s"
        },
        "by": {
            "en": "Corporate Communications, Public Affairs Branch",
            "fr": "Communications minist\u00e9rielles, Direction g\u00e9n\u00e9rale des affaires publiques"
        }
    }
}