{
    "dcr_id": "1553275817985",
    "lang": "en",
    "title": {
        "en": "Reminder - Apply to the National Mentoring Program to Share or Expand Your Knowledge - Deadline Extended",
        "fr": "Rappel - Participez au Programme national de mentorat pour partager ou parfaire vos connaissances - La date limite est prolong\u00e9e"
    },
    "modified": "2019-07-04 00:00:00.0",
    "issued": "2019-03-28 00:00:00.0",
    "type_name": "intra-intra/news-nouv",
    "node_id": "1279030006975",
    "layout_name": null,
    "dc_date_created": "2019-03-22",
    "breadcrumb_label": "Reminder - Apply to the National Mentoring Program to Share or Expand Your Knowledge - Deadline ...",
    "meta": {
        "issued": {
            "en": "2019-03-28",
            "fr": "2019-03-28"
        },
        "modified": {
            "en": "2019-07-04",
            "fr": "2019-06-13"
        },
        "format": {
            "en": "gcformat",
            "fr": "gcformat"
        },
        "title": {
            "en": "Reminder - Apply to the National Mentoring Program to Share or Expand Your Knowledge - Deadline Extended",
            "fr": "Rappel - Participez au Programme national de mentorat pour partager ou parfaire vos connaissances - La date limite est prolong\u00e9e"
        },
        "subject": {
            "en": "communications",
            "fr": "communications"
        },
        "description": {
            "en": "AAFC's 2019-2020 National Mentoring Program is now open for applications!",
            "fr": "Le Programme national de mentorat 2019-2020 d'AAC accepte maintenant les demandes de participation!"
        },
        "language": {
            "en": "eng",
            "fr": "fra"
        },
        "audience": {
            "en": "gcaudience",
            "fr": "gcaudience"
        },
        "creator": {
            "en": "Agriculture and Agri-Food Canada",
            "fr": "Agriculture et Agroalimentaire Canada"
        },
        "spatial": {
            "en": "gcregions",
            "fr": "gcregions"
        },
        "service": {
            "en": "AAFC_AgriSource",
            "fr": "AAC_AgriSource"
        },
        "accessRights": {
            "en": "3",
            "fr": "3"
        }
    },
    "body": {
        "en": "<br>\n<br>\n<p>AAFC\u2019s 2019-2020 <a href=\"http://intranet.agr.gc.ca/agrisource/eng/human-resources/learning-and-development/national-mentoring-program?id=1310564510071\">National Mentoring Program (<abbr title=\"National Mentoring Program\">NMP</abbr>)</a> is now open for applications!</p>\n<p>The <abbr title=\"National Mentoring Program\">NMP</abbr> provides an opportunity for experienced employees (mentors) to share their professional skills, knowledge and insights with other employees (associates) interested in learning and developing new skills.</p>\n<p>All employees, no matter their region, branch, level or classification are invited to participate as a mentor, as an associate, or both.</p>\n<h2><strong>Why become a mentor?</strong></h2>\n<p>As a mentor, you will contribute to the future of the department by transferring your corporate knowledge, while sharpening your leadership skills and helping an employee reach their full potential.</p>\n<h2><strong>Why become an associate?</strong></h2>\n<p>As an associate, you will be strengthening your skills and competencies by getting valuable feedback through a one-on-one educational interaction with a mentor. In doing so, you will have a sounding board for your ideas or plans, as well as an opportunity to expand your professional network.</p>\n<p>Your participation\u00a0in the <abbr title=\"National Mentoring Program\">NMP</abbr> should be reflected in your <a href=\"http://intranet.agr.gc.ca/agrisource/eng/human-resources/performance-management/learning-and-development-plan-guide?id=1287603193878\">Learning and Development Plan</a> as part of your <a href=\"http://intranet.agr.gc.ca/agrisource/eng/human-resources/performance-management?id=1287674550306\">Performance Management</a> Agreement.</p>\n<p>The deadline to submit your application using the <a rel=\"external\" href=\"https://nmp-pnm.agr.gc.ca/AAFC-NMPA/home/index.html?lang=en\">National Mentoring Program Application</a> is <strong>July 6</strong>.</p>\n<p>We all benefit from knowledge sharing \u2013 apply to the <abbr title=\"National Mentoring Program\">NMP</abbr> today!</p>\n<p>\n<img src=\"https://intranet.agr.gc.ca/resources/prod/news/images/NationalMentoringProgram-EN.png\" class=\"center-block\"></p>\n\n\t\t",
        "fr": "<br>\n<br>\n<p>Le <a href=\"http://intranet.agr.gc.ca/agrisource/fra/ressources-humaines/apprentissage-et-perfectionnement/programme-national-de-mentorat?id=1310564510071\">Programme national de mentorat (<abbr title=\"Programme national de mentorat\">PNM</abbr>)</a> 2019-2020 d\u2019AAC accepte maintenant les demandes de participation!</p>\n<p>Le <abbr title=\"Programme national de mentorat\">PNM</abbr> offre aux employ\u00e9s chevronn\u00e9s (mentors) la possibilit\u00e9 de partager leurs comp\u00e9tences, leurs connaissances et leurs points de vue professionnels avec d\u2019autres employ\u00e9s (associ\u00e9s) qui souhaitent apprendre et acqu\u00e9rir de nouvelles comp\u00e9tences.</p>\n<p>Les employ\u00e9s de toutes les r\u00e9gions et directions g\u00e9n\u00e9rales et de tous les groupes et niveaux de classification sont invit\u00e9s \u00e0 participer en tant que mentor, associ\u00e9 ou les deux.</p>\n<h2><strong>Pourquoi devenir un mentor?</strong></h2>\n<p>En tant que mentor, vous contribuerez \u00e0 l\u2019avenir du minist\u00e8re en transf\u00e9rant votre savoir organisationnel, tout en peaufinant vos comp\u00e9tences en leadership et en aidant un employ\u00e9 \u00e0 r\u00e9aliser son plein potentiel.</p>\n<h2><strong>Pourquoi devenir un associ\u00e9?</strong></h2>\n<p>En tant qu\u2019associ\u00e9, vous renforcerez vos habilet\u00e9s et comp\u00e9tences en recevant une r\u00e9troaction utile dans le cadre d\u2019une relation \u00e9ducative avec un mentor. Vous aurez ainsi un autre son de cloche sur vos id\u00e9es ou vos projets et une occasion d\u2019\u00e9largir votre r\u00e9seau professionnel.</p>\n<p>Votre participation au <abbr title=\"Programme national de mentorat\">PNM</abbr> doit \u00eatre inscrite dans le <a href=\"http://intranet.agr.gc.ca/agrisource/fra/ressources-humaines/gestion-du-rendement/guide-de-lelaboration-dun-plan-dapprentissage-et-de-perfectionnement?id=1287603193878\">plan d\u2019apprentissage et de perfectionnement</a> de votre entente de <a href=\"http://intranet.agr.gc.ca/agrisource/fra/ressources-humaines/gestion-du-rendement?id=1287674550306\">gestion du rendement</a>.</p>\n<p>La date limite pour soumettre votre demande au moyen de l\u2019<a rel=\"external\" href=\"https://nmp-pnm.agr.gc.ca/AAFC-NMPA/home/index.html?lang=fr\">application du Programme national de mentorat</a> est le <b>6 juillet.</b></p>\n<p>Le partage des connaissances profite \u00e0 tous \u2013 pr\u00e9sentez votre demande de participation au <abbr title=\"Programme national de mentorat\">PNM</abbr> aujourd\u2019hui!</p>\n<p><img src=\"https://intranet.agr.gc.ca/resources/prod/news/images/NationalMentoringProgram-FR.png\" class=\"center-block\"></p>\n\t\t"
    },
    "breadcrumb": {
        "en": "Reminder - Apply to the National Mentoring Program to Share or Expand Your Knowledge - Deadline ...",
        "fr": "Rappel - Participez au Programme national de mentorat pour partager ou parfaire vos ..."
    },
    "news": {
        "date_posted": {
            "en": "2019-03-28",
            "fr": "2019-03-28"
        },
        "to": {
            "en": "All staff",
            "fr": "Tous les employ\u00e9s"
        },
        "by": {
            "en": "Human Resources, Corporate Management Branch",
            "fr": "Ressources humaines, Direction g\u00e9n\u00e9rale de la gestion int\u00e9gr\u00e9e"
        }
    }
}