{
    "dcr_id": "1553615256945",
    "lang": "en",
    "title": {
        "en": "Indigenous Reads: Now Accessible at the Canadian Agriculture Library",
        "fr": "Lectures autochtones : maintenant accessibles \u00e0 la Biblioth\u00e8que canadienne de l'agriculture"
    },
    "modified": "2019-03-28 00:00:00.0",
    "issued": "2019-03-28 00:00:00.0",
    "type_name": "intra-intra/news-nouv",
    "node_id": "1279030006975",
    "layout_name": null,
    "dc_date_created": "2019-03-26",
    "breadcrumb_label": "",
    "meta": {
        "issued": {
            "en": "2019-03-28",
            "fr": "2019-03-28"
        },
        "modified": {
            "en": "2019-03-28",
            "fr": "2019-03-28"
        },
        "format": {
            "en": "gcformat",
            "fr": "gcformat"
        },
        "title": {
            "en": "Indigenous Reads: Now Accessible at the Canadian Agriculture Library",
            "fr": "Lectures autochtones : maintenant accessibles \u00e0 la Biblioth\u00e8que canadienne de l'agriculture"
        },
        "subject": {
            "en": "communications",
            "fr": "communications"
        },
        "description": {
            "en": "We are pleased to announce the official launch of the new Indigenous Network Circle Book Club - <I>Indigenous Reads</I>.",
            "fr": "Nous avons le plaisir d'annoncer le lancement officiel du Club de lecture du Cercle de r\u00e9seautage des employ\u00e9s autochtones - <I>Lectures autochtones</I>."
        },
        "language": {
            "en": "eng",
            "fr": "fra"
        },
        "audience": {
            "en": "gcaudience",
            "fr": "gcaudience"
        },
        "creator": {
            "en": "Agriculture and Agri-Food Canada",
            "fr": "Agriculture et Agroalimentaire Canada"
        },
        "spatial": {
            "en": "gcregions",
            "fr": "gcregions"
        },
        "service": {
            "en": "AAFC_AgriSource",
            "fr": "AAC_AgriSource"
        },
        "accessRights": {
            "en": "3",
            "fr": "3"
        }
    },
    "body": {
        "en": "<br>\n<br>\n<p>We are pleased to announce the official launch of the new Indigenous Network Circle (<abbr title=\"Indigenous Network Circle\">INC</abbr>)\u00a0Book Club \u2013 <em>Indigenous Reads. </em></p>\n<p><em><a rel=\"external\" href=\"https://collab.agr.gc.ca/co/acn-crea/SitePages/Indigenous%20Reads.aspx\">Indigenous Reads</a></em><em> </em>has been developed by <abbr title=\"Indigenous Network Circle\">INC</abbr> in response to the Truth and Reconciliation\u2019s Call to Action #57: to provide education to public servants on the history of Aboriginal Peoples, including the history and legacy of residential schools, the United Nations Declaration on the Rights of Indigenous Peoples, Treaties and Aboriginal rights, Aboriginal Law, and Aboriginal\u2013Crown relations. Learn more about Indigenous histories, cultures, politics, and healing from an Indigenous perspective. The Canadian Agriculture Library (<abbr title=\"Canadian Agriculture Library\">CAL</abbr>) will provide updates when new titles are added to the book list as well as usage statistics.</p>\n<p>AAFC employees nationwide can select from over <a rel=\"external\" href=\"https://collab.agr.gc.ca/co/kis-sis/SitePages/Indigenous%20Reads%202019.aspx\">50 titles</a> of Indigenous-related books, available both in print and online, and in both official languages. Items can be requested via the <a rel=\"external\" href=\"https://cat.fsl-bsf.scitech.gc.ca/search\">Federal Science Library Catalogue</a>.</p>\n<p>Books are now on display at the\u00a0<abbr title=\"Canadian Agriculture Library\">CAL</abbr>, NHCAP Tower 6.</p>\n<p>For more information, please contact Jake Freeman at: <a href=\"mailto:jake.freeman@canada.ca\">jake.freeman@canada.ca</a>. </p>\n<p>Need assistance or have questions about accessing titles from <em>Indigenous Reads</em>? Contact <abbr title=\"Canadian Agriculture Library\">CAL</abbr> at: <a href=\"mailto:aafc.cal-bca.aac@canada.ca\">aafc.cal-bca.aac@canada.ca</a>. </p>\n<p>\n<img src=\"https://intranet.agr.gc.ca/resources/prod/news/images/IndigenousNetworkCircleBanner-EN.png\" class=\"center-block\"></p>\n\n\t\t",
        "fr": "<br>\n<br>\n<p>Nous avons le plaisir d\u2019annoncer le lancement officiel du Club de lecture du Cercle de r\u00e9seautage des employ\u00e9s autochtones (<abbr title=\"Cercle de r\u00e9seautage des employ\u00e9s autochtones \">CREA</abbr>) \u2013 <em>Lectures autochtones</em>.</p>\n<p>Le <abbr title=\"Cercle de r\u00e9seautage des employ\u00e9s autochtones \">CREA</abbr> a cr\u00e9\u00e9 <em><a rel=\"external\" href=\"https://collab.agr.gc.ca/co/acn-crea/SitePages/Indigenous%20Reads.aspx\">Lectures autochtones</a></em> en r\u00e9ponse \u00e0 l\u2019appel \u00e0 l\u2019action no 57 de la Commission de v\u00e9rit\u00e9 et de r\u00e9conciliation : sensibiliser les fonctionnaires \u00e0 l\u2019histoire des Autochtones, y compris \u00e0 celle des pensionnats et ses s\u00e9quelles, \u00e0 la D\u00e9claration des Nations Unies sur les droits des peuples autochtones, aux trait\u00e9s et droits ancestraux, \u00e0 la Loi sur les Indiens et aux relations entre la Couronne et les Autochtones. Apprenez-en plus sur les peuples autochtones, leur histoire, leur culture, leurs politiques et leurs moyens de gu\u00e9rison, le tout selon le point de vue des Autochtones. La Biblioth\u00e8que canadienne de l\u2019Agriculture (<abbr title=\"Biblioth\u00e8que canadienne de l\u2019Agriculture \">BCA</abbr>) mettra \u00e0 jour la liste \u00e0 mesure que de nouveaux titres seront disponibles et elle tiendra un registre d\u2019utilisation.</p>\n<p>Les employ\u00e9s d\u2019AAC de partout au Canada peuvent choisir parmi plus de <a rel=\"external\" href=\"https://collab.agr.gc.ca/co/kis-sis/SitePages/Indigenous%20Reads%202019.aspx\">50 titres</a> dans les deux langues officielles en version papier ou \u00e9lectronique. Les demandes peuvent \u00eatre achemin\u00e9es par le biais du catalogue de la <a rel=\"external\" href=\"https://cat.fsl-bsf.scitech.gc.ca/search*frc\">Biblioth\u00e8que scientifique f\u00e9d\u00e9rale</a>.</p>\n<p>Des livres sont pr\u00e9sentement en d\u00e9monstration \u00e0 la <abbr title=\"Biblioth\u00e8que canadienne de l\u2019Agriculture \">BCA</abbr>, CACPA, Tour 6.</p>\n<p>Pour plus d\u2019information, n\u2019h\u00e9sitez pas \u00e0 joindre Jake Freeman \u00e0 <a href=\"mailto:jake.freeman@canada.ca\">jake.freeman@canada.ca</a>. </p>\n<p>Si vous avez besoin d\u2019aide ou si vous avez des questions pour acc\u00e9der \u00e0 la liste des Lectures autochtones, vous pouvez \u00e9crire \u00e0 la <abbr title=\"Biblioth\u00e8que canadienne de l\u2019Agriculture \">BCA</abbr> \u00e0 <a href=\"mailto:aafc.cal-bca.aac@canada.ca\">aafc.cal-bca.aac@canada.ca</a>. </p>\n<p>\n<img src=\"https://intranet.agr.gc.ca/resources/prod/news/images/IndigenousNetworkCircle-FR.png\" class=\"center-block\"></p>\n\t\t"
    },
    "breadcrumb": {
        "en": "Indigenous Reads: Now Accessible at the Canadian Agriculture Library",
        "fr": "Lectures autochtones : maintenant accessibles \u00e0 la Biblioth\u00e8que canadienne de l'agriculture"
    },
    "news": {
        "date_posted": {
            "en": "2019-03-28",
            "fr": "2019-03-28"
        },
        "to": {
            "en": "All staff",
            "fr": "Tous les employ\u00e9s"
        },
        "by": {
            "en": "Indigenous Network Circle",
            "fr": "Cercle de r\u00e9seautage des employ\u00e9s autochtones"
        }
    }
}