{
    "dcr_id": "1554232779753",
    "lang": "en",
    "title": {
        "en": "Tick Hazard Awareness Guideline",
        "fr": "Ligne directrice sur la sensibilisation aux risques li\u00e9s aux tiques"
    },
    "modified": "2019-04-04 00:00:00.0",
    "issued": "2019-04-04 00:00:00.0",
    "type_name": "intra-intra/news-nouv",
    "node_id": "1279030006975",
    "layout_name": null,
    "dc_date_created": "2019-04-02",
    "breadcrumb_label": "",
    "meta": {
        "issued": {
            "en": "2019-04-04",
            "fr": "2019-04-04"
        },
        "modified": {
            "en": "2019-04-04",
            "fr": "2019-04-04"
        },
        "format": {
            "en": "gcformat",
            "fr": "gcformat"
        },
        "title": {
            "en": "Tick Hazard Awareness Guideline",
            "fr": "Ligne directrice sur la sensibilisation aux risques li\u00e9s aux tiques"
        },
        "subject": {
            "en": "communications",
            "fr": "communications"
        },
        "description": {
            "en": "A growing number of people are exposed to ticks and tick-borne illnesses such as Lyme disease.",
            "fr": "Un nombre croissant de personnes sont expos\u00e9es aux tiques et aux maladies transmises par les tiques, telle la maladie de Lyme."
        },
        "language": {
            "en": "eng",
            "fr": "fra"
        },
        "audience": {
            "en": "gcaudience",
            "fr": "gcaudience"
        },
        "creator": {
            "en": "Agriculture and Agri-Food Canada",
            "fr": "Agriculture et Agroalimentaire Canada"
        },
        "spatial": {
            "en": "gcregions",
            "fr": "gcregions"
        },
        "service": {
            "en": "AAFC_AgriSource",
            "fr": "AAC_AgriSource"
        },
        "accessRights": {
            "en": "3",
            "fr": "3"
        }
    },
    "body": {
        "en": "<br>\n<br>\n<p>A growing number of people are exposed to ticks and tick-borne illnesses such as Lyme disease. The risk for exposure is greater during the spring, early summer and humid conditions.</p>\n<p>\nThere are ways you can prevent such bites or quickly manage them to avoid or treat an infection. For instance, the best prevention method is covering up when working in a tick-affected region.</p>\n<p>\nAAFC\u2019s National Occupational Health and Safety Policy Committee has developed the <a rel=\"external\" href=\"https://collab.agr.gc.ca/gv/ohsct-ensst/Documents/Hazard%20Prevention%20Program%20for%20Visitors%20(linked%20to%20webpage)/Ticks%20and%20Tick-Borne%20Illnesses/Ticks_and_Thick-Borne_Illeneses_Guideline_EN.docx\">Tick Hazard Awareness Guideline</a> to help educate employees about ticks and prevent tick-borne illnesses. The Guide also includes information on:</p>\n<ul>\n<li>your role and responsibilities as an employee, manager or supervisor;</li>\n<li>best practices for preventing tick bites;</li>\n<li>what to do if you are bitten by a tick; and,</li>\n<li>how to properly remove a tick.</li>\n</ul>\n<p>\nDon't let a small pest turn into a big problem. Consult the Guideline today and protect yourself when working outdoors!</p>\n<hr>\n<p>\nWe continue to promote occupational health and safety (<abbr title=\"occupational health and safety\">OHS</abbr>) as an essential part of our corporate culture, and integrate <abbr title=\"occupational health and safety\">OHS</abbr> into our management and business decision-making processes.</p>\n<p>\nFor more information, consult the <a href=\"http://intranet.agr.gc.ca/agrisource/eng/human-resources/occupational-health-and-safety?id=1321562720661\">Occupational Health and Safety AgriSource page</a> or contact your <a rel=\"external\" href=\"https://collab.agr.gc.ca/gv/ohsct-ensst/Documents/Hazard%20Prevention%20Program%20for%20Visitors%20(linked%20to%20webpage)/Occupational%20Health%20and%20Safety%20Team/Occupational%20Health%20and%20Safety%20Team_EN.docx\">Regional <abbr title=\"occupational health and safety\">OHS</abbr> Coordinator</a>.</p>\n<p>\nRemember the <abbr title=\"occupational health and safety\">OHS</abbr> motto: Stop. Think. Act.</p>\n<p>\n<img src=\"https://intranet.agr.gc.ca/resources/prod/news/images/OHSLogoEN.png\" class=\"center-block\"></p>\n\n\t\t",
        "fr": "<br>\n<br>\n<p>Un nombre croissant de personnes sont expos\u00e9es aux tiques et aux maladies transmises par les tiques, telle la maladie de Lyme. Le risque d\u2019exposition est plus\u00a0important au printemps, au d\u00e9but de l\u2019\u00e9t\u00e9 et en p\u00e9riodes d\u2019humidit\u00e9.</p>\n<p>\nIl existe des moyens de pr\u00e9venir de telles piq\u00fbres ou de les traiter rapidement pour \u00e9viter ou traiter une infection. Par exemple, la meilleure m\u00e9thode de pr\u00e9vention est de se couvrir lorsqu\u2019on travaille dans une r\u00e9gion touch\u00e9e par les tiques.</p>\n<p>\nLe Comit\u00e9 national d\u2019orientation en mati\u00e8re de sant\u00e9 et de s\u00e9curit\u00e9 au travail d\u2019AAC a pr\u00e9par\u00e9 une <a rel=\"external\" href=\"https://collab.agr.gc.ca/gv/ohsct-ensst/Documents/Hazard%20Prevention%20Program%20for%20Visitors%20(linked%20to%20webpage)/Ticks%20and%20Tick-Borne%20Illnesses/Ticks_and_Tick-Borne_Illnesses_Guideline_FR.docx\">ligne directrice sur la sensibilisation aux risques li\u00e9s aux tiques</a> pour faciliter l\u2019\u00e9ducation des employ\u00e9s \u00e0 propos des tiques et pr\u00e9venir les maladies qu\u2019elles transmettent. La ligne directrice comprend \u00e9galement les renseignements suivants :</p>\n<ul>\n<li>votre r\u00f4le et vos responsabilit\u00e9s \u00e0 titre d\u2019employ\u00e9, de gestionnaire ou de superviseur;</li>\n<li>les pratiques exemplaires pour pr\u00e9venir les morsures de tiques;</li>\n<li>que faire en cas de morsure de tique; et,</li>\n<li>comment retirer une tique correctement.</li>\n</ul>\n<p>\nNe laissez pas une petite bestiole se transformer en un gros probl\u00e8me. Consultez les lignes directrices d\u00e8s aujourd\u2019hui et prot\u00e9gez-vous lorsque vous travaillez \u00e0 l\u2019ext\u00e9rieur!</p>\n<hr>\n<p>\nNous continuons \u00e0 promouvoir la Sant\u00e9 et s\u00e9curit\u00e9 au travail (<abbr title=\"Sant\u00e9 et s\u00e9curit\u00e9 au travail\">SST</abbr>) \u00e0 titre de composante essentielle de notre culture organisationnelle ainsi qu\u2019\u00e0 int\u00e9grer la <abbr title=\"Sant\u00e9 et s\u00e9curit\u00e9 au travail\">SST</abbr> dans nos processus op\u00e9rationnels et d\u00e9cisionnels.</p>\n<p>\nPour plus d\u2019information sur la <abbr title=\"Sant\u00e9 et s\u00e9curit\u00e9 au travail\">SST</abbr>, veuillez consulter la page AgriSource portant sur la <a href=\"http://intranet.agr.gc.ca/agrisource/fra/ressources-humaines/sante-et-securite-au-travail?id=1321562720661\">Sant\u00e9 et s\u00e9curit\u00e9 au travail</a> ou contacter votre <a rel=\"external\" href=\"https://collab.agr.gc.ca/gv/ohsct-ensst/Documents/Hazard%20Prevention%20Program%20for%20Visitors%20(linked%20to%20webpage)/Occupational%20Health%20and%20Safety%20Team/Occupational_Health_and_Safety_Team_FR.docx\">Coordonnateur r\u00e9gional en <abbr title=\"Sant\u00e9 et s\u00e9curit\u00e9 au travail\">SST</abbr></a>.</p>\n<p>\nN'oubliez pas la devise de la <abbr title=\"Sant\u00e9 et s\u00e9curit\u00e9 au travail\">SST</abbr> : Arr\u00eatez. Pensez. Agissez</p>\n<p>\n<img src=\"https://intranet.agr.gc.ca/resources/prod/news/images/OHSLogoFR.png\" class=\"center-block\"></p>\n\t\t"
    },
    "breadcrumb": {
        "en": "Tick Hazard Awareness Guideline",
        "fr": "Ligne directrice sur la sensibilisation aux risques li\u00e9s aux tiques"
    },
    "news": {
        "date_posted": {
            "en": "2019-04-04",
            "fr": "2019-04-04"
        },
        "to": {
            "en": "All staff",
            "fr": "Tous les employ\u00e9s"
        },
        "by": {
            "en": "AAFC's National Occupational Health and Safety Policy Committee",
            "fr": "Comit\u00e9 national d'orientation en mati\u00e8re de sant\u00e9 et de s\u00e9curit\u00e9 au travail d'AAC"
        }
    }
}