{
    "dcr_id": "1555350990318",
    "lang": "en",
    "title": {
        "en": "Final Reminder - Managers' Community Learning Day - May 1 ",
        "fr": "Rappel final - journ\u00e9e d'apprentissage de la Communaut\u00e9 des gestionnaires le 1<sup>er</sup> mai "
    },
    "modified": "2019-04-25 00:00:00.0",
    "issued": "2019-04-17 00:00:00.0",
    "type_name": "intra-intra/news-nouv",
    "node_id": "1279030006975",
    "layout_name": null,
    "dc_date_created": "2019-04-15",
    "breadcrumb_label": "",
    "meta": {
        "issued": {
            "en": "2019-04-17",
            "fr": "2019-04-17"
        },
        "modified": {
            "en": "2019-04-25",
            "fr": "2019-04-25"
        },
        "format": {
            "en": "gcformat",
            "fr": "gcformat"
        },
        "title": {
            "en": "Final Reminder - Managers' Community Learning Day - May 1 ",
            "fr": "Rappel final - journ\u00e9e d'apprentissage de la Communaut\u00e9 des gestionnaires le 1<sup>er</sup> mai "
        },
        "subject": {
            "en": "communications",
            "fr": "communications"
        },
        "description": {
            "en": "The AAFC Managers' Community has an exciting day planned for managers and aspiring managers which will focus on The Future of Work!",
            "fr": "La Communaut\u00e9 des gestionnaires d'AAC a pr\u00e9vu une journ\u00e9e passionnante \u00e0 l'intention des gestionnaires et des aspirants gestionnaires. Le th\u00e8me de cet \u00e9v\u00e9nement sera l'avenir du travail."
        },
        "language": {
            "en": "eng",
            "fr": "fra"
        },
        "audience": {
            "en": "gcaudience",
            "fr": "gcaudience"
        },
        "creator": {
            "en": "Agriculture and Agri-Food Canada",
            "fr": "Agriculture et Agroalimentaire Canada"
        },
        "spatial": {
            "en": "gcregions",
            "fr": "gcregions"
        },
        "service": {
            "en": "AAFC_AgriSource",
            "fr": "AAC_AgriSource"
        },
        "accessRights": {
            "en": "3",
            "fr": "3"
        }
    },
    "body": {
        "en": "<br>\n<br>\n<p>The AAFC Managers\u2019 Community has an exciting day planned for managers and aspiring managers which will focus on The Future of Work!</p>\n<p>The way we work is changing and it is more important than ever that middle managers understand their role in driving transformation. Don\u2019t miss this opportunity to learn about the latest trends in innovation and technology that are changing the way we work. We are pleased to welcome <strong>three exciting speakers</strong>:</p>\n<ul>\n<li>\n<p><strong>Dr. Andrew Pelling</strong> from the University of Ottawa and pHacktory Inc. will discuss how managers can guide employees\u2019 curiosity to drive innovation and experiment with different approaches.</p>\n</li>\n<li>\n<p><strong>Christiane Coda</strong> from Microsoft Canada will provide tips on how managers can take advantage of future technology to improve their work.</p>\n</li>\n<li>\n<p><strong>Lauren Hunter</strong> from Treasury Board of Canada Secretariat will discuss innovative approaches to staffing for the future for managers facing fierce competition for talent.</p>\n</li>\n</ul>\n<p>In addition to these keynote presentations, participants can participate in a <strong>discussion panel</strong> featuring AAFC Assistant Deputy Ministers (ADMs). Join <strong>Christine Walker</strong> (ADM, Corporate Management), <strong>Michel Lessard</strong> (Chief Information Officer, Information Systems), and <strong>Fr\u00e9d\u00e9ric Seppey</strong> (ADM, Market and Industry Services) to learn more about how our department is preparing to meet the challenges of the future, and discuss the important roles managers play.</p>\n<p>For more details, check out the full<strong> <a href=\"https://collab.agr.gc.ca/co/mc_cdg/MCDocuments/Agenda%20MC%20Learning%20Day%20-%20Ordre%20du%20jour%20journ%C3%A9e%20d'apprenstissage%20de%20la%20CG.DOCX\">agenda</a> </strong>on our <strong><a href=\"https://collab.agr.gc.ca/co/mc_cdg/SitePages/LearningDayJourn%C3%A9ed'apprentissage.aspx\">Knowledge Workspace page</a>.</strong></p>\n<h2><strong>Event information</strong></h2>\n<p><strong>Date</strong> Wednesday, May 1 | 8:30 a.m. to 4:15 p.m. (ET)<br>\n<strong>Location:</strong> K.W. Neatby Building, 960 Carling Avenue, Salons A and B, Ottawa<br>\n<strong>Videoconference:</strong> 611203038<br>\n<strong>Registration:</strong> <a href=\"https://collab.agr.gc.ca/co/mc_cdg/Lists/Enrollments/NewForm.aspx?EventList=03a506aa-88ef-4fc8-912a-1334f982734f&amp;EventID=40&amp;Source=https%3A%2F%2Fcollab%2Eagr%2Egc%2Eca%2Fco%2Fmc%5Fcdg%2FLists%2FEvents%2FCurrent%2Easpx\">In-person</a> or <a href=\"https://collab.agr.gc.ca/co/mc_cdg/Lists/Enrollments/NewForm.aspx?EventList=03a506aa-88ef-4fc8-912a-1334f982734f&amp;EventID=41&amp;Source=https%3A%2F%2Fcollab%2Eagr%2Egc%2Eca%2Fco%2Fmc%5Fcdg%2FLists%2FEvents%2FCurrent%2Easpx\">videoconference</a> | The registration deadline is <strong>April 30</strong>.</p>\n<p>If you have any questions, please contact the Managers\u2019 Community, by email, at <a href=\"mailto:aafc.managerscommunity-communautedesgestionnaires.aac@canada.ca\">aafc.managerscommunity-communautedesgestionnaires.aac@canada.ca</a>.</p>\n<p>We look forward to seeing you on May 1!</p>\n<p><img src=\"https://intranet.agr.gc.ca/resources/prod/news/images/ManagersCommunity2019-EN.png\" class=\"center-block\"></p>\n\n\t\t",
        "fr": "<br>\n<br>\n<p>La Communaut\u00e9 des gestionnaires d\u2019AAC a pr\u00e9vu une journ\u00e9e passionnante \u00e0 l\u2019intention des gestionnaires et des aspirants gestionnaires. Le th\u00e8me de cet \u00e9v\u00e9nement sera l\u2019avenir du travail.</p>\n<p>Notre fa\u00e7on de travailler change, et il est plus important que jamais que les cadres interm\u00e9diaires acqui\u00e8rent des comp\u00e9tences qui favoriseront la transformation. Ne manquez pas cette occasion de d\u00e9couvrir les derni\u00e8res tendances en mati\u00e8re d\u2019innovation et de technologie qui transforment notre fa\u00e7on de travailler. Nous sommes heureux d\u2019accueillir <b>trois conf\u00e9renciers passionnants</b> :</p>\n<ul>\n<li><strong>Dr. Andrew Pelling</strong><b>\u00a0(</b>Ph. D.), de l\u2019Universit\u00e9 d\u2019Ottawa et de pHacktory inc., discutera du recours \u00e0 la curiosit\u00e9 humaine pour stimuler l\u2019innovation et la d\u00e9couverte.</li>\n<li><strong>Christiane Coda</strong>, de Microsoft Canada, discutera des fa\u00e7ons dont les gestionnaires peuvent tirer parti des technologies futures pour am\u00e9liorer leur travail.</li>\n<li><strong>Lauren Hunter</strong>, du Secr\u00e9tariat du Conseil du Tr\u00e9sor du Canada, discutera des m\u00e9thodes de dotation novatrices pour les gestionnaires qui doivent composer avec une vive concurrence en mati\u00e8re de talent.</li>\n</ul>\n<p>En apr\u00e8s-midi, les participants pourront participer \u00e0 un <strong>groupe de discussion</strong> qui r\u00e9unira des sous ministres adjoints (SMAs) de l\u2019ensemble d\u2019AAC. Joignez-vous \u00e0 <strong>Christine Walker </strong>(SMA, gestion int\u00e9gr\u00e9e), \u00e0 <strong>Michel Lessard</strong> (DPI, syst\u00e8mes d'information), et \u00e0<strong> Fr\u00e9d\u00e9ric Seppey </strong>(SMA, services \u00e0 l'industrie et aux march\u00e9s) afin d\u2019en apprendre davantage sur la fa\u00e7on dont notre minist\u00e8re se pr\u00e9pare \u00e0 relever les d\u00e9fis \u00e0 venir et de discuter des r\u00f4les importants que jouent les gestionnaires.</p>\n<p>Consultez l\u2019<strong><a href=\"https://collab.agr.gc.ca/co/mc_cdg/MCDocuments/Agenda%20MC%20Learning%20Day%20-%20Ordre%20du%20jour%20journ%C3%A9e%20d'apprenstissage%20de%20la%20CG.DOCX\">ordre du jour</a></strong> complet sur notre <strong><a href=\"https://collab.agr.gc.ca/co/mc_cdg/SitePages/LearningDayJourn%C3%A9ed'apprentissage.aspx\">page de l\u2019Espace de travail du savoir</a></strong> pour obtenir plus de d\u00e9tails.</p>\n<h2><strong>Renseignements sur l\u2019\u00e9v\u00e9nement</strong></h2>\n<p><strong>Date </strong>: Mercredi le 1er mai, de 8 h 30 \u00e0 16 h 15 (HE)<br>\n<strong>Lieu </strong>:<strong> </strong>\u00c9difice K.W. Neatby, 960, avenue Carling, salons A et B, Ottawa<br>\n<strong>Vid\u00e9oconf\u00e9rence </strong>:<strong> </strong>611203038<br>\n<strong>Inscription </strong>:<strong> </strong><a href=\"https://collab.agr.gc.ca/co/mc_cdg/Lists/Enrollments/NewForm.aspx?EventList=03a506aa-88ef-4fc8-912a-1334f982734f&amp;EventID=40&amp;Source=https%3A%2F%2Fcollab%2Eagr%2Egc%2Eca%2Fco%2Fmc%5Fcdg%2FLists%2FEvents%2FCurrent%2Easpx\">En personne</a> ou par <a href=\"https://collab.agr.gc.ca/co/mc_cdg/Lists/Enrollments/NewForm.aspx?EventList=03a506aa-88ef-4fc8-912a-1334f982734f&amp;EventID=41&amp;Source=https%3A%2F%2Fcollab%2Eagr%2Egc%2Eca%2Fco%2Fmc%5Fcdg%2FLists%2FEvents%2FCurrent%2Easpx\">vid\u00e9oconf\u00e9rence</a> | La date limite pour s\u2019inscrire est le <strong>30 avril</strong>.</p>\n<p>Pour toute question, veuillez communiquer avec la Communaut\u00e9 des gestionnaires par courriel \u00e0 <a href=\"mailto:aafc.managerscommunity-communautedesgestionnaires.aac@canada.ca\">aafc.managerscommunity-communautedesgestionnaires.aac@canada.ca</a>.</p>\n<p>Au plaisir de vous voir le 1er mai!</p>\n<p><img src=\"https://intranet.agr.gc.ca/resources/prod/news/images/ManagersCommunity2019-FR.png\" class=\"center-block\"></p>\n\t\t"
    },
    "breadcrumb": {
        "en": "Final Reminder - Managers' Community Learning Day - May 1",
        "fr": "Rappel final - journ\u00e9e d'apprentissage de la Communaut\u00e9 des gestionnaires le 1..."
    },
    "news": {
        "date_posted": {
            "en": "2019-04-18",
            "fr": "2019-04-18"
        },
        "to": {
            "en": "All staff",
            "fr": "Tous les employ\u00e9s"
        },
        "by": {
            "en": "Steven Jurgutis, Champion for the Managers' Community",
            "fr": "Steven Jurgutis, champion de la Communaut\u00e9 des gestionnaires"
        }
    }
}