{
    "dcr_id": "1555337487325",
    "lang": "en",
    "title": {
        "en": "2019-20 Departmental Plan",
        "fr": "Plan minist\u00e9riel 2019-2020"
    },
    "modified": "2019-04-17 00:00:00.0",
    "issued": "2019-04-17 00:00:00.0",
    "type_name": "intra-intra/news-nouv",
    "node_id": "1279030006975",
    "layout_name": null,
    "dc_date_created": "2019-04-15",
    "breadcrumb_label": "",
    "meta": {
        "issued": {
            "en": "2019-04-17",
            "fr": "2019-04-17"
        },
        "modified": {
            "en": "2019-04-17",
            "fr": "2019-04-17"
        },
        "format": {
            "en": "gcformat",
            "fr": "gcformat"
        },
        "title": {
            "en": "2019-20 Departmental Plan",
            "fr": "Plan minist\u00e9riel 2019-2020"
        },
        "subject": {
            "en": "communications",
            "fr": "communications"
        },
        "description": {
            "en": "AAFC\u2019s 2019-20 Departmental Plan was tabled in Parliament on April 11, 2019.",
            "fr": "AAC a d\u00e9pos\u00e9 son Plan minist\u00e9riel 2019-2020 devant le Parlement le 11 avril 2019."
        },
        "language": {
            "en": "eng",
            "fr": "fra"
        },
        "audience": {
            "en": "gcaudience",
            "fr": "gcaudience"
        },
        "creator": {
            "en": "Agriculture and Agri-Food Canada",
            "fr": "Agriculture et Agroalimentaire Canada"
        },
        "spatial": {
            "en": "gcregions",
            "fr": "gcregions"
        },
        "service": {
            "en": "AAFC_AgriSource",
            "fr": "AAC_AgriSource"
        },
        "accessRights": {
            "en": "3",
            "fr": "3"
        }
    },
    "body": {
        "en": "<br>\n<br>\n<p>AAFC\u2019s <a href=\"http://www.agr.gc.ca/eng/?id=1551989243153\">2019-20 Departmental Plan</a> was tabled in Parliament on April 11, 2019.</p>\n<p>The Departmental Plan describes our priorities, planned initiatives, and expected results over the coming three-year period, with a particular focus on work that will be pursued in 2019-20. It summarizes how our programs and services will contribute to the achievement of results for Canadians, fulfill our Minister\u2019s mandate commitments, and support government-wide priorities. Information in the Departmental Plan is presented by Core Responsibility under AAFC\u2019s <a href=\"http://intranet.agr.gc.ca/agrisource/eng/newswork/introducing-aafcs-departmental-results-framework?id=1524070672044\"> Departmental Results Framework</a>.</p>\n<p>This year\u2019s document outlines our collective efforts to enhance export growth and market diversification; support the sector to seize market opportunities both domestically and abroad; advance agricultural science and research to generate knowledge and innovation; and\u00a0support the financial resilience of the sector.</p>\n<p>References are also made to our continued work to develop A Food Policy for Canada, to cross-cutting efforts that support the participation of historically underrepresented groups in agriculture, and to initiatives that will strengthen service delivery and transparency and cultivate wellness in the workplace.</p>\n<p>I encourage you to read AAFC\u2019s 2019-20 Departmental Plan and to bookmark it for future reference.</p>\n<p>If you have any questions regarding the Departmental Plan, please contact Rachel Croswell at <a href=\"mailto:rachel.croswell2@canada.ca\">rachel.croswell2@canada.ca</a>.</p>\n\n\t\t",
        "fr": "<br>\n<br>\n<p>AAC a d\u00e9pos\u00e9 son <a href=\"http://www.agr.gc.ca/fra/?id=1551989243153\">Plan minist\u00e9riel 2019-2020</a> devant le Parlement le 11 avril 2019.</p>\n<p>Le Plan minist\u00e9riel d\u00e9crit nos priorit\u00e9s, les initiatives pr\u00e9vues et les r\u00e9sultats attendus au cours des trois prochaines ann\u00e9es, en mettant l\u2019accent sur les travaux que nous poursuivrons en 2019\u20112020. Il r\u00e9sume la fa\u00e7on dont nos programmes et services contribueront \u00e0 la production de r\u00e9sultats pour les Canadiens, aideront \u00e0 r\u00e9aliser les engagements du mandat de notre ministre et appuieront les priorit\u00e9s du gouvernement. Les informations du Plan minist\u00e9riel sont pr\u00e9sent\u00e9es par responsabilit\u00e9 essentielle dans le <a href=\"http://intranet.agr.gc.ca/agrisource/fra/nouvelleslouvrage/presentation-du-cadre-ministeriel-des-resultats-daac?id=1524070672044\">Cadre minist\u00e9riel des r\u00e9sultats</a> d\u2019AAC.</p>\n<p>Le document de cette ann\u00e9e d\u00e9crit nos efforts collectifs pour renforcer la croissance des exportations et la diversification des march\u00e9s, aider le secteur agricole et agroalimentaire \u00e0 tirer parti des d\u00e9bouch\u00e9s sur les march\u00e9s national et international, promouvoir la science et la recherche en agriculture pour acqu\u00e9rir des connaissances et stimuler l\u2019innovation, et soutenir la r\u00e9silience financi\u00e8re du secteur.</p>\n<p>Des r\u00e9f\u00e9rences sont \u00e9galement faites \u00e0 notre travail continu pour \u00e9laborer Une politique alimentaire pour le Canada, aux efforts mis de l\u2019avant pour encourager la participation des groupes historiquement sous-repr\u00e9sent\u00e9s dans l\u2019agriculture et aux initiatives qui renforceront la prestation de services ainsi que la transparence et favoriseront le mieux-\u00eatre au travail.</p>\n<p>Je vous encourage \u00e0 lire le Plan minist\u00e9riel 2019-2020 d\u2019AAC et \u00e0 le mettre en signet pour consultation future.</p>\n<p>Pour toute question concernant le Plan minist\u00e9riel, veuillez communiquer avec Rachel Croswell par courriel \u00e0 <a href=\"mailto:Rachel.Croswell2@canada.ca\">Rachel.Croswell2@canada.ca</a>.</p>\n\t\t"
    },
    "breadcrumb": {
        "en": "2019-20 Departmental Plan",
        "fr": "Plan minist\u00e9riel 2019-2020"
    },
    "news": {
        "date_posted": {
            "en": "2019-04-18",
            "fr": "2019-04-18"
        },
        "to": {
            "en": "All staff",
            "fr": "Tous les employ\u00e9s"
        },
        "by": {
            "en": "Christine Walker, Assistant Deputy Minister, Corporate Management Branch",
            "fr": "Christine Walker, sous-ministre adjointe, Direction g\u00e9n\u00e9rale de la gestion int\u00e9gr\u00e9e"
        }
    }
}