{
    "dcr_id": "1555506986516",
    "lang": "en",
    "title": {
        "en": "Honey, Cereal, Butterflies and More: April Additions to the Canadian Agriculture Library",
        "fr": "Miel, c\u00e9r\u00e9ales, papillons et plus encore : les ajouts du mois d'avril \u00e0 la Biblioth\u00e8que canadienne de l'agriculture"
    },
    "modified": "2019-04-18 00:00:00.0",
    "issued": "2019-04-17 00:00:00.0",
    "type_name": "intra-intra/news-nouv",
    "node_id": "1279030006975",
    "layout_name": null,
    "dc_date_created": "2019-04-17",
    "breadcrumb_label": "",
    "meta": {
        "issued": {
            "en": "2019-04-17",
            "fr": "2019-04-17"
        },
        "modified": {
            "en": "2019-04-18",
            "fr": "2019-04-23"
        },
        "format": {
            "en": "gcformat",
            "fr": "gcformat"
        },
        "title": {
            "en": "Honey, Cereal, Butterflies and More: April Additions to the Canadian Agriculture Library",
            "fr": "Miel, c\u00e9r\u00e9ales, papillons et plus encore : les ajouts du mois d'avril \u00e0 la Biblioth\u00e8que canadienne de l'agriculture"
        },
        "subject": {
            "en": "communications",
            "fr": "communications"
        },
        "description": {
            "en": "Spring is in the air and the growing season is here. It's the perfect time to educate yourself about the treatment of plant diseases, insects and animals.",
            "fr": "Le printemps est \u00e0 nos portes, et la saison de croissance est arriv\u00e9e. Il est temps de s'immerger dans des lectures sur les maladies des plantes, pour mieux les traiter, ou sur les insectes ou les animaux, pour mieux les comprendre."
        },
        "language": {
            "en": "eng",
            "fr": "fra"
        },
        "audience": {
            "en": "gcaudience",
            "fr": "gcaudience"
        },
        "creator": {
            "en": "Agriculture and Agri-Food Canada",
            "fr": "Agriculture et Agroalimentaire Canada"
        },
        "spatial": {
            "en": "gcregions",
            "fr": "gcregions"
        },
        "service": {
            "en": "AAFC_AgriSource",
            "fr": "AAC_AgriSource"
        },
        "accessRights": {
            "en": "3",
            "fr": "3"
        }
    },
    "body": {
        "en": "<br>\n<br>\n<p>Spring is in the air and the growing season is here. It\u2019s the perfect time to educate yourself about the treatment of plant diseases, insects and animals. The Canadian Agriculture Library has a range of resources to help you develop your knowledge in these subject areas. Check out the <strong><a href=\"https://collab.agr.gc.ca/co/kis-sis/Documents/CAL%20New%20Acquisitions%202019-04%20(April%202019)%20-%20Nouveaut%C3%A9s%20%C3%A0%20la%20BCA%202019-04%20(Avril%202019).pdf\">list of new titles added in April 2019</a>. </strong>Topics covered include:</p>\n<ul>\n<li>Applications of genetic and genomic research in cereals</li>\n<li>Bedding plant diseases and pests</li>\n<li>Medical and veterinary entomology</li>\n<li>Honey analysis</li>\n</ul>\n<p>Access the electronic content from your desktop by clicking on links found in the list, or submit a request to borrow physical items.\u00a0<br>\nFor more information, contact CAL: <a href=\"mailto:aafc.cal-bca.aac@canada.ca\">aafc.cal-bca.aac@canada.ca</a></p>\n<p><img src=\"https://intranet.agr.gc.ca/resources/prod/news/images/CALbanner-EN.png\" class=\"center-block\"></p>\n\n\t\t",
        "fr": "<br>\n<br>\n<p>Le printemps est \u00e0 nos portes, et la saison de croissance est arriv\u00e9e. Il est temps de s\u2019immerger dans des lectures sur les maladies des plantes, pour mieux les traiter, ou sur les insectes ou les animaux, pour mieux les comprendre. Qu\u2019il s\u2019agisse des domaines chimique, g\u00e9n\u00e9tique ou biologique, la Biblioth\u00e8que canadienne de l\u2019agriculture dispose d\u2019une gamme de ressources pour vous aider \u00e0 am\u00e9liorer vos connaissances dans votre domaine d\u2019expertise ou pour examiner des th\u00e8mes qui sont importants pour vous. Consultez la liste des nouveaux titres mensuels pour d\u00e9couvrir les derni\u00e8res tendances. Jetez un coup d\u2019\u0153il \u00e0 la<strong> <a href=\"https://collab.agr.gc.ca/co/kis-sis/Documents/Nouveaut%C3%A9s%20%C3%A0%20la%20BCA%202019-04%20(Avril%202019)%20-%20CAL%20New%20Acquisitions%202019-02%20(April%202019).pdf\">liste des nouveaut\u00e9s d\u2019avril 2019</a></strong>.\u00a0 Les sujets trait\u00e9s sont :</p>\n<ul style=\"list-style-type: disc;\">\n<li>Recherche et applications g\u00e9n\u00e9tiques des c\u00e9r\u00e9ales</li>\n<li>Maladies et ravageurs des plantes \u00e0 massif</li>\n<li>Entomologie m\u00e9dicale et v\u00e9t\u00e9rinaire</li>\n<li>Analyse du miel</li>\n</ul>\n<p>Vous pouvez acc\u00e9der au contenu \u00e9lectronique \u00e0 partir de votre poste de travail en cliquant sur les liens qui se trouvent dans la liste, ou faire une demande d\u2019emprunt des ouvrages physiques.\u00a0 Pour de plus amples renseignements, communiquez avec la BCA par courriel, \u00e0 l'adresse suivante : <a href=\"mailto:aafc.cal-bca.aac@canada.ca\">aafc.cal-bca.aac@canada.ca</a>.</p>\n<p><img src=\"https://intranet.agr.gc.ca/resources/prod/news/images/CALbanniere-FR.png\" class=\"center-block\" alt=\"\"></p>\n\t\t"
    },
    "breadcrumb": {
        "en": "Honey, Cereal, Butterflies and More: April Additions to the Canadian Agriculture Library",
        "fr": "Miel, c\u00e9r\u00e9ales, papillons et plus encore : les ajouts du mois davril \u00e0 la Biblioth\u00e8que canadienne de l\u2019agriculture"
    },
    "news": {
        "date_posted": {
            "en": "2019-04-18",
            "fr": "2019-04-18"
        },
        "to": {
            "en": "All staff",
            "fr": "Tous les employ\u00e9s"
        },
        "by": {
            "en": "The Canadian Agriculture Library",
            "fr": "La Biblioth\u00e8que canadienne de l\u2019agriculture"
        }
    }
}