{
    "dcr_id": "1555415497816",
    "lang": "en",
    "title": {
        "en": "Travel Reminders 2019",
        "fr": "Rappels en mati\u00e8re de d\u00e9placements 2019"
    },
    "modified": "2019-04-17 00:00:00.0",
    "issued": "2019-04-17 00:00:00.0",
    "type_name": "intra-intra/news-nouv",
    "node_id": "1279030006975",
    "layout_name": null,
    "dc_date_created": "2019-04-16",
    "breadcrumb_label": "",
    "meta": {
        "issued": {
            "en": "2019-04-17",
            "fr": "2019-04-17"
        },
        "modified": {
            "en": "2019-04-17",
            "fr": "2019-04-17"
        },
        "format": {
            "en": "gcformat",
            "fr": "gcformat"
        },
        "title": {
            "en": "Travel Reminders 2019",
            "fr": "Rappels en mati\u00e8re de d\u00e9placements 2019"
        },
        "subject": {
            "en": "communications",
            "fr": "communications"
        },
        "description": {
            "en": "Travelling for government business can be complicated. However, with forward planning, you can take away the stress that can come with business travel.",
            "fr": "Les d\u00e9placements pour le compte du gouvernement peuvent \u00eatre compliqu\u00e9s. Toutefois, avec de la planification, vous pouvez \u00e9liminer le stress que peuvent occasionner les voyages d'affaires."
        },
        "language": {
            "en": "eng",
            "fr": "fra"
        },
        "audience": {
            "en": "gcaudience",
            "fr": "gcaudience"
        },
        "creator": {
            "en": "Agriculture and Agri-Food Canada",
            "fr": "Agriculture et Agroalimentaire Canada"
        },
        "spatial": {
            "en": "gcregions",
            "fr": "gcregions"
        },
        "service": {
            "en": "AAFC_AgriSource",
            "fr": "AAC_AgriSource"
        },
        "accessRights": {
            "en": "3",
            "fr": "3"
        }
    },
    "body": {
        "en": "<br>\n<br>\n<p>Travelling for government business can be complicated. However, with forward planning, you can take away the stress that can come with business travel. Here are some travel related tips and reminders to help ensure that your travel bookings run smoothly.</p>\n<h2>Use your travel card to pay for travel expenses</h2>\n<p>You can apply for your Government of Canada Individual Designated Travel Card (IDTC) through the <a href=\"https://isuite6.hrgworldwide.com/gcportal/en-ca/travelcard.aspx\">Shared Travel Services (STS) Portal</a>. Information on how to apply is provided in the <a target=\"_blank\" href=\"http://intranet.agr.gc.ca/agrisource/AgriDoc.do?id=100046267&amp;lang=eng\">IDTC Application Guide (Word)</a>.</p>\n<p>Travel card holders and budget managers are reminded that they must adhere to <a href=\"http://intranet.agr.gc.ca/agrisource/AgriDoc.do?id=100553063&amp;lang=eng\">specific requirements (Word)</a>.</p>\n<h2>Update your email address</h2>\n<p>Now that your email has been migrated to your.email@canada.ca, please log in to your STS Portal account to review your profile and update your email address. This will ensure you continue to receive all of your travel information.</p>\n<h2>Choose appropriate trip category and purpose in STS</h2>\n<p>To help the department effectively report on travel expenditures, travellers should select the correct trip category during the booking process. Please consult with <a href=\"http://intranet.agr.gc.ca/agrisource/eng/branches-and-offices/corporate-management-branch/services/travel/get-your-travel-approved?id=1415290508568\">your Branch Travel Coordinator</a> for the trip category approved on the Travel Hospitality Conference and Event (THCE) plan.\u00a0\u00a0</p>\n<p>Please visit the <a href=\"http://intranet.agr.gc.ca/agrisource/eng/branches-and-offices/corporate-management-branch/services/travel?id=1314719697163\">Travel Pages</a> on AgriSource for additional travel information.</p>\n\n\t\t",
        "fr": "<br>\n<br>\n<p>Les d\u00e9placements pour le compte du gouvernement peuvent \u00eatre compliqu\u00e9s. Toutefois, avec de la planification, vous pouvez \u00e9liminer le stress que peuvent occasionner les voyages d'affaires. Voici quelques conseils et rappels pour vous assurer que vos r\u00e9servations de voyage s\u2019effectuent en douceur.</p>\n<h2><b><strong>Utilisez votre carte de voyage pour payer vos frais de d\u00e9placement</strong></b></h2>\n<p>Vous pouvez demander votre carte individuelle de voyage (CIV) d\u00e9sign\u00e9e du gouvernement du Canada par l'entremise du <a href=\"https://isuite6.hrgworldwide.com/gcportal/STS/tabid/291/language/fr-CA/Default.aspx?returnurl=/gcportal/en-ca/travelcard.aspx\">Portail des services de voyage partag\u00e9s (SVP)</a>. On peut trouver des renseignements sur la fa\u00e7on de pr\u00e9senter une demande dans le <a target=\"_blank\" href=\"http://intranet.agr.gc.ca/agrisource/AgriDoc.do?id=100046270&amp;lang=fra\">Guide du demandeur de carte individuelle de voyage (Word)</a>.</p>\n<p>Nous aimerions rappeler aux d\u00e9tenteurs de cartes de voyage et aux gestionnaires de budget qu'ils doivent respecter des <a href=\"http://intranet.agr.gc.ca/agrisource/AgriDoc.do?id=100553079&amp;lang=eng\">responsabilit\u00e9s pr\u00e9cises (Word)</a>.</p>\n<h2><strong>Mettez \u00e0 jour votre adresse courriel</strong></h2>\n<p>Maintenant que votre courriel est pass\u00e9 \u00e0 votre.courriel@canada.ca, veuillez vous connecter \u00e0 votre compte du Portail SVP pour consulter votre profil et mettre \u00e0 jour votre adresse courriel. Cela vous permettra de continuer de recevoir tous les renseignements sur vos d\u00e9placements.</p>\n<h2><strong>Choisissez la cat\u00e9gorie et le but du voyage appropri\u00e9s dans le portail des SVP</strong></h2>\n<p>Pour aider le Minist\u00e8re \u00e0 rendre compte efficacement des d\u00e9penses de voyage, les voyageurs devraient choisir la bonne cat\u00e9gorie de voyage au cours du processus de r\u00e9servation. Veuillez consulter votre <a href=\"http://intranet.agr.gc.ca/agrisource/fra/directions-generales-et-bureaux/direction-generale-de-la-gestion-integree/services/voyages/faites-approuver-votre-voyage?id=1415290508568\">coordonnateur des voyages de votre direction g\u00e9n\u00e9rale</a> pour conna\u00eetre la cat\u00e9gorie de voyage approuv\u00e9e dans le plan de voyages, d\u2019accueil, de conf\u00e9rences et d\u2019\u00e9v\u00e9nements (VACE).\u00a0</p>\n<p>Veuillez consulter la page <a href=\"http://intranet.agr.gc.ca/agrisource/fra/directions-generales-et-bureaux/direction-generale-de-la-gestion-integree/services/voyages?id=1314719697163\">Voyages</a> sur Agrisource pour obtenir de plus amples renseignements sur les voyages.</p>\n<p>\u00a0</p>\n\t\t"
    },
    "breadcrumb": {
        "en": "Travel Reminders 2019",
        "fr": "Rappels en mati\u00e8re de d\u00e9placements 2019"
    },
    "news": {
        "date_posted": {
            "en": "2019-04-18",
            "fr": "2019-04-18"
        },
        "to": {
            "en": "All staff",
            "fr": "Tous les employ\u00e9s"
        },
        "by": {
            "en": "Finance and Resource Management Services, Corporate Management Branch",
            "fr": "Services des finances et de la gestion des ressources, Direction g\u00e9n\u00e9rale de la gestion int\u00e9gr\u00e9e"
        }
    }
}