{
    "dcr_id": "1556576756498",
    "lang": "en",
    "title": {
        "en": "Reminder - Celebrate the International Day Against Homophobia, Transphobia and Biphobia - May 17 ",
        "fr": "Rappel - C\u00e9l\u00e9brez la Journ\u00e9e internationale contre l'homophobie, la transphobie et la biphobie - 17 mai "
    },
    "modified": "2019-05-14 00:00:00.0",
    "issued": "2019-05-02 00:00:00.0",
    "type_name": "intra-intra/news-nouv",
    "node_id": "1279030006975",
    "layout_name": null,
    "dc_date_created": "2019-04-30",
    "breadcrumb_label": "",
    "meta": {
        "issued": {
            "en": "2019-05-02",
            "fr": "2019-05-02"
        },
        "modified": {
            "en": "2019-05-14",
            "fr": "2019-05-15"
        },
        "format": {
            "en": "gcformat",
            "fr": "gcformat"
        },
        "title": {
            "en": "Reminder - Celebrate the International Day Against Homophobia, Transphobia and Biphobia - May 17 ",
            "fr": "Rappel - C\u00e9l\u00e9brez la Journ\u00e9e internationale contre l'homophobie, la transphobie et la biphobie - 17 mai "
        },
        "subject": {
            "en": "communications",
            "fr": "communications"
        },
        "description": {
            "en": "AAFC and the Canadian Food Inspection Agency are pleased to invite you to join us for an interesting hour with speakers from Capital Rainbow Refuge, as well as survivors of the \"LGBT Purge\".",
            "fr": "AAC et l'Agence canadienne d'inspection des aliments sont heureux de vous inviter \u00e0 une s\u00e9ance int\u00e9ressante d'une heure avec des conf\u00e9renciers du Capital Rainbow Refuge, ainsi que des survivants de la \u00ab purge LGBT \u00bb."
        },
        "language": {
            "en": "eng",
            "fr": "fra"
        },
        "audience": {
            "en": "gcaudience",
            "fr": "gcaudience"
        },
        "creator": {
            "en": "Agriculture and Agri-Food Canada",
            "fr": "Agriculture et Agroalimentaire Canada"
        },
        "spatial": {
            "en": "gcregions",
            "fr": "gcregions"
        },
        "service": {
            "en": "AAFC_AgriSource",
            "fr": "AAC_AgriSource"
        },
        "accessRights": {
            "en": "3",
            "fr": "3"
        }
    },
    "body": {
        "en": "<br>\n<br>\n<p>AAFC and the Canadian Food Inspection Agency (<abbr title=\"Canadian Food Inspection Agency\">CFIA</abbr>) are pleased to invite you to join us for an interesting hour with speakers from <a rel=\"external\" href=\"http://www.capitalrainbow.ca/\">Capital Rainbow Refuge</a>, as well as survivors of the \u201c<a rel=\"external\" href=\"http://lgbtpurge.com/\">LGBT Purge</a>\u201d.</p>\n<p>International Day against Homophobia, Transphobia and Biphobia, commemorated annually on May 17, aims to raise awareness and talk about the issues faced by the lesbian, gay, bisexual, transgender and queer (LGBTQ2+) community.</p>\n<p>This year\u2019s focus is \u201cJustice and Protection for all\u201d, which is an opportunity to celebrate diversity, raise awareness and show your support for safe and inclusive workplaces and communities for all.</p>\n<p>We are happy to welcome <strong>Lisa H\u00e9bert </strong>and <strong>Alam </strong>from <strong>Capital Rainbow Refuge</strong> and <strong>Christine Potvin</strong>, an <strong>Art Student</strong> who documented the experiences of <strong>LGBT Purge survivors</strong>, <strong>Kareth Huber </strong>and<strong> Nicole Rompr\u00e9</strong>. Come listen to our engaging speakers, take the opportunity to get together, and meet members of the Gender and Sexual Diversity Inclusiveness Networks for <abbr title=\"Canadian Food Inspection Agency\">CFIA</abbr> and AAFC.</p>\n<p><img src=\"https://intranet.agr.gc.ca/resources/prod/news/images/IDAHOTBSpeakers20194.png\" class=\"center-block\" alt=\"Description of this image follows\"><em class=\"text-center center-block\">Lisa H\u00e9bert and Alam from Capital Rainbow Refuge</em></p>\n<h2><strong>Event information</strong></h2>\n<p><strong>Date and Time:</strong> Friday, May 17 | 1:30 to 2:30 p.m. (ET)<br><strong>Language:</strong> Bilingual<br>\n<strong>Locations:</strong> Ottawa (NHCAP, Tower 6 cafeteria) and Winnipeg (167 Lombard Avenue, Room 707)<br>\n<strong>Videoconference:</strong> 6811219285<br>\n<strong>Teleconference: </strong> 613-960-7513 or 1-877-413-4788;\n<strong>Conference ID:</strong> 5888379# when prompted<br>\n<strong>Registration:</strong> <a rel=\"external\" href=\"https://collab.agr.gc.ca/co/lgbt-glbt/_layouts/15/listform.aspx?PageType=4&amp;ListId=%7B4B0A4B29%2D25ED%2D4370%2D98FA%2D190D5387D43A%7D&amp;ID=69\">In-person and videoconference</a></p>\n<p>If you\u2019re in a co-located region with another government agency, we encourage you to use this as an opportunity to invite them to join our celebration.</p>\n<p>If you're dialing-in via videoconference (<abbr title=\"videoconference\">VC</abbr>), we encourage you to book a room and watch the event with your colleagues. Please dial at least 15 minutes before the scheduled time \u2013 you will not be able to connect after the event has started. In addition, please refrain from logging out of the <abbr title=\"videoconference\">VC</abbr> until the event has finished to avoid disrupting the event. If you experience technical difficulties, please contact the IT Centre TI at 1\u2011855\u2011545\u20114411.</p>\n<p>For more information, please email <a href=\"mailto:aafc.gsdin-ridgs.aac@canada.ca\">aafc.gsdin-ridgs.aac@canada.ca</a>.</p>\n<h2><strong>Learn more</strong></h2>\n<ul>\n<li>Visit <a href=\"https://www.canada.ca/en/privy-council/campaigns/free-to-be-me.html\">Government of Canada\u2019s LGBTQ2-related initiatives and programs</a></li>\n<li>Sign up for AAFC's <a href=\"https://collab.agr.gc.ca/co/lgbt-glbt/SitePages/Positive%20Space%20Initiative.aspx\">Positive Space Training</a></li>\n<li>Check out AAFC\u2019s <a rel=\"external\" href=\"https://collab.agr.gc.ca/co/lgbt-glbt/SitePages/Home.aspx\">Gender and Sexual Diversity Inclusiveness Network Knowledge Workspace page</a></li>\n<li>Learn more about AAFC\u2019s <a href=\"https://collab.agr.gc.ca/co/eedi-emedi/SitePages/Home.aspx\">Diversity Networks</a> and their upcoming events</li>\n</ul>\n<p>Bring your colleagues and join us in promoting equality of the LGBTQ2+ community in our workplace!</p>\n<p>\u00a0</p>\n<p><strong>Jane Taylor</strong><br>\nChampion, Gender and Sexual Diversity and Inclusiveness Network (AAFC)</p>\n<p><strong>Nicholas Christie</strong><br>\nChampion, LGBTQ Network (<abbr title=\"Canadian Food Inspection Agency\">CFIA</abbr>)</p>\n<p><img src=\"https://intranet.agr.gc.ca/resources/prod/news/images/IDAHOTB2019-EN.png\" class=\"center-block\"></p>\n<p>\u00a0</p>\n\n\t\t",
        "fr": "<br>\n<br>\n<p>AAC et l\u2019Agence canadienne d\u2019inspection des aliments (<abbr title=\"Agence canadienne d\u2019inspection des aliments\">ACIA</abbr>) sont heureux de vous inviter \u00e0 une s\u00e9ance int\u00e9ressante d\u2019une heure avec des conf\u00e9renciers du <a rel=\"external\" href=\"http://www.capitalrainbow.ca/\">Capital Rainbow Refuge (en anglais seulement)</a>, ainsi que des survivants de la \u00ab <a rel=\"external\" href=\"http://lgbtpurge.com/fr/\">purge LGBT</a> \u00bb.</p>\n<p>La Journ\u00e9e internationale contre l\u2019homophobie, la transphobie et la biphobie, qui a lieu le 17 mai de chaque ann\u00e9e, vise \u00e0 mieux faire conna\u00eetre les probl\u00e8mes auxquels la communaut\u00e9 lesbienne, gaie, bisexuelle, transgenre et allosexuelle (LGBTQ2+) fait face et \u00e0 en discuter.</p>\n<p>Le th\u00e8me de cette ann\u00e9e, \u00ab Justice et protection pour tous \u00bb, nous donne l\u2019occasion de c\u00e9l\u00e9brer la diversit\u00e9, de sensibiliser les gens et de promouvoir des milieux de travail et des collectivit\u00e9s s\u00e9curitaires pour tous.</p>\n<p>Nous sommes heureux d\u2019accueillir <strong>Lisa H\u00e9bert et Alam, </strong>du <strong>Capital Rainbow Refuge,</strong> et <strong>Christine Potvin</strong>, une <strong>\u00e9tudiante en arts</strong> qui a document\u00e9 les exp\u00e9riences de <strong>survivants \u00e0 la purge LGBT, Kareth Huber </strong>et<strong> Nicole Rompr\u00e9</strong>. Venez \u00e9couter nos conf\u00e9renciers dynamiques et rencontrer des coll\u00e8gues et des membres des r\u00e9seaux de l\u2019inclusivit\u00e9 et de la diversit\u00e9 des genres et de la sexualit\u00e9 de l\u2019<abbr title=\"Agence canadienne d\u2019inspection des aliments\">ACIA</abbr> et d\u2019AAC.</p>\n<p><img src=\"https://intranet.agr.gc.ca/resources/prod/news/images/IDAHOTBSpeakers20194.png\" class=\"center-block\" alt=\"La description de cette image suit. \"><em class=\"text-center center-block\">Lisa H\u00e9bert et Alam, du Capital Rainbow Refuge</em></p>\n<h2><strong>Information sur l\u2019activit\u00e9</strong></h2>\n<p><strong>Date et heure\u00a0:</strong> Le vendredi 17 mai | 13 h 30 \u00e0 14 h 30 (HE)<br>\n<strong>Lieux :</strong> Ottawa (Caf\u00e9t\u00e9ria de la tour 6 du CACPA) et Winnipeg (Salle 707 au 167, avenue Lombard)<br><strong>Langue :</strong> Bilingue<br>\n<strong>Vid\u00e9oconf\u00e9rence :</strong> 6811219285<br>\n<strong>T\u00e9l\u00e9conf\u00e9rence : </strong> 613-960-7513 ou 1-877-413-4788; \n<strong>ID de la conf\u00e9rence :</strong> 5888379# lorsque le syst\u00e8me en fait la demande<br>\n<strong>Inscription :</strong> <a rel=\"external\" href=\"https://collab.agr.gc.ca/co/lgbt-glbt/_layouts/15/listform.aspx?PageType=4&amp;ListId=%7B4B0A4B29%2D25ED%2D4370%2D98FA%2D190D5387D43A%7D&amp;ID=69\">En personne et par vid\u00e9oconf\u00e9rence</a></p>\n<p>Si vous partagez des locaux en r\u00e9gion avec des gens d\u2019un autre organisme gouvernemental, nous vous encourageons \u00e0 les inviter \u00e0 c\u00e9l\u00e9brer avec nous.</p>\n<p>Si vous participez \u00e0 l\u2019activit\u00e9 par vid\u00e9oconf\u00e9rence, nous vous encourageons \u00e0 r\u00e9server une salle avec vos coll\u00e8gues. Veuillez composer le num\u00e9ro au moins 15 minutes avant l\u2019heure de d\u00e9but pr\u00e9vue \u2013 vous ne pourrez pas vous connecter apr\u00e8s le d\u00e9but de l\u2019activit\u00e9. De plus, nous vous saurions gr\u00e9 de ne pas vous d\u00e9connecter de la vid\u00e9oconf\u00e9rence avant la fin de l\u2019activit\u00e9 pour \u00e9viter de d\u00e9ranger les participants. Si vous \u00e9prouvez des difficult\u00e9s techniques, veuillez communiquer avec le Centre de la TI au 1\u2011855\u2011545\u20114411.</p>\n<p>Pour de plus amples renseignements, veuillez envoyer un courriel \u00e0 <a href=\"mailto:aafc.gsdin-ridgs.aac@canada.ca\">aafc.gsdin-ridgs.aac@canada.ca</a>.</p>\n<h2><strong>Pour en savoir plus</strong></h2>\n<ul>\n<li>Consultez les <a rel=\"external\" href=\"https://www.canada.ca/fr/conseil-prive/campagnes/sois-toi-meme.html\">initiatives et les programmes du gouvernement du Canada pour la communaut\u00e9 LGBTQ2</a></li>\n<li>Inscrivez-vous \u00e0 la <a rel=\"external\" href=\"https://collab.agr.gc.ca/co/lgbt-glbt/SitePages/Positive%20Space%20Initiative.aspx\">formation sur l'Espace positif</a> d\u2019AAC</li>\n<li>Visitez le site du <a rel=\"external\" href=\"https://collab.agr.gc.ca/co/lgbt-glbt/SitePages/Home.aspx\">R\u00e9seau de l'inclusivit\u00e9 et de la diversit\u00e9 des genres et de la sexualit\u00e9 d\u2019AAC dans l\u2019Espace de travail du savoir</a></li>\n<li>Renseignez-vous sur les <a rel=\"external\" href=\"https://collab.agr.gc.ca/co/eedi-emedi/SitePages/Home.aspx\">r\u00e9seaux de la diversit\u00e9</a> d\u2019AAC et leurs prochaines activit\u00e9s</li>\n</ul>\n<p>Venez avec vos coll\u00e8gues promouvoir l\u2019\u00e9galit\u00e9 au travail pour la communaut\u00e9 LGBTQ2+!</p>\n<p>\u00a0</p>\n<p><strong>Jane Taylor</strong><br>\nChampionne, R\u00e9seau de l\u2019inclusivit\u00e9 et de la diversit\u00e9 des genres et de la sexualit\u00e9 (AAC)</p>\n<p><strong>Nicholas Christie</strong><br>\nChampion, R\u00e9seau LGBTQ (<abbr title=\"Agence canadienne d\u2019inspection des aliments\">ACIA</abbr>)</p>\n<p>\u00a0<img src=\"https://intranet.agr.gc.ca/resources/prod/news/images/IDAHOTB2019-FR.png\" class=\"center-block\"></p>\n\t\t"
    },
    "breadcrumb": {
        "en": "Reminder - Celebrate the International Day Against Homophobia, Transphobia and Biphobia - May 17",
        "fr": "Rappel - C\u00e9l\u00e9brez la Journ\u00e9e internationale contre l'homophobie, la transphobie et la biphobie - 17"
    },
    "news": {
        "date_posted": {
            "en": "2019-05-02",
            "fr": "2019-05-02"
        },
        "to": {
            "en": "All staff",
            "fr": "Tous les employ\u00e9s"
        },
        "by": {
            "en": "Jane Taylor, Champion, Gender and Sexual Diversity Inclusiveness Network",
            "fr": "Jane Taylor, championne, R\u00e9seau de l'inclusivit\u00e9 et de la diversit\u00e9 des genres et de la sexualit\u00e9"
        }
    }
}