{
    "dcr_id": "1556628209400",
    "lang": "en",
    "title": {
        "en": "May is International Internal Audit Awareness Month",
        "fr": "Mai est le mois international de sensibilisation \u00e0 l'audit interne"
    },
    "modified": "2019-05-02 00:00:00.0",
    "issued": "2019-05-02 00:00:00.0",
    "type_name": "intra-intra/news-nouv",
    "node_id": "1279030006975",
    "layout_name": null,
    "dc_date_created": "2019-04-30",
    "breadcrumb_label": "",
    "meta": {
        "issued": {
            "en": "2019-05-02",
            "fr": "2019-05-02"
        },
        "modified": {
            "en": "2019-05-02",
            "fr": "2019-05-02"
        },
        "format": {
            "en": "gcformat",
            "fr": "gcformat"
        },
        "title": {
            "en": "May is International Internal Audit Awareness Month",
            "fr": "Mai est le mois international de sensibilisation \u00e0 l'audit interne"
        },
        "subject": {
            "en": "communications",
            "fr": "communications"
        },
        "description": {
            "en": "Internal auditing is an independent, objective assurance and consulting activity. It's designed to add value and improve an organization's operations.",
            "fr": "L'audit interne est une activit\u00e9 ind\u00e9pendante et objective qui permet de donner \u00e0 une organisation une assurance sur le degr\u00e9 de ma\u00eetrise de ses op\u00e9rations, lui apporte ses conseils pour les am\u00e9liorer, et contribue \u00e0 cr\u00e9er de la valeur ajout\u00e9e."
        },
        "language": {
            "en": "eng",
            "fr": "fra"
        },
        "audience": {
            "en": "gcaudience",
            "fr": "gcaudience"
        },
        "creator": {
            "en": "Agriculture and Agri-Food Canada",
            "fr": "Agriculture et Agroalimentaire Canada"
        },
        "spatial": {
            "en": "gcregions",
            "fr": "gcregions"
        },
        "service": {
            "en": "AAFC_AgriSource",
            "fr": "AAC_AgriSource"
        },
        "accessRights": {
            "en": "3",
            "fr": "3"
        }
    },
    "body": {
        "en": "<br>\n<br>\n<p>Internal auditing is an independent, objective assurance and consulting activity. It\u2019s designed to add value and improve an organization\u2019s operations. It helps an organization accomplish its objectives by bringing a systematic, disciplined approach to evaluating and improving the effectiveness of processes for risk management, control, and governance.</p>\n<p><strong>AAFC\u2019s Internal Audit Division </strong>can help you identify opportunities to:<strong> </strong></p>\n<ul>\n<li>Improve organizational operations</li>\n<li>Establish effective controls, processes and procedures</li>\n<li>Mitigate risks</li>\n</ul>\n<p>See AAFC\u2019s <a rel=\"external\" href=\"http://www.agr.gc.ca/eng/about-us/offices-and-locations/office-of-audit-and-evaluation/audit-reports/?id=1180961458200\">2018-2019 Audit Reports</a>.</p>\n<p>For questions about AAFC\u2019s Internal Audit services, please contact Mary Anne Strong, Director, Internal Audit\u00a0(<a href=\"mailto:maryanne.strong@canada.ca\">maryanne.strong@canada.ca</a>\u00a0or 613-773-0669), or Kimberly Saunders, Chief Audit Executive (<a href=\"mailto:kimberly.saunders@canada.ca\">kimberly.saunders@canada.ca</a> or 613-773-0322).</p>\n\n\t\t",
        "fr": "<br>\n<br>\n<p>L'audit interne est une activit\u00e9 ind\u00e9pendante et objective qui permet de donner \u00e0 une organisation une assurance sur le degr\u00e9 de ma\u00eetrise de ses op\u00e9rations, lui apporte ses conseils pour les am\u00e9liorer, et contribue \u00e0 cr\u00e9er de la valeur ajout\u00e9e. Il aide cette organisation \u00e0 atteindre ses objectifs en \u00e9valuant, par une approche syst\u00e9matique et m\u00e9thodique, ses processus de gestion des risques, de contr\u00f4le, et de gouvernance d'entreprise, et en faisant des propositions pour renforcer leur efficacit\u00e9.</p>\n<p>Les <strong>Services de v\u00e9rification</strong> <strong>interne </strong>d\u2019AAC peuvent vous aider \u00e0 :<strong> </strong></p>\n<ul>\n<li>am\u00e9liorer les activit\u00e9s de l\u2019organisation;</li>\n<li>\u00e9tablir des contr\u00f4les, des processus et des proc\u00e9dures efficaces;</li>\n<li>att\u00e9nuer les risques.</li>\n</ul>\n<p>Consultez les <a rel=\"external\" href=\"http://www.agr.gc.ca/fra/a-propos-de-nous/bureaux-et-emplacements/bureau-de-la-verification-et-de-levaluation/rapports-de-verification/?id=1180961458200\">rapports de v\u00e9rification de 2018-2019</a> d\u2019AAC.</p>\n<p>Pour toute question sur les Services de v\u00e9rification interne, veuillez communiquer avec Mary Anne Strong, directrice de la v\u00e9rification interne (<a href=\"mailto:maryanne.strong@canada.ca\">maryanne.strong@canada.ca</a>; 613-773-0669) ou avec Kimberly Saunders, dirigeante principale de la v\u00e9rification (<a href=\"mailto:kimberly.saunders@canada.ca\">kimberly.saunders@canada.ca</a>; 613-773-0322).</p>\n\t\t"
    },
    "breadcrumb": {
        "en": "May is International Internal Audit Awareness Month",
        "fr": "Mai est le mois international de sensibilisation \u00e0 l'audit interne"
    },
    "news": {
        "date_posted": {
            "en": "2019-05-02",
            "fr": "2019-05-02"
        },
        "to": {
            "en": "All staff",
            "fr": "Tous les employ\u00e9s"
        },
        "by": {
            "en": "Kimberly Saunders, Chief Audit Executive, Office of Audit and Evaluation",
            "fr": "Kimberly Saunders, dirigeante principales de la v\u00e9rification, Bureau de la v\u00e9rification et de l'\u00e9valuation"
        }
    }
}