{
    "dcr_id": "1557945177819",
    "lang": "en",
    "title": {
        "en": "Scheduled Maintenance of ISB Services - May 24-26",
        "fr": "Entretien pr\u00e9vu des services de la DGSI - Du 24 au 26 mai"
    },
    "modified": "2019-05-23 00:00:00.0",
    "issued": "2019-05-16 00:00:00.0",
    "type_name": "intra-intra/news-nouv",
    "node_id": "1279030006975",
    "layout_name": null,
    "dc_date_created": "2019-05-15",
    "breadcrumb_label": "",
    "meta": {
        "issued": {
            "en": "2019-05-16",
            "fr": "2019-05-16"
        },
        "modified": {
            "en": "2019-05-23",
            "fr": "2019-05-23"
        },
        "format": {
            "en": "gcformat",
            "fr": "gcformat"
        },
        "title": {
            "en": "Scheduled Maintenance of ISB Services - May 24-26",
            "fr": "Entretien pr\u00e9vu des services de la DGSI - Du 24 au 26 mai"
        },
        "subject": {
            "en": "communications",
            "fr": "communications"
        },
        "description": {
            "en": "Please be advised that preventative maintenance of ISB services will be performed between Friday, May 24 and Sunday, May 26, 2019.",
            "fr": "Veuillez noter qu'un entretien pr\u00e9ventif des services de la DGSI aura lieu du vendredi 24 mai au dimanche 26 mai 2019."
        },
        "language": {
            "en": "eng",
            "fr": "fra"
        },
        "audience": {
            "en": "gcaudience",
            "fr": "gcaudience"
        },
        "creator": {
            "en": "Agriculture and Agri-Food Canada",
            "fr": "Agriculture et Agroalimentaire Canada"
        },
        "spatial": {
            "en": "gcregions",
            "fr": "gcregions"
        },
        "service": {
            "en": "AAFC_AgriSource",
            "fr": "AAC_AgriSource"
        },
        "accessRights": {
            "en": "3",
            "fr": "3"
        }
    },
    "body": {
        "en": "<br>\n<br>\n<p>Please be advised that preventative maintenance of ISB services will be performed between Friday, May 24 and Sunday, May 26, 2019.</p>\n<p>These measures are performed regularly to improve performance and to ensure that the department does not experience any outages that would affect employees and the delivery of our services.</p>\n<p>Consequently, the following services may not be available during the following periods:</p>\n<p><strong>Friday, May 24 \u2013 8:00 p.m. until Sunday, May 26, 2019 \u2013 6:00 a.m. ET</strong></p>\n<p>\u2022\u00a0Personal network drives</p>\n<p>Note: We recommend that you log off at the end of the day on Friday.\u00a0</p>\n<p><strong>Saturday, May 25 \u2013 7:00 a.m. until 9:00 a.m. ET</strong></p>\n<p>\u2022\u00a0Blueprint 2020 blog<br>\n\u2022\u00a0Blueprint 2020 Process Improvement (Lean)<br>\n\u2022\u00a0Blueprint 2020 Dragons\u2019 Den<br>\n\u2022\u00a0CFIA President\u2019s Blog<br>\n\u2022\u00a0Knowledge Workspace<br>\n\u2022\u00a0Market Access Support System (MISB-MASS)<br>\n\u2022\u00a0Proposal Submission System (STB-PSS)</p>\n<p><strong>Saturday, May 25 \u2013 7:00 a.m. until 12:00 p.m. (ET)</strong></p>\n<p>\u2022\u00a0PeopleSoft<br>\n\u2022\u00a0SAP</p>\n<p><strong>Sunday, May 26 \u2013 7:00 a.m. until 10:00 a.m. (ET)</strong></p>\n<p>\u2022\u00a0Agmet-Modelling<br>\n\u2022\u00a0AgriApps<br>\n\u2022\u00a0AgroBase<br>\n\u2022\u00a0Alternative Cropping Systems<br>\n\u2022\u00a0Altiris<br>\n\u2022\u00a0Climex Climate Change Scenarios<br>\n\u2022\u00a0Environment Canada Wind Trajectories<br>\n\u2022\u00a0Green Plan<br>\n\u2022\u00a0Integrated Management of Cropland Pests<br>\n\u2022\u00a0InvertTaxa<br>\n\u2022\u00a0Knowledge Workspace<br>\n\u2022\u00a0Blueprint 2020 Blog<br>\n\u2022\u00a0Blueprint 2020 Process Improvement (Lean)<br>\n\u2022\u00a0Blueprint 2020 Dragons\u2019 Den<br>\n\u2022\u00a0CFIA President\u2019s Blog<br>\n\u2022\u00a0Market Access Support System (MISB-MASS)<br>\n\u2022\u00a0Proposal Submission System (STB-PSS)<br>\n\u2022\u00a0Maximizer<br>\n\u2022\u00a0McAfee Epolicy Orchestrator<br>\n\u2022\u00a0Msang Models<br>\n\u2022\u00a0Msang Armstrong Models<br>\n\u2022\u00a0Prism<br>\n\u2022\u00a0TermBase<br>\n\u2022\u00a0TeamMate - AAFC<br>\n\u2022\u00a0WebSense<br>\n\u2022\u00a0Xerox Printer Management</p>\n<p>Should you have any questions or concerns, please do not hesitate to contact IT Centre TI.</p>\n<p><strong>IT Centre TI</strong><br>\nTelephone: 1-855-545-4411<br>\n<a href=\"http://assystweb:8080/assystnet/#homepage\">My IT Centre TI</a></p>\n<p><img src=\"https://intranet.agr.gc.ca/resources/prod/news/images/ITCentreTI2.png\" class=\"center-block\"></p>\n\n\t\t",
        "fr": "<br>\n<br>\n<p>Veuillez noter qu\u2019un entretien pr\u00e9ventif des services de la DGSI aura lieu du vendredi 17 mai au dimanche 19 mai 2019.</p>\n<p>Ces mesures sont prises r\u00e9guli\u00e8rement en vue d\u2019am\u00e9liorer le rendement et de veiller \u00e0 ce que le Minist\u00e8re ne subisse aucune panne qui pourrait nuire aux employ\u00e9s et \u00e0 la prestation de nos services.</p>\n<p>En cons\u00e9quence, les services suivants ne seront pas accessibles au cours des p\u00e9riodes suivantes :</p>\n<p><strong>Du vendredi 24 mai, \u00e0 20 h, au dimanche 26 mai 2019, \u00e0 6 h (HE)</strong></p>\n<p>\u2022\u00a0Lecteurs r\u00e9seau personnels</p>\n<p>Nota : Nous vous recommandons de fermer votre session \u00e0 la fin de la journ\u00e9e vendredi.</p>\n<p><strong>Le samedi 25 mai - de 7 h \u00e0 10 h (HE)</strong></p>\n<p>\u2022\u00a0Blogue sur Objectif 2020<br>\n\u2022\u00a0Am\u00e9lioration des processus d\u2019Objectif 2020 (Lean)<br>\n\u2022\u00a0Objectif 2020 \u2013 Dans l\u2019\u0153il du dragon<br>\n\u2022\u00a0Blogue du pr\u00e9sident de l\u2019ACIA<br>\n\u2022\u00a0Espace de travail du savoir<br>\n\u2022\u00a0Syst\u00e8me de soutien de l\u2019acc\u00e8s aux march\u00e9s (DGSIM-SSAM)<br>\n\u2022\u00a0Syst\u00e8me de soumission de propositions (GGST-SSP)</p>\n<p><strong>Le samedi 25 mai, de 7 h \u00e0 midi (HE)</strong></p>\n<p>\u2022\u00a0PeopleSoft<br>\n\u2022\u00a0SAP</p>\n<p><strong>Le dimanche 26 mai, de 7 h \u00e0 10 h (HE)</strong></p>\n<p>\u2022\u00a0Agmet-Mod\u00e9lisation<br>\n\u2022\u00a0Agri-applications<br>\n\u2022\u00a0AgroBase<br>\n\u2022\u00a0Syst\u00e8mes de culture de remplacement.<br>\n\u2022\u00a0Altiris<br>\n\u2022\u00a0sc\u00e9narios de changements climatiques Climex<br>\n\u2022\u00a0Trajectoires du vent d\u2019Environnement Canada<br>\n\u2022\u00a0Plan vert<br>\n\u2022\u00a0Gestion int\u00e9gr\u00e9e des ravageurs de cultures<br>\n\u2022\u00a0InvertTaxa<br>\n\u2022\u00a0Espace de travail du savoir<br>\n\u2022\u00a0Blogue sur Objectif 2020<br>\n\u2022\u00a0Am\u00e9lioration des processus d\u2019Objectif 2020 (all\u00e9g\u00e9)<br>\n\u2022\u00a0Objectif 2020 : Dans l\u2019\u0153il du dragon<br>\n\u2022\u00a0Blog de la pr\u00e9sidente de l\u2019ACIA<br>\n\u2022\u00a0Syst\u00e8me de soutien de l\u2019acc\u00e8s aux march\u00e9s (SSAM-DGSIM)<br>\n\u2022\u00a0Syst\u00e8me de pr\u00e9sentation de propositions (SPP-DGST)<br>\n\u2022\u00a0Maximisation<br>\n\u2022\u00a0Logiciel ePolicy Orchestrator de McAfee;<br>\n\u2022\u00a0Mod\u00e8les Msang<br>\n\u2022\u00a0Mod\u00e8les Msang Armstrong<br>\n\u2022\u00a0Prism<br>\n\u2022\u00a0TermBase<br>\n\u2022\u00a0TeamMate \u2013 AAC<br>\n\u2022\u00a0WebSense<br>\n\u2022\u00a0Logiciel de gestion des imprimantes Xerox</p>\n<p>Si vous avez des questions ou des pr\u00e9occupations \u00e0 ce sujet, n\u2019h\u00e9sitez pas \u00e0 communiquer avec le IT Centre TI.</p>\n<p><strong>IT Centre TI</strong><br>\nT\u00e9l\u00e9phone : 1-855-545-4411<br>\n<a href=\"http://assystweb:8080/assystnet/#homepage\">Mon IT Centre TI</a></p>\n<p><img src=\"https://intranet.agr.gc.ca/resources/prod/news/images/ITCentreTI2.png\" class=\"center-block\"></p>\n\t\t"
    },
    "breadcrumb": {
        "en": "Scheduled Maintenance of ISB Services - May 24-26",
        "fr": "Entretien pr\u00e9vu des services de la DGSI - Du 24 au 26 mai"
    },
    "news": {
        "date_posted": {
            "en": "2019-05-16",
            "fr": "2019-05-16"
        },
        "to": {
            "en": "All staff",
            "fr": "Tous les employ\u00e9s"
        },
        "by": {
            "en": "IT Centre TI",
            "fr": "IT Centre TI"
        }
    }
}