{
    "dcr_id": "1559914892762",
    "lang": "en",
    "title": {
        "en": "NCR - Parking Garage",
        "fr": "RCN - Stationnement int\u00e9rieur"
    },
    "modified": "2019-06-13 00:00:00.0",
    "issued": "2019-06-13 00:00:00.0",
    "type_name": "intra-intra/news-nouv",
    "node_id": "1279030006975",
    "layout_name": null,
    "dc_date_created": "2019-06-10",
    "breadcrumb_label": "",
    "meta": {
        "issued": {
            "en": "2019-06-13",
            "fr": "2019-06-13"
        },
        "modified": {
            "en": "2019-06-13",
            "fr": "2019-06-13"
        },
        "format": {
            "en": "gcformat",
            "fr": "gcformat"
        },
        "title": {
            "en": "NCR - Parking Garage",
            "fr": "RCN - Stationnement int\u00e9rieur"
        },
        "subject": {
            "en": "communications",
            "fr": "communications"
        },
        "description": {
            "en": "Please be advised that the parking garage will be closed for cleaning Saturday, June 15 and Sunday, June 16.",
            "fr": "Veuillez prendre note que le stationnement int\u00e9rieur sera ferm\u00e9 pour le nettoyage le samedi 15 juin et le dimanche 16 juin."
        },
        "language": {
            "en": "eng",
            "fr": "fra"
        },
        "audience": {
            "en": "gcaudience",
            "fr": "gcaudience"
        },
        "creator": {
            "en": "Agriculture and Agri-Food Canada",
            "fr": "Agriculture et Agroalimentaire Canada"
        },
        "spatial": {
            "en": "gcregions",
            "fr": "gcregions"
        },
        "service": {
            "en": "AAFC_AgriSource",
            "fr": "AAC_AgriSource"
        },
        "accessRights": {
            "en": "3",
            "fr": "3"
        }
    },
    "body": {
        "en": "<br>\n<br>\n<p>Please be advised that the parking garage will be closed for cleaning Saturday, June 15 and Sunday, June 16. Maple Leaf Property Management is <a href=\"pcdocs://AAFCAAC/104821876/1\">requesting</a>\u00a0(PDF) that all vehicles, including crown automobiles, be parked outside of the structure during this time.</p>\n<p><img src=\"https://intranet.agr.gc.ca/resources/prod/news/images/MapleLeafProperty.png\" class=\"center-block\"></p>\n\n\t\t",
        "fr": "<br>\n<br>\n<p>Veuillez prendre note que le stationnement int\u00e9rieur sera ferm\u00e9 pour le nettoyage le samedi 15 juin et le dimanche 16 juin. Maple Leaf Property Management <a href=\"pcdocs://AAFCAAC/104821876/1\">demande</a> (PDF) que tous les v\u00e9hicules, y compris les voitures de l\u2019\u00c9tat, soient stationn\u00e9s \u00e0 l\u2019ext\u00e9rieur de la structure pendant cette p\u00e9riode.</p>\n<p><img src=\"https://intranet.agr.gc.ca/resources/prod/news/images/MapleLeafProperty.png\" class=\"center-block\"></p>\n\t\t"
    },
    "breadcrumb": {
        "en": "NCR - Parking Garage",
        "fr": "RCN - Stationnement int\u00e9rieur"
    },
    "news": {
        "date_posted": {
            "en": "2019-06-12",
            "fr": "2019-06-12"
        },
        "to": {
            "en": "NCR only",
            "fr": "RCN seulement"
        },
        "by": {
            "en": "Maple Leaf Property Management",
            "fr": "Maple Leaf Property Management"
        }
    }
}