{
    "dcr_id": "1559832156570",
    "lang": "en",
    "title": {
        "en": "NCR - Meet-and-Greet with the Minister",
        "fr": "RCN - Rencontre avec la ministre"
    },
    "modified": "2019-06-06 00:00:00.0",
    "issued": "2019-06-06 00:00:00.0",
    "type_name": "intra-intra/news-nouv",
    "node_id": "1279030006975",
    "layout_name": null,
    "dc_date_created": "2019-06-06",
    "breadcrumb_label": "",
    "meta": {
        "issued": {
            "en": "2019-06-06",
            "fr": "2019-06-06"
        },
        "modified": {
            "en": "2019-06-06",
            "fr": "2019-06-06"
        },
        "format": {
            "en": "gcformat",
            "fr": "gcformat"
        },
        "title": {
            "en": "NCR - Meet-and-Greet with the Minister",
            "fr": "RCN - Rencontre avec la ministre"
        },
        "subject": {
            "en": "communications",
            "fr": "communications"
        },
        "description": {
            "en": "Minister Bibeau will help kick off National Public Service Week, a week-long event where public servants come together to take part in various activities and celebrations.",
            "fr": "La ministre Bibeau donnera le coup d'envoi \u00e0 la Semaine nationale de la fonction publique, un \u00e9v\u00e9nement d'une semaine o\u00f9 les fonctionnaires se rassemblent et participent \u00e0 diverses activit\u00e9s et festivit\u00e9s."
        },
        "language": {
            "en": "eng",
            "fr": "fra"
        },
        "audience": {
            "en": "gcaudience",
            "fr": "gcaudience"
        },
        "creator": {
            "en": "Agriculture and Agri-Food Canada",
            "fr": "Agriculture et Agroalimentaire Canada"
        },
        "spatial": {
            "en": "gcregions",
            "fr": "gcregions"
        },
        "service": {
            "en": "AAFC_AgriSource",
            "fr": "AAC_AgriSource"
        },
        "accessRights": {
            "en": "3",
            "fr": "3"
        }
    },
    "body": {
        "en": "<br>\n<br>\n<p><img src=\"https://intranet.agr.gc.ca/resources/prod/news/images/MinBibeau.png\" class=\"pull-left mrgn-rght-md\">Minister Bibeau will help kick off <em>National Public Service Week</em>, a week-long event where public servants come together to take part in various activities and celebrations.</p>\n<p>These festivities serve to recognize and commemorate the efforts and accomplishments made by employees across the Government. You\u2019ll have the opportunity to engage with your Minister and fellow colleagues.</p>\n<p>You are invited to come and meet with her and make some new acquaintances.</p>\n<h2><strong>Event information</strong></h2>\n<p><strong>Date: </strong>Monday, June 10<br><strong>Time:</strong> 10:15 \u2013 11:00 am<br><strong>Location: </strong>NHCAP Tower 6 cafeteria</p>\n<p>\u00a0</p>\n\n\t\t",
        "fr": "<br>\n<br>\n<p><img src=\"https://intranet.agr.gc.ca/resources/prod/news/images/MinBibeau.png\" class=\"pull-left mrgn-rght-md\">La ministre Bibeau donnera le coup d\u2019envoi \u00e0 la <em>Semaine nationale de la fonction publique</em>, un \u00e9v\u00e9nement d\u2019une semaine o\u00f9 les fonctionnaires se rassemblent et participent \u00e0 diverses activit\u00e9s et festivit\u00e9s.</p>\n<p>Ces festivit\u00e9s servent \u00e0 souligner les efforts et les r\u00e9alisations des employ\u00e9s de l\u2019ensemble du gouvernement. Vous aurez l\u2019occasion d\u2019\u00e9changer avec votre ministre ainsi qu\u2019avec vos coll\u00e8gues.</p>\n<p>Vous \u00eates invit\u00e9s \u00e0 venir la rencontrer et \u00e0 faire de nouvelles connaissances.</p>\n<h2><strong>Information sur l\u2019\u00e9v\u00e9nement</strong></h2>\n<p><strong>Date : </strong>Lundi 10 juin<br><strong>Dur\u00e9e :</strong> 10 h 15 \u00e0 11 h<br><strong>Lieu : </strong>CACPA, caf\u00e9t\u00e9ria de la Tour 6</p>\n\t\t"
    },
    "breadcrumb": {
        "en": "NCR - Meet-and-Greet with the Minister",
        "fr": "RCN - Rencontre avec la ministre"
    },
    "news": {
        "date_posted": {
            "en": "2019-06-06",
            "fr": "2019-06-06"
        },
        "to": {
            "en": "NCR only",
            "fr": "Tous les employ\u00e9s"
        },
        "by": {
            "en": "Public Affairs Branch",
            "fr": "Direction g\u00e9n\u00e9rale des affaires publiques"
        }
    }
}