{
    "dcr_id": "1559836560933",
    "lang": "en",
    "title": {
        "en": "Final Report - National Inquiry into Missing and Murdered Indigenous Women and Girls",
        "fr": "Rapport final - Enqu\u00eate nationale sur les femmes et les filles autochtones disparues et assassin\u00e9es "
    },
    "modified": "2019-06-06 00:00:00.0",
    "issued": "2019-06-06 00:00:00.0",
    "type_name": "intra-intra/news-nouv",
    "node_id": "1279030006975",
    "layout_name": null,
    "dc_date_created": "2019-06-06",
    "breadcrumb_label": "",
    "meta": {
        "issued": {
            "en": "2019-06-06",
            "fr": "2019-06-06"
        },
        "modified": {
            "en": "2019-06-06",
            "fr": "2019-06-06"
        },
        "format": {
            "en": "gcformat",
            "fr": "gcformat"
        },
        "title": {
            "en": "Final Report - National Inquiry into Missing and Murdered Indigenous Women and Girls",
            "fr": "Rapport final - Enqu\u00eate nationale sur les femmes et les filles autochtones disparues et assassin\u00e9es "
        },
        "subject": {
            "en": "communications",
            "fr": "communications"
        },
        "description": {
            "en": "On June 3, 2019, the National Inquiry into Missing and Murdered Indigenous Women and Girls presented its Final Report, Reclaiming Power and Place, to the federal, provincial and territorial governments at a public closing ceremony at the Canadian Museum of History in Gatineau, Quebec.",
            "fr": "Le 3 juin 2019, l'Enqu\u00eate nationale sur les femmes et les filles autochtones disparues et assassin\u00e9es a pr\u00e9sent\u00e9 son rapport final, R\u00e9clamer notre pouvoir et notre place, aux gouvernements f\u00e9d\u00e9ral, provinciaux et territoriaux lors d\u2019une c\u00e9r\u00e9monie publique de cl\u00f4ture au Mus\u00e9e canadien d'histoire \u00e0 Gatineau (Qu\u00e9bec)."
        },
        "language": {
            "en": "eng",
            "fr": "fra"
        },
        "audience": {
            "en": "gcaudience",
            "fr": "gcaudience"
        },
        "creator": {
            "en": "Agriculture and Agri-Food Canada",
            "fr": "Agriculture et Agroalimentaire Canada"
        },
        "spatial": {
            "en": "gcregions",
            "fr": "gcregions"
        },
        "service": {
            "en": "AAFC_AgriSource",
            "fr": "AAC_AgriSource"
        },
        "accessRights": {
            "en": "3",
            "fr": "3"
        }
    },
    "body": {
        "en": "<br>\n<br>\n<p>On June 3, 2019, the National Inquiry into Missing and Murdered Indigenous Women and Girls presented its Final Report, <em>Reclaiming Power and Place</em>, to the federal, provincial and territorial governments at a public closing ceremony at the Canadian Museum of History in Gatineau, Quebec.</p>\n<p>This is an occasion for all of us to further reflect on the disproportionate rates of violence and victimization among all Indigenous women, girls, and LGBTQ and Two-Spirit People, and on the concrete actions we need to take to improve this unacceptable situation.</p>\n<p>It is important that public servants who may be impacted by the release of the Inquiry\u2019s Final Report feel supported and are informed about the variety of emotional supports that are available.</p>\n<ul>\n<li>All employees can access the <a href=\"http://intranet.agr.gc.ca/agrisource/eng/human-resources/employee-and-family-assistance-program?id=1287673689033\">Employee Assistance Program</a> (EAP) should you wish to talk to a counselor.</li>\n<li>Culturally competent crisis intervention counselling can be accessed through the <a href=\"https://www.canada.ca/en/indigenous-services-canada/services/first-nations-inuit-health/health-promotion/mental-health-wellness/first-nations-inuit-hope-for-wellness-help-line.html\">Hope for Wellness Help Line</a> at 1-855-242-3310 or chat online at hopeforwellness.ca</li>\n<li>Survivors, family members and those affected by the issue of missing and murdered Indigenous women and girls can access immediate emotional assistance, by calling 1-844-413-6649. This is a national, toll-free 24/7 crisis call line providing support for anyone who requires emotional assistance related to missing and murdered Indigenous women and girls. You can also access long-term <a href=\"https://www.rcaanc-cirnac.gc.ca/eng/1548700698392/1548701361628\">health support services</a> such as mental health counselling and community.</li>\n</ul>\n<p>We ask managers and employees to show support during this time.</p>\n<p>Merci / Thank you / Ekosani / Miigwech / Meegwetch / Mahseecho / Marsee / Mutna / Wopida / Hei Hei / Marci Cho / \u1581\u140a\u14c7\u1585\u146f\u144e\u1466 / Quanaqqutit / Nakurmik / Kukwsts\u00e9tsemc / Woliwun</p>\n<p>\u00a0</p>\n<p>Indigenous Network Circle Co-Chairs</p>\n<p>\u00a0<img src=\"https://intranet.agr.gc.ca/resources/prod/news/images/IndigenousNetworkCircleBanner-EN.png\" class=\"center-block\"></p>\n\n\t\t",
        "fr": "<br>\n<br>\n<p>Le 3 juin 2019, l\u2019Enqu\u00eate nationale sur les femmes et les filles autochtones disparues et assassin\u00e9es a pr\u00e9sent\u00e9 son rapport final, <em>R\u00e9clamer notre pouvoir et notre place</em>, aux gouvernements f\u00e9d\u00e9ral, provinciaux et territoriaux lors d\u2019une c\u00e9r\u00e9monie publique de cl\u00f4ture au Mus\u00e9e canadien d\u2019histoire \u00e0 Gatineau (Qu\u00e9bec).</p>\n<p>C'est une occasion pour nous tous de r\u00e9fl\u00e9chir aux taux disproportionn\u00e9s de violence et de victimisation chez les femmes et les filles autochtones et les personnes LGBTQ et bispirituelles, ainsi qu\u2019aux mesures concr\u00e8tes que nous devons prendre pour am\u00e9liorer cette situation inacceptable.</p>\n<p>Il est important que les fonctionnaires qui pourraient \u00eatre touch\u00e9s par la publication du rapport final de l\u2019Enqu\u00eate se sentent appuy\u00e9s et qu\u2019ils soient inform\u00e9s au sujet des divers soutiens \u00e9motionnels offerts.</p>\n<ul>\n<li>Tous les employ\u00e9s peuvent se pr\u00e9valoir du <a href=\"http://intranet.agr.gc.ca/agrisource/fra/ressources-humaines/programme-daide-aux-employes-et-a-la-famille?id=1287673689033\">Programme d\u2019aide aux employ\u00e9s</a> (PAE) s\u2019ils d\u00e9sirent parler \u00e0 un conseiller.</li>\n<li>Des services de counseling en cas de crise adapt\u00e9s \u00e0 la culture sont offerts par l\u2019entremise de la ligne d\u2019aide <a href=\"https://www.canada.ca/fr/services-autochtones-canada/services/sante-premieres-nations-inuits/promotion-sante/sante-mentale-bien-etre/ligne-ecoute-espoir-mieux-etre-premieres-nations-inuits.html\">Espoir pour le mieux-\u00eatre</a> au 1-855-242-3310 ou par clavardage en ligne \u00e0 <a href=\"http://www.espoirpourlemieuxetre.ca/\">www.espoirpourlemieuxetre.ca</a>.</li>\n<li>Les survivantes, les membres de leur famille et les personnes touch\u00e9es par la question des femmes et des filles autochtones disparues et assassin\u00e9es peuvent obtenir une aide \u00e9motionnelle imm\u00e9diate en composant le 1-844-413-6649. Il s\u2019agit d\u2019une ligne d\u2019appel d\u2019urgence nationale sans frais, accessible 24 heures sur 24, 7 jours sur 7, qui offre du soutien \u00e0 toute personne qui a besoin d\u2019une aide \u00e9motionnelle concernant les femmes et les filles autochtones disparues et assassin\u00e9es. Vous pouvez \u00e9galement acc\u00e9der \u00e0 des <a href=\"https://www.rcaanc-cirnac.gc.ca/fra/1548700698392/1548701361628\">services de soutien \u00e0 la sant\u00e9</a> \u00e0 long terme, comme le counselling en sant\u00e9 mentale et le soutien communautaire.</li>\n</ul>\n<p>Nous demandons aux gestionnaires et aux employ\u00e9s de faire preuve de compassion en cette p\u00e9riode difficile.</p>\n<p>Merci / Thank you / Ekosani / Miigwech / Meegwetch / Mahseecho / Marsee / Mutna / Wopida / Hei Hei / Marci Cho / \u1581\u140a\u14c7\u1585\u146f\u144e\u1466 / Quanaqqutit / Nakurmik / Kukwsts\u00e9tsemc / Woliwun</p>\n<p>\u00a0</p>\n<p>Co-pr\u00e9sidents, Cercle de r\u00e9seautage des employ\u00e9s autochtones</p>\n<p><img src=\"https://intranet.agr.gc.ca/resources/prod/news/images/IndigenousNetworkCircle-FR.png\" class=\"center-block\"></p>\n\t\t"
    },
    "breadcrumb": {
        "en": "Final Report - National Inquiry into Missing and Murdered Indigenous Women and Girls",
        "fr": "Rapport final - Enqu\u00eate nationale sur les femmes et les filles autochtones disparues et assassin\u00e9es"
    },
    "news": {
        "date_posted": {
            "en": "2019-06-06",
            "fr": "2019-06-06"
        },
        "to": {
            "en": "All staff",
            "fr": "Tous les employ\u00e9s"
        },
        "by": {
            "en": "Indigenous Network Circle Co-Chairs",
            "fr": "Co-pr\u00e9sidents, Cercle de r\u00e9seautage des employ\u00e9s autochtones"
        }
    }
}