{
    "dcr_id": "1559050277977",
    "lang": "en",
    "title": {
        "en": "Scheduled Maintenance of ISB Services (AgriDoc) - June 1",
        "fr": "Entretien pr\u00e9vu des services de la DGSI (AgriDoc) - 1<sup>er</sup> juin"
    },
    "modified": "2019-05-30 00:00:00.0",
    "issued": "2019-05-30 00:00:00.0",
    "type_name": "intra-intra/news-nouv",
    "node_id": "1279030006975",
    "layout_name": null,
    "dc_date_created": "2019-05-28",
    "breadcrumb_label": "",
    "meta": {
        "issued": {
            "en": "2019-05-30",
            "fr": "2019-05-30"
        },
        "modified": {
            "en": "2019-05-30",
            "fr": "2019-05-30"
        },
        "format": {
            "en": "gcformat",
            "fr": "gcformat"
        },
        "title": {
            "en": "Scheduled Maintenance of ISB Services (AgriDoc) - June 1",
            "fr": "Entretien pr\u00e9vu des services de la DGSI (AgriDoc) - 1<sup>er</sup> juin"
        },
        "subject": {
            "en": "communications",
            "fr": "communications"
        },
        "description": {
            "en": "Please be advised that preventative maintenance of ISB services will be performed on Saturday, June 1, 2019.",
            "fr": "Veuillez noter qu'un entretien pr\u00e9ventif des services de la DGSI aura lieu le samedi 1er juin 2019."
        },
        "language": {
            "en": "eng",
            "fr": "fra"
        },
        "audience": {
            "en": "gcaudience",
            "fr": "gcaudience"
        },
        "creator": {
            "en": "Agriculture and Agri-Food Canada",
            "fr": "Agriculture et Agroalimentaire Canada"
        },
        "spatial": {
            "en": "gcregions",
            "fr": "gcregions"
        },
        "service": {
            "en": "AAFC_AgriSource",
            "fr": "AAC_AgriSource"
        },
        "accessRights": {
            "en": "3",
            "fr": "3"
        }
    },
    "body": {
        "en": "<br>\n<br>\n<p>Please be advised that preventative maintenance of ISB services will be performed on Saturday, June 1, 2019.</p>\n<p>Consequently, <strong>AgriDoc</strong> will not be available between <strong>8:00 a.m. and 12:00 p.m. (ET)</strong> on that day.</p>\n<p>These measures are performed regularly to improve performance and to ensure that the department does not experience any outages that would affect employees and the delivery of our services.</p>\n<p>Should you have any questions or concerns, please do not hesitate to contact IT Centre TI.</p>\n<p><strong>IT Centre TI</strong><br>\nTelephone: 1-855-545-4411<br>\n<a href=\"http://assystweb:8080/assystnet/#homepage\">My IT Centre TI</a></p>\n<p><img src=\"https://intranet.agr.gc.ca/resources/prod/news/images/ITCentreTI2.png\" class=\"center-block\"></p>\n\n\t\t",
        "fr": "<br>\n<br>\n<p>Veuillez noter qu\u2019un entretien pr\u00e9ventif des services de la DGSI aura lieu le samedi 1er juin 2019.</p>\n<p>Par cons\u00e9quent, <strong>AgriDoc </strong>ne sera pas disponible entre <strong>8 h et 12 h (HE).</strong></p>\n<p>Ces mesures sont prises r\u00e9guli\u00e8rement pour am\u00e9liorer le rendement des syst\u00e8mes et veiller \u00e0 ce que le Minist\u00e8re ne subisse pas de panne pouvant nuire aux employ\u00e9s et \u00e0 la prestation de nos services.</p>\n<p>Si vous avez des questions et des pr\u00e9occupations \u00e0 ce sujet, n\u2019h\u00e9sitez pas \u00e0 communiquer avec le Centre TI.</p>\n<p><strong>IT Centre TI</strong><br>\nT\u00e9l\u00e9phone : 1-855-545-4411<br>\n<a href=\"http://assystweb:8080/assystnet/#homepage\">Mon IT Centre TI</a></p>\n<p><img src=\"https://intranet.agr.gc.ca/resources/prod/news/images/ITCentreTI2.png\" class=\"center-block\"></p>\n\t\t"
    },
    "breadcrumb": {
        "en": "Scheduled Maintenance of ISB Services (AgriDoc) - June 1",
        "fr": "Entretien pr\u00e9vu des services de la DGSI (AgriDoc) - 1er juin"
    },
    "news": {
        "date_posted": {
            "en": "2019-05-28",
            "fr": "2019-05-28"
        },
        "to": {
            "en": "All staff",
            "fr": "Tous les employ\u00e9s"
        },
        "by": {
            "en": "IT Centre TI",
            "fr": "IT Centre TI"
        }
    }
}