{
    "dcr_id": "1560357618678",
    "lang": "en",
    "title": {
        "en": "This Week in The Harvest - \"On the Job\" - Celebrating AAFC\u2019s Dedicated Public Servants",
        "fr": "Au menu de La Moisson cette semaine - Au travail - Hommage aux fonctionnaires d\u00e9vou\u00e9s d\u2019AAC"
    },
    "modified": "2019-06-13 00:00:00.0",
    "issued": "2019-06-13 00:00:00.0",
    "type_name": "intra-intra/news-nouv",
    "node_id": "1279030006975",
    "layout_name": null,
    "dc_date_created": "2019-06-12",
    "breadcrumb_label": "",
    "meta": {
        "issued": {
            "en": "2019-06-13",
            "fr": "2019-06-13"
        },
        "modified": {
            "en": "2019-06-13",
            "fr": "2019-06-13"
        },
        "format": {
            "en": "gcformat",
            "fr": "gcformat"
        },
        "title": {
            "en": "This Week in The Harvest - \"On the Job\" - Celebrating AAFC\u2019s Dedicated Public Servants",
            "fr": "Au menu de La Moisson cette semaine - Au travail - Hommage aux fonctionnaires d\u00e9vou\u00e9s d\u2019AAC"
        },
        "subject": {
            "en": "communications",
            "fr": "communications"
        },
        "description": {
            "en": "In case you missed it, here's what's new in The Harvest this week.",
            "fr": "Au cas o\u00f9 vous l'auriez manqu\u00e9, voici le menu que la section La Moisson vous offre cette semaine."
        },
        "language": {
            "en": "eng",
            "fr": "fra"
        },
        "audience": {
            "en": "gcaudience",
            "fr": "gcaudience"
        },
        "creator": {
            "en": "Agriculture and Agri-Food Canada",
            "fr": "Agriculture et Agroalimentaire Canada"
        },
        "spatial": {
            "en": "gcregions",
            "fr": "gcregions"
        },
        "service": {
            "en": "AAFC_AgriSource",
            "fr": "AAC_AgriSource"
        },
        "accessRights": {
            "en": "3",
            "fr": "3"
        }
    },
    "body": {
        "en": "<br>\n<br>\n<p>In case you missed it, here\u2019s what\u2019s new in <a href=\"https://collab.agr.gc.ca/apps/harvest-moisson\"><em>The Harvest</em></a> this week:</p>\n<p><strong>Feature story:</strong> <a href=\"https://collab.agr.gc.ca/apps/harvest-moisson/\">\u201cOn the Job\u201d \u2013 Celebrating AAFC\u2019s Dedicated Public Servants </a>\u2013 It\u2019s time to celebrate National Public Service Week. From June 10-14, public servants are recognized for their dedication and contributions to Canada and Canadians.</p>\n<p><strong>Poll: </strong><a href=\"https://collab.agr.gc.ca/apps/harvest-moisson/\">How long have you been with AAFC?</a></p>\n<p><strong>Feature photo: </strong><a href=\"https://collab.agr.gc.ca/apps/harvest-moisson/gallery/Lists/Posts/Post.aspx?ID=305\">Great Horned Owls in Summerland,</a> by Robyn DeYoung, Science and Technology Branch, Summerland, British Columbia</p>\n<p><strong>Did you know?</strong> The Canadian public service is <a href=\"https://collab.agr.gc.ca/apps/harvest-moisson/Pages/didyouknow.aspx\">recognized internationally</a> as being one of the most effective public services.</p>\n<p>You can get involved by posting a comment or \u201cliking\u201d an article. You can also check out what your colleagues are liking and saying.</p>\n<p>Should you have story ideas, scenic or artistic agriculture-related photos, or interesting facts, please share them with us by clicking on \u201cContribute\u201d in the top menu bar.</p>\n<p><img src=\"https://intranet.agr.gc.ca/resources/prod/news/images/npswcollage.png\" class=\"center-block\"></p>\n\n\t\t",
        "fr": "<br>\n<br>\n<p>Au cas o\u00f9 vous l\u2019auriez manqu\u00e9, voici le menu que la section <a href=\"https://collab.agr.gc.ca/apps/harvest-moisson\"><em>La Moisson</em></a> vous offre cette semaine :</p>\n<p><strong>Article vedette :</strong> <a href=\"https://collab.agr.gc.ca/apps/harvest-moisson/\">Au travail \u2013 Hommage aux fonctionnaires d\u00e9vou\u00e9s d\u2019AAC </a> - C\u2019est le moment de c\u00e9l\u00e9brer la Semaine nationale de la fonction publique. Du 10 au 14 juin, les fonctionnaires sont reconnus pour leur d\u00e9vouement et leur contribution au Canada et au service des Canadiens</p>\n<p><strong>Sondage : </strong><a href=\"https://collab.agr.gc.ca/apps/harvest-moisson/\">Depuis combien de temps travaillez-vous \u00e0 AAC?</a></p>\n<p><strong>Photo vedette :</strong> <a href=\"https://collab.agr.gc.ca/apps/harvest-moisson/gallery/Lists/Posts/Post.aspx?ID=305\">Grands-ducs d\u2019Am\u00e9rique \u00e0 Summerland</a>, par Robyn DeYoung, Direction g\u00e9n\u00e9rale des sciences et de la technologie, Summerland (Colombie Britannique)</p>\n<p><strong>Le saviez-vous?</strong> La fonction publique du Canada est <a href=\"https://collab.agr.gc.ca/apps/harvest-moisson/Pages/didyouknow.aspx\">reconnue \u00e0 l\u2019\u00e9chelle internationale</a> comme l\u2019une des fonctions publiques les plus efficaces.</p>\n<p>Vous pouvez participer en affichant des commentaires ou en utilisant la fonction \u00ab J\u2019aime \u00bb ou \u00ab Partager \u00bb pour exprimer votre appr\u00e9ciation d\u2019un article. Vous pouvez aussi aller voir ce que vos coll\u00e8gues aiment et ont \u00e0 dire.</p>\n<p>Si vous avez des id\u00e9es d\u2019articles, des photos de paysages ou \u00e0 caract\u00e8re artistique li\u00e9es \u00e0 l\u2019agriculture ou encore des faits int\u00e9ressants, veuillez nous en faire part en cliquant sur \u00ab Collaborer \u00bb dans la barre de menu en haut de la page.</p>\n<p><img src=\"https://intranet.agr.gc.ca/resources/prod/news/images/npswcollage.png\" class=\"center-block\"></p>\n\t\t"
    },
    "breadcrumb": {
        "en": "This Week in The Harvest - \"On the Job\" - Celebrating AAFC\u2019s Dedicated Public Servants",
        "fr": "Au menu de La Moisson cette semaine- Au travail - Hommage aux fonctionnaires d\u00e9vou\u00e9s d\u2019AAC"
    },
    "news": {
        "date_posted": {
            "en": "2019-06-13",
            "fr": "2019-06-13"
        },
        "to": {
            "en": "All staff",
            "fr": "Tous les employ\u00e9s"
        },
        "by": {
            "en": "Corporate Communications, Public Affairs Branch",
            "fr": "Communications minist\u00e9rielles, Direction g\u00e9n\u00e9rale des affaires publiques"
        }
    }
}