{
    "dcr_id": "1560253637835",
    "lang": "en",
    "title": {
        "en": "Update WhatsApp Messenger on Your Work Mobile Device",
        "fr": "Mettez \u00e0 jour WhatsApp Messenger sur votre appareil mobile de travail "
    },
    "modified": "2019-06-13 00:00:00.0",
    "issued": "2019-06-13 00:00:00.0",
    "type_name": "intra-intra/news-nouv",
    "node_id": "1279030006975",
    "layout_name": null,
    "dc_date_created": "2019-06-11",
    "breadcrumb_label": "",
    "meta": {
        "issued": {
            "en": "2019-06-13",
            "fr": "2019-06-13"
        },
        "modified": {
            "en": "2019-06-13",
            "fr": "2019-06-13"
        },
        "format": {
            "en": "gcformat",
            "fr": "gcformat"
        },
        "title": {
            "en": "Update WhatsApp Messenger on Your Work Mobile Device",
            "fr": "Mettez \u00e0 jour WhatsApp Messenger sur votre appareil mobile de travail "
        },
        "subject": {
            "en": "communications",
            "fr": "communications"
        },
        "description": {
            "en": "If you have WhatsApp Messenger installed on your AAFC work mobile device, you should update the application as soon as possible.",
            "fr": "Si l'application WhatsApp Messenger est install\u00e9e sur votre appareil mobile fourni par AAC, vous devez la mettre \u00e0 jour d\u00e8s que possible."
        },
        "language": {
            "en": "eng",
            "fr": "fra"
        },
        "audience": {
            "en": "gcaudience",
            "fr": "gcaudience"
        },
        "creator": {
            "en": "Agriculture and Agri-Food Canada",
            "fr": "Agriculture et Agroalimentaire Canada"
        },
        "spatial": {
            "en": "gcregions",
            "fr": "gcregions"
        },
        "service": {
            "en": "AAFC_AgriSource",
            "fr": "AAC_AgriSource"
        },
        "accessRights": {
            "en": "3",
            "fr": "3"
        }
    },
    "body": {
        "en": "<br>\n<br>\n<p>If you have WhatsApp Messenger installed on your AAFC work mobile device, you should update the application as soon as possible. This update will address a recently discovered malware issue with the application and protect your phone data.</p>\n<p>To update the application on your Android device:</p>\n<ul>\n<li>Go to the Play Store</li>\n<li>\nClick on the Menu in the top left corner</li>\n<li>Select \u201cMy apps &amp; games\u201d</li>\n<li>Find WhatsApp Messenger. If the application is not listed or if the button next to it says \u201cOpen,\u201d this means the application has already been updated. Otherwise, click on the \u201cUpdate\u201d button to install the latest version of the application.</li>\n</ul>\n<p>Should you have any questions or concerns, contact IT Centre TI at 1-855-545-4411 or through <a href=\"http://assystweb:8080/assystnet/#homepage\">My IT Centre</a>.</p>\n<p><img src=\"https://intranet.agr.gc.ca/resources/prod/news/images/ITCentreTI2.png\" class=\"center-block\"></p>\n\n\t\t",
        "fr": "<br>\n<br>\n<p>Si l\u2019application WhatsApp Messenger est install\u00e9e sur votre appareil mobile fourni par AAC, vous devez la mettre \u00e0 jour d\u00e8s que possible. La mise \u00e0 jour r\u00e9glera un probl\u00e8me de logiciel malveillant d\u00e9couvert r\u00e9cemment et prot\u00e9gera les donn\u00e9es de votre t\u00e9l\u00e9phone.</p>\n<p>Pour mettre l\u2019application \u00e0 jour sur votre appareil Android :</p>\n<ul>\n<li>\nOuvrez Play Store.</li>\n<li>Appuyez sur l\u2019ic\u00f4ne de menu dans le coin sup\u00e9rieur gauche.</li>\n<li>\nS\u00e9lectionnez \u00ab Mes applications et mes jeux \u00bb.</li>\n<li>\nTrouvez WhatsApp Messenger. Si l\u2019application n\u2019est pas r\u00e9pertori\u00e9e ou si le bouton qui se trouve \u00e0 c\u00f4t\u00e9 d\u2019elle indique \u00ab Ouvrir \u00bb, l\u2019application a d\u00e9j\u00e0 \u00e9t\u00e9 mise \u00e0 jour. Sinon, cliquez sur le bouton \u00ab Mettre \u00e0 jour \u00bb pour installer la plus r\u00e9cente version de l\u2019application.</li>\n</ul>\n<p>Si vous avez des questions ou des pr\u00e9occupations \u00e0 ce sujet, veuillez communiquer avec le Centre TI par t\u00e9l\u00e9phone au 1-855-545-4411 ou au moyen de <a href=\"http://assystweb:8080/assystnet/#homepage\">Mon Centre TI</a>.</p>\n<p><img src=\"https://intranet.agr.gc.ca/resources/prod/news/images/ITCentreTI2.png\" class=\"center-block\"></p>\n\t\t"
    },
    "breadcrumb": {
        "en": "Update WhatsApp Messenger on Your Work Mobile Device",
        "fr": "Mettez \u00e0 jour WhatsApp Messenger sur votre appareil mobile de travail"
    },
    "news": {
        "date_posted": {
            "en": "2019-06-11",
            "fr": "2019-06-11"
        },
        "to": {
            "en": "All staff",
            "fr": "Tous les employ\u00e9s"
        },
        "by": {
            "en": "IT Centre TI",
            "fr": "IT Centre TI"
        }
    }
}