{
    "dcr_id": "1561739946922",
    "lang": "en",
    "title": {
        "en": "Security 101: Tips on What to Do in the Event of an Armed Intruder",
        "fr": "Notions de base de s\u00e9curit\u00e9 : Quoi faire en pr\u00e9sence d'un intrus arm\u00e9"
    },
    "modified": "2019-07-04 00:00:00.0",
    "issued": "2019-07-04 00:00:00.0",
    "type_name": "intra-intra/news-nouv",
    "node_id": "1279030006975",
    "layout_name": null,
    "dc_date_created": "2019-07-02",
    "breadcrumb_label": "",
    "meta": {
        "issued": {
            "en": "2019-07-04",
            "fr": "2019-07-04"
        },
        "modified": {
            "en": "2019-07-04",
            "fr": "2019-07-04"
        },
        "format": {
            "en": "gcformat",
            "fr": "gcformat"
        },
        "title": {
            "en": "Security 101: Tips on What to Do in the Event of an Armed Intruder",
            "fr": "Notions de base de s\u00e9curit\u00e9 : Quoi faire en pr\u00e9sence d'un intrus arm\u00e9"
        },
        "subject": {
            "en": "communications",
            "fr": "communications"
        },
        "description": {
            "en": "While the likelihood of facing an armed intruder in the workplace is remote, it is important to make sure that you are prepared.",
            "fr": "Bien que la probabilit\u00e9 de faire face \u00e0 un intrus arm\u00e9 au travail soit faible, il est important de s'assurer que vous \u00eates pr\u00eat."
        },
        "language": {
            "en": "eng",
            "fr": "fra"
        },
        "audience": {
            "en": "gcaudience",
            "fr": "gcaudience"
        },
        "creator": {
            "en": "Agriculture and Agri-Food Canada",
            "fr": "Agriculture et Agroalimentaire Canada"
        },
        "spatial": {
            "en": "gcregions",
            "fr": "gcregions"
        },
        "service": {
            "en": "AAFC_AgriSource",
            "fr": "AAC_AgriSource"
        },
        "accessRights": {
            "en": "3",
            "fr": "3"
        }
    },
    "body": {
        "en": "<br>\n<br>\n<p>While the likelihood of facing an armed intruder in the workplace is remote, it is important to make sure that you are prepared.</p>\n<p>When there is a threat of violence within the building, such as an armed intruder, a building lockdown occurs. If faced with an armed intruder, here are three things you can do to stay safe.</p>\n<h2><strong>Run</strong></h2>\n<ul>\n<li>If you hear shooting or screaming, your first option is to run</li>\n<li>Don\u2019t take things with you; just get out</li>\n<li>Tell others about the threat on your way out</li>\n<li>Leave, even if others don\u2019t follow</li>\n<li>Call 911 when safe to do so</li>\n</ul>\n<h2><strong>Hide</strong></h2>\n<ul>\n<li>If you can\u2019t run, look for a place to hide that conceals and protects you</li>\n<li>Be quiet and still to avoid detection</li>\n<li>Lock or barricade doors, close blinds, turn off lights and silence phones</li>\n<li>Do not let anyone into your secured area</li>\n<li>Call 911 when safe to do so and wait for police</li>\n</ul>\n<h2><strong>Defend</strong></h2>\n<ul>\n<li>As a last resort and only if your life is in imminent danger, defend yourself physically</li>\n<li>Be silent</li>\n<li>Be aggressive and forceful</li>\n<li>Use whatever you can find as weapons to stop the armed intruder</li>\n</ul>\n<h2><strong>Learn more</strong></h2>\n<p>Visit the <a href=\"https://collab.agr.gc.ca/co/dss-ssm/SitePages/Home.aspx\">Departmental Security Services Knowledge Workspace page</a> to view the \u201cArmed Intruder \u2013 Do You Know What To Do?\u201d video. Please be advised that this video production is dramatic and realistic. Some viewers may find it disturbing. Viewer discretion is advised.</p>\n<p>If you have any questions, comments, or concerns, please email DSS\u2019 Building Emergency Response Organization at <a href=\"mailto:aafc.nhcapbero-cacpaoiue.aac@canada.ca\">aafc.nhcapbero-cacpaoiue.aac@canada.ca</a>.</p>\n<p><img src=\"https://intranet.agr.gc.ca/resources/prod/news/images/ArmedIntruder1-EN.png\" class=\"center-block\"></p>\n\n\t\t",
        "fr": "<br>\n<br>\n<p>Bien que la probabilit\u00e9 de faire face \u00e0 un intrus arm\u00e9 au travail soit faible, il est important de s'assurer que vous \u00eates pr\u00eat.</p>\n<p>Un confinement se produit lorsqu'il y a une menace de violence \u00e0 l'int\u00e9rieur de l'immeuble, comme un intrus arm\u00e9. Voici trois choses que vous pouvez faire pour vous prot\u00e9ger contre un intrus arm\u00e9.</p>\n<h2><strong>Fuyez</strong></h2>\n<ul>\n<li>En premier lieu, si vous entendez des coups de feu ou des cris, fuyez.</li>\n<li>Ne prenez rien avec vous, partez sans tarder.</li>\n<li>En sortant, signalez la menace aux autres.</li>\n<li>Partez, m\u00eame si les autres ne vous suivent pas.</li>\n<li>Appelez le 9-1-1 lorsque vous pouvez le faire en toute s\u00e9curit\u00e9.</li>\n</ul>\n<h2><strong>Cachez-vous</strong></h2>\n<ul>\n<li>Si vous ne pouvez pas fuir, cherchez un endroit o\u00f9 vous \u00eates cach\u00e9 et prot\u00e9g\u00e9.</li>\n<li>Restez silencieux et immobile, pour \u00e9viter qu\u2019on vous d\u00e9tecte.</li>\n<li>Verrouillez ou barricadez les portes, fermez les stores, \u00e9teignez les lumi\u00e8res et vos t\u00e9l\u00e9phones.</li>\n<li>Ne laissez personne entrer dans votre zone s\u00e9curis\u00e9e.</li>\n<li>Appelez le 9-1-1 lorsque vous pouvez le faire en toute s\u00e9curit\u00e9 et attendez la police.</li>\n</ul>\n<h2><strong>D\u00e9fendez-vous</strong></h2>\n<ul>\n<li>En dernier recours, et uniquement si votre vie est directement menac\u00e9e, d\u00e9fendez-vous.</li>\n<li>Gardez le silence.</li>\n<li>Soyez agressif et \u00e9nergique.</li>\n<li>Utilisez tout ce que vous pouvez trouver comme armes afin d\u2019arr\u00eater l\u2019intrus arm\u00e9.</li>\n</ul>\n<h2><strong>Pour en savoir plus</strong></h2>\n<p>Visitez la <a href=\"https://collab.agr.gc.ca/co/dss-ssm/SitePages/Home.aspx\">page de l'Espace de travail du savoir des Services de s\u00e9curit\u00e9 minist\u00e9riels</a> pour visionner la vid\u00e9o intitul\u00e9e \u00ab Intrusion arm\u00e9e : Savez-vous quoi faire? \u00bb. Veuillez noter que la production vid\u00e9o contient des sc\u00e8nes choquantes et r\u00e9alistes. Certains t\u00e9l\u00e9spectateurs pourraient trouver le contenu troublant et la vid\u00e9o est r\u00e9serv\u00e9e \u00e0 un public averti.</p>\n<p>Si vous avez des questions ou des commentaires, envoyez un courriel \u00e0 l\u2019\u00c9quipe d'intervention d'urgence de l'immeuble des SSM \u00e0 l\u2019adresse : <a href=\"mailto:aafc.nhcapbero-cacpaoiue.aac@canada.ca\">aafc.nhcapbero-cacpaoiue.aac@canada.ca</a>.</p>\n<p><img src=\"https://intranet.agr.gc.ca/resources/prod/news/images/ArmedIntruder1-FR.png\" class=\"center-block\"></p>\n\t\t"
    },
    "breadcrumb": {
        "en": "Security 101: Tips on What to Do in the Event of an Armed Intruder",
        "fr": "Notions de base de s\u00e9curit\u00e9 : Quoi faire en pr\u00e9sence d'un intrus arm\u00e9"
    },
    "news": {
        "date_posted": {
            "en": "2019-07-04",
            "fr": "2019-07-04"
        },
        "to": {
            "en": "Other regions (not NCR)",
            "fr": "R\u00e9gions autres que la RCN"
        },
        "by": {
            "en": "Departmental Security Services, Corporate Management Branch",
            "fr": "Services de s\u00e9curit\u00e9 minist\u00e9riels, Direction g\u00e9n\u00e9rale de la gestion int\u00e9gr\u00e9e"
        }
    }
}