{
    "dcr_id": "1562693935862",
    "lang": "en",
    "title": {
        "en": "This Week in The Harvest - Indigenous Students Experience the Excitement of Lab Research ",
        "fr": "Au menu de La Moisson cette semaine \u2013 Des \u00e9tudiants autochtones d\u00e9couvrent avec \u00e9merveillement la recherche en laboratoire "
    },
    "modified": "2019-07-11 00:00:00.0",
    "issued": "2019-07-11 00:00:00.0",
    "type_name": "intra-intra/news-nouv",
    "node_id": "1279030006975",
    "layout_name": null,
    "dc_date_created": "2019-07-09",
    "breadcrumb_label": "",
    "meta": {
        "issued": {
            "en": "2019-07-11",
            "fr": "2019-07-11"
        },
        "modified": {
            "en": "2019-07-11",
            "fr": "2019-07-11"
        },
        "format": {
            "en": "gcformat",
            "fr": "gcformat"
        },
        "title": {
            "en": "This Week in The Harvest - Indigenous Students Experience the Excitement of Lab Research ",
            "fr": "Au menu de La Moisson cette semaine \u2013 Des \u00e9tudiants autochtones d\u00e9couvrent avec \u00e9merveillement la recherche en laboratoire "
        },
        "subject": {
            "en": "communications",
            "fr": "communications"
        },
        "description": {
            "en": "In case you missed it, here's what's new in The Harvest this week.",
            "fr": "Au cas o\u00f9 vous l'auriez manqu\u00e9, voici le menu que la section La Moisson vous offre cette semaine."
        },
        "language": {
            "en": "eng",
            "fr": "fra"
        },
        "audience": {
            "en": "gcaudience",
            "fr": "gcaudience"
        },
        "creator": {
            "en": "Agriculture and Agri-Food Canada",
            "fr": "Agriculture et Agroalimentaire Canada"
        },
        "spatial": {
            "en": "gcregions",
            "fr": "gcregions"
        },
        "service": {
            "en": "AAFC_AgriSource",
            "fr": "AAC_AgriSource"
        },
        "accessRights": {
            "en": "3",
            "fr": "3"
        }
    },
    "body": {
        "en": "<br>\n<br>\n<p>In case you missed it, here\u2019s what\u2019s new in <a href=\"https://collab.agr.gc.ca/apps/harvest-moisson\"><em>The Harvest</em></a> this week:</p>\n<p><strong>Feature story:</strong> <a href=\"https://collab.agr.gc.ca/apps/harvest-moisson/\">Indigenous Students Experience the Excitement of Lab Research</a> - In May, Dr. Nancy Ames and her team at the Richardson Centre for Functional Foods and Nutraceuticals (RCFFN) in Winnipeg participated in the Verna J. Kirkness (VJK) program for the eighth time.</p>\n<p><strong>Poll: </strong><a href=\"https://collab.agr.gc.ca/apps/harvest-moisson/\">What\u2019s the best summer treat?</a></p>\n<p><strong>Feature photo: </strong><a href=\"https://collab.agr.gc.ca/apps/harvest-moisson/gallery/Lists/Posts/Post.aspx?ID=322\">A Relaxing Moment For Mom and the Little Ones,</a> by Lynda Marier, Science and Technology Branch, Sherbrooke, Quebec</p>\n<p><strong>Did you know?</strong> <a href=\"https://collab.agr.gc.ca/apps/harvest-moisson/Pages/didyouknow.aspx\">Bannock</a> is a bread that derives from the Scottish scone, first brought to Canada by the fur traders, and adapted to campfire cooking by Aboriginal people. It can be made in all kinds of different ways and with all kinds of different ingredients to add a little zing to it.</p>\n<p>You can get involved by posting a comment or \u201cliking\u201d an article. You can also check out what your colleagues are liking and saying.</p>\n<p>Should you have story ideas, scenic or artistic agriculture-related photos, or interesting facts, please share them with us by clicking on \u201cContribute\u201d in the top menu bar.</p>\n<p><img src=\"https://intranet.agr.gc.ca/resources/prod/news/images/Harvest-Richardson.png\" class=\"center-block\"></p>\n\n\t\t",
        "fr": "<br>\n<br>\n<p>Au cas o\u00f9 vous l\u2019auriez manqu\u00e9, voici le menu que la section <a href=\"https://collab.agr.gc.ca/apps/harvest-moisson\"><em>La Moisson</em></a> vous offre cette semaine :</p>\n<p><strong>Article </strong><strong>vedette :</strong> <a href=\"https://collab.agr.gc.ca/apps/harvest-moisson/\">Des \u00e9tudiants autochtones d\u00e9couvrent avec \u00e9merveillement la recherche en laboratoire</a> - En mai, Nancy Ames (Ph. D.) et son \u00e9quipe du Centre Richardson pour les aliments fonctionnels et les nutraceutiques (CRRAFN) de Winnipeg ont particip\u00e9 pour la huiti\u00e8me fois au programme d\u2019\u00e9ducation Verna J. Kirkness (VJK).</p>\n<p><strong>Sondage : </strong><a href=\"https://collab.agr.gc.ca/apps/harvest-moisson/\">Quel est le meilleur rafra\u00eechissement estival?</a></p>\n<p><strong>Photo vedette :</strong> <a href=\"https://collab.agr.gc.ca/apps/harvest-moisson/gallery/Lists/Posts/Post.aspx?ID=322\">Moment de d\u00e9tente pour maman et les petits</a>, par Lynda Marier, Direction g\u00e9n\u00e9rale des sciences et de la technologie, Sherbrooke, Qu\u00e9bec</p>\n<p><strong>Le saviez-vous?</strong> <a href=\"https://collab.agr.gc.ca/apps/harvest-moisson/Pages/didyouknow.aspx\">Le bannock</a> est un pain qui vient du pain \u00e9cossais cuit en galette, qui a \u00e9t\u00e9 apport\u00e9 au Canada par les commer\u00e7ants de fourrures et adapt\u00e9 au mode de cuisson sur feu de camp par les Autochtones. Il peut \u00eatre pr\u00e9par\u00e9 de bien des fa\u00e7ons et avec toutes sortes d'ingr\u00e9dients qui ajoutent un petit quelque chose.</p>\n<p>Vous pouvez participer en affichant des commentaires ou en utilisant la fonction \u00ab J\u2019aime \u00bb ou \u00ab Partager \u00bb pour exprimer votre appr\u00e9ciation d\u2019un article. Vous pouvez aussi aller voir ce que vos coll\u00e8gues aiment et ont \u00e0 dire.</p>\n<p>Si vous avez des id\u00e9es d\u2019articles, des photos de paysages ou \u00e0 caract\u00e8re artistique li\u00e9es \u00e0 l\u2019agriculture ou encore des faits int\u00e9ressants, veuillez nous en faire part en cliquant sur \u00ab Collaborer \u00bb dans la barre de menu en haut de la page.</p>\n<p><img src=\"https://intranet.agr.gc.ca/resources/prod/news/images/Harvest-Richardson.png\" class=\"center-block\"></p>\n\t\t"
    },
    "breadcrumb": {
        "en": "This Week in The Harvest - Indigenous Students Experience the Excitement of Lab Research",
        "fr": "Au menu de La Moisson cette semaine \u2013 Des \u00e9tudiants autochtones d\u00e9couvrent avec \u00e9merveillement la recherche en laboratoire"
    },
    "news": {
        "date_posted": {
            "en": "2019-07-11",
            "fr": "2019-07-11"
        },
        "to": {
            "en": "All staff",
            "fr": "Tous les employ\u00e9s"
        },
        "by": {
            "en": "Corporate Communications, Public Affairs Branch",
            "fr": "Communications minist\u00e9rielles, Direction g\u00e9n\u00e9rale des affaires publiques"
        }
    }
}