{
    "dcr_id": "1562176790926",
    "lang": "en",
    "title": {
        "en": "Learn How to Recognize, Reject, and Report Malware Threats",
        "fr": "Apprenez \u00e0 reconna\u00eetre, \u00e0 rejeter et \u00e0 signaler les menaces li\u00e9es aux maliciels"
    },
    "modified": "2019-07-11 00:00:00.0",
    "issued": "2019-07-11 00:00:00.0",
    "type_name": "intra-intra/news-nouv",
    "node_id": "1279030006975",
    "layout_name": null,
    "dc_date_created": "2019-07-09",
    "breadcrumb_label": "",
    "meta": {
        "issued": {
            "en": "2019-07-11",
            "fr": "2019-07-11"
        },
        "modified": {
            "en": "2019-07-11",
            "fr": "2019-07-11"
        },
        "format": {
            "en": "gcformat",
            "fr": "gcformat"
        },
        "title": {
            "en": "Learn How to Recognize, Reject, and Report Malware Threats",
            "fr": "Apprenez \u00e0 reconna\u00eetre, \u00e0 rejeter et \u00e0 signaler les menaces li\u00e9es aux maliciels"
        },
        "subject": {
            "en": "communications",
            "fr": "communications"
        },
        "description": {
            "en": "As AAFC employees, we depend on technology to help us complete our work. That's why it's important to ensure that we know how to use our various IT security tools, including how to spot potential malware threats to our systems.",
            "fr": "Les employ\u00e9s d'AAC d\u00e9pendent de la technologie pour effectuer leur travail. C'est pourquoi ils doivent savoir comment utiliser les divers outils de s\u00e9curit\u00e9 de la TI et d\u00e9tecter les menaces que les maliciels peuvent repr\u00e9senter pour nos syst\u00e8mes."
        },
        "language": {
            "en": "eng",
            "fr": "fra"
        },
        "audience": {
            "en": "gcaudience",
            "fr": "gcaudience"
        },
        "creator": {
            "en": "Agriculture and Agri-Food Canada",
            "fr": "Agriculture et Agroalimentaire Canada"
        },
        "spatial": {
            "en": "gcregions",
            "fr": "gcregions"
        },
        "service": {
            "en": "AAFC_AgriSource",
            "fr": "AAC_AgriSource"
        },
        "accessRights": {
            "en": "3",
            "fr": "3"
        }
    },
    "body": {
        "en": "<br>\n<br>\n<p>As AAFC employees, we depend on technology to help us complete our work. That\u2019s why it\u2019s important to ensure that we know how to use our various IT security tools, including how to spot potential malware threats to our systems.</p>\n<p>The Royal Canadian Mounted Police (RCMP) has created a document to help employees recognize, reject, and report malware that can infiltrate computers and mobile devices. You can now view the <abbr title=\"Royal Canadian Mounted Police\">RCMP</abbr>\u2019s <a href=\"https://collab.agr.gc.ca/co/dss-ssm/Documents/How%20to%20Recognize%2C%20Reject%2C%20and%20Report%20Malware%20Threats/Major%20Malware%20Threats%20Bulletin.pdf\">Major Malware Threats Bulletin (PDF)</a> to learn more.</p>\n<p>If you have questions or if you believe your work device has been compromised by ransomware or other malware, please report it as soon as possible to <a href=\"http://assystweb.agr.gc.ca:8080/assystnet/#serviceOfferings/1284\">IT Centre TI</a> and Departmental Security Services (<a href=\"mailto:aafc.securityincident-incidentsecurite.aac@canada.ca\">aafc.securityincident-incidentsecurite.aac@canada.ca</a>).</p>\n<p><img src=\"https://intranet.agr.gc.ca/resources/prod/news/images/Ransomware.png\" class=\"center-block\"></p>\n<p>\u00a0</p>\n\n\t\t",
        "fr": "<br>\n<br>\n<p>Les employ\u00e9s d\u2019AAC d\u00e9pendent de la technologie pour effectuer leur travail. C\u2019est pourquoi ils doivent savoir comment utiliser les divers outils de s\u00e9curit\u00e9 de la TI et d\u00e9tecter les menaces que les maliciels peuvent repr\u00e9senter pour nos syst\u00e8mes.</p>\n<p>La Gendarmerie royale du Canada (GRC) a cr\u00e9\u00e9 un document pour aider les employ\u00e9s \u00e0 reconna\u00eetre, \u00e0 rejeter et \u00e0 signaler les maliciels qui peuvent infiltrer les ordinateurs et les appareils mobiles. Vous pouvez consulter le <a href=\"https://collab.agr.gc.ca/co/dss-ssm/Documents/How%20to%20Recognize%2C%20Reject%2C%20and%20Report%20Malware%20Threats/Menaces%20majeures%20liees%20aux%20maliciels.pdf\">Bulletin sur les menaces majeures li\u00e9es aux maliciels (PDF)</a> de la <abbr title=\"Gendarmerie royale du Canada\">GRC</abbr> pour en savoir plus.</p>\n<p>Si vous avez des questions ou si vous croyez que votre appareil de travail a \u00e9t\u00e9 compromis par un ran\u00e7ongiciel, veuillez en aviser le <a href=\"http://assystweb.agr.gc.ca:8080/assystnet/#serviceOfferings/1284\">IT Centre TI</a> et les Services de s\u00e9curit\u00e9 minist\u00e9riels (<a href=\"mailto:aafc.securityincident-incidentsecurite.aac@canada.ca\">aafc.securityincident-incidentsecurite.aac@canada.ca</a>) le plus t\u00f4t possible.</p>\n<p><img src=\"https://intranet.agr.gc.ca/resources/prod/news/images/Ransomware.png\" class=\"center-block\"></p>\n<p>\u00a0</p>\n\t\t"
    },
    "breadcrumb": {
        "en": "Learn How to Recognize, Reject, and Report Malware Threats",
        "fr": "Apprenez \u00e0 reconna\u00eetre, \u00e0 rejeter et \u00e0 signaler les menaces li\u00e9es aux maliciels"
    },
    "news": {
        "date_posted": {
            "en": "2019-07-11",
            "fr": "2019-07-11"
        },
        "to": {
            "en": "All staff",
            "fr": "Tous les employ\u00e9s"
        },
        "by": {
            "en": "Information Systems Branch and Corporate Management Branch",
            "fr": "Direction g\u00e9n\u00e9rale des syst\u00e8mes d\u2019information et Direction g\u00e9n\u00e9rale de la gestion int\u00e9gr\u00e9e"
        }
    }
}