{
    "dcr_id": "1563852363734",
    "lang": "en",
    "title": {
        "en": "Reminder - Upcoming Training Opportunity: AAFC Bioinformatics Conference and Workshop",
        "fr": "Rappel - Occasion de formation : Atelier-conf\u00e9rence d'AAC sur la bioinformatique"
    },
    "modified": "2019-08-22 00:00:00.0",
    "issued": "2019-07-25 00:00:00.0",
    "type_name": "intra-intra/news-nouv",
    "node_id": "1279030006975",
    "layout_name": null,
    "dc_date_created": "2019-07-23",
    "breadcrumb_label": "",
    "meta": {
        "issued": {
            "en": "2019-07-25",
            "fr": "2019-07-25"
        },
        "modified": {
            "en": "2019-08-22",
            "fr": "2019-08-22"
        },
        "format": {
            "en": "gcformat",
            "fr": "gcformat"
        },
        "title": {
            "en": "Reminder - Upcoming Training Opportunity: AAFC Bioinformatics Conference and Workshop",
            "fr": "Rappel - Occasion de formation : Atelier-conf\u00e9rence d'AAC sur la bioinformatique"
        },
        "subject": {
            "en": "communications",
            "fr": "communications"
        },
        "description": {
            "en": "Save the date! The AAFC bioinformatics research support network will be hosting a premiere Bioinformatics Conference and Workshop in Lethbridge, Alberta.",
            "fr": "Date \u00e0 retenir! Le r\u00e9seau de soutien de la recherche en bioinformatique d'AAC tiendra un premier atelier-conf\u00e9rence sur la bioinformatique \u00e0 Lethbridge (Alberta)."
        },
        "language": {
            "en": "eng",
            "fr": "fra"
        },
        "audience": {
            "en": "gcaudience",
            "fr": "gcaudience"
        },
        "creator": {
            "en": "Agriculture and Agri-Food Canada",
            "fr": "Agriculture et Agroalimentaire Canada"
        },
        "spatial": {
            "en": "gcregions",
            "fr": "gcregions"
        },
        "service": {
            "en": "AAFC_AgriSource",
            "fr": "AAC_AgriSource"
        },
        "accessRights": {
            "en": "3",
            "fr": "3"
        }
    },
    "body": {
        "en": "<br>\n<br>\n<p>Save the date! The AAFC bioinformatics research support network will be hosting a premiere Bioinformatics Conference and Workshop in Lethbridge, Alberta.</p>\n<p>The first day of the conference will include informative keynote speeches and talks on a range of topics relevant to the research we do at AAFC, including high performance computing, cereal crop genomics and transcriptomics, genotyping-by-sequencing, metagenomics, plant phenomics, etc. The workshop on the second day will include hands-on introductory sessions on Linux and R statistical programming, deep learning for sequence analysis, bacterial genomics, and RNA-sequencing and differential gene expression analysis.</p>\n<h2>Event information:</h2>\n<p>Date: September 19-20, 2019<br>Location: Cafeteria conference room/Training room, Lethbridge Research and Development Centre, 5403 1st Avenue South, Lethbridge, Alberta</p>\n<p>Further details and updates on speakers and sessions will be posted on <a href=\"http://www.gcpedia.gc.ca/wiki/BioinfoConf2019\">the conference page on GCpedia</a>.</p>\n<p>In-person attendance is encouraged, but sessions will also be made available via video conference and WebEx. For free registration, please email <a href=\"mailto:AAFC.BioInfoSupport.AAC@canada.ca\">AAFC.BioInfoSupport.AAC@canada.ca</a> by September 10, 2019, and specify if you would like to participate in person or online.</p>\n\n\t\t",
        "fr": "<br>\n<br>\n<p>Date \u00e0 retenir! Le r\u00e9seau de soutien de la recherche en bioinformatique d\u2019AAC tiendra un premier atelier-conf\u00e9rence sur la bioinformatique \u00e0 Lethbridge (Alberta).</p>\n<p>Le programme du premier jour de la conf\u00e9rence comprendra des pr\u00e9sentations sur divers sujets li\u00e9s aux activit\u00e9s de recherche d\u2019AAC, notamment le calcul de haute performance, la g\u00e9nomique et la transcriptomique des c\u00e9r\u00e9ales, le g\u00e9notypage par s\u00e9quen\u00e7age, la m\u00e9tag\u00e9nomique et la ph\u00e9nomique des plantes. La deuxi\u00e8me journ\u00e9e sera consacr\u00e9e \u00e0 des s\u00e9ances pratiques sur Linux et le langage de programmation statistique R, l\u2019utilisation de l\u2019apprentissage profond pour l\u2019analyse de s\u00e9quences, la g\u00e9nomique bact\u00e9rienne, le s\u00e9quen\u00e7age de l\u2019ARN et d\u2019analyse de l\u2019expression diff\u00e9rentielle de g\u00e8nes.</p>\n<h2><b>Renseignements sur l\u2019\u00e9v\u00e9nement</b></h2>\n<p><b>Date :</b> 19 et 20 septembre 2019<br><b>Lieu :\u00a0</b> Salle de conf\u00e9rence de la caf\u00e9t\u00e9ria / salle de formation, Centre de recherche et de d\u00e9veloppement de Lethbridge, 5403 1st Avenue South, Lethbridge (Alberta)</p>\n<p>D\u2019autres d\u00e9tails et annonces sur les conf\u00e9renciers et les s\u00e9ances seront affich\u00e9s sur <a href=\"http://www.gcpedia.gc.ca/wiki/BioinfoConf2019\">la page de la conf\u00e9rence dans GCp\u00e9dia</a>. </p>\n<p>Les participants sont invit\u00e9s \u00e0 assister en personne aux s\u00e9ances. Toutefois, celles-ci seront diffus\u00e9es par vid\u00e9oconf\u00e9rence et WebEx. Pour vous inscrire gratuitement, veuillez envoyer un courriel \u00e0\u00a0 <a href=\"mailto:AAFC.BioInfoSupport.AAC@canada.ca\">AAFC.BioInfoSupport.AAC@canada.ca</a> au plus tard le 10 septembre 2019 et pr\u00e9ciser si vous souhaitez participer en personne ou en ligne.</p>\n\t\t"
    },
    "breadcrumb": {
        "en": "Reminder - Upcoming Training Opportunity: AAFC Bioinformatics Conference and Workshop",
        "fr": "Rappel - Occasion de formation : Atelier-conf\u00e9rence d'AAC sur la bioinformatique"
    },
    "news": {
        "date_posted": {
            "en": "2019-07-25",
            "fr": "2019-07-25"
        },
        "to": {
            "en": "All staff",
            "fr": "Tous les employ\u00e9s"
        },
        "by": {
            "en": "Fran\u00e7ois Eudes, Director RDT",
            "fr": "Fran\u00e7ois Eudes, directeur RDT"
        }
    }
}