{
    "dcr_id": "1564503225182",
    "lang": "en",
    "title": {
        "en": "Upcoming - The 2019 Student Exit Survey ",
        "fr": "Lancement prochain du sondage de fin d\u2019emploi \u00e9tudiant 2019 "
    },
    "modified": "2019-08-01 00:00:00.0",
    "issued": "2019-08-01 00:00:00.0",
    "type_name": "intra-intra/news-nouv",
    "node_id": "1279030006975",
    "layout_name": null,
    "dc_date_created": "2019-07-30",
    "breadcrumb_label": "",
    "meta": {
        "issued": {
            "en": "2019-08-01",
            "fr": "2019-08-01"
        },
        "modified": {
            "en": "2019-08-01",
            "fr": "2019-08-01"
        },
        "format": {
            "en": "gcformat",
            "fr": "gcformat"
        },
        "title": {
            "en": "Upcoming - The 2019 Student Exit Survey ",
            "fr": "Lancement prochain du sondage de fin d\u2019emploi \u00e9tudiant 2019 "
        },
        "subject": {
            "en": "communications",
            "fr": "communications"
        },
        "description": {
            "en": "On August 6, students at AAFC will receive an email with a link to the 2019 Student Exit Survey (SES), where they can provide feedback on their experience working in the public service.",
            "fr": "Le 6 ao\u00fbt, les \u00e9tudiants \u00e0 AAC recevront un courriel avec un lien vers le sondage de fin d'emploi \u00e9tudiant (SFEE) 2019. Le sondage vise \u00e0 obtenir leur r\u00e9troaction sur leur exp\u00e9rience de travail dans la fonction publique."
        },
        "language": {
            "en": "eng",
            "fr": "fra"
        },
        "audience": {
            "en": "gcaudience",
            "fr": "gcaudience"
        },
        "creator": {
            "en": "Agriculture and Agri-Food Canada",
            "fr": "Agriculture et Agroalimentaire Canada"
        },
        "spatial": {
            "en": "gcregions",
            "fr": "gcregions"
        },
        "service": {
            "en": "AAFC_AgriSource",
            "fr": "AAC_AgriSource"
        },
        "accessRights": {
            "en": "3",
            "fr": "3"
        }
    },
    "body": {
        "en": "<br>\n<br>\n<p>On August 6, students at AAFC will receive an email with a link to the 2019 Student Exit Survey (SES), where they can provide feedback on their experience working in the public service.</p>\n<p>The Survey consists of 29 questions and will take approximately 20 minutes to complete. Survey questions will address whether students feel they complete meaningful work and are equipped with the appropriate tools, resources, and learning opportunities to support their responsibilities.</p>\n<p>All students are eligible to participate, whether their work term is ending, being extended, or they are being rehired in another organization. Responses will be kept confidential in accordance with the <em>Privacy Act</em> and will not be linked to any personal information.</p>\n<p>Students are encouraged to fill out the SES during the work day. The deadline to complete the Survey is <strong>September 6</strong>.</p>\n<p>For any questions, or to request a paper copy of the survey, students may send an email to <a href=\"mailto:aafc.psescoordinationsaff.aac@canada.ca\">aafc.psescoordinationsaff.aac@canada.ca</a>. \u00a0</p>\n\n\t\t",
        "fr": "<br>\n<br>\n<p>Le 6 ao\u00fbt, les \u00e9tudiants \u00e0 AAC recevront un courriel avec un lien vers le sondage de fin d\u2019emploi \u00e9tudiant (SFEE) 2019. Le sondage vise \u00e0 obtenir leur r\u00e9troaction sur leur exp\u00e9rience de travail dans la fonction publique.</p>\n<p>Le sondage se compose de 29 questions et prend environ 20 minutes \u00e0 remplir. Les \u00e9tudiants y indiqueront s\u2019ils estiment accomplir un travail important et avoir les outils, les ressources et les possibilit\u00e9s d\u2019apprentissage n\u00e9cessaires pour s\u2019acquitter de leurs responsabilit\u00e9s.</p>\n<p>Tous les \u00e9tudiants peuvent participer, que leur emploi prenne fin ou soit prolong\u00e9, ou qu\u2019ils soient eux-m\u00eames r\u00e9embauch\u00e9s dans une autre organisation. Toutes les r\u00e9ponses demeureront confidentielles conform\u00e9ment \u00e0 la <em>Loi sur la protection des renseignements personnels</em> et ne seront associ\u00e9es \u00e0 aucun renseignement personnel.</p>\n<p>Nous invitons les \u00e9tudiants \u00e0 r\u00e9pondre au SFEE pendant les heures de travail. La date limite est le <strong>6 septembre</strong>.</p>\n<p>Pour toute question ou pour demander une copie papier du sondage, les \u00e9tudiants peuvent envoyer un courriel \u00e0 <a href=\"mailto:aafc.psescoordinationsaff.aac@canada.ca\">aafc.psescoordinationsaff.aac@canada.ca</a>.</p>\n\t\t"
    },
    "breadcrumb": {
        "en": "Upcoming - The 2019 Student Exit Survey",
        "fr": "Lancement prochain du sondage de fin d\u2019emploi \u00e9tudiant 2019"
    },
    "news": {
        "date_posted": {
            "en": "2019-08-01",
            "fr": "2019-08-01"
        },
        "to": {
            "en": "All staff",
            "fr": "Tous les employ\u00e9s"
        },
        "by": {
            "en": "Andrew Goldstein, Director General, Human Resources Directorate",
            "fr": "Andrew Goldstein, directeur g\u00e9n\u00e9ral, Direction des ressources humaines"
        }
    }
}