{
    "dcr_id": "1564153474776",
    "lang": "en",
    "title": {
        "en": "Federal, Provincial and Territorial Ministers of Agriculture Annual Conference 2019",
        "fr": "Conf\u00e9rence annuelle 2019 des ministres de l'Agriculture des gouvernements f\u00e9d\u00e9ral, provinciaux et territoriaux"
    },
    "modified": "2019-08-06 00:00:00.0",
    "issued": "2019-07-26 00:00:00.0",
    "type_name": "intra-intra/news-nouv",
    "node_id": "1279030006975",
    "layout_name": null,
    "dc_date_created": "2019-07-26",
    "breadcrumb_label": "Federal, Provincial and Territorial Ministers of Agriculture Annual ...",
    "meta": {
        "issued": {
            "en": "2019-07-26",
            "fr": "2019-07-26"
        },
        "modified": {
            "en": "2019-08-06",
            "fr": "2019-08-06"
        },
        "format": {
            "en": "gcformat",
            "fr": "gcformat"
        },
        "title": {
            "en": "Federal, Provincial and Territorial Ministers of Agriculture Annual Conference 2019",
            "fr": "Conf\u00e9rence annuelle 2019 des ministres de l'Agriculture des gouvernements f\u00e9d\u00e9ral, provinciaux et territoriaux"
        },
        "subject": {
            "en": "communications",
            "fr": "communications"
        },
        "description": {
            "en": "The Province of Quebec hosted the Annual Conference of the Federal, Provincial and Territorial (FPT) Ministers of Agriculture July 17-19 in Qu\u00e9bec City.",
            "fr": "La province du Qu\u00e9bec \u00e9tait l'h\u00f4te de la Conf\u00e9rence annuelle des ministres et des sous-ministres f\u00e9d\u00e9raux, provinciaux et territoriaux (FPT) de l'Agriculture du 17 au 19 juillet 2019, \u00e0 Qu\u00e9bec."
        },
        "language": {
            "en": "eng",
            "fr": "fra"
        },
        "audience": {
            "en": "gcaudience",
            "fr": "gcaudience"
        },
        "creator": {
            "en": "Agriculture and Agri-Food Canada",
            "fr": "Agriculture et Agroalimentaire Canada"
        },
        "spatial": {
            "en": "gcregions",
            "fr": "gcregions"
        },
        "service": {
            "en": "AAFC_AgriSource",
            "fr": "AAC_AgriSource"
        },
        "accessRights": {
            "en": "3",
            "fr": "3"
        }
    },
    "body": {
        "en": "<br>\n<br>\n<p>The Province of Quebec hosted the Annual Conference of the Federal, Provincial and Territorial (FPT) Ministers of Agriculture July 17-19 in Qu\u00e9bec City.</p>\n<p>Canada\u2019s agriculture ministers renewed their commitment to work together to help the agriculture and agri-food sector realize new opportunities and tackle important challenges.</p>\n<p>We encourage you to read the <a href=\"https://www.canada.ca/en/agriculture-agri-food/news/2019/07/canadas-ministers-of-agriculture-meet-to-drive-a-strong-and-innovative-agriculture-and-agri-food-sector.html\">news release</a> for further details, and to view AAFC\u2019s latest video, <a href=\"https://www.youtube.com/watch?v=Kuujn-EOeZU&amp;feature=youtu.be\">State of the Sector 2019</a>.</p>\n<p>The next annual meeting of FPT Ministers is in Guelph, Ontario, July 15-17, 2020.</p>\n<p>We would also like to take this opportunity to recognize the tremendous teamwork that took place across the organization in preparing for making this annual conference a great success. A big thank you to everyone involved for your contributions.</p>\n<p>\u00a0</p>\n<p><strong>Chris Forbes<br></strong>Deputy Minister</p>\n<p><strong>Annette Gibbons<br></strong>Associate Deputy Minister</p>\n\n\t\t",
        "fr": "<br>\n<br>\n<p>La province du Qu\u00e9bec \u00e9tait l\u2019h\u00f4te de la Conf\u00e9rence annuelle des ministres et des sous-ministres f\u00e9d\u00e9raux, provinciaux et territoriaux (FPT) de l\u2019Agriculture du 17 au 19 juillet 2019, \u00e0 Qu\u00e9bec.</p>\n<p>Les ministres de l\u2019Agriculture du Canada ont renouvel\u00e9 leur volont\u00e9 de travailler ensemble pour aider le secteur de l\u2019agriculture et de l\u2019agroalimentaire \u00e0 saisir de nouvelles occasions et \u00e0 relever des d\u00e9fis importants.</p>\n<p>Nous vous invitons \u00e0 lire le <a href=\"https://www.canada.ca/fr/agriculture-agroalimentaire/nouvelles/2019/07/les-ministres-de-lagriculture-du-canada-se-reunissent-pour-appuyer-un-secteur-agricole-et-agroalimentaire-fort-et-innovateur.html\">communiqu\u00e9 de presse</a> pour plus de d\u00e9tails et \u00e0 visionner la derni\u00e8re vid\u00e9o d\u2019Agriculture et Agroalimentaire Canada (AAC), <a href=\"https://www.youtube.com/watch?v=c0-mJZwwsIc\">\u00c9tat du secteur en 2019</a>.</p>\n<p>La prochaine conf\u00e9rence annuelle des ministres FPT aura lieu \u00e0 Guelph, en Ontario, du 15 au 17 juillet 2020.</p>\n<p>Nous profitons de l\u2019occasion pour souligner l\u2019excellent travail d\u2019\u00e9quipe qui a \u00e9t\u00e9 accompli \u00e0 l\u2019\u00e9chelle de l\u2019organisation pour faire de cette conf\u00e9rence un grand succ\u00e8s. Merci \u00e0 toutes les personnes qui ont \u00e9t\u00e9 mises \u00e0 contribution.</p>\n<p><strong>\u00a0</strong></p>\n<p><strong>Chris Forbes<br></strong>Sous-ministre</p>\n<p><strong>Annette Gibbons<br></strong>Sous-ministre d\u00e9l\u00e9gu\u00e9e</p>\n\t\t"
    },
    "breadcrumb": {
        "en": "Federal, Provincial and Territorial Ministers of Agriculture Annual ...",
        "fr": "Conf\u00e9rence annuelle 2019 des ministres de l'Agriculture des ..."
    },
    "news": {
        "date_posted": {
            "en": "2019-07-26",
            "fr": "2019-07-26"
        },
        "to": {
            "en": "All staff",
            "fr": "Tous les employ\u00e9s"
        },
        "by": {
            "en": "Chris Forbes, Deputy Minister, and Annette Gibbons, Associate Deputy Minister",
            "fr": "Chris Forbes, Sous-ministre, et Annette Gibbons, Sous-ministre d\u00e9l\u00e9gu\u00e9e"
        }
    }
}