{
    "dcr_id": "1565108217522",
    "lang": "en",
    "title": {
        "en": "International Day of the World's Indigenous Peoples - August 9",
        "fr": "Journ\u00e9e internationale des peuples autochtones - le 9 ao\u00fbt 2019"
    },
    "modified": "2019-08-08 00:00:00.0",
    "issued": "2019-08-08 00:00:00.0",
    "type_name": "intra-intra/news-nouv",
    "node_id": "1279030006975",
    "layout_name": null,
    "dc_date_created": "2019-08-06",
    "breadcrumb_label": "",
    "meta": {
        "issued": {
            "en": "2019-08-08",
            "fr": "2019-08-08"
        },
        "modified": {
            "en": "2019-08-08",
            "fr": "2019-08-08"
        },
        "format": {
            "en": "gcformat",
            "fr": "gcformat"
        },
        "title": {
            "en": "International Day of the World's Indigenous Peoples - August 9",
            "fr": "Journ\u00e9e internationale des peuples autochtones - le 9 ao\u00fbt 2019"
        },
        "subject": {
            "en": "communications",
            "fr": "communications"
        },
        "description": {
            "en": "On August 9, join us in celebrating the International Day of the World's Indigenous Peoples - a day dedicated to honouring Indigenous cultures and traditions and advocating for the protection and promotion of worldwide Indigenous rights.",
            "fr": "Joignez-vous \u00e0 nous, le 9 ao\u00fbt 2019, pour c\u00e9l\u00e9brer la Journ\u00e9e internationale des peuples autochtones, une journ\u00e9e consacr\u00e9e \u00e0 honorer les cultures et traditions autochtones et \u00e0 plaider en faveur de la protection et de la promotion des droits autochtones dans le monde entier."
        },
        "language": {
            "en": "eng",
            "fr": "fra"
        },
        "audience": {
            "en": "gcaudience",
            "fr": "gcaudience"
        },
        "creator": {
            "en": "Agriculture and Agri-Food Canada",
            "fr": "Agriculture et Agroalimentaire Canada"
        },
        "spatial": {
            "en": "gcregions",
            "fr": "gcregions"
        },
        "service": {
            "en": "AAFC_AgriSource",
            "fr": "AAC_AgriSource"
        },
        "accessRights": {
            "en": "3",
            "fr": "3"
        }
    },
    "body": {
        "en": "<br>\n<br>\n<p>On August 9, join us in celebrating the International Day of the World's Indigenous Peoples - a day dedicated to honouring Indigenous cultures and traditions and advocating for the protection and promotion of worldwide Indigenous rights. This day also recognizes the achievements and contributions that Indigenous Peoples make daily to improve global issues such as environmental protection, agriculture, research, and sustainability.</p>\n<p>In December 1994, during the United Nations General Assembly, it was decided through <a href=\"http://www.un.org/en/ga/search/view_doc.asp?symbol=A/RES/49/214\">Resolution 49/214</a>\u00a0(PDF) that, every year, August 9 would mark International Day of the World\u2019s Indigenous Peoples.</p>\n<p>We encourage all AAFC staff, Indigenous and non-Indigenous, to celebrate the day in honour of Indigenous Peoples in Canada. To learn more about the history of the day, visit the <a href=\"https://www.un.org/development/desa/indigenouspeoples/international-day-of-the-worlds-indigenous-peoples.html\">United Nations website</a>.</p>\n<p><img src=\"https://intranet.agr.gc.ca/resources/prod/news/images/INCBanner2019-EN.png\" class=\"center-block\"></p>\n\n\t\t",
        "fr": "<br>\n<br>\n<p>Joignez-vous \u00e0 nous, le 9 ao\u00fbt 2019, pour c\u00e9l\u00e9brer la Journ\u00e9e internationale des peuples autochtones, une journ\u00e9e consacr\u00e9e \u00e0 honorer les cultures et traditions autochtones et \u00e0 plaider en faveur de la protection et de la promotion des droits autochtones dans le monde entier. Ce jour marque \u00e9galement la reconnaissance des r\u00e9alisations et des contributions que les peuples autochtones apportent quotidiennement \u00e0 l\u2019am\u00e9lioration des enjeux mondiaux dans les domaines comme la protection de l\u2019environnement, l\u2019agriculture, la recherche et la durabilit\u00e9.</p>\n<p>En d\u00e9cembre 1994, lors de l\u2019Assembl\u00e9e g\u00e9n\u00e9rale des Nations Unies, il a \u00e9t\u00e9 d\u00e9cr\u00e9t\u00e9 par le biais de la <a href=\"https://www.un.org/en/ga/search/view_doc.asp?symbol=A/RES/49/214&amp;Lang=F\">R\u00e9solution 49/214</a>\u00a0(PDF) que, chaque ann\u00e9e, le 9 ao\u00fbt serait la Journ\u00e9e internationale des peuples autochtones.</p>\n<p>Nous encourageons tout le personnel d\u2019AAC, autochtone et non autochtone, \u00e0 c\u00e9l\u00e9brer cette journ\u00e9e en l\u2019honneur des peuples autochtones du Canada. Pour en savoir plus sur cette journ\u00e9e, visitez le <a href=\"https://www.un.org/development/desa/indigenous-peoples-fr/\">site Web des Nations Unies</a>.</p>\n<p><img src=\"https://intranet.agr.gc.ca/resources/prod/news/images/INCBanner2019-FR.png\" class=\"center-block\"></p>\n\t\t"
    },
    "breadcrumb": {
        "en": "International Day of the World's Indigenous Peoples - August 9",
        "fr": "Journ\u00e9e internationale des peuples autochtones - le 9 ao\u00fbt 2019"
    },
    "news": {
        "date_posted": {
            "en": "2019-08-08",
            "fr": "2019-08-08"
        },
        "to": {
            "en": "All staff",
            "fr": "Tous les employ\u00e9s"
        },
        "by": {
            "en": "Indigenous Network Circle",
            "fr": "Cercle de r\u00e9seautage des employ\u00e9s autochtones"
        }
    }
}