{
    "dcr_id": "1565958445761",
    "lang": "en",
    "title": {
        "en": "Beekeeping, Big data, Beverages and More:  August Additions to the Canadian Agriculture Library",
        "fr": "Apiculture, m\u00e9gadonn\u00e9es, boissons et autres : Ajouts du mois d\u2019ao\u00fbt \u00e0 la Biblioth\u00e8que canadienne de l'agriculture"
    },
    "modified": "2019-08-22 00:00:00.0",
    "issued": "2019-08-22 00:00:00.0",
    "type_name": "intra-intra/news-nouv",
    "node_id": "1279030006975",
    "layout_name": null,
    "dc_date_created": "2019-08-16",
    "breadcrumb_label": "",
    "meta": {
        "issued": {
            "en": "2019-08-22",
            "fr": "2019-08-22"
        },
        "modified": {
            "en": "2019-08-22",
            "fr": "2019-08-22"
        },
        "format": {
            "en": "gcformat",
            "fr": "gcformat"
        },
        "title": {
            "en": "Beekeeping, Big data, Beverages and More:  August Additions to the Canadian Agriculture Library",
            "fr": "Apiculture, m\u00e9gadonn\u00e9es, boissons et autres : Ajouts du mois d\u2019ao\u00fbt \u00e0 la Biblioth\u00e8que canadienne de l'agriculture"
        },
        "subject": {
            "en": "communications",
            "fr": "communications"
        },
        "description": {
            "en": "Are you a backyard beekeeper? Or is big data more your thing?",
            "fr": "\u00cates-vous apiculteur amateur? Ou pr\u00e9f\u00e9rez-vous les m\u00e9gadonn\u00e9es?"
        },
        "language": {
            "en": "eng",
            "fr": "fra"
        },
        "audience": {
            "en": "gcaudience",
            "fr": "gcaudience"
        },
        "creator": {
            "en": "Agriculture and Agri-Food Canada",
            "fr": "Agriculture et Agroalimentaire Canada"
        },
        "spatial": {
            "en": "gcregions",
            "fr": "gcregions"
        },
        "service": {
            "en": "AAFC_AgriSource",
            "fr": "AAC_AgriSource"
        },
        "accessRights": {
            "en": "3",
            "fr": "3"
        }
    },
    "body": {
        "en": "<br>\n<br>\n<p>Are you a backyard beekeeper? Or is big data more your thing? Before summer is over, check out the <a href=\"https://collab.agr.gc.ca/co/kis-sis/_layouts/15/DocIdRedir.aspx?ID=AGR-7949241\">list of new titles added to our collection this month (PDF).</a> Topics covered include:</p>\n<ul>\n<li>Backyard beekeeper beginner's guide</li>\n<li>Soilless culture</li>\n<li>Big data and analytics</li>\n<li>Conference Board of Canada outlooks and forecasts</li>\n<li>Engineering tools in the beverage industry</li>\n</ul>\n<p>Access the electronic content from your desktop by clicking on links found in the list, or submit a request to borrow physical items.</p>\n<p>For more information, contact CAL at <a href=\"mailto:aafc.cal-bca.aac@canada.ca\">aafc.cal-bca.aac@canada.ca</a>.</p>\n<p><img src=\"https://intranet.agr.gc.ca/resources/prod/news/images/CALbanner-EN.png\" class=\"center-block\" alt=\"\"></p>\n<p>\u00a0</p>\n\n\t\t",
        "fr": "<br>\n<br>\n<p>\u00cates-vous apiculteur amateur? Ou pr\u00e9f\u00e9rez-vous les m\u00e9gadonn\u00e9es? Avant la fin de l\u2019\u00e9t\u00e9, consultez la <a href=\"https://collab.agr.gc.ca/co/kis-sis/_layouts/15/DocIdRedir.aspx?ID=AGR-7949242\">liste des nouveaux titres ajout\u00e9s \u00e0 notre collection ce mois-ci (PDF).</a>\u00a0Parmi les sujets abord\u00e9s, on retrouve :</p>\n<ul>\n<li>le guide de l\u2019apiculteur amateur d\u00e9butant;</li>\n<li>la culture sans sol;</li>\n<li>les m\u00e9gadonn\u00e9es et les analyses;</li>\n<li>les perspectives et les pr\u00e9visions du Conference Board du Canada;</li>\n<li>les outils techniques dans l\u2019industrie des boissons.</li>\n</ul>\n<p>Acc\u00e9dez au contenu \u00e9lectronique \u00e0 partir de votre bureau, en cliquant sur les liens qui se trouvent dans la liste, ou soumettez une demande d\u2019emprunt de documents imprim\u00e9s.</p>\n<p>Pour de plus amples renseignements, communiquez avec la BCA par courriel \u00e0 l\u2019adresse suivante : <a href=\"mailto:aafc.cal-bca.aac@canada.ca\">aafc.cal-bca.aac@canada.ca</a>.</p>\n<p><img src=\"https://intranet.agr.gc.ca/resources/prod/news/images/CALbanniere-FR.png\" class=\"center-block\"></p>\n\t\t"
    },
    "breadcrumb": {
        "en": "Beekeeping, Big data, Beverages and More: August Additions to the Canadian Agriculture Library",
        "fr": "Apiculture, m\u00e9gadonn\u00e9es, boissons et autres : Ajouts du mois d\u2019ao\u00fbt \u00e0 la Biblioth\u00e8que canadienne ..."
    },
    "news": {
        "date_posted": {
            "en": "2019-08-22",
            "fr": "2019-08-22"
        },
        "to": {
            "en": "All staff",
            "fr": "Tous les employ\u00e9s"
        },
        "by": {
            "en": "Canadian Agriculture Library",
            "fr": "Biblioth\u00e8que canadienne de l\u2019agriculture"
        }
    }
}