{
    "dcr_id": "1565704728385",
    "lang": "en",
    "title": {
        "en": "Scheduled Maintenance of ISB Services (DirectInfo) - August 16",
        "fr": "Entretien pr\u00e9vu des services de la DGSI (DirectInfo) - 16 ao\u00fbt"
    },
    "modified": "2019-08-15 00:00:00.0",
    "issued": "2019-08-15 00:00:00.0",
    "type_name": "intra-intra/news-nouv",
    "node_id": "1279030006975",
    "layout_name": null,
    "dc_date_created": "2019-08-13",
    "breadcrumb_label": "",
    "meta": {
        "issued": {
            "en": "2019-08-15",
            "fr": "2019-08-15"
        },
        "modified": {
            "en": "2019-08-15",
            "fr": "2019-08-15"
        },
        "format": {
            "en": "gcformat",
            "fr": "gcformat"
        },
        "title": {
            "en": "Scheduled Maintenance of ISB Services (DirectInfo) - August 16",
            "fr": "Entretien pr\u00e9vu des services de la DGSI (DirectInfo) - 16 ao\u00fbt"
        },
        "subject": {
            "en": "communications",
            "fr": "communications"
        },
        "description": {
            "en": "Please be advised that maintenance of ISB service (Direct Info) will be performed on Friday, August 16.",
            "fr": "Veuillez noter qu'un entretien des services (DirectInfo) de la DGSI aura lieu le vendredi 16 ao\u00fbt."
        },
        "language": {
            "en": "eng",
            "fr": "fra"
        },
        "audience": {
            "en": "gcaudience",
            "fr": "gcaudience"
        },
        "creator": {
            "en": "Agriculture and Agri-Food Canada",
            "fr": "Agriculture et Agroalimentaire Canada"
        },
        "spatial": {
            "en": "gcregions",
            "fr": "gcregions"
        },
        "service": {
            "en": "AAFC_AgriSource",
            "fr": "AAC_AgriSource"
        },
        "accessRights": {
            "en": "3",
            "fr": "3"
        }
    },
    "body": {
        "en": "<br>\n<br>\n<p>Please be advised that maintenance of ISB services (Direct Info) will be performed on Friday, August 16.</p>\n<p>These measures are performed regularly to improve performance and to ensure that the department does not experience any outages that would\u00a0impact employees and the delivery of our services.</p>\n<p>Consequently, the following will be unavailable:</p>\n<p>Friday, August 16, 2019 \u2013 4:00 to 5:00 p.m. (ET)</p>\n<ul>\n<li>\n<p><strong><strong>Direct Info</strong></strong></p>\n</li>\n</ul>\n<p>Should you have any questions or concerns, please do not hesitate to contact IT Centre TI.</p>\n<p>\u00a0</p>\n<p><strong>IT Centre TI<br></strong>Telephone: 1-855-545-4411<br><a href=\"http://myitcentreti-monitcentreti/\">My IT Centre TI</a></p>\n<p><img src=\"https://intranet.agr.gc.ca/resources/prod/news/images/ITCentreTI2.png\" class=\"center-block\"></p>\n<p>\u00a0</p>\n\n\t\t",
        "fr": "<br>\n<br>\n<p>Veuillez noter qu\u2019un entretien des services (DirectInfo) de la DGSI aura lieu le vendredi 16 ao\u00fbt.</p>\n<p>Ces mesures sont prises r\u00e9guli\u00e8rement afin d\u2019am\u00e9liorer le rendement et d\u2019\u00e9viter que le Minist\u00e8re subisse des pannes qui pourraient nuire aux employ\u00e9s et \u00e0 la prestation de nos services.</p>\n<p>Par cons\u00e9quent, la mise \u00e0 niveau du logiciel suivant aura lieu :</p>\n<p>Du vendredi 16 ao\u00fbt 2019, de 16 h \u00e0 17 h (HE)</p>\n<ul>\n<li>\n<p><strong><strong>DirectInfo</strong></strong></p>\n</li>\n</ul>\n<p>Si vous avez des questions ou des pr\u00e9occupations \u00e0 ce sujet, n\u2019h\u00e9sitez pas \u00e0 communiquer avec le IT Centre TI.</p>\n<p>\u00a0</p>\n<p><strong>IT Centre TI<br></strong>Telephone: 1-855-545-4411<br><a href=\"http://myitcentreti-monitcentreti/\">My IT Centre TI</a></p>\n<p><img src=\"https://intranet.agr.gc.ca/resources/prod/news/images/ITCentreTI2.png\" class=\"center-block\"></p>\n\t\t"
    },
    "breadcrumb": {
        "en": "Scheduled Maintenance of ISB Services (DirectInfo) - August 16",
        "fr": "Entretien pr\u00e9vu des services de la DGSI (DirectInfo) - 16 ao\u00fbt"
    },
    "news": {
        "date_posted": {
            "en": "2019-08-15",
            "fr": "2019-08-15"
        },
        "to": {
            "en": "All staff",
            "fr": "Tous les employ\u00e9s"
        },
        "by": {
            "en": "It Centre TI",
            "fr": "IT Centre TI"
        }
    }
}