{
    "dcr_id": "1566311779635",
    "lang": "en",
    "title": {
        "en": "This Week in The Harvest - \"On the Job\": Working to Support Your Pay ",
        "fr": "Au menu de La Moisson cette semaine - \u00ab Au travail \u00bb : \u00c0 votre service pour vos probl\u00e8mes de paye"
    },
    "modified": "2019-08-22 00:00:00.0",
    "issued": "2019-08-22 00:00:00.0",
    "type_name": "intra-intra/news-nouv",
    "node_id": "1279030006975",
    "layout_name": null,
    "dc_date_created": "2019-08-20",
    "breadcrumb_label": "",
    "meta": {
        "issued": {
            "en": "2019-08-22",
            "fr": "2019-08-22"
        },
        "modified": {
            "en": "2019-08-22",
            "fr": "2019-08-22"
        },
        "format": {
            "en": "gcformat",
            "fr": "gcformat"
        },
        "title": {
            "en": "This Week in The Harvest - \"On the Job\": Working to Support Your Pay ",
            "fr": "Au menu de La Moisson cette semaine - \u00ab Au travail \u00bb : \u00c0 votre service pour vos probl\u00e8mes de paye"
        },
        "subject": {
            "en": "communications",
            "fr": "communications"
        },
        "description": {
            "en": "In case you missed it, here's what's new in The Harvest this week.",
            "fr": "Au cas o\u00f9 vous l'auriez manqu\u00e9, voici le menu que la section La Moisson vous offre cette semaine."
        },
        "language": {
            "en": "eng",
            "fr": "fra"
        },
        "audience": {
            "en": "gcaudience",
            "fr": "gcaudience"
        },
        "creator": {
            "en": "Agriculture and Agri-Food Canada",
            "fr": "Agriculture et Agroalimentaire Canada"
        },
        "spatial": {
            "en": "gcregions",
            "fr": "gcregions"
        },
        "service": {
            "en": "AAFC_AgriSource",
            "fr": "AAC_AgriSource"
        },
        "accessRights": {
            "en": "3",
            "fr": "3"
        }
    },
    "body": {
        "en": "<br>\n<br>\n<p>In case you missed it, here's what's new in <a href=\"https://collab.agr.gc.ca/apps/harvest-moisson\"><em>The Harvest</em></a> this week:</p>\n<p><strong>Feature story:</strong> <a href=\"https://collab.agr.gc.ca/apps/harvest-moisson\">\u201cOn the Job\u201d: Working to Support Your Pay </a> - Meet Carine Leduc, Senior Pay Liaison Officer and acting manager of the Pay Transformation team. Her favourite part of the job? People.</p>\n<p><strong>Poll: </strong><a href=\"https://collab.agr.gc.ca/apps/harvest-moisson\">Why do farmers attach ear tags to their cows?</a></p>\n<p><strong>Feature photo: </strong><a href=\"https://collab.agr.gc.ca/apps/harvest-moisson/gallery/Lists/Posts/Post.aspx?ID=346\">Eagle Bluff Fire,</a> By Jesse MacDonald, Science and Technology Branch, Summerland, British Columbia</p>\n<p><strong>Did you know?</strong> <a href=\"https://collab.agr.gc.ca/apps/harvest-moisson/Pages/DidYouKnow.aspx\">Pucinic acid, found in pomegranate oil,</a> has been shown in animal studies to slow breast cancer and skin aging, while also helping to manage diabetes. By introducing pomegranate seeds into canola, Canadian researchers hope to produce pucinic acid at a low cost, and on a large scale.</p>\n<p>You can get involved by posting a comment or \u201cliking\u201d an article. You can also check out what your colleagues are liking and saying.</p>\n<p>Should you have story ideas, scenic or artistic agriculture-related photos, or interesting facts, please share them with us by clicking on \u201cContribute\u201d in the top menu bar.</p>\n<p><img src=\"https://intranet.agr.gc.ca/resources/prod/news/images/Harvest-Carine.png\" class=\"center-block\"></p>\n\n\t\t",
        "fr": "<br>\n<br>\n<p>Au cas o\u00f9 vous l'auriez manqu\u00e9, voici le menu que la section <a href=\"https://collab.agr.gc.ca/apps/harvest-moisson\"><em>La Moisson</em></a> vous offre cette semaine :</p>\n<p><strong>Article </strong><strong>vedette :</strong> <a href=\"https://collab.agr.gc.ca/apps/harvest-moisson\">\u00ab Au travail \u00bb : \u00c0 votre service pour vos probl\u00e8mes de paye</a> \u2013 Faites la connaissance de Carine Leduc, agente principale de liaison de la paye et gestionnaire int\u00e9rimaire de l\u2019\u00e9quipe de la Transformation de la paye. Ce qu\u2019elle pr\u00e9f\u00e8re le plus dans son travail? Les gens.</p>\n<p><strong>Sondage : </strong><a href=\"https://collab.agr.gc.ca/apps/harvest-moisson\">Pourquoi les agriculteurs posent-ils des \u00e9tiquettes \u00e0 l\u2019oreille de leurs vaches?</a></p>\n<p><strong>Photo vedette :</strong> <a href=\"https://collab.agr.gc.ca/apps/harvest-moisson/gallery/Lists/Posts/Post.aspx?ID=346\"> Feu de for\u00eat \u00e0 Eagle Bluff,</a> Par Jesse MacDonald, Direction g\u00e9n\u00e9rale des sciences et de la technologie, Summerland (Colombie-Britannique)</p>\n<p><strong>Le saviez-vous?</strong> Des \u00e9tudes sur des animaux ont r\u00e9v\u00e9l\u00e9 que <a href=\"https://collab.agr.gc.ca/apps/harvest-moisson/Pages/DidYouKnow.aspx\">l\u2019acide pucinique, que l\u2019on trouve dans l\u2019huile de grenade,</a> ralentit l\u2019\u00e9volution du cancer du sein, att\u00e9nue le vieillissement de la peau et r\u00e9duit les effets du diab\u00e8te. En introduisant des g\u00e8nes de grenade dans le canola, les chercheurs esp\u00e8rent pouvoir produire de l\u2019acide pucinique \u00e0 faible co\u00fbt et \u00e0 grande \u00e9chelle.</p>\n<p>Vous pouvez participer en affichant des commentaires ou en utilisant la fonction \u00ab J\u2019aime \u00bb ou \u00ab Partager \u00bb pour exprimer votre appr\u00e9ciation d'un article. Vous pouvez aussi aller voir ce que vos coll\u00e8gues aiment et ont \u00e0 dire.</p>\n<p>Si vous avez des id\u00e9es d\u2019articles, des photos de paysages ou \u00e0 caract\u00e8re artistique li\u00e9es \u00e0 l'agriculture ou encore des faits int\u00e9ressants, veuillez nous en faire part en cliquant sur \u00ab Collaborer \u00bb dans la barre de menu en haut de la page.</p>\n<p><img src=\"https://intranet.agr.gc.ca/resources/prod/news/images/Harvest-Carine.png\" class=\"center-block\"></p>\n\t\t"
    },
    "breadcrumb": {
        "en": "This Week in The Harvest - \"On the Job\": Working to Support Your Pay",
        "fr": "Au menu de La Moisson cette semaine - \u00ab Au travail \u00bb : \u00c0 votre service pour vos probl\u00e8mes de paye"
    },
    "news": {
        "date_posted": {
            "en": "2019-08-22",
            "fr": "2019-08-22"
        },
        "to": {
            "en": "All staff",
            "fr": "Tous les employ\u00e9s"
        },
        "by": {
            "en": "Corporate Communications, Public Affairs Branch",
            "fr": "Communications minist\u00e9rielles, Direction g\u00e9n\u00e9rale des affaires publiques"
        }
    }
}