{
    "dcr_id": "1566829679258",
    "lang": "en",
    "title": {
        "en": "AAFC's Official Languages Scavenger Hunt is Back",
        "fr": "La Chasse au tr\u00e9sor des langues officielles d'AAC est de retour"
    },
    "modified": "2019-08-29 00:00:00.0",
    "issued": "2019-08-29 00:00:00.0",
    "type_name": "intra-intra/news-nouv",
    "node_id": "1279030006975",
    "layout_name": null,
    "dc_date_created": "2019-08-26",
    "breadcrumb_label": "AAFC\u2019s Official Languages Scavenger Hunt is Back",
    "meta": {
        "issued": {
            "en": "2019-08-29",
            "fr": "2019-08-29"
        },
        "modified": {
            "en": "2019-08-29",
            "fr": "2019-08-29"
        },
        "format": {
            "en": "gcformat",
            "fr": "gcformat"
        },
        "title": {
            "en": "AAFC's Official Languages Scavenger Hunt is Back",
            "fr": "La Chasse au tr\u00e9sor des langues officielles d'AAC est de retour"
        },
        "subject": {
            "en": "communications",
            "fr": "communications"
        },
        "description": {
            "en": "Linguistic Duality Day is September 12. All employees across the Department are invited to participate in the AAFC Official Languages Scavenger Hunt.",
            "fr": "Le 12 septembre est la Journ\u00e9e de la dualit\u00e9 linguistique."
        },
        "language": {
            "en": "eng",
            "fr": "fra"
        },
        "audience": {
            "en": "gcaudience",
            "fr": "gcaudience"
        },
        "creator": {
            "en": "Agriculture and Agri-Food Canada",
            "fr": "Agriculture et Agroalimentaire Canada"
        },
        "spatial": {
            "en": "gcregions",
            "fr": "gcregions"
        },
        "service": {
            "en": "AAFC_AgriSource",
            "fr": "AAC_AgriSource"
        },
        "accessRights": {
            "en": "3",
            "fr": "3"
        }
    },
    "body": {
        "en": "<br>\n<br>\n<p>Linguistic Duality Day is September 12. All employees across the Department are invited to participate in the AAFC Official Languages Scavenger Hunt.</p>\n<p>To take part in the scavenger hunt, gather a team of colleagues (up to 5 people per team) and submit the names of each participant, and a team name, to <a href=\"mailto:aafc.officiallanguages-languesofficielles.aac@canada.ca\">aafc.officiallanguages-languesofficielles.aac@canada.ca</a> by <strong>September 10</strong>.</p>\n<p><strong>Scavenger hunt instructions</strong></p>\n<ul>\n<li>The hunt begins on <strong><strong><strong>September 12, at 12:00 p.m. (ET)</strong>. </strong></strong>The list of challenges/questions will be emailed to all participants at that time.</li>\n<li>Each team will have to find the answers to every challenge/question on the list. Once you have completed the hunt, send all of your findings to the OL team by email. Only one email per team will be accepted.</li>\n<li>Your team will have until <strong>12:00 p.m. (ET) on September 13</strong> to submit your answers.</li>\n<li>The OL team can be contacted at any time during the hunt should clarifications or small hints be needed.</li>\n</ul>\n<p>The teams that complete the hunt will be entered into a draw for a prize. The winners and their prize will be announced on September 20, on the <a rel=\"external\" href=\"https://collab.agr.gc.ca/co/olcp_cplo/Lists/Activities/Tiles.aspx\">Official Languages Knowledge Workspace page</a>.</p>\n<p>Sign up and help celebrate our country\u2019s two official languages!</p>\n\n\t\t",
        "fr": "<br>\n<br>\n<p>Le 12 septembre est la Journ\u00e9e de la dualit\u00e9 linguistique. Tous les employ\u00e9s du Minist\u00e8re sont invit\u00e9s \u00e0 participer \u00e0 la Chasse au tr\u00e9sor des langues officielles d\u2019AAC.</p>\n<p>Pour y participer, cr\u00e9ez une \u00e9quipe de coll\u00e8gues (jusqu\u2019\u00e0 5 personnes par \u00e9quipe) et soumettez le nom de chaque participant ainsi que le nom de l\u2019\u00e9quipe \u00e0 l\u2019adresse <a href=\"mailto:aafc.officiallanguages-languesofficielles.aac@canada.ca\">aafc.officiallanguages-languesofficielles.aac@canada.ca</a>, avant le <strong>10 septembre. </strong></p>\n<p><strong>Instructions pour la chasse au tr\u00e9sor :</strong></p>\n<ul>\n<li>La chasse commence le <strong><strong>12 septembre, \u00e0 12 h (HE)</strong></strong>. La liste des d\u00e9fis/questions sera envoy\u00e9e par courriel \u00e0 tous les participants \u00e0 ce moment-l\u00e0.</li>\n<li>Chaque \u00e9quipe devra trouver les r\u00e9ponses \u00e0 chaque d\u00e9fi/question de la liste. Une fois la chasse termin\u00e9e, les \u00e9quipes feront parvenir leurs r\u00e9sultats \u00e0 l\u2019\u00e9quipe des LO par courriel. Un seul courriel par \u00e9quipe sera accept\u00e9.</li>\n<li>Votre \u00e9quipe aura jusqu\u2019au <strong>13 septembre \u00e0 12 h (HE)</strong> pour soumettre les r\u00e9ponses.</li>\n<li>Vous pouvez communiquer avec l\u2019\u00e9quipe des LO en tout temps pendant la chasse, si vous avez besoin de pr\u00e9cisions ou de petits indices.</li>\n</ul>\n<p>Les \u00e9quipes finalistes seront inscrites \u00e0 un tirage au sort leur permettant de remporter un prix. Les gagnants et leur prix seront annonc\u00e9s le 20 septembre sur la <a rel=\"external\" href=\"https://collab.agr.gc.ca/co/olcp_cplo/Lists/Activities/Tiles.aspx\">page de l\u2019Espace de travail du savoir des langues officielles</a>.</p>\n<p>Inscrivez-vous et contribuez \u00e0 la c\u00e9l\u00e9bration des deux langues officielles de notre pays!</p>\n\t\t"
    },
    "breadcrumb": {
        "en": "AAFC\u2019s Official Languages Scavenger Hunt is Back",
        "fr": "La Chasse au tr\u00e9sor des langues officielles d'AAC est de retour"
    },
    "news": {
        "date_posted": {
            "en": "2019-08-29",
            "fr": "2019-08-29"
        },
        "to": {
            "en": "All staff",
            "fr": "Tous les employ\u00e9s"
        },
        "by": {
            "en": "Official Languages Committee",
            "fr": "Comit\u00e9 des langues officielles"
        }
    }
}