{
    "dcr_id": "1567519541757",
    "lang": "en",
    "title": {
        "en": "Report Highlights AAFC's Progress on Departmental Priorities in 2018-19",
        "fr": "Le rapport souligne les progr\u00e8s d'AAC au chapitre des priorit\u00e9s minist\u00e9rielles en 2018-2019"
    },
    "modified": "2019-09-05 00:00:00.0",
    "issued": "2019-09-05 00:00:00.0",
    "type_name": "intra-intra/news-nouv",
    "node_id": "1279030006975",
    "layout_name": null,
    "dc_date_created": "2019-09-04",
    "breadcrumb_label": "",
    "meta": {
        "issued": {
            "en": "2019-09-05",
            "fr": "2019-09-05"
        },
        "modified": {
            "en": "2019-09-05",
            "fr": "2019-09-05"
        },
        "format": {
            "en": "gcformat",
            "fr": "gcformat"
        },
        "title": {
            "en": "Report Highlights AAFC's Progress on Departmental Priorities in 2018-19",
            "fr": "Le rapport souligne les progr\u00e8s d'AAC au chapitre des priorit\u00e9s minist\u00e9rielles en 2018-2019"
        },
        "subject": {
            "en": "communications",
            "fr": "communications"
        },
        "description": {
            "en": "The 2018-19 fiscal year was an ambitious one for AAFC, as outlined in the 2018-19 year-end report, which is now available on Knowledge Workspace.",
            "fr": "Comme le souligne le rapport de fin d'exercice 2018-2019, qui est d\u00e9sormais disponible dans l'Espace de travail du savoir, l'ann\u00e9e financi\u00e8re 2018-2019 a \u00e9t\u00e9 un exercice ambitieux pour AAC."
        },
        "language": {
            "en": "eng",
            "fr": "fra"
        },
        "audience": {
            "en": "gcaudience",
            "fr": "gcaudience"
        },
        "creator": {
            "en": "Agriculture and Agri-Food Canada",
            "fr": "Agriculture et Agroalimentaire Canada"
        },
        "spatial": {
            "en": "gcregions",
            "fr": "gcregions"
        },
        "service": {
            "en": "AAFC_AgriSource",
            "fr": "AAC_AgriSource"
        },
        "accessRights": {
            "en": "3",
            "fr": "3"
        }
    },
    "body": {
        "en": "<br>\n<br>\n<p>The 2018-19 fiscal year was an ambitious one for AAFC, as outlined in the 2018-19 year-end report, which is now available on <a href=\"https://collab.agr.gc.ca/co/smd-cmb_dgs-dggi/SitePages/AAFC%20YEAR%20IN%20REVIEW%202018-19.aspx\">Knowledge Workspace</a>.</p>\n<p>The year-end report was created for employees, to help us learn more about the breadth and diversity of work across AAFC. It highlights our key accomplishments against the ten Departmental Priorities, including in the areas of trade, science and innovation, programming, service delivery, and continued efforts to foster an inclusive and healthy workplace.</p>\n<p>Additional information on the previous fiscal year will be available in the 2018-19 Departmental Results Report, to be tabled in Parliament and published on the AAFC website later this year.</p>\n<p>I encourage you all to visit the <a href=\"https://collab.agr.gc.ca/co/smd-cmb_dgs-dggi/SitePages/AAFC%20YEAR%20IN%20REVIEW%202018-19.aspx\">AAFC Year in Review 2018-19</a> page on Knowledge Workspace to read about the dynamic and interesting work done by AAFC employees over the past year.</p>\n<p><strong>Learn more</strong></p>\n<ul>\n<li><a href=\"http://intranet.agr.gc.ca/agrisource/eng/our-department/departmental-overview/departmental-and-branch-priorities-and-reporting?id=1287433335737\">Departmental Priorities</a></li>\n</ul>\n\n\t\t",
        "fr": "<br>\n<br>\n<p>Comme le souligne le rapport de fin d\u2019exercice 2018-2019, qui est d\u00e9sormais disponible dans l\u2019<a href=\"https://collab.agr.gc.ca/co/smd-cmb_dgs-dggi/SitePages/AAFC%20YEAR%20IN%20REVIEW%202018-19.aspx\">Espace de travail du savoir</a>, l\u2019ann\u00e9e financi\u00e8re 2018-2019 a \u00e9t\u00e9 un exercice ambitieux pour AAC.</p>\n<p>Le rapport de fin d\u2019exercice a \u00e9t\u00e9 cr\u00e9\u00e9 \u00e0 l\u2019intention des employ\u00e9s pour nous aider \u00e0 en apprendre davantage sur l\u2019\u00e9tendue et la diversit\u00e9 du travail \u00e0 AAC. Il souligne nos principales r\u00e9alisations par rapport aux dix priorit\u00e9s minist\u00e9rielles, notamment dans les domaines du commerce, des sciences et de l\u2019innovation, des programmes, de la prestation des services et des efforts soutenus pour favoriser un milieu de travail inclusif et sain.</p>\n<p>Des renseignements suppl\u00e9mentaires sur l\u2019exercice pr\u00e9c\u00e9dent pourront \u00eatre consult\u00e9s dans le Rapport sur les r\u00e9sultats minist\u00e9riels de 2018-2019, lequel sera pr\u00e9sent\u00e9 au Parlement et publi\u00e9 sur le site Web d\u2019AAC, plus tard cette ann\u00e9e.</p>\n<p>Je vous encourage tous \u00e0 visiter la page <a href=\"https://collab.agr.gc.ca/co/smd-cmb_dgs-dggi/SitePages/AAFC%20YEAR%20IN%20REVIEW%202018-19.aspx\">Bilan de l\u2019exercice 2018-2019 d\u2019AAC</a> dans l\u2019Espace de travail du savoir afin d\u2019en savoir plus sur le travail dynamique et int\u00e9ressant qui a \u00e9t\u00e9 accompli par les employ\u00e9s d\u2019AAC au cours de la derni\u00e8re ann\u00e9e.</p>\n<p><strong>Pour en savoir plus</strong></p>\n<ul>\n<li><a href=\"http://intranet.agr.gc.ca/agrisource/fra/notre-ministere/vue-densemble-du-ministere/priorites-et-rapports-du-ministere-et-des-directions-generales?id=1287433335737\">Priorit\u00e9s minist\u00e9rielles</a></li>\n</ul>\n\t\t"
    },
    "breadcrumb": {
        "en": "Report Highlights AAFC's Progress on Departmental Priorities in 2018-19",
        "fr": "Le rapport souligne les progr\u00e8s d'AAC au chapitre des priorit\u00e9s minist\u00e9rielles en 2018-2019"
    },
    "news": {
        "date_posted": {
            "en": "2019-09-05",
            "fr": "2019-09-05"
        },
        "to": {
            "en": "All staff",
            "fr": "Tous les employ\u00e9s"
        },
        "by": {
            "en": "Christine Walker, Assistant Deputy Minister, Corporate Management Branch",
            "fr": "Christine Walker, sous-ministre adjointe, Direction g\u00e9n\u00e9rale de la gestion int\u00e9gr\u00e9e"
        }
    }
}