{
    "dcr_id": "1567024653408",
    "lang": "en",
    "title": {
        "en": "NCR - NHCAP Parking Lot Line Painting \u2013 September 3 to 5",
        "fr": "RCN - Tra\u00e7age des places de stationnement du CACPA - du 3 au 5 septembre"
    },
    "modified": "2019-08-29 00:00:00.0",
    "issued": "2019-08-29 00:00:00.0",
    "type_name": "intra-intra/news-nouv",
    "node_id": "1279030006975",
    "layout_name": null,
    "dc_date_created": "2019-08-29",
    "breadcrumb_label": "NCR - NHCAP Parking Lot Line Painting - September 3 to 5",
    "meta": {
        "issued": {
            "en": "2019-08-29",
            "fr": "2019-08-29"
        },
        "modified": {
            "en": "2019-08-29",
            "fr": "2019-08-29"
        },
        "format": {
            "en": "gcformat",
            "fr": "gcformat"
        },
        "title": {
            "en": "NCR - NHCAP Parking Lot Line Painting \u2013 September 3 to 5",
            "fr": "RCN - Tra\u00e7age des places de stationnement du CACPA - du 3 au 5 septembre"
        },
        "subject": {
            "en": "communications",
            "fr": "communications"
        },
        "description": {
            "en": "All the NHCAP parking lots will be closed from 10:00 p.m. to 5:00 a.m. on September 3, 4 and 5.",
            "fr": "Les 3, 4 et 5 septembre, tous les parcs de stationnement du CACPA seront ferm\u00e9s de 22 h \u00e0 5 h."
        },
        "language": {
            "en": "eng",
            "fr": "fra"
        },
        "audience": {
            "en": "gcaudience",
            "fr": "gcaudience"
        },
        "creator": {
            "en": "Agriculture and Agri-Food Canada",
            "fr": "Agriculture et Agroalimentaire Canada"
        },
        "spatial": {
            "en": "gcregions",
            "fr": "gcregions"
        },
        "service": {
            "en": "AAFC_AgriSource",
            "fr": "AAC_AgriSource"
        },
        "accessRights": {
            "en": "3",
            "fr": "3"
        }
    },
    "body": {
        "en": "<br>\n<br>\n<p>All the NHCAP parking lots will be closed from 10:00 p.m. to 5:00 a.m. on\u00a0September 3, 4 and 5, 2019. All the parking spots lines, accessible parking spot indicators, stop lines, pedestrian walkways and directional arrows will be painted during these times.</p>\n<p>If you are in the office and parking on site during these overnight hours, please park only in the parkade located behind the complex. Details are outlined in the <a href=\"http://intranet.agr.gc.ca/agrisource/AgriDoc.do?id=104972831&amp;lang=eng\">Maple Leaf Property Management notice</a>.</p>\n<p><img src=\"https://intranet.agr.gc.ca/resources/prod/news/images/MapleLeafProperty.png\" class=\"center-block\"></p>\n\n\t\t",
        "fr": "<br>\n<br>\n<p>Les 3, 4 et 5 septembre, tous les parcs de stationnement du CACPA seront ferm\u00e9s de 22 h \u00e0 5 h. Les lignes des places de stationnement, les indicateurs des places de stationnement accessible, les lignes d\u2019arr\u00eat, les all\u00e9es pi\u00e9tonni\u00e8res et les fl\u00e8ches directionnelles seront peints durant ces p\u00e9riodes.</p>\n<p>Si vous travaillez et stationnez sur place pendant ces heures de nuit, veuillez stationner uniquement dans le garage \u00e0 \u00e9tages situ\u00e9 derri\u00e8re le complexe. Vous trouverez de plus amples renseignements dans <a href=\"http://intranet.agr.gc.ca/agrisource/AgriDoc.do?id=104972831&amp;lang=fra\">l\u2019avis de Maple Leaf Property Management</a>.</p>\n<p><img src=\"https://intranet.agr.gc.ca/resources/prod/news/images/MapleLeafProperty.png\" class=\"center-block\"></p>\n\t\t"
    },
    "breadcrumb": {
        "en": "NCR - NHCAP Parking Lot Line Painting - September 3 to 5",
        "fr": "RCN - Tra\u00e7age des places de stationnement du CACPA - du 3 au 5 septembre"
    },
    "news": {
        "date_posted": {
            "en": "2019-08-29",
            "fr": "2019-08-29"
        },
        "to": {
            "en": "NCR only",
            "fr": "RCN seulement"
        },
        "by": {
            "en": "Maple Leaf Property Management",
            "fr": "Maple Leaf Property Management"
        }
    }
}