{
    "dcr_id": "1568661983056",
    "lang": "en",
    "title": {
        "en": "NCR - Security Sweeps at NHCAP - Securing Your Workspace ",
        "fr": "RCN - Ratissages de s\u00e9curit\u00e9 au CACPA - Protection de votre poste de travail "
    },
    "modified": "2019-09-19 00:00:00.0",
    "issued": "2019-09-19 00:00:00.0",
    "type_name": "intra-intra/news-nouv",
    "node_id": "1279030006975",
    "layout_name": null,
    "dc_date_created": "2019-09-16",
    "breadcrumb_label": "",
    "meta": {
        "issued": {
            "en": "2019-09-19",
            "fr": "2019-09-19"
        },
        "modified": {
            "en": "2019-09-19",
            "fr": "2019-09-19"
        },
        "format": {
            "en": "gcformat",
            "fr": "gcformat"
        },
        "title": {
            "en": "NCR - Security Sweeps at NHCAP - Securing Your Workspace ",
            "fr": "RCN - Ratissages de s\u00e9curit\u00e9 au CACPA - Protection de votre poste de travail "
        },
        "subject": {
            "en": "communications",
            "fr": "communications"
        },
        "description": {
            "en": "Departmental Security Services would like to remind all employees of their responsibility to properly safeguard, handle, and store protected and/or classified documentation.",
            "fr": "Les Services de s\u00e9curit\u00e9 minist\u00e9riels tiennent \u00e0 rappeler aux employ\u00e9s qu'il leur incombe de prot\u00e9ger, de manipuler et d\u2019entreposer de mani\u00e8re appropri\u00e9e les documents prot\u00e9g\u00e9s ou classifi\u00e9s."
        },
        "language": {
            "en": "eng",
            "fr": "fra"
        },
        "audience": {
            "en": "gcaudience",
            "fr": "gcaudience"
        },
        "creator": {
            "en": "Agriculture and Agri-Food Canada",
            "fr": "Agriculture et Agroalimentaire Canada"
        },
        "spatial": {
            "en": "gcregions",
            "fr": "gcregions"
        },
        "service": {
            "en": "AAFC_AgriSource",
            "fr": "AAC_AgriSource"
        },
        "accessRights": {
            "en": "3",
            "fr": "3"
        }
    },
    "body": {
        "en": "<br>\n<br>\n<p>Departmental Security Services would like to remind all employees of their responsibility to properly safeguard, handle, and store protected and/or classified documentation.</p>\n<p>AAFC has a robust security sweep inspection program in place. Regular visual inspections are conducted by Commissionaires at NHCAP who are looking for:</p>\n<ul>\n<li>clearly visible documents marked \u201cProtected\u201d (A,B,C) or \u201cClassified\u201d (Confidential, Secret, Top Secret)</li>\n<li>unsecured laptops (not locked to the desk, passwords left in the open or no password protection)</li>\n<li>secure filing cabinets that are not locked</li>\n<li>work mobile devices and cell phones left unsecured</li>\n<li>access cards and AAFC keys</li>\n<li>Removable Media (USB Sticks, Portable Hard Drives)</li>\n</ul>\n<p>Some areas they may sweep would be:</p>\n<ul>\n<li>open areas (on desktops and on top of other working areas);</li>\n<li>unlocked security containers and cabinets;</li>\n<li>mail baskets;</li>\n<li>waste bins;</li>\n<li>recycling bins;</li>\n<li>open shelves;</li>\n<li>laptop cables;</li>\n<li>common area printers and faxes;</li>\n<li>Government of Canada Secret Infrastructure (GCSI) printer stations</li>\n</ul>\n<h2><strong>What you can do to prevent getting a citation or having your sensitive documents seized </strong></h2>\n<p>Employees should maintain a clean desk at all times \u2013 ensure that all Classified and Protected documents are securely put away, and that no sensitive information is accessible when you are away from your desk. It is as easy as taking a few minutes before breaks and at the end of your workday to lock up your documents!</p>\n<p>If you are missing keys for your laptop lock or filing cabinet, contact your <a href=\"http://intranet.agr.gc.ca/agrisource/AgriDoc.do?id=3884940&amp;lang=eng\">Branch Accommodations Representative</a>.</p>\n<h2><strong>Learn more</strong></h2>\n<p>Visit <a href=\"http://intranet.agr.gc.ca/agrisource/eng/branches-and-offices/corporate-management-branch/services/departmental-security-services/physical-security?id=1325689472216\">AAFC\u2019s Physical Security page on AgriSource</a> for security sweep policies and standards.</p>\n<p>For further details on sensitive information, refer to:</p>\n<ul>\n<li><a target=\"_blank\" href=\"http://intranet.agr.gc.ca/agrisource/AgriDoc.do?id=3122172&amp;lang=eng\">Guide to Classification and Handling of Sensitive Information</a></li>\n<li><a href=\"https://collab.agr.gc.ca/co/dss-ssm/Documents/Administrative%20Professional%20Community%20Security%20Handbook/ABC%20and%20Secret%20-%20EN.docx\">A-B-C\u2019s of protected information and the secret to classifying information</a></li>\n</ul>\n<p>Be sure to complete the mandatory security awareness training courses: <a href=\"http://intranet.agr.gc.ca/agrisource/eng/human-resources/learning-and-development/training/employees/security-awareness-a230?id=1523285530838\">Canada School of Public Service's A230</a>, and <a href=\"http://intranet.agr.gc.ca/agrisource/eng/human-resources/learning-and-development/training/employees/security-awareness-agr-620?id=1325695839878\">AAFC's AGR-620</a>.</p>\n<p><img src=\"https://intranet.agr.gc.ca/resources/prod/news/images/Security%20-%20Documents%20-%201.jpg\" class=\"center-block\" alt=\"\"></p>\n<p><strong>\u00a0</strong></p>\n\n\t\t",
        "fr": "<br>\n<br>\n<p>Les Services de s\u00e9curit\u00e9 minist\u00e9riels tiennent \u00e0 rappeler aux employ\u00e9s qu\u2019il leur incombe de prot\u00e9ger, de manipuler et d\u2019entreposer de mani\u00e8re appropri\u00e9e les documents prot\u00e9g\u00e9s ou classifi\u00e9s.</p>\n<p>AAC a un excellent programme de ratissage de s\u00e9curit\u00e9. Les commissionnaires proc\u00e8dent r\u00e9guli\u00e8rement \u00e0 des inspections visuelles au CACPA pour rep\u00e9rer :</p>\n<ul>\n<li>les documents clairement visibles qui sont cot\u00e9s comme \u00e9tant prot\u00e9g\u00e9s (A, B, C) ou classifi\u00e9s (Confidentiel, Secret, Top Secret);</li>\n<li>les ordinateurs non verrouill\u00e9s (qui ne sont pas attach\u00e9s au bureau, ne sont pas prot\u00e9g\u00e9s par mot de passe ou dont les mots de passe sont laiss\u00e9s \u00e0 la vue);</li>\n<li>les classeurs \u00e0 acc\u00e8s limit\u00e9 qui ne sont pas verrouill\u00e9s;</li>\n<li>les appareils mobiles et les cellulaires de travail qui n\u2019ont pas \u00e9t\u00e9 mis en lieu s\u00fbr;</li>\n<li>les cartes d\u2019acc\u00e8s et les cl\u00e9s d\u2019AAC;</li>\n<li>les m\u00e9dias amovibles (cl\u00e9s USB, lecteurs durs portables).</li>\n</ul>\n<p>\u00c9l\u00e9ments qui peuvent \u00eatre v\u00e9rifi\u00e9s lors d\u2019un ratissage de s\u00e9curit\u00e9 :</p>\n<ul>\n<li>les surfaces \u00e0 la vue (dessus de bureaux et autres surfaces de travail);</li>\n<li>les coffres de s\u00e9curit\u00e9 et les armoires non verrouill\u00e9s;</li>\n<li>les corbeilles \u00e0 courrier;</li>\n<li>les corbeilles \u00e0 d\u00e9chets;</li>\n<li>les bacs de recyclage;</li>\n<li>les rayonnages ouverts;</li>\n<li>les c\u00e2bles des ordinateurs portatifs;</li>\n<li>les imprimantes et les t\u00e9l\u00e9copieurs dans les zones communes;</li>\n<li>les stations d\u2019impression de l\u2019infrastructure secr\u00e8te du gouvernement du Canada (ISGC).</li>\n</ul>\n<h2><strong>Ce que vous pouvez faire pour \u00e9viter de recevoir un avis d\u2019infraction ou emp\u00eacher la saisie de vos documents de nature d\u00e9licate </strong></h2>\n<p>Les employ\u00e9s doivent avoir un bureau propre en tout temps. Assurez-vous que tous les documents classifi\u00e9s ou prot\u00e9g\u00e9s sont rang\u00e9s dans un endroit s\u00fbr et qu\u2019aucun renseignement de nature d\u00e9licate n\u2019est accessible lorsque vous quittez votre bureau. Il vous suffit de prendre quelques minutes avant les pauses et \u00e0 la fin de la journ\u00e9e pour mettre vos documents en lieu s\u00fbr!</p>\n<p>S\u2019il vous n\u2019avez pas la cl\u00e9 du cadenas de votre ordinateur portatif ou de votre classeur, veuillez communiquer avec le <a href=\"http://intranet.agr.gc.ca/agrisource/AgriDoc.do?id=3884940&amp;lang=eng\">repr\u00e9sentant des locaux de votre direction g\u00e9n\u00e9rale</a>.</p>\n<h2><strong>Pour en savoir plus</strong></h2>\n<p>Visitez <a href=\"http://intranet.agr.gc.ca/agrisource/fra/directions-generales-et-bureaux/direction-generale-de-la-gestion-integree/services/services-de-securite-ministeriels/securite-materielle?id=1325689472216\">la page sur la s\u00e9curit\u00e9 mat\u00e9rielle dans AgriSource</a> pour conna\u00eetre les politiques et les normes d\u2019AAC en mati\u00e8re de ratissages de s\u00e9curit\u00e9.</p>\n<p>Pour plus d\u2019information sur les renseignements de nature d\u00e9licate, consultez :</p>\n<ul>\n<li><a target=\"_blank\" href=\"http://intranet.agr.gc.ca/agrisource/AgriDoc.do?id=3122178&amp;lang=fra\">le Guide pour la classification et le traitement des renseignements sensibles</a></li>\n<li><a href=\"https://collab.agr.gc.ca/co/dss-ssm/Documents/Administrative%20Professional%20Community%20Security%20Handbook/ABC%20and%20Secret%20-%20FR.docx\">l'ABC des renseignements prot\u00e9g\u00e9s et le secret de la classification des renseignements</a></li>\n</ul>\n<p>Assurez-vous de suivre les cours obligatoires suivants sur la s\u00e9curit\u00e9 : <a href=\"http://intranet.agr.gc.ca/agrisource/fra/ressources-humaines/apprentissage-et-perfectionnement/formation/employes/sensibilisation-a-la-securite-a230?id=1523285530838\">cours A230 de l'\u00c9cole de la fonction publique du Canada</a> et <a href=\"http://intranet.agr.gc.ca/agrisource/fra/ressources-humaines/apprentissage-et-perfectionnement/formation/employes/sensibilisation-a-la-securite-agr-620?id=1325695839878\">cours AGR-620 d'AAC</a>.</p>\n<p><img src=\"https://intranet.agr.gc.ca/resources/prod/news/images/Security%20-%20Documents%20-%201.jpg\" class=\"center-block\"></p>\n<p><strong>\u00a0</strong></p>\n\t\t"
    },
    "breadcrumb": {
        "en": "NCR - Security Sweeps at NHCAP - Securing Your Workspace",
        "fr": "RCN - Ratissages de s\u00e9curit\u00e9 au CACPA - Protection de votre poste de travail"
    },
    "news": {
        "date_posted": {
            "en": "2019-09-19",
            "fr": "2019-09-19"
        },
        "to": {
            "en": "NCR only",
            "fr": "RCN seulement"
        },
        "by": {
            "en": "Departmental Security Services, Corporate Management Branch",
            "fr": "Services de s\u00e9curit\u00e9 minist\u00e9riels, Direction g\u00e9n\u00e9rale de la gestion int\u00e9gr\u00e9e"
        }
    }
}