{
    "dcr_id": "1568141304098",
    "lang": "en",
    "title": {
        "en": "NCR - Repair of Exterior Stairs and Landings - September 9 - October 11, 2019",
        "fr": "RCN - R\u00e9paration d'escaliers et de paliers ext\u00e9rieurs - Du 9 septembre au 11 octobre 2019"
    },
    "modified": "2019-09-12 00:00:00.0",
    "issued": "2019-09-12 00:00:00.0",
    "type_name": "intra-intra/news-nouv",
    "node_id": "1279030006975",
    "layout_name": null,
    "dc_date_created": "2019-09-10",
    "breadcrumb_label": "",
    "meta": {
        "issued": {
            "en": "2019-09-12",
            "fr": "2019-09-12"
        },
        "modified": {
            "en": "2019-09-12",
            "fr": "2019-09-12"
        },
        "format": {
            "en": "gcformat",
            "fr": "gcformat"
        },
        "title": {
            "en": "NCR - Repair of Exterior Stairs and Landings - September 9 - October 11, 2019",
            "fr": "RCN - R\u00e9paration d'escaliers et de paliers ext\u00e9rieurs - Du 9 septembre au 11 octobre 2019"
        },
        "subject": {
            "en": "communications",
            "fr": "communications"
        },
        "description": {
            "en": "Maple Leaf Property Management (MLPM) will be making repairs to the exterior entrances to the rear of Towers 3 and 4 and the exterior stairs leading from the lane located between Tower 4 and the gym/Skyspan.",
            "fr": "Maple Leaf Property Management proc\u00e9dera \u00e0 la r\u00e9paration de la partie ext\u00e9rieure des entr\u00e9es \u00e0 l'arri\u00e8re des tours 3 et 4 et des escaliers ext\u00e9rieurs qui vont de la voie situ\u00e9e entre la tour 4 et le centre de conditionnement physique/Skyspan."
        },
        "language": {
            "en": "eng",
            "fr": "fra"
        },
        "audience": {
            "en": "gcaudience",
            "fr": "gcaudience"
        },
        "creator": {
            "en": "Agriculture and Agri-Food Canada",
            "fr": "Agriculture et Agroalimentaire Canada"
        },
        "spatial": {
            "en": "gcregions",
            "fr": "gcregions"
        },
        "service": {
            "en": "AAFC_AgriSource",
            "fr": "AAC_AgriSource"
        },
        "accessRights": {
            "en": "3",
            "fr": "3"
        }
    },
    "body": {
        "en": "<br>\n<br>\n<p>Maple Leaf Property Management (MLPM) will be making repairs to the exterior entrances to the rear of Towers 3 and 4 and the exterior stairs leading from the lane located between Tower 4 and the gym/Skyspan. This construction will not create any safety issues and, in the event of an emergency, construction will be halted to ensure safe evacuation.</p>\n<p>As with previous construction projects, please stay clear of workers and contact the National Service Call Centre (NSCC) at 1-800-463-1850 if you have any questions or concerns.</p>\n<p><img src=\"https://intranet.agr.gc.ca/resources/prod/news/images/MapleLeafProperty.png\" class=\"center-block\"></p>\n\n\t\t",
        "fr": "<br>\n<br>\n<p>Maple Leaf Property Management proc\u00e9dera \u00e0 la r\u00e9paration de la partie ext\u00e9rieure des entr\u00e9es \u00e0 l\u2019arri\u00e8re des tours 3 et 4 et des escaliers ext\u00e9rieurs qui vont de la voie situ\u00e9e entre la tour 4 et le centre de conditionnement physique/Skyspan. Ces travaux ne pr\u00e9sentent pas de probl\u00e8mes sur le plan de la s\u00e9curit\u00e9 et, en cas d\u2019urgence, les travaux seront arr\u00eat\u00e9s afin d\u2019assurer une \u00e9vacuation en toute s\u00e9curit\u00e9.</p>\n<p>Comme pour les pr\u00e9c\u00e9dents travaux de construction, veuillez vous tenir \u00e0 l\u2019\u00e9cart des ouvriers et communiquer avec le Centre national d\u2019appels de service au 1-800-463-1850 si vous avez des questions ou des pr\u00e9occupations \u00e0 ce sujet.</p>\n<p><img src=\"https://intranet.agr.gc.ca/resources/prod/news/images/MapleLeafProperty.png\" class=\"center-block\"></p>\n\t\t"
    },
    "breadcrumb": {
        "en": "NCR - Repair of Exterior Stairs and Landings - September 9 - October 11, 2019",
        "fr": "RCN - R\u00e9paration d'escaliers et de paliers ext\u00e9rieurs - Du 9 septembre au 11 octobre 2019"
    },
    "news": {
        "date_posted": {
            "en": "2019-09-10",
            "fr": "2019-09-10"
        },
        "to": {
            "en": "NCR only",
            "fr": "RCN seulement"
        },
        "by": {
            "en": "Maple Leaf Property Management",
            "fr": "Maple Leaf Property Management"
        }
    }
}