{
    "dcr_id": "1568732855461",
    "lang": "en",
    "title": {
        "en": "Canada Celebrates Right to Know Week September 23-28",
        "fr": "Le Canada souligne la Semaine du droit \u00e0 l'information du 23 au 28 septembre"
    },
    "modified": "2019-09-19 00:00:00.0",
    "issued": "2019-09-19 00:00:00.0",
    "type_name": "intra-intra/news-nouv",
    "node_id": "1279030006975",
    "layout_name": null,
    "dc_date_created": "2019-09-17",
    "breadcrumb_label": "",
    "meta": {
        "issued": {
            "en": "2019-09-19",
            "fr": "2019-09-19"
        },
        "modified": {
            "en": "2019-09-19",
            "fr": "2019-09-19"
        },
        "format": {
            "en": "gcformat",
            "fr": "gcformat"
        },
        "title": {
            "en": "Canada Celebrates Right to Know Week September 23-28",
            "fr": "Le Canada souligne la Semaine du droit \u00e0 l'information du 23 au 28 septembre"
        },
        "subject": {
            "en": "communications",
            "fr": "communications"
        },
        "description": {
            "en": "September 28 is International Right to Know Day, which aims to raise awareness of an individual's right to access government information.",
            "fr": "Le 28 septembre marque la Journ\u00e9e internationale du droit \u00e0 l\u2019information, laquelle vise \u00e0 sensibiliser sur le droit individuel \u00e0 l'acc\u00e8s \u00e0 l'information du gouvernement."
        },
        "language": {
            "en": "eng",
            "fr": "fra"
        },
        "audience": {
            "en": "gcaudience",
            "fr": "gcaudience"
        },
        "creator": {
            "en": "Agriculture and Agri-Food Canada",
            "fr": "Agriculture et Agroalimentaire Canada"
        },
        "spatial": {
            "en": "gcregions",
            "fr": "gcregions"
        },
        "service": {
            "en": "AAFC_AgriSource",
            "fr": "AAC_AgriSource"
        },
        "accessRights": {
            "en": "3",
            "fr": "3"
        }
    },
    "body": {
        "en": "<br>\n<br>\n<p>September 28 is International Right to Know Day, which aims to raise awareness of an individual\u2019s right to access government information. Again this year, approximately 40 countries and 60 non-governmental organizations will celebrate Right to Know Day.</p>\n<p>On September 23 to 28, Canada will also be celebrating its 14th year of Right to Know Week. Various activities promoting awareness of the right to access government information, and the role of freedom of information as essential to both democracy and good governance will be held across Canada at the provincial and federal levels.</p>\n<p>We invite you to visit the <a href=\"https://www.oic-ci.gc.ca/rtk-dai/\">Right to Know Week in Canada page</a> on the <a href=\"https://www.oic-ci.gc.ca/en\">Office of the Information Commissioner of Canada\u2019s website </a>to learn more about the history of the Right to Know movement; the 10 useful Right to Know principles; and more information on this year\u2019s activities.</p>\n<p>\u00a0</p>\n\n\t\t",
        "fr": "<br>\n<br>\n<p>Le 28 septembre marque la Journ\u00e9e internationale du droit \u00e0 l\u2019information, laquelle vise \u00e0 sensibiliser sur le droit individuel \u00e0 l\u2019acc\u00e8s \u00e0 l\u2019information du gouvernement. Cette ann\u00e9e encore, environ 40 pays et 60 organisations non gouvernementales c\u00e9l\u00e9breront la Journ\u00e9e du droit \u00e0 l\u2019information.</p>\n<p>Par ailleurs, le Canada c\u00e9l\u00e9brera sa 14e \u00e9dition de la Semaine du droit \u00e0 l\u2019information, du 23 au 28 septembre 2019. Diverses activit\u00e9s seront tenues au Canada, aux niveaux provincial et f\u00e9d\u00e9ral, pour sensibiliser les Canadiens au droit d\u2019acc\u00e8s \u00e0 l\u2019information gouvernementale et au r\u00f4le essentiel du libre acc\u00e8s \u00e0 l\u2019information pour la d\u00e9mocratie et la bonne gouvernance.</p>\n<p>Nous vous invitons \u00e0 visiter la <a href=\"https://www.oic-ci.gc.ca/dai-rtk/\">page sur le droit \u00e0 l\u2019information</a> sur le site Web du <a href=\"https://www.oic-ci.gc.ca/fr\">Commissaire \u00e0 l\u2019information du Canada</a> pour en savoir plus sur l\u2019histoire du mouvement du droit \u00e0 l\u2019information, pour conna\u00eetre les dix principes du droit \u00e0 l\u2019information et pour vous renseigner sur les activit\u00e9s qui se d\u00e9rouleront cette ann\u00e9e.</p>\n\t\t"
    },
    "breadcrumb": {
        "en": "Canada Celebrates Right to Know Week September 23-28",
        "fr": "Le Canada souligne la Semaine du droit \u00e0 l'information du 23 au 28 septembre"
    },
    "news": {
        "date_posted": {
            "en": "2019-09-19",
            "fr": "2019-09-23"
        },
        "to": {
            "en": "All staff",
            "fr": "Tous les employ\u00e9s"
        },
        "by": {
            "en": "ATIP Office and Translation Services, Public Affairs Branch",
            "fr": "Bureau de l\u2019AIPRP et du STR de la DGAP"
        }
    }
}