{
    "dcr_id": "1568056316669",
    "lang": "en",
    "title": {
        "en": "Reminder - Becoming an Effective Information Gatherer - September 25",
        "fr": "Rappel - Devenir un collecteur d'information efficace - 25 septembre"
    },
    "modified": "2019-09-19 00:00:00.0",
    "issued": "2019-09-12 00:00:00.0",
    "type_name": "intra-intra/news-nouv",
    "node_id": "1279030006975",
    "layout_name": null,
    "dc_date_created": "2019-09-09",
    "breadcrumb_label": "",
    "meta": {
        "issued": {
            "en": "2019-09-12",
            "fr": "2019-09-12"
        },
        "modified": {
            "en": "2019-09-19",
            "fr": "2019-09-19"
        },
        "format": {
            "en": "gcformat",
            "fr": "gcformat"
        },
        "title": {
            "en": "Reminder - Becoming an Effective Information Gatherer - September 25",
            "fr": "Rappel - Devenir un collecteur d'information efficace - 25 septembre"
        },
        "subject": {
            "en": "communications",
            "fr": "communications"
        },
        "description": {
            "en": "Digital data available through the Internet continues to grow at staggering rates. It is estimated the digital universe contains 2.7 zettabytes of data and it continues to grow by the second.",
            "fr": "Les donn\u00e9es num\u00e9riques disponibles sur Internet continuent de cro\u00eetre \u00e0 un rythme effarant. On estime que l'univers num\u00e9rique contient 2,7 zettaoctets de donn\u00e9es et qu'il continue de cro\u00eetre \u00e0 la seconde."
        },
        "language": {
            "en": "eng",
            "fr": "fra"
        },
        "audience": {
            "en": "gcaudience",
            "fr": "gcaudience"
        },
        "creator": {
            "en": "Agriculture and Agri-Food Canada",
            "fr": "Agriculture et Agroalimentaire Canada"
        },
        "spatial": {
            "en": "gcregions",
            "fr": "gcregions"
        },
        "service": {
            "en": "AAFC_AgriSource",
            "fr": "AAC_AgriSource"
        },
        "accessRights": {
            "en": "3",
            "fr": "3"
        }
    },
    "body": {
        "en": "<br>\n<br>\n<p>Digital data available through the Internet continues to grow at staggering rates. It is estimated the digital universe contains 2.7 zettabytes of data (a zettabyte is a trillion gigabytes) and it continues to grow by the second.\u00a0How effective are you at filtering through so much information and getting the critical content quickly to help you manage and make proper decisions?</p>\n<p>Learn how to become an effective information gatherer with the Canadian Agriculture Library. </p>\n<p>Find out what library services and information resources are available to AAFC managers and their teams to support research, decision-making and professional development.</p>\n<p>Learn strategies to tackle the volume of information available every day, and why the \u201cThirty Minute Rule\u201d just might be the guideline you need to get your information gathering started off on the right foot.</p>\n<h2>\n<strong>Event information</strong></h2>\n<p><strong>Date</strong> Wednesday, September 25 | 1:30 p.m. to 3:00 p.m. (ET)<br>\n<strong>Location:</strong> NHCAP (T5-3-251)<br>\n<strong>Registration:</strong> Deadline to register is September 24 - <a href=\"https://collab.agr.gc.ca/co/mc_cdg/SitePages/EventCalendar.aspx/co/mc_cdg\">Register Now!</a><br>\n<strong>Videoconference: </strong>6811374692<br>\n<strong>Teleconference: </strong>613-960-7515 or 1-877-413-4792, 9387859#</p>\n<p>\nIf you have any questions, please contact the Managers\u2019 Community by email at <a href=\"mailto:aafc.managerscommunity-communautedesgestionnaires.aac@canada.ca\">aafc.managerscommunity-communautedesgestionnaires.aac@canada.ca</a>.</p>\n<p>We look forward to seeing you on September 25!</p>\n<p>\u00a0</p>\n<p><strong>Jennifer Conlin and Carl Dubeau</strong><br>\nCo-chairs, Managers' Community</p>\n<p><strong>Steven Jurgutis</strong><br>\nChampion, Managers' Community</p>\n<p><img src=\"https://intranet.agr.gc.ca/resources/prod/news/images/ManagersCommunity2019-EN.png\" class=\"center-block\"></p>\n\n\t\t",
        "fr": "<br>\n<br>\n<p>Les donn\u00e9es num\u00e9riques disponibles sur Internet continuent de cro\u00eetre \u00e0 un rythme effarant. On estime que l\u2019univers num\u00e9rique contient 2,7 zettaoctets de donn\u00e9es (un zettaoctet correspond \u00e0 un milliard de gigaoctets) et qu\u2019il continue de cro\u00eetre \u00e0 la seconde. Dans quelle mesure pouvez-vous efficacement filtrer autant de donn\u00e9es afin d\u2019obtenir rapidement le contenu essentiel qui vous permettra de g\u00e9rer et prendre les bonnes d\u00e9cisions?</p>\n<p>\nApprenez \u00e0 devenir un collecteur efficace de renseignements gr\u00e2ce \u00e0 la Biblioth\u00e8que canadienne de l\u2019agriculture. </p>\n<p>Renseignez-vous sur les services de biblioth\u00e8que et les ressources d\u2019information offerts aux gestionnaires d\u2019AAC et \u00e0 leurs \u00e9quipes afin d\u2019appuyer la recherche, la prise de d\u00e9cisions et le perfectionnement professionnel.</p>\n<p>Apprenez des strat\u00e9gies pour g\u00e9rer le volume d\u2019informations \u00e0 traiter chaque jour, et d\u00e9couvrez pourquoi la \u00ab\u2009r\u00e8gle des trente minutes\u2009\u00bb pourrait \u00eatre la ligne directrice dont vous avez besoin pour d\u00e9marrer votre collecte d\u2019informations du bon pied.</p>\n<h2>\n<strong>Renseignements sur l\u2019\u00e9v\u00e9nement</strong></h2>\n<p><strong>Date : </strong>Mercredi 25 septembre 2019 | de 13 h 30 \u00e0 15 h (HNE)<br>\n<strong>Lieu : </strong>CACPA (T5-3-251)<br>\n<strong>Inscription : </strong>La date limite pour s\u2019inscrire est le 24 septembre \u2014 <a href=\"https://collab.agr.gc.ca/co/mc_cdg/SitePages/EventCalendar.aspx/co/mc_cdg\">Inscrivez-vous maintenant!</a><br>\n<strong>Vid\u00e9oconf\u00e9rence : </strong>6811374692<br>\n<strong>T\u00e9l\u00e9conf\u00e9rence : </strong>613-960-7515 ou 1-877-413-4792, 9387859#</p>\n<p>\nSi vous avez des questions, veuillez communiquer avec la Communaut\u00e9 des gestionnaires par courriel \u00e0 l\u2019adresse suivante : <a href=\"mailto:aafc.managerscommunity-communautedesgestionnaires.aac@canada.ca\">aafc.managerscommunity-communautedesgestionnaires.aac@canada.ca</a>.</p>\n<p>Au plaisir de vous voir le 25 septembre!</p>\n<p><strong>\u00a0</strong></p>\n<p><strong>Jennifer Conlin et Carl Dubeau</strong><br>\nCopr\u00e9sidents, Communaut\u00e9 des gestionnaires</p>\n<p><strong>Steven Jurgutis</strong><br>\nChampion, Communaut\u00e9 des gestionnaires</p>\n<p><img src=\"https://intranet.agr.gc.ca/resources/prod/news/images/ManagersCommunity2019-FR.png\" class=\"center-block\"></p>\n\t\t"
    },
    "breadcrumb": {
        "en": "Reminder - Becoming an Effective Information Gatherer - September 25",
        "fr": "Rappel - Devenir un collecteur d'information efficace - 25 septembre"
    },
    "news": {
        "date_posted": {
            "en": "2019-09-12",
            "fr": "2019-09-12"
        },
        "to": {
            "en": "All staff",
            "fr": "Tous les employ\u00e9s"
        },
        "by": {
            "en": "Managers' Community",
            "fr": "Communaut\u00e9 des gestionnaires"
        }
    }
}