{
    "dcr_id": "1569007468176",
    "lang": "en",
    "title": {
        "en": "Invitation: AAFC All-Staff Meeting - October 3",
        "fr": "Invitation : R\u00e9union du personnel d\u2019AAC le 3 octobre "
    },
    "modified": "2019-09-26 00:00:00.0",
    "issued": "2019-09-23 00:00:00.0",
    "type_name": "intra-intra/news-nouv",
    "node_id": "1279030006975",
    "layout_name": null,
    "dc_date_created": "2019-09-20",
    "breadcrumb_label": "",
    "meta": {
        "issued": {
            "en": "2019-09-23",
            "fr": "2019-09-23"
        },
        "modified": {
            "en": "2019-09-26",
            "fr": "2019-09-26"
        },
        "format": {
            "en": "gcformat",
            "fr": "gcformat"
        },
        "title": {
            "en": "Invitation: AAFC All-Staff Meeting - October 3",
            "fr": "Invitation : R\u00e9union du personnel d\u2019AAC le 3 octobre "
        },
        "subject": {
            "en": "communications",
            "fr": "communications"
        },
        "description": {
            "en": "Please join Deputy Minister Chris Forbes for an AAFC All-Staff Meeting to introduce the department\u2019s new Workplace Well-Being Ombudsperson, Jane Taylor.",
            "fr": "Veuillez vous joindre au sous-ministre Chris Forbes \u00e0 la r\u00e9union du personnel d'AAC, o\u00f9 il pr\u00e9sentera la nouvelle ombudsman du mieux-\u00eatre en milieu de travail du Minist\u00e8re, Jane Taylor."
        },
        "language": {
            "en": "eng",
            "fr": "fra"
        },
        "audience": {
            "en": "gcaudience",
            "fr": "gcaudience"
        },
        "creator": {
            "en": "Agriculture and Agri-Food Canada",
            "fr": "Agriculture et Agroalimentaire Canada"
        },
        "spatial": {
            "en": "gcregions",
            "fr": "gcregions"
        },
        "service": {
            "en": "AAFC_AgriSource",
            "fr": "AAC_AgriSource"
        },
        "accessRights": {
            "en": "3",
            "fr": "3"
        }
    },
    "body": {
        "en": "<br>\n<br>\n<p>Please join Deputy Minister Chris Forbes for an AAFC All-Staff Meeting to introduce the department\u2019s new Workplace Well-Being Ombudsperson, Jane Taylor.</p>\n<p>Ms. Taylor will share the mandate of the Ombudsperson\u2019s office, the role and how to schedule an appointment.</p>\n<p>Simultaneous interpretation services will be available. Employees are encouraged to <strong>submit questions in advance of the meeting</strong> by emailing: <a href=\"mailto:AAFC.Ombuds.AAC@canada.ca\">AAFC.Ombuds.AAC@canada.ca</a>.</p>\n<p><strong>Date and Time: </strong>Thursday, October 3, 2019 | 2:00 p.m. to 3:00 p.m. (ET)<br>\nNo scheduler is being sent for this meeting. Please block off the time in your Outlook calendar.</p>\n<p><strong>Location: </strong>Ottawa - T3-1-351 (limited seating available)</p>\n<p>We encourage staff to gather with colleagues, where possible, in boardrooms with videoconferencing facilities. Research centres and teams are asked to please coordinate room bookings.</p>\n<p>The meeting will also stream in the T6 Cafeteria.</p>\n<p><strong>Virtual Options: </strong></p>\n<ul>\n<li>Videoconference* (Bilingual): <strong>6811393759</strong></li>\n<li>Teleconference (Bilingual): <strong>1-877-413-4814</strong> or <strong>613-960-7519</strong> Passcode: <strong>1852204#</strong></li>\n<li>Teleconference (English): <strong>1-866-206-0153</strong> or <strong>613-954-9003</strong> Passcode: <strong>1852202#</strong></li>\n<li>Teleconference (French): <strong>1-866-805-7923</strong> or <strong>613-960-7518</strong> Passcode: <strong>1852203#</strong></li>\n</ul>\n<p>*Note: To access simultaneous interpretation by videoconference, please:</p>\n<ol>\n<li>Sign into the videoconference</li>\n<li>Select \"mute microphone\" on the videoconference remote</li>\n<li>Lower the volume completely on the TV</li>\n<li>Follow the instructions above to connect the telephone to the teleconference in the language of choice.</li>\n</ol>\n<p>To maximize AAFC's videoconferencing capacity, we ask that individuals refrain from connecting via their own PC. <strong>Please note, to avoid accidental noise, all lines will be muted.</strong></p>\n<p>If you experience difficulties in connecting, please contact the IT Centre at 1-855-545-4411 or <a href=\"mailto:service@itcentreti.collaboration.gc.ca\">service@itcentreti.collaboration.gc.ca</a>.</p>\n<p>We look forward to your participation at this AAFC event.</p>\n\n\t\t",
        "fr": "<br>\n<br>\n<p>Veuillez vous joindre au sous-ministre Chris Forbes \u00e0 la r\u00e9union du personnel d\u2019AAC, o\u00f9 il pr\u00e9sentera la nouvelle ombudsman du mieux-\u00eatre en milieu de travail du Minist\u00e8re, Jane Taylor.</p>\n<p>Madame Taylor d\u00e9crira le mandat et le r\u00f4le du bureau de l\u2019ombudsman et la fa\u00e7on de prendre rendez-vous.</p>\n<p>Des services d\u2019interpr\u00e9tation simultan\u00e9e seront offerts. Les employ\u00e9s sont invit\u00e9s \u00e0 <strong>faire parvenir leurs questions \u00e0 l\u2019avance</strong> \u00e0 : <a href=\"mailto:AAFC.Ombuds.AAC@canada.ca\">AAFC.Ombuds.AAC@canada.ca</a>.</p>\n<p><strong>Date et heure : </strong>Le jeudi 3 octobre 2019 | de 14 h \u00e0 15 h (HE)<br>\nAucune invitation \u00e9lectronique ne sera envoy\u00e9e pour cette r\u00e9union. Veuillez r\u00e9server la plage horaire dans votre calendrier Outlook.</p>\n<p><strong>Lieu</strong> <strong>: </strong>Ottawa \u2013 T3-1-351 (les places sont limit\u00e9es)</p>\n<p>Nous vous prions de vous regrouper dans des salles de conf\u00e9rence munies d\u2019installations de vid\u00e9oconf\u00e9rence, dans la mesure du possible. Les \u00e9quipes et les centres sont pri\u00e9s de coordonner la r\u00e9servation des salles.</p>\n<p>La r\u00e9union sera aussi diffus\u00e9e dans la caf\u00e9t\u00e9ria de la tour 6.</p>\n<p><strong>Options virtuelles : </strong></p>\n<ul>\n<li>Vid\u00e9oconf\u00e9rence* (bilingue) : <strong>6811393759</strong></li>\n<li>T\u00e9l\u00e9conf\u00e9rence (bilingue) : <strong>1-877-413-4814</strong> ou <strong>613-960-7519 </strong>Code d\u2019acc\u00e8s : <strong>1852204#</strong></li>\n<li>T\u00e9l\u00e9conf\u00e9rence (en anglais) : <strong>1-866-206-0153</strong> ou <strong>613-954-9003</strong> Code d\u2019acc\u00e8s : <strong>1852202#</strong></li>\n<li>T\u00e9l\u00e9conf\u00e9rence (en fran\u00e7ais) : <strong>1-866-805-7923</strong> ou <strong>613-960-7518</strong> Code d\u2019acc\u00e8s : <strong>1852203#</strong></li>\n</ul>\n<p>*Remarque : Pour avoir acc\u00e8s \u00e0 l\u2019interpr\u00e9tation simultan\u00e9e par vid\u00e9oconf\u00e9rence :</p>\n<ol>\n<li>Connectez-vous \u00e0 la vid\u00e9oconf\u00e9rence.</li>\n<li>S\u00e9lectionnez \u00ab mute microphone \u00bb (d\u00e9sactiver le micro) sur la t\u00e9l\u00e9commande pour vid\u00e9oconf\u00e9rence.</li>\n<li>Baissez compl\u00e8tement le volume du t\u00e9l\u00e9viseur.</li>\n<li>Suivez les directives ci-dessus pour connecter le t\u00e9l\u00e9phone \u00e0 la t\u00e9l\u00e9conf\u00e9rence dans la langue de votre choix.</li>\n</ol>\n<p>Afin de maximiser les services de vid\u00e9oconf\u00e9rence, nous vous demandons d\u2019\u00e9viter de vous connecter par l\u2019interm\u00e9diaire de votre ordinateur. <strong>Veuillez noter que toutes les lignes seront mises en sourdine pour \u00e9viter les bruits accidentels.</strong></p>\n<p>Si vous \u00e9prouvez des difficult\u00e9s, veuillez communiquer avec le Centre de TI au 1\u2011855\u2011545\u20114411 ou par courriel \u00e0 <a href=\"mailto:service@itcentreti.collaboration.gc.ca\">service@itcentreti.collaboration.gc.ca</a>.</p>\n<p>Nous esp\u00e9rons vous compter parmi les participants \u00e0 cette activit\u00e9 d\u2019AAC.</p>\n\t\t"
    },
    "breadcrumb": {
        "en": "Invitation: AAFC All-Staff Meeting - October 3",
        "fr": "Invitation : R\u00e9union du personnel d\u2019AAC le 3 octobre"
    },
    "news": {
        "date_posted": {
            "en": "2019-09-26",
            "fr": "2019-09-26"
        },
        "to": {
            "en": "All staff",
            "fr": "Tous les employ\u00e9s"
        },
        "by": {
            "en": "Deputy Minister's Office",
            "fr": "Bureau du sous-ministre"
        }
    }
}