{
    "dcr_id": "1569240667537",
    "lang": "en",
    "title": {
        "en": "Fire Prevention Week: October 6 to 12",
        "fr": "Semaine de la pr\u00e9vention des incendies : du 6 au 12 octobre"
    },
    "modified": "2019-10-03 00:00:00.0",
    "issued": "2019-10-03 00:00:00.0",
    "type_name": "intra-intra/news-nouv",
    "node_id": "1279030006975",
    "layout_name": null,
    "dc_date_created": "2019-10-01",
    "breadcrumb_label": "",
    "meta": {
        "issued": {
            "en": "2019-10-03",
            "fr": "2019-10-03"
        },
        "modified": {
            "en": "2019-10-03",
            "fr": "2019-10-03"
        },
        "format": {
            "en": "gcformat",
            "fr": "gcformat"
        },
        "title": {
            "en": "Fire Prevention Week: October 6 to 12",
            "fr": "Semaine de la pr\u00e9vention des incendies : du 6 au 12 octobre"
        },
        "subject": {
            "en": "communications",
            "fr": "communications"
        },
        "description": {
            "en": "Fires can happen when and where you least expect. That's why Fire Prevention Week focuses on preparing a fire escape plan and backup plan to keep your home, family and workplace safe.",
            "fr": "Les incendies peuvent survenir au moment et \u00e0 l'endroit o\u00f9 vous vous y attendez le moins. C'est pourquoi la Semaine de la pr\u00e9vention des incendies met l'accent sur la pr\u00e9paration d'un plan d'\u00e9vacuation en cas d'incendie et d'un plan de secours pour prot\u00e9ger votre maison, votre famille et votre lieu de travail."
        },
        "language": {
            "en": "eng",
            "fr": "fra"
        },
        "audience": {
            "en": "gcaudience",
            "fr": "gcaudience"
        },
        "creator": {
            "en": "Agriculture and Agri-Food Canada",
            "fr": "Agriculture et Agroalimentaire Canada"
        },
        "spatial": {
            "en": "gcregions",
            "fr": "gcregions"
        },
        "service": {
            "en": "AAFC_AgriSource",
            "fr": "AAC_AgriSource"
        },
        "accessRights": {
            "en": "3",
            "fr": "3"
        }
    },
    "body": {
        "en": "<br>\n<br>\n<p>Fires can happen when and where you least expect. That\u2019s why Fire Prevention Week focuses on preparing a fire escape plan and backup plan to keep your home, family and workplace safe. The theme for this year's event is \u201cNot every hero wears a cape. Plan and practice your escape.\u201d</p>\n<p>Employees are encouraged to follow fire prevention measures to protect themselves and others. In the event of a fire, here are some tips to help make sure you are prepared:</p>\n<ul>\n<li>Locate building exits and outside rally points</li>\n<li>Participate in fire drills</li>\n<li>Get familiar with how to use fire extinguishers using the <a href=\"https://collab.agr.gc.ca/gv/ohsct-ensst/_layouts/15/DocIdRedir.aspx?ID=AGR-7217017\">Fire Extinguisher Awareness Tool</a></li>\n</ul>\n<p>Fire prevention and awareness is everyone\u2019s responsibility.</p>\n<h2><strong>Learn more</strong></h2>\n<p>At AAFC, fire prevention and preparedness measures are in place to ensure that we are ready in the event of a fire.</p>\n<p>For more information on training, safety programs, and policies, visit the <a href=\"http://intranet.agr.gc.ca/agrisource/eng/human-resources/occupational-health-and-safety?id=1321562720661\">Occupational Health and Safety page on AgriSource</a>.</p>\n<p>\u00a0</p>\n\n\t\t",
        "fr": "<br>\n<br>\n<p>Les incendies peuvent survenir au moment et \u00e0 l\u2019endroit o\u00f9 vous vous y attendez le moins. C\u2019est pourquoi la Semaine de la pr\u00e9vention des incendies met l\u2019accent sur la pr\u00e9paration d\u2019un plan d\u2019\u00e9vacuation en cas d\u2019incendie et d\u2019un plan de secours pour prot\u00e9ger votre maison, votre famille et votre lieu de travail. Le th\u00e8me de la semaine cette ann\u00e9e sera le suivant : \u00ab Certains h\u00e9ros ne portent pas de cape : dressez votre plan d\u2019\u00e9vacuation et mettez-le \u00e0 l\u2019essai \u00bb.</p>\n<p>Les employ\u00e9s sont encourag\u00e9s \u00e0 suivre les mesures de pr\u00e9vention des incendies pour se prot\u00e9ger et prot\u00e9ger les autres. Voici quelques conseils pour vous aider \u00e0 vous pr\u00e9parer en cas d\u2019incendie :</p>\n<ul>\n<li>localiser les sorties de l\u2019immeuble et les points de ralliement ext\u00e9rieurs;</li>\n<li>participer \u00e0 des exercices d\u2019\u00e9vacuation en cas d\u2019incendie;</li>\n<li>se familiariser avec l\u2019utilisation des extincteurs d\u2019incendie \u00e0 l\u2019aide de <a href=\"https://collab.agr.gc.ca/gv/ohsct-ensst/_layouts/15/DocIdRedir.aspx?ID=AGR-7217018%20\">l\u2019outil de sensibilisation aux extincteurs.</a></li>\n</ul>\n<p>La pr\u00e9vention des incendies et la sensibilisation connexe sont la responsabilit\u00e9 de chacun.</p>\n<h2><strong>Pour en savoir plus</strong></h2>\n<p>Des mesures de pr\u00e9vention et de pr\u00e9paration aux incendies sont en place \u00e0 AAC pour s\u2019assurer que nous sommes pr\u00eats en cas d\u2019incendie.</p>\n<p>Pour obtenir de plus amples renseignements sur la formation, les programmes de s\u00e9curit\u00e9 et les politiques, visitez la <a href=\"http://intranet.agr.gc.ca/agrisource/fra/ressources-humaines/sante-et-securite-au-travail?id=1321562720661\">page d\u2019AgriSource traitant de sant\u00e9 et de s\u00e9curit\u00e9 au travail</a>.</p>\n\t\t"
    },
    "breadcrumb": {
        "en": "Fire Prevention Week: October 6 to 12",
        "fr": "Semaine de la pr\u00e9vention des incendies : du 6 au 12 octobre"
    },
    "news": {
        "date_posted": {
            "en": "2019-10-03",
            "fr": "2019-10-03"
        },
        "to": {
            "en": "Other regions (not NCR)",
            "fr": "R\u00e9gions autres que la RCN"
        },
        "by": {
            "en": "Departmental Security Services and AAFC's National Occupational Health and Safety Policy Committee",
            "fr": "Services de s\u00e9curit\u00e9 minist\u00e9riels et Comit\u00e9 national d\u2019orientation en sant\u00e9 et en s\u00e9curit\u00e9 au travail d\u2019AAC"
        }
    }
}