{
    "dcr_id": "1570474513237",
    "lang": "en",
    "title": {
        "en": "NCR - Emergency Lighting in Stairwells",
        "fr": "RCN - \u00c9clairage de secours dans les cages d'escalier"
    },
    "modified": "2019-10-10 00:00:00.0",
    "issued": "2019-10-10 00:00:00.0",
    "type_name": "intra-intra/news-nouv",
    "node_id": "1279030006975",
    "layout_name": null,
    "dc_date_created": "2019-10-07",
    "breadcrumb_label": "",
    "meta": {
        "issued": {
            "en": "2019-10-10",
            "fr": "2019-10-10"
        },
        "modified": {
            "en": "2019-10-10",
            "fr": "2019-10-10"
        },
        "format": {
            "en": "gcformat",
            "fr": "gcformat"
        },
        "title": {
            "en": "NCR - Emergency Lighting in Stairwells",
            "fr": "RCN - \u00c9clairage de secours dans les cages d'escalier"
        },
        "subject": {
            "en": "communications",
            "fr": "communications"
        },
        "description": {
            "en": "Over the next several months, battery backup systems will be installed in the stairwells of Towers 3 to 7 to supply the emergency lighting circuits.",
            "fr": "Au cours des prochains mois, des syst\u00e8mes de batteries de secours seront install\u00e9s dans les cages d'escalier des tours 3 \u00e0 7 pour alimenter les circuits d'\u00e9clairage de secours."
        },
        "language": {
            "en": "eng",
            "fr": "fra"
        },
        "audience": {
            "en": "gcaudience",
            "fr": "gcaudience"
        },
        "creator": {
            "en": "Agriculture and Agri-Food Canada",
            "fr": "Agriculture et Agroalimentaire Canada"
        },
        "spatial": {
            "en": "gcregions",
            "fr": "gcregions"
        },
        "service": {
            "en": "AAFC_AgriSource",
            "fr": "AAC_AgriSource"
        },
        "accessRights": {
            "en": "3",
            "fr": "3"
        }
    },
    "body": {
        "en": "<br>\n<br>\n<p>Over the next several months, battery backup systems will be installed in the stairwells of Towers 3 to 7 to supply the emergency lighting circuits.</p>\n<p>For more information, please review the <a href=\"pcdocs://AAFCAAC/105020857/1\">information sheet</a>\u00a0from Maple Leaf Property Management. Contact the National Service Call Centre (NSCC) at 1-800-463-1850 if you have any questions or concerns.</p>\n<p><img src=\"https://intranet.agr.gc.ca/resources/prod/news/images/MapleLeafProperty.png\" class=\"center-block\"></p>\n\n\t\t",
        "fr": "<br>\n<br>\n<p>Au cours des prochains mois, des syst\u00e8mes de batteries de secours seront install\u00e9s dans les cages d\u2019escalier des tours 3 \u00e0 7 pour alimenter les circuits d\u2019\u00e9clairage de secours.</p>\n<p>Pour de plus amples renseignements, veuillez consulter <a href=\"pcdocs://AAFCAAC/105020857/1\">la fiche d\u2019information</a> de Maple Leaf Property Management. Vous pouvez communiquer avec le Centre national d\u2019appels de service (CNAS) au 1-800-463-1850 si vous avez des questions ou des pr\u00e9occupations \u00e0 ce sujet.</p>\n<p><img src=\"https://intranet.agr.gc.ca/resources/prod/news/images/MapleLeafProperty.png\" class=\"center-block\"></p>\n\t\t"
    },
    "breadcrumb": {
        "en": "NCR - Emergency Lighting in Stairwells",
        "fr": "RCN - \u00c9clairage de secours dans les cages d'escalier"
    },
    "news": {
        "date_posted": {
            "en": "2019-10-09",
            "fr": "2019-10-09"
        },
        "to": {
            "en": "NCR only",
            "fr": "RCN seulement"
        },
        "by": {
            "en": "Maple Leaf Property Management",
            "fr": "Maple Leaf Property Management"
        }
    }
}