{
    "dcr_id": "1570719147736",
    "lang": "en",
    "title": {
        "en": "World Mental Health Day",
        "fr": "Journ\u00e9e mondiale de la sant\u00e9 mentale "
    },
    "modified": "2019-10-10 00:00:00.0",
    "issued": "2019-10-10 00:00:00.0",
    "type_name": "intra-intra/news-nouv",
    "node_id": "1279030006975",
    "layout_name": null,
    "dc_date_created": "2019-10-10",
    "breadcrumb_label": "",
    "meta": {
        "issued": {
            "en": "2019-10-10",
            "fr": "2019-10-10"
        },
        "modified": {
            "en": "2019-10-10",
            "fr": "2019-10-10"
        },
        "format": {
            "en": "gcformat",
            "fr": "gcformat"
        },
        "title": {
            "en": "World Mental Health Day",
            "fr": "Journ\u00e9e mondiale de la sant\u00e9 mentale "
        },
        "subject": {
            "en": "communications",
            "fr": "communications"
        },
        "description": {
            "en": "Today, we join with others around the world in celebrating World Mental Health Day. This is an opportunity to reflect and help raise awareness of the importance of wellness and how it affects our daily lives.",
            "fr": "Aujourd'hui, nous soulignons avec le monde entier la Journ\u00e9e mondiale de la sant\u00e9 mentale. Voici l'occasion de r\u00e9fl\u00e9chir et d'aider \u00e0 sensibiliser les gens \u00e0 l'importance du mieux-\u00eatre et \u00e0 la fa\u00e7on dont celui-ci influe sur notre vie quotidienne."
        },
        "language": {
            "en": "eng",
            "fr": "fra"
        },
        "audience": {
            "en": "gcaudience",
            "fr": "gcaudience"
        },
        "creator": {
            "en": "Agriculture and Agri-Food Canada",
            "fr": "Agriculture et Agroalimentaire Canada"
        },
        "spatial": {
            "en": "gcregions",
            "fr": "gcregions"
        },
        "service": {
            "en": "AAFC_AgriSource",
            "fr": "AAC_AgriSource"
        },
        "accessRights": {
            "en": "3",
            "fr": "3"
        }
    },
    "body": {
        "en": "<br>\n<br>\n<p>Today, we join with others around the world in celebrating World Mental Health Day. This is an opportunity to reflect and help raise awareness of the importance of wellness and how it affects our daily lives.\u00a0\u00a0\u00a0 </p>\n<p>Mental health is an important aspect of our overall wellness. We encourage employees and managers to take time to talk about mental health. To support these discussions, there is a wide range of resources:</p>\n<p>1)\u00a0Our <a href=\"https://collab.agr.gc.ca/co/aafcwe-beaac/SitePages/Home%20Page.aspx\">Workplace Wellness Programs</a> provide employees and managers with a variety of wellness programs, training, support, and tools. <br>2)\u00a0The new <a href=\"http://intranet.agr.gc.ca/agrisource/eng/branches-and-offices/office-of-the-ombudsperson?id=1566410288815\">Office of the Workplace Well-Being Ombudsperson</a> offers employees at all levels a safe environment where they can raise, discuss and address work-related issues without fear of reprisal. <br>3)\u00a0The <a href=\"https://collab.agr.gc.ca/co/aafcwe-beaac/SitePages/Employee%20And%20Family%20Assistance%20Program.aspx\">Employee and Family Assistance Program</a> renders confidential professional support services to assist employees and their families resolve work, health and life challenges. </p>\n<p>There are several events planned to mark World Mental Health Day and Healthy Workplace Month, including this afternoon\u2019s guest speaker, Darlene Mulcahey, who will share her personal story of living with mental illness and her road to recovery. You can find the full list of events on the <a href=\"https://collab.agr.gc.ca/co/aafcwe-beaac/SitePages/2019%20Healthy%20Workplace%20Month.aspx\">Healthy Workplace Month page</a>.</p>\n<p><br><strong>Chris Forbes</strong><br>Deputy Minister</p>\n<p><strong>Annette Gibbons</strong><br>Associate Deputy Minister</p>\n\n\t\t",
        "fr": "<br>\n<br>\n<p>Aujourd\u2019hui, nous soulignons avec le monde entier la Journ\u00e9e mondiale de la sant\u00e9 mentale. Voici l\u2019occasion de r\u00e9fl\u00e9chir et d\u2019aider \u00e0 sensibiliser les gens \u00e0 l\u2019importance du mieux-\u00eatre et \u00e0 la fa\u00e7on dont celui-ci influe sur notre vie quotidienne.</p>\n<p>Comme la sant\u00e9 mentale est un aspect important de notre mieux-\u00eatre en g\u00e9n\u00e9ral, nous encourageons les employ\u00e9s et les gestionnaires \u00e0 prendre le temps d\u2019en discuter. AAC offre une vaste gamme de ressources pour alimenter ces discussions :</p>\n<ol>\n<li>Nos <a href=\"https://collab.agr.gc.ca/co/aafcwe-beaac/SitePages/Home%20Page.aspx\">programmes du mieux-\u00eatre en milieu de travail</a> offrent un \u00e9ventail de programmes de mieux-\u00eatre, de formations, d\u2019outils et de mesures de soutien aux employ\u00e9s et aux gestionnaires.</li>\n<li>Le <a href=\"http://intranet.agr.gc.ca/agrisource/fra/directions-generales-et-bureaux/bureau-de-lombudsman?id=1566410288815\">nouveau Bureau de l\u2019ombudsman du mieux-\u00eatre en milieu de travail</a> offre aux employ\u00e9s de tous les niveaux un environnement de travail s\u00e9curitaire o\u00f9 ils peuvent soulever, discuter et aborder des questions li\u00e9es au travail sans aucune crainte de repr\u00e9sailles.</li>\n<li>Le <a href=\"https://collab.agr.gc.ca/co/aafcwe-beaac/SitePages/Employee%20And%20Family%20Assistance%20Program.aspx\">Programme d\u2019aide aux employ\u00e9s et \u00e0 la famille</a> offre des services de soutien professionnel confidentiels pour aider les employ\u00e9s et leur famille \u00e0 r\u00e9soudre leurs probl\u00e8mes de travail, de sant\u00e9 et de vie.\u00a0</li>\n</ol>\n<p>Plusieurs activit\u00e9s sont pr\u00e9vues pour souligner la Journ\u00e9e mondiale de la sant\u00e9 mentale et le Mois de la sant\u00e9 au travail, y compris la conf\u00e9renci\u00e8re invit\u00e9e de cet apr\u00e8s-midi, Darlene Mulcahey, qui racontera sa propre histoire de la vie avec la maladie mentale et son cheminement vers la gu\u00e9rison. Vous trouverez la liste compl\u00e8te des activit\u00e9s sur la <a href=\"https://collab.agr.gc.ca/co/aafcwe-beaac/SitePages/2019%20Healthy%20Workplace%20Month.aspx\">page du Mois de la sant\u00e9 au travail</a>.</p>\n<p>\u00a0</p>\n<p><strong>Chris Forbes</strong><br>\nSous-ministre</p>\n<p><strong>Annette Gibbons<br></strong>Sous-ministre d\u00e9l\u00e9gu\u00e9e</p>\n\t\t"
    },
    "breadcrumb": {
        "en": "World Mental Health Day",
        "fr": "Journ\u00e9e mondiale de la sant\u00e9 mentale"
    },
    "news": {
        "date_posted": {
            "en": "2019-10-10",
            "fr": "2019-10-10"
        },
        "to": {
            "en": "All staff",
            "fr": "Tous les employ\u00e9s"
        },
        "by": {
            "en": "Chris Forbes, Deputy Minister, and Annette Gibbons, Associate Deputy Minister",
            "fr": "Chris Forbes, Sous-ministre, et Annette Gibbons, Sous-ministre d\u00e9l\u00e9gu\u00e9e"
        }
    }
}