{
    "dcr_id": "1571678602458",
    "lang": "en",
    "title": {
        "en": "Reminder - Enter the Idle Reduction Design Contest",
        "fr": "Rappel - Concours de design pour la campagne de r\u00e9duction du temps de marche au ralenti des moteurs"
    },
    "modified": "2019-10-31 00:00:00.0",
    "issued": "2019-10-24 00:00:00.0",
    "type_name": "intra-intra/news-nouv",
    "node_id": "1279030006975",
    "layout_name": null,
    "dc_date_created": "2019-10-21",
    "breadcrumb_label": "",
    "meta": {
        "issued": {
            "en": "2019-10-24",
            "fr": "2019-10-24"
        },
        "modified": {
            "en": "2019-10-31",
            "fr": "2019-10-31"
        },
        "format": {
            "en": "gcformat",
            "fr": "gcformat"
        },
        "title": {
            "en": "Reminder - Enter the Idle Reduction Design Contest",
            "fr": "Rappel - Concours de design pour la campagne de r\u00e9duction du temps de marche au ralenti des moteurs"
        },
        "subject": {
            "en": "communications",
            "fr": "communications"
        },
        "description": {
            "en": "Put on your creative hats and develop a visual and tagline to help spread the message of idle reduction!",
            "fr": "Mettez votre cr\u00e9ativit\u00e9 \u00e0 profit pour concevoir un \u00e9l\u00e9ment visuel et un slogan qui inciteront les gens \u00e0 ne pas laisser leur moteur tourner au ralenti pour rien."
        },
        "language": {
            "en": "eng",
            "fr": "fra"
        },
        "audience": {
            "en": "gcaudience",
            "fr": "gcaudience"
        },
        "creator": {
            "en": "Agriculture and Agri-Food Canada",
            "fr": "Agriculture et Agroalimentaire Canada"
        },
        "spatial": {
            "en": "gcregions",
            "fr": "gcregions"
        },
        "service": {
            "en": "AAFC_AgriSource",
            "fr": "AAC_AgriSource"
        },
        "accessRights": {
            "en": "3",
            "fr": "3"
        }
    },
    "body": {
        "en": "<br>\n<br>\n<p>Put on your creative hats and develop a visual and tagline to help spread the message of idle reduction!</p>\n<p>On November 4, AAFC is launching an Idle Reduction Campaign. One way you can get involved is by creating a visual and tagline to encourage idle reduction. You may want to link your message to idling concerns such as air quality, health and climate change.</p>\n<p>Fleet Management and the Idle-Reduction committee will use up to three winning entries to help them spread the word about AAFC\u2019s commitment to improving the environment. Prizes will also be awarded to the winning entries. Maybe you have a great idea and your co-worker is a great artist; collaborate and submit as many entries as you like to <a href=\"mailto:lori.mcleod@canada.ca\">lori.mcleod@canada.ca</a>. Deadline to submit is <strong>November 8</strong>.</p>\n<p>Here are a few ideas to get you started:</p>\n<p>\u201cBe Air Aware \u2013 Idle With Care\u201d</p>\n<p>\u201cAll it Takes is the Turn of a Key\u201d</p>\n<p>\u201cIdling Gets you Nowhere\u201d</p>\n<p>\u201cStop Idling. It\u2019s Not Complicated\u201d</p>\n<p>If you have any questions about the contest, please contact <a href=\"mailto:lisa.gillies@canada.ca\">lisa.gillies@canada.ca</a>. To learn more about the Idle Reduction campaign, read the\u00a0<a href=\"http://intranet.agr.gc.ca/agrisource/eng/newswork/idling-gets-you-nowhere?id=1571156885024\">article on news@work</a>.</p>\n<p><img src=\"https://intranet.agr.gc.ca/resources/prod/news/images/idling-campaign-EN.png\" class=\"center-block\"></p>\n\n\t\t",
        "fr": "<br>\n<br>\n<p>Mettez votre cr\u00e9ativit\u00e9 \u00e0 profit pour concevoir un \u00e9l\u00e9ment visuel et un slogan qui inciteront les gens \u00e0 ne pas laisser leur moteur tourner au ralenti pour rien.\n</p>\n<p>Le 4 novembre, AAC lance une campagne de r\u00e9duction du temps de marche au ralenti des moteurs \u00e0 laquelle vous pouvez participer en cr\u00e9ant un \u00e9l\u00e9ment visuel et un slogan. Vous pourriez lier votre message \u00e0 des pr\u00e9occupations comme la qualit\u00e9 de l\u2019air, la sant\u00e9 et les changements climatiques.</p>\n<p>Les comit\u00e9s du parc automobile et de la r\u00e9duction de la marche au ralenti s\u00e9lectionneront un maximum de trois propositions pour faire conna\u00eetre l\u2019engagement d\u2019AAC \u00e0 l\u2019\u00e9gard de l\u2019environnement, et des prix seront remis aux gagnants. Peut-\u00eatre avez-vous une excellente id\u00e9e et un coll\u00e8gue tr\u00e8s artistique? Travaillez ensemble et pr\u00e9sentez autant de propositions que vous le souhaitez \u00e0 <a href=\"mailto:lori.mcleod@canada.ca\">lori.mcleod@canada.ca</a> d\u2019ici <strong>le 8 novembre</strong>.</p>\n<p>Voici quelques id\u00e9es pour vous inspirer :\u00a0</p>\n<p>\u00ab Pensez \u00e0 la qualit\u00e9 de l\u2019air \u2013 ne laissez pas votre moteur tourner au ralenti pour rien. \u00bb</p>\n<p>\u00ab Il suffit de couper le contact. \u00bb</p>\n<p>\u00ab Un moteur qui tourne au ralenti ne vous m\u00e8nera nulle part. \u00bb</p>\n<p>\u00ab Ne laissez pas votre moteur tourner au ralenti pour rien. Ce n\u2019est pas compliqu\u00e9. \u00bb</p>\n<p>Si vous avez des questions sur le concours, veuillez communiquer avec <a href=\"mailto:lisa.gillies@canada.ca\">lisa.gillies@canada.ca</a>. Pour en savoir plus sur la campagne de r\u00e9duction du temps de marche au ralenti des moteurs, lisez <a href=\"http://intranet.agr.gc.ca/agrisource/fra/nouvelleslouvrage/la-marche-au-ralenti-ne-mene-nulle-part?id=1571156885024\">l'article \u00e0 ce sujet dans les nouvelles@l\u2019ouvrage</a>.</p>\n<p><img src=\"https://intranet.agr.gc.ca/resources/prod/news/images/idling-campaign-FR.png\" class=\"center-block\"></p>\n\t\t"
    },
    "breadcrumb": {
        "en": "Reminder - Enter the Idle Reduction Design Contest",
        "fr": "Rappel - Concours de design pour la campagne de r\u00e9duction du temps de marche au ralenti des moteurs"
    },
    "news": {
        "date_posted": {
            "en": "2019-10-24",
            "fr": "2019-10-24"
        },
        "to": {
            "en": "All staff",
            "fr": "Tous les employ\u00e9s"
        },
        "by": {
            "en": "Corporate Management Branch",
            "fr": "Direction g\u00e9n\u00e9rale de la gestion int\u00e9gr\u00e9e"
        }
    }
}