{
    "dcr_id": "1571759556261",
    "lang": "en",
    "title": {
        "en": "This Week in <em>The Harvest</em> - GCWCC Stories: When Donations Become a Life Story",
        "fr": "Au menu de <em>La Moisson</em> cette semaine - Histoires de la CCMTGC : Quand les dons deviennent une histoire de vie"
    },
    "modified": "2019-10-24 00:00:00.0",
    "issued": "2019-10-24 00:00:00.0",
    "type_name": "intra-intra/news-nouv",
    "node_id": "1279030006975",
    "layout_name": null,
    "dc_date_created": "2019-10-22",
    "breadcrumb_label": "This Week in The Harvest - GCWCC Stories: When Donations Become a Life Story",
    "meta": {
        "issued": {
            "en": "2019-10-24",
            "fr": "2019-10-24"
        },
        "modified": {
            "en": "2019-10-24",
            "fr": "2019-10-24"
        },
        "format": {
            "en": "gcformat",
            "fr": "gcformat"
        },
        "title": {
            "en": "This Week in <em>The Harvest</em> - GCWCC Stories: When Donations Become a Life Story",
            "fr": "Au menu de <em>La Moisson</em> cette semaine - Histoires de la CCMTGC : Quand les dons deviennent une histoire de vie"
        },
        "subject": {
            "en": "communications",
            "fr": "communications"
        },
        "description": {
            "en": "In case you missed it, here's what's new in <em>The Harvest</em> this week.",
            "fr": "Au cas o\u00f9 vous l'auriez manqu\u00e9, voici le menu que la section <em>La Moisson</em> vous offre cette semaine."
        },
        "language": {
            "en": "eng",
            "fr": "fra"
        },
        "audience": {
            "en": "gcaudience",
            "fr": "gcaudience"
        },
        "creator": {
            "en": "Agriculture and Agri-Food Canada",
            "fr": "Agriculture et Agroalimentaire Canada"
        },
        "spatial": {
            "en": "gcregions",
            "fr": "gcregions"
        },
        "service": {
            "en": "AAFC_AgriSource",
            "fr": "AAC_AgriSource"
        },
        "accessRights": {
            "en": "3",
            "fr": "3"
        }
    },
    "body": {
        "en": "<br>\n<br>\n<p>In case you missed it, here\u2019s what\u2019s new in <a href=\"https://collab.agr.gc.ca/apps/harvest-moisson\"><em>The Harvest</em></a> this week:</p>\n<p><strong>Feature story:</strong> <a href=\"https://collab.agr.gc.ca/apps/harvest-moisson/\"> GCWCC Stories: When Donations Become a Life Story</a> - \u200bThe Government of Canada Workplace Charitable Campaign (GCWCC) can sometimes impact you closely. This happened a few years ago to a research assistant at the Quebec Research and Development Centre. That year, Sylvie Michaud\u2019s husband received a diagnosis that would change their entire life. He had amyotrophic lateral sclerosis (ALS), also known as Lou Gehrig's disease.</p>\n<p><strong>Quiz: </strong><a href=\"https://collab.agr.gc.ca/apps/harvest-moisson/\">Canada launched its first satellite in what year?</a></p>\n<p><strong>Feature photo: </strong><a href=\"https://collab.agr.gc.ca/apps/harvest-moisson/gallery/Lists/Posts/Post.aspx?ID=376\">Lonely Wheat</a><em>, </em>by Christine Claros, Corporate Management Branch, Ottawa, Ontario.</p>\n<p><strong>Did you know?</strong> <a href=\"https://collab.agr.gc.ca/apps/harvest-moisson/Pages/didyouknow.aspx\">50,000 fewer gallons of water</a> are needed to grow an acre of corn today, compared to 20 years ago.</p>\n<p>You can get involved by posting a comment or \u201cliking\u201d an article. You can also check out what your colleagues are liking and saying.</p>\n<p>Should you have story ideas, scenic or artistic agriculture-related photos, or interesting facts, please share them with us by clicking on \u201cContribute\u201d in the top menu bar.</p>\n<p><img src=\"https://intranet.agr.gc.ca/resources/prod/news/images/Harvest-sunset.png\" class=\"center-block\"></p>\n\n\t\t",
        "fr": "<br>\n<br>\n<p>Au cas o\u00f9 vous l\u2019auriez manqu\u00e9, voici le menu que la section <a href=\"https://collab.agr.gc.ca/apps/harvest-moisson\"><em>La Moisson</em></a> vous offre cette semaine :</p>\n<p><strong>Article vedette :</strong> <a href=\"https://collab.agr.gc.ca/apps/harvest-moisson/\">Histoires de la CCMTGC : Quand les dons deviennent une histoire de vie</a> \u2013 La Campagne de charit\u00e9 en milieu de travail du Gouvernement du Canada (CCMTGC) peut parfois avoir des retomb\u00e9s vraiment tout pr\u00e8s de vous. C'est arriv\u00e9 il y a quelques ann\u00e9es \u00e0 une adjointe de recherche du Centre de recherche et de d\u00e9veloppement de Qu\u00e9bec. Cette ann\u00e9e-l\u00e0, le conjoint de Sylvie Michaud recevait un diagnostic qui allait bouleverser toute leur vie. Il \u00e9tait atteint de scl\u00e9rose lat\u00e9rale amyotrophique (SLA), \u00e9galement appel\u00e9e maladie de Lou Gehrig.</p>\n<p><strong>Sondage : </strong><a href=\"https://collab.agr.gc.ca/apps/harvest-moisson/\">En quelle ann\u00e9e le Canada a-t-il lanc\u00e9 son premier satellite?</a></p>\n<p><strong>Photo vedette :</strong> <a href=\"https://collab.agr.gc.ca/apps/harvest-moisson/gallery/Lists/Posts/Post.aspx?ID=376\"> \u00c9pi de bl\u00e9 solitaire,</a> par Christine Claros, Direction g\u00e9n\u00e9rale de la gestion int\u00e9gr\u00e9e, Ottawa (Ontario).</p>\n<p><strong>Le saviez-vous?</strong> Aujourd\u2019hui, la culture d\u2019un acre de ma\u00efs prend <a href=\"https://collab.agr.gc.ca/apps/harvest-moisson/Pages/didyouknow.aspx\">50 000 gallons d\u2019eau de moins</a> qu\u2019il y a 20 ans.</p>\n<p>Vous pouvez participer en affichant des commentaires ou en utilisant la fonction \u00ab J\u2019aime \u00bb ou \u00ab Partager \u00bb pour exprimer votre appr\u00e9ciation d\u2019un article. Vous pouvez aussi aller voir ce que vos coll\u00e8gues aiment et ont \u00e0 dire.</p>\n<p>Si vous avez des id\u00e9es d\u2019articles, des photos de paysages ou \u00e0 caract\u00e8re artistique li\u00e9es \u00e0 l\u2019agriculture ou encore des faits int\u00e9ressants, veuillez nous en faire part en cliquant sur \u00ab Collaborer \u00bb dans la barre de menu en haut de la page.</p>\n<p><img src=\"https://intranet.agr.gc.ca/resources/prod/news/images/Harvest-sunset.png\" class=\"center-block\"></p>\n\t\t"
    },
    "breadcrumb": {
        "en": "This Week in The Harvest - GCWCC Stories: When Donations Become a Life Story",
        "fr": "Au menu de La Moisson cette semaine - Histoires de la CCMTGC : Quand les dons deviennent une..."
    },
    "news": {
        "date_posted": {
            "en": "2019-10-24",
            "fr": "2019-10-24"
        },
        "to": {
            "en": "All staff",
            "fr": "Tous les employ\u00e9s"
        },
        "by": {
            "en": "Corporate Communications, Public Affairs Branch",
            "fr": "Communications minist\u00e9rielles, Direction g\u00e9n\u00e9rale des affaires publiques"
        }
    }
}