{
    "dcr_id": "1572348070607",
    "lang": "en",
    "title": {
        "en": "Reminder - Webcast on Workplace Well-Being: Dealing with Cancer - November 14",
        "fr": "Rappel - Webdiffusion sur le bien-\u00eatre en milieu de travail : lutter contre le cancer - 14 novembre"
    },
    "modified": "2019-11-06 00:00:00.0",
    "issued": "2019-10-31 00:00:00.0",
    "type_name": "intra-intra/news-nouv",
    "node_id": "1279030006975",
    "layout_name": null,
    "dc_date_created": "2019-10-29",
    "breadcrumb_label": "",
    "meta": {
        "issued": {
            "en": "2019-10-31",
            "fr": "2019-10-31"
        },
        "modified": {
            "en": "2019-11-06",
            "fr": "2019-11-06"
        },
        "format": {
            "en": "gcformat",
            "fr": "gcformat"
        },
        "title": {
            "en": "Reminder - Webcast on Workplace Well-Being: Dealing with Cancer - November 14",
            "fr": "Rappel - Webdiffusion sur le bien-\u00eatre en milieu de travail : lutter contre le cancer - 14 novembre"
        },
        "subject": {
            "en": "communications",
            "fr": "communications"
        },
        "description": {
            "en": "With almost 1 in 2 Canadians developing cancer in their lifetimes, cancer's impact is far\u2011reaching.",
            "fr": "Comme un Canadien sur deux sera atteint du cancer au cours de sa vie, les r\u00e9percussions du cancer sont d'une grande port\u00e9e."
        },
        "language": {
            "en": "eng",
            "fr": "fra"
        },
        "audience": {
            "en": "gcaudience",
            "fr": "gcaudience"
        },
        "creator": {
            "en": "Agriculture and Agri-Food Canada",
            "fr": "Agriculture et Agroalimentaire Canada"
        },
        "spatial": {
            "en": "gcregions",
            "fr": "gcregions"
        },
        "service": {
            "en": "AAFC_AgriSource",
            "fr": "AAC_AgriSource"
        },
        "accessRights": {
            "en": "3",
            "fr": "3"
        }
    },
    "body": {
        "en": "<br>\n<br>\n<p>With almost 1 in 2 Canadians developing cancer in their lifetimes, cancer\u2019s impact is far\u2011reaching. The illness affects not only those diagnosed with the disease, but also the mental health of families and friends.</p>\n<p>No matter how each of us has been affected, mental health struggles can seep into all aspects of our life, including work. We at AAFC want to ensure that all employees feel supported and able to bring their whole selves to work. We encourage employees to participate in this webcast by the Canada School of Public Service (CSPS), which will focus on the impact of cancer on mental health in the workplace.</p>\n<h2><strong>Event information</strong></h2>\n<p>Join a panel of experts and CSPS employees as they share advice on support services available, as well as personal experiences of dealing with the impacts of cancer. Panelists will also share coping strategies and provide insights to help empower others.</p>\n<p><strong>Date and time:</strong> Thursday, November 14 | 1:30 to 3:00 pm (ET)<br><strong>Language:</strong> Bilingual, with interpretation in both official languages<br><strong>Registration:</strong> In-person or webcast participation. Register with the <a href=\"https://www.csps-efpc.gc.ca/events/wwb-dc/index-eng.aspx\">Canada School of Public Service</a>.</p>\n<p><strong>Speakers:</strong></p>\n<ul>\n<li><strong>France Hutchison</strong>, Coach and Learning Specialist, Canada School of Public Service</li>\n<li><strong>Marie-Jos\u00e9e Chabot</strong>, Manager, Employee Assistance Services, Health Canada</li>\n<li><strong>Linda Eagen</strong>, President and CEO, Ottawa Regional Cancer Foundation; Founder, Cancer Coaching</li>\n</ul>\n\n\t\t",
        "fr": "<br>\n<br>\n<p>Comme un Canadien sur deux sera atteint du cancer au cours de sa vie, les r\u00e9percussions du cancer sont d\u2019une grande port\u00e9e. Cette maladie touche les personnes qui re\u00e7oivent un diagnostic de cancer, et affecte aussi la sant\u00e9 mentale de leurs familles et amis.</p>\n<p>Peu importe comment chacun d\u2019entre nous est touch\u00e9, les probl\u00e8mes de sant\u00e9 mentale peuvent s\u2019infiltrer dans tous les aspects de notre vie, y compris le travail. \u00c0 AAC, nous voulons nous assurer que tous les employ\u00e9s se sentent soutenus et libres d\u2019\u00eatre eux\u2011m\u00eames au travail. Nous encourageons les employ\u00e9s \u00e0 participer \u00e0 la webdiffusion de l\u2019\u00c9cole de la fonction publique du Canada (EFPC) qui examinera les r\u00e9percussions du cancer sur la sant\u00e9 mentale au travail.</p>\n<h2><strong>Renseignements sur l\u2019activit\u00e9</strong></h2>\n<p>Venez entendre le groupe compos\u00e9 d\u2019experts et d\u2019employ\u00e9es de l\u2019EFPC qui vous feront part de leurs conseils sur les services de soutien disponibles, ainsi que de leurs exp\u00e9riences personnelles pour faire face aux r\u00e9percussions du cancer. Les conf\u00e9renci\u00e8res pr\u00e9senteront aussi des strat\u00e9gies d\u2019adaptation et des id\u00e9es pour aider les autres.</p>\n<p><strong>Date et heure :</strong> Le 14 novembre | de 13 h 30 \u00e0 15 h (HE)<br><strong>Langue :</strong> Bilingue avec interpr\u00e9tation dans les deux langues officielles<br><strong>Inscription :</strong> Participation en personne ou par webdiffusion. Inscrivez-vous aupr\u00e8s de l\u2019<a href=\"https://www.csps-efpc.gc.ca/events/wwb-dc/index-fra.aspx\">\u00c9cole de la fonction publique du Canada</a></p>\n<p><strong>Conf\u00e9renci\u00e8res </strong></p>\n<ul>\n<li><strong>France Hutchison</strong>, coach et sp\u00e9cialiste en apprentissage, \u00c9cole de la fonction publique du Canada</li>\n<li><strong>Marie-Jos\u00e9e Chabot</strong>, gestionnaire, Service d\u2019aide aux employ\u00e9s, Sant\u00e9 Canada</li>\n<li><strong>Linda Eagen</strong>, pr\u00e9sidente et directrice g\u00e9n\u00e9rale, Fondation du cancer de la r\u00e9gion d\u2019Ottawa; fondatrice du coaching en mati\u00e8re de cancer</li>\n</ul>\n\t\t"
    },
    "breadcrumb": {
        "en": "Reminder - Webcast on Workplace Well-Being: Dealing with Cancer - November 14",
        "fr": "Rappel - Webdiffusion sur le bien-\u00eatre en milieu de travail : lutter contre le cancer - 14 novembre"
    },
    "news": {
        "date_posted": {
            "en": "2019-10-31",
            "fr": "2019-10-31"
        },
        "to": {
            "en": "All staff",
            "fr": "Tous les employ\u00e9s"
        },
        "by": {
            "en": "Human Resources, Corporate Management Branch",
            "fr": "Ressources humaines, Direction g\u00e9n\u00e9rale de la gestion int\u00e9gr\u00e9e"
        }
    }
}