{
    "dcr_id": "1573662422785",
    "lang": "en",
    "title": {
        "en": "Knowledge Workspace Unavailable November 28 - December 2 Due to Upgrade",
        "fr": "Indisponibilit\u00e9 de l\u2019Espace de travail du savoir du 28 novembre au 2 d\u00e9cembre en raison d\u2019une mise \u00e0 niveau"
    },
    "modified": "2019-11-14 00:00:00.0",
    "issued": "2019-11-14 00:00:00.0",
    "type_name": "intra-intra/news-nouv",
    "node_id": "1279030006975",
    "layout_name": null,
    "dc_date_created": "2019-11-13",
    "breadcrumb_label": "",
    "meta": {
        "issued": {
            "en": "2019-11-14",
            "fr": "2019-11-14"
        },
        "modified": {
            "en": "2019-11-14",
            "fr": "2019-11-14"
        },
        "format": {
            "en": "gcformat",
            "fr": "gcformat"
        },
        "title": {
            "en": "Knowledge Workspace Unavailable November 28 - December 2 Due to Upgrade",
            "fr": "Indisponibilit\u00e9 de l\u2019Espace de travail du savoir du 28 novembre au 2 d\u00e9cembre en raison d\u2019une mise \u00e0 niveau"
        },
        "subject": {
            "en": "communications",
            "fr": "communications"
        },
        "description": {
            "en": "We are upgrading the Knowledge Workspace (KW) platform to a version that is more secure and brings new features.",
            "fr": "Nous faisons passer la plateforme de l'Espace de travail du savoir (ETS) \u00e0 une version plus s\u00e9curitaire pr\u00e9sentant de nouvelles caract\u00e9ristiques."
        },
        "language": {
            "en": "eng",
            "fr": "fra"
        },
        "audience": {
            "en": "gcaudience",
            "fr": "gcaudience"
        },
        "creator": {
            "en": "Agriculture and Agri-Food Canada",
            "fr": "Agriculture et Agroalimentaire Canada"
        },
        "spatial": {
            "en": "gcregions",
            "fr": "gcregions"
        },
        "service": {
            "en": "AAFC_AgriSource",
            "fr": "AAC_AgriSource"
        },
        "accessRights": {
            "en": "3",
            "fr": "3"
        }
    },
    "body": {
        "en": "<br>\n<br>\n<p>We are upgrading the Knowledge Workspace (KW) platform to a version that is more secure and brings new features. To perform the upgrade, we will take KW offline <strong>between 5 p.m. ET on Thursday, November 28 and</strong> <strong>5 a.m. ET on Monday, December 2.</strong></p>\n<p>This means that<strong> KW (i.e., pages, sites, documents) will not be available</strong> during that period.</p>\n<h2><strong>Before the upgrade</strong></h2>\n<p>Here are some tips on what to do before 5 p.m. on November 28 to help us manage the KW downtime.</p>\n<ul>\n<li>Determine if you, or your team, need to access any KW file(s) during the downtime.</li>\n<li>Plan your work on the file(s) with the downtime in mind.</li>\n<li>Save a copy of any file(s) you will need to access during the downtime from KW to a temporary location. (Tip: When saving modified files remember to use the same filename and document library location in order to save as a new version of the existing file.)</li>\n<li>Remember to check in open files or site pages.</li>\n</ul>\n<h2><strong>After the upgrade</strong></h2>\n<p>Make sure you save the files(s) you worked on back into your KW document library after December 2.</p>\n<p>The KW upgrade will not affect the content of your sites. In fact, most of KW will retain the same look, feel and functionality you already know, with minor modifications. Details on the modifications will be highlighted in next week\u2019s news@work article.</p>\n<p>Should you have any questions or concerns, please do not hesitate to contact IT Centre TI.</p>\n<p><strong>\u00a0</strong></p>\n<p><strong>IT Centre TI</strong><br>\nTelephone: 1-855-545-4411<br>\n<a href=\"http://myitcentreti-monitcentreti/\">My IT Centre TI</a></p>\n<p><img src=\"https://intranet.agr.gc.ca/resources/prod/news/images/ITCentreTI2.png\" class=\"center-block\"></p>\n\n\t\t",
        "fr": "<br>\n<br>\n<p>Nous faisons passer la plateforme de l\u2019Espace de travail du savoir (ETS) \u00e0 une version plus s\u00e9curitaire pr\u00e9sentant de nouvelles caract\u00e9ristiques. Pour effectuer la mise \u00e0 niveau, nous mettrons l\u2019ETS hors ligne du <strong>jeudi 28 novembre \u00e0 17 h (HE)</strong> au <strong>lundi 2 d\u00e9cembre \u00e0 5 h (HE)</strong>.</p>\n<p><strong>L\u2019ETS (sites, biblioth\u00e8ques de documents, etc.) ne sera</strong> donc <strong>pas disponible </strong>pendant cette p\u00e9riode<strong>.</strong></p>\n<h2><strong>Avant la mise \u00e0 niveau</strong></h2>\n<p>Voici quelques conseils sur ce que vous pouvez faire avant 17 h le 28 novembre pour nous aider \u00e0 g\u00e9rer le temps d\u2019inactivit\u00e9 de l\u2019ETS.</p>\n<ul>\n<li>D\u00e9terminez si vous ou les membres de votre \u00e9quipe aurez besoin de fichiers sauvegard\u00e9s dans l\u2019ETS pendant la p\u00e9riode d\u2019inactivit\u00e9.</li>\n<li>Planifiez vos travaux sur le fichier en fonction de la p\u00e9riode d\u2019inactivit\u00e9.</li>\n<li>Sauvegardez dans un emplacement temporaire une copie de tout document de l\u2019ETS auquel vous devrez avoir acc\u00e8s au cours de la p\u00e9riode d\u2019inactivit\u00e9. (Conseil : Lorsque vous sauvegardez un fichier modifi\u00e9, n\u2019oubliez pas d\u2019utiliser le m\u00eame nom de fichier et le m\u00eame emplacement de la biblioth\u00e8que de documents afin de sauvegarder la nouvelle version du fichier.)</li>\n<li>N\u2019oubliez pas d\u2019archiver les fichiers ouverts ou les pages de sites.</li>\n</ul>\n<h2><strong>Apr\u00e8s la mise \u00e0 niveau</strong></h2>\n<p>Assurez-vous de remettre les fichiers sur lesquels vous aurez travaill\u00e9 dans votre biblioth\u00e8que de documents de l\u2019ETS apr\u00e8s le 2 d\u00e9cembre.</p>\n<p>La mise \u00e0 niveau de l\u2019ETS n\u2019aura aucune incidence sur le contenu de vos sites. En fait, l\u2019aspect, la convivialit\u00e9 et la fonctionnalit\u00e9 de la plupart des pages de l\u2019ETS resteront inchang\u00e9s, \u00e0 quelques modifications mineures pr\u00e8s. Des pr\u00e9cisions sur les modifications qui d\u00e9couleront de la mise \u00e0 niveau seront fournies dans le bulletin nouvelles@l\u2019ouvrage de la semaine prochaine.</p>\n<p>Si vous avez des questions ou des pr\u00e9occupations, n\u2019h\u00e9sitez pas \u00e0 communiquer avec le IT Centre TI.</p>\n<p><strong>\u00a0</strong></p>\n<p><strong>IT Centre TI</strong><br>\nT\u00e9l\u00e9phone : 1-855-545-4411<br>\n<a href=\"http://myitcentreti-monitcentreti/\">Mon IT Centre TI</a></p>\n<p><img src=\"https://intranet.agr.gc.ca/resources/prod/news/images/ITCentreTI2.png\" class=\"center-block\"></p>\n\t\t"
    },
    "breadcrumb": {
        "en": "Knowledge Workspace Unavailable November 28 - December 2 Due to Upgrade",
        "fr": "Indisponibilit\u00e9 de l\u2019Espace de travail du savoir du 28 novembre au 2 d\u00e9cembre en raison d\u2019une mise \u00e0 niveau"
    },
    "news": {
        "date_posted": {
            "en": "2019-11-13",
            "fr": "2019-11-13"
        },
        "to": {
            "en": "All staff",
            "fr": "Tous les employ\u00e9s"
        },
        "by": {
            "en": "Application and Knowledge Services, Information Systems Branch",
            "fr": "Services des applications et du savoir, Direction g\u00e9n\u00e9rale des syst\u00e8mes d\u2019information"
        }
    }
}