{
    "dcr_id": "1573576891137",
    "lang": "en",
    "title": {
        "en": "NCR - This Week in GCWCC News",
        "fr": "RCN - Nouvelles hebdomadaires sur la CCMTGC"
    },
    "modified": "2019-11-14 00:00:00.0",
    "issued": "2019-11-14 00:00:00.0",
    "type_name": "intra-intra/news-nouv",
    "node_id": "1279030006975",
    "layout_name": null,
    "dc_date_created": "2019-11-12",
    "breadcrumb_label": "",
    "meta": {
        "issued": {
            "en": "2019-11-14",
            "fr": "2019-11-14"
        },
        "modified": {
            "en": "2019-11-14",
            "fr": "2019-11-14"
        },
        "format": {
            "en": "gcformat",
            "fr": "gcformat"
        },
        "title": {
            "en": "NCR - This Week in GCWCC News",
            "fr": "RCN - Nouvelles hebdomadaires sur la CCMTGC"
        },
        "subject": {
            "en": "communications",
            "fr": "communications"
        },
        "description": {
            "en": "Find out what\u2019s happening for GCWCC in the NCR below!",
            "fr": "D\u00e9couvrez ce qui est organis\u00e9 en marge de la CCMTGC dans la RCN ci-dessous!"
        },
        "language": {
            "en": "eng",
            "fr": "fra"
        },
        "audience": {
            "en": "gcaudience",
            "fr": "gcaudience"
        },
        "creator": {
            "en": "Agriculture and Agri-Food Canada",
            "fr": "Agriculture et Agroalimentaire Canada"
        },
        "spatial": {
            "en": "gcregions",
            "fr": "gcregions"
        },
        "service": {
            "en": "AAFC_AgriSource",
            "fr": "AAC_AgriSource"
        },
        "accessRights": {
            "en": "3",
            "fr": "3"
        }
    },
    "body": {
        "en": "<br>\n<br>\n<p>Find out what\u2019s happening for GCWCC in the NCR below! All net proceeds from events will go toward GCWCC.</p>\n<h2><strong>Chess challenge with world-renowned champion Svitlana Demchenko</strong></h2>\n<p>Match your wits with local chess superstar, Svitlana Demchenko, as she faces off against up to 20 employees at once in simultaneous matches.</p>\n<p><strong>Date and time:</strong> Friday, November 15 | 12 to 1 p.m.<br>\n<strong>Location:</strong> T6 cafeteria<br>\n<strong>Cost:</strong></p>\n<ul>\n<li><strong>Players</strong>: Suggested donation of $10 to play</li>\n<li><strong>Special advisor</strong>s: Provided advice to players for a suggested donation of $5.</li>\n</ul>\n<p><strong>Player registration: </strong></p>\n<ul>\n<li><strong>Online:</strong> <a href=\"https://collab.agr.gc.ca/co/gcwcc-support-ccmtgc/SitePages/Calendar%20View%20-%20Voir%20Le%20Calendrier.aspx\">GCWCC events calendar on Knowledge workspace</a></li>\n<li><strong>Email:</strong> Contact james.watson@canada.ca</li>\n</ul>\n<p><strong>Biography: Svitlana Demchenko </strong></p>\n<p><img src=\"https://intranet.agr.gc.ca/resources/prod/news/images/svitlana1.png\" class=\"pull-left mrgn-rght-md\">16-year-old Svitlana Demchenko has been playing chess since the age of 9, back when she lived in Ukraine. Since moving to Canada in 2014, Svitlana has gone on to become a three-time Canadian Champion (girls under 12, 14, 16), and a member of the Canadian Women\u2019s Olympiad Team in 2018.</p>\n<p>After ending 2018 as the highest-rated woman in Canada, Svitlana is now established as an elite player at the international level. This fall, she will play tournaments in Kazakhstan and India, and just before her visit to AAFC in November, she will represent Canada at the World Youth U16 Chess Olympiad in Turkey.</p>\n<p>Svitlana was recently awarded a scholarship to Webster University in St. Louis, Missouri, courtesy of the Susan Polgar Foundation. She plans to complete high school, focus on her education, and then become a doctor.</p>\n<h2><strong>AAFC and CFIA's Got Talent - Advance discount voting ballots for sale until November 15</strong></h2>\n<p>Come out, watch your colleagues display their talents, and cast your votes for your favourite acts! Purchase a voucher for 60 voting ballots for the discounted price of $20 until Friday, November 15. By planning ahead for the event and purchasing your voting ballots in advance, you will save $10.</p>\n<p>During the event, voting ballots will be sold at regular prices of 2 for $2, 8 for $5 and 20 for $10.</p>\n<p>Support your favourite star performers while supporting GCWCC!</p>\n<p>Contact\u00a0<a href=\"mailto:andrei.marinescu@canada.ca\">andrei.marinescu@canada.ca</a> or\u00a0<a href=\"mailto:louis.beaulieu@canada.ca\">louis.beaulieu@canada.ca</a> to purchase your discounted voting ballots.</p>\n<p><strong>Event details</strong></p>\n<p><strong>Date and time:</strong> November 20 to 22 | 12:00 to 1:30 p.m.<br>\n<strong>Location:</strong> Tower 6 cafeteria</p>\n<p><strong>Star performers wanted!</strong></p>\n<p>Battle it out against your colleagues, and earn your title as either Best Individual or Best Group Performer. The competition is open to all AAFC and CFIA aspiring stars in the National Capital Region. Whatever your talent, you are encouraged to participate. Contact <a href=\"mailto:andrei.marinescu@canada.ca\">andrei.marinescu@canada.ca</a> or <a href=\"mailto:louis.beaulieu@canada.ca\">louis.beaulieu@canada.ca</a> to get your name on the set list!</p>\n<h2><strong>Giving Garden</strong></h2>\n<p>The Giving Garden mural is in the Tower 6 cafeteria. Employees can share their giving story by filling out a petal and placing it on the mural. Each petal will show how we give back to the community through volunteering or donations and let our colleagues know about the work of our chosen charities.</p>\n<p>Fill out your petal at GCWCC events! A list of events can be found on the <a href=\"https://collab.agr.gc.ca/co/gcwcc-support-ccmtgc/SitePages/NCR%20CAMPAIGN%20-%20Events-%20CAMPAGNE%20DANS%20LA%20RCN-%20Activit%C3%A9s.aspx\">GCWCC Events page on Knowledge Workspace</a>.</p>\n<h2><strong>Calendars</strong></h2>\n<p>The 2020 AAFC calendar features employee photos from <em>The Harvest</em>. Place your calendar pre-orders at various <a href=\"https://collab.agr.gc.ca/co/gcwcc-support-ccmtgc/SitePages/NCR%20CAMPAIGN%20-%20Events-%20CAMPAGNE%20DANS%20LA%20RCN-%20Activit%C3%A9s.aspx\">GCWCC events</a> or by contacting Lesleigh Smith at <a href=\"mailto:lesleigh.smith@canada.ca\">lesleigh.smith@canada.ca</a>. Calendars are $15, with net profits going to the GCWCC. Not only will you get to proudly display the product that you helped create, but you\u2019ll be helping your community at the same time.</p>\n<p>Limited quantities of the calendar are available, so be sure to get your order in soon!</p>\n<h2><strong>50/50 draws</strong></h2>\n<p>The next draw is November 22. Be sure to purchase your 50/50 tickets from your seller for your chance to win up to $1000. For more information on rules and this year\u2019s winners, see the <a href=\"https://collab.agr.gc.ca/co/gcwcc-support-ccmtgc/SitePages/50-50.aspx\">GCWCC 50/50 page on Knowledge Workspace</a>.</p>\n<h2><strong>Friends and Leaders\u2019 draw</strong></h2>\n<p>Employees who pledge between $500 and $999 through one\u2011time payment or payroll deductions will be entered in a draw for great prizes, including Senators tickets, which have been generously donated by an AAFC employee. Employees who pledge $1000 or more will receive two entries for the draw. Pledge before <strong>December\u00a06</strong> to be entered into the draw.</p>\n<p>For more information about the campaign, visit the <a href=\"https://collab.agr.gc.ca/co/gcwcc-support-ccmtgc/SitePages/NCR%20CAMPAIGN-%20CAMPAGNE%20DANS%20LA%20RCN.aspx\">GCWCC Knowledge Workspace page</a>.</p>\n<p><img src=\"https://intranet.agr.gc.ca/resources/prod/news/images/GCWCC2019-EN.png\" class=\"center-block\"></p>\n\n\t\t",
        "fr": "<br>\n<br>\n<p>D\u00e9couvrez ce qui est organis\u00e9 en marge de la CCMTGC dans la RCN ci-dessous! Tous les profits seront vers\u00e9s \u00e0 la CCMTGC.</p>\n<h2><strong>D\u00e9fiez </strong><strong>Svitlana Demchenko</strong><strong>, championne d\u2019\u00e9checs de renomm\u00e9e mondiale </strong></h2>\n<p>Mesurez-vous \u00e0 la championne d\u2019\u00e9checs locale Svitlana Demchenko, qui jouera contre un maximum de 20 employ\u00e9s en m\u00eame temps.</p>\n<p><strong>Date et heure :</strong> Le vendredi 15 novembre | de midi \u00e0 13 h<br>\n<strong>Lieu :</strong> caf\u00e9t\u00e9ria de la T6</p>\n<p><strong>Co\u00fbt :</strong></p>\n<ul>\n<li><strong>Joueurs </strong>: Don sugg\u00e9r\u00e9 de 10 $ pour jouer</li>\n<li><strong>Conseillers sp\u00e9ciaux </strong>: Offrent des conseils aux joueurs en \u00e9change d\u2019un don sugg\u00e9r\u00e9 de 5 $.</li>\n</ul>\n<p><strong>Inscription des joueurs </strong></p>\n<p>En ligne : <a href=\"https://collab.agr.gc.ca/co/gcwcc-support-ccmtgc/SitePages/Calendar%20View%20-%20Voir%20Le%20Calendrier.aspx\">Calendrier des activit\u00e9s de la CCMTGC sur l\u2019Espace de travail du savoir</a><br>\nCourriel : James Watson \u00e0 <a href=\"mailto:james.watson@canada.ca\">james.watson@canada.ca</a></p>\n<p><strong>Biographie : Svitlana Demchenko </strong></p>\n<p><img src=\"https://intranet.agr.gc.ca/resources/prod/news/images/svitlana1.png\" class=\"pull-left mrgn-rght-md\">Svitlana Demchenko, 16 ans, a commenc\u00e9 \u00e0 jouer aux \u00e9checs \u00e0 l\u2019\u00e2ge de 9 ans, quand elle vivait en Ukraine. Depuis son arriv\u00e9e au Canada en 2014, Svitlana\u00a0a \u00e9t\u00e9 trois fois championne canadienne (filles de moins de 12 ans, 14 ans et 16 ans) et membre de l\u2019\u00e9quipe canadienne f\u00e9minine de l\u2019Olympiade d\u2019\u00e9chec en 2018.</p>\n<p>Apr\u00e8s avoir termin\u00e9 l\u2019ann\u00e9e 2018 au premier rang chez les femmes au Canada, Svitlana est maintenant reconnue comme une joueuse d\u2019\u00e9lite \u00e0 l\u2019\u00e9chelle internationale. Cet automne, elle participera \u00e0 des tournois au Kazakhstan et en Inde, et juste avant sa visite \u00e0 AAC en novembre, elle repr\u00e9sentera le Canada \u00e0 l\u2019Olympiade mondiale des juniors U16 en Turquie.</p>\n<h2><strong>Concours \u00ab Du talent \u00e0 revendre \u00bb d'AAC et de l'ACIA - Rabais sur l'achat des bulletins de vote jusqu'au 15 novembre</strong></h2>\n<p>Venez voir vos coll\u00e8gues d\u00e9ployer leurs talents et voter pour vos num\u00e9ros favoris! Achetez un bon pour 60 bulletins de vote au prix r\u00e9duit de 20 $ jusqu\u2019au lundi 15 novembre. En achetant vos bulletins de vote \u00e0 l\u2019avance, vous \u00e9conomisez 10 $.</p>\n<p>Pendant l\u2019activit\u00e9, les bulletins de vote seront vendus aux prix courants de 2 pour 2 $, de 8 pour 5 $ et de 20 pour 10 $.</p>\n<p>Encouragez vos artistes pr\u00e9f\u00e9r\u00e9s tout en appuyant la CCMTGC!</p>\n<p>Communiquez avec <a href=\"mailto:andrei.marinescu@canada.ca\">andrei.marinescu@canada.ca</a> ou <a href=\"mailto:louis.beaulieu@canada.ca\">louis.beaulieu@canada.ca</a> pour acheter vos bulletins de vote \u00e0 prix r\u00e9duit.</p>\n<p><strong>Renseignements sur le concours</strong></p>\n<p><strong>Date et heure :</strong> Du 20 au 22 novembre | 12 h \u00e0 13 h 30<br>\n<strong>Lieu :</strong> Caf\u00e9t\u00e9ria de la tour 6 (CACPA)</p>\n<p><strong>Artistes recherch\u00e9s!</strong></p>\n<p>Mesurez-vous \u00e0 vos coll\u00e8gues pour le titre de meilleur artiste solo ou de meilleur groupe. Tous les employ\u00e9s d\u2019AAC et de l\u2019ACIA dans la r\u00e9gion de la capitale nationale qui aspirent \u00e0 devenir une \u00e9toile peuvent participer au concours, quel que soit leur talent. Communiquez avec <a href=\"mailto:andrei.marinescu@canada.ca\">andrei.marinescu@canada.ca</a> ou <a href=\"mailto:louis.beaulieu@canada.ca\">louis.beaulieu@canada.ca</a> pour vous inscrire!</p>\n<h2><strong>Jardin de la g\u00e9n\u00e9rosit\u00e9</strong></h2>\n<p>La murale Jardin de la g\u00e9n\u00e9rosit\u00e9 se trouve dans la caf\u00e9t\u00e9ria de la tour 6. Les employ\u00e9s peuvent raconter leur histoire de don en l\u2019inscrivant sur un p\u00e9tale, qu\u2019ils poseront par la suite sur la murale. Chaque p\u00e9tale dira comment nous redonnons \u00e0 notre communaut\u00e9 en faisant du b\u00e9n\u00e9volat ou des dons et fera conna\u00eetre \u00e0 nos coll\u00e8gues le travail des organismes de bienfaisance que nous avons choisis.</p>\n<p>Profitez des activit\u00e9s de la CCMTGC pour remplir votre p\u00e9tale! La <a href=\"https://collab.agr.gc.ca/co/gcwcc-support-ccmtgc/SitePages/NCR%20CAMPAIGN%20-%20Events-%20CAMPAGNE%20DANS%20LA%20RCN-%20Activit%C3%A9s.aspx\">page des \u00e9v\u00e9nements de la CCMTGC dans l\u2019Espace de travail du savoir</a> contient la liste des \u00e9v\u00e9nements.</p>\n<h2><strong>Calendriers</strong></h2>\n<p>Le calendrier 2020 d\u2019AAC contient des photos d\u2019employ\u00e9s tir\u00e9s de <em>La Moisson</em>. Commandez votre calendrier \u00e0 l\u2019avance lors\u00a0<a href=\"https://collab.agr.gc.ca/co/gcwcc-support-ccmtgc/SitePages/NCR%20CAMPAIGN%20-%20Events-%20CAMPAGNE%20DANS%20LA%20RCN-%20Activit%C3%A9s.aspx\">d\u2019\u00e9v\u00e9nements rattach\u00e9s \u00e0 la CCMTGC</a> ou en communiquant avec Lesleigh Smith (<a href=\"mailto:lesleigh.smith@canada.ca\">lesleigh.smith@canada.ca</a>). Les calendriers co\u00fbtent 15 $ et toutes les recettes sont vers\u00e9es \u00e0 la CCMTGC. En plus d\u2019afficher fi\u00e8rement le produit que vous avez aid\u00e9 \u00e0 cr\u00e9er, vous appuierez votre communaut\u00e9 par la m\u00eame occasion.</p>\n<p>Des quantit\u00e9s limit\u00e9es du calendrier sont mises en vente; assurez-vous de passer votre commande bient\u00f4t!</p>\n<h2><strong>Tirage 50/50</strong></h2>\n<p>Le prochain tirage est le\u00a022 novembre. N\u2019oubliez pas d\u2019acheter vos billets aupr\u00e8s de votre vendeur pour courir la chance de gagner jusqu\u2019\u00e0 1\u2009000 $. Pour de plus amples renseignements sur les r\u00e8gles et les gagnants de cette ann\u00e9e, consultez le <a href=\"https://collab.agr.gc.ca/co/gcwcc-support-ccmtgc/SitePages/50-50.aspx\">site Web des tirages 50/50 de la CCMTGC dans l\u2019Espace de travail du savoir</a>.</p>\n<h2><strong>Tirage Amis et chefs de file</strong></h2>\n<p>Les employ\u00e9s qui s\u2019engagent \u00e0 verser entre 500 $ et 999 $ sous forme de paiement unique ou de retenues salariales participeront \u00e0 un tirage au sort pour gagner des prix exceptionnels, y compris des billets pour les S\u00e9nateurs, qui ont \u00e9t\u00e9 gracieusement offerts par un employ\u00e9 d\u2019AAC. Les employ\u00e9s qui s\u2019engagent \u00e0 verser 1\u2009000 $ ou plus recevront deux participations au tirage.\u00a0 Faites un don dans le cadre de la CCMTGC <strong>d\u2019ici le\u00a06 decembre </strong>pour participer au tirage.</p>\n<p>Pour de plus amples renseignements au sujet de la campagne, consultez la <a href=\"https://collab.agr.gc.ca/co/gcwcc-support-ccmtgc/SitePages/NCR%20CAMPAIGN-%20CAMPAGNE%20DANS%20LA%20RCN.aspx\"> page sur la CCMTGC dans l\u2019Espace de travail du savoir</a>.</p>\n<p><img src=\"https://intranet.agr.gc.ca/resources/prod/news/images/GCWCC2019-FR.png\" class=\"center-block\"></p>\n\t\t"
    },
    "breadcrumb": {
        "en": "NCR - This Week in GCWCC News",
        "fr": "RCN - Nouvelles hebdomadaires sur la CCMTGC"
    },
    "news": {
        "date_posted": {
            "en": "2019-11-14",
            "fr": "2019-11-14"
        },
        "to": {
            "en": "NCR only",
            "fr": "RCN seulement"
        },
        "by": {
            "en": "GCWCC Core Team",
            "fr": "\u00c9quipe de base de la CCMTGC"
        }
    }
}