{
    "dcr_id": "1574178229411",
    "lang": "en",
    "title": {
        "en": "It\u2019s That Time of Year Again: Get Your Flu Shot Now",
        "fr": "La saison du vaccin contre la grippe est arriv\u00e9e!"
    },
    "modified": "2019-11-21 00:00:00.0",
    "issued": "2019-11-21 00:00:00.0",
    "type_name": "intra-intra/news-nouv",
    "node_id": "1279030006975",
    "layout_name": null,
    "dc_date_created": "2019-11-19",
    "breadcrumb_label": "",
    "meta": {
        "issued": {
            "en": "2019-11-21",
            "fr": "2019-11-21"
        },
        "modified": {
            "en": "2019-11-21",
            "fr": "2019-11-21"
        },
        "format": {
            "en": "gcformat",
            "fr": "gcformat"
        },
        "title": {
            "en": "It\u2019s That Time of Year Again: Get Your Flu Shot Now",
            "fr": "La saison du vaccin contre la grippe est arriv\u00e9e!"
        },
        "subject": {
            "en": "communications",
            "fr": "communications"
        },
        "description": {
            "en": "With busy days and deadlines, it's sometimes easy to forget to prioritize our own health, but it's important that we take care of ourselves.",
            "fr": "Avec des journ\u00e9es charg\u00e9es et des \u00e9ch\u00e9ances serr\u00e9es, il est facile de n\u00e9gliger notre propre sant\u00e9, mais il est important de prendre soin de nous-m\u00eames."
        },
        "language": {
            "en": "eng",
            "fr": "fra"
        },
        "audience": {
            "en": "gcaudience",
            "fr": "gcaudience"
        },
        "creator": {
            "en": "Agriculture and Agri-Food Canada",
            "fr": "Agriculture et Agroalimentaire Canada"
        },
        "spatial": {
            "en": "gcregions",
            "fr": "gcregions"
        },
        "service": {
            "en": "AAFC_AgriSource",
            "fr": "AAC_AgriSource"
        },
        "accessRights": {
            "en": "3",
            "fr": "3"
        }
    },
    "body": {
        "en": "<br>\n<br>\n<p>With busy days and deadlines, it\u2019s sometimes easy to forget to prioritize our own health, but it\u2019s important that we take care of ourselves. The flu is a serious and highly contagious respiratory infection. The annual flu shot is the most effective way to prevent the flu and flu-related complications.</p>\n<p>Flu shots are now available at your primary healthcare provider\u2019s office, local public health unit or at a <a href=\"https://www.canada.ca/en/public-health/services/diseases/flu-influenza/flu-clinics-across-canada.html\">flu shot clinic</a>, as well as many pharmacies.</p>\n<p>Remember, once you get the flu shot, it can take up to two weeks for your body to build immunity against the flu. If you have flu-like symptoms, it\u2019s best to stay home to rest and to prevent the spread of the flu at the office.</p>\n<p>For more information about the flu, visit the <a href=\"https://www.canada.ca/en/public-health/services/diseases/flu-influenza.html\">Government of Canada flu facts page</a>. You can also <a href=\"https://cnphi.canada.ca/fluWatcher/register\">sign up to become a FluWatcher</a> to monitor circulating flu viruses, flu activity levels, outbreaks and hospitalizations across Canada.</p>\n\n\t\t",
        "fr": "<br>\n<br>\n<p>Avec des journ\u00e9es charg\u00e9es et des \u00e9ch\u00e9ances serr\u00e9es, il est facile de n\u00e9gliger notre propre sant\u00e9, mais il est important de prendre soin de nous-m\u00eames.</p>\n<p>Comme vous le savez, la grippe est une infection respiratoire grave et tr\u00e8s contagieuse. Le vaccin annuel est le moyen le plus efficace de pr\u00e9venir la grippe et les complications qui y sont associ\u00e9es.</p>\n<p>Vous pouvez maintenant vous faire vacciner contre la grippe au bureau de votre principal fournisseur de soins de sant\u00e9, \u00e0 votre bureau r\u00e9gional de sant\u00e9 publique ou dans une <a href=\"https://www.canada.ca/fr/sante-publique/services/maladies/grippe-influenza/cliniques-vaccination-contre-grippe-travers-canada.html\">clinique de vaccination contre la grippe</a>, ainsi qu\u2019\u00e0 plusieurs pharmacies.</p>\n<p>Rappelez-vous qu\u2019une fois que vous avez obtenu le vaccin, il faut jusqu\u2019\u00e0 deux semaines pour que votre corps d\u00e9veloppe l\u2019immunit\u00e9 contre la grippe. Si vous ressentez des sympt\u00f4mes qui s\u2019apparentent \u00e0 ceux de la grippe, il est pr\u00e9f\u00e9rable de rester \u00e0 la maison pour vous reposer et pr\u00e9venir la propagation de la grippe au travail.</p>\n<p>Pour obtenir de plus amples renseignements sur la grippe, consultez <a href=\"https://www.canada.ca/fr/sante-publique/services/maladies/grippe-influenza.html\">la page Web sur la grippe du gouvernement du Canada</a>. Vous pouvez \u00e9galement vous inscrire au <a href=\"https://cnphi.canada.ca/fluWatcher/register\">programme \u00ab FluWatchers \u00bb</a> et surveiller les virus de la grippe en circulation, les niveaux d\u2019activit\u00e9 grippale, les \u00e9closions et les hospitalisations partout au Canada.</p>\n\t\t"
    },
    "breadcrumb": {
        "en": "It\u2019s That Time of Year Again: Get Your Flu Shot Now",
        "fr": "La saison du vaccin contre la grippe est arriv\u00e9e!"
    },
    "news": {
        "date_posted": {
            "en": "2019-11-21",
            "fr": "2019-11-21"
        },
        "to": {
            "en": "All staff",
            "fr": "Tous les employ\u00e9s"
        },
        "by": {
            "en": "Public Health Agency of Canada",
            "fr": "Agence de la sant\u00e9 publique du Canada"
        }
    }
}