{
    "dcr_id": "1574770885239",
    "lang": "en",
    "title": {
        "en": "New Session - Register Now: Managing Holiday Stress Seminar - December 12",
        "fr": "Nouvelle s\u00e9ance - Inscrivez-vous au s\u00e9minaire sur la gestion du stress du temps de f\u00eates - le 12 d\u00e9cembre"
    },
    "modified": "2019-12-04 00:00:00.0",
    "issued": "2019-11-28 00:00:00.0",
    "type_name": "intra-intra/news-nouv",
    "node_id": "1279030006975",
    "layout_name": null,
    "dc_date_created": "2019-11-26",
    "breadcrumb_label": "",
    "meta": {
        "issued": {
            "en": "2019-11-28",
            "fr": "2019-11-28"
        },
        "modified": {
            "en": "2019-12-04",
            "fr": "2019-12-04"
        },
        "format": {
            "en": "gcformat",
            "fr": "gcformat"
        },
        "title": {
            "en": "New Session - Register Now: Managing Holiday Stress Seminar - December 12",
            "fr": "Nouvelle s\u00e9ance - Inscrivez-vous au s\u00e9minaire sur la gestion du stress du temps de f\u00eates - le 12 d\u00e9cembre"
        },
        "subject": {
            "en": "communications",
            "fr": "communications"
        },
        "description": {
            "en": "The holiday season is supposed to be a relaxing time spent with family and friends, but for many, it can also come with stress.",
            "fr": "Le temps des f\u00eates est cens\u00e9 \u00eatre un moment de d\u00e9tente en famille et entre amis, mais pour bien des gens, il peut aussi \u00eatre source de stress."
        },
        "language": {
            "en": "eng",
            "fr": "fra"
        },
        "audience": {
            "en": "gcaudience",
            "fr": "gcaudience"
        },
        "creator": {
            "en": "Agriculture and Agri-Food Canada",
            "fr": "Agriculture et Agroalimentaire Canada"
        },
        "spatial": {
            "en": "gcregions",
            "fr": "gcregions"
        },
        "service": {
            "en": "AAFC_AgriSource",
            "fr": "AAC_AgriSource"
        },
        "accessRights": {
            "en": "3",
            "fr": "3"
        }
    },
    "body": {
        "en": "<br>\n<br>\n<p>The holiday season is supposed to be a relaxing time spent with family and friends, but for many, it can also come with stress. The pressures of increased spending, family dynamics, and holiday planning can contribute to feelings of being overwhelmed.</p>\n<p>Join AAFC\u2019s Workplace Wellness Programs for a seminar presented by Morneau Shepell on Managing Holiday Stress.</p>\n<p>This seminar will help participants understand the context in which the holidays are stressful and offer tips and strategies to help manage the psychological, physical, emotional, and financial aspects of planning for and participating in holiday events. It can help you:</p>\n<ul>\n<li>acknowledge your feelings about the holidays</li>\n<li>identify sources of holiday stress</li>\n<li>learn strategies for managing holiday demands</li>\n<li>learn about the role of traditions and how to create new, meaningful traditions</li>\n<li>generate ideas for organizing holiday tasks, managing time, and dealing with expenses</li>\n<li>share holiday tips</li>\n</ul>\n<h2><strong>Event information</strong></h2>\n<p><strong>Date and time:</strong> Thursday, December 12 | 10:00 to 11:00 am (ET)<br><strong>Location: </strong>In-person in T6-1-136 (NHCAP) and by videoconference<br><strong>Language: </strong>English, with participant material available in French and English<br><strong>Registration: </strong>Please register via the <a href=\"https://collab.agr.gc.ca/co/aafcwe-beaac/Lists/Calendar/calendar.aspx\">Workplace Wellness Programs events calendar on Knowledge Workspace</a>.</p>\n<p><strong>Date and time:</strong> Thursday, December 12 | 1:00 to 2:00 pm (ET)<br><strong>Location:</strong> In-person in T7-2-211 (NHCAP) and by videoconference<br><strong>Language:</strong> English, with participant material available in French and English <br><strong>Registration:</strong> Please register via the <a href=\"https://collab.agr.gc.ca/co/aafcwe-beaac/Lists/Events/DispForm.aspx?ID=70\">Workplace Wellness Programs events calendar on Knowledge Workspace.</a></p>\n\n\t\t",
        "fr": "<br>\n<br>\n<p>Le temps des f\u00eates est cens\u00e9 \u00eatre un moment de d\u00e9tente en famille et entre amis, mais pour bien des gens, il peut aussi \u00eatre source de stress. Les d\u00e9penses accrues, la dynamique familiale et la planification des festivit\u00e9s peuvent amener les gens \u00e0 se sentir d\u00e9pass\u00e9s.</p>\n<p>Dans le cadre des Programmes de mieux-\u00eatre en milieu de travail d\u2019AAC, vous pourrez assister \u00e0 un s\u00e9minaire pr\u00e9sent\u00e9 par Morneau Shepell sur la Gestion du stress du temps de f\u00eates.</p>\n<p>Ce s\u00e9minaire aidera les participants \u00e0 comprendre le contexte qui rend les f\u00eates stressantes et leur offrira des conseils et strat\u00e9gies pour les aider \u00e0 g\u00e9rer les aspects psychologiques, physiques, \u00e9motionnels et financiers de la planification et de la participation aux activit\u00e9s des f\u00eates. Les participants pourront :</p>\n<ul>\n<li>reconna\u00eetre leurs sentiments \u00e0 l\u2019\u00e9gard du temps des f\u00eates</li>\n<li>d\u00e9terminer les sources de stress pendant les f\u00eates</li>\n<li>apprendre des strat\u00e9gies pour g\u00e9rer les demandes du temps des f\u00eates</li>\n<li>apprendre le r\u00f4le des traditions et \u00e0 cr\u00e9er de nouvelles traditions enrichissantes</li>\n<li>trouver des id\u00e9es pour organiser les t\u00e2ches du temps des f\u00eates, g\u00e9rer le temps et les d\u00e9penses</li>\n<li>mettre en commun des conseils pour les f\u00eates</li>\n</ul>\n<h2><strong>Renseignements sur l\u2019activit\u00e9</strong></h2>\n<p><strong>Date et heure :</strong> le jeudi 12 d\u00e9cembre | de 10 h \u00e0 11 h (HE)<br><strong>Lieu : </strong>En personne au T6-1-136 (CACPA) et par vid\u00e9oconf\u00e9rence<br><strong>Langues : </strong>Offert en anglais, mat\u00e9riel du participant disponible en fran\u00e7ais et en anglais<br><strong>Inscription : </strong>Inscription \u00e0 partir du <a href=\"https://collab.agr.gc.ca/co/aafcwe-beaac/Lists/Calendar/calendar.aspx\">calendrier d\u2019activit\u00e9s des Programmes de mieux-\u00eatre en milieu de travail dans l\u2019Espace de travail du savoir</a>.</p>\n<p><strong>Date et heure :</strong> le jeudi 12 d\u00e9cembre | de 13 h \u00e0 14 h (HE)<br><strong>Lieu : </strong>En personne au T7-2-211 (CACPA) et par vid\u00e9oconf\u00e9rence<br><strong>Langues : </strong>Offert en anglais, mat\u00e9riel du participant disponible en fran\u00e7ais et en anglais<br><strong>Inscription : </strong>Inscription \u00e0 partir du <a href=\"https://collab.agr.gc.ca/co/aafcwe-beaac/Lists/Calendar/calendar.aspx\">calendrier d\u2019activit\u00e9s des Programmes de mieux-\u00eatre en milieu de travail dans l\u2019Espace de travail du savoir</a>.</p>\n\t\t"
    },
    "breadcrumb": {
        "en": "New Session - Register Now: Managing Holiday Stress Seminar - December 12",
        "fr": "Nouvelle s\u00e9ance - Inscrivez-vous au s\u00e9minaire sur la gestion du stress du temps de f\u00eates - le 12..."
    },
    "news": {
        "date_posted": {
            "en": "2019-11-28",
            "fr": "2019-11-28"
        },
        "to": {
            "en": "All staff",
            "fr": "Tous les employ\u00e9s"
        },
        "by": {
            "en": "Human Resources, Corporate Management Branch",
            "fr": "Ressources humaines, Direction g\u00e9n\u00e9rale de la gestion int\u00e9gr\u00e9e"
        }
    }
}