{
    "dcr_id": "1574175752403",
    "lang": "en",
    "title": {
        "en": "Microscopy, Soil Contaminants, Agricultural Trade and More: November Additions to the Canadian Agriculture Library",
        "fr": "Microscopie, contamination des sols, commerce agricole, etc. : Ajouts de novembre \u00e0 la collection de la Biblioth\u00e8que canadienne de l'agriculture "
    },
    "modified": "2019-11-21 00:00:00.0",
    "issued": "2019-11-21 00:00:00.0",
    "type_name": "intra-intra/news-nouv",
    "node_id": "1279030006975",
    "layout_name": null,
    "dc_date_created": "2019-11-19",
    "breadcrumb_label": "Microscopy, Soil Contaminants, Agricultural Trade and More: November Additions to the Canadian...",
    "meta": {
        "issued": {
            "en": "2019-11-21",
            "fr": "2019-11-21"
        },
        "modified": {
            "en": "2019-11-21",
            "fr": "2019-11-21"
        },
        "format": {
            "en": "gcformat",
            "fr": "gcformat"
        },
        "title": {
            "en": "Microscopy, Soil Contaminants, Agricultural Trade and More: November Additions to the Canadian Agriculture Library",
            "fr": "Microscopie, contamination des sols, commerce agricole, etc. : Ajouts de novembre \u00e0 la collection de la Biblioth\u00e8que canadienne de l'agriculture "
        },
        "subject": {
            "en": "communications",
            "fr": "communications"
        },
        "description": {
            "en": "The Canadian Agriculture Library has recently added new titles that would make the perfect companions during these chilly autumn days.",
            "fr": "D\u00e9couvrez quelque chose de nouveau cet automne! La Biblioth\u00e8que canadienne de l\u2019agriculture a r\u00e9cemment ajout\u00e9 \u00e0 sa collection de nouveaux ouvrages qui pourraient vous accompagner parfaitement en ces journ\u00e9es fra\u00eeches d\u2019automne."
        },
        "language": {
            "en": "eng",
            "fr": "fra"
        },
        "audience": {
            "en": "gcaudience",
            "fr": "gcaudience"
        },
        "creator": {
            "en": "Agriculture and Agri-Food Canada",
            "fr": "Agriculture et Agroalimentaire Canada"
        },
        "spatial": {
            "en": "gcregions",
            "fr": "gcregions"
        },
        "service": {
            "en": "AAFC_AgriSource",
            "fr": "AAC_AgriSource"
        },
        "accessRights": {
            "en": "3",
            "fr": "3"
        }
    },
    "body": {
        "en": "<br>\n<br>\n<p>The<a href=\"https://fsl-bsf.scitech.gc.ca/eng/intranet/home/\"> Canadian Agriculture Library</a> (CAL) has recently added new titles that would make the perfect companions during these chilly autumn days. Check out the <a href=\"https://collab.agr.gc.ca/co/kis-sis/_layouts/15/DocIdRedir.aspx?ID=AGR-8119703\">list of new titles added to our collection this month (PDF).</a><strong> </strong>Topics covered include:</p>\n<ul>\n<li>Light and video microscopy</li>\n<li>Drones in crop production</li>\n<li>Pest management and control</li>\n<li>Plant health and diseases</li>\n<li>Soil contaminants and bioremediation</li>\n<li>Food loss and waste reduction</li>\n<li>Barriers to agricultural trade</li>\n</ul>\n<p>Access the electronic content from your desktop by clicking on links found in the list, or submit a request to borrow physical items.</p>\n<p>For more information, contact CAL at <a href=\"mailto:aafc.cal-bca.aac@canada.ca\">aafc.cal-bca.aac@canada.ca</a>.</p>\n<p><img src=\"https://intranet.agr.gc.ca/resources/prod/news/images/CALbanner-EN.png\" class=\"center-block\"></p>\n\n\t\t",
        "fr": "<br>\n<br>\n<p>La<a href=\"https://fsl-bsf.scitech.gc.ca/fra/intranet/accueil/\"> Biblioth\u00e8que canadienne de l\u2019agriculture</a> (BCA) a r\u00e9cemment ajout\u00e9 \u00e0 sa collection de nouveaux ouvrages qui pourraient vous accompagner parfaitement en ces journ\u00e9es fra\u00eeches d\u2019automne. Consultez la <a href=\"https://collab.agr.gc.ca/co/kis-sis/_layouts/15/DocIdRedir.aspx?ID=AGR-8119704\">liste des nouveaux titres ajout\u00e9s \u00e0 notre collection en novembre (PDF).</a><strong> </strong>Ils portent notamment sur les sujets suivants :</p>\n<ul>\n<li>La microscopie photonique et la vid\u00e9omicroscopie</li>\n<li>Les drones dans la production v\u00e9g\u00e9tale</li>\n<li>La lutte antiparasitaire</li>\n<li>La sant\u00e9 et les maladies des v\u00e9g\u00e9taux</li>\n<li>Les sols contamin\u00e9s et la biorestauration</li>\n<li>Les pertes alimentaires et la r\u00e9duction des d\u00e9chets</li>\n<li>Les obstacles au commerce agricole</li>\n</ul>\n<p>Vous pouvez acc\u00e9der au contenu \u00e9lectronique \u00e0 partir de votre bureau en cliquant sur les liens qui se trouvent dans la liste, ou en soumettant une demande pour emprunter des ouvrages imprim\u00e9s.</p>\n<p>Pour obtenir de plus amples renseignements, communiquez avec la BCA \u00e0 l\u2019adresse : <a href=\"mailto:aafc.cal-bca.aac@canada.ca\">aafc.cal-bca.aac@canada.ca</a>.</p>\n<p><img src=\"https://intranet.agr.gc.ca/resources/prod/news/images/CALbanniere-FR.png\" class=\"center-block\"></p>\n\t\t"
    },
    "breadcrumb": {
        "en": "Microscopy, Soil Contaminants, Agricultural Trade and More: November Additions to the Canadian...",
        "fr": "Microscopie, contamination des sols, commerce agricole, etc. : Ajouts de novembre \u00e0 la collection..."
    },
    "news": {
        "date_posted": {
            "en": "2019-11-21",
            "fr": "2019-11-21"
        },
        "to": {
            "en": "All staff",
            "fr": "Tous les employ\u00e9s"
        },
        "by": {
            "en": "Canadian Agriculture Library",
            "fr": "Biblioth\u00e8que canadienne de l\u2019agriculture"
        }
    }
}