{
    "dcr_id": "1574797661380",
    "lang": "en",
    "title": {
        "en": "Message to Employees from the Minister ",
        "fr": "Message de la ministre aux employ\u00e9s"
    },
    "modified": "2019-11-26 00:00:00.0",
    "issued": "2019-11-26 00:00:00.0",
    "type_name": "intra-intra/news-nouv",
    "node_id": "1279030006975",
    "layout_name": null,
    "dc_date_created": "2019-11-26",
    "breadcrumb_label": "",
    "meta": {
        "issued": {
            "en": "2019-11-26",
            "fr": "2019-11-26"
        },
        "modified": {
            "en": "2019-11-26",
            "fr": "2019-11-26"
        },
        "format": {
            "en": "gcformat",
            "fr": "gcformat"
        },
        "title": {
            "en": "Message to Employees from the Minister ",
            "fr": "Message de la ministre aux employ\u00e9s"
        },
        "subject": {
            "en": "communications",
            "fr": "communications"
        },
        "description": {
            "en": "I am so happy to have been asked by the Prime Minister to serve as Minister of Agriculture and Agri-Food again.",
            "fr": "Je suis heureuse que le premier ministre m'ait demand\u00e9 d'agir \u00e0 nouveau \u00e0 titre de ministre de l'Agriculture et de l'Agroalimentaire."
        },
        "language": {
            "en": "eng",
            "fr": "fra"
        },
        "audience": {
            "en": "gcaudience",
            "fr": "gcaudience"
        },
        "creator": {
            "en": "Agriculture and Agri-Food Canada",
            "fr": "Agriculture et Agroalimentaire Canada"
        },
        "spatial": {
            "en": "gcregions",
            "fr": "gcregions"
        },
        "service": {
            "en": "AAFC_AgriSource",
            "fr": "AAC_AgriSource"
        },
        "accessRights": {
            "en": "3",
            "fr": "3"
        }
    },
    "body": {
        "en": "<br>\n<br>\n<p>Dear employees,</p>\n<p>I am so happy to have been asked by the Prime Minister to serve as Minister of Agriculture and Agri-Food again. I am ready to get back to work, and delighted to be back with such an exceptional team.</p>\n<p>We can be proud of everything we have accomplished together since I was nominated last March. In preparing for any of my meetings, visits or events, I could count on the incredible expertise of employees in our department, the Canadian Food Inspection Agency and our portfolio partners. Your vast knowledge of the many sectors of our great agri-food industry is invaluable to me, and I am grateful for your outstanding support and advice.</p>\n<p>As a returning Minister, I know that Canada has the best public service in the world. So let\u2019s keep up the great work!</p>\n<p>I am truly committed to supporting farmers all across Canada. I have the utmost respect for their work and their resilience to the challenges that they face. I am also committed to supporting processors, scientists, distributors and all those in the sector who create jobs, stimulate innovation and build prosperity in their communities.</p>\n<p>I am their ally and proud representative in Ottawa.</p>\n<p>This is an industry with a proud past, and a future full of promise and potential. Over the coming months, we will be focusing on key issues and challenges, including international trade and helping Canadian producers manage risks that threaten the viability of their farms. Thanks to your work, we will help ensure the continued competitiveness of the sector, by taking action on what matters the most.</p>\n<p>I intend to keep listening to our producers and processors, and working hard together with them.</p>\n<p>I look forward to taking up the torch with you to move this dynamic sector forward.<br>\n<br>\n<br>\n<strong>Marie-Claude Bibeau</strong><br>\nMinister of Agriculture and Agri-Food</p>\n\n\t\t",
        "fr": "<br>\n<br>\n<p>Chers employ\u00e9s,</p>\n<p>Je suis heureuse que le premier ministre m\u2019ait demand\u00e9 d\u2019agir \u00e0 nouveau \u00e0 titre de ministre de l\u2019Agriculture et de l\u2019Agroalimentaire. C\u2019est avec beaucoup d\u2019enthousiasme que je reviens parmi vous, pr\u00eate \u00e0 reprendre le travail aupr\u00e8s d\u2019une \u00e9quipe exceptionnelle.</p>\n<p>Nous pouvons \u00eatre fiers de tout ce que nous avons accompli ensemble depuis ma nomination en mars dernier. Pour pr\u00e9parer chacune de mes rencontres, visites et \u00e9v\u00e9nements, j\u2019ai pu compter sur l\u2019expertise incroyable des employ\u00e9s de notre minist\u00e8re, de l\u2019Agence canadienne d\u2019inspection des aliments et de nos autres partenaires du portefeuille. Vos connaissances approfondies des diff\u00e9rents secteurs de notre formidable industrie agroalimentaire m\u2019ont \u00e9t\u00e9 pr\u00e9cieuses et je vous suis reconnaissante de m\u2019avoir si bien outill\u00e9e et conseill\u00e9e.</p>\n<p>Comme ministre, je suis bien plac\u00e9e pour savoir que le Canada a la meilleure fonction publique au monde. Continuons notre excellente collaboration!</p>\n<p>J\u2019ai \u00e0 c\u0153ur d\u2019appuyer les producteurs et productrices agricoles de toutes les r\u00e9gions du Canada. J\u2019ai le plus profond respect pour leur travail et leur r\u00e9silience face aux risques de leur noble m\u00e9tier. Je tiens aussi \u00e0 appuyer les transformateurs, les scientifiques, les distributeurs et tous les autres intervenants du secteur qui cr\u00e9ent des emplois, de l\u2019innovation et de la prosp\u00e9rit\u00e9 chez nous.</p>\n<p>Je suis leur alli\u00e9e et leur fi\u00e8re repr\u00e9sentante \u00e0 Ottawa.</p>\n<p>C\u2019est une industrie qui peut \u00eatre fi\u00e8re de son pass\u00e9 et confiante en son avenir, avec toutes les possibilit\u00e9s qu\u2019elle offre. Prochainement, nous allons nous concentrer sur des dossiers et des d\u00e9fis cl\u00e9s, entre autres le commerce international et l\u2019aide aux producteurs dans la gestion des risques qui menacent leur entreprise. Gr\u00e2ce \u00e0 votre travail, nous allons contribuer \u00e0 la comp\u00e9titivit\u00e9 du secteur en posant des gestes concrets l\u00e0 o\u00f9 \u00e7a compte le plus.</p>\n<p>Je compte bien rester \u00e0 l\u2019\u00e9coute de nos producteurs et de nos transformateurs alimentaires et continuer \u00e0 travailler sans rel\u00e2che \u00e0 leurs c\u00f4t\u00e9s.</p>\n<p>Au plaisir de reprendre le flambeau avec vous pour faire cro\u00eetre ce dynamique secteur.</p>\n<p><strong>\u00a0</strong></p>\n<p><strong>Marie-Claude Bibeau</strong><br>\nMinistre de l\u2019Agriculture et de l\u2019Agroalimentaire</p>\n\t\t"
    },
    "breadcrumb": {
        "en": "Message to Employees from the Minister",
        "fr": "Message de la ministre aux employ\u00e9s"
    },
    "news": {
        "date_posted": {
            "en": "2019-11-26",
            "fr": "2019-11-28"
        },
        "to": {
            "en": "All staff",
            "fr": "Tous les employ\u00e9s"
        },
        "by": {
            "en": "Marie-Claude Bibeau, Minister of Agriculture and Agri-Food",
            "fr": "Marie-Claude Bibeau, Ministre de l\u2019Agriculture et de l\u2019Agroalimentaire"
        }
    }
}