{
    "dcr_id": "1574457047249",
    "lang": "en",
    "title": {
        "en": "Departmental Emergency Response Plan Launch Week - December 2 to 6",
        "fr": "Semaine de lancement du Plan minist\u00e9riel d\u2019intervention d\u2019urgence - Du 2 au 6 d\u00e9cembre"
    },
    "modified": "2019-12-02 00:00:00.0",
    "issued": "2019-11-22 00:00:00.0",
    "type_name": "intra-intra/news-nouv",
    "node_id": "1279030006975",
    "layout_name": null,
    "dc_date_created": "2019-11-22",
    "breadcrumb_label": "",
    "meta": {
        "issued": {
            "en": "2019-11-22",
            "fr": "2019-11-22"
        },
        "modified": {
            "en": "2019-12-02",
            "fr": "2019-12-02"
        },
        "format": {
            "en": "gcformat",
            "fr": "gcformat"
        },
        "title": {
            "en": "Departmental Emergency Response Plan Launch Week - December 2 to 6",
            "fr": "Semaine de lancement du Plan minist\u00e9riel d\u2019intervention d\u2019urgence - Du 2 au 6 d\u00e9cembre"
        },
        "subject": {
            "en": "communications",
            "fr": "communications"
        },
        "description": {
            "en": "Do you know the department's responsibilities when an emergency situation occurs?",
            "fr": "Connaissez-vous les responsabilit\u00e9s du Minist\u00e8re en cas d'urgence?"
        },
        "language": {
            "en": "eng",
            "fr": "fra"
        },
        "audience": {
            "en": "gcaudience",
            "fr": "gcaudience"
        },
        "creator": {
            "en": "Agriculture and Agri-Food Canada",
            "fr": "Agriculture et Agroalimentaire Canada"
        },
        "spatial": {
            "en": "gcregions",
            "fr": "gcregions"
        },
        "service": {
            "en": "AAFC_AgriSource",
            "fr": "AAC_AgriSource"
        },
        "accessRights": {
            "en": "3",
            "fr": "3"
        }
    },
    "body": {
        "en": "<br>\n<br>\n<p>Do you know the department\u2019s responsibilities when an emergency situation occurs? The <a href=\"http://intranet.agr.gc.ca/agrisource/eng?id=1570644168915\">Departmental Emergency Response Plan (DERP)</a> provides an overview of AAFC\u2019s governance approach during an emergency that affects departmental operations and/or the agriculture and agri-food sector.</p>\n<p>We encourage all employees to read the DERP and learn about AAFC\u2019s roles and responsibilities during an emergency. We also recommend that all employees complete the updated Business Continuity Planning and Emergency Management module in the <a href=\"http://intranet.agr.gc.ca/agrisource/eng/human-resources/learning-and-development/training/employees/security-awareness-agr-620?id=1325695839878\">Security Awareness training (AGR-620)</a>.</p>\n<p>During the DERP launch week, come to\u00a0an event to learn more about the DERP, ask questions, and participate in a fun quiz with prizes!</p>\n<h2><strong>Event information</strong></h2>\n<p><strong>English session</strong></p>\n<p><strong>Date and time</strong>: December 2 | 12:00 to 1:30 pm (ET)<br>\n<strong>Location:</strong> CFIA NEOC (T3-1-163) and by videoconference</p>\n<p>\n<strong>French session</strong></p>\n<p><strong>Date and time</strong>: December 3 | 12:00 to 1:30 pm (ET)<br>\n<strong>Location:</strong> CFIA NEOC (T3-1-163) and by videoconference\u00a0</p>\n<p>To register for an upcoming session, email<strong> </strong><a href=\"mailto:aafc.agem-guag.aac@canada.ca\">aafc.agem-guag.aac@canada.ca</a>\u00a0and indicate which session you would like to attend. Further details will be provided to participants through a meeting scheduler.</p>\n\n\t\t",
        "fr": "<br>\n<br>\n<p>Connaissez-vous les responsabilit\u00e9s du Minist\u00e8re en cas d\u2019urgence? Le <a href=\"http://intranet.agr.gc.ca/agrisource/fra?id=1570644168915\">Plan minist\u00e9riel d\u2019intervention d\u2019urgence (PMIU)</a> donne un aper\u00e7u de l\u2019approche de gouvernance adopt\u00e9e par Agriculture et Agroalimentaire Canada (AAC) pour g\u00e9rer une situation d\u2019urgence qui touche ses op\u00e9rations ou le secteur de l\u2019agriculture et de l\u2019agroalimentaire.</p>\n<p>Nous encourageons tous les employ\u00e9s \u00e0 lire le PMIU pour en apprendre plus sur les r\u00f4les et responsabilit\u00e9s d\u2019AAC dans une situation d\u2019urgence. Nous recommandons \u00e9galement \u00e0 tous les employ\u00e9s de suivre le module mis \u00e0 jour sur la gestion des situations d\u2019urgence et la planification de la continuit\u00e9 des activit\u00e9s de la <a href=\"http://intranet.agr.gc.ca/agrisource/eng/human-resources/learning-and-development/training/employees/security-awareness-agr-620?id=1325695839878\">formation sur la Sensibilisation \u00e0 la s\u00e9curit\u00e9 (AGR-620)</a>.</p>\n<p>Pendant la semaine de lancement du PMIU, participez \u00e0 une activit\u00e9 pour en apprendre plus sur le Plan et poser des questions; il y aura un jeu-questionnaire amusant et des prix \u00e0 gagner!</p>\n<h2><strong>Renseignements sur l\u2019activit\u00e9</strong></h2>\n<p><strong>S\u00e9ance en anglais</strong></p>\n<p><strong>Date et heure</strong> : Le 2 d\u00e9cembre | De 12 h \u00e0 13 h 30 (heure de l\u2019Est)<br>\n<strong>Lieu </strong>: CNOU de l\u2019ACIA (T3-1-163) et par vid\u00e9oconf\u00e9rence</p>\n<p><strong><strong>S\u00e9ance</strong> en fran\u00e7ais</strong></p>\n<p><strong>Date et heure</strong> : Le 3 d\u00e9cembre | De 12 h \u00e0 13 h 30 (heure de l\u2019Est)<br>\n<strong>Lieu </strong>: CNOU de l\u2019ACIA (T3-1-163) et par vid\u00e9oconf\u00e9rence</p>\n<p>Pour vous inscrire \u00e0 une s\u00e9ance, envoyez un courriel \u00e0 l'adresse <a href=\"mailto:aafc.agem-guag.aac@canada.ca\">aafc.agem-guag.aac@canada.ca</a>\u00a0en indiquant \u00e0 quel d\u00eener-causerie vous souhaitez participer. Les participants recevront d\u2019autres renseignements par l\u2019entremise de l\u2019outil de planification de r\u00e9unions.</p>\n\t\t"
    },
    "breadcrumb": {
        "en": "Departmental Emergency Response Plan Launch Week - December 2 to 6",
        "fr": "Semaine de lancement du Plan minist\u00e9riel d\u2019intervention d\u2019urgence - Du 2 au 6 d\u00e9cembre"
    },
    "news": {
        "date_posted": {
            "en": "2019-11-25",
            "fr": "2019-11-25"
        },
        "to": {
            "en": "Other regions (not NCR)",
            "fr": "R\u00e9gions autres que la RCN"
        },
        "by": {
            "en": "Market and Industry Services Branch and Corporate Management Branch",
            "fr": "Direction g\u00e9n\u00e9rale des services \u00e0 l\u2019industrie et aux march\u00e9s et Direction g\u00e9n\u00e9rale de la gestion int\u00e9gr\u00e9e"
        }
    }
}