{
    "dcr_id": "1574288296393",
    "lang": "en",
    "title": {
        "en": "Open Digital Government Forum - November 26",
        "fr": "Forum sur le gouvernement num\u00e9rique - le 26 novembre"
    },
    "modified": "2019-11-21 00:00:00.0",
    "issued": "2019-11-21 00:00:00.0",
    "type_name": "intra-intra/news-nouv",
    "node_id": "1279030006975",
    "layout_name": null,
    "dc_date_created": "2019-11-20",
    "breadcrumb_label": "",
    "meta": {
        "issued": {
            "en": "2019-11-21",
            "fr": "2019-11-21"
        },
        "modified": {
            "en": "2019-11-21",
            "fr": "2019-11-21"
        },
        "format": {
            "en": "gcformat",
            "fr": "gcformat"
        },
        "title": {
            "en": "Open Digital Government Forum - November 26",
            "fr": "Forum sur le gouvernement num\u00e9rique - le 26 novembre"
        },
        "subject": {
            "en": "communications",
            "fr": "communications"
        },
        "description": {
            "en": "The Canada School of Public Service is hosting the Digital Open Government Forum, focused on digital disruption, on November 26.",
            "fr": "Le 26 novembre, l'\u00c9cole de la fonction publique du Canada sera l'h\u00f4te du Forum sur le gouvernement num\u00e9rique ouvert, qui portera sur la perturbation num\u00e9rique."
        },
        "language": {
            "en": "eng",
            "fr": "fra"
        },
        "audience": {
            "en": "gcaudience",
            "fr": "gcaudience"
        },
        "creator": {
            "en": "Agriculture and Agri-Food Canada",
            "fr": "Agriculture et Agroalimentaire Canada"
        },
        "spatial": {
            "en": "gcregions",
            "fr": "gcregions"
        },
        "service": {
            "en": "AAFC_AgriSource",
            "fr": "AAC_AgriSource"
        },
        "accessRights": {
            "en": "3",
            "fr": "3"
        }
    },
    "body": {
        "en": "<br>\n<br>\n<p>The Canada School of Public Service is hosting the <a href=\"https://www.csps-efpc.gc.ca/events/digital-forum-inno/index-eng.aspx\">Digital Open Government Forum</a>, focused on digital disruption, on <strong>November 26.</strong> Do we need to disrupt to innovate? Hear what senior leaders and experts think, and have the opportunity to take part in various discussions. Our goal is to answer pressing questions, such as:</p>\n<ul>\n<li>How can you work successfully in the cloud?</li>\n<li>What competencies do you need to thrive, disrupt and innovate in our digital age?</li>\n</ul>\n<p>These and other conversations are just some of the helpful content at this year\u2019s forum. Join us to expand your digital knowledge and to experience innovation in action!\u00a0</p>\n<p>Seats are filling up fast, so register today!</p>\n\n\t\t",
        "fr": "<br>\n<br>\n<p>Le <strong>26 novembre</strong>, l\u2019\u00c9cole de la fonction publique du Canada sera l\u2019h\u00f4te du <a href=\"https://www.csps-efpc.gc.ca/events/digital-forum-inno/index-fra.aspx\">Forum sur le gouvernement num\u00e9rique ouvert</a>, qui portera sur la perturbation num\u00e9rique. Faut-il d\u00e9ranger pour innover? D\u00e9couvrez le point de vue de cadres et d\u2019experts, et prenez part \u00e0 diverses discussions. Notre objectif : r\u00e9pondre \u00e0 vos questions les plus pressantes, telles que :</p>\n<ul>\n<li>Comment pouvez-vous travailler efficacement dans le nuage?</li>\n<li>Quelles sont les comp\u00e9tences requises pour exceller, faire bouger les choses et innover \u00e0 l\u2019\u00e8re du num\u00e9rique?</li>\n</ul>\n<p>Ce ne sont que quelques exemples des discussions qui seront au c\u0153ur du Forum de cette ann\u00e9e. Soyez des n\u00f4tres pour \u00e9largir vos connaissances num\u00e9riques et faire l\u2019exp\u00e9rience concr\u00e8te de l\u2019innovation!</p>\n<p>Les places sont limit\u00e9es, inscrivez-vous d\u00e8s aujourd\u2019hui!</p>\n\t\t"
    },
    "breadcrumb": {
        "en": "Open Digital Government Forum - November 26",
        "fr": "Forum sur le gouvernement num\u00e9rique - le 26 novembre"
    },
    "news": {
        "date_posted": {
            "en": "2019-11-21",
            "fr": "2019-11-21"
        },
        "to": {
            "en": "All staff",
            "fr": "Tous les employ\u00e9s"
        },
        "by": {
            "en": "Canada School of Public Service",
            "fr": "\u00c9cole de la fonction publique du Canada"
        }
    }
}