{
    "dcr_id": "1575307145518",
    "lang": "en",
    "title": {
        "en": "Reminder - Scheduled Maintenance of ISB Services - December 12-16",
        "fr": "Rappel - Entretien pr\u00e9vu des services de la DGSI - du 12 au 16 d\u00e9cembre"
    },
    "modified": "2019-12-12 00:00:00.0",
    "issued": "2019-12-05 00:00:00.0",
    "type_name": "intra-intra/news-nouv",
    "node_id": "1279030006975",
    "layout_name": null,
    "dc_date_created": "2019-12-02",
    "breadcrumb_label": "Remionder - Scheduled Maintenance of ISB Services - December 12-16",
    "meta": {
        "issued": {
            "en": "2019-12-05",
            "fr": "2019-12-05"
        },
        "modified": {
            "en": "2019-12-12",
            "fr": "2019-12-12"
        },
        "format": {
            "en": "gcformat",
            "fr": "gcformat"
        },
        "title": {
            "en": "Reminder - Scheduled Maintenance of ISB Services - December 12-16",
            "fr": "Rappel - Entretien pr\u00e9vu des services de la DGSI - du 12 au 16 d\u00e9cembre"
        },
        "subject": {
            "en": "communications",
            "fr": "communications"
        },
        "description": {
            "en": "Please be advised that preventative maintenance of ISB services will be performed between Thursday, December 12 and Monday, December 16, 2019.",
            "fr": "Veuillez noter qu'un entretien pr\u00e9ventif des services de la DGSI sera effectu\u00e9 entre le jeudi 12 d\u00e9cembre et le lundi 16 d\u00e9cembre 2019."
        },
        "language": {
            "en": "eng",
            "fr": "fra"
        },
        "audience": {
            "en": "gcaudience",
            "fr": "gcaudience"
        },
        "creator": {
            "en": "Agriculture and Agri-Food Canada",
            "fr": "Agriculture et Agroalimentaire Canada"
        },
        "spatial": {
            "en": "gcregions",
            "fr": "gcregions"
        },
        "service": {
            "en": "AAFC_AgriSource",
            "fr": "AAC_AgriSource"
        },
        "accessRights": {
            "en": "3",
            "fr": "3"
        }
    },
    "body": {
        "en": "<br>\n<br>\n<p>Please be advised that preventative maintenance of ISB services will be performed between Thursday, December 12 and Monday, December 16, 2019.</p>\n<p>The following downtime is part of a management plan to upgrade our infrastructure systems. These measures are performed regularly to improve performance and to ensure that the department does not experience any outages that would affect employees and the delivery of our services.</p>\n<p>Consequently, the following services may not be available during the following times:</p>\n<p><strong>Thursday, </strong><strong>December 12 \u20131:00 a.m. until 6:00 a.m. (ET)</strong></p>\n<ul>\n<li>AgriApps</li>\n</ul>\n<p>\n<b>Thursday, December 12 \u2013 8:00 p.m. until 11:00 p.m. (ET)</b></p>\n<ul>\n<li>Blueprint 2020 blog</li>\n<li>Blueprint 2020 Process Improvement (Lean)</li>\n<li>Blueprint 2020 Dragons\u2019 Den</li>\n<li>CFIA President\u2019s Blog</li>\n<li>Knowledge Workspace </li>\n<li>Market Access Support System (MISB-MASS)</li>\n<li>Proposal\u00a0Submission System (STB-PSS)</li>\n</ul>\n<p><strong>Saturday, </strong><strong>December 14 \u20131:00 a.m. until 6:00 a.m. (ET)</strong></p>\n<ul>\n<li>Skype for Business</li>\n</ul>\n<p><strong>Monday, </strong><strong>December 16 \u20135:00 p.m. until 6:00 p.m. (ET)</strong></p>\n<ul>\n<li>AgriSource</li>\n</ul>\n<p>Should you have any questions or concerns, please do not hesitate to contact IT Centre TI.</p>\n<p>\u00a0</p>\n<p><strong>IT Centre TI<br></strong>Telephone: 1-855-545-4411<br><a href=\"http://myitcentreti-monitcentreti/\">My IT Centre TI</a></p>\n<p><img src=\"https://intranet.agr.gc.ca/resources/prod/news/images/ITCentreTI2.png\" class=\"center-block\"></p>\n\n\t\t",
        "fr": "<br>\n<br>\n<p>Veuillez noter qu\u2019un entretien pr\u00e9ventif des services de la DGSI sera effectu\u00e9 entre le jeudi 12 d\u00e9cembre et le lundi 16 d\u00e9cembre 2019.</p>\n<p>Les interruptions suivantes sont pr\u00e9vues dans le cadre d\u2019un plan de gestion visant la mise \u00e0 niveau de nos syst\u00e8mes d\u2019infrastructure. Ces mesures sont prises r\u00e9guli\u00e8rement afin d\u2019am\u00e9liorer le rendement et d\u2019\u00e9viter que le Minist\u00e8re subisse des pannes qui pourraient nuire aux employ\u00e9s et \u00e0 la prestation de nos services.</p>\n<p>Par cons\u00e9quent, les services suivants pourraient ne pas \u00eatre disponibles pendant les p\u00e9riodes indiqu\u00e9es :\u00a0</p>\n<p><strong>Jeudi 12 d\u00e9cembre \u2013 de 1 h \u00e0 6 h (HE)</strong></p>\n<ul>\n<li>Agri-applications</li>\n</ul>\n<p><b>Jeudi 12 d\u00e9cembre - de 20\u00a0h \u00e0 23 h (HE) </b></p>\n<ul>\n<li>\nBlogue sur Objectif 2020</li>\n<li>\nAm\u00e9lioration des processus d\u2019Objectif 2020 (Lean)</li>\n<li>Objectif 2020 \u2013 Dans l\u2019\u0153il du dragon</li>\n<li>Blogue du pr\u00e9sident de l\u2019ACIA\n</li>\n<li>\nEspace de travail du savoir</li>\n<li>Syst\u00e8me de soutien de l\u2019acc\u00e8s aux march\u00e9s (DGSIM-SSAM)\n</li>\n<li>Syst\u00e8me de soumission de propositions (GGST-SSP)</li>\n</ul>\n<p><strong>Samedi 14 d\u00e9cembre \u2013 de 1 h \u00e0 6 h (HE)\u00a0</strong></p>\n<ul>\n<li>Skype Entreprise</li>\n</ul>\n<p><strong>Lundi 16 d\u00e9cembre \u2013 de 17 h \u00e0 18 h (HE)\u00a0</strong></p>\n<ul>\n<li>AgriSource</li>\n</ul>\n<p>Si vous avez des questions ou des pr\u00e9occupations \u00e0 ce sujet, n\u2019h\u00e9sitez pas \u00e0 communiquer avec le IT Centre TI.</p>\n<p>\u00a0</p>\n<p><strong>IT Centre TI<br></strong>T\u00e9l\u00e9phone : 1-855-545-4411<br><a href=\"http://myitcentreti-monitcentreti/\">Mon IT Centre TI</a></p>\n<p><img src=\"https://intranet.agr.gc.ca/resources/prod/news/images/ITCentreTI2.png\" class=\"center-block\"></p>\n\t\t"
    },
    "breadcrumb": {
        "en": "Remionder - Scheduled Maintenance of ISB Services - December 12-16",
        "fr": "Rappel - Entretien pr\u00e9vu des services de la DGSI - du 12 au 16 d\u00e9cembre"
    },
    "news": {
        "date_posted": {
            "en": "2019-12-05",
            "fr": "2019-12-05"
        },
        "to": {
            "en": "All staff",
            "fr": "Tous les employ\u00e9s"
        },
        "by": {
            "en": "IT Centre TI",
            "fr": "IT Centre TI"
        }
    }
}