{
    "dcr_id": "1576093102915",
    "lang": "en",
    "title": {
        "en": "This Week in <em>The Harvest</em> - Welcome Back, Minister Bibeau!",
        "fr": "Au menu de <em>La Moisson</em> cette semaine - Bon retour parmi nous, Ministre Bibeau!"
    },
    "modified": "2019-12-12 00:00:00.0",
    "issued": "2019-12-12 00:00:00.0",
    "type_name": "intra-intra/news-nouv",
    "node_id": "1279030006975",
    "layout_name": null,
    "dc_date_created": "2019-12-11",
    "breadcrumb_label": "This Week in The Harvest - Welcome Back, Minister Bibeau!",
    "meta": {
        "issued": {
            "en": "2019-12-12",
            "fr": "2019-12-12"
        },
        "modified": {
            "en": "2019-12-12",
            "fr": "2019-12-12"
        },
        "format": {
            "en": "gcformat",
            "fr": "gcformat"
        },
        "title": {
            "en": "This Week in <em>The Harvest</em> - Welcome Back, Minister Bibeau!",
            "fr": "Au menu de <em>La Moisson</em> cette semaine - Bon retour parmi nous, Ministre Bibeau!"
        },
        "subject": {
            "en": "communications",
            "fr": "communications"
        },
        "description": {
            "en": "In case you missed it, here's what's new in <em>The Harvest</em> this week.",
            "fr": "Au cas o\u00f9 vous l'auriez manqu\u00e9, voici le menu que la section <em>La Moisson</em> vous offre cette semaine."
        },
        "language": {
            "en": "eng",
            "fr": "fra"
        },
        "audience": {
            "en": "gcaudience",
            "fr": "gcaudience"
        },
        "creator": {
            "en": "Agriculture and Agri-Food Canada",
            "fr": "Agriculture et Agroalimentaire Canada"
        },
        "spatial": {
            "en": "gcregions",
            "fr": "gcregions"
        },
        "service": {
            "en": "AAFC_AgriSource",
            "fr": "AAC_AgriSource"
        },
        "accessRights": {
            "en": "3",
            "fr": "3"
        }
    },
    "body": {
        "en": "<br>\n<br>\n<p>In case you missed it, here\u2019s what\u2019s new in <a href=\"https://collab.agr.gc.ca/apps/harvest-moisson\"><em>The Harvest</em></a> this week:</p>\n<p><strong>Video:</strong> <a href=\"https://collab.agr.gc.ca/apps/harvest-moisson/\">Welcome Back, Minister Bibeau!</a></p>\n<p><strong>Quiz:</strong><strong> </strong><a href=\"https://collab.agr.gc.ca/apps/harvest-moisson/\">Which province exports the most fresh-cut Christmas trees in Canada?</a></p>\n<p><strong>Feature photo: </strong><a href=\"https://collab.agr.gc.ca/apps/harvest-moisson/gallery/Lists/Posts/Post.aspx?ID=385\"> Owl Moon</a>,<em> <em>by </em></em><em>Kosala Rajapaksha, Science and Technology Branch, </em><em>Saskatoon, Saskatchewan</em></p>\n<p><strong>Did you know?</strong> <a href=\"https://collab.agr.gc.ca/apps/harvest-moisson/Pages/didyouknow.aspx\">Unlike humans and most animals, the pupils of goats\u2019 eyes are not round \u2013 but rectangular.</a></p>\n<p>You can get involved by posting a comment or \u201cliking\u201d an article. You can also check out what your colleagues are liking and saying.</p>\n<p>Should you have story ideas, scenic or artistic agriculture-related photos, or interesting facts, please share them with us by clicking on \u201cContribute\u201d in the top menu bar.</p>\n<p><img src=\"https://intranet.agr.gc.ca/resources/prod/news/images/Harvest-WelcomeBack.png\" class=\"center-block\" alt=\"\"></p>\n<p>\u00a0</p>\n\n\t\t",
        "fr": "<br>\n<br>\n<p>Au cas o\u00f9 vous l\u2019auriez manqu\u00e9, voici le menu que la section <a href=\"https://collab.agr.gc.ca/apps/harvest-moisson\"><em>La Moisson</em></a> vous offre cette semaine :</p>\n<p><strong>Video:</strong> <a href=\"https://collab.agr.gc.ca/apps/harvest-moisson/\">Bon retour parmi nous, Ministre Bibeau!</a></p>\n<p><strong>Jeu-questionnaire : </strong><a href=\"https://collab.agr.gc.ca/apps/harvest-moisson/\"> Quelle province canadienne exporte le plus d\u2019arbres de No\u00ebl fra\u00eechement coup\u00e9s?</a></p>\n<p><strong>Photo vedette :</strong> <a href=\"https://collab.agr.gc.ca/apps/harvest-moisson/gallery/Lists/Posts/Post.aspx?ID=385\">Lune du hibou</a>,<strong> </strong>par Kosala Rajapaksha, Direction g\u00e9n\u00e9rale des sciences et de la technologie, Saskatoon (Saskatchewan)</p>\n<p><strong>Le saviez-vous?</strong> <a href=\"https://collab.agr.gc.ca/apps/harvest-moisson/Pages/didyouknow.aspx\">Contrairement aux humains et \u00e0 la plupart des animaux, la ch\u00e8vre a une pupille rectangulaire et non ronde.</a></p>\n<p>Vous pouvez participer en affichant des commentaires ou en utilisant la fonction \u00ab J\u2019aime \u00bb ou \u00ab Partager \u00bb pour exprimer votre appr\u00e9ciation d\u2019un article. Vous pouvez aussi aller voir ce que vos coll\u00e8gues aiment et ont \u00e0 dire.</p>\n<p>Si vous avez des id\u00e9es d\u2019articles, des photos de paysages ou \u00e0 caract\u00e8re artistique li\u00e9es \u00e0 l\u2019agriculture ou encore des faits int\u00e9ressants, veuillez nous en faire part en cliquant sur \u00ab Collaborer \u00bb dans la barre de menu en haut de la page.</p>\n<p><img src=\"https://intranet.agr.gc.ca/resources/prod/news/images/Harvest-WelcomeBack.png\" class=\"center-block\" alt=\"\"></p>\n\t\t"
    },
    "breadcrumb": {
        "en": "This Week in The Harvest - Welcome Back, Minister Bibeau!",
        "fr": "Au menu de La Moisson cette semaine - Bon retour parmi nous, Ministre Bibeau!"
    },
    "news": {
        "date_posted": {
            "en": "2019-12-12",
            "fr": "2019-12-12"
        },
        "to": {
            "en": "All staff",
            "fr": "Tous les employ\u00e9s"
        },
        "by": {
            "en": "Corporate Communications, Public Affairs Branch",
            "fr": "Communications minist\u00e9rielles, Direction g\u00e9n\u00e9rale des affaires publiques"
        }
    }
}