{
    "dcr_id": "1576512917380",
    "lang": "en",
    "title": {
        "en": "Scheduled Maintenance of ISB Services - December 28",
        "fr": "Entretien pr\u00e9vu des services de la DGSI - 28 d\u00e9cembre"
    },
    "modified": "2019-12-19 00:00:00.0",
    "issued": "2019-12-19 00:00:00.0",
    "type_name": "intra-intra/news-nouv",
    "node_id": "1279030006975",
    "layout_name": null,
    "dc_date_created": "2019-12-16",
    "breadcrumb_label": "",
    "meta": {
        "issued": {
            "en": "2019-12-19",
            "fr": "2019-12-19"
        },
        "modified": {
            "en": "2019-12-19",
            "fr": "2019-12-19"
        },
        "format": {
            "en": "gcformat",
            "fr": "gcformat"
        },
        "title": {
            "en": "Scheduled Maintenance of ISB Services - December 28",
            "fr": "Entretien pr\u00e9vu des services de la DGSI - 28 d\u00e9cembre"
        },
        "subject": {
            "en": "communications",
            "fr": "communications"
        },
        "description": {
            "en": "Please be advised that preventative maintenance of ISB services will be performed on Saturday, December 28.",
            "fr": "Veuillez noter qu'un entretien pr\u00e9ventif des services de la DGSI aura lieu le samedi 28 d\u00e9cembre."
        },
        "language": {
            "en": "eng",
            "fr": "fra"
        },
        "audience": {
            "en": "gcaudience",
            "fr": "gcaudience"
        },
        "creator": {
            "en": "Agriculture and Agri-Food Canada",
            "fr": "Agriculture et Agroalimentaire Canada"
        },
        "spatial": {
            "en": "gcregions",
            "fr": "gcregions"
        },
        "service": {
            "en": "AAFC_AgriSource",
            "fr": "AAC_AgriSource"
        },
        "accessRights": {
            "en": "3",
            "fr": "3"
        }
    },
    "body": {
        "en": "<br>\n<br>\n<p>Please be advised that preventative maintenance of ISB services will be performed on Saturday, December 28.</p>\n<p>The following downtime is part of a management plan to upgrade our infrastructure systems. These measures are performed regularly to improve performance and to ensure that the department does not experience any outages that would affect employees and the delivery of our services.</p>\n<p>Consequently, the following services may not be available during the following time:</p>\n<p><strong>Saturday, </strong><strong>December 28 \u2013 1:00 a.m. until 6:00 a.m. (ET)</strong></p>\n<ul>\n<li>Cognos Business Intelligence\u00a0 Gateway</li>\n<li>AgriDOC</li>\n</ul>\n<p>Should you have any questions or concerns, please do not hesitate to contact IT Centre TI.</p>\n<p><strong>\u00a0</strong></p>\n<p><strong>IT Centre TI<br></strong>Telephone: 1-855-545-4411<br><a href=\"http://myitcentreti-monitcentreti/\">My IT Centre TI</a></p>\n<p><img src=\"https://intranet.agr.gc.ca/resources/prod/news/images/ITCentreTI2.png\" class=\"center-block\"></p>\n\n\t\t",
        "fr": "<br>\n<br>\n<p>Veuillez noter qu\u2019un entretien pr\u00e9ventif des services de la DGSI aura lieu le samedi 28 d\u00e9cembre.</p>\n<p>Les interruptions suivantes sont pr\u00e9vues dans le cadre d\u2019un plan de gestion visant la mise \u00e0 niveau de nos syst\u00e8mes d\u2019infrastructure. Ces mesures sont prises r\u00e9guli\u00e8rement afin d\u2019am\u00e9liorer le rendement et d\u2019\u00e9viter que le Minist\u00e8re subisse des pannes qui pourraient nuire aux employ\u00e9s et \u00e0 la prestation de nos services.</p>\n<p>En cons\u00e9quence, les services suivants ne seront pas disponibles pendant la p\u00e9riode suivante.</p>\n<p><strong>Samedi 28 d\u00e9cembre, de 1 h \u00e0 6 h (HNE)</strong></p>\n<ul>\n<li>Portail d\u2019information de gestion Cognos</li>\n<li>AgriDOC</li>\n</ul>\n<p>Si vous avez des questions ou des pr\u00e9occupations, n\u2019h\u00e9sitez pas \u00e0 communiquer avec le IT Centre TI.</p>\n<p>\u00a0</p>\n<p><strong>IT Centre TI<br></strong>T\u00e9l\u00e9phone : 1-855-545-4411<br><a href=\"http://myitcentreti-monitcentreti/\">Mon IT Centre TI</a></p>\n<p><img src=\"https://intranet.agr.gc.ca/resources/prod/news/images/ITCentreTI2.png\" class=\"center-block\"></p>\n\t\t"
    },
    "breadcrumb": {
        "en": "Scheduled Maintenance of ISB Services - December 28",
        "fr": "Entretien pr\u00e9vu des services de la DGSI - 28 d\u00e9cembre"
    },
    "news": {
        "date_posted": {
            "en": "2019-12-19",
            "fr": "2019-12-19"
        },
        "to": {
            "en": "All staff",
            "fr": "Tous les employ\u00e9s"
        },
        "by": {
            "en": "IT Centre TI",
            "fr": "IT Centre TI"
        }
    }
}