{
    "dcr_id": "1576609947144",
    "lang": "en",
    "title": {
        "en": "Security Awareness Training Update",
        "fr": "Mise \u00e0 jour sur la formation sur la sensibilisation \u00e0 la s\u00e9curit\u00e9 "
    },
    "modified": "2019-12-19 00:00:00.0",
    "issued": "2019-12-19 00:00:00.0",
    "type_name": "intra-intra/news-nouv",
    "node_id": "1279030006975",
    "layout_name": null,
    "dc_date_created": "2019-12-18",
    "breadcrumb_label": "",
    "meta": {
        "issued": {
            "en": "2019-12-19",
            "fr": "2019-12-19"
        },
        "modified": {
            "en": "2019-12-19",
            "fr": "2019-12-19"
        },
        "format": {
            "en": "gcformat",
            "fr": "gcformat"
        },
        "title": {
            "en": "Security Awareness Training Update",
            "fr": "Mise \u00e0 jour sur la formation sur la sensibilisation \u00e0 la s\u00e9curit\u00e9 "
        },
        "subject": {
            "en": "communications",
            "fr": "communications"
        },
        "description": {
            "en": "In an effort to ensure our security awareness training modules remain current and reflect the evolving security landscape, we have updated the Insider Threats module.",
            "fr": "Afin que nos modules de formation sur la sensibilisation \u00e0 la s\u00e9curit\u00e9 demeurent actuels et tiennent compte de l'\u00e9volution du contexte de la s\u00e9curit\u00e9, nous avons mis \u00e0 jour le module Menaces internes."
        },
        "language": {
            "en": "eng",
            "fr": "fra"
        },
        "audience": {
            "en": "gcaudience",
            "fr": "gcaudience"
        },
        "creator": {
            "en": "Agriculture and Agri-Food Canada",
            "fr": "Agriculture et Agroalimentaire Canada"
        },
        "spatial": {
            "en": "gcregions",
            "fr": "gcregions"
        },
        "service": {
            "en": "AAFC_AgriSource",
            "fr": "AAC_AgriSource"
        },
        "accessRights": {
            "en": "3",
            "fr": "3"
        }
    },
    "body": {
        "en": "<br>\n<br>\n<p>In an effort to ensure our security awareness training modules remain current and reflect the evolving security landscape, we have updated the Insider Threats module.</p>\n<p>This module, which is now called <a href=\"http://intranet.agr.gc.ca/agrisource/eng/human-resources/learning-and-development/training/employees/security-awareness-agr-620?id=1325695839878\">Insider Risks Mitigation Awareness</a>, is available to all employees. We encourage employees who haven\u2019t taken the training to do so.</p>\n<p>As public servants, we are all obligated to safeguard information in our control. By completing the suite of training modules, learning about the relevant policies, procedures, and processes and using the other resources available on the <a href=\"http://intranet.agr.gc.ca/agrisource/eng/branches-and-offices/corporate-management-branch/services/departmental-security-services?id=1330360312384&amp;src=sl-ls\">Departmental Security Services AgriSource page</a>, you are contributing to decreasing the department\u2019s security risks.</p>\n\n\t\t",
        "fr": "<br>\n<br>\n<p>Afin que nos modules de formation sur la sensibilisation \u00e0 la s\u00e9curit\u00e9 demeurent actuels et tiennent compte de l\u2019\u00e9volution du contexte de la s\u00e9curit\u00e9, nous avons mis \u00e0 jour le module Menaces internes.</p>\n<p>Ce module, qui porte d\u00e9sormais le nom <a href=\"http://intranet.agr.gc.ca/agrisource/fra/ressources-humaines/apprentissage-et-perfectionnement/formation/employes/sensibilisation-a-la-securite-agr-620?id=1325695839878\">Sensibilisation \u00e0 l\u2019att\u00e9nuation des risques internes</a>, est \u00e0 la disposition de tous les employ\u00e9s. Nous encourageons les employ\u00e9s qui n\u2019ont pas encore suivi la formation \u00e0 le faire.</p>\n<p>Tous les fonctionnaires ont l\u2019obligation de prot\u00e9ger l\u2019information dont ils ont le contr\u00f4le. En suivant l\u2019ensemble des modules de formation et en vous renseignant sur les politiques, les proc\u00e9dures et les processus connexes et en ayant recours aux autres ressources disponibles sur la page <a href=\"http://intranet.agr.gc.ca/agrisource/fra/directions-generales-et-bureaux/direction-generale-de-la-gestion-integree/services/services-de-securite-ministeriels?id=1330360312384\">Services de s\u00e9curit\u00e9 minist\u00e9riels dans AgriSource</a>, vous aidez \u00e0 r\u00e9duire les risques pour la s\u00e9curit\u00e9 du Minist\u00e8re.</p>\n\t\t"
    },
    "breadcrumb": {
        "en": "Security Awareness Training Update",
        "fr": "Mise \u00e0 jour sur la formation sur la sensibilisation \u00e0 la s\u00e9curit\u00e9"
    },
    "news": {
        "date_posted": {
            "en": "2019-12-19",
            "fr": "2019-12-19"
        },
        "to": {
            "en": "All staff",
            "fr": "Tous les employ\u00e9s"
        },
        "by": {
            "en": "Christine Walker, Assistant Deputy Minister, Corporate Management Branch",
            "fr": "Christine Walker, sous-ministre adjointe, Direction g\u00e9n\u00e9rale de la gestion int\u00e9gr\u00e9e"
        }
    }
}