{
    "dcr_id": "1578686995079",
    "lang": "en",
    "title": {
        "en": "NCR - Repairing the Floors in the Basement Elevator Lobbies ",
        "fr": "RCN - La r\u00e9paration des planchers du foyer d\u2019acc\u00e8s aux ascenseurs"
    },
    "modified": "2020-01-16 00:00:00.0",
    "issued": "2020-01-16 00:00:00.0",
    "type_name": "intra-intra/news-nouv",
    "node_id": "1279030006975",
    "layout_name": null,
    "dc_date_created": "2020-01-10",
    "breadcrumb_label": "",
    "meta": {
        "issued": {
            "en": "2020-01-16",
            "fr": "2020-01-16"
        },
        "modified": {
            "en": "2020-01-16",
            "fr": "2020-01-16"
        },
        "format": {
            "en": "gcformat",
            "fr": "gcformat"
        },
        "title": {
            "en": "NCR - Repairing the Floors in the Basement Elevator Lobbies ",
            "fr": "RCN - La r\u00e9paration des planchers du foyer d\u2019acc\u00e8s aux ascenseurs"
        },
        "subject": {
            "en": "communications",
            "fr": "communications"
        },
        "description": {
            "en": "Maple Leaf Property Management is currently repairing the floors in the basement elevator lobbies of Towers 1 and 2 (T1/T2) and Towers 3 and 4 (T3/T4).",
            "fr": "Maple Leaf Property Management proc\u00e8de \u00e0 la r\u00e9paration des planchers du foyer d\u2019acc\u00e8s aux ascenseurs dans le sous-sol des tours 1 et 2 et des tours 3 et 4."
        },
        "language": {
            "en": "eng",
            "fr": "fra"
        },
        "audience": {
            "en": "gcaudience",
            "fr": "gcaudience"
        },
        "creator": {
            "en": "Agriculture and Agri-Food Canada",
            "fr": "Agriculture et Agroalimentaire Canada"
        },
        "spatial": {
            "en": "gcregions",
            "fr": "gcregions"
        },
        "service": {
            "en": "AAFC_AgriSource",
            "fr": "AAC_AgriSource"
        },
        "accessRights": {
            "en": "3",
            "fr": "3"
        }
    },
    "body": {
        "en": "<br>\n<br>\n<p>Maple Leaf Property Management is currently repairing the floors in the basement elevator lobbies of Towers 1 and 2 (T1/T2) and Towers 3 and 4 (T3/T4). The project which began in October 2019 will be completed the end of February 2020.</p>\n<p>The T1/T2 work has begun\u00a0and is scheduled between the hours of\u00a06:00 p.m.\u00a0and\u00a06:00 a.m.,\u00a0as well as on weekends. The floors in T3/T4 basement will be redone as required and this work is expected to begin shortly. During the construction, these areas will be made safe and accessible for pedestrian and cart traffic during regular business hours.</p>\n<p>As with previous construction projects, please be aware of the construction barriers and contact the National Service Call Centre (NSCC) at 1-800-463-1850 if you have any questions or concerns.</p>\n<p><img src=\"https://intranet.agr.gc.ca/resources/prod/news/images/MapleLeafProperty.png\" class=\"center-block\"></p>\n\n\t\t",
        "fr": "<br>\n<br>\n<p>Maple Leaf Property Management proc\u00e8de \u00e0 la r\u00e9paration des planchers du foyer d\u2019acc\u00e8s aux ascenseurs dans le sous-sol des tours 1 et 2 et des tours 3 et 4. Le projet, qui a commenc\u00e9 en octobre 2019, sera termin\u00e9 \u00e0 la fin de f\u00e9vrier 2020.</p>\n<p>Les travaux dans les tours 1 et 2 ont d\u00e9j\u00e0 commenc\u00e9 et seront effectu\u00e9s entre 18 h et 6 h ainsi que les week-ends. Les planchers des tours 3 et 4 seront refaits comme il convient, et les travaux devraient d\u00e9buter sous peu. Durant les heures normales, nous veillerons \u00e0 ce que les zones de construction soient s\u00e9curitaires et accessibles \u00e0 la circulation pi\u00e9tonni\u00e8re et aux chariots.</p>\n<p>Comme pour les pr\u00e9c\u00e9dents projets de construction, veuillez respecter les barri\u00e8res mises en place et appeler le Centre national d\u2019appels de service (CNAS) au 1-800-463-1850 si vous avez des questions ou des pr\u00e9occupations \u00e0 ce sujet.</p>\n<p><img src=\"https://intranet.agr.gc.ca/resources/prod/news/images/MapleLeafProperty.png\" class=\"center-block\"></p>\n\t\t"
    },
    "breadcrumb": {
        "en": "NCR - Repairing the Floors in the Basement Elevator Lobbies",
        "fr": "RCN - La r\u00e9paration des planchers du foyer d\u2019acc\u00e8s aux ascenseurs"
    },
    "news": {
        "date_posted": {
            "en": "2020-01-14",
            "fr": "2020-01-14"
        },
        "to": {
            "en": "NCR only",
            "fr": "RCN seulement"
        },
        "by": {
            "en": "Accommodations Services",
            "fr": "Am\u00e9nagement des locaux"
        }
    }
}