{
    "dcr_id": "1578320015251",
    "lang": "en",
    "title": {
        "en": "Reminder - Student Orientation Session - January 22",
        "fr": "Rappel - S\u00e9ance d'orientation pour les \u00e9tudiants - 22 janvier"
    },
    "modified": "2020-01-15 00:00:00.0",
    "issued": "2020-01-09 00:00:00.0",
    "type_name": "intra-intra/news-nouv",
    "node_id": "1279030006975",
    "layout_name": null,
    "dc_date_created": "2020-01-06",
    "breadcrumb_label": "",
    "meta": {
        "issued": {
            "en": "2020-01-09",
            "fr": "2020-01-09"
        },
        "modified": {
            "en": "2020-01-15",
            "fr": "2020-01-16"
        },
        "format": {
            "en": "gcformat",
            "fr": "gcformat"
        },
        "title": {
            "en": "Reminder - Student Orientation Session - January 22",
            "fr": "Rappel - S\u00e9ance d'orientation pour les \u00e9tudiants - 22 janvier"
        },
        "subject": {
            "en": "communications",
            "fr": "communications"
        },
        "description": {
            "en": "The Student Panel of Representatives for Orientation, Unity, and Training (SPROUT) is holding an orientation session for AAFC students across the country on January 22.",
            "fr": "Le Programme de l'orientation, de l'unit\u00e9 et de la sensibilisation des stagiaires et \u00e9tudiants (POUSSE) organise une s\u00e9ance d'orientation pour les \u00e9tudiants d'AAC \u00e0 travers le pays le 22 janvier."
        },
        "language": {
            "en": "eng",
            "fr": "fra"
        },
        "audience": {
            "en": "gcaudience",
            "fr": "gcaudience"
        },
        "creator": {
            "en": "Agriculture and Agri-Food Canada",
            "fr": "Agriculture et Agroalimentaire Canada"
        },
        "spatial": {
            "en": "gcregions",
            "fr": "gcregions"
        },
        "service": {
            "en": "AAFC_AgriSource",
            "fr": "AAC_AgriSource"
        },
        "accessRights": {
            "en": "3",
            "fr": "3"
        }
    },
    "body": {
        "en": "<br>\n<br>\n<p>The Student Panel of Representatives for Orientation, Unity, and Training (SPROUT) is holding an orientation session for AAFC students across the country on January 22. Students will hear from the Deputy Minister, Chris Forbes, and will learn useful tips from former students on how to ensure a successful work term.</p>\n<h2><strong>Event information</strong></h2>\n<p><strong>Date: </strong>Wednesday, January 22<br>\n<strong>Time: </strong>11:00 a.m. to 1:00 p.m. (ET)<br>\n<strong>Location: </strong>T3-1-351 at NHCAP (Ottawa)<br>\n<strong>Videoconference:</strong> For those outside of the National Capital Region, we ask that hiring managers book a room with videoconference capability so that their students can participate. The <strong>VC number</strong> is: 76137730377, and the <strong>guest PIN </strong>is: 3376).</p>\n<p>To see the agenda for the orientation session, visit the <a href=\"https://collab.agr.gc.ca/co/se-ee/SitePages/Home.aspx\">SPROUT Knowledge Workspace site</a>.</p>\n<p>We encourage students old and new to participate in this orientation session! If you are a student and unable to attend, please reach out to SPROUT at <a href=\"mailto:aafc.sprout-pousse.aac@canada.ca\">aafc.sprout-pousse.aac@canada.ca</a>, and we will be happy to welcome you to AAFC.</p>\n<p><img src=\"https://intranet.agr.gc.ca/resources/prod/news/images/SPROUTbanner2019.png\" class=\"center-block\"></p>\n\n\t\t",
        "fr": "<br>\n<br>\n<p>Le Programme de l\u2019orientation, de l\u2019unit\u00e9 et de la sensibilisation des stagiaires et \u00e9tudiants (POUSSE) organise une s\u00e9ance d'orientation pour les \u00e9tudiants d'AAC \u00e0 travers le pays le 22 janvier. Les \u00e9tudiants entendront le sous-ministre Chris Forbes et apprendront des conseils utiles d'anciens \u00e9tudiants pour assurer\u00a0la r\u00e9ussite de leur stage.</p>\n<h2><strong><b>Renseignements sur l\u2019activit\u00e9</b></strong></h2>\n<p><strong>Date : </strong>Le 22 janvier<br>\n<strong>Heure : </strong>De 11 h \u00e0 13 h (HE)<br>\n<strong>Lieu : </strong>T3-1-351 au CACPA (Ottawa)<br>\n<strong>Vid\u00e9oconf\u00e9rence :</strong> \u00c0 l\u2019ext\u00e9rieur de la r\u00e9gion de la capitale nationale, nous demandons aux gestionnaires recruteurs de r\u00e9server une salle de vid\u00e9oconf\u00e9rence pour permettre \u00e0 leurs \u00e9tudiants de participer \u00e0 la s\u00e9ance. <strong>Num\u00e9ro de la VC</strong> : 76137730377 (<strong>NIP d\u2019invit\u00e9</strong> : 3376).</p>\n<p>Pour voir l'ordre du jour de la s\u00e9ance d'orientation, visitez la\u00a0<a href=\"https://collab.agr.gc.ca/co/se-ee/SitePages/Home.aspx\">page POUSSE dans </a><a href=\"https://collab.agr.gc.ca/co/se-ee/SitePages/Home.aspx\">l\u2019Espace de travail du savoir</a>.</p>\n<p>Nous encourageons les \u00e9tudiants, anciens et nouveaux, \u00e0 participer \u00e0 cette s\u00e9ance d'orientation! Si vous \u00eates \u00e9tudiant et ne pouvez pas y participer, veuillez contacter POUSSE \u00e0 <a href=\"mailto:aafc.sprout-pousse.aac@canada.ca\">aafc.sprout-pousse.aac@canada.ca</a>, et nous serons heureux de vous accueillir \u00e0 AAC.</p>\n<p><img src=\"https://intranet.agr.gc.ca/resources/prod/news/images/SPROUTbanner2019.png\" class=\"center-block\"></p>\n\t\t"
    },
    "breadcrumb": {
        "en": "Reminder - Student Orientation Session - January 22",
        "fr": "Rappel - S\u00e9ance d'orientation pour les \u00e9tudiants - 22 janvier"
    },
    "news": {
        "date_posted": {
            "en": "2020-01-09",
            "fr": "2020-01-09"
        },
        "to": {
            "en": "All staff",
            "fr": "Tous les employ\u00e9s"
        },
        "by": {
            "en": "Student Panel of Representatives for Orientation, Unity, and Training (SPROUT)",
            "fr": "Programme de l\u2019orientation, de l\u2019unit\u00e9 et de la sensibilisation des stagiaires et \u00e9tudiants (POUSSE)"
        }
    }
}