{
    "dcr_id": "1578503019599",
    "lang": "en",
    "title": {
        "en": "Important: Deadline Changed to Submit Pay Transactions",
        "fr": "Attention : modifications aux dates pour soumettre des transactions "
    },
    "modified": "2020-01-08 00:00:00.0",
    "issued": "2020-01-08 00:00:00.0",
    "type_name": "intra-intra/news-nouv",
    "node_id": "1279030006975",
    "layout_name": null,
    "dc_date_created": "2020-01-08",
    "breadcrumb_label": "",
    "meta": {
        "issued": {
            "en": "2020-01-08",
            "fr": "2020-01-08"
        },
        "modified": {
            "en": "2020-01-08",
            "fr": "2020-01-08"
        },
        "format": {
            "en": "gcformat",
            "fr": "gcformat"
        },
        "title": {
            "en": "Important: Deadline Changed to Submit Pay Transactions",
            "fr": "Attention : modifications aux dates pour soumettre des transactions "
        },
        "subject": {
            "en": "communications",
            "fr": "communications"
        },
        "description": {
            "en": "Due to new year payroll processing activities, the deadlines to submit approved timesheets, overtime, and leave without pay less than 5 days in Phoenix for the January 22 pay have changed.",
            "fr": "En raison des activit\u00e9s de traitement de la paye li\u00e9es \u00e0 la nouvelle ann\u00e9e, les dates limites pour soumettre les feuilles de temps approuv\u00e9es, les heures suppl\u00e9mentaires et les cong\u00e9s sans solde de moins de 5 jours en Ph\u00e9nix pour la paye du 22 janvier 2020 ont chang\u00e9."
        },
        "language": {
            "en": "eng",
            "fr": "fra"
        },
        "audience": {
            "en": "gcaudience",
            "fr": "gcaudience"
        },
        "creator": {
            "en": "Agriculture and Agri-Food Canada",
            "fr": "Agriculture et Agroalimentaire Canada"
        },
        "spatial": {
            "en": "gcregions",
            "fr": "gcregions"
        },
        "service": {
            "en": "AAFC_AgriSource",
            "fr": "AAC_AgriSource"
        },
        "accessRights": {
            "en": "3",
            "fr": "3"
        }
    },
    "body": {
        "en": "<br>\n<br>\n<p>A message from Public Services and Procurement Canada (PSPC):</p>\n<p>Due to new year payroll processing activities, the deadlines to submit approved timesheets, overtime, and leave without pay less than 5 days in Phoenix for the January 22 pay have changed.</p>\n<p>For hours worked on December 26 to January 8:</p>\n<ul>\n<li>Employees must submit requests by 8:30 p.m. ET on <strong>Thursday, January 9, 2020</strong>.</li>\n<li>Managers must approve requests by 2:00 p.m. ET (Section 34) and 9:00 p.m. ET (Section 33) on <strong>Friday, January 10, 2020.</strong></li>\n</ul>\n<p>The updated deadlines for submitting transactions can be found on the <a href=\"http://intranet.agr.gc.ca/agrisource/eng/human-resources/pay-benefits-and-phoenix?id=1511367056518\">Pay, benefits, and Phoenix</a> page in AgriSource.</p>\n<p>\u00a0</p>\n\n\t\t",
        "fr": "<br>\n<br>\n<p>Un message de Services Publics et Approvisionnement Canada (SPAC) :</p>\n<p>En raison des activit\u00e9s de traitement de la paye li\u00e9es \u00e0 la nouvelle ann\u00e9e, les dates limites pour soumettre les feuilles de temps approuv\u00e9es, les heures suppl\u00e9mentaires et les cong\u00e9s sans solde de moins de 5 jours en Ph\u00e9nix pour la paye du 22 janvier 2020 ont chang\u00e9.</p>\n<p>Pour les heures travaill\u00e9es le 26 d\u00e9cembre au 8 janvier :</p>\n<ul>\n<li>Les employ\u00e9s doivent soumettre leurs demandes avant 20 h 30 HE le <strong>jeudi 9 janvier 2020</strong>.</li>\n<li>Les gestionnaires doivent approuv\u00e9es les demandes avant 14 h HE (article 34) et 21 h HE (article 33) le <strong>vendredi 10 janvier 2020</strong>.</li>\n</ul>\n<p>Les dates limites mises \u00e0 jour se trouvent sur la page Web <a href=\"http://intranet.agr.gc.ca/agrisource/fra/ressources-humaines/remuneration-avantages-sociaux-et-phenix?id=1511367056518\">R\u00e9mun\u00e9ration, avantages sociaux, et Ph\u00e9nix</a> dans AgriSource.</p>\n\t\t"
    },
    "breadcrumb": {
        "en": "Important: Deadline Changed to Submit Pay Transactions",
        "fr": "Attention : modifications aux dates pour soumettre des transactions"
    },
    "news": {
        "date_posted": {
            "en": "2020-01-08",
            "fr": "2020-01-08"
        },
        "to": {
            "en": "All staff",
            "fr": "Tous les employ\u00e9s"
        },
        "by": {
            "en": "Corporate Management Branch",
            "fr": "Direction g\u00e9n\u00e9rale de la gestion int\u00e9gr\u00e9e"
        }
    }
}