{
    "dcr_id": "1579893563974",
    "lang": "en",
    "title": {
        "en": "AAFC's 2018-19 Departmental Results Report",
        "fr": "Rapport sur les r\u00e9sultats minist\u00e9riels 2018 2019 d'AAC "
    },
    "modified": "2020-02-27 00:00:00.0",
    "issued": "2020-02-27 00:00:00.0",
    "type_name": "intra-intra/news-nouv",
    "node_id": "1279030006975",
    "layout_name": null,
    "dc_date_created": "2020-01-24",
    "breadcrumb_label": "",
    "meta": {
        "issued": {
            "en": "2020-02-27",
            "fr": "2020-02-27"
        },
        "modified": {
            "en": "2020-02-27",
            "fr": "2020-02-27"
        },
        "format": {
            "en": "gcformat",
            "fr": "gcformat"
        },
        "title": {
            "en": "AAFC's 2018-19 Departmental Results Report",
            "fr": "Rapport sur les r\u00e9sultats minist\u00e9riels 2018 2019 d'AAC "
        },
        "subject": {
            "en": "communications",
            "fr": "communications"
        },
        "description": {
            "en": "AAFC's 2018-19 Departmental Results Report, tabled in Parliament on January 29, 2020, captures our many accomplishments and the results we achieved for the fiscal year, including in support of departmental priorities, the Minister's mandate letter commitments, and Government of Canada priorities.",
            "fr": "Le Rapport sur les r\u00e9sultats minist\u00e9riels 2018-2019 d'AAC, d\u00e9pos\u00e9 au Parlement le 29 janvier 2020, fait \u00e9tat de nos nombreuses r\u00e9alisations et des r\u00e9sultats que nous avons obtenus au cours de l'exercice, notamment \u00e0 l'appui des priorit\u00e9s minist\u00e9rielles, des engagements \u00e9nonc\u00e9s dans la lettre de mandat de la ministre et des priorit\u00e9s du gouvernement du Canada."
        },
        "language": {
            "en": "eng",
            "fr": "fra"
        },
        "audience": {
            "en": "gcaudience",
            "fr": "gcaudience"
        },
        "creator": {
            "en": "Agriculture and Agri-Food Canada",
            "fr": "Agriculture et Agroalimentaire Canada"
        },
        "spatial": {
            "en": "gcregions",
            "fr": "gcregions"
        },
        "service": {
            "en": "AAFC_AgriSource",
            "fr": "AAC_AgriSource"
        },
        "accessRights": {
            "en": "3",
            "fr": "3"
        }
    },
    "body": {
        "en": "<br>\n<br>\n<p>AAFC\u2019s <a href=\"http://www.agr.gc.ca/eng/?id=1574269837312\">2018-19 Departmental Results Report</a> (DRR), tabled in Parliament on January 29, 2020, captures our many accomplishments and the results we achieved for the fiscal year, including in support of departmental priorities, the Minister\u2019s mandate letter commitments, and Government of Canada priorities.</p>\n<p>The 2018-19 DRR also marks the first year of reporting under the <a href=\"http://intranet.agr.gc.ca/agrisource/eng/newswork/introducing-aafcs-departmental-results-framework?id=1524070672044\">Departmental Results Framework</a>. It outlines our efforts within each of AAFC\u2019s core responsibilities (Domestic and International Markets, Science and Innovation, and Sector Risk), as well as our work related to Internal Services.</p>\n<p>I encourage you to read the 2018-19 DRR and learn about what we achieved against the performance expectations set out in AAFC\u2019s <a href=\"http://www.agr.gc.ca/eng/about-us/planning-and-reporting/departmental-plans/2018-19-departmental-plan/?id=1520458805687\">2018-19 Departmental Plan</a> (DP). For example:</p>\n<ul>\n<li>delivering the first year of the Canadian Agricultural Partnership;</li>\n<li>enhancing trade and supporting the sector to seize market opportunities;</li>\n<li>advancing agricultural science and research to generate knowledge and innovation; and</li>\n<li>leading the Food Policy for Canada.</li>\n</ul>\n<p>If you have any questions regarding the DRR or the DP, please contact Rachel Croswell at <a href=\"mailto:rachel.croswell2@canada.ca\">rachel.croswell2@canada.ca</a>.</p>\n<p>For more information on our departmental priorities and accomplishments in 2018-19, please see the <a href=\"https://collab.agr.gc.ca/co/smd-cmb_dgs-dggi/SitePages/AAFC%20YEAR%20IN%20REVIEW%202018-19.aspx\">AAFC Year in Review</a>.</p>\n\n\t\t",
        "fr": "<br>\n<br>\n<p>Le <a href=\"http://www.agr.gc.ca/fra/?id=1574269837312\">Rapport sur les r\u00e9sultats minist\u00e9riels 2018-2019</a> (RRM) d\u2019AAC, d\u00e9pos\u00e9 au Parlement le 29 janvier 2020, fait \u00e9tat de nos nombreuses r\u00e9alisations et des r\u00e9sultats que nous avons obtenus au cours de l\u2019exercice, notamment \u00e0 l\u2019appui des priorit\u00e9s minist\u00e9rielles, des engagements \u00e9nonc\u00e9s dans la lettre de mandat de la ministre et des priorit\u00e9s du gouvernement du Canada.</p>\n<p>Le RRM 2018-2019 marque aussi la premi\u00e8re ann\u00e9e de pr\u00e9sentation de rapports en fonction du <a href=\"http://intranet.agr.gc.ca/agrisource/fra/nouvelleslouvrage/presentation-du-cadre-ministeriel-des-resultats-daac?id=1524070672044\">Cadre minist\u00e9riel des r\u00e9sultats</a>. Il d\u00e9crit nos activit\u00e9s \u00e0 l\u2019\u00e9gard de chacune des responsabilit\u00e9s essentielles d\u2019AAC (March\u00e9s nationaux et internationaux, Science et innovation, et Risques du secteur), ainsi que notre travail \u00e0 l\u2019appui des Services internes.</p>\n<p>Je vous encourage \u00e0 lire le RRM 2018-2019 et \u00e0 vous renseigner sur ce que nous avons accompli en regard des attentes de rendement \u00e9nonc\u00e9es dans le <a href=\"http://www.agr.gc.ca/fra/a-propos-de-nous/planification-et-rapports/plans-ministeriels/plan-ministeriel-2018-2019/?id=1520458805687\">Plan minist\u00e9riel 2018-2019</a> (PM) d\u2019AAC. Par exemple :</p>\n<ul>\n<li>mettre en \u0153uvre la premi\u00e8re ann\u00e9e du Partenariat canadien pour l\u2019agriculture;</li>\n<li>am\u00e9liorer le commerce et fournir du soutien au secteur pour saisir les d\u00e9bouch\u00e9s;</li>\n<li>faire progresser la science et la recherche en agronomie, g\u00e9n\u00e9rant ainsi des connaissances et stimulant l\u2019innovation;</li>\n<li>diriger l\u2019\u00e9laboration de la Politique alimentaire pour le Canada.</li>\n</ul>\n<p>Si vous avez des questions concernant le RRM ou le PM, veuillez communiquer avec Rachel Croswell (<a href=\"mailto:rachel.croswell2@canada.ca\">rachel.croswell2@canada.ca</a>).</p>\n<p>Pour de plus amples renseignements sur les priorit\u00e9s et les r\u00e9alisations du Minist\u00e8re en 2018\u20112019, veuillez consulter le <a href=\"https://collab.agr.gc.ca/co/smd-cmb_dgs-dggi/SitePages/AAFC%20YEAR%20IN%20REVIEW%202018-19.aspx\">bilan de l\u2019ann\u00e9e d\u2019AAC</a>.</p>\n\t\t"
    },
    "breadcrumb": {
        "en": "AAFC's 2018-19 Departmental Results Report",
        "fr": "Rapport sur les r\u00e9sultats minist\u00e9riels 2018 2019 d'AAC"
    },
    "news": {
        "date_posted": {
            "en": "2020-01-30",
            "fr": "2020-01-30"
        },
        "to": {
            "en": "All staff",
            "fr": "Tous les employ\u00e9s"
        },
        "by": {
            "en": "Christine Walker, Assistant Deputy Minister, Corporate Management Branch",
            "fr": "Christine Walker, Sous-ministre adjointe, Direction g\u00e9n\u00e9rale de la gestion int\u00e9gr\u00e9e"
        }
    }
}