{
    "dcr_id": "1580244826266",
    "lang": "en",
    "title": {
        "en": "You\u2019re Not Alone - Message from the Mental Wellness Champion",
        "fr": "Vous n\u2019\u00eates pas seuls - Message de la championne de la sant\u00e9 mentale"
    },
    "modified": "2020-01-30 00:00:00.0",
    "issued": "2020-01-30 00:00:00.0",
    "type_name": "intra-intra/news-nouv",
    "node_id": "1279030006975",
    "layout_name": null,
    "dc_date_created": "2020-01-28",
    "breadcrumb_label": "",
    "meta": {
        "issued": {
            "en": "2020-01-30",
            "fr": "2020-01-30"
        },
        "modified": {
            "en": "2020-01-30",
            "fr": "2020-01-30"
        },
        "format": {
            "en": "gcformat",
            "fr": "gcformat"
        },
        "title": {
            "en": "You\u2019re Not Alone - Message from the Mental Wellness Champion",
            "fr": "Vous n\u2019\u00eates pas seuls - Message de la championne de la sant\u00e9 mentale"
        },
        "subject": {
            "en": "communications",
            "fr": "communications"
        },
        "description": {
            "en": "In the spirit of Bell Let\u2019s Talk and sparking a nationwide conversation about mental health, I'm sharing my story with you.",
            "fr": "Dans l\u2019esprit de la Journ\u00e9e Bell Cause et pour amorcer une conversation nationale sur la sant\u00e9 mentale, je partage mon histoire avec vous."
        },
        "language": {
            "en": "eng",
            "fr": "fra"
        },
        "audience": {
            "en": "gcaudience",
            "fr": "gcaudience"
        },
        "creator": {
            "en": "Agriculture and Agri-Food Canada",
            "fr": "Agriculture et Agroalimentaire Canada"
        },
        "spatial": {
            "en": "gcregions",
            "fr": "gcregions"
        },
        "service": {
            "en": "AAFC_AgriSource",
            "fr": "AAC_AgriSource"
        },
        "accessRights": {
            "en": "3",
            "fr": "3"
        }
    },
    "body": {
        "en": "<br>\n<br>\n<p>I\u2019m very excited to take on the role of Mental Wellness Champion for the Department. Since joining AAFC in March 2019, I have been deeply impressed by our people, how much\u00a0we care about our work,\u00a0and each other. I am committed to continue ensuring that mental wellness remains a top area of focus for our Department.</p>\n<p>In the spirit of Bell Let\u2019s Talk and sparking a nationwide conversation about mental health, I'm <a href=\"http://intranet.agr.gc.ca/agrisource/eng/human-resources/workplace-wellness/one-in-five-video?id=1580246566002\">sharing my story with you</a>.</p>\n<p>I encourage all of us to promote conversations about mental health with colleagues and employees. Here are\u00a0three reasons<strong> </strong>why this is important:</p>\n<ul>\n<li>In any given year, 1 in 5 people in Canada will personally experience a mental health problem or illness.</li>\n<li>Almost half (49%) of those who feel they have suffered from depression or anxiety have never gone to see a doctor about this problem.</li>\n<li>Stigma or discrimination attached to mental illnesses presents a serious barrier, not only to diagnosis and treatment but also to acceptance in the community.</li>\n</ul>\n<p>If you or someone you know are struggling with mental<strong> </strong>health,<strong> you're not alone. </strong></p>\n<p><strong>And there's help</strong> \u2013 like our<strong> </strong>AAFC <a href=\"http://intranet.agr.gc.ca/agrisource/eng/human-resources/employee-and-family-assistance-program?id=1287673689033\">Employee and Family Assistance Program</a>.</p>\n<p>\nIn the weeks ahead, I will be meeting with colleagues and employees to better understand the specific issues and questions that will help chart our way forward, and focus my work as champion.\u00a0\u00a0\u00a0</p>\n<p>\nIf you\u2019re interested in getting involved, don't hesitate to reach out to me. Let\u2019s talk.</p>\n\n\t\t",
        "fr": "<br>\n<br>\n<p>Je suis tr\u00e8s heureuse d\u2019assumer le r\u00f4le de championne de la sant\u00e9 mentale au Minist\u00e8re. Depuis mon arriv\u00e9e \u00e0 AAC en mars 2019, je suis profond\u00e9ment impressionn\u00e9e de voir \u00e0 quel point vous avez votre travail \u00e0 c\u0153ur et le souci des uns et des autres. Je suis d\u00e9termin\u00e9e \u00e0 continuer de faire en sorte que la sant\u00e9 mentale demeure une grande priorit\u00e9 pour notre Minist\u00e8re.</p>\n<p>Dans l\u2019esprit de la Journ\u00e9e Bell Cause et pour amorcer une conversation nationale sur la sant\u00e9 mentale, <a href=\"http://intranet.agr.gc.ca/agrisource/fra/ressources-humaines/mieux-etre-au-travail/un-sur-cinq-video?id=1580246566002\">je partage mon histoire\u00a0avec vous</a>.</p>\n<p>Je vous encourage tous \u00e0 tenir des discussions sur la sant\u00e9 mentale avec des coll\u00e8gues et des employ\u00e9s. Voici trois raisons<strong> </strong>pour lesquelles c\u2019est important :</p>\n<ul>\n<li>Chaque ann\u00e9e, un Canadien sur cinq est aux prises avec un trouble de sant\u00e9 mentale ou une maladie mentale.</li>\n<li>Pr\u00e8s de la moit\u00e9 (49 %) des gens estimant avoir d\u00e9j\u00e0 \u00e9t\u00e9 atteints de d\u00e9pression ou d\u2019anxi\u00e9t\u00e9 n\u2019ont jamais consult\u00e9 un m\u00e9decin \u00e0 ce sujet.</li>\n<li>La stigmatisation ou la discrimination li\u00e9e aux maladies mentales constitue un obstacle s\u00e9rieux, non seulement au diagnostic et au traitement, mais aussi \u00e0 l\u2019acceptation dans la collectivit\u00e9.</li>\n</ul>\n<p>Si vous \u00e9prouvez ou connaissez quelqu\u2019un qui \u00e9prouve des probl\u00e8mes de sant\u00e9 mentale, <strong>sachez que vous n\u2019\u00eates pas seuls. </strong></p>\n<p><strong>Il existe de l\u2019aide</strong> \u2013 comme celle du <a href=\"http://intranet.agr.gc.ca/agrisource/fra/ressources-humaines/programme-daide-aux-employes-et-a-la-famille?id=1287673689033\">Programme d'aide aux employ\u00e9s et \u00e0 la famille</a> d\u2019AAC.</p>\n<p>\nAu cours des prochaines semaines, je rencontrerai des employ\u00e9s et des coll\u00e8gues pour mieux comprendre les enjeux et les questions qui nous permettront d\u2019\u00e9tablir un plan pour aller de l\u2019avant et pour \u00e9tablir mes priorit\u00e9s de travail en tant que championne. </p>\n<p>\nN\u2019h\u00e9sitez pas \u00e0 communiquer avec moi si vous souhaitez participer. Parlons-en.</p>\n\t\t"
    },
    "breadcrumb": {
        "en": "You\u2019re Not Alone - Message from the Mental Wellness Champion",
        "fr": "Vous n\u2019\u00eates pas seuls - Message de la championne de la sant\u00e9 mentale"
    },
    "news": {
        "date_posted": {
            "en": "2020-01-30",
            "fr": "2020-01-30"
        },
        "to": {
            "en": "All staff",
            "fr": "Tous les employ\u00e9s"
        },
        "by": {
            "en": "Mary Dila, AAFC Mental Wellness Champion",
            "fr": "Mary Dila, championne de la sant\u00e9 mentale \u00e0 AAC"
        }
    }
}