{
    "dcr_id": "1580759341118",
    "lang": "en",
    "title": {
        "en": "Fields of Science: Showing Off AAFC Scientists and Their Outstanding Work",
        "fr": "Champs scientifiques : Faire conna\u00eetre les chercheurs d'AAC et leur travail exceptionnel"
    },
    "modified": "2020-02-13 00:00:00.0",
    "issued": "2020-02-13 00:00:00.0",
    "type_name": "intra-intra/news-nouv",
    "node_id": "1279030006975",
    "layout_name": null,
    "dc_date_created": "2020-02-07",
    "breadcrumb_label": "",
    "meta": {
        "issued": {
            "en": "2020-02-13",
            "fr": "2020-02-13"
        },
        "modified": {
            "en": "2020-02-13",
            "fr": "2020-02-13"
        },
        "format": {
            "en": "gcformat",
            "fr": "gcformat"
        },
        "title": {
            "en": "Fields of Science: Showing Off AAFC Scientists and Their Outstanding Work",
            "fr": "Champs scientifiques : Faire conna\u00eetre les chercheurs d'AAC et leur travail exceptionnel"
        },
        "subject": {
            "en": "communications",
            "fr": "communications"
        },
        "description": {
            "en": "Have you ever wondered who AAFC scientists are or what they do?",
            "fr": "Vous \u00eates-vous d\u00e9j\u00e0 demand\u00e9 qui sont les chercheurs d'AAC et ce qu'ils font?"
        },
        "language": {
            "en": "eng",
            "fr": "fra"
        },
        "audience": {
            "en": "gcaudience",
            "fr": "gcaudience"
        },
        "creator": {
            "en": "Agriculture and Agri-Food Canada",
            "fr": "Agriculture et Agroalimentaire Canada"
        },
        "spatial": {
            "en": "gcregions",
            "fr": "gcregions"
        },
        "service": {
            "en": "AAFC_AgriSource",
            "fr": "AAC_AgriSource"
        },
        "accessRights": {
            "en": "3",
            "fr": "3"
        }
    },
    "body": {
        "en": "<br>\n<br>\n<p>Have you ever wondered who AAFC scientists are or what they do? Introducing Fields of Science, a new awareness campaign that helps answer these questions!</p>\n<p>Fields of Science was designed in-house from the ground up by many talented and dedicated employees. There is a lot to be proud of when it comes to food and agriculture in Canada, including the contribution of our very own scientists.</p>\n<p>The campaign allows Canadians to get to know our scientists on a personal level, learn about the research they do on a daily basis, and see how their work relates to the foods on our plates.</p>\n<p>Check out <a href=\"http://www.agr.gc.ca/eng/canadian-agri-food-sector/fields-of-science/?id=1411999466585&amp;utm_source=int_web&amp;utm_medium=email&amp;utm_campaign=FIELDSOFSCIENCE&amp;utm_content=2020-02-11_0025%20\">Fields of Science</a> for videos, articles and more! New scientists will be added monthly. You can also stay rooted to the latest additions through AAFC\u2019s <a href=\"https://www.facebook.com/CanadianAgriculture/\">Facebook</a> and <a href=\"https://twitter.com/AAFC_Canada\">Twitter</a> channels. We cover a lot of ground!</p>\n<p><img src=\"https://intranet.agr.gc.ca/resources/prod/news/images/FieldsOfScience-EN.png\" class=\"center-block\"></p>\n<p>\u00a0</p>\n\n\t\t",
        "fr": "<br>\n<br>\n<p>Vous \u00eates-vous d\u00e9j\u00e0 demand\u00e9 qui sont les chercheurs d\u2019AAC et ce qu\u2019ils font? Nous vous pr\u00e9sentons Champs scientifiques, une nouvelle campagne de sensibilisation qui aide \u00e0 r\u00e9pondre \u00e0 ces questions!</p>\n<p>La campagne Champs scientifiques a \u00e9t\u00e9 con\u00e7ue enti\u00e8rement par de nombreux employ\u00e9s talentueux et d\u00e9vou\u00e9s d\u2019AAC. Nous avons vraiment de quoi \u00eatre fiers de nos r\u00e9alisations dans le domaine agroalimentaire au Canada, y compris la contribution de nos propres chercheurs.</p>\n<p>La campagne permet aux Canadiens de se familiariser avec nos chercheurs sur une note plus personnelle, de d\u00e9couvrir le travail qu\u2019ils accomplissent au quotidien et de voir les liens entre leur travail et les aliments que nous consommons.</p>\n<p>Vous trouverez des vid\u00e9os, des articles et bien plus encore sur le site de la campagne <a href=\"http://www.agr.gc.ca/fra/secteur-agroalimentaire-canadien/champs-scientifiques/?id=1411999466585&amp;utm_source=int_web&amp;utm_medium=email&amp;utm_campaign=CHAMPSSCIENTIFIQUES&amp;utm_content=2020-02-11_0026%20\">Champs scientifiques</a>! De nouveaux profils de chercheurs y seront ajout\u00e9s chaque mois. Vous pouvez aussi vous tenir au courant des derniers ajouts en consultant les pages <a href=\"https://www.facebook.com/AgricultureCanadienne\">Facebook</a> et <a href=\"https://twitter.com/AAC_Canada\">Twitter</a> d\u2019AAC. Nous avons un grand champ d\u2019action!</p>\n<p>\n<img src=\"https://intranet.agr.gc.ca/resources/prod/news/images/FieldsOfScience-FR.png\" class=\"center-block\"></p>\n\t\t"
    },
    "breadcrumb": {
        "en": "Fields of Science: Showing Off AAFC Scientists and Their Outstanding Work",
        "fr": "Champs scientifiques : Faire conna\u00eetre les chercheurs d'AAC et leur travail exceptionnel"
    },
    "news": {
        "date_posted": {
            "en": "2020-02-13",
            "fr": "2020-02-13"
        },
        "to": {
            "en": "All staff",
            "fr": "Tous les employ\u00e9s"
        },
        "by": {
            "en": "Public Affairs Branch",
            "fr": "Direction g\u00e9n\u00e9rale des affaires publiques"
        }
    }
}