{
    "dcr_id": "1580747063978",
    "lang": "en",
    "title": {
        "en": "NCR - Weekly Beading Circle - NHCAP and Farm",
        "fr": "RCN - Cercle de perlage hebdomadaire - CACPA et Ferme exp\u00e9rimentale"
    },
    "modified": "2020-02-06 00:00:00.0",
    "issued": "2020-02-06 00:00:00.0",
    "type_name": "intra-intra/news-nouv",
    "node_id": "1279030006975",
    "layout_name": null,
    "dc_date_created": "2020-02-03",
    "breadcrumb_label": "",
    "meta": {
        "issued": {
            "en": "2020-02-06",
            "fr": "2020-02-06"
        },
        "modified": {
            "en": "2020-02-06",
            "fr": "2020-02-06"
        },
        "format": {
            "en": "gcformat",
            "fr": "gcformat"
        },
        "title": {
            "en": "NCR - Weekly Beading Circle - NHCAP and Farm",
            "fr": "RCN - Cercle de perlage hebdomadaire - CACPA et Ferme exp\u00e9rimentale"
        },
        "subject": {
            "en": "communications",
            "fr": "communications"
        },
        "description": {
            "en": "The Indigenous Network Circle (INC) will be hosting a weekly Beading Circle for AAFC employees interested in learning how to bead or in working on their own beading projects in a group setting.",
            "fr": "Le Cercle de r\u00e9seautage des employ\u00e9s autochtones (CREA) tiendra un cercle de perlage hebdomadaire pour les employ\u00e9s d'AAC qui souhaitent apprendre \u00e0 faire du perlage ou encore travailler \u00e0 leurs propres projets de perlage en bonne compagnie."
        },
        "language": {
            "en": "eng",
            "fr": "fra"
        },
        "audience": {
            "en": "gcaudience",
            "fr": "gcaudience"
        },
        "creator": {
            "en": "Agriculture and Agri-Food Canada",
            "fr": "Agriculture et Agroalimentaire Canada"
        },
        "spatial": {
            "en": "gcregions",
            "fr": "gcregions"
        },
        "service": {
            "en": "AAFC_AgriSource",
            "fr": "AAC_AgriSource"
        },
        "accessRights": {
            "en": "3",
            "fr": "3"
        }
    },
    "body": {
        "en": "<br>\n<br>\n<p>The Indigenous Network Circle (INC) will be hosting a weekly Beading Circle for AAFC employees interested in learning how to bead or in working on their own beading projects in a group setting. Orlando Blacksmith, an INC member, will teach basic beading techniques, and attendees will be able to choose a pattern or create their own. Patterns and beading materials will be provided.</p>\n<p>The first gathering will take place on Monday, February 10, at NHCAP. The Beading Circle will occur every Monday until April 27. Meeting locations will alternate every week between the T6 Cafeteria, at NHCAP, and Building 74.</p>\n<p>Employees are encouraged to reserve their spot in the Beading Circle by emailing Orlando at <a href=\"mailto:orlando.blacksmith@canada.ca\">orlando.blacksmith@canada.ca</a>. In your email, please indicate your level of beading experience.</p>\n<h2><strong>Event information</strong></h2>\n<p><strong>Date: </strong>Every Monday, from February 10 to April 27<br>\n<strong>Time: </strong>12:00 p.m. to 1:00 p.m. (ET)<br>\n<strong>Locations: </strong>T6 Cafeteria (NHCAP) / Building 74, National Capital Commission Scenic Driveway, Central Experimental Farm, Ottawa</p>\n<p>As the Beading Circle will take place over lunch hour, employees are encouraged to bring their lunches.</p>\n<p>Please visit the <a href=\"https://collab.agr.gc.ca/co/acn-crea/SitePages/Calendar.aspx\">Indigenous Network Circle calendar page</a> for the first gathering agenda and weekly beading circle schedule.</p>\n<h2><strong>Host biography</strong></h2>\n<p>Orlando Blacksmith is a fourth-year undergraduate student at the University of Ottawa. He is originally from the Cree First Nation of Waswanipi, in Quebec. Beading for just over two years, Orlando has found a passion for this art form while improving his skills over time. Growing up on a reservation, Orlando was expected to learn traditional skills associated to men such as hunting, fishing, and trapping. In his adult years, he has learned to take great joy in learning aspects of his culture to which he was isolated by gendered stereotypes, such as beading, sewing, and cooking.<strong> </strong>Beading has become one of his favorite hobbies and is the perfect way for him to express himself artistically.</p>\n<p><img src=\"https://intranet.agr.gc.ca/resources/prod/news/images/IndigenousNetworkCircleBanner-EN.png\" class=\"center-block\" alt=\"\"></p>\n\n\t\t",
        "fr": "<br>\n<br>\n<p>Le Cercle de r\u00e9seautage des employ\u00e9s autochtones (CREA) tiendra un cercle de perlage hebdomadaire pour les employ\u00e9s d\u2019AAC qui souhaitent apprendre \u00e0 faire du perlage ou encore travailler \u00e0 leurs propres projets de perlage en bonne compagnie. Orlando Blacksmith, un membre du CREA, enseignera les techniques de base du perlage, et les participants pourront choisir un patron ou cr\u00e9er leur propre motif. Les patrons et le mat\u00e9riel de perlage seront fournis.</p>\n<p>La premi\u00e8re rencontre aura lieu le lundi 10 f\u00e9vrier \u00e0 CACPA. Le cercle de perlage se r\u00e9unira tous les lundis jusqu\u2019au 27 avril. Le lieu des rencontres alternera entre la caf\u00e9t\u00e9ria de la T6, au CACPA, et le b\u00e2timent 74.</p>\n<p>Vous \u00eates encourag\u00e9s \u00e0 r\u00e9server votre place au sein du cercle de perlage en \u00e9crivant \u00e0 Orlando \u00e0 <a href=\"mailto:orlando.blacksmith@canada.ca\">orlando.blacksmith@canada.ca</a>. Dans votre courriel, veuillez pr\u00e9ciser votre exp\u00e9rience du perlage.</p>\n<h2><strong>Information sur l\u2019activit\u00e9</strong></h2>\n<p><strong>Date : </strong>Tous les lundis, du 10 f\u00e9vrier au 27 avril <br>\n<strong>Heure : </strong><strong>de 12 h \u00e0 13 h</strong> (HE)<br>\n<strong>Emplacement : </strong>Caf\u00e9t\u00e9ria de la T6 (CACPA) / B\u00e2timent 74, promenade de la Ferme exp\u00e9rimentale centrale, Ottawa</p>\n<p>Comme le cercle de r\u00e9seautage se r\u00e9unira \u00e0 l\u2019heure du lunch, vous \u00eates encourag\u00e9s \u00e0 apporter votre repas.</p>\n<p>Consultez le <a href=\"https://collab.agr.gc.ca/co/acn-crea/SitePages/Calendar.aspx\">calendrier du Cercle de r\u00e9seautage des employ\u00e9s autochtones</a> pour voir l\u2019ordre du jour de la premi\u00e8re rencontre et l\u2019horaire des rencontres du cercle de r\u00e9seautage.</p>\n<h2><strong>Biographie de l\u2019animateur</strong></h2>\n<p>Orlando Blacksmith est un \u00e9tudiant de quatri\u00e8me ann\u00e9e \u00e0 l\u2019Universit\u00e9 d\u2019Ottawa. Il appartient \u00e0 la Premi\u00e8re nation crie de Waswanipi, au Qu\u00e9bec. Lorsqu\u2019il a appris \u00e0 perler il y a \u00e0 peine deux ans, Orlando s\u2019est d\u00e9couvert une passion pour cet art, auquel il se perfectionne depuis lors. Sur la r\u00e9serve o\u00f9 il a grandi, on s\u2019attendait \u00e0 ce qu\u2019Orlando acqui\u00e8re le savoir\u2011faire traditionnel associ\u00e9 aux hommes, par exemple la chasse, la p\u00eache et le trappage. Depuis son passage \u00e0 l\u2019\u00e2ge adulte cependant, Orlando \u00e9prouve beaucoup de plaisir \u00e0 apprendre des aspects de sa culture dont l\u2019ont \u00e9cart\u00e9 les st\u00e9r\u00e9otypes sexosp\u00e9cifiques, par exemple le perlage, la couture et la cuisine. Devenu un de ses passe-temps favoris, le perlage repr\u00e9sente pour lui le moyen par excellence d\u2019exprimer sa fibre artistique.</p>\n<p><img src=\"https://intranet.agr.gc.ca/resources/prod/news/images/IndigenousNetworkCircle-FR.png\" class=\"center-block\"></p>\n\t\t"
    },
    "breadcrumb": {
        "en": "NCR - Weekly Beading Circle - NHCAP and Farm",
        "fr": "RCN - Cercle de perlage hebdomadaire - CACPA et Ferme exp\u00e9rimentale"
    },
    "news": {
        "date_posted": {
            "en": "2020-02-06",
            "fr": "2020-02-06"
        },
        "to": {
            "en": "NCR only",
            "fr": "RCN seulement"
        },
        "by": {
            "en": "Indigenous Network Circle",
            "fr": "Cercle de r\u00e9seautage des employ\u00e9s autochtones"
        }
    }
}