{
    "dcr_id": "1580223807903",
    "lang": "en",
    "title": {
        "en": "Reminder - International Day for Women and Girls in Science - February 11",
        "fr": "Rappel - La Journ\u00e9e internationale des femmes et des filles de science - le 11 f\u00e9vrier"
    },
    "modified": "2020-02-06 00:00:00.0",
    "issued": "2020-01-30 00:00:00.0",
    "type_name": "intra-intra/news-nouv",
    "node_id": "1279030006975",
    "layout_name": null,
    "dc_date_created": "2020-01-28",
    "breadcrumb_label": "",
    "meta": {
        "issued": {
            "en": "2020-01-30",
            "fr": "2020-01-30"
        },
        "modified": {
            "en": "2020-02-06",
            "fr": "2020-02-06"
        },
        "format": {
            "en": "gcformat",
            "fr": "gcformat"
        },
        "title": {
            "en": "Reminder - International Day for Women and Girls in Science - February 11",
            "fr": "Rappel - La Journ\u00e9e internationale des femmes et des filles de science - le 11 f\u00e9vrier"
        },
        "subject": {
            "en": "communications",
            "fr": "communications"
        },
        "description": {
            "en": "February 11 is the International Day for Women and Girls in Science, which is an opportunity to recognize the critical role that women and girls can play in society through their participation in science and technology communities.",
            "fr": "Le 11 f\u00e9vrier est la Journ\u00e9e internationale des femmes et des filles de science."
        },
        "language": {
            "en": "eng",
            "fr": "fra"
        },
        "audience": {
            "en": "gcaudience",
            "fr": "gcaudience"
        },
        "creator": {
            "en": "Agriculture and Agri-Food Canada",
            "fr": "Agriculture et Agroalimentaire Canada"
        },
        "spatial": {
            "en": "gcregions",
            "fr": "gcregions"
        },
        "service": {
            "en": "AAFC_AgriSource",
            "fr": "AAC_AgriSource"
        },
        "accessRights": {
            "en": "3",
            "fr": "3"
        }
    },
    "body": {
        "en": "<br>\n<br>\n<p>February 11 is the International Day for Women and Girls in Science, which is an opportunity to recognize the critical role that women and girls can play in society through their participation in science and technology communities. 2020 is also International Year of Plant Health, which is an area of research marked by significant contributions from AAFC\u2019s women scientists. To celebrate, the Women in Science Network has invited a guest speaker to present on the impact of implicit bias on women in science.</p>\n<p>Join us as we explore the science behind implicit bias and what we need to know about how implicit bias impacts women in science, technology, engineering, and mathematics (STEM). The session is open to all those who have an interest in this multifaceted and evolving topic.</p>\n<h2><strong>Event Information</strong></h2>\n<p><strong>Date and Time:</strong> Tuesday February 11, 2020 | 1:00 to 2:30 p.m. ET<br><strong>Language:</strong> English<br><strong>Location:</strong></p>\n<ul>\n<li>Guelph: Boardroom S146 (Guelph Research and Development Centre)</li>\n<li>Ottawa: T5-3-211 (NHCAP)</li>\n</ul>\n<p><strong>Teleconference:</strong> 1-855-470-7641 |\u00a0Conference ID 611529230#<br><strong>Videoconference:</strong> 611529230</p>\n<h2><strong>Speaker biography</strong></h2>\n<p>Fiona Rawle has a Ph.D. in Pathology and Molecular Medicine and is the Associate Dean, Undergraduate, at the University of Toronto Mississauga, and an Associate Professor, Teaching Stream, in the Department of Biology. Her research focuses on public communication of science, science education, and the science of learning. She has received numerous awards focused on teaching, including the University of Toronto\u2019s President\u2019s Teaching Award. Dr. Rawle is also a member of the University\u2019s Toronto Initiative for Diversity and Excellence group, through which she gives lectures and workshops on unconscious bias, equity, and diversity.</p>\n<h2><strong>More ways to celebrate women in STEM</strong></h2>\n<ul>\n<li>Attend the National Research Council of Canada\u2019s <a href=\"http://outreach-nrc.canada.ca/T/OFSYS/SM2/249/2/S/F/6391/1086619/zVuoyDc6/743182.html\">Celebrating Government of Canada Women in STEM Symposium</a> on February 11 from 9:00 a.m. to 12:00 p.m. at 100 Sussex Drive, Ottawa</li>\n<li>Display AAFC\u2019s posters: <a href=\"https://collab.agr.gc.ca/co/wis-fes/Documents/Resources/WIS%20Poster%20-%20Fiche%20d'FES.PDF\">Women in Science Past and Present</a>\u00a0(PDF) and <a href=\"https://collab.agr.gc.ca/co/wis-fes/Documents/Resources/Women%20CPS%20Poster%20July%202019%20FINAL.pptx\">In the Footsteps of Dr. Margaret Newton: Women Plant Pathologists Leading the Canadian Phytopathology Society</a>\u00a0(PPT)</li>\n<li>Contribute to the Women in Science Network\u2019s <a href=\"https://collab.agr.gc.ca/co/wis-fes/SitePages/Wikipedia.aspx\">Wikipedia project</a> and share the completed profiles on social media</li>\n<li>Read and share stories of <a href=\"http://www.science.gc.ca/eic/site/063.nsf/eng/h_97413.html\">Canadian STEM femmes</a>: women working in science, technology, engineering, and math</li>\n</ul>\n<p>Visit the <a href=\"https://collab.agr.gc.ca/co/wis-fes/SitePages/Home.aspx\">Women in Science Network Knowledge Workspace page</a> and the <a href=\"https://collab.agr.gc.ca/co/eedi-emedi/SitePages/Home.aspx\">Diversity and Inclusion Knowledge Workspace page</a> to learn more about AAFC\u2019s diversity networks and their upcoming events.</p>\n<p><img src=\"https://intranet.agr.gc.ca/resources/prod/news/images/WomenInScience-EN2019.png\" class=\"center-block\"></p>\n\n\t\t",
        "fr": "<br>\n<br>\n<p>Le 11 f\u00e9vrier est la Journ\u00e9e internationale des femmes et des filles de science. C\u2019est une occasion de reconna\u00eetre le r\u00f4le important que ces derni\u00e8res peuvent jouer dans la soci\u00e9t\u00e9 par leur participation aux milieux scientifique et technologique. 2020 est aussi l\u2019Ann\u00e9e internationale de la sant\u00e9 des v\u00e9g\u00e9taux, un domaine de recherche marqu\u00e9 par d\u2019importantes contributions des femmes scientifiques d\u2019AAC. Pour c\u00e9l\u00e9brer l\u2019\u00e9v\u00e9nement, le R\u00e9seau des femmes en sciences a invit\u00e9 une conf\u00e9renci\u00e8re qui nous parlera des r\u00e9percussions des pr\u00e9jug\u00e9s implicites sur les femmes en sciences.</p>\n<p>Venez-vous renseigner sur les fondements scientifiques des pr\u00e9jug\u00e9s implicites et les cons\u00e9quences des pr\u00e9jug\u00e9s implicites pour les femmes en sciences, en technologie, en ing\u00e9nierie et en math\u00e9matiques (STIM). La s\u00e9ance est ouverte \u00e0 tous ceux qui s\u2019int\u00e9ressent \u00e0 ce sujet complexe en pleine \u00e9volution.</p>\n<h2><strong>Renseignements sur l\u2019activit\u00e9</strong></h2>\n<p><strong>Date et heure :</strong> Mardi 11 f\u00e9vrier 2020 | 13 h \u00e0 14 h 30 (HE)<br><strong>Langue :</strong> Anglais<br><strong>Lieu :</strong></p>\n<ul>\n<li>Guelph : Salle de conf\u00e9rence S146 (Centre de recherche et de d\u00e9veloppement de Guelph)</li>\n<li>Ottawa : salle T5-3-211 (CACPA)</li>\n</ul>\n<p><strong>T\u00e9l\u00e9conf\u00e9rence :</strong> 1-855-470-7641 |\u00a0num\u00e9ro de r\u00e9union 611529230#<br><strong>Vid\u00e9oconf\u00e9rence :</strong> 611529230</p>\n<h2><strong>Notice biographique de la conf\u00e9renci\u00e8re</strong></h2>\n<p>Fiona Rawle est titulaire d\u2019un doctorat en pathologie et en m\u00e9decine mol\u00e9culaire. Elle est doyenne associ\u00e9e des \u00e9tudes de premier cycle \u00e0 l\u2019Universit\u00e9 de Toronto \u00e0 Mississauga et professeure adjointe (volet enseignement) au D\u00e9partement de biologie de cette universit\u00e9. Ses travaux de recherche portent sur la communication publique de la science, l\u2019enseignement des sciences et la science de l\u2019apprentissage. Elle a re\u00e7u de nombreux prix d\u2019enseignement, notamment le President\u2019s Teaching Award de l\u2019Universit\u00e9 de Toronto. Mme Rawle est aussi membre du groupe TIDE (Toronto Initiative for Diversity &amp; Excellence) de l\u2019Universit\u00e9 de Toronto, une tribune qui lui permet de pr\u00e9senter des expos\u00e9s et d\u2019animer des ateliers sur les pr\u00e9jug\u00e9s inconscients, l\u2019\u00e9quit\u00e9 et la diversit\u00e9.</p>\n<h2><strong>Aidez-nous \u00e0 passer le mot des femmes en STIM</strong></h2>\n<ul>\n<li>Participez au <a href=\"http://outreach-nrc.canada.ca/T/OFSYS/SM2/249/2/S/F/6391/1086619/zVuoyDc6/743182.html\">Symposium mettant \u00e0 l\u2019honneur les femmes en STIM</a> du Conseil national de recherches du Canada le 11 f\u00e9vrier, de 9 h \u00e0 12 h, au 100, promenade Sussex, \u00e0 Ottawa.</li>\n<li>Placez les affiches d\u2019AAC : <a href=\"https://collab.agr.gc.ca/co/wis-fes/Documents/Resources/WIS%20Poster%20-%20Fiche%20d'FES.PDF\">Femmes en science, hier et aujourd\u2019hui</a>\u00a0(PDF) et <a href=\"https://collab.agr.gc.ca/co/wis-fes/Documents/Resources/Women%20CPS%20Poster%20July%202019%20FINAL%20FR.pptx\">Marcher sur les traces de Margaret Newton : <em>Les femmes phytopathologistes \u00e0 la t\u00eate de la Soci\u00e9t\u00e9 canadienne de phytopathologie</em></a>\u00a0(PPT)</li>\n<li>Contribuez au <a href=\"https://collab.agr.gc.ca/co/wis-fes/SitePages/Wikipedia.aspx\">projet Wikip\u00e9dia</a> du R\u00e9seau des femmes en science et diffusez les profils qui sont complets sur les m\u00e9dias sociaux.</li>\n<li>Lisez et partagez les articles sur <a href=\"http://www.science.gc.ca/eic/site/063.nsf/fra/h_97413.html\">Les Canadiennes dans le domaine des STIM</a> : des femmes qui travaillent en science, en technologie, en ing\u00e9nierie et en math\u00e9matique.</li>\n</ul>\n<p>Consultez le site du <a href=\"https://collab.agr.gc.ca/co/wis-fes/SitePages/Home.aspx\">R\u00e9seau des femmes en science</a> et celui de la <a href=\"https://collab.agr.gc.ca/co/eedi-emedi/SitePages/Home.aspx\">diversit\u00e9 et l\u2019inclusivit\u00e9</a> dans l\u2019Espace de travail du savoir pour d\u00e9couvrir les r\u00e9seaux de la diversit\u00e9 d\u2019AAC et les activit\u00e9s \u00e0 venir.</p>\n<p><img src=\"https://intranet.agr.gc.ca/resources/prod/news/images/WomenInScience-FR2019.png\" class=\"center-block\"></p>\n\t\t"
    },
    "breadcrumb": {
        "en": "Reminder - International Day for Women and Girls in Science - February 11",
        "fr": "Rappel - La Journ\u00e9e internationale des femmes et des filles de science - le 11 f\u00e9vrier"
    },
    "news": {
        "date_posted": {
            "en": "2020-01-28",
            "fr": "2020-01-28"
        },
        "to": {
            "en": "All staff",
            "fr": "Tous les employ\u00e9s"
        },
        "by": {
            "en": "Women in Science Network",
            "fr": "R\u00e9seau des femmes en sciences"
        }
    }
}