{
    "dcr_id": "1581350914399",
    "lang": "en",
    "title": {
        "en": "Reminder - Scheduled Maintenance of ISB Services Including Email - February 20-23",
        "fr": "Rappel - Entretien pr\u00e9vu des services de la DGSI, y compris le courriel - Du 20 au 23 f\u00e9vrier"
    },
    "modified": "2020-02-19 00:00:00.0",
    "issued": "2020-02-13 00:00:00.0",
    "type_name": "intra-intra/news-nouv",
    "node_id": "1279030006975",
    "layout_name": null,
    "dc_date_created": "2020-02-11",
    "breadcrumb_label": "",
    "meta": {
        "issued": {
            "en": "2020-02-13",
            "fr": "2020-02-13"
        },
        "modified": {
            "en": "2020-02-19",
            "fr": "2020-02-19"
        },
        "format": {
            "en": "gcformat",
            "fr": "gcformat"
        },
        "title": {
            "en": "Reminder - Scheduled Maintenance of ISB Services Including Email - February 20-23",
            "fr": "Rappel - Entretien pr\u00e9vu des services de la DGSI, y compris le courriel - Du 20 au 23 f\u00e9vrier"
        },
        "subject": {
            "en": "communications",
            "fr": "communications"
        },
        "description": {
            "en": "Please be advised that preventative maintenance of ISB services will be performed between Thursday, February 20, and Sunday, February 23.",
            "fr": "Veuillez noter qu'un entretien pr\u00e9ventif des services de la DGSI sera effectu\u00e9 entre le jeudi 20 f\u00e9vrier et le dimanche 23 f\u00e9vrier."
        },
        "language": {
            "en": "eng",
            "fr": "fra"
        },
        "audience": {
            "en": "gcaudience",
            "fr": "gcaudience"
        },
        "creator": {
            "en": "Agriculture and Agri-Food Canada",
            "fr": "Agriculture et Agroalimentaire Canada"
        },
        "spatial": {
            "en": "gcregions",
            "fr": "gcregions"
        },
        "service": {
            "en": "AAFC_AgriSource",
            "fr": "AAC_AgriSource"
        },
        "accessRights": {
            "en": "3",
            "fr": "3"
        }
    },
    "body": {
        "en": "<br>\n<br>\n<p>Please be advised that preventative maintenance of ISB services will be performed between Thursday, February 20, and Sunday, February 23.<br>\n<br>\nThe following downtime is part of a management plan to upgrade our infrastructure systems. These measures are performed regularly to improve performance and to ensure that the department does not experience any outages that would affect employees and the delivery of our services.<br>\n<br>\nConsequently, the following services may not be available during the following periods:<br>\n<br>\n<strong>Thursday, </strong><strong>February 20 \u20131:00 a.m. until 6:00 a.m. (ET)</strong></p>\n<ul>\n<li>AgriApps</li>\n</ul>\n<p><strong>Saturday, </strong><strong>February 21 \u2013 8:00 p.m. until Saturday, February 22 - 1:00 p.m. (ET)</strong></p>\n<ul>\n<li>PeopleSoft</li>\n</ul>\n<p><strong>Saturday, </strong><strong>February 22 \u2013 1:00 a.m. until 6:00 a.m. (ET)</strong></p>\n<ul>\n<li>Cognos Business Intelligence Gateway</li>\n<li>AgriDOC</li>\n</ul>\n<p><strong>Saturday, </strong><strong>February 22 \u2013 8:00 p.m. until Sunday, February 23 - 2:00 p.m. (ET)</strong></p>\n<ul>\n<li>Email Services</li>\n<li>Email Services Delivery Portal</li>\n</ul>\n<p><strong>Note:</strong> We expect up to four 30-second outages during this period</p>\n<p><strong>Sunday, </strong><strong>February 23 \u2013 3:00 a.m. until 8:00 a.m. (ET)</strong></p>\n<ul>\n<li>Cognos Business Intelligence Gateway</li>\n</ul>\n<p>Please click <a rel=\"external\" href=\"https://collab.agr.gc.ca/co/ccc/Documents/Change%20Management/CCC%20Communications/Communications_2020/CCC_Communications-FEB_20-26_Maintenance_EN.doc\">here</a>\u00a0for a complete listing of affected services during these periods. </p>\n<p>Should you have any questions or concerns, please do not hesitate to contact IT Centre TI.</p>\n<p><strong><br>IT Centre TI</strong><br>\nTelephone: 1-855-545-4411<br>\n<a href=\"http://myitcentreti-monitcentreti/\">My IT Centre TI</a></p>\n<p><img src=\"https://intranet.agr.gc.ca/resources/prod/news/images/ITCentreTI2.png\" class=\"center-block\"></p>\n\n\t\t",
        "fr": "<br>\n<br>\n<p>Veuillez noter qu\u2019un entretien pr\u00e9ventif des services de la DGSI sera effectu\u00e9 entre le jeudi 20 f\u00e9vrier et le dimanche 23 f\u00e9vrier.<br>\n<br>\nLes interruptions suivantes sont pr\u00e9vues dans le cadre d\u2019un plan de gestion visant la mise \u00e0 niveau de nos syst\u00e8mes d\u2019infrastructure. Ces mesures sont prises r\u00e9guli\u00e8rement afin d\u2019am\u00e9liorer le rendement et d\u2019\u00e9viter que le Minist\u00e8re subisse des pannes qui pourraient nuire aux employ\u00e9s et \u00e0 la prestation de nos services.<br>\n<br>\nPar cons\u00e9quent, les services indiqu\u00e9s ci-dessous pourraient ne pas \u00eatre accessibles pendant les p\u00e9riodes indiqu\u00e9es :<br>\n<br>\n<strong>Le jeudi 20 f\u00e9vrier, de 1 h \u00e0 6 h (HE)</strong></p>\n<ul>\n<li>AgriApps</li>\n</ul>\n<p><strong><b>Du vendredi 21 f\u00e9vrier \u00e0 20 h jusqu\u2019au samedi 22 f\u00e9vrier \u00e0 13 h (HE)</b></strong></p>\n<ul>\n<li>PeopleSoft</li>\n</ul>\n<p><strong>Le samedi 22 f\u00e9vrier \u2013 1 h \u00e0\u00a06 h (HE)</strong></p>\n<ul>\n<li>Portail d\u2019information de gestion Cognos</li>\n<li>AgriDOC</li>\n</ul>\n<p><strong>De 20 h le samedi 22 f\u00e9vrier \u00e0 14 h le dimanche 23 f\u00e9vrier (HE)</strong></p>\n<ul>\n<li>Services de courriel</li>\n<li>Portail de services de courrier \u00e9lectronique</li>\n</ul>\n<p><strong>Remarque :</strong> Nous pr\u00e9voyons jusqu'\u00e0 quatre interruptions de 30 secondes pendant cette p\u00e9riode.</p>\n<p><strong>Le dimanche 23 f\u00e9vrier, de 3 h \u00e0 8 h (HE)</strong></p>\n<ul>\n<li>Portail d\u2019information de gestion Cognos</li>\n</ul>\n<p>Cliquez <a rel=\"external\" href=\"https://collab.agr.gc.ca/co/ccc/Documents/Change%20Management/CCC%20Communications/Communications_2020/CCC_Communications-FEB_20-26_Maintenance_FR_AAFC-200213-9.doc\">ici</a>\u00a0pour voir la liste compl\u00e8te des services touch\u00e9s au cours de ces p\u00e9riodes.</p>\n<p>Si vous avez des questions ou des pr\u00e9occupations \u00e0 ce sujet, n\u2019h\u00e9sitez pas \u00e0 communiquer avec le Centre TI.</p>\n<p><strong><br>IT Centre TI</strong><br>\nT\u00e9l\u00e9phone : 1-855-545-4411<br>\n<a href=\"http://myitcentreti-monitcentreti/\">Mon IT Centre TI</a></p>\n<p><img src=\"https://intranet.agr.gc.ca/resources/prod/news/images/ITCentreTI2.png\" class=\"center-block\"></p>\n\t\t"
    },
    "breadcrumb": {
        "en": "Reminder - Scheduled Maintenance of ISB Services Including Email - February 20-23",
        "fr": "Rappel - Entretien pr\u00e9vu des services de la DGSI, y compris le courriel - Du 20 au 23 f\u00e9vrier"
    },
    "news": {
        "date_posted": {
            "en": "2020-02-13",
            "fr": "2020-02-13"
        },
        "to": {
            "en": "All staff",
            "fr": "Tous les employ\u00e9s"
        },
        "by": {
            "en": "IT Centre TI",
            "fr": "IT Centre TI"
        }
    }
}