{
    "dcr_id": "1582569536379",
    "lang": "en",
    "title": {
        "en": "Reminder - Care for the Caregiver Seminar - March 13",
        "fr": "Rappel - S\u00e9minaire Les soins aux proches aidants - 13 mars"
    },
    "modified": "2020-03-04 00:00:00.0",
    "issued": "2020-02-27 00:00:00.0",
    "type_name": "intra-intra/news-nouv",
    "node_id": "1279030006975",
    "layout_name": null,
    "dc_date_created": "2020-02-24",
    "breadcrumb_label": "",
    "meta": {
        "issued": {
            "en": "2020-02-27",
            "fr": "2020-02-27"
        },
        "modified": {
            "en": "2020-03-04",
            "fr": "2020-03-04"
        },
        "format": {
            "en": "gcformat",
            "fr": "gcformat"
        },
        "title": {
            "en": "Reminder - Care for the Caregiver Seminar - March 13",
            "fr": "Rappel - S\u00e9minaire Les soins aux proches aidants - 13 mars"
        },
        "subject": {
            "en": "communications",
            "fr": "communications"
        },
        "description": {
            "en": "The role of caregiver, while often rewarding, can also take a tremendous toll on individuals, both emotionally and physically.",
            "fr": "Le r\u00f4le de proche aidant, bien qu'il soit souvent gratifiant, peut aussi avoir de graves r\u00e9percussions sur les \u00e9motions et la sant\u00e9 des personnes qui assument ce r\u00f4le."
        },
        "language": {
            "en": "eng",
            "fr": "fra"
        },
        "audience": {
            "en": "gcaudience",
            "fr": "gcaudience"
        },
        "creator": {
            "en": "Agriculture and Agri-Food Canada",
            "fr": "Agriculture et Agroalimentaire Canada"
        },
        "spatial": {
            "en": "gcregions",
            "fr": "gcregions"
        },
        "service": {
            "en": "AAFC_AgriSource",
            "fr": "AAC_AgriSource"
        },
        "accessRights": {
            "en": "3",
            "fr": "3"
        }
    },
    "body": {
        "en": "<br>\n<br>\n<p>The role of caregiver, while often rewarding, can also take a tremendous toll on individuals, both emotionally and physically. It is critical that caregivers look after themselves as well as the person in their care.</p>\n<p>The Women in Science Network invites all AAFC employees to a seminar on caring for the caregiver, hosted by Morneau Shepell, the departmental <a href=\"http://intranet.agr.gc.ca/agrisource/eng/human-resources/employee-and-family-assistance-program?id=1287673689033\">Employee and Family Assistance Program</a> provider. Training materials are\u00a0available on the <a href=\"https://collab.agr.gc.ca/co/wis-fes/SitePages/Home.aspx\">Women in Science Network Knowledge Workspace page</a>.</p>\n<p>This seminar will:</p>\n<ul>\n<li>help participants understand the emotions typically experienced by caregivers</li>\n<li>implement strategies to make caregiving easier</li>\n<li>develop healthy caregiving habits and positive coping skills</li>\n</ul>\n<h2><strong>Event information</strong></h2>\n<p>\n<strong>Date:</strong> Friday, March 13<br><strong>English session:</strong> 12:00 p.m. to 1:00 p.m. ET<br><strong>French session:</strong> 1:30 p.m. to 2:30 p.m. ET<br><strong>Location:</strong> Ottawa - NHCAP T5-3-251<br><br><strong>Teleconference: </strong>613-729-5408 OR 1-855-470-7641, conference ID 611556891#<br><strong>Videoconference:</strong> 611556891</p>\n<p>Visit the Women in Science Network Knowledge Workspace page and the <a href=\"https://collab.agr.gc.ca/co/eedi-emedi/SitePages/Home.aspx\">Diversity and Inclusion Knowledge Workspace page</a> to learn more about AAFC\u2019s diversity networks and their upcoming events.</p>\n<p><img src=\"https://intranet.agr.gc.ca/resources/prod/news/images/WomenInScience-EN2019.png\" class=\"center-block\"></p>\n\n\t\t",
        "fr": "<br>\n<br>\n<p>Le r\u00f4le de proche aidant, bien qu\u2019il soit souvent gratifiant, peut aussi avoir de graves r\u00e9percussions sur les \u00e9motions et la sant\u00e9 des personnes qui assument ce r\u00f4le. Il est essentiel que les proches aidants prennent autant soin d\u2019eux que de la personne \u00e0 qui ils prodiguent des soins.</p>\n<p>Le R\u00e9seau des femmes en science invite tous les employ\u00e9s d\u2019AAC \u00e0 un s\u00e9minaire sur les soins aux proches aidants donn\u00e9 par Morneau Shepell, le fournisseur du <a href=\"http://intranet.agr.gc.ca/agrisource/fra/ressources-humaines/programme-daide-aux-employes-et-a-la-famille?id=1287673689033\">Programme d'aide aux employ\u00e9s et \u00e0 la famille</a> du Minist\u00e8re. Vous trouverez du mat\u00e9riel de formation sur la <a href=\"https://collab.agr.gc.ca/co/wis-fes/SitePages/Home.aspx\">page du R\u00e9seau des femmes en science dans l'Espace de travail du savoir</a>.</p>\n<p>Ce s\u00e9minaire permettra aux participants :</p>\n<ul>\n<li>de comprendre les \u00e9motions qu\u2019\u00e9prouvent habituellement les aidants naturels</li>\n<li>de mettre en \u0153uvre des strat\u00e9gies qui facilitent la prestation de soins</li>\n<li>d\u2019adopter de bonnes habitudes en mati\u00e8re de prestation de soins et d\u00e9velopper des strat\u00e9gies d\u2019adaptation positives</li>\n</ul>\n<h2><strong>Renseignements sur les activit\u00e9s</strong></h2>\n<p>\n<strong>Date :</strong> Le vendredi 13 mars<br><strong>S\u00e9ances en anglais :</strong> De 12 h \u00e0 13 h (HE)<br><strong>S\u00e9ance en fran\u00e7ais :</strong> De 13 h 30 \u00e0 14 h 30 (HE)<br><strong>Lieu :</strong> Ottawa \u2013 CACPA T5-3-251</p>\n<p><strong>T\u00e9l\u00e9conf\u00e9rence : </strong>613-729-5408 OU 1-855-470-7641, ID de la conf\u00e9rence 611556891#<br><strong>Vid\u00e9oconf\u00e9rence :</strong> 611556891</p>\n<p>Visitez la page du R\u00e9seau des femmes en science et la <a href=\"https://collab.agr.gc.ca/co/eedi-emedi/SitePages/Home.aspx\">page Diversit\u00e9 et inclusion</a> dans l\u2019Espace de travail du savoir pour en savoir plus sur les r\u00e9seaux de la diversit\u00e9 d\u2019AAC et leurs prochaines activit\u00e9s.</p>\n<p><img src=\"https://intranet.agr.gc.ca/resources/prod/news/images/WomenInScience-FR2019.png\" class=\"center-block\"></p>\n\t\t"
    },
    "breadcrumb": {
        "en": "Reminder - Care for the Caregiver Seminar - March 13",
        "fr": "Rappel - S\u00e9minaire Les soins aux proches aidants - 13 mars"
    },
    "news": {
        "date_posted": {
            "en": "2020-03-02",
            "fr": "2020-03-02"
        },
        "to": {
            "en": "All staff",
            "fr": "Tous les employ\u00e9s"
        },
        "by": {
            "en": "Women in Science Network",
            "fr": "R\u00e9seau des femmes en science"
        }
    }
}