{
    "dcr_id": "1583189380585",
    "lang": "en",
    "title": {
        "en": "Call for Nominations: Institute of Public Administration of Canada 2020 Vanier Medal - Deadline is March 31",
        "fr": "Appel \u00e0 la mise en candidature : la M\u00e9daille Vanier 2020 de l'Institut d'administration publique du Canada \u2013 Date limite est le 31 mars"
    },
    "modified": "2020-03-05 00:00:00.0",
    "issued": "2020-03-05 00:00:00.0",
    "type_name": "intra-intra/news-nouv",
    "node_id": "1279030006975",
    "layout_name": null,
    "dc_date_created": "2020-03-03",
    "breadcrumb_label": "Call for Nominations: Institute of Public Administration of Canada 2020 Vanier Medal - Deadline...",
    "meta": {
        "issued": {
            "en": "2020-03-05",
            "fr": "2020-03-05"
        },
        "modified": {
            "en": "2020-03-05",
            "fr": "2020-03-05"
        },
        "format": {
            "en": "gcformat",
            "fr": "gcformat"
        },
        "title": {
            "en": "Call for Nominations: Institute of Public Administration of Canada 2020 Vanier Medal - Deadline is March 31",
            "fr": "Appel \u00e0 la mise en candidature : la M\u00e9daille Vanier 2020 de l'Institut d'administration publique du Canada \u2013 Date limite est le 31 mars"
        },
        "subject": {
            "en": "communications",
            "fr": "communications"
        },
        "description": {
            "en": "Nominations are now being accepted for the 2020 Vanier Medal of the Institute of Public Administration of Canada (IPAC).",
            "fr": "Les mises en candidature pour la M\u00e9daille Vanier 2020 de l'Institut d'administration publique du Canada (IAPC) sont maintenant accept\u00e9es."
        },
        "language": {
            "en": "eng",
            "fr": "fra"
        },
        "audience": {
            "en": "gcaudience",
            "fr": "gcaudience"
        },
        "creator": {
            "en": "Agriculture and Agri-Food Canada",
            "fr": "Agriculture et Agroalimentaire Canada"
        },
        "spatial": {
            "en": "gcregions",
            "fr": "gcregions"
        },
        "service": {
            "en": "AAFC_AgriSource",
            "fr": "AAC_AgriSource"
        },
        "accessRights": {
            "en": "3",
            "fr": "3"
        }
    },
    "body": {
        "en": "<br>\n<br>\n<p>Nominations are now being accepted for the 2020 Vanier Medal of the Institute of Public Administration of Canada (IPAC). This award is the Institute\u2019s highest honour for public administration achievement.</p>\n<p>Each year, IPAC awards a gold medal as a mark of distinction and exceptional achievement to a Canadian who has shown distinctive leadership throughout their career in public administration in Canada, or who has made a significant contribution in the field of public administration in Canada.</p>\n<p>Take the time to nominate your deserving colleagues! Get inspired by learning about the accomplishments of past recipients. For example, IPAC presented the 2019 Vanier Medal to the City Manager for the City of Mississauga. For 15 years, the City Manager provided steady leadership for the City of Mississauga through challenging times. With a commitment to professionalism, the award recipient exemplified what it means to be a public servant.</p>\n<p>For more information on the eligibility criteria, visit the <a href=\"https://www.ipac.ca/iPAC_EN/Events_Awards/Awards/The_Vanier_Medal/iPAC_EN/Events___Awards/The_Vanier_Medal.aspx?hkey=2f9c1cfa-548b-4696-8c05-de1185d475a7\">IPAC website</a>. To present a nomination, complete the <a href=\"https://form.jotform.com/82663847518267\">online application form</a> and submit to IPAC, with a copy sent to the Awards and Recognition team (<a href=\"mailto:aafc.awards-reconnaissance.aac@canada.ca\">aafc.awards-reconnaissance.aac@canada.ca</a>).</p>\n<p>The deadline for submissions is <strong>March 31, 2020.</strong></p>\n<p><strong><img src=\"https://intranet.agr.gc.ca/resources/prod/news/images/IPAC.png\" class=\"center-block\"></strong></p>\n\n\t\t",
        "fr": "<br>\n<br>\n<p>Les mises en candidature pour la M\u00e9daille Vanier 2020 de l\u2019Institut d\u2019administration publique du Canada (IAPC) sont maintenant accept\u00e9es. Ce prix est la plus haute distinction accord\u00e9e pour les r\u00e9alisations dans le domaine de l\u2019administration publique au Canada.</p>\n<p>Chaque ann\u00e9e, l\u2019IAPC remet une m\u00e9daille d\u2019or \u00e0 un Canadien qui s\u2019est distingu\u00e9 par ses r\u00e9alisations exceptionnelles et son leadership incomparable tout au long de sa carri\u00e8re dans le domaine de l\u2019administration publique ou qui a grandement contribu\u00e9 \u00e0 ce domaine.</p>\n<p>Prenez le temps de soumettre la candidature de vos coll\u00e8gues qui le m\u00e9ritent! Laissez-vous inspirer par les r\u00e9alisations des pr\u00e9c\u00e9dents laur\u00e9ats de ce prix. Par exemple, l\u2019IAPC a remis la M\u00e9daille Vanier de 2019 \u00e0 la directrice g\u00e9n\u00e9rale de la Ville de Mississauga qui, pendant 15 ans, a assur\u00e9 un leadership constant \u00e0 la Ville de Mississauga dans une p\u00e9riode difficile. Gr\u00e2ce \u00e0 son professionnalisme, la laur\u00e9ate a su incarner le fonctionnaire par excellence.</p>\n<p>Pour de plus amples renseignements sur les crit\u00e8res d'admissibilit\u00e9, visitez <a href=\"https://www.ipac.ca/IPAC_FR/Evenements_et_Prix/Prix/Medaille_Vanier/IPAC_FR/Evenements_et_Prix/Medaille_Vanier.aspx?hkey=f578cf0f-1e02-44cc-8a08-d0cf51d01443\">le site Web de l\u2019IAPC</a>. Pour pr\u00e9senter une candidature, remplissez <a href=\"https://form.jotform.com/90554476418262\">le formulaire en ligne de l'IAPC</a> et envoyez-en une copie \u00e0 l\u2019\u00c9quipe des prix et de la reconnaissance (<a href=\"mailto:aafc.awards-reconnaissance.aac@canada.ca\">aafc.awards-reconnaissance.aac@canada.ca</a>).</p>\n<p>La date limite des mises en candidature est le <strong>31 mars 2020.</strong></p>\n<p><strong><img src=\"https://intranet.agr.gc.ca/resources/prod/news/images/IPAC.png\" class=\"center-block\"></strong></p>\n\t\t"
    },
    "breadcrumb": {
        "en": "Call for Nominations: Institute of Public Administration of Canada 2020 Vanier Medal - Deadline...",
        "fr": "Appel \u00e0 la mise en candidature : la M\u00e9daille Vanier 2020 de l'Institut d'administration publique..."
    },
    "news": {
        "date_posted": {
            "en": "2020-03-05",
            "fr": "2020-03-05"
        },
        "to": {
            "en": "All staff",
            "fr": "Tous les employ\u00e9s"
        },
        "by": {
            "en": "Human Resources, Corporate Management Branch",
            "fr": "Ressources humaines, Direction g\u00e9n\u00e9rale de la gestion int\u00e9gr\u00e9e"
        }
    }
}