{
    "dcr_id": "1583950680435",
    "lang": "en",
    "title": {
        "en": "This Week in <em>The Harvest</em> - When Art and Science Collide",
        "fr": "Au menu de <em>La Moisson</em> cette semaine - \u00c0 la confluence des arts et des sciences"
    },
    "modified": "2020-03-12 00:00:00.0",
    "issued": "2020-03-12 00:00:00.0",
    "type_name": "intra-intra/news-nouv",
    "node_id": "1279030006975",
    "layout_name": null,
    "dc_date_created": "2020-03-11",
    "breadcrumb_label": "This Week in The Harvest - When Art and Science Collide",
    "meta": {
        "issued": {
            "en": "2020-03-12",
            "fr": "2020-03-12"
        },
        "modified": {
            "en": "2020-03-12",
            "fr": "2020-03-12"
        },
        "format": {
            "en": "gcformat",
            "fr": "gcformat"
        },
        "title": {
            "en": "This Week in <em>The Harvest</em> - When Art and Science Collide",
            "fr": "Au menu de <em>La Moisson</em> cette semaine - \u00c0 la confluence des arts et des sciences"
        },
        "subject": {
            "en": "communications",
            "fr": "communications"
        },
        "description": {
            "en": "In case you missed it, here's what's new in <em>The Harvest: AAFC's Online Magazine</em> this week.",
            "fr": "Au cas o\u00f9 vous l'auriez manqu\u00e9, voici le menu que la section <em>La Moisson : le magazine en ligne d\u2019AAC</em> vous offre cette semaine."
        },
        "language": {
            "en": "eng",
            "fr": "fra"
        },
        "audience": {
            "en": "gcaudience",
            "fr": "gcaudience"
        },
        "creator": {
            "en": "Agriculture and Agri-Food Canada",
            "fr": "Agriculture et Agroalimentaire Canada"
        },
        "spatial": {
            "en": "gcregions",
            "fr": "gcregions"
        },
        "service": {
            "en": "AAFC_AgriSource",
            "fr": "AAC_AgriSource"
        },
        "accessRights": {
            "en": "3",
            "fr": "3"
        }
    },
    "body": {
        "en": "<br>\n<br>\n<p>In case you missed it, here\u2019s what\u2019s new in <a href=\"https://collab.agr.gc.ca/apps/harvest-moisson\"><em>The Harvest</em><em>: AAFC\u2019s Online Magazine</em></a> this week:</p>\n<p><strong>Feature story:</strong> <a href=\"https://collab.agr.gc.ca/apps/harvest-moisson/\">When Art and Science Collide</a> - You might think art and science have little in common, but projects in Lethbridge are proving otherwise.</p>\n<p><strong>Poll</strong><strong>: </strong><a href=\"https://collab.agr.gc.ca/apps/harvest-moisson/\">What is your favorite sporting event to watch?</a></p>\n<p><strong>Feature photo:</strong> <a href=\"https://collab.agr.gc.ca/apps/harvest-moisson/gallery/Lists/Posts/Post.aspx?ID=412\">Canadian Pacific</a>, by Sanjayan Satchithanantham, Science and Technology Branch, Brandon, Manitoba.</p>\n<p><strong>Did you know?</strong> <a href=\"https://collab.agr.gc.ca/apps/harvest-moisson/Pages/DidYouKnow.aspx\">Corn is in more than 3,000 grocery products.</a></p>\n<p>You can get involved by posting a comment or \u201cliking\u201d an article. You can also check out what your colleagues are liking and saying.</p>\n<p>Should you have story ideas, scenic or artistic agriculture-related photos, or interesting facts, please share them with us by clicking on \u201cContribute\u201d in the top menu bar.</p>\n<p><img src=\"https://intranet.agr.gc.ca/resources/prod/news/images/art-science600.png\" class=\"center-block\"></p>\n\n\t\t",
        "fr": "<br>\n<br>\n<p>Au cas o\u00f9 vous l\u2019auriez manqu\u00e9, voici le menu que la section <a href=\"https://collab.agr.gc.ca/apps/harvest-moisson\"><em>La Moisson</em><em> : le magazine en ligne d\u2019AAC</em></a> vous offre cette semaine :</p>\n<p><strong>Article vedette :</strong> <a href=\"https://collab.agr.gc.ca/apps/harvest-moisson/\">\u00c0 la confluence des arts et des sciences</a> - Si vous pensez que les arts et les sciences n\u2019ont pas grand-chose en commun, certains projets en cours \u00e0 Lethbridge pourraient vous faire changer d\u2019id\u00e9e.</p>\n<p><strong>Sondage : </strong><a href=\"https://collab.agr.gc.ca/apps/harvest-moisson/\">Quel est l\u2019\u00e9v\u00e9nement sportif que vous pr\u00e9f\u00e9rez regarder?</a></p>\n<p><strong>Photo vedette :</strong> <a href=\"https://collab.agr.gc.ca/apps/harvest-moisson/gallery/Lists/Posts/Post.aspx?ID=412\">Canadien Pacifique</a>, par Sanjayan Satchithanantham, Direction g\u00e9n\u00e9rale des sciences et de la technologie, Brandon (Manitoba).</p>\n<p><strong>Le saviez-vous?</strong> <a href=\"https://collab.agr.gc.ca/apps/harvest-moisson/Pages/DidYouKnow.aspx\">Du ma\u00efs entre dans la fabrication de plus de 3 000 produits d\u2019\u00e9picerie.</a></p>\n<p>Vous pouvez participer en affichant des commentaires ou en utilisant la fonction \u00ab J\u2019aime \u00bb ou \u00ab Partager \u00bb pour exprimer votre appr\u00e9ciation d\u2019un article. Vous pouvez aussi aller voir ce que vos coll\u00e8gues aiment et ont \u00e0 dire.</p>\n<p>Si vous avez des id\u00e9es d\u2019articles, des photos de paysages ou \u00e0 caract\u00e8re artistique li\u00e9es \u00e0 l\u2019agriculture ou encore des faits int\u00e9ressants, veuillez nous en faire part en cliquant sur \u00ab Collaborer \u00bb dans la barre de menu en haut de la page.</p>\n<p><img src=\"https://intranet.agr.gc.ca/resources/prod/news/images/art-science600.png\" class=\"center-block\"></p>\n\t\t"
    },
    "breadcrumb": {
        "en": "This Week in The Harvest - When Art and Science Collide",
        "fr": "Au menu de La Moisson cette semaine - \u00c0 la confluence des arts et des sciences"
    },
    "news": {
        "date_posted": {
            "en": "2020-03-12",
            "fr": "2020-03-12"
        },
        "to": {
            "en": "All staff",
            "fr": "Tous les employ\u00e9s"
        },
        "by": {
            "en": "Corporate Communications, Public Affairs Branch",
            "fr": "Communications minist\u00e9rielles, Direction g\u00e9n\u00e9rale des affaires publiques"
        }
    }
}