{
    "dcr_id": "1583422438894",
    "lang": "en",
    "title": {
        "en": "This Week in <em>The Harvest</em> - The Bikes of Sherbrooke",
        "fr": "Au menu de <em>La Moisson</em> cette semaine - Les v\u00e9los de Sherbrooke"
    },
    "modified": "2020-03-05 00:00:00.0",
    "issued": "2020-03-05 00:00:00.0",
    "type_name": "intra-intra/news-nouv",
    "node_id": "1279030006975",
    "layout_name": null,
    "dc_date_created": "2020-03-05",
    "breadcrumb_label": "This Week in The Harvest - The Bikes of Sherbrooke",
    "meta": {
        "issued": {
            "en": "2020-03-05",
            "fr": "2020-03-05"
        },
        "modified": {
            "en": "2020-03-05",
            "fr": "2020-03-05"
        },
        "format": {
            "en": "gcformat",
            "fr": "gcformat"
        },
        "title": {
            "en": "This Week in <em>The Harvest</em> - The Bikes of Sherbrooke",
            "fr": "Au menu de <em>La Moisson</em> cette semaine - Les v\u00e9los de Sherbrooke"
        },
        "subject": {
            "en": "communications",
            "fr": "communications"
        },
        "description": {
            "en": "In case you missed it, here's what's new in <em>The Harvest: AAFC\u2019s Online Magazine</em> this week.",
            "fr": "Au cas o\u00f9 vous l'auriez manqu\u00e9, voici le menu que la section <em>La Moisson : le magazine en ligne d\u2019AAC</em> vous offre cette semaine."
        },
        "language": {
            "en": "eng",
            "fr": "fra"
        },
        "audience": {
            "en": "gcaudience",
            "fr": "gcaudience"
        },
        "creator": {
            "en": "Agriculture and Agri-Food Canada",
            "fr": "Agriculture et Agroalimentaire Canada"
        },
        "spatial": {
            "en": "gcregions",
            "fr": "gcregions"
        },
        "service": {
            "en": "AAFC_AgriSource",
            "fr": "AAC_AgriSource"
        },
        "accessRights": {
            "en": "3",
            "fr": "3"
        }
    },
    "body": {
        "en": "<br>\n<br>\n<p>In case you missed it, here\u2019s what\u2019s new in <a href=\"https://collab.agr.gc.ca/apps/harvest-moisson\"><em>The Harvest</em></a><em>: AAFC\u2019s Online Magazine</em> this week:</p>\n<p><strong>Feature story:</strong> <a href=\"https://collab.agr.gc.ca/apps/harvest-moisson/\">The Bikes of Sherbrooke</a> - The Sherbrooke Research and Development Centre is made up of several buildings scattered over a large area, and staff have to move between them a lot, sometimes transporting materials as well. Marcel Marcoux and Catherine Thibault had a bright idea: if the centre had a fleet of bicycles of various shapes and sizes (including a cargo bike), people could get around without having to resort to gas-powered vehicles. With help from Idea Farm, their vision is now a reality!</p>\n<p><strong>Poll</strong><strong>: </strong><a href=\"https://collab.agr.gc.ca/apps/harvest-moisson/\">What is your favorite sporting event to watch?</a></p>\n<p><strong>Feature photo:</strong> <a href=\"https://collab.agr.gc.ca/apps/harvest-moisson/gallery/Lists/Posts/Post.aspx?ID=411\">Afternoon Sunshine</a>, by Anik Boivin, Science and Technology Branch, Saint-Hyacinthe, Quebec.</p>\n<p><strong>Did you know?</strong> <a href=\"https://collab.agr.gc.ca/apps/harvest-moisson/Pages/didyouknow.aspx\">40,000 servings of tofu or 9,463 liters of soy milk</a> can be made from a soybean field equivalent to the size of two and a half hockey rinks.</p>\n<p>You can get involved by posting a comment or \u201cliking\u201d an article. You can also check out what your colleagues are liking and saying.</p>\n<p>Should you have story ideas, scenic or artistic agriculture-related photos, or interesting facts, please share them with us by clicking on \u201cContribute\u201d in the top menu bar.</p>\n<p><img src=\"https://intranet.agr.gc.ca/resources/prod/news/images/Harvest-bikes.png\" class=\"center-block\"></p>\n\n\t\t",
        "fr": "<br>\n<br>\n<p>Au cas o\u00f9 vous l\u2019auriez manqu\u00e9, voici le menu que la section <a href=\"https://collab.agr.gc.ca/apps/harvest-moisson\"><em>La Moisson</em></a><em> : le magazine en ligne d\u2019AAC</em> vous offre cette semaine :</p>\n<p><strong>Article vedette :</strong> <a href=\"https://collab.agr.gc.ca/apps/harvest-moisson/\">Les v\u00e9los de Sherbrooke</a> - Le Centre de recherche et de d\u00e9veloppement de Sherbrooke est compos\u00e9 de plusieurs immeubles dispers\u00e9s sur une grande surface et le personnel doit souvent se d\u00e9placer entre eux, transportant parfois du mat\u00e9riel. Marcel Marcoux et Catherine Thibault ont eu une brillante id\u00e9e : si le Centre disposait d\u2019un parc de v\u00e9los de diff\u00e9rentes formes et tailles (dont un v\u00e9lo cargo), les gens pourraient se d\u00e9placer sans avoir \u00e0 recourir \u00e0 des v\u00e9hicules \u00e0 essence. Avec l\u2019aide de la P\u00e9pini\u00e8re d\u2019id\u00e9es, leur vision est maintenant une r\u00e9alit\u00e9!</p>\n<p><strong>Sondage : </strong><a href=\"https://collab.agr.gc.ca/apps/harvest-moisson/\">Quel est l\u2019\u00e9v\u00e9nement sportif que vous pr\u00e9f\u00e9rez regarder?</a></p>\n<p><strong>Photo vedette :</strong> <a href=\"https://collab.agr.gc.ca/apps/harvest-moisson/gallery/Lists/Posts/Post.aspx?ID=411\">Apres-midi ensoleill\u00e9</a>, par Anik Boivin, Direction g\u00e9n\u00e9rale des sciences et de la technologie, Saint-Hyacinthe (Qu\u00e9bec).</p>\n<p><strong>Le saviez-vous?</strong> Un champ de soja de la taille de deux patinoires et demie peut produire <a href=\"https://collab.agr.gc.ca/apps/harvest-moisson/Pages/didyouknow.aspx\">40 000 portions de tofu ou 9 463 litres de lait de soja.</a></p>\n<p>Vous pouvez participer en affichant des commentaires ou en utilisant la fonction \u00ab J\u2019aime \u00bb ou \u00ab Partager \u00bb pour exprimer votre appr\u00e9ciation d\u2019un article. Vous pouvez aussi aller voir ce que vos coll\u00e8gues aiment et ont \u00e0 dire.</p>\n<p>Si vous avez des id\u00e9es d\u2019articles, des photos de paysages ou \u00e0 caract\u00e8re artistique li\u00e9es \u00e0 l\u2019agriculture ou encore des faits int\u00e9ressants, veuillez nous en faire part en cliquant sur \u00ab Collaborer \u00bb dans la barre de menu en haut de la page.</p>\n<p><img src=\"https://intranet.agr.gc.ca/resources/prod/news/images/Harvest-bikes.png\" class=\"center-block\"></p>\n\t\t"
    },
    "breadcrumb": {
        "en": "This Week in The Harvest - The Bikes of Sherbrooke",
        "fr": "Au menu de La Moisson cette semaine - Les v\u00e9los de Sherbrooke"
    },
    "news": {
        "date_posted": {
            "en": "2020-03-05",
            "fr": "2020-03-05"
        },
        "to": {
            "en": "All staff",
            "fr": "Tous les employ\u00e9s"
        },
        "by": {
            "en": "Corporate Communications, Public Affairs Branch",
            "fr": "Communications minist\u00e9rielles, Direction g\u00e9n\u00e9rale des affaires publiques"
        }
    }
}