{
    "dcr_id": "1583935515682",
    "lang": "en",
    "title": {
        "en": "Scheduled Maintenance of ISB Services - March 19-22",
        "fr": "Entretien pr\u00e9vu des services de la DGSI - Du 19 au 22 mars"
    },
    "modified": "2020-03-19 00:00:00.0",
    "issued": "2020-03-12 00:00:00.0",
    "type_name": "intra-intra/news-nouv",
    "node_id": "1279030006975",
    "layout_name": null,
    "dc_date_created": "2020-03-11",
    "breadcrumb_label": "",
    "meta": {
        "issued": {
            "en": "2020-03-12",
            "fr": "2020-03-12"
        },
        "modified": {
            "en": "2020-03-19",
            "fr": "2020-03-12"
        },
        "format": {
            "en": "gcformat",
            "fr": "gcformat"
        },
        "title": {
            "en": "Scheduled Maintenance of ISB Services - March 19-22",
            "fr": "Entretien pr\u00e9vu des services de la DGSI - Du 19 au 22 mars"
        },
        "subject": {
            "en": "communications",
            "fr": "communications"
        },
        "description": {
            "en": "Please be advised that preventative maintenance of ISB services will be performed between Thursday, March 19, and Sunday, March 22.",
            "fr": "Veuillez noter qu'un entretien pr\u00e9ventif des services de la DGSI sera effectu\u00e9 entre le jeudi 19 mars et le dimanche 22 mars."
        },
        "language": {
            "en": "eng",
            "fr": "fra"
        },
        "audience": {
            "en": "gcaudience",
            "fr": "gcaudience"
        },
        "creator": {
            "en": "Agriculture and Agri-Food Canada",
            "fr": "Agriculture et Agroalimentaire Canada"
        },
        "spatial": {
            "en": "gcregions",
            "fr": "gcregions"
        },
        "service": {
            "en": "AAFC_AgriSource",
            "fr": "AAC_AgriSource"
        },
        "accessRights": {
            "en": "3",
            "fr": "3"
        }
    },
    "body": {
        "en": "<br>\n<br>\n<p>Please be advised that preventative maintenance of ISB services will be performed between Thursday, March 19, and Sunday, March 22. </p>\n<p>The following downtime is part of a management plan to upgrade our infrastructure systems. These measures are performed regularly to improve performance and to ensure that the department does not experience any outages that would affect employees and the delivery of our services. </p>\n<p>Consequently, the following services may not be available during the following periods: </p>\n<p><b>Thursday, March 19 \u20131:00 a.m. until 6:00 a.m. (ET)</b> </p>\n<ul>\n<li>AgriApps </li>\n</ul>\n<p><b>*Thursday, March 19 \u2013 7:00 p.m. until 10 p.m. (ET) </b></p>\n<ul>\n<li>AgriDoc </li>\n<li>PeopleSoft </li>\n</ul>\n<p><b>Saturday, March 21 \u2013 1:00 a.m. until 6:00 a.m. (ET) </b></p>\n<ul>\n<li>AgriDoc</li>\n<li>ccmEnterprise (including TRECS) </li>\n<li>Skype for Business </li>\n</ul>\n<p><b>Saturday, March 21 \u2013 7:00 a.m. until 12:00 p.m. (ET)</b> </p>\n<ul>\n<li>AAFC Online </li>\n<li>Enterprise Secure Assess Services\u00a0 </li>\n<li>Grants and Contributions Delivery System </li>\n<li>My AAFC Account </li>\n<li>Science and Technology Branch - Monitoring and Reporting System </li>\n</ul>\n<p><b>Sunday, March 22 \u2013 3:00 a.m. until 8:00 a.m. (ET) </b></p>\n<ul>\n<li>Cognos Business Intelligence Gateway (no access to Cognos reports) </li>\n</ul>\n<p><b>*Sunday, March 22 \u2013 7:00 a.m. until 11:00 a.m. (ET) </b></p>\n<ul>\n<li>AgriApps </li>\n<li>Knowledge Workspace\u00a0 </li>\n<li>Skype for Business </li>\n</ul>\n<p>*Please click here for a <a href=\"https://collab.agr.gc.ca/co/ccc/Documents/Change%20Management/CCC%20Communications/Communications_2020/CCC_Communications-Mar_19-25_Maintenance_EN.doc\">complete listing of affected services</a>\u00a0(Word) during these periods. </p>\n<p>Should you have any questions or concerns, please do not hesitate to contact IT Centre TI. </p>\n<p>\u00a0</p>\n<p><strong>IT Centre TI</strong><br>\nTelephone: 1-855-545-4411<br>\n<a href=\"http://myitcentreti-monitcentreti/\">My IT Centre TI</a></p>\n<p><img src=\"https://intranet.agr.gc.ca/resources/prod/news/images/ITCentreTI2.png\" class=\"center-block\"></p>\n\n\t\t",
        "fr": "<br>\n<br>\n<p>Veuillez noter qu\u2019un entretien pr\u00e9ventif des services de la DGSI sera effectu\u00e9 entre le jeudi 19 mars et le dimanche 22 mars.</p>\n<p>Les interruptions suivantes sont pr\u00e9vues dans le cadre d\u2019un plan de gestion visant la mise \u00e0 niveau de nos syst\u00e8mes d\u2019infrastructure. Ces mesures sont prises r\u00e9guli\u00e8rement afin d\u2019am\u00e9liorer le rendement et d\u2019\u00e9viter que le Minist\u00e8re subisse des pannes qui pourraient nuire aux employ\u00e9s et \u00e0 la prestation de nos services.</p>\n<p>Par cons\u00e9quent, les services suivants pourraient ne pas \u00eatre accessibles pendant les p\u00e9riodes indiqu\u00e9es :</p>\n<p><b>Jeudi 19 mars, de 1 h \u00e0 6 h (HE)</b></p>\n<ul>\n<li>AgriApps</li>\n</ul>\n<p><b>*Jeudi 19 mars, de 19 h\u00a0 \u00e0 22 h\u00a0 (HE)</b></p>\n<ul>\n<li>AgriDoc</li>\n<li>PeopleSoft</li>\n</ul>\n<p><b>Samedi 21 mars, de 1 h \u00e0 6 h (HE)</b></p>\n<ul>\n<li>AgriDoc</li>\n<li>ccmEnterprise (y compris le SSRCHD)</li>\n<li>Skype Entreprise</li>\n</ul>\n<p><b>Dimanche 22 mars, de 3 h \u00e0 8 h (HE)</b></p>\n<ul>\n<li>Portail d\u2019information de gestion Cognos (aucun acc\u00e8s aux rapports Cognos)</li>\n</ul>\n<p><b>*Dimanche 22 mars, de 7 h \u00e0 11 h (HE)</b></p>\n<ul>\n<li>AgriApps</li>\n<li>Espace de travail du savoir </li>\n<li>Skype Entreprise</li>\n</ul>\n<p>*Veuillez cliquer ici pour avoir acc\u00e8s \u00e0 <a href=\"https://collab.agr.gc.ca/co/ccc/Documents/Change%20Management/CCC%20Communications/Communications_2020/CCC_Communications-Mar_19-25_Maintenance_FR_AAFC-200303-42.doc\">la liste compl\u00e8te des services touch\u00e9s</a>\u00a0(Word) pendant ces p\u00e9riodes.</p>\n<p>Si vous avez des questions ou des pr\u00e9occupations \u00e0 ce sujet, n\u2019h\u00e9sitez pas \u00e0 communiquer avec le IT Centre TI.</p>\n<p>\u00a0</p>\n<p><strong>IT Centre TI</strong><br>\nT\u00e9l\u00e9phone : 1-855-545-4411<br>\n<a href=\"http://myitcentreti-monitcentreti/\">Mon IT Centre TI</a></p>\n<p><img src=\"https://intranet.agr.gc.ca/resources/prod/news/images/ITCentreTI2.png\" class=\"center-block\"></p>\n\t\t"
    },
    "breadcrumb": {
        "en": "Scheduled Maintenance of ISB Services - March 19-22",
        "fr": "Entretien pr\u00e9vu des services de la DGSI - Du 19 au 22 mars"
    },
    "news": {
        "date_posted": {
            "en": "2020-03-16",
            "fr": "2020-03-16"
        },
        "to": {
            "en": "All staff",
            "fr": "Tous les employ\u00e9s"
        },
        "by": {
            "en": "IT Centre TI",
            "fr": "IT Centre TI"
        }
    }
}