{
    "dcr_id": "1583265983791",
    "lang": "en",
    "title": {
        "en": "Celebrate International Women's Day - March 8",
        "fr": "C\u00e9l\u00e9brez la Journ\u00e9e internationale des femmes - le 8 mars"
    },
    "modified": "2020-03-05 00:00:00.0",
    "issued": "2020-03-05 00:00:00.0",
    "type_name": "intra-intra/news-nouv",
    "node_id": "1279030006975",
    "layout_name": null,
    "dc_date_created": "2020-03-03",
    "breadcrumb_label": "",
    "meta": {
        "issued": {
            "en": "2020-03-05",
            "fr": "2020-03-05"
        },
        "modified": {
            "en": "2020-03-05",
            "fr": "2020-03-05"
        },
        "format": {
            "en": "gcformat",
            "fr": "gcformat"
        },
        "title": {
            "en": "Celebrate International Women's Day - March 8",
            "fr": "C\u00e9l\u00e9brez la Journ\u00e9e internationale des femmes - le 8 mars"
        },
        "subject": {
            "en": "communications",
            "fr": "communications"
        },
        "description": {
            "en": "March 8 is International Women's Day (IWD), which provides us with an opportunity to reflect on the progress we have made towards achieving gender equality, to celebrate those who have paved the way for change, and to consider the work still yet to be done.",
            "fr": "Le 8 mars est la Journ\u00e9e internationale des femmes (JIF), une occasion de r\u00e9fl\u00e9chir aux progr\u00e8s que nous avons accomplis dans la promotion de l\u2019\u00e9galit\u00e9 des genres, de rendre hommage aux personnes qui ont ouvert la voie au changement et d'examiner le travail qui reste \u00e0 faire."
        },
        "language": {
            "en": "eng",
            "fr": "fra"
        },
        "audience": {
            "en": "gcaudience",
            "fr": "gcaudience"
        },
        "creator": {
            "en": "Agriculture and Agri-Food Canada",
            "fr": "Agriculture et Agroalimentaire Canada"
        },
        "spatial": {
            "en": "gcregions",
            "fr": "gcregions"
        },
        "service": {
            "en": "AAFC_AgriSource",
            "fr": "AAC_AgriSource"
        },
        "accessRights": {
            "en": "3",
            "fr": "3"
        }
    },
    "body": {
        "en": "<br>\n<br>\n<p>March 8 is International Women\u2019s Day (IWD), which provides us with an opportunity to reflect on the progress we have made towards achieving gender equality, to celebrate those who have paved the way for change, and to consider the work still yet to be done.</p>\n<p>This year's theme is #BecauseOfYou, which acknowledges activists, advocates, and other changemakers across Canada working to advance gender equality and the rights of women. Because of them, Canada is changing for the better. Canadians from coast to coast to coast are encouraged to use the hashtag #BecauseOfYou to name, honour, and celebrate women in their lives and communities whose work and impact inspires them.</p>\n<h2><strong>How you can celebrate International Women\u2019s Day</strong></h2>\n<ul>\n<li>Participate in the <a href=\"https://www.csps-efpc.gc.ca/events/leadership-series/index-eng.aspx?pk_campaign=Arial486-EN&amp;pk_kwd=women?pk_campaign=Arial483-EN&amp;pk_kwd=women#mar9\">Women Who Lead: Celebrating International Women's Day webcast</a> by the Canada School of Public Service on March 9</li>\n<li>Visit Women and Gender Equality Canada's <a href=\"https://cfc-swc.gc.ca/commemoration/woi-fic/index-en.html\">Women of Impact in Canada page</a> to read up on the many milestones surmounted by women in their quest for equal rights in Canada, as well as stories from activists who are making a difference in their communities</li>\n<li>Use the hashtag #BecauseOfYou on social media and share stories of family members, colleagues, friends, mentors, and community leaders who are helping advance gender equality using the hashtag</li>\n<li>Read about AAFC\u2019s <a href=\"http://www.agr.gc.ca/eng/canadian-agri-food-sector/fields-of-science/dr-julie-brassard/?id=1572979188633\">Dr. Julie Brassard</a> and <a href=\"http://www.agr.gc.ca/eng/canadian-agri-food-sector/fields-of-science/dr-helen-tai/?id=1580138354018\">Dr. Helen Tai</a>, who are trailblazing in their fields of science</li>\n<li>Display AAFC\u2019s <a href=\"https://collab.agr.gc.ca/co/wis-fes/Documents/Resources/WIS%20Poster%20-%20Fiche%20d'FES.PDF%20\">Women in Science Past and Present</a> (PDF) poster in your office</li>\n<li>Donate your time to a local, national, or international organization that supports women and gender equality</li>\n<li>Talk with men and boys about their role as advocates and allies for gender equality</li>\n</ul>\n<p>Visit <a href=\"https://collab.agr.gc.ca/co/eedi-emedi/SitePages/Home.aspx\">Diversity and Inclusion Knowledge Workspace page</a> to learn more about AAFC\u2019s diversity networks, including the Women in Science Network.</p>\n<p><img src=\"https://intranet.agr.gc.ca/resources/prod/news/images/IWD2020-EN.png\" class=\"center-block\"></p>\n<p>\u00a0</p>\n<p>\u00a0</p>\n\n\t\t",
        "fr": "<br>\n<br>\n<p>Le 8 mars est la Journ\u00e9e internationale des femmes (JIF), une occasion de r\u00e9fl\u00e9chir aux progr\u00e8s que nous avons accomplis dans la promotion de l\u2019\u00e9galit\u00e9 des genres, de rendre hommage aux personnes qui ont ouvert la voie au changement et d\u2019examiner le travail qui reste \u00e0 faire.</p>\n<p>Le th\u00e8me de cette ann\u00e9e, #Gr\u00e2ce\u00c0Vous, souligne les efforts que d\u00e9ploient des militantes, des porte\u2011parole et d\u2019autres agentes de changement pour promouvoir l\u2019\u00e9galit\u00e9 des genres et les droits des femmes au Canada. Gr\u00e2ce \u00e0 elles, le Canada change pour le mieux. Les Canadiens de toutes les r\u00e9gions du pays sont encourag\u00e9s \u00e0 utiliser le mot\u2011clic #Gr\u00e2ce\u00c0Vous pour rendre hommage aux femmes inspirantes qui font partie de leur vie et de leur communaut\u00e9.</p>\n<h2><strong>Comment vous pouvez c\u00e9l\u00e9brer la Journ\u00e9e internationale des femmes</strong></h2>\n<ul>\n<li>Participez \u00e0 la <a href=\"https://www.csps-efpc.gc.ca/events/leadership-series/index-fra.aspx?pk_campaign=Arial486-FR&amp;pk_kwd=women#mar9\">webdiffusion &lt;&lt;Les femmes gestionnaires : c\u00e9l\u00e9bration de la journ\u00e9e internationale de la femme&gt;&gt;</a> de l\u2019\u00c9cole de la fonction publique du Canada le 9 mars</li>\n<li>Consultez la page Web <a href=\"https://cfc-swc.gc.ca/commemoration/woi-fic/index-fr.html\">Femmes d'influence au Canada</a> de Femmes et \u00c9galit\u00e9 des genres Canada pour d\u00e9couvrir les nombreux obstacles que des femmes ont surmont\u00e9s dans leur qu\u00eate pour l\u2019\u00e9galit\u00e9 des droits au Canada, ainsi que les exemples de militantes qui font avancer les choses dans leur communaut\u00e9.</li>\n<li>Utilisez le mot-clic #Gr\u00e2ce\u00c0Vous dans les m\u00e9dias sociaux et faites conna\u00eetre les histoires de membres de votre famille, de coll\u00e8gues, d\u2019amis, de mentors et de dirigeants communautaires qui aident \u00e0 promouvoir l\u2019\u00e9galit\u00e9 des genres.</li>\n<li>Renseignez-vous sur les travaux des chercheuses d\u2019AAC <a href=\"http://www.agr.gc.ca/fra/secteur-agroalimentaire-canadien/champs-scientifiques/julie-brassard-phd/?id=1572979188633\">Julie Brassard (Ph .D.)</a> et <a href=\"http://www.agr.gc.ca/fra/secteur-agroalimentaire-canadien/champs-scientifiques/helen-tai-phd/?id=1580138354018\">Helen Tai (Ph. D.)</a>, des pionni\u00e8res dans leurs domaines scientifiques respectifs.</li>\n<li>Placardez l\u2019affiche <a href=\"https://collab.agr.gc.ca/co/wis-fes/Documents/Resources/WIS%20Poster%20-%20Fiche%20d'FES.PDF%20\">Femmes en science hier et aujourd\u2019hui</a> (PDF) d\u2019AAC dans votre bureau.</li>\n<li>Donnez de votre temps \u00e0 un organisme local, national ou international qui appuie les femmes et l\u2019\u00e9galit\u00e9 des genres.</li>\n<li>Discutez avec des hommes et des gar\u00e7ons du r\u00f4le qu\u2019ils doivent jouer pour d\u00e9fendre et promouvoir l\u2019\u00e9galit\u00e9 des genres.</li>\n</ul>\n<p>Consultez la <a href=\"https://collab.agr.gc.ca/co/eedi-emedi/SitePages/Home.aspx\">page sur la diversit\u00e9 et l\u2019inclusion dans l\u2019Espace de travail du savoir</a> pour en apprendre davantage sur les r\u00e9seaux de la diversit\u00e9 d\u2019AAC, y compris le R\u00e9seau des femmes en sciences.</p>\n<p><img src=\"https://intranet.agr.gc.ca/resources/prod/news/images/IWD2020-FR.png\" class=\"center-block\"></p>\n\t\t"
    },
    "breadcrumb": {
        "en": "Celebrate International Women's Day - March 8",
        "fr": "C\u00e9l\u00e9brez la Journ\u00e9e internationale des femmes - le 8 mars"
    },
    "news": {
        "date_posted": {
            "en": "2020-03-03",
            "fr": "2020-03-03"
        },
        "to": {
            "en": "All staff",
            "fr": "Tous les employ\u00e9s"
        },
        "by": {
            "en": "Women in Science Network",
            "fr": "R\u00e9seau des femmes en sciences"
        }
    }
}