{
    "dcr_id": "1583853357812",
    "lang": "en",
    "title": {
        "en": "AAFC Recognized as One of Canada's Best Diversity Employers for the Fourth Year in a Row",
        "fr": "AAC a \u00e9t\u00e9 reconnu comme l'un des meilleurs employeurs en mati\u00e8re de diversit\u00e9 au Canada pour la quatri\u00e8me ann\u00e9e cons\u00e9cutive"
    },
    "modified": "2020-03-12 00:00:00.0",
    "issued": "2020-03-12 00:00:00.0",
    "type_name": "intra-intra/news-nouv",
    "node_id": "1279030006975",
    "layout_name": null,
    "dc_date_created": "2020-03-11",
    "breadcrumb_label": "",
    "meta": {
        "issued": {
            "en": "2020-03-12",
            "fr": "2020-03-12"
        },
        "modified": {
            "en": "2020-03-12",
            "fr": "2020-03-12"
        },
        "format": {
            "en": "gcformat",
            "fr": "gcformat"
        },
        "title": {
            "en": "AAFC Recognized as One of Canada's Best Diversity Employers for the Fourth Year in a Row",
            "fr": "AAC a \u00e9t\u00e9 reconnu comme l'un des meilleurs employeurs en mati\u00e8re de diversit\u00e9 au Canada pour la quatri\u00e8me ann\u00e9e cons\u00e9cutive"
        },
        "subject": {
            "en": "communications",
            "fr": "communications"
        },
        "description": {
            "en": "We are proud to announce that Agriculture and Agri-Food Canada (AAFC) has been recognized as one of Canada's Best Diversity Employers for the fourth year in a row.",
            "fr": "Nous sommes heureux d'annoncer qu'AAC a \u00e9t\u00e9 reconnu comme l'un des meilleurs employeurs en mati\u00e8re de diversit\u00e9 au Canada pour la quatri\u00e8me ann\u00e9e cons\u00e9cutive."
        },
        "language": {
            "en": "eng",
            "fr": "fra"
        },
        "audience": {
            "en": "gcaudience",
            "fr": "gcaudience"
        },
        "creator": {
            "en": "Agriculture and Agri-Food Canada",
            "fr": "Agriculture et Agroalimentaire Canada"
        },
        "spatial": {
            "en": "gcregions",
            "fr": "gcregions"
        },
        "service": {
            "en": "AAFC_AgriSource",
            "fr": "AAC_AgriSource"
        },
        "accessRights": {
            "en": "3",
            "fr": "3"
        }
    },
    "body": {
        "en": "<br>\n<br>\n<p>We are proud to announce that Agriculture and Agri-Food Canada (AAFC) has been recognized as one of Canada's Best Diversity Employers for the fourth year in a row.</p>\n<p>This is a direct reflection of the hard work and dedication you\u2019ve shown in fostering a diverse and inclusive workplace. Some examples of these efforts include:</p>\n<ul>\n<li>AAFC\u2019s active Diversity and Inclusion Networks,\u00a0which focus on raising awareness of and contributing to departmental initiatives that support a diverse and respectful workplace;</li>\n<li>promoting recruitment of under-represented groups, including students with disabilities and Indigenous students;</li>\n<li>hosting open houses at various research centres to foster interest in meaningful careers in science, including an open house for high school girls and girls from Indigenous communities;</li>\n<li>consulting extensively with youth, women, minority language communities, and Indigenous communities and organizations to develop policies, programs and tools; and</li>\n<li>providing more opportunities for under-represented groups to participate in the agricultural sector such as with our Indigenous Pathfinder service and our AgriDiversity program.</li>\n</ul>\n<p>To learn more about what the department is doing in this area, see the <a href=\"http://www.agr.gc.ca/eng/about-us/planning-and-reporting/public-service-renewal-results-for-agriculture-and-agri-food-canada/diversity-and-inclusiveness/?id=1510759633689#_blank\">Public Service Renewal Results for AAFC: Diversity and Inclusiveness web page</a>. Be sure to also visit the <a href=\"https://collab.agr.gc.ca/co/eedi-emedi/SitePages/Diversity%20Networks.aspx#_blank\">Diversity and Inclusion Knowledge Workspace page</a> for tools and training and to get involved in an employee network.</p>\n<p>We all have a role to play in creating a respectful workplace and culture where everyone\u2019s contributions are valued. We encourage you keep sharing your ideas and participating in discussions to help build a more positive workplace.</p>\n<p>Thank you for supporting and contributing to diversity and inclusiveness at AAFC.</p>\n<p>\u00a0</p>\n<p><strong>Christine Walker and Michel Lessard</strong><br>\nInclusivity and Diversity Champions</p>\n<p><img src=\"https://intranet.agr.gc.ca/resources/prod/news/images/BestDiversityEmployers2020.png\" class=\"center-block\"></p>\n\n\t\t",
        "fr": "<br>\n<br>\n<p>Nous sommes heureux d\u2019annoncer qu\u2019AAC a \u00e9t\u00e9 reconnu comme l\u2019un des meilleurs employeurs en mati\u00e8re de diversit\u00e9 au Canada pour la quatri\u00e8me ann\u00e9e cons\u00e9cutive.</p>\n<p>Cette reconnaissance est la cons\u00e9quence directe du travail acharn\u00e9 et du d\u00e9vouement dont vous avez fait preuve pour favoriser la diversit\u00e9 et l\u2019int\u00e9gration en milieu de travail. Parmi les exemples d\u2019efforts d\u00e9ploy\u00e9s, on peut citer les suivants :</p>\n<ul>\n<li>des r\u00e9seaux de la diversit\u00e9 et de l\u2019inclusion d\u2019AAC ax\u00e9s sur la sensibilisation et la contribution aux initiatives minist\u00e9rielles qui appuient un milieu de travail diversifi\u00e9 et respectueux;</li>\n<li>la promotion du recrutement des groupes sous-repr\u00e9sent\u00e9s, notamment les \u00e9tudiants handicap\u00e9s et les \u00e9tudiants autochtones;</li>\n<li>l\u2019organisation de journ\u00e9es portes ouvertes dans divers centres de recherche afin de susciter l\u2019int\u00e9r\u00eat \u00e0 l\u2019\u00e9gard de carri\u00e8res scientifiques int\u00e9ressantes, notamment une journ\u00e9e portes ouvertes pour les jeunes filles du secondaire et les jeunes filles des collectivit\u00e9s autochtones;</li>\n<li>une vaste consultation des jeunes, des femmes, des communaut\u00e9s linguistiques minoritaires et des collectivit\u00e9s et organisations autochtones pour \u00e9laborer des politiques, des programmes et des outils;</li>\n<li>de plus amples options offertes aux groupes sous-repr\u00e9sent\u00e9s pour participer pleinement au secteur agricole, notamment gr\u00e2ce \u00e0 notre service Explorateur et \u00e0 notre programme Agri\u2011diversit\u00e9.</li>\n</ul>\n<p>Pour en apprendre davantage sur les r\u00e9alisations du Minist\u00e8re dans ce domaine, consultez les <a href=\"http://www.agr.gc.ca/fra/a-propos-de-notre-ministere/planification-et-rapports/resultats-du-renouvellement-de-la-fonction-publique-d-agriculture-et-agroalimentaire-canada/initiatives-de-diversite-et-dinclusion/?id=1510759633689\">R\u00e9sultats du renouvellement de la fonction publique d\u2019AAC : Initiatives de diversit\u00e9 et d\u2019inclusion</a>. Assurez-vous de consulter \u00e9galement la <a href=\"https://collab.agr.gc.ca/co/eedi-emedi/SitePages/Diversity%20Networks.aspx#_blank\">page de l\u2019Espace de travail du savoir sur la diversit\u00e9 et l\u2019inclusion</a> pour obtenir des outils et de la formation et pour s'impliquer dans un r\u00e9seau d\u2019employ\u00e9s.</p>\n<p>Nous avons tous un r\u00f4le \u00e0 jouer dans la cr\u00e9ation d\u2019un milieu de travail respectueux et d\u2019une culture o\u00f9 la contribution de chacun est jug\u00e9e \u00e0 sa juste valeur. Nous vous encourageons \u00e0 continuer \u00e0 partager vos id\u00e9es et \u00e0 participer aux discussions pour participer \u00e0 la cr\u00e9ation d\u2019un milieu de travail plus positif.</p>\n<p>Nous vous remercions de soutenir et de contribuer \u00e0 la diversit\u00e9 et \u00e0 l\u2019inclusion \u00e0 AAC.</p>\n<p>\u00a0</p>\n<p><strong>Christine Walker et Michel Lessard</strong><br>\nChampions de l\u2019inclusivit\u00e9 et de la diversit\u00e9</p>\n<p><img src=\"https://intranet.agr.gc.ca/resources/prod/news/images/BestDiversityEmployers2020.png\" class=\"center-block\"></p>\n\t\t"
    },
    "breadcrumb": {
        "en": "AAFC Recognized as One of Canada's Best Diversity Employers for the Fourth Year in a Row",
        "fr": "AAC a \u00e9t\u00e9 reconnu comme l'un des meilleurs employeurs en mati\u00e8re de diversit\u00e9 au Canada pour la ..."
    },
    "news": {
        "date_posted": {
            "en": "2020-03-12",
            "fr": "2020-03-12"
        },
        "to": {
            "en": "All staff",
            "fr": "Tous les employ\u00e9s"
        },
        "by": {
            "en": "Christine Walker and Michel Lessard, Inclusivity and Diversity Champions",
            "fr": "Christine Walker et Michel Lessard, champions de l\u2019inclusion et de la diversit\u00e9"
        }
    }
}