{
    "dcr_id": "1584478698340",
    "lang": "en",
    "title": {
        "en": "Update on AAFC and COVID-19: March 17, 2020",
        "fr": "Mise \u00e0 jour d'AAC sur la COVID-19 \u2013 17 mars 2020"
    },
    "modified": "2020-03-17 00:00:00.0",
    "issued": "2020-03-17 00:00:00.0",
    "type_name": "intra-intra/news-nouv",
    "node_id": "1279030006975",
    "layout_name": null,
    "dc_date_created": "2020-03-17",
    "breadcrumb_label": "",
    "meta": {
        "issued": {
            "en": "2020-03-17",
            "fr": "2020-03-17"
        },
        "modified": {
            "en": "2020-03-17",
            "fr": "2020-03-20"
        },
        "format": {
            "en": "gcformat",
            "fr": "gcformat"
        },
        "title": {
            "en": "Update on AAFC and COVID-19: March 17, 2020",
            "fr": "Mise \u00e0 jour d'AAC sur la COVID-19 \u2013 17 mars 2020"
        },
        "subject": {
            "en": "communications",
            "fr": "communications"
        },
        "description": {
            "en": "As the country responds to the COVID-19 pandemic, the Government of Canada is taking exceptional measures to protect the health and safety of all Canadians, including its own workforce.",
            "fr": "Au moment o\u00f9 le pays fait face \u00e0 la pand\u00e9mie de COVID-19, le gouvernement du Canada prend des mesures exceptionnelles pour prot\u00e9ger la sant\u00e9 et la s\u00e9curit\u00e9 de tous les Canadiens, y compris ses propres employ\u00e9s."
        },
        "language": {
            "en": "eng",
            "fr": "fra"
        },
        "audience": {
            "en": "gcaudience",
            "fr": "gcaudience"
        },
        "creator": {
            "en": "Agriculture and Agri-Food Canada",
            "fr": "Agriculture et Agroalimentaire Canada"
        },
        "spatial": {
            "en": "gcregions",
            "fr": "gcregions"
        },
        "service": {
            "en": "AAFC_AgriSource",
            "fr": "AAC_AgriSource"
        },
        "accessRights": {
            "en": "3",
            "fr": "3"
        }
    },
    "body": {
        "en": "<br>\n<br>\n<p>As the country responds to the COVID-19 pandemic, the Government of Canada is taking exceptional measures to protect the health and safety of all Canadians, including its own workforce. All Canadians are being asked to stay home if they can to help limit the spread of COVID-19.</p>\n<h2><strong>Alternate work arrangements</strong></h2>\n<p><strong>As a rule, </strong><strong>all employees should work from home. </strong>They should only work from the office if<strong> </strong>they are providing critical services and are unable to do this work remotely.</p>\n<p><strong>ADMs will identify</strong> <strong>employees providing critical services</strong>, as<strong> </strong>we continue supporting Canadians and our sectors.</p>\n<p>We encourage you to visit <a href=\"http://www.agr.gc.ca/COVID-19\">agr.gc.ca/COVID-19</a> for the latest information, as well as the <a href=\"https://www.canada.ca/en/government/publicservice/covid-19.html\">Canada.ca page for federal public servants</a>, the <a href=\"https://www.canada.ca/en/public-health/services/diseases/2019-novel-coronavirus-infection.html?utm_source=beprepared-en&amp;utm_medium=%20chief-hr-office-email-&amp;utm_campaign=covid-1920\">Canada.ca/coronavirus</a> webpage, and the <a href=\"https://intranet.canada.ca/psc-fsc/messages/cmt-538-eng.asp?utm_campaign=covid-1920&amp;utm_source=chro&amp;utm_medium=email&amp;utm_content=intranet-canada-ca-2020-03-13-en\">GCIntranet</a> website. Also, be sure to follow AAFC via our Facebook and Twitter accounts.</p>\n<h2><strong>IT guidelines</strong></h2>\n<p>Employees providing critical services will require priority access to IT tools and VPN.</p>\n<p>To balance network demand on the Secure Remote Access Service, we have implemented automatic sign-outs after 90 minutes of activity and 30 minutes of inactivity. We have also restricted access to video streaming to help maintain our IT infrastructure.</p>\n<p>Effective immediately, we have introduced the following staggered schedule for network access:</p>\n<ul>\n<li><strong>7:00 a.m. to noon (ET):</strong> employees in the Maritime provinces, Quebec, and the National Capital Region</li>\n<li><strong>Noon to 5:00 p.m. (ET):</strong> Ontario (excluding the National Capital Region), Western provinces, and all other areas</li>\n</ul>\n<p>Please keep in mind some of the following ways to avoid overloading AAFC\u2019s network:</p>\n<ul>\n<li>Reduce your online activity as much as possible. You can always connect outside work hours, when the demand is low.</li>\n<li>Consider staggering work times with colleagues.</li>\n<li>Create your own ways to communicate with colleagues outside the AAFC network\u2014for example, GCcollab, What\u2019s App, Duo, Zoom.</li>\n<li>Continue to use your smart phones as much as possible.</li>\n<li>Minimize your use of videoconferencing services.</li>\n</ul>\n<p>We will keep you updated on any new developments/enhancements regarding our technical options for working remotely.</p>\n<h2><strong>Mental health support</strong></h2>\n<p>\nSituations like this are stressful for all of us. If you are feeling overwhelmed or need additional support during this time, please talk to your manager and be sure to access the <a href=\"https://www.workhealthlife.com/?lang=en-CA\">Employee and Family Assistance Program (EFAP)</a>. The program provides confidential short-term or crisis counselling 24 hours a day, 365 days a year. The program offers services by phone, in person, and through e-counselling.</p>\n<h2>\n<strong>Tips on taking care of your mental health</strong></h2>\n<ul>\n<li>Get information from reliable sources, such as <a href=\"http://www.canada.ca/coronavirus\">Canada.ca/coronavirus</a>.</li>\n<li>Stay informed, but follow news coverage about COVID-19 in moderation. Take breaks from watching, reading, or listening to news stories. It can be upsetting to hear about the crisis and see images repeatedly.</li>\n<li>Take care of your body. Take deep breaths, stretch, or meditate. Try to eat healthy, well-balanced meals, exercise regularly, and get plenty of sleep.</li>\n<li>Make time to step back and consider how to take advantage of unexpected flexibility in your daily routine.</li>\n<li>Stay connected. Talk to friends or family about your feelings and concerns.</li>\n<li>Maintain healthy relationships and respect other people\u2019s feelings and decisions.</li>\n<li>Show support and empathy to those dealing with difficult situations.</li>\n<li>Identify what is within your control and try to direct your energy towards what most worries you within your own control.</li>\n</ul>\n<p>Finally, we ask that you keep your manager\u2019s contact information and the Emergency and Business Continuity Info-Line number (1-877-898-4449) handy, so you can stay up-to-date on any emerging information.</p>\n<p>Thank you for your patience during this difficult time. Please take care of yourself and your families.\u00a0</p>\n<p>\u00a0</p>\n<p><strong>Chris Forbes<br></strong>Deputy Minister\u00a0</p>\n<p><strong><strong><strong>Annette Gibbons<br></strong></strong></strong>Associate Deputy Minister</p>\n\n\t\t",
        "fr": "<br>\n<br>\n<p>Au moment o\u00f9 le pays fait face \u00e0 la pand\u00e9mie de COVID-19, le gouvernement du Canada prend des mesures exceptionnelles pour prot\u00e9ger la sant\u00e9 et la s\u00e9curit\u00e9 de tous les Canadiens, y compris ses propres employ\u00e9s. On demande \u00e0 tous les Canadiens de rester \u00e0 la maison dans la mesure du possible pour aider \u00e0 limiter la propagation de la COVID-19.</p>\n<h2><strong>R\u00e9gimes de travail flexibles</strong></h2>\n<p><strong>Tous les employ\u00e9s devraient travailler \u00e0 la </strong>maison, \u00e0 moins qu\u2019ils ne fournissent des services essentiels et qu\u2019ils soient incapables de faire leur travail \u00e0 distance.</p>\n<p>Les<strong> SMA d\u00e9signeront certains employ\u00e9s qui fourniront des services essentiels </strong>pendant que nous continuons d\u2019appuyer les Canadiens et nos industries.</p>\n<p>Nous vous encourageons \u00e0 consulter le site <a href=\"http://multimedia.agr.gc.ca/COVID-19/index-fra.html\">agr.gc.ca/COVID-19</a> pour obtenir les derni\u00e8res nouvelles, ainsi que la page Web <a href=\"https://www.canada.ca/fr/sante-publique/services/maladies/2019-nouveau-coronavirus.html\">Canada.ca/coronavirus</a>, le site Web <a href=\"https://intranet.canada.ca/psc-fsc/messages/cmt-538-fra.asp?utm_campaign=covid-1920&amp;utm_source=chro&amp;utm_medium=email&amp;utm_content=intranet-canada-ca-2020-03-13-en\">GCIntranet</a> et la page <a href=\"https://www.canada.ca/fr/gouvernement/fonctionpublique/covid-19.html\">Canada.ca \u00e0 l\u2019intention des fonctionnaires f\u00e9d\u00e9raux</a>. En outre, assurez-vous de suivre AAC sur ses comptes Facebook et Twitter.</p>\n<h2><strong>Lignes directrices en mati\u00e8re de TI</strong></h2>\n<p>Les employ\u00e9s qui offrent des services essentiels auront besoin d\u2019un acc\u00e8s prioritaire aux outils de TI et au RPV.</p>\n<p>Pour \u00e9quilibrer la demande du r\u00e9seau \u00e0 l\u2019\u00e9gard des services d\u2019acc\u00e8s \u00e0 distance s\u00e9curis\u00e9, nous avons pr\u00e9vu des d\u00e9connexions automatiques apr\u00e8s 90 minutes d\u2019activit\u00e9 et 30 minutes d\u2019inactivit\u00e9. Nous avons aussi restreint l\u2019acc\u00e8s \u00e0 la vid\u00e9o en continu pour aider \u00e0 maintenir notre infrastructure de TI.</p>\n<p>\u00c0 compter d\u2019imm\u00e9diatement, nous \u00e9tablissons l\u2019horaire \u00e9chelonn\u00e9 suivant pour l\u2019acc\u00e8s au r\u00e9seau :</p>\n<ul>\n<li><strong>De 7 h \u00e0 12 h (HE) :</strong> employ\u00e9s des Maritimes, du Qu\u00e9bec et de la r\u00e9gion de la capitale nationale.</li>\n<li><strong>De 12 h \u00e0 17 h (HE) :</strong> Ontario (sauf la r\u00e9gion de la capitale nationale), provinces de l\u2019Ouest et autres r\u00e9gions.</li>\n</ul>\n<p>Veuillez noter les conseils suivants pour \u00e9viter de surcharger le r\u00e9seau d\u2019AAC :</p>\n<ul>\n<li>R\u00e9duisez votre activit\u00e9 en ligne dans la mesure du possible. Vous pouvez toujours vous connecter en dehors des heures de travail lorsque la demande est peu \u00e9lev\u00e9e.</li>\n<li>Envisagez d\u2019\u00e9chelonner votre horaire avec celui de vos coll\u00e8gues \u2013 par exemple, un membre de l\u2019\u00e9quipe pourrait travailler de 7 h \u00e0 13 h et un autre de 13 h \u00e0 19 h pour \u00e9viter les interactions en personne et aider \u00e0 all\u00e9ger la pression qui s\u2019exerce sur le syst\u00e8me.</li>\n<li>Cr\u00e9ez vos propres fa\u00e7ons de communiquer avec vos coll\u00e8gues \u00e0 l\u2019ext\u00e9rieur du r\u00e9seau d\u2019AAC \u2013 par exemple, en utilisant GCcollab, What\u2019sApp, Duo ou Zoom.</li>\n<li>Continuez d\u2019utiliser vos t\u00e9l\u00e9phones intelligents dans la mesure du possible.</li>\n<li>Utilisez le moins possible les services de vid\u00e9oconf\u00e9rence.</li>\n</ul>\n<p>Nous vous tiendrons au courant des derniers d\u00e9veloppements et des am\u00e9liorations concernant nos solutions techniques pour le travail \u00e0 distance.</p>\n<h2><strong>Soutien en mati\u00e8re de sant\u00e9 mentale</strong></h2>\n<p>Les situations comme celle-ci sont stressantes pour nous tous. Si vous avez un sentiment d\u2019accablement ou besoin d\u2019aide pendant cette p\u00e9riode, veuillez vous adresser \u00e0 votre gestionnaire et recourir au <a href=\"https://www.workhealthlife.com/?explicitSoftLogin=true\">Programme d'aide aux employ\u00e9s et \u00e0 la famille</a> (PAEF). Le PAEF offre des services confidentiels de consultation \u00e0 court terme ou en cas de crise, 24 heures par jour et 365 jours par ann\u00e9e. Le programme offre ses services par t\u00e9l\u00e9phone, en personne et en ligne.</p>\n<h2><strong>Conseils pour prendre soin de votre sant\u00e9 mentale</strong></h2>\n<ul>\n<li>Renseignez-vous aupr\u00e8s de sources fiables, comme <a href=\"https://www.canada.ca/fr/sante-publique/services/maladies/maladie-coronavirus-covid-19.html\">Canada.ca/coronavirus</a>.</li>\n<li>Restez inform\u00e9s mais suivez la couverture m\u00e9diatique de la COVID-19 avec mod\u00e9ration. Prenez des pauses dans le visionnement, la lecture ou l\u2019\u00e9coute des nouvelles. Il peut \u00eatre bouleversant d\u2019entendre parler de la crise et de voir des images \u00e0 r\u00e9p\u00e9tition.</li>\n<li>Prenez soin de votre corps. Prenez de grandes respirations, \u00e9tirez-vous et m\u00e9ditez. Essayez de manger des repas sains et \u00e9quilibr\u00e9s, de faire de l\u2019exercice r\u00e9guli\u00e8rement et de dormir suffisamment.</li>\n<li>Prenez du recul et prenez le temps de vous demander comment tirer avantage de la flexibilit\u00e9 inattendue dans votre routine quotidienne.</li>\n<li>Restez en lien avec les autres. Faites part de vos pr\u00e9occupations et de vos sentiments \u00e0 vos amis ou \u00e0 votre famille.</li>\n<li>Entretenez des relations saines et respectez les sentiments et les d\u00e9cisions des autres.</li>\n<li>Offrez votre soutien \u00e0 ceux qui sont confront\u00e9s \u00e0 des situations difficiles et faites preuve d\u2019empathie envers eux.</li>\n<li>D\u00e9terminez ce qui est en votre pouvoir et essayez de concentrer vos efforts vers les choses en votre pouvoir qui vous pr\u00e9occupent le plus.</li>\n</ul>\n<p>Enfin, nous vous demandons de garder les coordonn\u00e9es de votre gestionnaire et le num\u00e9ro de la Ligne-info sur les mesures d\u2019urgence et la continuit\u00e9 des activit\u00e9s (1\u2011877\u2011898\u20114449) \u00e0 port\u00e9e de la main afin de pouvoir vous tenir au courant de l\u2019\u00e9volution de la situation.</p>\n<p>Nous vous remercions de faire preuve patience pendant cette p\u00e9riode difficile. Veuillez prendre soin de vous et des membres de votre famille.</p>\n<p>\u00a0</p>\n<p><strong>Chris Forbes<br></strong>Sous-ministre</p>\n<p><strong><strong>Annette Gibbons<br></strong></strong>Sous-ministre d\u00e9l\u00e9gu\u00e9e</p>\n\t\t"
    },
    "breadcrumb": {
        "en": "Update on AAFC and COVID-19: March 17, 2020",
        "fr": "Mise \u00e0 jour d'AAC sur la COVID-19 \u2013 17 mars 2020"
    },
    "news": {
        "date_posted": {
            "en": "2020-03-17",
            "fr": "2020-03-17"
        },
        "to": {
            "en": "All staff",
            "fr": "Tous les employ\u00e9s"
        },
        "by": {
            "en": "Chris Forbes, Deputy Minister, and Annette Gibbons, Associate Deputy Minister",
            "fr": "Chris Forbes, sous-ministre, et Annette Gibbons, sous-ministre d\u00e9l\u00e9gu\u00e9e"
        }
    }
}