{
    "dcr_id": "1584362309481",
    "lang": "en",
    "title": {
        "en": "Update on AAFC and COVID-19 - March 13, 2020",
        "fr": "Mise \u00e0 jour d\u2019AAC sur la situation de la COVID-19 - 13 mars 2020"
    },
    "modified": "2020-03-17 00:00:00.0",
    "issued": "2020-03-16 00:00:00.0",
    "type_name": "intra-intra/news-nouv",
    "node_id": "1279030006975",
    "layout_name": null,
    "dc_date_created": "2020-03-16",
    "breadcrumb_label": "",
    "meta": {
        "issued": {
            "en": "2020-03-16",
            "fr": "2020-03-16"
        },
        "modified": {
            "en": "2020-03-17",
            "fr": "2020-03-16"
        },
        "format": {
            "en": "gcformat",
            "fr": "gcformat"
        },
        "title": {
            "en": "Update on AAFC and COVID-19 - March 13, 2020",
            "fr": "Mise \u00e0 jour d\u2019AAC sur la situation de la COVID-19 - 13 mars 2020"
        },
        "subject": {
            "en": "communications",
            "fr": "communications"
        },
        "description": {
            "en": "As you know, the COVID-19 situation has escalated very quickly, as indicated by school closures, travel restrictions, and other measures.",
            "fr": "Comme vous le savez, la situation de la COVID-19 a d\u00e9g\u00e9n\u00e9r\u00e9 tr\u00e8s rapidement comme en font foi les fermetures d\u2019\u00e9coles, les restrictions concernant les voyages et les autres mesures prises."
        },
        "language": {
            "en": "eng",
            "fr": "fra"
        },
        "audience": {
            "en": "gcaudience",
            "fr": "gcaudience"
        },
        "creator": {
            "en": "Agriculture and Agri-Food Canada",
            "fr": "Agriculture et Agroalimentaire Canada"
        },
        "spatial": {
            "en": "gcregions",
            "fr": "gcregions"
        },
        "service": {
            "en": "AAFC_AgriSource",
            "fr": "AAC_AgriSource"
        },
        "accessRights": {
            "en": "3",
            "fr": "3"
        }
    },
    "body": {
        "en": "<br>\n<br>\n<p>As you know, the COVID-19 situation has escalated very quickly, as indicated by school closures, travel restrictions, and other measures.</p>\n<p>Rest assured that our top priority is to ensure the health and safety of our people and our workplace. While we\u2019re actively monitoring the situation and working on issues as they arise, we don\u2019t have all the answers.</p>\n<p>Right now, we are focused on identifying essential activities at AAFC. The department is putting in place the following measures to continue to protect the health of employees:</p>\n<ul>\n<li>\n<p>Business Continuity Plans, which outline our approach to dealing with circumstances such as these, have been updated.</p>\n</li>\n<li>\n<p>The Treasury Board Secretariat has confirmed that no office closures are being considered at this time. Managers are to provide employees with the flexibility to telework from home. Please discuss with your employees about adjusting their work accordingly.</p>\n</li>\n<li>\n<p>When in the workplace, employees should avoid face-to-face meetings in large groups and use email, instant messaging, teleconferencing, and other tools to communicate, as appropriate.</p>\n</li>\n<li>\n<p>We are taking measures to help our employees work remotely in a more efficient manner, given our limited capacity to sustain mass teleworking.</p>\n</li>\n<li>\n<p>All work-related travel outside Canada is cancelled until further notice. Work-related travel within Canada that is considered essential must be approved by an Assistant Deputy Minister.</p>\n</li>\n</ul>\n<p>We remind all of you to continually monitor your own health. Discuss with your manager possible precautions to take, including self-isolation. <strong>If you are experiencing flu\u2011like symptoms, immediately contact a health-care professional for advice and guidance, and be sure to inform your manager.</strong></p>\n<p>We ask that you keep your manager\u2019s contact information and the Emergency and Business Continuity Info-Line number (1-877-898-4449) handy, so you can stay up-to-date on any emerging information.</p>\n<p>If you have any questions, be sure to visit <a href=\"http://intranet.agr.gc.ca/agrisource/eng/human-resources/workplace-wellness/coronavirus-disease-covid-19?id=1583349579374\">AgriSource</a> for the latest Government of Canada and AAFC updates on COVID-19.</p>\n<p>To close, we\u2019d like to make it clear that our focus is on your well-being. Please take care of yourselves and your families.</p>\n<p>\u00a0</p>\n<p><strong>Chris Forbes</strong><br>\nDeputy Minister</p>\n<p><strong>Annette Gibbons</strong><br>\nAssociate Deputy Minister</p>\n\n\t\t",
        "fr": "<br>\n<br>\n<p>Comme vous le savez, la situation de la COVID-19 a d\u00e9g\u00e9n\u00e9r\u00e9 tr\u00e8s rapidement comme en font foi les fermetures d\u2019\u00e9coles, les restrictions concernant les voyages et les autres mesures prises.</p>\n<p>Sachez que notre premi\u00e8re priorit\u00e9 est d\u2019assurer la sant\u00e9 et la s\u00e9curit\u00e9 de nos employ\u00e9s et de notre milieu de travail. Nous surveillons activement la situation et r\u00e9glons les probl\u00e8mes \u00e0 mesure qu\u2019ils surviennent, mais nous n\u2019avons pas r\u00e9ponse \u00e0 tout.</p>\n<p>En ce moment, nous concentrons notre attention sur les activit\u00e9s essentielles \u00e0 AAC. Le Minist\u00e8re met en place les mesures suivantes pour continuer de prot\u00e9ger la sant\u00e9 des employ\u00e9s :</p>\n<ul>\n<li>\n<p>Nous avons mis \u00e0 jour les plans de continuit\u00e9 des activit\u00e9s, qui d\u00e9crivent notre fa\u00e7on de g\u00e9rer les situations de ce genre.</p>\n</li>\n<li>\n<p>Le Secr\u00e9tariat du Conseil du Tr\u00e9sor a confirm\u00e9 qu\u2019aucune fermeture de bureaux n\u2019\u00e9tait envisag\u00e9e pour le moment. Les gestionnaires doivent offrir aux employ\u00e9s la possibilit\u00e9 de t\u00e9l\u00e9travailler \u00e0 la maison. Veuillez discuter avec vos employ\u00e9s de la fa\u00e7on d\u2019ajuster leur charge de travail en cons\u00e9quence.</p>\n</li>\n<li>\n<p>Les employ\u00e9s sur le lieu de travail doivent \u00e9viter de tenir des r\u00e9unions en personne en large groupe et utiliser le courrier \u00e9lectronique, la messagerie instantan\u00e9e, la t\u00e9l\u00e9conf\u00e9rence et d\u2019autres outils pour communiquer, si possible.</p>\n</li>\n<li>\n<p>Nous prenons des mesures pour aider nos employ\u00e9s \u00e0 travailler plus efficacement \u00e0 distance, compte tenu de notre capacit\u00e9 limit\u00e9e de soutien du t\u00e9l\u00e9travail de masse.</p>\n</li>\n<li>\n<p>Tous les voyages professionnels \u00e0 l\u2019\u00e9tranger sont annul\u00e9s jusqu\u2019\u00e0 nouvel ordre. Les voyages jug\u00e9s essentiels au Canada doivent \u00eatre approuv\u00e9s par un sous-ministre adjoint.</p>\n</li>\n</ul>\n<p>Nous vous rappelons de surveiller continuellement votre \u00e9tat de sant\u00e9. Discutez avec votre gestionnaire des pr\u00e9cautions que vous pouvez prendre, y compris l\u2019auto\u2011isolement. <strong>Si vous avez des sympt\u00f4mes s\u2019apparentant \u00e0 ceux de la grippe, communiquez imm\u00e9diatement avec un professionnel de la sant\u00e9 pour obtenir des conseils et des directives et assurez-vous d\u2019en informer votre gestionnaire.</strong></p>\n<p>Nous vous demandons de garder les coordonn\u00e9es de votre gestionnaire et le num\u00e9ro de la Ligne-info sur les mesures d\u2019urgence et la continuit\u00e9 des activit\u00e9s (1\u2011877\u2011898\u20114449) \u00e0 port\u00e9e de la main afin de pouvoir vous tenir au courant de l\u2019\u00e9volution de la situation.</p>\n<p>Si vous avez des questions, consultez <a href=\"http://intranet.agr.gc.ca/agrisource/fra/ressources-humaines/mieux-etre-au-travail/maladie-a-coronavirus-covid-19?id=1583349579374\">AgriSource</a> pour obtenir les derni\u00e8res nouvelles du gouvernement du Canada et d\u2019AAC sur la situation de la COVID-19.</p>\n<p>En terminant, nous tenons \u00e0 pr\u00e9ciser que nous avons votre mieux-\u00eatre \u00e0 coeur. Veuillez prendre soin de vous et des membres de votre famille.</p>\n<p>\u00a0</p>\n<p><strong>Chris Forbes</strong><br>\nSous-ministre</p>\n<p><strong>Annette Gibbons</strong><br>\nSous-ministre d\u00e9l\u00e9gu\u00e9e</p>\n\t\t"
    },
    "breadcrumb": {
        "en": "Update on AAFC and COVID-19 - March 13, 2020",
        "fr": "Mise \u00e0 jour d\u2019AAC sur la situation de la COVID-19 - 13 mars 2020"
    },
    "news": {
        "date_posted": {
            "en": "2020-03-13",
            "fr": "2020-03-13"
        },
        "to": {
            "en": "All staff",
            "fr": "Tous les employ\u00e9s"
        },
        "by": {
            "en": "Chris Forbes, Deputy Minister, and Annette Gibbons, Associate Deputy Minister",
            "fr": "Chris Forbes, Sous-ministre, et Annette Gibbons, Sous-ministre d\u00e9l\u00e9gu\u00e9e"
        }
    }
}