{
    "dcr_id": "1584652515608",
    "lang": "en",
    "title": {
        "en": "NCR - Identification and Security Pass Office Closure",
        "fr": "RCN - Fermeture du bureau de la section d\u2019Identification et de cartes d\u2019acc\u00e8s"
    },
    "modified": "2020-03-19 00:00:00.0",
    "issued": "2020-03-19 00:00:00.0",
    "type_name": "intra-intra/news-nouv",
    "node_id": "1279030006975",
    "layout_name": null,
    "dc_date_created": "2020-03-19",
    "breadcrumb_label": "",
    "meta": {
        "issued": {
            "en": "2020-03-19",
            "fr": "2020-03-19"
        },
        "modified": {
            "en": "2020-03-19",
            "fr": "2020-03-19"
        },
        "format": {
            "en": "gcformat",
            "fr": "gcformat"
        },
        "title": {
            "en": "NCR - Identification and Security Pass Office Closure",
            "fr": "RCN - Fermeture du bureau de la section d\u2019Identification et de cartes d\u2019acc\u00e8s"
        },
        "subject": {
            "en": "communications",
            "fr": "communications"
        },
        "description": {
            "en": "Please be aware that AAFC's photo ID and fingerprinting office is now closed until further notice.",
            "fr": "Veuillez noter que le bureau d'identification des photos et des empreintes digitales d'AAC est maintenant ferm\u00e9 jusqu'\u00e0 nouvel ordre."
        },
        "language": {
            "en": "eng",
            "fr": "fra"
        },
        "audience": {
            "en": "gcaudience",
            "fr": "gcaudience"
        },
        "creator": {
            "en": "Agriculture and Agri-Food Canada",
            "fr": "Agriculture et Agroalimentaire Canada"
        },
        "spatial": {
            "en": "gcregions",
            "fr": "gcregions"
        },
        "service": {
            "en": "AAFC_AgriSource",
            "fr": "AAC_AgriSource"
        },
        "accessRights": {
            "en": "3",
            "fr": "3"
        }
    },
    "body": {
        "en": "<br>\n<br>\n<p>Please be aware that AAFC\u2019s photo ID and fingerprinting office is now closed until further notice. If your ID card has been lost or is soon to expire and the situation is urgent please contact <a href=\"mailto:aafc.ncrid-rcnid.aac@agr.gc.ca\">aafc.ncrid-rcnid.aac@agr.gc.ca</a>. Fingerprinting for new personnel screening service requests (urgent staffing related to COVID-19) will need to be conducted at local police stations.</p>\n\n\t\t",
        "fr": "<br>\n<br>\n<p>Veuillez noter que le bureau d\u2019identification des photos et des empreintes digitales d\u2019AGR est maintenant ferm\u00e9 jusqu'\u00e0 nouvel ordre. Si votre carte d'identit\u00e9 a \u00e9t\u00e9 perdue ou arrive bient\u00f4t \u00e0 expiration et que la situation est urgente, veuillez contacter <a href=\"mailto:aafc.ncrid-rcnid.aac@agr.gc.ca\">aafc.ncrid-rcnid.aac@agr.gc.ca</a>. Les empreintes digitales pour les nouvelles demandes de services de filtrage du personnel (dotation urgente li\u00e9e \u00e0 COVID-19) devront \u00eatre effectu\u00e9es dans les postes de police locaux.</p>\n\t\t"
    },
    "breadcrumb": {
        "en": "NCR - Identification and Security Pass Office Closure",
        "fr": "RCN - Fermeture du bureau de la section d\u2019Identification et de cartes d\u2019acc\u00e8s"
    },
    "news": {
        "date_posted": {
            "en": "2020-03-19",
            "fr": "2020-03-19"
        },
        "to": {
            "en": "NCR only",
            "fr": "RCN seulement"
        },
        "by": {
            "en": "Corporate Communications, Public Affairs Branch",
            "fr": "Communications minist\u00e9rielles, Direction g\u00e9n\u00e9rale des affaires publiques"
        }
    }
}