{
    "dcr_id": "1587504531874",
    "lang": "en",
    "title": {
        "en": "Thinking of our Colleagues in Nova Scotia",
        "fr": "Une pens\u00e9e pour nos coll\u00e8gues de la Nouvelle-\u00c9cosse"
    },
    "modified": "2020-04-21 00:00:00.0",
    "issued": "2020-04-21 00:00:00.0",
    "type_name": "intra-intra/news-nouv",
    "node_id": "1279030006975",
    "layout_name": null,
    "dc_date_created": "2020-04-21",
    "breadcrumb_label": "",
    "meta": {
        "issued": {
            "en": "2020-04-21",
            "fr": "2020-04-21"
        },
        "modified": {
            "en": "2020-04-21",
            "fr": "2020-04-21"
        },
        "format": {
            "en": "gcformat",
            "fr": "gcformat"
        },
        "title": {
            "en": "Thinking of our Colleagues in Nova Scotia",
            "fr": "Une pens\u00e9e pour nos coll\u00e8gues de la Nouvelle-\u00c9cosse"
        },
        "subject": {
            "en": "communications",
            "fr": "communications"
        },
        "description": {
            "en": "We would like to express our deepest sympathies to our colleagues and the extended AAFC community in Nova Scotia in the wake of this past weekend\u2019s tragedy.",
            "fr": "Nous tenons \u00e0 offrir nos plus sinc\u00e8res condol\u00e9ances \u00e0 nos coll\u00e8gues et \u00e0 la communaut\u00e9 d'AAC en Nouvelle-\u00c9cosse \u00e0 la suite de la trag\u00e9die de la fin de semaine derni\u00e8re."
        },
        "language": {
            "en": "eng",
            "fr": "fra"
        },
        "audience": {
            "en": "gcaudience",
            "fr": "gcaudience"
        },
        "creator": {
            "en": "Agriculture and Agri-Food Canada",
            "fr": "Agriculture et Agroalimentaire Canada"
        },
        "spatial": {
            "en": "gcregions",
            "fr": "gcregions"
        },
        "service": {
            "en": "AAFC_AgriSource",
            "fr": "AAC_AgriSource"
        },
        "accessRights": {
            "en": "3",
            "fr": "3"
        }
    },
    "body": {
        "en": "<br>\n<br>\n<p>We would like to express our deepest sympathies to our colleagues and the extended AAFC community in Nova Scotia in the wake of this past weekend\u2019s tragedy. We are especially mindful of the families of the victims, and our thoughts are also with all of those affected during this difficult time.</p>\n<p>These events hit close to home for us, as we have many colleagues, family members and friends in Nova Scotia and the Atlantic region. We want you to know that we are thinking of you.</p>\n<p>Situations like these are very unsettling. Given the amount of fear and uncertainty we are already experiencing with the COVID-19 pandemic, you may feel like you need additional support right now. Know that the <a href=\"https://www.workhealthlife.com/?lang=en-CA\">Employee and Family Assistance Program</a> is there to support you, and your immediate family members. You can also access the new portal dedicated to mental health called <a href=\"https://ca.portal.gs/?lang=en-ca\">Wellness Together Canada</a>, where you will find different levels of support, including chats with peer support workers and other professionals.</p>\n<p>We share in your grief and send wishes of comfort and peace.</p>\n<p>Stay safe and take care of yourselves and your loved ones.</p>\n<p>\u00a0</p>\n<p><strong>Chris Forbes</strong><br>\nDeputy Minister</p>\n<p><strong>Annette Gibbons</strong><br>\nAssociate Deputy Minister</p>\n\n\t\t",
        "fr": "<br>\n<br>\n<p>Nous tenons \u00e0 offrir nos plus sinc\u00e8res condol\u00e9ances \u00e0 nos coll\u00e8gues et \u00e0 la communaut\u00e9 d\u2019AAC en Nouvelle-\u00c9cosse \u00e0 la suite de la trag\u00e9die de la fin de semaine derni\u00e8re. Nos pens\u00e9es vont aux familles des victimes et \u00e0 tous ceux qui sont touch\u00e9s pendant cette p\u00e9riode difficile.</p>\n<p>Ces \u00e9v\u00e8nements nous touchent particuli\u00e8rement, car nous avons de nombreux coll\u00e8gues, membres de nos familles et amis en Nouvelle-\u00c9cosse et dans la r\u00e9gion de l\u2019Atlantique. Nous voulons vous dire que nous pensons \u00e0 vous.</p>\n<p>Les situations comme celle-ci sont tr\u00e8s d\u00e9rangeantes. Compte tenu des craintes et de l\u2019incertitude que nous vivons d\u00e9j\u00e0 en raison de la pand\u00e9mie de COVID-19, vous pourriez avoir besoin d\u2019aide suppl\u00e9mentaire aujourd\u2019hui. N\u2019oubliez pas que le <a href=\"https://www.workhealthlife.com/?explicitSoftLogin=true\">Programme d'aide aux employ\u00e9s</a> est l\u00e0 pour vous aider et aider les membres de votre famille imm\u00e9diate. Vous pouvez aussi avoir acc\u00e8s au nouveau portail sur la sant\u00e9 mentale intitul\u00e9 <a href=\"https://ca.portal.gs/?lang=fr-ca\">Espace mieux-\u00eatre Canada</a>, o\u00f9 vous trouverez diverses ressources comme des s\u00e9ances de clavardage avec des intervenants en services de soutien aux pairs et d\u2019autres professionnels.</p>\n<p>Nous partageons votre chagrin et vous envoyons nos v\u0153ux de r\u00e9confort et de paix.</p>\n<p>Soyez prudents et prenez soin de vous et de vos proches.</p>\n<p>\u00a0</p>\n<p><strong>Chris Forbes</strong><br>\nSous-ministre</p>\n<p><strong>Annette Gibbons</strong><br>\nSous-ministre d\u00e9l\u00e9gu\u00e9e</p>\n\t\t"
    },
    "breadcrumb": {
        "en": "Thinking of our Colleagues in Nova Scotia",
        "fr": "Une pens\u00e9e pour nos coll\u00e8gues de la Nouvelle-\u00c9cosse"
    },
    "news": {
        "date_posted": {
            "en": "2020-04-21",
            "fr": "2020-04-21"
        },
        "to": {
            "en": "All staff",
            "fr": "Tous les employ\u00e9s"
        },
        "by": {
            "en": "Chris Forbes, Deputy Minister, and Annette Gibbons, Associate Deputy Minister",
            "fr": "Chris Forbes, Sous-ministre, et Annette Gibbons, Sous-ministre d\u00e9l\u00e9gu\u00e9e"
        }
    }
}