{
    "dcr_id": "1588601699960",
    "lang": "en",
    "title": {
        "en": "Scheduled Maintenance of ISB Services - May 14-20",
        "fr": "Entretien pr\u00e9vu des services de la DGSI - Du 14 au 20 mai"
    },
    "modified": "2020-05-11 00:00:00.0",
    "issued": "2020-05-04 00:00:00.0",
    "type_name": "intra-intra/news-nouv",
    "node_id": "1279030006975",
    "layout_name": null,
    "dc_date_created": "2020-05-04",
    "breadcrumb_label": "",
    "meta": {
        "issued": {
            "en": "2020-05-04",
            "fr": "2020-05-04"
        },
        "modified": {
            "en": "2020-05-11",
            "fr": "2020-05-11"
        },
        "format": {
            "en": "gcformat",
            "fr": "gcformat"
        },
        "title": {
            "en": "Scheduled Maintenance of ISB Services - May 14-20",
            "fr": "Entretien pr\u00e9vu des services de la DGSI - Du 14 au 20 mai"
        },
        "subject": {
            "en": "communications",
            "fr": "communications"
        },
        "description": {
            "en": "Please be advised that preventative maintenance of ISB services will be performed between Thursday, May 14, and Wednesday, May 20.",
            "fr": "Veuillez prendre note qu\u2019un entretien pr\u00e9ventif des services de la DGSI aura lieu entre le jeudi 14 mai et le mercredi 20 mai."
        },
        "language": {
            "en": "eng",
            "fr": "fra"
        },
        "audience": {
            "en": "gcaudience",
            "fr": "gcaudience"
        },
        "creator": {
            "en": "Agriculture and Agri-Food Canada",
            "fr": "Agriculture et Agroalimentaire Canada"
        },
        "spatial": {
            "en": "gcregions",
            "fr": "gcregions"
        },
        "service": {
            "en": "AAFC_AgriSource",
            "fr": "AAC_AgriSource"
        },
        "accessRights": {
            "en": "3",
            "fr": "3"
        }
    },
    "body": {
        "en": "<br>\n<br>\n<p>Please be advised that preventative maintenance of ISB services will be performed between Thursday, May 14, and Wednesday, May 20.<br>\n<br>\nThe following downtime is part of a management plan to upgrade our infrastructure systems. These measures are performed regularly to improve performance and to ensure that the department does not experience any outages that would affect employees and the delivery of our services.<br>\n<br>\nConsequently, the following services may not be available during these periods:</p>\n<p><b>Thursday, May 14 \u2013 8:00 p.m. until 9:00 p.m. (ET)</b></p>\n<ul>\n<li>Video Conferencing Services</li>\n</ul>\n<p><strong>Saturday, </strong><strong>May 16 \u2013 1:00 a.m. until 6:00 a.m. (ET)</strong></p>\n<ul>\n<li>AgriDoc</li>\n<li>ccmEnterprise (including TRECS)</li>\n<li>Skype for Business</li>\n</ul>\n<p><strong>Wednesday, </strong><strong>May 20 \u2013 1:00 a.m. until 6:00 a.m. (ET)</strong></p>\n<ul>\n<li>My IT Centre TI</li>\n</ul>\n<p>Should you have any questions or concerns, please do not hesitate to contact IT Centre TI.<br>\n<br>\n<strong>\u00a0</strong></p>\n<p><strong>IT Centre TI</strong><br>\nTelephone: 1-855-545-4411<br>\n<a href=\"http://myitcentreti-monitcentreti/\">My IT Centre TI</a></p>\n<p><img src=\"https://intranet.agr.gc.ca/resources/prod/news/images/ITCentreTI2.png\" class=\"center-block\"></p>\n\n\t\t",
        "fr": "<br>\n<br>\n<p>Veuillez prendre note qu\u2019un entretien pr\u00e9ventif des services de la DGSI aura lieu entre le jeudi 14 mai et le mercredi 20 mai.<br>\n<br>\nL\u2019interruption suivante fait partie d\u2019un plan de gestion pour mettre \u00e0 niveau nos syst\u00e8mes d\u2019infrastructure. Ces mesures sont prises r\u00e9guli\u00e8rement pour am\u00e9liorer le rendement des syst\u00e8mes et veiller \u00e0 ce que le Minist\u00e8re ne subisse pas de panne pouvant nuire aux employ\u00e9s et \u00e0 la prestation de nos services.<br>\n<br>\nPar cons\u00e9quent, les services suivants pourraient ne pas \u00eatre accessibles au cours des p\u00e9riodes indiqu\u00e9es ci-dessous :</p>\n<p><b>Le jeudi\u00a014 mai, de 20 h \u00e0 21 h (HE)</b></p>\n<ul>\n<li>Services de vid\u00e9oconf\u00e9rence</li>\n</ul>\n<p><strong>Le samedi 16 mai, de 1 h \u00e0 6 h</strong><strong> (HE)</strong></p>\n<ul>\n<li>AgriDoc</li>\n<li>ccmEnterprise (y compris le SSRCHD)</li>\n<li>Skype Entreprise</li>\n</ul>\n<p><strong>Le mercredi 20 mai, de 1 h \u00e0 6 h (HE)</strong></p>\n<ul>\n<li>Mon IT Centre TI</li>\n</ul>\n<p>Si vous avez des questions ou des pr\u00e9occupations \u00e0 ce sujet, n\u2019h\u00e9sitez pas \u00e0 communiquer avec le Centre TI.</p>\n<p><br>\n<br>\n<strong>IT Centre TI</strong><br>\nT\u00e9l\u00e9phone : 1-855-545-4411<br>\n<a href=\"http://myitcentreti-monitcentreti/\">Mon IT Centre TI</a></p>\n<p><img src=\"https://intranet.agr.gc.ca/resources/prod/news/images/ITCentreTI2.png\" class=\"center-block\"></p>\n\t\t"
    },
    "breadcrumb": {
        "en": "Scheduled Maintenance of ISB Services - May 14-20",
        "fr": "Entretien pr\u00e9vu des services de la DGSI - Du 14 au20 mai"
    },
    "news": {
        "date_posted": {
            "en": "2020-05-07",
            "fr": "2020-05-07"
        },
        "to": {
            "en": "All staff",
            "fr": "Tous les employ\u00e9s"
        },
        "by": {
            "en": "IT Centre TI",
            "fr": "IT Centre TI"
        }
    }
}