{
    "dcr_id": "1588619174052",
    "lang": "en",
    "title": {
        "en": "Mental Health Week Message from AAFC's Mental Wellness Co-Champions",
        "fr": "Message pour la Semaine de la sant\u00e9 mentale de la part des cochampionnes du mieux-\u00eatre"
    },
    "modified": "2020-05-04 00:00:00.0",
    "issued": "2020-05-04 00:00:00.0",
    "type_name": "intra-intra/news-nouv",
    "node_id": "1279030006975",
    "layout_name": null,
    "dc_date_created": "2020-05-04",
    "breadcrumb_label": "",
    "meta": {
        "issued": {
            "en": "2020-05-04",
            "fr": "2020-05-04"
        },
        "modified": {
            "en": "2020-05-04",
            "fr": "2020-05-04"
        },
        "format": {
            "en": "gcformat",
            "fr": "gcformat"
        },
        "title": {
            "en": "Mental Health Week Message from AAFC's Mental Wellness Co-Champions",
            "fr": "Message pour la Semaine de la sant\u00e9 mentale de la part des cochampionnes du mieux-\u00eatre"
        },
        "subject": {
            "en": "communications",
            "fr": "communications"
        },
        "description": {
            "en": "This week, May 4 to 10, is Mental Health Week in Canada. This year's theme of social connection resonates all the more as we continue to deal with the isolation and uncertainty of the COVID-19 pandemic.",
            "fr": "Du 4 au 10 mai, c'est la Semaine de la sant\u00e9 mentale au Canada. Le th\u00e8me de cette ann\u00e9e, les liens sociaux, prend un sens particulier alors que l'isolement et l'incertitude entourant la pand\u00e9mie de COVID-19 se poursuivent."
        },
        "language": {
            "en": "eng",
            "fr": "fra"
        },
        "audience": {
            "en": "gcaudience",
            "fr": "gcaudience"
        },
        "creator": {
            "en": "Agriculture and Agri-Food Canada",
            "fr": "Agriculture et Agroalimentaire Canada"
        },
        "spatial": {
            "en": "gcregions",
            "fr": "gcregions"
        },
        "service": {
            "en": "AAFC_AgriSource",
            "fr": "AAC_AgriSource"
        },
        "accessRights": {
            "en": "3",
            "fr": "3"
        }
    },
    "body": {
        "en": "<br>\n<br>\n<p>This week, May 4 to 10, is Mental Health Week in Canada. This year\u2019s theme of <strong>social connection </strong>resonates all the more as we continue to deal with the isolation and uncertainty of the COVID-19 pandemic.</p>\n<p>During this time, it\u2019s important to remember that we don\u2019t have to be alone, even though we may be physically separated from our families, friends, and colleagues. By using technology and a little imagination, we can still connect with colleagues and loved ones.</p>\n<p>It\u2019s also important to be open about how we really feel. We all struggle sometimes, and saying that everything is fine when it isn\u2019t can be damaging. Reaching out, talking about it, and leaning on each other when we need help all make a big difference.</p>\n<p>This Mental Health Week, let\u2019s connect and remember that its okay to not always be okay. Let\u2019s take care of ourselves and each other through social connections, and let\u2019s share open conversations through the <strong>#GetReal</strong> social media challenge (details below).</p>\n<p>There are a number of activities this week that focus on promoting mental health. Check them out:</p>\n<ul>\n<li>On<strong> Tuesday</strong>, <strong>May 5</strong>, the Canada School of Public Service is hosting a live virtual Power Chat on \u201cCOVID-19 in the Workplace,\u201d featuring expert panelists who will discuss how to maintain social connections while juggling personal responsibilities and professional duties in working conditions like those we\u2019re experiencing now.</li>\n<li>On <strong>Thursday, May 7</strong>, Senator Stan Kutcher, an acclaimed academic and mental health practitioner, will participate in a special AAFC event to share research and best practices on mental health.</li>\n<li>The <a href=\"https://www.canada.ca/en/government/publicservice/wellness-inclusion-diversity-public-service/health-wellness-public-servants/mental-health-workplace.html\">Centre of Expertise on Mental Health in the Workplace</a> will be hosting a virtual five-day social media challenge on Twitter, offering great tips and ideas for staying connected while being apart. Every day over the five days, public servants will be encouraged to connect in a different way, and share how they are staying connected.</li>\n</ul>\n<p>And sometime this week, why not connect virtually with your team and #GetReal about how you really feel?</p>\n<p>Don\u2019t forget that mental health tools, tips, and resources are available on AAFC\u2019s <a href=\"http://multimedia.agr.gc.ca/COVID-19/mental_health-eng.html#_blank\">COVID-19 website</a> and through AAFC\u2019s Wellness Team. Employees can contact the Ombuds office to help navigate services or raise concerns about workplace issues such as harassment, wellness and civility. Additional support is also available through the <a href=\"https://ca.portal.gs/\">Wellness Together Canada</a> portal.</p>\n<p>Let\u2019s stay connected. Together, we\u2019re stronger.</p>\n<p>\u00a0</p>\n<p><strong>Mary Dila and Jane McDonald<br></strong>AAFC Mental Wellness Co-Champions</p>\n<p><img src=\"https://intranet.agr.gc.ca/resources/prod/news/images/mentalhealth2020-EN.png\" class=\"center-block\"></p>\n<p>\u00a0</p>\n<ul>\n</ul>\n\n\t\t",
        "fr": "<br>\n<br>\n<p>Du 4 au 10 mai, c\u2019est la Semaine de la sant\u00e9 mentale au Canada. Le th\u00e8me de cette ann\u00e9e, <strong>les liens sociaux</strong>, prend un sens particulier alors que l\u2019isolement et l\u2019incertitude entourant la pand\u00e9mie de COVID-19 se poursuivent.</p>\n<p>Il importe en ce moment de se rappeler que nous n\u2019avons pas \u00e0 \u00eatre seuls, m\u00eame si nous sommes physiquement s\u00e9par\u00e9s de nos familles, de nos amis et de nos coll\u00e8gues. Avec la technologie et un peu d\u2019imagination, nous pouvons encore communiquer avec nos coll\u00e8gues et nos proches.</p>\n<p>Il importe aussi d\u2019\u00eatre ouvert sur nos v\u00e9ritables sentiments. Nous avons tous des difficult\u00e9s parfois, et pr\u00e9tendre que tout va bien alors que ce n\u2019est pas le cas peut \u00eatre dommageable. En s\u2019ouvrant, en parlant de ce que l\u2019on ressent et en s\u2019appuyant les uns sur les autres lorsque nous avons besoin d\u2019aide, cela peut avoir un grand effet positif.</p>\n<p>En cette Semaine de la sant\u00e9 mentale, parlons des vraies choses et souvenons-nous qu\u2019il est normal de ne pas toujours aller bien. Prenons soin les uns des autres et de nous-m\u00eame gr\u00e2ce \u00e0 nos relations sociales et ayons des conversations ouvertes dans le cadre du d\u00e9fi <strong>#ParlerPourVrai</strong> lanc\u00e9 sur les m\u00e9dias sociaux (renseignements ci-dessous).</p>\n<p>Des activit\u00e9s sont pr\u00e9vues pour la semaine, ax\u00e9es sur la promotion de la sant\u00e9 mentale :</p>\n<ul>\n<li><strong>Le mardi 5 mai</strong>, l\u2019\u00c9cole de la fonction publique du Canada organise une discussion directe virtuelle sur le th\u00e8me \u00ab La COVID-19 et la sant\u00e9 mentale en milieu de travail \u00bb, avec des experts qui parleront de la mani\u00e8re de maintenir des liens sociaux tout en conciliant responsabilit\u00e9s personnelles et obligations professionnelles dans des conditions de travail comme celles que nous connaissons actuellement.</li>\n<li><strong>Le jeudi 7 mai</strong>, le s\u00e9nateur Stan Kutcher, universitaire et professionnel de la sant\u00e9 mentale reconnu, participera \u00e0 une activit\u00e9 sp\u00e9ciale d\u2019AAC pour pr\u00e9senter des recherches et des pratiques exemplaires sur la sant\u00e9 mentale.</li>\n<li>Le <a href=\"https://www.canada.ca/fr/gouvernement/fonctionpublique/mieux-etre-inclusion-diversite-fonction-publique/sante-mieux-etre-fonctionnaires/sante-mentale-travail.html\">Centre d\u2019expertise pour la sant\u00e9 mentale en milieu de travail</a> animera un d\u00e9fi virtuel de cinq jours sur Twitter, offrant des id\u00e9es et des trucs pour nous aider \u00e0 se sentir proches, m\u00eame \u00e0 distance. Chaque jour du d\u00e9fi, les fonctionnaires seront encourag\u00e9s \u00e0 se rapprocher de diff\u00e9rentes fa\u00e7ons et de partager leur exp\u00e9rience.</li>\n</ul>\n<p>Et pourquoi ne pas prendre un moment cette semaine pour \u00e9tablir un contact virtuel avec votre \u00e9quipe et #ParlerPourVrai de ce que vous ressentez?</p>\n<p>N\u2019oubliez pas qu\u2019il y a plusieurs outils, conseils et ressources sur la sant\u00e9 mentale disponible sur la <a href=\"http://multimedia.agr.gc.ca/COVID-19/mental_health-fra.html\">page COVID-19</a> d\u2019AAC ainsi qu\u2019aupr\u00e8s de l\u2019\u00e9quipe du Mieux-\u00eatre en milieur de travail. Les employ\u00e9s peuvent aussi contacter le Bureau de l\u2019ombudsman pour de l\u2019aide \u00e0 naviguer les ressources et soulever des pr\u00e9occupations par rapport au harc\u00e8lement, le mieux-\u00eatre et la civilit\u00e9. Des soutiens additionnels sont aussi disponibles dans le portail <a href=\"https://ca.portal.gs/?lang=fr-ca\">Espace mieux-\u00eatre Canada</a>.</p>\n<p>Restons en contact. L\u2019union fait la force.</p>\n<p>\u00a0</p>\n<p><strong>Mary Dila et Jane McDonald<br></strong>Cochampionnes du mieux-\u00eatre mental d\u2019AAC</p>\n<p><img src=\"https://intranet.agr.gc.ca/resources/prod/news/images/MentalHealth2020-FR.png\" class=\"center-block\"></p>\n\t\t"
    },
    "breadcrumb": {
        "en": "Mental Health Week Message from AAFC's Mental Wellness Co-Champions",
        "fr": "Message pour la Semaine de la sant\u00e9 mentale de la part des cochampionnes du mieux-\u00eatre"
    },
    "news": {
        "date_posted": {
            "en": "2020-05-04",
            "fr": "2020-05-04"
        },
        "to": {
            "en": "All staff",
            "fr": "Tous les employ\u00e9s"
        },
        "by": {
            "en": "Mary Dila and Jane McDonald, AAFC Mental Wellness Co-Champions",
            "fr": "Mary Dila et Jane McDonald, Cochampionnes du mieux-\u00eatre mental d\u2019AAC"
        }
    }
}