{
    "dcr_id": "1588355207186",
    "lang": "en",
    "title": {
        "en": "Connecting with Colleagues During Mental Health Week",
        "fr": "Rester en contact avec des coll\u00e8gues pendant la Semaine de la sant\u00e9 mentale"
    },
    "modified": "2020-05-01 00:00:00.0",
    "issued": "2020-05-01 00:00:00.0",
    "type_name": "intra-intra/news-nouv",
    "node_id": "1279030006975",
    "layout_name": null,
    "dc_date_created": "2020-05-01",
    "breadcrumb_label": "",
    "meta": {
        "issued": {
            "en": "2020-05-01",
            "fr": "2020-05-01"
        },
        "modified": {
            "en": "2020-05-01",
            "fr": "2020-05-01"
        },
        "format": {
            "en": "gcformat",
            "fr": "gcformat"
        },
        "title": {
            "en": "Connecting with Colleagues During Mental Health Week",
            "fr": "Rester en contact avec des coll\u00e8gues pendant la Semaine de la sant\u00e9 mentale"
        },
        "subject": {
            "en": "communications",
            "fr": "communications"
        },
        "description": {
            "en": "Next week is Mental Health Week, which holds even more meaning and relevance this year.",
            "fr": "La semaine prochaine, ce sera la Semaine de la sant\u00e9 mentale, dont le message aura encore plus de sens et de pertinence cette ann\u00e9e."
        },
        "language": {
            "en": "eng",
            "fr": "fra"
        },
        "audience": {
            "en": "gcaudience",
            "fr": "gcaudience"
        },
        "creator": {
            "en": "Agriculture and Agri-Food Canada",
            "fr": "Agriculture et Agroalimentaire Canada"
        },
        "spatial": {
            "en": "gcregions",
            "fr": "gcregions"
        },
        "service": {
            "en": "AAFC_AgriSource",
            "fr": "AAC_AgriSource"
        },
        "accessRights": {
            "en": "3",
            "fr": "3"
        }
    },
    "body": {
        "en": "<br>\n<br>\n<p>Next week is <a href=\"https://mentalhealthweek.ca/#_blank\">Mental Health Week</a>, which holds even more meaning and relevance this year. For us, Mental Health Week this year is all about maintaining our social connections with colleagues, friends, family, and loved ones, while continuing to practise physical distancing. It\u2019s so important to make those connections\u2014it feels good, and it\u2019s good for our mental health.</p>\n<h2><strong>Get involved</strong></h2>\n<p>As in past years, there are several activities in the queue, including a conversation with Senator Kutcher hosted by our very own mental health champion, Mary Dila. Keep an eye out for a message on Monday with more details\u2014and get involved if you can.</p>\n<h2><strong>Supporting each other and the community</strong></h2>\n<p>During this difficult time, while it is important to take care of ourselves, we must also be sure to take care of each other. Please take time to focus on kindness and empathy, and do your best to help others during this unique and challenging period. And if today\u2019s uncertainty has you or a family member feeling fearful, stressed, or anxious, please be sure to contact the <a href=\"https://www.workhealthlife.com/?lang=en-CA#_blank\">Employee and Family Assistance Program</a> for additional support.</p>\n<p>Don\u2019t forget to visit our <a href=\"http://multimedia.agr.gc.ca/COVID-19/index-eng.html#_blank\">COVID-19 website</a> for the latest updates, and to take advantage of the wealth of <a href=\"http://multimedia.agr.gc.ca/COVID-19/mental_health-eng.html#_blank\">mental health tools, tips, and supports</a> accessible from there, including AAFC\u2019s Ombudsperson Jane Taylor.</p>\n<p>We thank you all for your resilience, empathy, and strength. Please take care of yourselves and your loved ones.</p>\n<p>\u00a0</p>\n<p><strong>Chris Forbes<br></strong>Deputy Minister</p>\n<p><strong>Annette Gibbons<br></strong>Associate Deputy Minister</p>\n\n\t\t",
        "fr": "<br>\n<br>\n<p>La semaine prochaine, ce sera la <a href=\"https://mentalhealthweek.ca/fr/\">Semaine de la sant\u00e9 mentale</a>, dont le message aura encore plus de sens et de pertinence cette ann\u00e9e. Pour nous cette ann\u00e9e, la Semaine de la sant\u00e9 mentale signifie maintenir des liens sociaux avec nos coll\u00e8gues, nos amis, notre famille et nos proches, tout en continuant \u00e0 pratiquer l\u2019\u00e9loignement physique. Il est si important de rester en contact. Cela fait du bien et c\u2019est bon pour notre sant\u00e9 mentale.</p>\n<h2><strong>Participez</strong></h2>\n<p>Comme par les ann\u00e9es pass\u00e9es, il y a plusieurs activit\u00e9s au programme, y compris une conversation avec le s\u00e9nateur Kutcher organis\u00e9e par Mary Dila, notre championne de la sant\u00e9 mentale. Attendez-vous \u00e0 recevoir un message avec plus de d\u00e9tails lundi \u2013 et participez si vous le pouvez.</p>\n<h2><strong>Soutien mutuel et dans la communaut\u00e9</strong></h2>\n<p>En ces temps difficiles, s\u2019il est important de prendre soin de soi, il faut aussi veiller les uns sur les autres. Prenez le temps de faire preuve de gentillesse et d\u2019empathie, et faites de votre mieux pour aider les autres en cette p\u00e9riode unique et \u00e9prouvante. Et si vous ou un membre de votre famille \u00eates troubl\u00e9 par la crainte, le stress ou l\u2019angoisse en raison de l\u2019incertitude actuelle, n\u2019h\u00e9sitez pas \u00e0 contacter le <a href=\"https://www.workhealthlife.com/?explicitSoftLogin=true\">Programme d\u2019aide aux employ\u00e9s et \u00e0 la famille</a> pour recevoir un soutien suppl\u00e9mentaire.</p>\n<p>N\u2019oubliez pas de consulter les derni\u00e8res mises \u00e0 jour sur notre <a href=\"http://multimedia.agr.gc.ca/COVID-19/index-fra.html\">page web de la COVID\u201119</a> et profitez des divers <a href=\"http://multimedia.agr.gc.ca/COVID-19/mental_health-fra.html\">outils, conseils et ressources de soutien en mati\u00e8re de sant\u00e9 mentale</a> accessibles, notamment l\u2019ombudsman d\u2019AAC, Jane Taylor.</p>\n<p>Merci \u00e0 vous tous pour votre r\u00e9silience, votre empathie et votre force. Prenez soin de vous et de vos proches.</p>\n<p>\u00a0</p>\n<p><strong>Chris Forbes<br></strong>Sous-ministre</p>\n<p><strong>Annette Gibbons<br></strong>Sous-ministre d\u00e9l\u00e9gu\u00e9e</p>\n\t\t"
    },
    "breadcrumb": {
        "en": "Connecting with Colleagues During Mental Health Week",
        "fr": "Rester en contact avec des coll\u00e8gues pendant la Semaine de la sant\u00e9 mentale"
    },
    "news": {
        "date_posted": {
            "en": "2020-05-01",
            "fr": "2020-05-01"
        },
        "to": {
            "en": "All staff",
            "fr": "Tous les employ\u00e9s"
        },
        "by": {
            "en": "Chris Forbes, Deputy Minister, and Annette Gibbons, Associate Deputy Minister",
            "fr": "Chris Forbes, Sous-ministre, et Annette Gibbons, Sous-ministre d\u00e9l\u00e9gu\u00e9e"
        }
    }
}