{
    "dcr_id": "1589896787216",
    "lang": "en",
    "title": {
        "en": "Scheduled Maintenance of ISB Services \u2013 May  22-24",
        "fr": "Entretien pr\u00e9vu des services de la DGSI \u2013 du 22 au 24 mai  "
    },
    "modified": "2020-05-19 00:00:00.0",
    "issued": "2020-05-19 00:00:00.0",
    "type_name": "intra-intra/news-nouv",
    "node_id": "1279030006975",
    "layout_name": null,
    "dc_date_created": "2020-05-19",
    "breadcrumb_label": "",
    "meta": {
        "issued": {
            "en": "2020-05-19",
            "fr": "2020-05-19"
        },
        "modified": {
            "en": "2020-05-19",
            "fr": "2020-05-19"
        },
        "format": {
            "en": "gcformat",
            "fr": "gcformat"
        },
        "title": {
            "en": "Scheduled Maintenance of ISB Services \u2013 May  22-24",
            "fr": "Entretien pr\u00e9vu des services de la DGSI \u2013 du 22 au 24 mai  "
        },
        "subject": {
            "en": "communications",
            "fr": "communications"
        },
        "description": {
            "en": "Please be advised that preventative maintenance of ISB services will be performed between Friday, May 22, and Sunday, May 24.",
            "fr": "Veuillez noter qu\u2019un entretien pr\u00e9ventif des services de la DGSI aura lieu du vendredi 22 mai au dimanche 24 mai."
        },
        "language": {
            "en": "eng",
            "fr": "fra"
        },
        "audience": {
            "en": "gcaudience",
            "fr": "gcaudience"
        },
        "creator": {
            "en": "Agriculture and Agri-Food Canada",
            "fr": "Agriculture et Agroalimentaire Canada"
        },
        "spatial": {
            "en": "gcregions",
            "fr": "gcregions"
        },
        "service": {
            "en": "AAFC_AgriSource",
            "fr": "AAC_AgriSource"
        },
        "accessRights": {
            "en": "3",
            "fr": "3"
        }
    },
    "body": {
        "en": "<br>\n<br>\n<p>Please be advised that preventative maintenance of ISB services will be performed between Friday, May 22, and Sunday, May 24.<br>\n<br>\nThe following downtime is part of a management plan to upgrade our infrastructure systems. These measures are performed regularly to improve performance and to ensure that the department does not experience any outages that would affect employees and the delivery of our services.<br>\n<br>\nConsequently, the following services may not be available during the following periods:</p>\n<p><strong>Friday, </strong><strong>May 22 \u2013 3:00 a.m. until 8:00 a.m. (ET)</strong></p>\n<ul>\n<li>Cognos Business Intelligence Gateway (no access to Cognos reports)</li>\n</ul>\n<p><strong>Saturday, </strong><strong>May 23 \u2013 1:00 a.m. until 6:00 a.m. (ET)</strong></p>\n<ul>\n<li>AgriDOC</li>\n<li>Cognos Business Intelligence Gateway (no access to Cognos reports)</li>\n</ul>\n<p><strong>*Saturday, </strong><strong>May 23 \u2013 8:00 a.m. until 4:00 p.m. (ET)</strong></p>\n<ul>\n<li>AAFC Online</li>\n<li>AgriSource</li>\n<li>ccmEnterprise (TRECS)</li>\n<li>Cognos Business Intelligence Gateway (no access to Cognos reports)</li>\n<li>Peoplesoft</li>\n<li>SAP</li>\n</ul>\n<p><strong>Sunday, </strong><strong>May 24 \u2013 3:00 a.m. until 8:00 a.m. (ET)</strong></p>\n<ul>\n<li>Cognos Business Intelligence Gateway (no access to Cognos reports)</li>\n</ul>\n<p><strong>*Sunday, May 24 \u2013 7:00 a.m. until 10:00 a.m. (ET)</strong></p>\n<ul>\n<li>AgriApps</li>\n<li>Knowledge Workspace</li>\n<li>Skype for Business</li>\n</ul>\n<p>*Please click here for a <a href=\"https://collab.agr.gc.ca/co/ccc/_layouts/15/guestaccess.aspx?guestaccesstoken=U8Abzug%2bxkwGt49wy0Bfi3sm8R9wvoY4aZ1MPCkmmrs%3d&amp;docid=2_0799275b73c4a429da2800debb5ef935e&amp;rev=1\">complete listing of affected services</a> during these periods.</p>\n<p>Should you have any questions or concerns, please do not hesitate to contact IT Centre TI.</p>\n<p><strong>\u00a0</strong></p>\n<p><strong>IT Centre TI</strong><br>\nTelephone: 1-855-545-4411<br>\n<a href=\"http://myitcentreti-monitcentreti/\">My IT Centre TI</a></p>\n<p><img src=\"https://intranet.agr.gc.ca/resources/prod/news/images/ITCentreTI2.png\" class=\"center-block\"></p>\n\n\t\t",
        "fr": "<br>\n<br>\n<p>Veuillez noter qu\u2019un entretien pr\u00e9ventif des services de la DGSI aura lieu du vendredi 22 mai au dimanche 24 mai.</p>\n<p>Les interruptions suivantes sont pr\u00e9vues dans le cadre d\u2019un plan de gestion visant la mise \u00e0 niveau de nos syst\u00e8mes d\u2019infrastructure. Ces mesures sont prises r\u00e9guli\u00e8rement afin d\u2019am\u00e9liorer le rendement et d\u2019\u00e9viter que le Minist\u00e8re subisse des pannes qui pourraient nuire aux employ\u00e9s et \u00e0 la prestation de nos services.<br>\n<br>\nPar cons\u00e9quent, les services indiqu\u00e9s ci-dessous pourraient ne pas \u00eatre accessibles pendant les p\u00e9riodes indiqu\u00e9es :</p>\n<p><strong>Le vendredi 22 mai, de 3 h \u00e0 8 h (HE)</strong></p>\n<ul>\n<li>Portail d\u2019information de gestion Cognos (aucun acc\u00e8s aux rapports de Cognos)</li>\n</ul>\n<p><strong>Le samedi 23 mai, de 1 h \u00e0 6 h (HE)</strong></p>\n<ul>\n<li>AgriDOC</li>\n<li>Portail d\u2019information de gestion Cognos (aucun acc\u00e8s aux rapports de Cognos)</li>\n</ul>\n<p><strong>*</strong> <strong>Le samedi 23 mai, de 8 h \u00e0 16 h</strong><strong> (HE)</strong></p>\n<ul>\n<li>AAC en direct</li>\n<li>AgriSource</li>\n<li>ccmEnterprise (SSRCHD)</li>\n<li>Portail d\u2019information de gestion Cognos (aucun acc\u00e8s aux rapports de Cognos)</li>\n<li>PeopleSoft</li>\n<li>SAP</li>\n</ul>\n<p><strong>Le dimanche </strong><strong>24 mai, de 3 h \u00e0 8 h (HE)</strong></p>\n<ul>\n<li>Portail d\u2019information de gestion Cognos (aucun acc\u00e8s aux rapports de Cognos)</li>\n</ul>\n<p><strong>*</strong> <strong>Le dimanche 24 mai, de 7 h \u00e0 10 h (HE)</strong></p>\n<ul>\n<li>AgriApps</li>\n<li>Espace de travail du savoir</li>\n<li>Skype Entreprise</li>\n</ul>\n<p>*Cliquez sur le lien pour voir la <a href=\"https://collab.agr.gc.ca/co/ccc/_layouts/15/guestaccess.aspx?guestaccesstoken=%2bntYwbDvLeTgAXxjF79QbuuJ03ghXKTjSiDQni%2fgT2U%3d&amp;docid=2_05f157ea33dce47f5b2f99cab490e2258&amp;rev=1\">liste compl\u00e8te des services touch\u00e9s</a> pendant ces p\u00e9riodes.</p>\n<p>Si vous avez des questions ou des pr\u00e9occupations \u00e0 ce sujet, n\u2019h\u00e9sitez pas \u00e0 communiquer avec le IT Centre TI.</p>\n<p>\u00a0</p>\n<p><strong>IT Centre TI</strong><br>\nT\u00e9l\u00e9phone : 1-855-545-4411<br>\n<a href=\"http://myitcentreti-monitcentreti/\">Mon IT Centre TI</a></p>\n<p><img src=\"https://intranet.agr.gc.ca/resources/prod/news/images/ITCentreTI2.png\" class=\"center-block\"></p>\n\t\t"
    },
    "breadcrumb": {
        "en": "Scheduled Maintenance of ISB Services \u2013 May 22-24",
        "fr": "Entretien pr\u00e9vu des services de la DGSI \u2013 du 22 au 24 mai"
    },
    "news": {
        "date_posted": {
            "en": "2020-05-21",
            "fr": "2020-05-21"
        },
        "to": {
            "en": "All staff",
            "fr": "Tous les employ\u00e9s"
        },
        "by": {
            "en": "IT Centre TI",
            "fr": "IT Centre TI"
        }
    }
}