{
    "dcr_id": "1590775022739",
    "lang": "en",
    "title": {
        "en": "Update on COVID-19 \u2013 May 28, 2020",
        "fr": "Mise \u00e0 jour sur la COVID-19 \u2013 le 28 mai 2020"
    },
    "modified": "2020-05-29 00:00:00.0",
    "issued": "2020-05-29 00:00:00.0",
    "type_name": "intra-intra/news-nouv",
    "node_id": "1279030006975",
    "layout_name": null,
    "dc_date_created": "2020-05-29",
    "breadcrumb_label": "",
    "meta": {
        "issued": {
            "en": "2020-05-29",
            "fr": "2020-05-29"
        },
        "modified": {
            "en": "2020-05-29",
            "fr": "2020-05-29"
        },
        "format": {
            "en": "gcformat",
            "fr": "gcformat"
        },
        "title": {
            "en": "Update on COVID-19 \u2013 May 28, 2020",
            "fr": "Mise \u00e0 jour sur la COVID-19 \u2013 le 28 mai 2020"
        },
        "subject": {
            "en": "communications",
            "fr": "communications"
        },
        "description": {
            "en": "Here are the latest COVID-19 updates.",
            "fr": "Voici les derni\u00e8res nouvelles li\u00e9es \u00e0 la COVID-19."
        },
        "language": {
            "en": "eng",
            "fr": "fra"
        },
        "audience": {
            "en": "gcaudience",
            "fr": "gcaudience"
        },
        "creator": {
            "en": "Agriculture and Agri-Food Canada",
            "fr": "Agriculture et Agroalimentaire Canada"
        },
        "spatial": {
            "en": "gcregions",
            "fr": "gcregions"
        },
        "service": {
            "en": "AAFC_AgriSource",
            "fr": "AAC_AgriSource"
        },
        "accessRights": {
            "en": "3",
            "fr": "3"
        }
    },
    "body": {
        "en": "<br>\n<br>\n<p>Here are the latest COVID-19 updates.</p>\n<h2><strong><strong>Changes to AAFC\u2019s travel policy during the COVID-19 pandemic</strong></strong></h2>\n<p>As restrictions have eased, some limited field maintenance and work on the most urgent field research projects have started. This has impacted some staff members of the Science and Technology Branch, Corporate Management Branch, and Information Systems Branch. Local travel is required to conduct these critical service activities.</p>\n<p>To achieve operational efficiency while still respecting the Government of Canada\u2019s restrictions on travel and physical distancing, the following exceptions to the previous travel restrictions and approvals, introduced in the DM Communications message from March 13, will apply to essential local travel within Canada for the above-mentioned activities:</p>\n<ul>\n<li>Work-related travel within Canada that is considered essential must be approved by an Assistant Deputy Minister, with the following exception: daily work-related in-province/in-territory travel (no overnight) within Canada related to providing critical services or conducting field-related activities can be approved by the delegated manager. Federal, provincial, and municipal government restrictions must continue to be followed.</li>\n<li>All work-related travel outside Canada is still cancelled until further notice.</li>\n</ul>\n<h2><strong>Performance Management Agreement update</strong></h2>\n<p>Employee performance agreements for 2019\u20132020 are to be completed by <strong>July 31, 2020</strong>. Managers and employees should have a year-end performance discussion along with a written assessment and performance rating documented via the <a href=\"https://portal-portail.tbs-sct.gc.ca/home-eng.aspx\">Public Service Performance Management application</a>. Please contact the Performance Management Team at aafc.performance-rendement.aac@canada.ca for assistance if you are unable to access the application.</p>\n<h2><strong>Update on pay and pensions</strong></h2>\n<p>A key priority that has remained constant throughout this period of unprecedented change has been making sure that you continue to receive your pay. Moving forward, the AAFC Pay Team is looking at innovative ways to further engage and support employees in understanding and resolving pay-related concerns.</p>\n<p>Through regular web updates on relevant topics\u2014such as the remaining provisions of the Phoenix Damages Agreement, the return of the monthly pay bulletin in June, and virtual information sessions with pay specialists later this summer\u2014you can count on getting the information you need related to your pay, benefits, and pension-related entitlements.</p>\n<h2><strong><strong>Remember to keep your personal contact information updated</strong></strong></h2>\n<p>In addition to emergency situations, your contact information may be used by management and/or bargaining agents to communicate with you. To update your contact information, you can make changes directly in PeopleSoft. For more information, Public Service Alliance of Canada (PSAC) members should consult the <a href=\"http://multimedia.agr.gc.ca/COVID-19/psac_message_28may2020-eng.html\">Message to PSAC Bargaining Unit Members</a>.</p>\n<h2><strong>Library and Information Services is open for business</strong></h2>\n<p>The Canadian Agriculture Library (CAL) is a virtual team with service points across the country. During this time of working remotely and physical distancing, CAL has created a <a href=\"https://collab.agr.gc.ca/co/kis-sis/SitePages/Library%20and%20Information%20Services%20Update.aspx\">Library and Information Services Update</a> on the status of services, such as the Federal Science Library, loans, and training. Be assured that the CAL team is there to support your work and to keep you informed. If you have any questions, contact CAL at <a href=\"mailto:aafc.cal-bca.aac@canada.ca\">aafc.cal-bca.aac@canada.ca</a>.</p>\n<p>If you haven\u2019t already done so, please take a few minutes to complete the <a href=\"https://agr.survey-sondage.ca/f/s.aspx?s=a5c63d92-6bef-4c0e-b84c-0a267cbabc51&amp;lang=EN#_blank\">AAFC Employee COVID-19 Check-In Survey</a> before it closes tomorrow. Your input matters!</p>\n<p>And don\u2019t forget to visit <a href=\"http://multimedia.agr.gc.ca/COVID-19/index-eng.html\">Coronavirus disease (COVID-19): Information for employees of Agriculture and Agri-Food Canada</a> for all the latest updates.</p>\n<p>Stay safe, and stay healthy.</p>\n<p>\u00a0</p>\n<p><strong>Christine Walker<br></strong>Assistant Deputy Minister and Chief Financial Officer<br>Corporate Management Branch</p>\n\n\t\t",
        "fr": "<br>\n<br>\n<p>Voici les derni\u00e8res nouvelles li\u00e9es \u00e0 la COVID-19.</p>\n<h2><strong><strong>Changements apport\u00e9s \u00e0 la politique sur les voyages d\u2019AAC durant la pand\u00e9mie de COVID-19</strong></strong></h2>\n<p>Comme les restrictions ont rel\u00e2ch\u00e9, certains travaux d\u2019entretien sur le terrain et les activit\u00e9s li\u00e9es aux projets de recherche les plus urgents ont repris. Ces travaux ont eu une incidence sur des membres du personnel de la Direction g\u00e9n\u00e9rale des sciences et de la technologie, de la Direction g\u00e9n\u00e9rale de la gestion int\u00e9gr\u00e9e et de la Direction g\u00e9n\u00e9rale des syst\u00e8mes d\u2019information. Des d\u00e9placements locaux sont n\u00e9cessaires afin de mener ces activit\u00e9s lies \u00e0 des services indispensables.</p>\n<p>Afin d\u2019assurer l\u2019efficacit\u00e9 op\u00e9rationnelle tout en respectant les restrictions du gouvernement du Canada en mati\u00e8re de d\u00e9placements et d\u2019\u00e9loignement physique, les exceptions suivantes aux restrictions et autorisations de voyage d\u00e9taill\u00e9es dans le message du sous-ministre du 13 mars s\u2019appliqueront aux d\u00e9placements locaux essentiels au Canada pour les activit\u00e9s susmentionn\u00e9es :</p>\n<ul>\n<li>Les voyages \u00e0 l\u2019int\u00e9rieur du Canada qui sont jug\u00e9s essentiels doivent \u00eatre approuv\u00e9s par un sous-ministre adjoint, \u00e0 l\u2019exception des d\u00e9placements quotidiens dans la province ou le territoire (sans nuit\u00e9e) pour la prestation de services indispensables ou la r\u00e9alisation d\u2019activit\u00e9s de terrain qui peuvent \u00eatre approuv\u00e9es par le gestionnaire d\u00e9l\u00e9gu\u00e9. Il faut continuer de se plier aux restrictions impos\u00e9es par le gouvernement f\u00e9d\u00e9ral, les gouvernements provinciaux et les municipalit\u00e9s.</li>\n<li>Tous les d\u00e9placements professionnels \u00e0 l\u2019\u00e9tranger restent annul\u00e9s jusqu\u2019\u00e0 nouvel ordre.</li>\n</ul>\n<h2><strong>Le point sur les ententes de gestion du rendement</strong></h2>\n<p>Les ententes de rendement des employ\u00e9s pour 2019\u20132020 doivent \u00eatre remplies d\u2019ici le <strong>31 juillet 2020</strong>. Un employ\u00e9 et son gestionnaire doivent avoir en fin d\u2019exercice une discussion sur le rendement qui m\u00e8ne \u00e0 une \u00e9valuation \u00e9crite et une cote de rendement, le tout document\u00e9 au moyen de l\u2019<a href=\"https://portal-portail.tbs-sct.gc.ca/home-fra.aspx\">application de gestion du rendement de la fonction publique</a>. Demandez l\u2019aide de l\u2019\u00e9quipe de gestion du rendement \u00e0 l\u2019adresse aafc.performance-rendement.aac@canada.ca si vous \u00eates incapable d\u2019acc\u00e9der \u00e0 l\u2019application.</p>\n<h2><strong>Le point sur la paye et les pensions</strong></h2>\n<p>Tout au long de cette p\u00e9riode de changement sans pr\u00e9c\u00e9dent, une priorit\u00e9 constante a \u00e9t\u00e9 d\u2019assurer que vous continuez de recevoir votre salaire. Pour aller de l\u2019avant, l\u2019\u00e9quipe de la paye d\u2019AAC cherche des moyens novateurs d\u2019aider les employ\u00e9s \u00e0 comprendre les probl\u00e8mes li\u00e9s \u00e0 la paye et \u00e0 participer \u00e0 leur r\u00e9solution.</p>\n<p>Gr\u00e2ce \u00e0 de fr\u00e9quentes mises \u00e0 jour sur le Web sur des sujets d\u2019actualit\u00e9, comme les dispositions restantes de l\u2019entente sur les dommages caus\u00e9s par le syst\u00e8me de paye Ph\u00e9nix, le retour du bulletin de paye mensuel en juin et les s\u00e9ances d\u2019information virtuelles avec des sp\u00e9cialistes de la paye cet \u00e9t\u00e9, vous pouvez compter sur l\u2019information dont vous avez besoin en ce qui concerne la paye, les avantages sociaux et votre droit \u00e0 une prestation de retraite.</p>\n<h2><strong><strong>N\u2019oubliez pas de tenir vos coordonn\u00e9es personnelles \u00e0 jour</strong></strong></h2>\n<p>Outre les situations d\u2019urgence, vos coordonn\u00e9es peuvent \u00eatre utilis\u00e9es par la direction ou encore par les agents n\u00e9gociateurs souhaitant communiquer avec vous. Vous pouvez mettre \u00e0 jour vos coordonn\u00e9es en faisant les modifications n\u00e9cessaires directement dans PeopleSoft. Pour de plus amples renseignements, les membres de l\u2019Alliance de la Fonction publique du Canada (AFPC) peuvent consulter le <a href=\"http://multimedia.agr.gc.ca/COVID-19/psac_message_28may2020-fra.html\">message aux membres de l\u2019unit\u00e9 de n\u00e9gociation de l\u2019AFPC</a>.</p>\n<h2><strong>Les services de biblioth\u00e8que et d\u2019information sont offerts</strong></h2>\n<p>La Biblioth\u00e8que canadienne de l\u2019agriculture (BCA) est une \u00e9quipe virtuelle qui a des points de service partout au pays. Pendant cette p\u00e9riode de travail \u00e0 distance et d\u2019\u00e9loignement physique, la BCA publie une mise \u00e0 jour de l\u2019\u00e9tat de ses <a href=\"https://collab.agr.gc.ca/co/kis-sis/SitePages/Library%20and%20Information%20Services%20Update.aspx\">services de biblioth\u00e8que et d\u2019information</a>, comme la Biblioth\u00e8que scientifique f\u00e9d\u00e9rale, les pr\u00eats et la formation. Soyez assur\u00e9s que l\u2019\u00e9quipe de la BCA est l\u00e0 pour vous appuyer dans votre travail et vous tenir inform\u00e9s. Si vous avez des questions, communiquez avec la BCA \u00e0 l\u2019adresse suivante : <a href=\"mailto:aafc.cal-bca.aac@canada.ca\">aafc.cal-bca.aac@canada.ca</a>.</p>\n<p>Si vous ne l\u2019avez pas encore fait, vous avez jusqu\u2019\u00e0 demain pour r\u00e9pondre au <a href=\"https://agr.survey-sondage.ca/f/s.aspx?s=a5c63d92-6bef-4c0e-b84c-0a267cbabc51&amp;lang=FR&amp;r=8c4b1989-41e8-4a85-9983-bcd9d997b316#_blank\">Sondage aupr\u00e8s des employ\u00e9s d\u2019AAC \u2013 COVID-19</a>. Votre opinion compte!</p>\n<p>Et n\u2019oubliez pas de consulter r\u00e9guli\u00e8rement la page <a href=\"http://multimedia.agr.gc.ca/COVID-19/index-fra.html\">Maladie \u00e0 coronavirus (COVID-19) : Informations pour les employ\u00e9s d\u2019Agriculture et Agroalimentaire Canada</a> pour apprendre les derni\u00e8res nouvelles.</p>\n<p>Soyez prudents et restez en bonne sant\u00e9.</p>\n<p>\u00a0</p>\n<p><strong>Christine Walker<br></strong>Sous-ministre adjointe et dirigeante principale des finances<br>Direction g\u00e9n\u00e9rale de la gestion int\u00e9gr\u00e9e</p>\n\t\t"
    },
    "breadcrumb": {
        "en": "Update on COVID-19 \u2013 May 28, 2020",
        "fr": "Mise \u00e0 jour sur la COVID-19 \u2013 le 28 mai 2020"
    },
    "news": {
        "date_posted": {
            "en": "2020-04-28",
            "fr": "2020-06-05"
        },
        "to": {
            "en": "All staff",
            "fr": "Tous les employ\u00e9s"
        },
        "by": {
            "en": "Christine Walker, Assistant Deputy Minister and Chief Financial Officer, Corporate Management Branch",
            "fr": "Christine Walker, Sous-ministre adjointe et dirigeante principale des finances, Direction g\u00e9n\u00e9rale de la gestion int\u00e9gr\u00e9e"
        }
    }
}