{
    "dcr_id": "1592412548291",
    "lang": "en",
    "title": {
        "en": "Message from Minister Bibeau to AAFC and CFIA employees for National Public Service Week June 15-19, 2020",
        "fr": "Message de la ministre Bibeau aux employ\u00e9s d\u2019AAC et de l\u2019ACIA \u00e0 l\u2019occasion de la Semaine nationale de la Fonction publique 15 au 19 juin 2020"
    },
    "modified": "2020-06-17 00:00:00.0",
    "issued": "2020-06-17 00:00:00.0",
    "type_name": "intra-intra/news-nouv",
    "node_id": "1279030006975",
    "layout_name": null,
    "dc_date_created": "2020-06-17",
    "breadcrumb_label": "",
    "meta": {
        "issued": {
            "en": "2020-06-17",
            "fr": "2020-06-17"
        },
        "modified": {
            "en": "2020-06-17",
            "fr": "2020-06-17"
        },
        "format": {
            "en": "gcformat",
            "fr": "gcformat"
        },
        "title": {
            "en": "Message from Minister Bibeau to AAFC and CFIA employees for National Public Service Week June 15-19, 2020",
            "fr": "Message de la ministre Bibeau aux employ\u00e9s d\u2019AAC et de l\u2019ACIA \u00e0 l\u2019occasion de la Semaine nationale de la Fonction publique 15 au 19 juin 2020"
        },
        "subject": {
            "en": "communications",
            "fr": "communications"
        },
        "description": {
            "en": "As often happens in a major crisis like this one, we must change the way we do things. And the need to adapt quickly to our new reality can help us find new strengths we never knew we had.",
            "fr": "On dit qu'un \u00e9v\u00e9nement aussi bouleversant que la crise actuelle est souvent un acc\u00e9l\u00e9rateur de changement. La n\u00e9cessit\u00e9 de s'adapter aussi soudainement \u00e0 une nouvelle r\u00e9alit\u00e9 nous force souvent \u00e0 puiser dans nos ressources personnelles des forces qu'on ignorait avoir."
        },
        "language": {
            "en": "eng",
            "fr": "fra"
        },
        "audience": {
            "en": "gcaudience",
            "fr": "gcaudience"
        },
        "creator": {
            "en": "Agriculture and Agri-Food Canada",
            "fr": "Agriculture et Agroalimentaire Canada"
        },
        "spatial": {
            "en": "gcregions",
            "fr": "gcregions"
        },
        "service": {
            "en": "AAFC_AgriSource",
            "fr": "AAC_AgriSource"
        },
        "accessRights": {
            "en": "3",
            "fr": "3"
        }
    },
    "body": {
        "en": "<br>\n<br>\n<p>Dear team,</p>\n<p>As often happens in a major crisis like this one, we must change the way we do things. And the need to adapt quickly to our new reality can help us find new strengths we never knew we had.</p>\n<p>I have no doubt this is why you have all accomplished such amazing work over these past months. I see your professionalism, as you work hard, day in and day out, turning your daily routines upside down, to support an industry that is so essential to our nation\u2019s food security, in this time more than ever.</p>\n<p>Every week since the beginning of the pandemic, new challenges have emerged, and in record time you have delivered federal investments, tools, policies and programs to help the industry respond to them. Together, we have listened to industry, and we have worked in close collaboration with the provinces and territories to put measures in place to deliver fast support to farm families and food processors totaling more than $1.25 billion. These measures add to other wider federal initiatives which are also supporting the sector. We have also improved our business risk management programs, which are available to producers, and deferred loans under the Advanced Payments Program. Our work has also helped to expedite the arrival of temporary foreign workers, who are so essential to the sector; to strengthen the food security of Canadians; and to deliver uninterrupted food inspection services right across Canada.</p>\n<p>And I completely empathize with the significant challenges you face working from a distance, while taking care of your children and other loved ones.</p>\n<p>As we celebrate National Public Service Week this year, I want to thank you all for your dedicated service above and beyond the call, to our farmers and food processors. You should all be very proud of what you have accomplished during this challenging time.</p>\n<p>And please remember -- it\u2019s so important that we don\u2019t forget to take care of ourselves. This week, make sure to stay in touch with your colleagues. Take every opportunity to visit virtually with them to celebrate your achievements \u2013 it\u2019s good for the soul!</p>\n<p>\u00a0</p>\n<p><strong>Honourable Marie-Claude Bibeau</strong><br>Minister of Agriculture and Agri-Food</p>\n\n\t\t",
        "fr": "<br>\n<br>\n<p>Chers employ\u00e9es et employ\u00e9s,</p>\n<p>On dit qu\u2019un \u00e9v\u00e9nement aussi bouleversant que la crise actuelle est souvent un acc\u00e9l\u00e9rateur de changement. La n\u00e9cessit\u00e9 de s\u2019adapter aussi soudainement \u00e0 une nouvelle r\u00e9alit\u00e9 nous force souvent \u00e0 puiser dans nos ressources personnelles des forces qu\u2019on ignorait avoir.</p>\n<p>C\u2019est ce que je vois dans le travail incroyable que vous avez fait ces derniers mois. Je vois des professionnels qui ont r\u00e9ussi, du jour au lendemain, \u00e0 r\u00e9organiser compl\u00e8tement leurs journ\u00e9es pour soutenir une industrie essentielle \u00e0 notre s\u00e9curit\u00e9 alimentaire nationale au moment o\u00f9 elle en avait le plus besoin.</p>\n<p>Depuis le d\u00e9but de la pand\u00e9mie, de nouveaux d\u00e9fis se pr\u00e9sentent de semaine en semaine et vous d\u00e9ployez en un temps record les investissements, les outils, les politiques et les programmes pour y r\u00e9pondre. Ensemble, nous avons \u00e9t\u00e9 \u00e0 l\u2019\u00e9coute du secteur et avons travaill\u00e9 en \u00e9troite collaboration avec les provinces et territoires et nous avons mis en place des mesures d\u2019aide pour les familles agricoles et les transformateurs alimentaires totalisant plus de 1,25 milliard de dollars, qui s\u2019ajoutent aux autres initiatives f\u00e9d\u00e9rales plus vastes qui viennent aussi en aide au secteur. Nous avons am\u00e9lior\u00e9 nos programmes de gestion des risques de l\u2019entreprise et report\u00e9 les remboursements des pr\u00eats du Programme de paiements anticip\u00e9s. Notre travail a permis de faire venir des travailleurs \u00e9trangers temporaires si essentiels au secteur, d\u2019am\u00e9liorer la s\u00e9curit\u00e9 alimentaire des Canadiens et Canadiennes et d\u2019assurer la continuit\u00e9 des services d\u2019inspection des aliments d\u2019un bout \u00e0 l\u2019autre du pays.</p>\n<p>Soyez assur\u00e9s que je mesure l\u2019ampleur de ce que vous avez accompli malgr\u00e9 la distance, tout en vous occupant de vos enfants et de vos proches.</p>\n<p>\u00c0 l\u2019occasion de la Semaine nationale de la Fonction publique cette ann\u00e9e, j\u2019aimerais vous remercier de votre d\u00e9vouement hors du commun aux producteurs et transformateurs alimentaires canadiens, pour qui vous travaillez sans rel\u00e2che. Vraiment, dans des circonstances pareilles, vous pouvez \u00eatre tr\u00e8s fiers de vos r\u00e9alisations.</p>\n<p>J\u2019aimerais aussi r\u00e9it\u00e9rer l\u2019importance de prendre soin de vous. Cette semaine, restez en contact avec vos coll\u00e8gues et profitez de toutes les occasions d\u2019interaction sociale offertes pour c\u00e9l\u00e9brer vos accomplissements. M\u00eame virtuels, ces contacts favorisent votre bien-\u00eatre.</p>\n<p>\u00a0</p>\n<p><strong>L\u2019honorable Marie-Claude Bibeau</strong><br>Ministre de l\u2019Agriculture et de l\u2019Agroalimentaire</p>\n\t\t"
    },
    "breadcrumb": {
        "en": "Message from Minister Bibeau to AAFC and CFIA employees for National Public Service Week June 15-19, 2020",
        "fr": "Message de la ministre Bibeau aux employ\u00e9s d\u2019AAC et de l\u2019ACIA \u00e0 l\u2019occasion de la Semaine nationale de la Fonction publique 15 au 19 juin 2020"
    },
    "news": {
        "date_posted": {
            "en": "2020-06-17",
            "fr": "2020-06-17"
        },
        "to": {
            "en": "All staff",
            "fr": "Tous les employ\u00e9s"
        },
        "by": {
            "en": "Honourable Marie-Claude Bibeau, Minister of Agriculture and Agri-Food",
            "fr": "L'honorable Marie-Claude Bibeau, Ministre de l'Agriculture et de l'Agroalimentaire"
        }
    }
}