{
    "dcr_id": "1592927594795",
    "lang": "en",
    "title": {
        "en": "Scheduled Maintenance of ISB Services - June 25-July 1",
        "fr": "Entretien pr\u00e9vu des services de la DGSI - Du 25 juin au 1er juillet"
    },
    "modified": "2020-06-24 00:00:00.0",
    "issued": "2020-06-24 00:00:00.0",
    "type_name": "intra-intra/news-nouv",
    "node_id": "1279030006975",
    "layout_name": null,
    "dc_date_created": "2020-06-23",
    "breadcrumb_label": "",
    "meta": {
        "issued": {
            "en": "2020-06-24",
            "fr": "2020-06-24"
        },
        "modified": {
            "en": "2020-06-24",
            "fr": "2020-06-24"
        },
        "format": {
            "en": "gcformat",
            "fr": "gcformat"
        },
        "title": {
            "en": "Scheduled Maintenance of ISB Services - June 25-July 1",
            "fr": "Entretien pr\u00e9vu des services de la DGSI - Du 25 juin au 1er juillet"
        },
        "subject": {
            "en": "communications",
            "fr": "communications"
        },
        "description": {
            "en": "Please be advised that preventative maintenance of ISB services will be performed between Thursday, June 25, and Wednesday, July 1.",
            "fr": "Veuillez noter qu'un entretien pr\u00e9ventif des services de la DGSI aura lieu du jeudi 25 juin au mercredi 1er juillet."
        },
        "language": {
            "en": "eng",
            "fr": "fra"
        },
        "audience": {
            "en": "gcaudience",
            "fr": "gcaudience"
        },
        "creator": {
            "en": "Agriculture and Agri-Food Canada",
            "fr": "Agriculture et Agroalimentaire Canada"
        },
        "spatial": {
            "en": "gcregions",
            "fr": "gcregions"
        },
        "service": {
            "en": "AAFC_AgriSource",
            "fr": "AAC_AgriSource"
        },
        "accessRights": {
            "en": "3",
            "fr": "3"
        }
    },
    "body": {
        "en": "<br>\n<br>\n<p>Please be advised that preventative maintenance of ISB services will be performed between Thursday, June 25, and Wednesday, July 1.<br>\n<br>\nThe following downtime is part of a management plan to upgrade our infrastructure systems. These measures are performed regularly to improve performance and to ensure that the department does not experience any outages that would affect employees and the delivery of our services.<br>\n<br>\nConsequently, the following services may not be available during the following periods:</p>\n<p><strong>Thursday, </strong><strong>June 25 \u2013 1:00 a.m. until 6:00 a.m. (ET)</strong></p>\n<ul>\n<li>AgriApps</li>\n<li>Homebase</li>\n</ul>\n<p><strong>Friday, </strong><strong>June 26 \u2013 3:00 a.m. until 8:00 a.m. (ET)</strong></p>\n<ul>\n<li>Cognos Business Intelligence Gateway (no access to Cognos reports)</li>\n</ul>\n<p><strong>Saturday, </strong><strong>June 27 \u2013 1:00 a.m. until 6:00 a.m. (ET)</strong></p>\n<ul>\n<li>AgriDOC</li>\n<li>Cognos Business Intelligence Gateway (no access to Cognos reports)</li>\n</ul>\n<p><strong>*Saturday, </strong><strong>June 27 \u2013 9:00 a.m. until 12:00 p.m. (ET)</strong></p>\n<ul>\n<li>\n<p>PeopleSoft</p>\n</li>\n</ul>\n<p><strong>Sunday, </strong><strong>June 28 \u2013 3:00 a.m. until 8:00 a.m. (ET)</strong></p>\n<ul>\n<li>Cognos Business Intelligence Gateway (no access to Cognos reports)</li>\n</ul>\n<p><strong>Tuesday, </strong><strong>June 30 \u2013 7:00 p.m. until Wednesday, July 1 - 5:00 p.m. (ET)</strong></p>\n<ul>\n<li>AgriDOC</li>\n</ul>\n<p>Should you have any questions or concerns, please do not hesitate to contact IT Centre TI.</p>\n<p>*Please click here for a <a href=\"https://collab.agr.gc.ca/co/ccc/_layouts/15/guestaccess.aspx?guestaccesstoken=kZX%2bGQSgbRBp1OPkU%2bmvbqAwLywBuTakbR5Oer8Cugw%3d&amp;docid=2_0c27c0fe3a2ac438aa3de6388707d5658&amp;rev=1\">complete listing of affected services</a> during these periods.</p>\n<p><strong>IT Centre TI</strong><br>\nTelephone: 1-855-545-4411<br>\n<a href=\"http://myitcentreti-monitcentreti/\">My IT Centre TI</a></p>\n<p><img src=\"https://intranet.agr.gc.ca/resources/prod/news/images/ITCentreTI2.png\" class=\"center-block\"></p>\n\n\t\t",
        "fr": "<br>\n<br>\n<p>Veuillez noter qu\u2019un entretien pr\u00e9ventif des services de la DGSI aura lieu du jeudi 25 juin au mercredi 1er juillet.</p>\n<p>Les interruptions suivantes sont pr\u00e9vues dans le cadre d\u2019un plan de gestion visant la mise \u00e0 niveau de nos syst\u00e8mes d\u2019infrastructure. Ces mesures sont prises r\u00e9guli\u00e8rement afin d\u2019am\u00e9liorer le rendement et d\u2019\u00e9viter que le Minist\u00e8re subisse des pannes qui pourraient nuire aux employ\u00e9s et \u00e0 la prestation de nos services.</p>\n<p>Par cons\u00e9quent, les services suivants pourraient ne pas \u00eatre accessibles au cours des p\u00e9riodes indiqu\u00e9es ci-dessous :</p>\n<p><strong>Le jeudi 25 juin, </strong><strong>de 1 h \u00e0 6 h (HE)</strong></p>\n<ul>\n<li>AgriApps</li>\n<li>Homebase</li>\n</ul>\n<p><strong>Le vendredi 26 juin, </strong><strong>de 3 h \u00e0 8 h (HE)</strong></p>\n<ul>\n<li>Portail d\u2019information de gestion Cognos (aucun acc\u00e8s aux rapports de Cognos)</li>\n</ul>\n<p><strong>Le samedi 27 juin, de 1 h \u00e0 6 h</strong><strong> (HE)</strong></p>\n<ul>\n<li>AgriDOC</li>\n<li>Portail d\u2019information de gestion Cognos (aucun acc\u00e8s aux rapports de Cognos)</li>\n</ul>\n<p><strong>*Le samedi 27 juin,</strong><strong> de 9 h \u00e0 12 h (HE)</strong></p>\n<ul>\n<li>\n<p>PeopleSoft</p>\n</li>\n</ul>\n<p><strong>Le dimanche 28 juin, de</strong><strong> 3 h \u00e0 8 h (HE)</strong></p>\n<ul>\n<li>Portail d\u2019information de gestion Cognos (aucun acc\u00e8s aux rapports de Cognos)</li>\n</ul>\n<p><strong>Du mardi 30 juin</strong><strong> \u00e0 19 h au mercredi 1er juillet \u00e0 17 h (HE)</strong></p>\n<ul>\n<li>AgriDOC</li>\n</ul>\n<p>Si vous avez des questions ou des pr\u00e9occupations \u00e0 ce sujet, n\u2019h\u00e9sitez pas \u00e0 communiquer avec le IT Centre TI.</p>\n<p>*Veuillez cliquer sur le lien pour voir la <a href=\"https://collab.agr.gc.ca/co/ccc/_layouts/15/guestaccess.aspx?guestaccesstoken=%2bXSfmyAqhAT4G5S9BxYxO9qU93Vj5mrZ%2bM70uJnnaAU%3d&amp;docid=2_05e0730244eca40f69350986451a48e6e&amp;rev=1\">liste compl\u00e8te des services touch\u00e9s</a> pendant ces p\u00e9riodes.</p>\n<p>\u00a0</p>\n<p><strong>IT Centre TI</strong><br>\nT\u00e9l\u00e9phone : 1-855-545-4411<br>\n<a href=\"http://myitcentreti-monitcentreti/\">Mon IT Centre TI</a></p>\n<p><img src=\"https://intranet.agr.gc.ca/resources/prod/news/images/ITCentreTI2.png\" class=\"center-block\"></p>\n\t\t"
    },
    "breadcrumb": {
        "en": "Scheduled Maintenance of ISB Services - June 25-July 1",
        "fr": "Entretien pr\u00e9vu des services de la DGSI - Du 25 juin au 1er juillet"
    },
    "news": {
        "date_posted": {
            "en": "2020-06-25",
            "fr": "2020-06-25"
        },
        "to": {
            "en": "All staff",
            "fr": "Tous les employ\u00e9s"
        },
        "by": {
            "en": "IT Centre TI",
            "fr": "IT Centre TI"
        }
    }
}