{
    "dcr_id": "1592251035200",
    "lang": "en",
    "title": {
        "en": "Scheduled Maintenance of ISB Services \u2013 June 20-21",
        "fr": "Entretien pr\u00e9vu des services de la DGSI \u2013 Les 20 et 21 juin"
    },
    "modified": "2020-06-18 00:00:00.0",
    "issued": "2020-06-17 00:00:00.0",
    "type_name": "intra-intra/news-nouv",
    "node_id": "1279030006975",
    "layout_name": null,
    "dc_date_created": "2020-06-17",
    "breadcrumb_label": "",
    "meta": {
        "issued": {
            "en": "2020-06-17",
            "fr": "2020-06-17"
        },
        "modified": {
            "en": "2020-06-18",
            "fr": "2020-06-18"
        },
        "format": {
            "en": "gcformat",
            "fr": "gcformat"
        },
        "title": {
            "en": "Scheduled Maintenance of ISB Services \u2013 June 20-21",
            "fr": "Entretien pr\u00e9vu des services de la DGSI \u2013 Les 20 et 21 juin"
        },
        "subject": {
            "en": "communications",
            "fr": "communications"
        },
        "description": {
            "en": "Please be advised that preventative maintenance of ISB services will be performed between Saturday, June 20, and Sunday, June 21.",
            "fr": "Veuillez noter qu'un entretien pr\u00e9ventif des services de la DGSI aura lieu du samedi 20 juin au dimanche 21 juin."
        },
        "language": {
            "en": "eng",
            "fr": "fra"
        },
        "audience": {
            "en": "gcaudience",
            "fr": "gcaudience"
        },
        "creator": {
            "en": "Agriculture and Agri-Food Canada",
            "fr": "Agriculture et Agroalimentaire Canada"
        },
        "spatial": {
            "en": "gcregions",
            "fr": "gcregions"
        },
        "service": {
            "en": "AAFC_AgriSource",
            "fr": "AAC_AgriSource"
        },
        "accessRights": {
            "en": "3",
            "fr": "3"
        }
    },
    "body": {
        "en": "<br>\n<br>\n<p>Please be advised that preventative maintenance of ISB services will be performed between Saturday, June 20, and Sunday, June 21.<br>\n<br>\nThe following downtime is part of a management plan to upgrade our infrastructure systems. These measures are performed regularly to improve performance and to ensure that the department does not experience any outages that would affect employees and the delivery of our services.<br>\n<br>\nConsequently, the following services may not be available during these periods:</p>\n<p><strong>Saturday, </strong><strong>June 20 \u2013 1:00 a.m. until 6:00 a.m. (ET)</strong></p>\n<ul>\n<li>AgriDoc</li>\n<li>ccmEnterprise (including TRECS)</li>\n<li>Skype for Business</li>\n</ul>\n<p><strong>*Sunday, June 21 \u2013 7:00 a.m. until 10:00 a.m. (ET)</strong></p>\n<ul>\n<li>AgriApps</li>\n<li>Knowledge Workspace</li>\n<li>Skype for Business</li>\n</ul>\n<p><strong>*Sunday, June 21 \u2013 10:00 a.m. until 12:00 p.m. (ET)</strong></p>\n<ul>\n<li>Competency Interview and Reference Guide</li>\n<li>Forms Catalogue</li>\n<li>Government of Canada Workplace Charitable Campaign</li>\n<li>Publicentrale</li>\n</ul>\n<p><strong>*Sunday, June 21 \u2013 9:00 a.m. until 3:00 p.m. (ET)</strong></p>\n<ul>\n<li>AAFC Online</li>\n<li>Biodiversity Production</li>\n<li>External Search</li>\n<li>Grants and Contribution Delivery System</li>\n<li>Science Management Systems*</li>\n</ul>\n<p>*Please click here for a <a href=\"https://collab.agr.gc.ca/co/ccc/_layouts/15/guestaccess.aspx?guestaccesstoken=H9ku8uxgcKsT5Qun4lXU8i1W0eQBWqF9o8hbrsXpnVI%3d&amp;docid=2_011d109c51c714a90ae03303c7c82c77b&amp;rev=1\">complete listing of affected services</a> (Word) during these periods.</p>\n<p>Should you have any questions or concerns, please do not hesitate to contact IT Centre TI.</p>\n<p><br>\n<br>\n<strong>IT Centre TI</strong><br>\nTelephone: 1-855-545-4411<br>\n<a href=\"http://myitcentreti-monitcentreti/\">My IT Centre TI</a></p>\n<p><img src=\"https://intranet.agr.gc.ca/resources/prod/news/images/ITCentreTI2.png\" class=\"center-block\"></p>\n\n\t\t",
        "fr": "<br>\n<br>\n<p>Veuillez noter qu\u2019un entretien pr\u00e9ventif des services de la DGSI aura lieu du samedi 20 juin au dimanche 21 juin.<br>\n<br>\nLes interruptions suivantes sont pr\u00e9vues dans le cadre d\u2019un plan de gestion visant la mise \u00e0 niveau de nos syst\u00e8mes d\u2019infrastructure. Ces mesures sont prises r\u00e9guli\u00e8rement afin d\u2019am\u00e9liorer le rendement et d\u2019\u00e9viter que le Minist\u00e8re subisse des pannes qui pourraient nuire aux employ\u00e9s et \u00e0 la prestation de nos services.<br>\n<br>\nPar cons\u00e9quent, les services indiqu\u00e9s ci-dessous pourraient ne pas \u00eatre accessibles pendant les p\u00e9riodes indiqu\u00e9es :</p>\n<p><strong>Samedi 20 juin, de 1 h \u00e0 6 h (HE)</strong><strong> </strong></p>\n<ul>\n<li>AgriDOC</li>\n<li>ccmEnterprise (y compris le SSRCHD)</li>\n<li>Skype Entreprise</li>\n</ul>\n<p><strong>*Dimanche 21 juin, de 7 h \u00e0 10 h (HE)</strong></p>\n<ul>\n<li>AgriApps</li>\n<li>Espace de travail du savoir</li>\n<li>Skype Entreprise</li>\n</ul>\n<p><strong>*Dimanche 21 juin, de 10 h \u00e0 12 h (HE)</strong></p>\n<ul>\n<li>Guide d\u2019entrevue ax\u00e9e sur les comp\u00e9tences et de v\u00e9rification des r\u00e9f\u00e9rences</li>\n<li>Catalogue des formulaires</li>\n<li>Campagne de charit\u00e9 en milieu de travail du gouvernement du Canada</li>\n<li>Publicentrale</li>\n</ul>\n<p><strong>*Dimanche 21 juin, de 9 h \u00e0 15 h (HE)</strong></p>\n<ul>\n<li>AAC en direct</li>\n<li>Production aux fins de la biodiversit\u00e9</li>\n<li>Recherche externe</li>\n<li>Syst\u00e8me de prestation des subventions et des contributions</li>\n<li>Syst\u00e8mes de gestion des sciences*</li>\n</ul>\n<p>*Cliquez sur le lien pour voir la <a href=\"https://collab.agr.gc.ca/co/ccc/_layouts/15/guestaccess.aspx?guestaccesstoken=ewz%2b%2f%2bUE6PmzJKrJOe7nhQqfYV0VAFMeoZtYjKPQeWk%3d&amp;docid=2_017c3356377d1418db804596c801dd30c&amp;rev=1\">liste compl\u00e8te des services touch\u00e9s</a> (Word) pendant ces p\u00e9riodes.</p>\n<p>Si vous avez des questions ou des pr\u00e9occupations \u00e0 ce sujet, n\u2019h\u00e9sitez pas \u00e0 communiquer avec le IT Centre TI.</p>\n<p>\u00a0</p>\n<p><strong>IT Centre TI</strong><br>\nT\u00e9l\u00e9phone : 1-855-545-4411<br>\n<a href=\"http://myitcentreti-monitcentreti/\">Mon IT Centre TI</a></p>\n<p><img src=\"https://intranet.agr.gc.ca/resources/prod/news/images/ITCentreTI2.png\" class=\"center-block\"></p>\n\t\t"
    },
    "breadcrumb": {
        "en": "Scheduled Maintenance of ISB Services \u2013 June 20-21",
        "fr": "Entretien pr\u00e9vu des services de la DGSI \u2013 Les 20 et 21 juin"
    },
    "news": {
        "date_posted": {
            "en": "2020-06-18",
            "fr": "2020-06-18"
        },
        "to": {
            "en": "All staff",
            "fr": "Tous les employ\u00e9s"
        },
        "by": {
            "en": "IT Centre TI",
            "fr": "IT Centre TI"
        }
    }
}