{
    "dcr_id": "1594138268251",
    "lang": "en",
    "title": {
        "en": "Summer Has Arrived and Your Pay Will Too",
        "fr": "L\u2019\u00e9t\u00e9 est arriv\u00e9 et votre paye suivra"
    },
    "modified": "2020-07-07 00:00:00.0",
    "issued": "2020-07-07 00:00:00.0",
    "type_name": "intra-intra/news-nouv",
    "node_id": "1279030006975",
    "layout_name": null,
    "dc_date_created": "2020-07-07",
    "breadcrumb_label": "",
    "meta": {
        "issued": {
            "en": "2020-07-07",
            "fr": "2020-07-07"
        },
        "modified": {
            "en": "2020-07-07",
            "fr": "2020-07-07"
        },
        "format": {
            "en": "gcformat",
            "fr": "gcformat"
        },
        "title": {
            "en": "Summer Has Arrived and Your Pay Will Too",
            "fr": "L\u2019\u00e9t\u00e9 est arriv\u00e9 et votre paye suivra"
        },
        "subject": {
            "en": "communications",
            "fr": "communications"
        },
        "description": {
            "en": "In the July issue of This Month in Pay, you'll learn how the people behind AAFC's pay team have adapted to working from home and continue to provide pay-related services in support of AAFC employees.",
            "fr": "Dans le num\u00e9ro de juillet du Bulletin mensuel sur la paye, vous apprendrez comment les membres de l'\u00e9quipe de la paye d'AAC se sont adapt\u00e9s au travail \u00e0 la maison et continuent de fournir des services de r\u00e9mun\u00e9ration aux employ\u00e9s d'AAC."
        },
        "language": {
            "en": "eng",
            "fr": "fra"
        },
        "audience": {
            "en": "gcaudience",
            "fr": "gcaudience"
        },
        "creator": {
            "en": "Agriculture and Agri-Food Canada",
            "fr": "Agriculture et Agroalimentaire Canada"
        },
        "spatial": {
            "en": "gcregions",
            "fr": "gcregions"
        },
        "service": {
            "en": "AAFC_AgriSource",
            "fr": "AAC_AgriSource"
        },
        "accessRights": {
            "en": "3",
            "fr": "3"
        }
    },
    "body": {
        "en": "<br>\n<br>\n<p>As the days are getting warmer, many of us are starting to make plans to enjoy the outdoors and take in local experiences with some well-deserved vacation time. In the July issue of <em>This Month in Pay</em>, you\u2019ll learn how the people behind AAFC\u2019s pay team have adapted to working from home and continue to provide pay-related services in support of AAFC employees.</p>\n<p>\nAlso in this issue:</p>\n<ul>\n<li>two types of leave that not all employees know about</li>\n<li>a new resource to help you make sense of your deductions</li>\n<li>how to improve the prospect for timely and accurate acting pay</li>\n</ul>\n<p>You don\u2019t need a network connection to view the bulletin. Find it under <a href=\"http://multimedia.agr.gc.ca/COVID-19/pay_pensions-eng.html\">Pay and pensions</a> on AAFC\u2019s COVID-19 employee information page, or from the <a href=\"https://intranet.agr.gc.ca/agrisource/eng/human-resources/pay-benefits-and-phoenix?id=1511367056518\">Pay, Benefits, and Phoenix</a> AgriSource page.</p>\n<p>Managers are always your first point of contact for questions related to your pay. If your manager is not available, or if you are a manager and have questions, please send an email to Pay Transfer at <a href=\"mailto:aafc.paytransfer-transfertpaye.aac@canada.ca\">aafc.paytransfer-transfertpaye.aac@canada.ca</a>.</p>\n<p><strong>\u00a0</strong></p>\n<p><strong>Christine Walker</strong><br>\nAssistant Deputy Minister<br>\nCorporate Management Branch</p>\n<p><img src=\"https://intranet.agr.gc.ca/resources/prod/news/images/PayBulletin-EN.png\" class=\"center-block\"></p>\n\n\t\t",
        "fr": "<br>\n<br>\n<p>En ce d\u00e9but de saison estivale, bon nombre d\u2019entre nous se pr\u00e9parent \u00e0 profiter du plein air et \u00e0 vivre des exp\u00e9riences locales tout en prenant des vacances bien m\u00e9rit\u00e9es. Dans le num\u00e9ro de juillet du <em>Bulletin mensuel sur la paye</em>, vous apprendrez comment les membres de l\u2019\u00e9quipe de la paye d\u2019AAC se sont adapt\u00e9s au travail \u00e0 la maison et continuent de fournir des services de r\u00e9mun\u00e9ration aux employ\u00e9s d\u2019AAC.</p>\n<p>Vous trouverez \u00e9galement dans ce num\u00e9ro :</p>\n<ul>\n<li>deux types de cong\u00e9 qui ne sont pas connus de tous les employ\u00e9s</li>\n<li>une nouvelle ressource pour vous aider \u00e0 comprendre vos retenues</li>\n<li>une fa\u00e7on d\u2019am\u00e9liorer vos chances de recevoir une r\u00e9mun\u00e9ration d\u2019int\u00e9rim exacte et en temps opportun</li>\n</ul>\n<p>Vous n\u2019avez pas besoin d\u2019une connexion au r\u00e9seau pour consulter le bulletin. Vous le trouverez dans la section <a href=\"http://multimedia.agr.gc.ca/COVID-19/pay_pensions-fra.html\">Paye et pensions</a> du site d\u2019information d\u2019AAC sur la COVID-19 pour les employ\u00e9s, ou sur la page <a href=\"https://intranet.agr.gc.ca/agrisource/fra/ressources-humaines/remuneration-avantages-sociaux-et-phenix?id=1511367056518\">R\u00e9mun\u00e9ration, avantages sociaux et Ph\u00e9nix</a> d\u2019AgriSource.</p>\n<p>Les gestionnaires sont toujours votre premier point de contact pour les questions concernant votre paye. Si votre gestionnaire n\u2019est pas disponible ou si vous \u00eates un gestionnaire et que vous avez des questions, veuillez envoyer un courriel \u00e0 l\u2019\u00e9quipe de transfert de la paye \u00e0 <a href=\"mailto:aafc.paytransfer-transfertpaye.aac@canada.ca\">aafc.paytransfer-transfertpaye.aac@canada.ca</a>.</p>\n<p>\u00a0</p>\n<p><strong>Christine Walker</strong><br>\nSous-ministre adjointe<br>\nDirection g\u00e9n\u00e9rale de la gestion int\u00e9gr\u00e9e</p>\n<p><img src=\"https://intranet.agr.gc.ca/resources/prod/news/images/PayBulletin-FR.png\" class=\"center-block\"></p>\n\t\t"
    },
    "breadcrumb": {
        "en": "Summer Has Arrived and Your Pay Will Too",
        "fr": "L'\u00e9t\u00e9 est arriv\u00e9 et votre paye suivra"
    },
    "news": {
        "date_posted": {
            "en": "2020-07-07",
            "fr": "2020-07-07"
        },
        "to": {
            "en": "All staff",
            "fr": "Tous les employ\u00e9s"
        },
        "by": {
            "en": "Christine Walker, Assistant Deputy Minister, Corporate Management Branch",
            "fr": "Christine Walker, Sous-ministre adjointe, Direction g\u00e9n\u00e9rale de la gestion int\u00e9gr\u00e9e"
        }
    }
}