{
    "dcr_id": "1594142600868",
    "lang": "en",
    "title": {
        "en": "Managing Your Information in GCcollaboration",
        "fr": "Gestion de vos renseignements dans GCcollaboration"
    },
    "modified": "2020-07-08 00:00:00.0",
    "issued": "2020-07-08 00:00:00.0",
    "type_name": "intra-intra/news-nouv",
    "node_id": "1279030006975",
    "layout_name": null,
    "dc_date_created": "2020-07-07",
    "breadcrumb_label": "",
    "meta": {
        "issued": {
            "en": "2020-07-08",
            "fr": "2020-07-08"
        },
        "modified": {
            "en": "2020-07-08",
            "fr": "2020-07-09"
        },
        "format": {
            "en": "gcformat",
            "fr": "gcformat"
        },
        "title": {
            "en": "Managing Your Information in GCcollaboration",
            "fr": "Gestion de vos renseignements dans GCcollaboration"
        },
        "subject": {
            "en": "communications",
            "fr": "communications"
        },
        "description": {
            "en": "Although our normal work routines and the way we create and share information are being challenged during the pandemic, we still have the responsibility to manage our information according to legislation and policy.",
            "fr": "M\u00eame si nos modes de fonctionnement habituels et notre fa\u00e7on de cr\u00e9er et d'\u00e9changer de l'information sont mis \u00e0 l'\u00e9preuve par la pand\u00e9mie, nous avons quand m\u00eame la responsabilit\u00e9 de g\u00e9rer nos renseignements conform\u00e9ment aux lois et aux politiques applicables."
        },
        "language": {
            "en": "eng",
            "fr": "fra"
        },
        "audience": {
            "en": "gcaudience",
            "fr": "gcaudience"
        },
        "creator": {
            "en": "Agriculture and Agri-Food Canada",
            "fr": "Agriculture et Agroalimentaire Canada"
        },
        "spatial": {
            "en": "gcregions",
            "fr": "gcregions"
        },
        "service": {
            "en": "AAFC_AgriSource",
            "fr": "AAC_AgriSource"
        },
        "accessRights": {
            "en": "3",
            "fr": "3"
        }
    },
    "body": {
        "en": "<br>\n<br>\n<p>Although our normal work routines and the way we create and share information are being challenged during the pandemic, we still have the responsibility to manage our information according to legislation and policy.</p>\n<p>While new tools like GCcollaboration (including Microsoft Teams) are convenient for temporarily<strong> </strong>sharing unclassified information with our colleagues, the same information management rules apply. All information (e.g., files, chat messages, posts, etc.)<strong>\u202f</strong>is subject to the\u202f<em>Access to Information Act</em> and the <em>Privacy\u202fAct</em>, and is<em> </em>potentially relevant to any legal cases.</p>\n<p>Here are some tips to keep in mind while using GCcollaboration:</p>\n<ul>\n<li>Use GCcollaboration for transitory information but transfer any messages (e.g., files, emails, posts, chats) that reference a business decision to a corporate repository (AgriDOC or Knowledge Workspace). Do not use GCcollaboration as a repository for information of business value.</li>\n<li>Delete transitory messages or documents.</li>\n<li>Avoid using the \u201crecord\u201d function in Microsoft Teams meetings. If you need to record a meeting, contact <a href=\"mailto:aafc.privacy-vieprivee.aac@canada.ca\">aafc.privacy-vieprivee.aac@canada.ca</a> before your meeting to understand the privacy implications.\n</li>\n</ul>\n<p>If you have any questions, please contact <a target=\"_blank\" href=\"mailto:aafc.im-gi.aac@canada.ca\">aafc.im-gi.aac@canada.ca</a>.</p>\n<h2>More information</h2>\n<ul>\n<li><a target=\"_blank\" href=\"https://collab.agr.gc.ca/co/ima_sgi/_layouts/15/DocIdRedir.aspx?ID=AGR-8526043\">Information Management Requirements for GCcollaboration</a>\u00a0(Word)</li>\n<li><a target=\"_blank\" href=\"https://www.canada.ca/en/government/publicservice/covid-19/managing-government-information-working-remotely.html\">Managing government information when working remotely</a></li>\n<li><a href=\"https://wiki.gccollab.ca/GCcollaboration/Home\">GCcollaboration wiki page</a></li>\n<li><a href=\"https://collab.agr.gc.ca/co/ima_sgi/SitePages/IRBV%20and%20Transitory%20Information.aspx\">Information Resources of Business Value and Transitory Information</a></li>\n<li><a href=\"https://intranet.agr.gc.ca/agrisource/eng/newswork/access-to-information-obligations-while-working-remotely?id=1594129892482\">Access to Information Obligations While Working Remotely</a></li>\n</ul>\n\n\t\t",
        "fr": "<br>\n<br>\n<p>M\u00eame si nos modes de fonctionnement habituels et notre fa\u00e7on de cr\u00e9er et d\u2019\u00e9changer de l\u2019information sont mis \u00e0 l\u2019\u00e9preuve par la pand\u00e9mie, nous avons quand m\u00eame la responsabilit\u00e9 de g\u00e9rer nos renseignements conform\u00e9ment aux lois et aux politiques applicables.</p>\n<p>Bien que de nouveaux outils tels que GCcollaboration (y compris Microsoft Teams) aident temporairement \u00e0 \u00e9changer des renseignements non classifi\u00e9s avec nos coll\u00e8gues, les r\u00e8gles de gestion de l\u2019information habituelles s\u2019appliquent. Tous les renseignements (p. ex. dossiers, s\u00e9ances de clavardage, messages en ligne)<strong>\u202f</strong>sont assujettis \u00e0 la <em>Loi sur l\u2019acc\u00e8s \u00e0 l\u2019information</em>\u202fet \u00e0<em> la Loi sur la protection des renseignements personnels</em> et sont susceptibles d\u2019\u00eatre pertinents dans des causes juridiques.</p>\n<p>Voici des conseils pour l\u2019utilisation de GCcollaboration :</p>\n<ul>\n<li>Utilisez GCcollaboration pour l\u2019information \u00e9ph\u00e9m\u00e8re, mais transf\u00e9rez les messages (p. ex. dossiers, courriels, messages en ligne, s\u00e9ances de clavardage) qui portent sur une d\u00e9cision op\u00e9rationnelle dans un d\u00e9p\u00f4t minist\u00e9riel (AgriDOC ou Espace de travail du savoir). N\u2019utilisez pas \u00a0GCcollaboration comme d\u00e9p\u00f4t pour l\u2019information \u00e0 valeur op\u00e9rationnelle.\u00a0</li>\n<li>Supprimez les messages ou les documents \u00e9ph\u00e9m\u00e8res.</li>\n<li>\u00c9vitez d\u2019utiliser la fonction d\u2019enregistrement lors des r\u00e9unions sur Microsoft Teams. Si vous devez enregistrer une r\u00e9union, communiquez avec <a href=\"mailto:aafc.privacy-vieprivee.aac@canada.ca\">aafc.privacy-vieprivee.aac@canada.ca</a> avant la r\u00e9union afin de comprendre les cons\u00e9quences en mati\u00e8re de protection des renseignements personnels.\n</li>\n</ul>\n<p>Si vous avez des questions, veuillez communiquer avec <a target=\"_blank\" href=\"mailto:aafc.im-gi.aac@canada.ca\">aafc.im-gi.aac@canada.ca</a>.</p>\n<h2>Renseignements suppl\u00e9mentaires</h2>\n<ul>\n<li><a href=\"https://collab.agr.gc.ca/co/ima_sgi/Documents/Gestion%20de%20l%E2%80%99information%20avec%20le%20syst%C3%A8me%20GCcollaboration%20dans%20le%20contexte%20de%20la%20COVID.docx\">Gestion de l\u2019information au moyen du syst\u00e8me GCcollaboration</a>\u00a0(Word)</li>\n<li><a target=\"_blank\" href=\"https://www.canada.ca/fr/gouvernement/fonctionpublique/covid-19/gestion-donnees-gouvernementales-travail-distance.html\">Gestion efficace et s\u00e9curitaire des donn\u00e9es gouvernementales dans le contexte du travail \u00e0 distance</a></li>\n<li><a href=\"https://wiki.gccollab.ca/GCcollaboration/Accueil\">page wiki de GCcollaboration</a></li>\n<li><a href=\"https://collab.agr.gc.ca/co/ima_sgi/SitePages/IRBV%20and%20Transitory%20Information.aspx\">Ressources documentaires \u00e0 valeur op\u00e9rationnelle vs information \u00e9ph\u00e9m\u00e8re</a></li>\n<li><a href=\"https://intranet.agr.gc.ca/agrisource/fra/nouvelleslouvrage/obligations-des-teletravailleurs-en-matiere-dacces-a-linformation?id=1594129892482\">Obligations des t\u00e9l\u00e9travailleurs en mati\u00e8re d\u2019acc\u00e8s \u00e0 l\u2019information</a></li>\n</ul>\n\t\t"
    },
    "breadcrumb": {
        "en": "Managing Your Information in GCcollaboration",
        "fr": "Gestion de vos renseignements dans GCcollaboration"
    },
    "news": {
        "date_posted": {
            "en": "2020-07-09",
            "fr": "2020-07-09"
        },
        "to": {
            "en": "All staff",
            "fr": "Tous les employ\u00e9s"
        },
        "by": {
            "en": "Information Systems Branch",
            "fr": "Direction g\u00e9n\u00e9rale des syst\u00e8mes d\u2019information"
        }
    }
}