{
    "dcr_id": "1594401252225",
    "lang": "en",
    "title": {
        "en": "Answering Your Questions From the Virtual Town Hall",
        "fr": "R\u00e9ponses aux questions pos\u00e9es pendant la r\u00e9union virtuelle"
    },
    "modified": "2020-07-15 00:00:00.0",
    "issued": "2020-07-15 00:00:00.0",
    "type_name": "intra-intra/news-nouv",
    "node_id": "1279030006975",
    "layout_name": null,
    "dc_date_created": "2020-07-10",
    "breadcrumb_label": "",
    "meta": {
        "issued": {
            "en": "2020-07-15",
            "fr": "2020-07-15"
        },
        "modified": {
            "en": "2020-07-15",
            "fr": "2020-07-15"
        },
        "format": {
            "en": "gcformat",
            "fr": "gcformat"
        },
        "title": {
            "en": "Answering Your Questions From the Virtual Town Hall",
            "fr": "R\u00e9ponses aux questions pos\u00e9es pendant la r\u00e9union virtuelle"
        },
        "subject": {
            "en": "communications",
            "fr": "communications"
        },
        "description": {
            "en": "Thanks for joining us for the June 18 virtual all-staff meeting!",
            "fr": "Merci d'avoir assist\u00e9 \u00e0 la r\u00e9union virtuelle de tout le personnel du 18 juin!"
        },
        "language": {
            "en": "eng",
            "fr": "fra"
        },
        "audience": {
            "en": "gcaudience",
            "fr": "gcaudience"
        },
        "creator": {
            "en": "Agriculture and Agri-Food Canada",
            "fr": "Agriculture et Agroalimentaire Canada"
        },
        "spatial": {
            "en": "gcregions",
            "fr": "gcregions"
        },
        "service": {
            "en": "AAFC_AgriSource",
            "fr": "AAC_AgriSource"
        },
        "accessRights": {
            "en": "3",
            "fr": "3"
        }
    },
    "body": {
        "en": "<br>\n<br>\n<p>Thanks for joining us for the June 18 virtual all-staff meeting! Once again, we had a good turn-out, with more than 3,100 employees tuning in from across the country\u2014and a few from such international locations as Finland and Singapore\u2014to hear the latest updates.</p>\n<p>In case you missed it, we have posted a <a href=\"http://multimedia.agr.gc.ca/COVID-19/all_staff_video_2020-06-18-eng.html\">video of the all-staff meeting</a>. And as promised, we have reviewed the many questions we received via Slido during the meeting and prepared <a href=\"http://multimedia.agr.gc.ca/COVID-19/virtual_mtg_jun18_faq-eng.html\">responses featuring the latest information available</a>.</p>\n<p>We are planning to continue to hold all-staff meetings over the coming months to ensure you have the latest details and have an opportunity to share your views on our plans related to the easing of restrictions.</p>\n<p>Please take care of yourselves and your loved ones.</p>\n<p>\u00a0</p>\n<p><strong>Chris Forbes<br></strong>Deputy Minister</p>\n<p><strong>Annette Gibbons<br></strong>Associate Deputy Minister</p>\n\n\t\t",
        "fr": "<br>\n<br>\n<p>Merci d\u2019avoir assist\u00e9 \u00e0 la r\u00e9union virtuelle de tout le personnel du 18 juin! Une fois de plus, nous avons obtenu un bon taux de participation : plus de 3 100 employ\u00e9s se sont joints \u00e0 nous d\u2019un bout \u00e0 l\u2019autre du pays, et quelques-uns de sites internationaux tels que la Finlande et Singapour, pour entendre les derni\u00e8res nouvelles.</p>\n<p>Au cas o\u00f9 vous ne le sauriez pas, nous avons mis en ligne une <a href=\"http://multimedia.agr.gc.ca/COVID-19/all_staff_video_2020-06-18-fra.html\">vid\u00e9o de la r\u00e9union</a>. Comme promis, nous avons aussi pass\u00e9 en revue les nombreuses questions que nous avons re\u00e7ues sur Slido pendant la r\u00e9union et pr\u00e9par\u00e9 des <a href=\"http://multimedia.agr.gc.ca/COVID-19/virtual_mtg_jun18_faq-fra.html\">r\u00e9ponses selon les derni\u00e8res informations disponibles</a>.</p>\n<p>Nous continuerons de tenir des r\u00e9unions de tout le personnel au cours des prochains mois afin que vous disposiez des derniers renseignements et que vous ayez l\u2019occasion de nous faire part de votre point de vue sur nos projets relatifs \u00e0 l\u2019assouplissement des restrictions.</p>\n<p>Prenez soin de vous et de vos proches.</p>\n<p>\u00a0</p>\n<p><strong>Chris Forbes<br></strong>Sous-ministre<strong>\u00a0</strong></p>\n<p><strong>Annette Gibbons<br></strong>Sous-\u00administre d\u00e9l\u00e9gu\u00e9e</p>\n\t\t"
    },
    "breadcrumb": {
        "en": "Answering Your Questions From the Virtual Town Hall",
        "fr": "R\u00e9ponses aux questions pos\u00e9es pendant la r\u00e9union virtuelle"
    },
    "news": {
        "date_posted": {
            "en": "2020-07-10",
            "fr": "2020-07-10"
        },
        "to": {
            "en": "All staff",
            "fr": "Tous les employ\u00e9s"
        },
        "by": {
            "en": "Chris Forbes, Deputy Minister, and Annette Gibbons, Associate Deputy Minister",
            "fr": "Chris Forbes, Sous-ministre, et Annette Gibbons, Sous-ministre d\u00e9l\u00e9gu\u00e9e"
        }
    }
}