{
    "dcr_id": "1595345792355",
    "lang": "en",
    "title": {
        "en": "Webinar: Emotional Well-Being During the COVID-19 Pandemic ",
        "fr": "Webinaire : Bien-\u00eatre \u00e9motionnel pendant la pand\u00e9mie de COVID-19 "
    },
    "modified": "2020-07-23 00:00:00.0",
    "issued": "2020-07-23 00:00:00.0",
    "type_name": "intra-intra/news-nouv",
    "node_id": "1279030006975",
    "layout_name": null,
    "dc_date_created": "2020-07-21",
    "breadcrumb_label": "",
    "meta": {
        "issued": {
            "en": "2020-07-23",
            "fr": "2020-07-23"
        },
        "modified": {
            "en": "2020-07-23",
            "fr": "2020-07-23"
        },
        "format": {
            "en": "gcformat",
            "fr": "gcformat"
        },
        "title": {
            "en": "Webinar: Emotional Well-Being During the COVID-19 Pandemic ",
            "fr": "Webinaire : Bien-\u00eatre \u00e9motionnel pendant la pand\u00e9mie de COVID-19 "
        },
        "subject": {
            "en": "communications",
            "fr": "communications"
        },
        "description": {
            "en": "Emotional well-being is an important part of our overall health that helps us handle life\u2019s stresses and adapt to change.",
            "fr": "Le bien-\u00eatre \u00e9motionnel joue un r\u00f4le important dans notre sant\u00e9 globale car il nous aide \u00e0 g\u00e9rer le stress de la vie et \u00e0 nous adapter au changement."
        },
        "language": {
            "en": "eng",
            "fr": "fra"
        },
        "audience": {
            "en": "gcaudience",
            "fr": "gcaudience"
        },
        "creator": {
            "en": "Agriculture and Agri-Food Canada",
            "fr": "Agriculture et Agroalimentaire Canada"
        },
        "spatial": {
            "en": "gcregions",
            "fr": "gcregions"
        },
        "service": {
            "en": "AAFC_AgriSource",
            "fr": "AAC_AgriSource"
        },
        "accessRights": {
            "en": "3",
            "fr": "3"
        }
    },
    "body": {
        "en": "<br>\n<br>\n<p>Emotional well-being is an important part of our overall health that helps us handle life\u2019s stresses and adapt to change. The challenges and uncertainty that come with the COVID-19 pandemic can negatively impact our emotional wellness.</p>\n<p>The Women in Science Network invites all AAFC employees to this webinar that will help unpack why the pandemic is hard on us, and provide tips and tools for taking care of yourself, your family, and staying positive.</p>\n<p>The webinar will:</p>\n<ul>\n<li>Help participants understand why outbreaks affect our emotional health</li>\n<li>Implement practical skills to cope with the anxiety</li>\n<li>Give advice for talking to your children</li>\n<li>Provide tips for you and your family</li>\n<li>Allow you to connect and share experiences with other AAFC employees</li>\n</ul>\n<h2>Event Information</h2>\n<p>This 25 minute webinar from our <a href=\"https://workplacelearning.morneaushepell.com/en/covid-19-training\">Employee and Family Assistance Program</a> will be followed by an informal coffee chat hosted by the Women in Science Network. This is an opportunity to share experiences and connect with others.</p>\n<p>\n<strong>English session<br>Date: </strong>Wednesday, July 29th, 12:00 p.m. to 1:30 p.m. ET<br><a target=\"_blank\" href=\"https://teams.microsoft.com/l/meetup-join/19%3ameeting_YzE0Zjk2YzMtMGE2Mi00YjQzLTk0Y2EtNzRiMDEyMWVjYmU2%40thread.v2/0?context=%7b%22Tid%22%3a%222863cb42-a4f4-41d5-b883-97c487ee41ff%22%2c%22Oid%22%3a%22c582248d-7eb5-4c2d-a15a-c0caece59954%22%7d\">Join Microsoft Teams Meeting<br></a><a target=\"_blank\" href=\"https://aka.ms/JoinTeamsMeeting\">Learn more about Teams</a> | <a target=\"_blank\" href=\"https://teams.microsoft.com/meetingOptions/?organizerId=c582248d-7eb5-4c2d-a15a-c0caece59954&amp;tenantId=2863cb42-a4f4-41d5-b883-97c487ee41ff&amp;threadId=19_meeting_YzE0Zjk2YzMtMGE2Mi00YjQzLTk0Y2EtNzRiMDEyMWVjYmU2@thread.v2&amp;messageId=0&amp;language=en-US\">Meeting options<br></a><a href=\"http://www.slido.com\">www.slido.com</a>\u00a0 #WIS-Learning</p>\n<p><strong>French session<br>Date: </strong>Wednesday, July 29th, 2:00 p.m. to 3:30 p.m. ET<br><a target=\"_blank\" href=\"https://teams.microsoft.com/l/meetup-join/19%3ameeting_M2UyNzlmMDktMzdjNy00YjFhLWFkODktMWY5OWZkMjMwMGQ1%40thread.v2/0?context=%7b%22Tid%22%3a%222863cb42-a4f4-41d5-b883-97c487ee41ff%22%2c%22Oid%22%3a%22c582248d-7eb5-4c2d-a15a-c0caece59954%22%7d\">Join Microsoft Teams Meeting<br></a><a target=\"_blank\" href=\"https://aka.ms/JoinTeamsMeeting\">Learn more about Teams</a> | <a href=\"https://teams.microsoft.com/meetingOptions/?organizerId=c582248d-7eb5-4c2d-a15a-c0caece59954&amp;tenantId=2863cb42-a4f4-41d5-b883-97c487ee41ff&amp;threadId=19_meeting_YzE0Zjk2YzMtMGE2Mi00YjQzLTk0Y2EtNzRiMDEyMWVjYmU2@thread.v2&amp;messageId=0&amp;language=en-US\">Meeting options</a><br><a href=\"http://www.slido.com\">www.slido.com</a>\u00a0#FEM-Apprentissage</p>\n<p>Visit <a href=\"https://collab.agr.gc.ca/co/eedi-emedi/SitePages/Home.aspx\">Diversity and Inclusion Knowledge Workspace page</a> to learn more about AAFC\u2019s diversity networks, including the Women in Science Network.</p>\n<p><img src=\"https://intranet.agr.gc.ca/resources/prod/news/images/WomenInScience-EN2019.png\" class=\"center-block\"></p>\n\n\t\t",
        "fr": "<br>\n<br>\n<p>Le bien-\u00eatre \u00e9motionnel joue un r\u00f4le important dans notre sant\u00e9 globale car il nous aide \u00e0 g\u00e9rer le stress de la vie et \u00e0 nous adapter au changement. Les d\u00e9fis et l\u2019incertitude li\u00e9s \u00e0 la pand\u00e9mie de COVID-19 peuvent avoir un effet n\u00e9faste sur notre bien-\u00eatre \u00e9motionnel.</p>\n<p>Le R\u00e9seau des femmes en sciences invite tous les employ\u00e9s d\u2019AAC \u00e0 participer au webinaire, qui expliquera pourquoi la pand\u00e9mie est difficile pour nous et qui fournira des conseils et des outils sur les moyens de prendre soin de soi et de sa famille et de rester positif.</p>\n<p>Le webinaire :</p>\n<ul>\n<li>aidera les participants \u00e0 comprendre pourquoi les \u00e9closions de maladie ont une incidence sur notre sant\u00e9 \u00e9motionnelle;</li>\n<li>enseignera des comp\u00e9tences pratiques pour contrer l\u2019anxi\u00e9t\u00e9;</li>\n<li>donnera des conseils sur la communication avec vos enfants;</li>\n<li>donnera des trucs pour votre famille et vous;</li>\n<li>vous permettra d\u2019\u00e9tablir des liens et de discuter de vos exp\u00e9riences avec d\u2019autres employ\u00e9s d\u2019AAC</li>\n</ul>\n<h2>Information sur l\u2019activit\u00e9</h2>\n<p>Le webinaire d\u2019une dur\u00e9e de 25 minutes du <a href=\"https://formationenmilieudetravail.morneaushepell.com/fr/covid-19-training\">Programme d'aide aux employ\u00e9s et \u00e0 leur famille</a> sera suivi d\u2019un caf\u00e9-causerie informel anim\u00e9 par le R\u00e9seau des femmes en sciences. Il s\u2019agit d\u2019une occasion d\u2019\u00e9tablir des liens et de partager vos exp\u00e9riences.</p>\n<p><br>\n<strong>S\u00e9ance en anglais<br>Date : </strong>Mercredi 29 juillet, de 12 h \u00e0 13 h 30 (HE)<br><a target=\"_blank\" href=\"https://teams.microsoft.com/l/meetup-join/19%3ameeting_YzE0Zjk2YzMtMGE2Mi00YjQzLTk0Y2EtNzRiMDEyMWVjYmU2%40thread.v2/0?context=%7b%22Tid%22%3a%222863cb42-a4f4-41d5-b883-97c487ee41ff%22%2c%22Oid%22%3a%22c582248d-7eb5-4c2d-a15a-c0caece59954%22%7d\">Se joindre \u00e0 la r\u00e9union Microsoft Teams<br></a><a target=\"_blank\" href=\"https://aka.ms/JoinTeamsMeeting\">En savoir plus sur Teams</a> | <a target=\"_blank\" href=\"https://teams.microsoft.com/meetingOptions/?organizerId=c582248d-7eb5-4c2d-a15a-c0caece59954&amp;tenantId=2863cb42-a4f4-41d5-b883-97c487ee41ff&amp;threadId=19_meeting_YzE0Zjk2YzMtMGE2Mi00YjQzLTk0Y2EtNzRiMDEyMWVjYmU2@thread.v2&amp;messageId=0&amp;language=en-US\">Options de r\u00e9union<br></a><a href=\"http://www.slido.com/\">www.slido.com</a> #WIS-Learning</p>\n<p><strong>S\u00e9ance en fran\u00e7ais<br>Date : </strong>Mercredi 29 juillet, de 14 h \u00e0 15 h 30 (HE)<br><a target=\"_blank\" href=\"https://teams.microsoft.com/l/meetup-join/19%3ameeting_M2UyNzlmMDktMzdjNy00YjFhLWFkODktMWY5OWZkMjMwMGQ1%40thread.v2/0?context=%7b%22Tid%22%3a%222863cb42-a4f4-41d5-b883-97c487ee41ff%22%2c%22Oid%22%3a%22c582248d-7eb5-4c2d-a15a-c0caece59954%22%7d\">Se joindre \u00e0 la r\u00e9union Microsoft Teams<br></a><a target=\"_blank\" href=\"https://aka.ms/JoinTeamsMeeting\">En savoir plus sur Teams</a> | <a target=\"_blank\" href=\"https://teams.microsoft.com/meetingOptions/?organizerId=c582248d-7eb5-4c2d-a15a-c0caece59954&amp;tenantId=2863cb42-a4f4-41d5-b883-97c487ee41ff&amp;threadId=19_meeting_M2UyNzlmMDktMzdjNy00YjFhLWFkODktMWY5OWZkMjMwMGQ1@thread.v2&amp;messageId=0&amp;language=en-US\">Options de r\u00e9union<br></a><a href=\"http://www.slido.com/\">www.slido.com</a> #FES-Apprentissage\u00a0</p>\n<p>Visitez la <a href=\"https://collab.agr.gc.ca/co/eedi-emedi/SitePages/Home.aspx\">page de l\u2019Espace de travail du savoir sur la diversit\u00e9 et l\u2019inclusion</a> pour en savoir plus sur les r\u00e9seaux de la diversit\u00e9 d\u2019AAC, incluant le R\u00e9seau des femmes en sciences.</p>\n<p><img src=\"https://intranet.agr.gc.ca/resources/prod/news/images/WomenInScience-FR2019.png\" class=\"center-block\"></p>\n\t\t"
    },
    "breadcrumb": {
        "en": "Webinar: Emotional Well-Being During the COVID-19 Pandemic",
        "fr": "Webinaire : Bien-\u00eatre \u00e9motionnel pendant la pand\u00e9mie de COVID-19"
    },
    "news": {
        "date_posted": {
            "en": "2020-07-21",
            "fr": "2020-07-21"
        },
        "to": {
            "en": "All staff",
            "fr": "Tous les employ\u00e9s"
        },
        "by": {
            "en": "Women in Science Network",
            "fr": "R\u00e9seau des femmes en sciences"
        }
    }
}