{
    "dcr_id": "1595511005264",
    "lang": "en",
    "title": {
        "en": "Update on COVID-19 \u2013 July 22, 2020",
        "fr": "Mise \u00e0 jour sur la COVID-19 \u2013 le 22 juillet 2020"
    },
    "modified": "2020-07-23 00:00:00.0",
    "issued": "2020-07-23 00:00:00.0",
    "type_name": "intra-intra/news-nouv",
    "node_id": "1279030006975",
    "layout_name": null,
    "dc_date_created": "2020-07-23",
    "breadcrumb_label": "Update on COVID-19 - July 22, 2020",
    "meta": {
        "issued": {
            "en": "2020-07-23",
            "fr": "2020-07-23"
        },
        "modified": {
            "en": "2020-07-23",
            "fr": "2020-07-23"
        },
        "format": {
            "en": "gcformat",
            "fr": "gcformat"
        },
        "title": {
            "en": "Update on COVID-19 \u2013 July 22, 2020",
            "fr": "Mise \u00e0 jour sur la COVID-19 \u2013 le 22 juillet 2020"
        },
        "subject": {
            "en": "communications",
            "fr": "communications"
        },
        "description": {
            "en": "Guidance on non-medical masks or face coverings for all AAFC worksites.",
            "fr": "Lignes directrices concernant les masques non m\u00e9dicaux ou les couvre-visages pour tous les lieux de travail d'AAC."
        },
        "language": {
            "en": "eng",
            "fr": "fra"
        },
        "audience": {
            "en": "gcaudience",
            "fr": "gcaudience"
        },
        "creator": {
            "en": "Agriculture and Agri-Food Canada",
            "fr": "Agriculture et Agroalimentaire Canada"
        },
        "spatial": {
            "en": "gcregions",
            "fr": "gcregions"
        },
        "service": {
            "en": "AAFC_AgriSource",
            "fr": "AAC_AgriSource"
        },
        "accessRights": {
            "en": "3",
            "fr": "3"
        }
    },
    "body": {
        "en": "<br>\n<br>\n<h2><strong>Guidance on non-medical masks or face coverings for all AAFC worksites</strong></h2>\n<p>Consistent with direction from Health Canada\u2019s Public Service Occupational Health Program, non-medical masks or face coverings are to be worn in spaces where it is not possible or is unpredictable to maintain a two-metre physical distance from others, such as elevators, washrooms, hallways, or other common areas.</p>\n<h2><strong>Additional guidance for AAFC buildings in geographical areas covered by public health orders</strong></h2>\n<p>Depending on where you live, the use of non-medical masks and face coverings in enclosed public spaces may be mandatory. These local public health orders apply to spaces that can be accessed by the public without the use of a security access card or escort. Examples of this type of publicly accessible space in a federal building include entrance areas leading up to security points, commercial spaces, and public-facing service offerings. Federal employees are expected to follow these local public health directives.</p>\n<p>The above guidance also applies to all guests or clients visiting AAFC sites. Please note that non-medical masks will be made available at entry points to all AAFC worksites.</p>\n<p>Health authorities have indicated that these new public health orders are an important way to reduce transmission of COVID-19. We encourage everyone to consult the <a href=\"https://www.canada.ca/en/government/publicservice/covid-19/easing-restrictions/departmental-guidebook/modified-policies-procedures-practices.html#a14\">guidelines on wearing non-medical masks</a> to <a href=\"https://www.canada.ca/en/public-health/services/publications/diseases-conditions/covid-19-safely-use-non-medical-mask-face-covering.html#_blank\">learn about the do\u2019s and don\u2019ts of wearing a non-medical mask</a>. It is important to recognize that wearing a non-medical mask or face covering may not be possible for some people, for such reasons as medical or mobility issues.</p>\n<p>Non-medical masks or face coverings alone will not prevent the spread of COVID-19. Everyone has a role to play in protecting themselves and others by consistently and strictly adhering to <a href=\"https://www.canada.ca/en/public-health/services/publications/diseases-conditions/social-distancing.html#_blank\">physical-distancing guidelines</a> and by practicing <a href=\"https://www.canada.ca/en/public-health/services/diseases/2019-novel-coronavirus-infection/prevention-risks.html#_blank\">good hygiene and other public health measures</a>, such as frequent <a href=\"https://www.canada.ca/en/public-health/services/publications/diseases-conditions/reduce-spread-covid-19-wash-your-hands.html#_blank\">handwashing</a>. In line with physical distancing measures, everyone who can work remotely will continue to do so for the foreseeable future.</p>\n<h2><strong>Signage</strong></h2>\n<p>AAFC will ensure there is appropriate signage on the requirement to wear a non-medical mask or face covering across all worksites, including in any publicly accessible space. Directional floor markings are also being placed in AAFC worksites across Canada to ensure that physical distancing is maintained and to help employees and visitors move safely within the workplace.</p>\n<p>Local public health advice, including on the wearing of non-medical masks and face coverings, will continue to evolve and vary from jurisdiction to jurisdiction. As we move forward, we will continue to factor this advice into our plans and update our guidance as necessary.</p>\n<p>Stay safe and stay healthy.</p>\n<p>\u00a0</p>\n<p><b>Christine Walker</b><br>Assistant Deputy Minister and Chief Financial Officer<br>Corporate Management Branch</p>\n\n\t\t",
        "fr": "<br>\n<br>\n<h2><strong>Lignes directrices concernant les masques non m\u00e9dicaux ou les couvre-visages pour tous les lieux de travail d\u2019AAC</strong></h2>\n<p>Conform\u00e9ment aux directives fournies par Sant\u00e9 Canada dans le cadre du Programme de sant\u00e9 au travail de la fonction publique, les masques non m\u00e9dicaux ou les couvre-visages doivent \u00eatre port\u00e9s dans les espaces o\u00f9 le maintien d\u2019une distance physique de deux m\u00e8tres par rapport aux autres est impossible ou impr\u00e9visible, notamment dans les ascenseurs, les toilettes, les couloirs et autres espaces communs.</p>\n<h2><strong>Autres lignes directrices pour les immeubles d\u2019AAC situ\u00e9s dans des zones g\u00e9ographiques vis\u00e9es par une ordonnance de sant\u00e9 publique</strong></h2>\n<p>Selon l\u2019endroit o\u00f9 vous vivez, le port d\u2019un masque non m\u00e9dical ou d\u2019un couvre-visage dans les espaces publics ferm\u00e9s peut \u00eatre obligatoire. Ces ordonnances locales s\u2019appliquent aux espaces accessibles au public sans carte de s\u00e9curit\u00e9 ou escorte. L\u2019aire d\u2019entr\u00e9e menant au poste de s\u00e9curit\u00e9, les espaces commerciaux et les points de service accessibles au public sont des exemples d\u2019espaces accessibles au public dans un immeuble f\u00e9d\u00e9ral. Les employ\u00e9s f\u00e9d\u00e9raux sont tenus de suivre les directives locales de sant\u00e9 publique.</p>\n<p>Les lignes directrices ci-dessus s\u2019appliquent \u00e9galement \u00e0 tous les invit\u00e9s et clients qui visitent les lieux d\u2019AAC. Il est \u00e0 noter que des masques non m\u00e9dicaux seront offerts aux points d\u2019entr\u00e9e de tous les lieux d\u2019AAC.</p>\n<p>Les autorit\u00e9s sanitaires ont indiqu\u00e9 que ces nouvelles ordonnances de sant\u00e9 publique sont un moyen important de r\u00e9duire la transmission de la COVID-19. Nous vous encourageons tous \u00e0 consulter les <a href=\"https://www.canada.ca/fr/gouvernement/fonctionpublique/covid-19/assouplissement-restrictions/guide-ministeres/politiques-procedures-pratiques-modifiees.html#a14\">directives sur le port d\u2019un masque non m\u00e9dical</a> pour d\u00e9terminer <a href=\"https://www.canada.ca/fr/sante-publique/services/publications/maladies-et-affections/covid-19-utilisation-sure-masque-medical-couvre-visage.html\">ce qu\u2019il faut faire et ne pas faire</a>. Il est important de reconna\u00eetre que le port d\u2019un masque non m\u00e9dical ou d\u2019un couvre-visage peut ne pas \u00eatre possible pour certaines personnes, par exemple pour des raisons m\u00e9dicales ou de mobilit\u00e9.</p>\n<p>Les masques non m\u00e9dicaux et les couvre-visages n\u2019emp\u00eacheront pas \u00e0 eux seuls la propagation de la COVID-19. Chacun a un r\u00f4le \u00e0 jouer pour se prot\u00e9ger et prot\u00e9ger les autres en suivant \u00e0 la lettre et en tout temps les <a href=\"https://www.canada.ca/fr/sante-publique/services/publications/maladies-affections/distanciation-sociale.html\">lignes directrices sur l\u2019\u00e9loignement physique</a> et les <a href=\"https://www.canada.ca/fr/sante-publique/services/maladies/2019-nouveau-coronavirus/prevention-risques.html\">consignes d\u2019hygi\u00e8ne et autres mesures de sant\u00e9 publique</a>, comme le <a href=\"https://www.canada.ca/fr/sante-publique/services/publications/maladies-et-affections/evitez-propagation-du-covid-19-lavez-vos-mains.html\">lavage fr\u00e9quent des mains</a>. Pour appuyer les mesures d\u2019\u00e9loignement physique, toute personne pouvant travailler \u00e0 distance continuera \u00e0 le faire dans un avenir pr\u00e9visible.</p>\n<h2><strong>Affiches</strong></h2>\n<p>AAC veillera \u00e0 ce que l\u2019obligation de porter un masque non m\u00e9dical ou un couvre-visage soit clairement affich\u00e9e dans tous les lieux de travail, y compris les espaces accessibles au public. De plus, des marquages au sol dans les lieux de travail d\u2019AAC partout au Canada favoriseront le maintien d\u2019une distance physique et aideront les employ\u00e9s et les visiteurs \u00e0 se d\u00e9placer en toute s\u00e9curit\u00e9 sur le lieu de travail.</p>\n<p>Les consignes locales en mati\u00e8re de sant\u00e9 publique, notamment sur le port de masques non m\u00e9dicaux et de couvre-visages, continueront d\u2019\u00e9voluer et de varier d\u2019une administration \u00e0 l\u2019autre. Nous continuerons \u00e0 en tenir compte dans nos d\u00e9marches et \u00e0 modifier les lignes directrices en cons\u00e9quence.</p>\n<p>Prot\u00e9gez-vous et prenez soin de votre sant\u00e9.</p>\n<p>\u00a0</p>\n<p><b>Christine Walker</b><br>Sous-ministre adjointe et dirigeante principale des finances<br>Direction g\u00e9n\u00e9rale de la gestion int\u00e9gr\u00e9e</p>\n\t\t"
    },
    "breadcrumb": {
        "en": "Update on COVID-19 - July 22, 2020",
        "fr": "Mise \u00e0 jour sur la COVID-19 - le 22 juillet 2020"
    },
    "news": {
        "date_posted": {
            "en": "2020-07-23",
            "fr": "2020-07-23"
        },
        "to": {
            "en": "All staff",
            "fr": "Tous les employ\u00e9s"
        },
        "by": {
            "en": "Christine Walker, Assistant Deputy Minister and Chief Financial Officer, Corporate Management Branch",
            "fr": "Christine Walker, Sous-ministre adjointe et dirigeante principale des finances, Direction g\u00e9n\u00e9rale de la gestion int\u00e9gr\u00e9e"
        }
    }
}