{
    "dcr_id": "1596200018879",
    "lang": "en",
    "title": {
        "en": "Coming Soon: The 2020 Student Exit Survey ",
        "fr": "\u00c0 venir : Sondage de fin d'emploi \u00e9tudiant de 2020"
    },
    "modified": "2020-08-06 00:00:00.0",
    "issued": "2020-08-06 00:00:00.0",
    "type_name": "intra-intra/news-nouv",
    "node_id": "1279030006975",
    "layout_name": null,
    "dc_date_created": "2020-07-31",
    "breadcrumb_label": "",
    "meta": {
        "issued": {
            "en": "2020-08-06",
            "fr": "2020-08-06"
        },
        "modified": {
            "en": "2020-08-06",
            "fr": "2020-08-06"
        },
        "format": {
            "en": "gcformat",
            "fr": "gcformat"
        },
        "title": {
            "en": "Coming Soon: The 2020 Student Exit Survey ",
            "fr": "\u00c0 venir : Sondage de fin d'emploi \u00e9tudiant de 2020"
        },
        "subject": {
            "en": "communications",
            "fr": "communications"
        },
        "description": {
            "en": "On August 10, students at AAFC will receive an email with a link to the 2020 Student Exit Survey, where they can provide feedback on their experience working in the public service.",
            "fr": "Le 10 ao\u00fbt, les \u00e9tudiants qui travaillent \u00e0 AAC recevront un courriel contenant un lien vers le Sondage de fin d'emploi \u00e9tudiant de 2020, qui leur permet de donner leur avis sur leur exp\u00e9rience de travail \u00e0 la fonction publique."
        },
        "language": {
            "en": "eng",
            "fr": "fra"
        },
        "audience": {
            "en": "gcaudience",
            "fr": "gcaudience"
        },
        "creator": {
            "en": "Agriculture and Agri-Food Canada",
            "fr": "Agriculture et Agroalimentaire Canada"
        },
        "spatial": {
            "en": "gcregions",
            "fr": "gcregions"
        },
        "service": {
            "en": "AAFC_AgriSource",
            "fr": "AAC_AgriSource"
        },
        "accessRights": {
            "en": "3",
            "fr": "3"
        }
    },
    "body": {
        "en": "<br>\n<br>\n<p>On August 10, students at AAFC will receive an email with a link to the 2020 Student Exit Survey, where they can provide feedback on their experience working in the public service.</p>\n<p>The survey consists of 31 questions and will take approximately 20 minutes to complete. Survey questions will capture student perceptions of work during the COVID-19 pandemic, along with whether they feel they have meaningful work and are equipped with the appropriate resources to successfully complete their tasks.</p>\n<p>All students are eligible to complete the online survey, whether their work term is ending, being extended, or they are being rehired in another organization. Students unable to complete the survey online can do so via telephone.</p>\n<p>Responses will be kept confidential in accordance with the <em>Privacy Act</em> and will not be linked to any personal information.</p>\n<p>Managers are asked to encourage their students to fill out the Student Exit Survey during the work day. The deadline for students to complete the survey is <strong>September 4</strong>.</p>\n<p>For any questions, students may send an email to <a href=\"mailto:aafc.psescoordinationsaff.aac@canada.ca\">aafc.psescoordinationsaff.aac@canada.ca</a>.</p>\n\n\t\t",
        "fr": "<br>\n<br>\n<p>Le 10 ao\u00fbt, les \u00e9tudiants qui travaillent \u00e0 AAC recevront un courriel contenant un lien vers le Sondage de fin d\u2019emploi \u00e9tudiant de 2020, qui leur permet de donner leur avis sur leur exp\u00e9rience de travail \u00e0 la fonction publique.</p>\n<p>Le sondage comprend 31 questions et prend environ 20 minutes \u00e0 remplir. Les questions visent \u00e0 d\u00e9terminer comment les \u00e9tudiants per\u00e7oivent le travail accompli pendant la pand\u00e9mie de COVID-19, s\u2019ils consid\u00e8rent que leur travail est utile et s\u2019ils disposent des ressources appropri\u00e9es pour accomplir leurs t\u00e2ches.</p>\n<p>Tous les \u00e9tudiants peuvent r\u00e9pondre au sondage en ligne, peu importe si leur stage de travail prend fin ou est prolong\u00e9 ou s\u2019ils sont r\u00e9embauch\u00e9s dans une autre organisation. Les \u00e9tudiants qui ne peuvent pas r\u00e9pondre au sondage en ligne peuvent le faire par t\u00e9l\u00e9phone.</p>\n<p>Les r\u00e9ponses sont confidentielles conform\u00e9ment \u00e0 la <em>Loi sur la protection de la vie priv\u00e9e </em>et ne sont li\u00e9es \u00e0 aucun renseignement personnel.</p>\n<p>Les gestionnaires sont invit\u00e9s \u00e0 encourager leurs \u00e9tudiants \u00e0 remplir le Sondage de fin d\u2019emploi \u00e9tudiant pendant la journ\u00e9e de travail. La date limite pour les \u00e9tudiants pour compl\u00e9ter le sondage est le <strong>4 septembre</strong>.</p>\n<p>S\u2019ils ont des questions, les \u00e9tudiants peuvent envoyer un courriel \u00e0 <a href=\"mailto:aafc.psescoordinationsaff.aac@canada.ca\">aafc.psescoordinationsaff.aac@canada.ca</a>.</p>\n\t\t"
    },
    "breadcrumb": {
        "en": "Coming Soon: The 2020 Student Exit Survey",
        "fr": "\u00c0 venir : Sondage de fin d'emploi \u00e9tudiant de 2020"
    },
    "news": {
        "date_posted": {
            "en": "2020-08-04",
            "fr": "2020-08-04"
        },
        "to": {
            "en": "All staff",
            "fr": "Tous les employ\u00e9s"
        },
        "by": {
            "en": "Andrew Goldstein, Director General, Human Resources Directorate",
            "fr": "Andrew Goldstein, directeur g\u00e9n\u00e9ral, Direction des ressources humaines"
        }
    }
}