{
    "dcr_id": "1597068601421",
    "lang": "en",
    "title": {
        "en": "Increasing Access to AAFC Worksites",
        "fr": "Accroissement de l'acc\u00e8s aux lieux de travail d'AAC"
    },
    "modified": "2020-08-10 00:00:00.0",
    "issued": "2020-08-10 00:00:00.0",
    "type_name": "intra-intra/news-nouv",
    "node_id": "1279030006975",
    "layout_name": null,
    "dc_date_created": "2020-08-10",
    "breadcrumb_label": "",
    "meta": {
        "issued": {
            "en": "2020-08-10",
            "fr": "2020-08-10"
        },
        "modified": {
            "en": "2020-08-10",
            "fr": "2020-08-10"
        },
        "format": {
            "en": "gcformat",
            "fr": "gcformat"
        },
        "title": {
            "en": "Increasing Access to AAFC Worksites",
            "fr": "Accroissement de l'acc\u00e8s aux lieux de travail d'AAC"
        },
        "subject": {
            "en": "communications",
            "fr": "communications"
        },
        "description": {
            "en": "Earlier this summer, our dedicated planning team put together a framework for re-entry to AAFC worksites.",
            "fr": "Plus t\u00f4t cet \u00e9t\u00e9, notre \u00e9quipe sp\u00e9ciale de planification a \u00e9tabli un cadre pour la r\u00e9int\u00e9gration des lieux de travail \u00e0 AAC."
        },
        "language": {
            "en": "eng",
            "fr": "fra"
        },
        "audience": {
            "en": "gcaudience",
            "fr": "gcaudience"
        },
        "creator": {
            "en": "Agriculture and Agri-Food Canada",
            "fr": "Agriculture et Agroalimentaire Canada"
        },
        "spatial": {
            "en": "gcregions",
            "fr": "gcregions"
        },
        "service": {
            "en": "AAFC_AgriSource",
            "fr": "AAC_AgriSource"
        },
        "accessRights": {
            "en": "3",
            "fr": "3"
        }
    },
    "body": {
        "en": "<br>\n<br>\n<p>Earlier this summer, our dedicated planning team put together a framework for re-entry to AAFC worksites.</p>\n<p>While most employees will continue to work remotely for the foreseeable future, we are working to reopen worksites where there are operational reasons to do so and where we can ensure the safety of our employees. That is our primary concern.</p>\n<p>Over the last several weeks, we\u2019ve been busy gathering important data and conducting analysis related to:</p>\n<ul>\n<li><strong>AAFC\u2019s business and research priorities</strong> to determine which functions need immediate access to worksites so they can resume operations;</li>\n<li>the <strong>personal circumstances</strong> of our employees; and</li>\n<li>our <strong>physical workplaces</strong> in terms of how they meet health and safety protocols.</li>\n</ul>\n<h2><strong>AAFC lab reopening</strong></h2>\n<p>While we\u2019ve managed to transition most of our organization to an entirely remote, productive workplace, we know it has been a challenge for some, particularly our colleagues in the science community. As a result, we are looking to resume our laboratory work as a priority\u2014again, to the extent we can do so safely.</p>\n<p>Our goal is to <strong>reopen labs in all research centres by the early fall</strong>.</p>\n<p>What this will look like in practice will vary from site to site, depending on the physical layout (to allow for physical distancing), the nature of the operations, and the needs of employees. In most places, it will mean lower occupancy than in our pre\u2011COVID-19 days, at least for the time being, and many employees of research centres will continue to work remotely some or all of the time.</p>\n<p>Only those employees requiring access to worksites to function will be prioritized for re\u2011entry, and those re-entering will be doing so gradually.</p>\n<p>To start, we have identified four AAFC sites where we will begin re-entering our labs. The four sites are:</p>\n<ul>\n<li>\n\tthe <strong>St. John\u2019s Research and Development Centre</strong> in Newfoundland and Labrador;</li>\n<li>the <strong>Saint-Hyacinthe Research and Development Centre</strong> in Quebec;</li>\n<li>the <strong>Canadian Pari-Mutuel Agency\u2019s Reference and Research Laboratory</strong> in Ottawa, Ontario; and</li>\n<li>the <strong>Morden Research and Development Centre</strong> in Manitoba.</li>\n</ul>\n<p>The site plans for each of the four worksites were presented this week to a dedicated DG committee to ensure that all health and safety precautions are in place.</p>\n<p>The opening of the labs is an important next step in our re-entry plans. We will learn as we go, and we expect to open other labs relatively quickly, as site plans are ready and approved. We are committed to ensuring employees get proper notification prior to re-entry.</p>\n<p>As we reopen labs and offices, our top priorities will be ensuring a safe workplace, respecting our employees\u2019 personal circumstances, and ensuring the department is doing its best to meet its mandate.</p>\n<p>We encourage you to visit <a href=\"https://multimedia.agr.gc.ca/COVID-19/index-eng.html\">Coronavirus disease (COVID-19): Information for employees on easing COVID-19 restrictions</a> for all the latest updates.</p>\n<h2><strong>Don\u2019t forget to enjoy the summer</strong></h2>\n<p>\n\tOn a lighter note, we hope that everyone is taking some time off work. We all need to rest a bit, to enjoy the warm weather, and to refresh ourselves so we\u2019re ready to tackle the important work ahead!</p>\n<p>Please take care of yourselves and your loved ones.</p>\n<p>\u00a0</p>\n<p><strong>Chris Forbes<br></strong>Deputy Minister</p>\n<p><strong>Annette Gibbons<br></strong>Associate Deputy Minister</p>\n\n\t\t",
        "fr": "<br>\n<br>\n<p>Plus t\u00f4t cet \u00e9t\u00e9, notre \u00e9quipe sp\u00e9ciale de planification a \u00e9tabli un cadre pour la r\u00e9int\u00e9gration des lieux de travail \u00e0 AAC.</p>\n<p>Alors que la plupart des employ\u00e9s continueront de travailler \u00e0 distance dans un avenir rapproch\u00e9, nous travaillons \u00e0 rouvrir les lieux de travail lorsque les exigences op\u00e9rationnelles le justifient et que nous pouvons assurer la s\u00e9curit\u00e9 de nos employ\u00e9s. C\u2019est l\u00e0 notre grande priorit\u00e9.</p>\n<p>Au cours des derni\u00e8res semaines, nous avons recueilli des donn\u00e9es importantes et men\u00e9 des analyses concernant :</p>\n<ul>\n<li><strong>les priorit\u00e9s op\u00e9rationnelles et les priorit\u00e9s en mati\u00e8re de recherche d\u2019AAC</strong> afin de d\u00e9terminer les fonctions pour lesquelles un acc\u00e8s imm\u00e9diat s\u2019impose afin d\u2019assurer la reprise des activit\u00e9s;</li>\n<li>les <strong>circonstances personnelles</strong> de nos employ\u00e9s;</li>\n<li>la conformit\u00e9 de nos <strong>lieux de travail physiques</strong> aux protocoles de sant\u00e9 et de s\u00e9curit\u00e9.</li>\n</ul>\n<h2><strong>R\u00e9ouverture des laboratoires d\u2019AAC</strong></h2>\n<p>\n\tM\u00eame si le gros de notre organisation travaille d\u00e9sormais enti\u00e8rement \u00e0 distance, et ce, de fa\u00e7on productive, nous savons que ce mode de travail pr\u00e9sente des d\u00e9fis pour certains employ\u00e9s, en particulier nos scientifiques. Par cons\u00e9quent, la reprise des travaux en laboratoire compte parmi nos priorit\u00e9s, dans la mesure o\u00f9 elle peut se faire en toute s\u00e9curit\u00e9.</p>\n<p>\n\tNous visons \u00e0 <strong>rouvrir des laboratoires dans tous les centres de recherche d\u2019ici le d\u00e9but de l\u2019automne</strong>.</p>\n<p>\n\tLa fa\u00e7on dont la r\u00e9ouverture se passera d\u2019un laboratoire \u00e0 l\u2019autre d\u00e9pendra de l\u2019am\u00e9nagement des lieux (application des mesures d\u2019\u00e9loignement physique), de la nature des activit\u00e9s et des besoins des employ\u00e9s. Dans la plupart des cas, cela se traduira par un taux d\u2019occupation moins \u00e9lev\u00e9 qu\u2019avant la pand\u00e9mie de COVID-19, du moins pour le moment. Un bon nombre d\u2019employ\u00e9s des centres de recherche continueront donc de travailler \u00e0 distance.</p>\n<p>\n\tLa priorit\u00e9 sera accord\u00e9e aux employ\u00e9s ayant besoin d\u2019un acc\u00e8s au lieu de travail pour fonctionner, et la r\u00e9int\u00e9gration de ces employ\u00e9s se fera graduellement.</p>\n<p>\n\tPour commencer, nous avons d\u00e9sign\u00e9 quatre lieux de travail \u00e0 AAC o\u00f9 nous allons initier la r\u00e9int\u00e9gration aux laboratoires :</p>\n<ul>\n<li>\n\tle <strong>Centre de recherche et de d\u00e9veloppement de St. John\u2019s</strong> \u00e0 Terre\u2011Neuve\u2011et\u2011Labrador;</li>\n<li>le <strong>Centre de recherche et de d\u00e9veloppement de Saint-Hyacinthe</strong> au Qu\u00e9bec;</li>\n<li>le <strong>Laboratoire de recherche et de r\u00e9f\u00e9rence de l\u2019Agence canadienne du pari mutuel</strong> \u00e0 Ottawa, en Ontario;</li>\n<li>le <strong>Centre de recherche et de d\u00e9veloppement de Morden</strong> au Manitoba.</li>\n</ul>\n<p>\n\tLes plans d\u2019am\u00e9nagement de chacun de ces quatre emplacements ont \u00e9t\u00e9 pr\u00e9sent\u00e9s cette semaine \u00e0 un comit\u00e9 sp\u00e9cial de DG, afin de confirmer que toutes les mesures de pr\u00e9caution en mati\u00e8re de sant\u00e9 et s\u00e9curit\u00e9 ont \u00e9t\u00e9 mises en \u0153uvre.</p>\n<p>\n\tL\u2019ouverture des laboratoires est une des \u00e9tapes importantes de nos plans de r\u00e9int\u00e9gration. Nous apprendrons en cours de route, et nous nous attendons \u00e0 ouvrir d\u2019autres laboratoires assez rapidement, d\u00e8s que leurs plans d\u2019am\u00e9nagement seront pr\u00eats et approuv\u00e9s. Nous tenons \u00e0 informer les employ\u00e9s suffisamment d\u2019avance de leur retour pr\u00e9vu au lieu de travail.</p>\n<p>\n\tPendant la r\u00e9ouverture des laboratoires et des bureaux, nos priorit\u00e9s consisteront \u00e0 offrir un milieu de travail s\u00fbr \u00e0 nos employ\u00e9s, \u00e0 respecter leurs circonstances personnelles et \u00e0 nous assurer que notre minist\u00e8re met tout en \u0153uvre pour remplir son mandat.</p>\n<p>\n\tConsultez la page <a href=\"https://multimedia.agr.gc.ca/COVID-19/index-fra.html\">Renseignements \u00e0 l\u2019intention des employ\u00e9s sur l'assouplissement des restrictions li\u00e9es \u00e0 la COVID-19</a> pour obtenir les plus r\u00e9centes informations \u00e0 ce sujet.</p>\n<h2>\n\t<strong>N\u2019oubliez pas de profiter de l\u2019\u00e9t\u00e9</strong></h2>\n<p>\n\tSur une note plus l\u00e9g\u00e8re, nous esp\u00e9rons que tout le monde profite de l\u2019\u00e9t\u00e9 pour prendre des vacances. Nous avons tous besoin de prendre un peu de repos, de profiter de la chaleur et de refaire le plein d\u2019\u00e9nergie pour nous attaquer aux importantes t\u00e2ches qui nous attendent!</p>\n<p>Prenez soin de vous et de vos proches.</p>\n<p>\u00a0</p>\n<p><strong>Chris Forbes<br></strong>Sous-ministre</p>\n<p><strong>Annette Gibbons<br></strong>Sous-ministre d\u00e9l\u00e9gu\u00e9e</p>\n\t\t"
    },
    "breadcrumb": {
        "en": "Increasing Access to AAFC Worksites",
        "fr": "Accroissement de l'acc\u00e8s aux lieux de travail d'AAC"
    },
    "news": {
        "date_posted": {
            "en": "2020-08-10",
            "fr": "2020-08-10"
        },
        "to": {
            "en": "All staff",
            "fr": "Tous les employ\u00e9s"
        },
        "by": {
            "en": "Chris Forbes, Deputy Minister, and Annette Gibbons, Associate Deputy Minister",
            "fr": "Chris Forbes, Sous-ministre, et Annette Gibbons, Sous-ministre d\u00e9l\u00e9gu\u00e9e"
        }
    }
}