{
    "dcr_id": "1597161901885",
    "lang": "en",
    "title": {
        "en": "Reminder - Celebrating 50 Years of Pride: A Conversation With Martin Boyce",
        "fr": "Rappel - C\u00e9l\u00e9brons 50 ans de fiert\u00e9 : Conversation avec Martin Boyce"
    },
    "modified": "2020-08-19 00:00:00.0",
    "issued": "2020-08-12 00:00:00.0",
    "type_name": "intra-intra/news-nouv",
    "node_id": "1279030006975",
    "layout_name": null,
    "dc_date_created": "2020-08-12",
    "breadcrumb_label": "",
    "meta": {
        "issued": {
            "en": "2020-08-12",
            "fr": "2020-08-12"
        },
        "modified": {
            "en": "2020-08-19",
            "fr": "2020-08-19"
        },
        "format": {
            "en": "gcformat",
            "fr": "gcformat"
        },
        "title": {
            "en": "Reminder - Celebrating 50 Years of Pride: A Conversation With Martin Boyce",
            "fr": "Rappel - C\u00e9l\u00e9brons 50 ans de fiert\u00e9 : Conversation avec Martin Boyce"
        },
        "subject": {
            "en": "communications",
            "fr": "communications"
        },
        "description": {
            "en": "AAFC and the Canadian Food Inspection Agency (CFIA) are pleased to invite you to a special event to celebrate the third annual Public Service Pride Week (PSPW).",
            "fr": "AAC et l'Agence canadienne d'inspection des aliments (ACIA) sont heureux de vous inviter \u00e0 une activit\u00e9 sp\u00e9ciale pour c\u00e9l\u00e9brer la 3e \u00e9dition annuelle de la Semaine de la fiert\u00e9 \u00e0 la fonction publique (SFFP)."
        },
        "language": {
            "en": "eng",
            "fr": "fra"
        },
        "audience": {
            "en": "gcaudience",
            "fr": "gcaudience"
        },
        "creator": {
            "en": "Agriculture and Agri-Food Canada",
            "fr": "Agriculture et Agroalimentaire Canada"
        },
        "spatial": {
            "en": "gcregions",
            "fr": "gcregions"
        },
        "service": {
            "en": "AAFC_AgriSource",
            "fr": "AAC_AgriSource"
        },
        "accessRights": {
            "en": "3",
            "fr": "3"
        }
    },
    "body": {
        "en": "<br>\n<br>\n<p>AAFC and the Canadian Food Inspection Agency (CFIA) are pleased to invite you to a special event to celebrate the third annual Public Service Pride Week (PSPW).</p>\n<p>Over the past two years, the PSPW has become a fixture on the public service calendar in celebrating diversity and inclusion. With more than 50 federal departments and agencies involved, this year\u2019s events will be celebrated virtually and will take place from August 24 to August 28.</p>\n<p>On August 25, please join us for a conversation with Martin Boyce, a native New Yorker, who was present at the Stonewall Inn when violent protests erupted on the street on the night of June 28, 1969. Known as the Stonewall Uprising, this moment marked a major turning point in the modern LGBTQ2+ civil rights movement in the United States and around the world. Martin will speak to his experience living through the Stonewall Uprising.</p>\n<h2><strong><img src=\"https://intranet.agr.gc.ca/resources/prod/news/images/MartinBoyce.png\" class=\"pull-left mrgn-rght-md\">Event information</strong></h2>\n<p><strong>Date and Time:</strong> Tuesday, August 25 | 1:00 to 2:30 p.m. (ET)<br>\n<strong>Language:</strong> Bilingual<br>\n<strong>Locations:</strong> Webcast<br>\nTo join via webcast [English]: <a target=\"_blank\" href=\"https://video.isilive.ca/cfia-acia/2020-08-25/english\">https://video.isilive.ca/cfia-acia/2020-08-25/english</a><br>\nTo join via webcast [French]:<strong> </strong><a target=\"_blank\" href=\"https://video.isilive.ca/cfia-acia/2020-08-25/francais\">https://video.isilive.ca/cfia-acia/2020-08-25/francais</a></p>\n<p><strong>To ask questions and vote:</strong> Questions can be submitted throughout the duration of the meeting. Go to <a href=\"http://www.slido.com/\">www.slido.com</a> (please avoid accessing through VPN/AAFC network) and enter event code: #PSPW2020</p>\n<h2><strong>Learn more</strong></h2>\n<ul>\n<li><a href=\"https://www.canada.ca/en/privy-council/campaigns/free-to-be-me.html\">Government of Canada\u2019s LGBTQ2-related initiatives and programs</a></li>\n<li><a href=\"https://gcconnex.gc.ca/event_calendar/group/40837724\">Public Service Pride Week 2020 events</a></li>\n</ul>\n<p>Visit the <a href=\"https://collab.agr.gc.ca/co/lgbt-glbt/SitePages/Home.aspx\">Gender and Sexual Diversity and Inclusiveness Network\u2019s (GSDIN) Knowledge Workspace page</a> to learn more about AAFC\u2019s diversity networks, upcoming events, and also to consider joining one of the Networks. We encourage you and your colleagues to participate in this event and to help promote equality of the LGBTQ2+ community in our workplace!</p>\n<p>For more information, please <a href=\"mailto:aafc.gsdin-ridgs.aac@canada.ca\">aafc.gsdin-ridgs.aac@canada.ca</a>.</p>\n<p>\u00a0</p>\n<p><strong>Christine Walker and Michel Lessard</strong><br>\nCo-Champions, Diversity and Inclusion Networks (AAFC)</p>\n<p><strong>Nicholas Christie</strong><br>\nChampion, LGBTQ Network (CFIA)</p>\n<p><img src=\"https://intranet.agr.gc.ca/resources/prod/news/images/Stonewall-Banner-EN.png\" class=\"center-block\"></p>\n\n\t\t",
        "fr": "<br>\n<br>\n<p>AAC et l\u2019Agence canadienne d\u2019inspection des aliments (ACIA) sont heureux de vous inviter \u00e0 une activit\u00e9 sp\u00e9ciale pour c\u00e9l\u00e9brer la 3e \u00e9dition annuelle de la Semaine de la fiert\u00e9 \u00e0 la fonction publique (SFFP).</p>\n<p>Au cours des deux derni\u00e8res ann\u00e9es, la SFFP est devenue un incontournable des activit\u00e9s du calendrier de la fonction publique qui visent \u00e0 c\u00e9l\u00e9brer la diversit\u00e9 et l\u2019inclusion. Les activit\u00e9s de cette ann\u00e9e, auxquelles participent plus de 50 minist\u00e8res f\u00e9d\u00e9raux, se d\u00e9rouleront de fa\u00e7on virtuelle du 24 au 28 ao\u00fbt.</p>\n<p>Le 25 ao\u00fbt, joignez-vous \u00e0 nous pour une conversation avec Martin Boyce, originaire de New York, qui \u00e9tait pr\u00e9sent au Stonewall Inn lorsque de violentes \u00e9meutes ont \u00e9clat\u00e9 dans la rue la nuit du 28 juin 1969. Connu comme \u00e9tant les \u00e9meutes de Stonewall, ce moment a marqu\u00e9 un important tournant dans le mouvement moderne de d\u00e9fense des droits civils de la communaut\u00e9 LGBTQ2+ aux \u00c9tats-Unis et partout dans le monde. Martin parlera de ce qu\u2019il a v\u00e9cu pendant les \u00e9meutes de Stonewall.</p>\n<h2><img src=\"https://intranet.agr.gc.ca/resources/prod/news/images/MartinBoyce.png\" class=\"pull-left mrgn-rght-md\">Renseignements sur l\u2019activit\u00e9</h2>\n<p><strong>Date et heure :</strong> Le jeudi 25 ao\u00fbt | De 13 h \u00e0 14 h 30 (HE)<br>\n<strong>Langue :</strong> Bilingue<br>\n<strong>Lieu :</strong> Webdiffusion<br>\nParticipation par webdiffusion [anglais] : <a target=\"_blank\" href=\"https://video.isilive.ca/cfia-acia/2020-08-25/english\">https://video.isilive.ca/cfia-acia/2020-08-25/english</a><br>\nParticipation par webdiffusion [fran\u00e7ais]: <a target=\"_blank\" href=\"https://video.isilive.ca/cfia-acia/2020-08-25/francais\">https://video.isilive.ca/cfia-acia/2020-08-25/francais</a></p>\n<p><strong>Pour poser des questions et voter : </strong>Des questions peuvent \u00eatre pos\u00e9es tout au long de la r\u00e9union. Allez \u00e0 <a href=\"http://www.slido.com/\">www.slido.com</a> (pri\u00e8re de ne pas utiliser le RPV/r\u00e9seau d\u2019AAC), puis entrez le code d\u2019\u00e9v\u00e9nement : #PSPW2020</p>\n<h2><strong>Pour en savoir plus</strong></h2>\n<ul>\n<li><a href=\"https://www.canada.ca/fr/patrimoine-canadien/campagnes/sois-toi-meme.html\">Initiatives et programmes du gouvernement du Canada li\u00e9s \u00e0 la communaut\u00e9 LGBTQ2</a></li>\n<li><a href=\"https://gcconnex.gc.ca/event_calendar/group/40837724\">Les \u00e9v\u00e9nements de La Semaine nationale de la fiert\u00e9 \u00e0 la fonction publique 2020</a></li>\n</ul>\n<p>Visitez la <a href=\"https://collab.agr.gc.ca/co/lgbt-glbt/SitePages/Home.aspx\">page du R\u00e9seau de l\u2019inclusivit\u00e9 et de la diversit\u00e9 des genres et de la sexualit\u00e9 dans l'Espace de travail du savoir</a> pour en apprendre plus sur les r\u00e9seaux de la diversit\u00e9 d\u2019AAC et les activit\u00e9s \u00e0 venir et pour vous joindre \u00e0 l\u2019un des r\u00e9seaux. Nous vous encourageons ainsi que vos coll\u00e8gues \u00e0 participer \u00e0 cette activit\u00e9 et \u00e0 promouvoir l\u2019\u00e9galit\u00e9 de la communaut\u00e9 LGBTQ2+ a dans le milieu de travail!</p>\n<p>Pour de plus amples renseignements, veuillez envoyer un courriel \u00e0 <a href=\"mailto:aafc.gsdin-ridgs.aac@canada.ca\">aafc.gsdin-ridgs.aac@canada.ca</a>.</p>\n<p>\u00a0</p>\n<p><strong>Christine Walker et Michel Lessard</strong><br>\nCo-champions des r\u00e9seaux de la diversit\u00e9 et de l\u2019inclusion (AAC)</p>\n<p><strong>Nicholas Christie</strong><br>\nChampion du R\u00e9seau LGBTQ (ACIA)</p>\n<p>\n<img src=\"https://intranet.agr.gc.ca/resources/prod/news/images/Stonewall-Banner-FR.png\" class=\"center-block\"></p>\n\t\t"
    },
    "breadcrumb": {
        "en": "Reminder - Celebrating 50 Years of Pride: A Conversation With Martin Boyce",
        "fr": "Rappel - C\u00e9l\u00e9brons 50 ans de fiert\u00e9 : Conversation avec Martin Boyce"
    },
    "news": {
        "date_posted": {
            "en": "2020-08-13",
            "fr": "2020-08-13"
        },
        "to": {
            "en": "All staff",
            "fr": "Tous les employ\u00e9s"
        },
        "by": {
            "en": "Christine Walker and Michel Lessard, AAFC Co-Champions, Diversity and Inclusion Networks (AAFC), and Nicholas Christie, Champion, LGBTQ Network (CFIA)",
            "fr": "Christine Walker et Michel Lessard, Co-champions des r\u00e9seaux de la diversit\u00e9 et de l\u2019inclusion d\u2019AAC, et Nicholas Christie, champion du R\u00e9seau LGBTQ de l\u2019ACIA"
        }
    }
}