{
    "dcr_id": "1598279689715",
    "lang": "en",
    "title": {
        "en": "Happy Public Service Pride Week!",
        "fr": "Bonne Semaine de la fiert\u00e9 \u00e0 la fonction publique!"
    },
    "modified": "2020-08-24 00:00:00.0",
    "issued": "2020-08-24 00:00:00.0",
    "type_name": "intra-intra/news-nouv",
    "node_id": "1279030006975",
    "layout_name": null,
    "dc_date_created": "2020-08-24",
    "breadcrumb_label": "",
    "meta": {
        "issued": {
            "en": "2020-08-24",
            "fr": "2020-08-24"
        },
        "modified": {
            "en": "2020-08-24",
            "fr": "2020-08-24"
        },
        "format": {
            "en": "gcformat",
            "fr": "gcformat"
        },
        "title": {
            "en": "Happy Public Service Pride Week!",
            "fr": "Bonne Semaine de la fiert\u00e9 \u00e0 la fonction publique!"
        },
        "subject": {
            "en": "communications",
            "fr": "communications"
        },
        "description": {
            "en": "During this week, we all come together to celebrate the resilience, spirit, contributions and diversity of lesbian, gay, bisexual, transgender, queer and two-spirit (LGBTQ2+) public servants from coast to coast to coast.",
            "fr": "Au cours de cette semaine, nous soulignerons ensemble la r\u00e9silience, l'esprit, la contribution et la diversit\u00e9 de la communaut\u00e9 lesbienne, gaie, bisexuelle, transgenre, queer et bisprirituelle (LGBTQ2+) dont font partie des fonctionnaires de tout le pays."
        },
        "language": {
            "en": "eng",
            "fr": "fra"
        },
        "audience": {
            "en": "gcaudience",
            "fr": "gcaudience"
        },
        "creator": {
            "en": "Agriculture and Agri-Food Canada",
            "fr": "Agriculture et Agroalimentaire Canada"
        },
        "spatial": {
            "en": "gcregions",
            "fr": "gcregions"
        },
        "service": {
            "en": "AAFC_AgriSource",
            "fr": "AAC_AgriSource"
        },
        "accessRights": {
            "en": "3",
            "fr": "3"
        }
    },
    "body": {
        "en": "<br>\n<br>\n<p>We are very happy to wish you a great Public Service Pride Week! During this week, we all come together to celebrate the resilience, spirit, contributions and diversity of lesbian, gay, bisexual, transgender, queer and two-spirit (LGBTQ2+) public servants from coast to coast to coast.</p>\n<p>This is a week of celebration but also one of reflection, with the world\u2019s attention increasingly focused on equity and justice for marginalized communities. We should remember that it was the courage of Black and racialized trans women that triggered the 1969 New York City Stonewall riots, leading not only to the 1971 \u201cWe demand\u201d manifesto for LGBT civil rights protections here in Canada but also to what we know today as the global LGBTQ2 movement.</p>\n<p>The public service is a place for all, regardless of sexual orientation or gender expression. Diversity and inclusion lead to innovation, and these qualities are essential to who we are as an organization. We must continue to demonstrate respect for one another and to foster a diverse and inclusive culture.</p>\n<p>We invite you to join in on the <a href=\"https://gcconnex.gc.ca/groups/profile/40837724/public-service-pride-week-2020-la-semaine-nationale-de-la-fierte-a-la-fonction-publique-2020?language=en\">many virtual celebrations</a> that are planned this week across more than 50 federal departments and agencies and to show your pride and support by using #PSPW2020 on social media. We also encourage you to consider taking action through your department\u2019s diversity and inclusion committee or health and wellness committee and to learn more through the following resources:</p>\n<ul>\n<li><a href=\"https://www.canada.ca/en/government/publicservice/wellness-inclusion-diversity-public-service/diversity-inclusion-public-service.html\">Diversity and inclusion in the public service</a></li>\n<li><a href=\"https://www.canada.ca/en/canadian-heritage/campaigns/free-to-be-me.html\">LGBTQ2 Secretariat</a></li>\n<li><a href=\"https://cfc-swc.gc.ca/gba-acs/course-cours-en.html\">Gender-Based Analysis Plus (GBA+)</a>\u00a0</li>\n</ul>\n<p>As public servants, we have a responsibility to learn from one another, grow together and further the public good. Whether a member of the LGBTQ2+ community or an ally, we all have a role to play in making the public service safe and inclusive for all.</p>\n<p>Happy Public Service Pride Week!</p>\n<p><strong>\u00a0</strong></p>\n<p><strong>Ian Shugart, </strong>Clerk of the Privy Council and Secretary to the Cabinet<br><strong>Catherine Blewett, </strong>Deputy Clerk of the Privy Council and Associate Secretary to the Cabinet<br><strong>Jason Bett, </strong>Public Service Pride Champion</p>\n\n\t\t",
        "fr": "<br>\n<br>\n<p>C\u2019est avec grand plaisir que nous vous souhaitons une excellente Semaine de la fiert\u00e9 \u00e0 la fonction publique. Au cours de cette semaine, nous soulignerons ensemble la r\u00e9silience, l\u2019esprit, la contribution et la diversit\u00e9 de la communaut\u00e9 lesbienne, gaie, bisexuelle, transgenre, queer et bisprirituelle (LGBTQ2+) dont font partie des fonctionnaires de tout le pays.</p>\n<p>Cette semaine festive nous offre notamment une occasion de r\u00e9flexion, alors que dans le monde entier on se pr\u00e9occupe de plus en plus de ce que vivent les communaut\u00e9s marginalis\u00e9es sur les plans de l\u2019\u00e9quit\u00e9 et de la justice. Nous ne devons pas oublier le courage d\u2019une transgenre noire dont les actions ont men\u00e9 aux \u00e9meutes de Stonewall, qui se sont d\u00e9roul\u00e9es \u00e0 New York en 1969, puis \u00e0 la premi\u00e8re manifestation pour le respect des droits civils de la communaut\u00e9 LGBT ici m\u00eame au Canada en 1971. Aujourd\u2019hui, nous parlons du mouvement LGBTQ2.</p>\n<p>La fonction publique est ouverte \u00e0 tous, peu importe l\u2019orientation sexuelle ou l\u2019identit\u00e9 de genre des employ\u00e9s. La diversit\u00e9 et l\u2019inclusion sont sources d\u2019innovation, mais aussi et surtout ce sont des caract\u00e9ristiques qui d\u00e9finissent notre organisation. Nous devons continuer de faire preuve de respect envers les autres, et de favoriser l\u2019adoption d\u2019une culture diversifi\u00e9e et inclusive.</p>\n<p>Nous vous invitons \u00e0 participer aux <a href=\"https://gcconnex.gc.ca/groups/profile/40837724/public-service-pride-week-2020-la-semaine-nationale-de-la-fierte-a-la-fonction-publique-2020?language=fr\">multiples activit\u00e9s en mode virtuel</a> qui auront lieu cette semaine dans plus de 50 minist\u00e8res et organismes f\u00e9d\u00e9raux et \u00e0 exprimer votre fiert\u00e9 et votre soutien en utilisant le mot-clic #SFFP2020 dans les m\u00e9dias sociaux. Nous vous incitons \u00e9galement \u00e0 vous engager davantage, en si\u00e9geant par exemple \u00e0 un comit\u00e9 sur la diversit\u00e9 et l\u2019inclusion ou \u00e0 un comit\u00e9 sur la sant\u00e9 et le bien-\u00eatre au sein de votre organisation. Vous pouvez obtenir davantage d\u2019information en consultant les ressources suivantes :</p>\n<ul>\n<li><a href=\"https://www.canada.ca/fr/gouvernement/fonctionpublique/mieux-etre-inclusion-diversite-fonction-publique/diversite-equite-matiere-emploi.html\">Diversit\u00e9 et \u00e9quit\u00e9 en mati\u00e8re d\u2019emploi</a>\u00a0</li>\n<li><a href=\"https://www.canada.ca/fr/patrimoine-canadien/campagnes/sois-toi-meme.html\">Secr\u00e9tariat LGBTQ2</a></li>\n<li><a href=\"https://cfc-swc.gc.ca/gba-acs/course-cours-fr.html\">Analyse comparative entre les sexes plus (ACS+)</a></li>\n</ul>\n<p>Comme fonctionnaires, nous nous devons d\u2019apprendre les uns des autres, de progresser ensemble et de mettre \u00e0 l\u2019avant-plan le bien commun. Que nous soyons une personne membre de la communaut\u00e9 LGBTQ2+ ou sympathisante, nous avons tous et toutes un r\u00f4le \u00e0 jouer pour faire de la fonction publique un endroit s\u00fbr et inclusif.</p>\n<p>Bonne Semaine de la fiert\u00e9 \u00e0 la fonction publique!</p>\n<p>\u00a0</p>\n<p><strong>Ian Shugart, </strong>Greffier du Conseil priv\u00e9 et secr\u00e9taire du Cabinet<br><strong>Catherine Blewett,</strong> Sous-greffi\u00e8re du Conseil priv\u00e9 et secr\u00e9taire associ\u00e9e du Cabinet<br><strong>Jason Bett, </strong>Champion de la fiert\u00e9 \u00e0 la fonction publique</p>\n\t\t"
    },
    "breadcrumb": {
        "en": "Happy Public Service Pride Week!",
        "fr": "Bonne Semaine de la fiert\u00e9 \u00e0 la fonction publique!"
    },
    "news": {
        "date_posted": {
            "en": "2020-08-24",
            "fr": "2020-08-24"
        },
        "to": {
            "en": "All staff",
            "fr": "Tous les employ\u00e9s"
        },
        "by": {
            "en": "Ian Shugart, Clerk of the Privy Council, Catherine Blewett, Deputy Clerk of the Privy Council and Jason Bett, Public Service Pride Champion",
            "fr": "Ian Shugart, Greffier du Conseil priv\u00e9, Catherine Blewett, Sous-greffi\u00e8re du Conseil priv\u00e9 et Jason Bett, Champion de la fiert\u00e9 \u00e0 la fonction publique"
        }
    }
}