{
    "dcr_id": "1598535783644",
    "lang": "en",
    "title": {
        "en": "Reminder - Get Ready for Microsoft Office 365",
        "fr": "Rappel - Pr\u00e9parez-vous pour Microsoft Office 365 "
    },
    "modified": "2020-09-03 00:00:00.0",
    "issued": "2020-08-27 00:00:00.0",
    "type_name": "intra-intra/news-nouv",
    "node_id": "1279030006975",
    "layout_name": null,
    "dc_date_created": "2020-08-27",
    "breadcrumb_label": "",
    "meta": {
        "issued": {
            "en": "2020-08-27",
            "fr": "2020-08-27"
        },
        "modified": {
            "en": "2020-09-03",
            "fr": "2020-09-03"
        },
        "format": {
            "en": "gcformat",
            "fr": "gcformat"
        },
        "title": {
            "en": "Reminder - Get Ready for Microsoft Office 365",
            "fr": "Rappel - Pr\u00e9parez-vous pour Microsoft Office 365 "
        },
        "subject": {
            "en": "communications",
            "fr": "communications"
        },
        "description": {
            "en": "In an effort to modernize workplace tools and transition to a more digital workplace, AAFC is starting its implementation of Microsoft Office 365 (M365).",
            "fr": "Dans le but de moderniser les outils de travail et de r\u00e9aliser la transition vers un milieu de travail plus num\u00e9rique, Agriculture et Agroalimentaire Canada (AAC) commence \u00e0 mettre en \u0153uvre Microsoft Office 365 (M365)."
        },
        "language": {
            "en": "eng",
            "fr": "fra"
        },
        "audience": {
            "en": "gcaudience",
            "fr": "gcaudience"
        },
        "creator": {
            "en": "Agriculture and Agri-Food Canada",
            "fr": "Agriculture et Agroalimentaire Canada"
        },
        "spatial": {
            "en": "gcregions",
            "fr": "gcregions"
        },
        "service": {
            "en": "AAFC_AgriSource",
            "fr": "AAC_AgriSource"
        },
        "accessRights": {
            "en": "3",
            "fr": "3"
        }
    },
    "body": {
        "en": "<br>\n<br>\n<p>In an effort to modernize workplace tools and transition to a more digital workplace, AAFC is starting its implementation of Microsoft Office 365 (M365). As per our email to you on August 12, the first step involves rolling out a permanent version of Microsoft (MS) Teams and OneDrive in September of 2020. Additional project steps will occur throughout the coming year.</p>\n<p>This transition is happening earlier than planned since the temporary GCcollaboration system (and its versions of MS Teams and OneDrive) will no longer be available as of September 17, 2020. The goal behind the accelerated transition to the permanent versions of MS Teams and OneDrive is to ensure the uninterrupted use of these valuable applications during the pandemic.</p>\n<h2><strong>Who is M365 for?</strong></h2>\n<p>This cloud-based system will be available to all AAFC employees (including consultants, contractors, etc.).</p>\n<h2><strong>About M365</strong></h2>\n<p>M365 will offer employees access to various tools. As a first step of this rollout, you will be able to use the following tools:</p>\n<ul>\n<li><a target=\"_blank\" href=\"https://support.office.com/en-us/article/microsoft-teams-video-training-4f108e54-240b-4351-8084-b1089f0d21d7\">MS Teams</a>: for chat and audio/video conferencing; we encourage employees to use this tool instead of external platforms like Slack and Zoom as it is more secure and robust (e.g., you can have up to 250 audio/video connections at once)</li>\n<li><a target=\"_blank\" href=\"https://support.office.com/en-us/article/onedrive-video-training-1f608184-b7e6-43ca-8753-2ff679203132?ocmsassetID=1f608184-b7e6-43ca-8753-2ff679203132&amp;wt.mc_id=otc_home&amp;omkt=en-CA&amp;ui=en-US&amp;rs=en-CA&amp;ad=CA\">OneDrive</a>: for temporary file sharing</li>\n</ul>\n<p>Although you will have access to other tools and applications, we recommend using only those noted above.</p>\n<h2>\n<strong>Activating your account</strong></h2>\n<p>\nWe have automatically created accounts for all AAFC employees. Starting next week, you will get an email with\u00a0the subject line \u201cActivate Your Microsoft Office 365 Account / Activez votre compte Microsoft Office 365\u201d from the following mailbox:</p>\n<ul>\n<li>\u00a0<strong>Transformational Project Delivery / R\u00e9alisation de projets de transformation (AAFC/AAC) : </strong><a href=\"mailto:aafc.transformationalprojectdelivery-realisationdeprojetsdetransformation.aac@canada.ca\">mailto:aafc.transformationalprojectdelivery-realisationdeprojetsdetransformation.aac@canada.ca</a></li>\n</ul>\n<p>\n<strong>This is a legitimate email. Please open it</strong>. It will give you your account username, temporary password, and the link to activate your account using the Edge or Chrome web browser.</p>\n<h2><strong>What will change in M365 and what won't</strong></h2>\n<p>\nEmployees who are currently using GCcollaboration won\u2019t see major changes in terms of features available with the permanent M365 applications.</p>\n<table cellspacing=\"0\" border=\"1\">\n<tbody>\n<tr>\n<td style=\"width: 428.65pt;\">\n<p><strong>What will change</strong></p>\n</td>\n<td style=\"border-color: windowtext windowtext windowtext #000000; width: 428.7pt;\">\n<p><strong>What will stay the same</strong></p>\n</td>\n</tr>\n<tr>\n<td style=\"border-color: #000000 windowtext windowtext; width: 428.65pt;\">\n\t\t\t\n<ul>\n<li>You will use a new username and password to log into the M365 applications.</li>\n<li>You will have to sign onto the AAFC network to access M365 applications. As we have transitioned to the <a href=\"http://intranet.agr.gc.ca/agrisource/eng?id=1330966926020\">Government of Canada Secure Remote Access</a> (GCSRA) service, this means that you must have an AAFC-issued, Windows-based workstation (e.g. laptop, tablet) and a myKEY credential to connect to the network via GCSRA. A friendly reminder that you no longer need to follow the network access schedule since employees are now on GCSRA.</li>\n<li>Later this fall, you will be able to use M365 applications on your AAFC mobile devices. At that time, the applications will be available in the Workspace section of your mobile device.</li>\n<li>MS Teams meeting links generated using your GCcollaboration account, including those in your existing @canada calendar items, will no longer work.</li>\n<li>Content (e.g. chats, files) will <strong>not be</strong> transferred to the permanent version of these applications.</li>\n<li>Chats will be automatically deleted after 30 days and files will be deleted 90 days after they were last modified. You will not receive a notification prior to their files being automatically deleted. You are responsible for transferring your content (e.g., chats, files) to a corporate repository (Knowledge Workspace or AgriDoc).</li>\n<li>Unlike with GCcollaboration, you should <strong>not use</strong> the M365 versions of the Office suite, including the online Outlook application. You should use your computer desktop versions instead, as employees are now on GCSRA and have access to the network.</li>\n<li>For security reasons, you will no longer be able to use M365 applications on your personal devices (i.e. phone, personal computer).</li>\n</ul>\n<p>\u00a0</p>\n</td>\n<td style=\"border-color: #000000 windowtext windowtext #000000; width: 428.7pt;\">\n\t\t\t\n<ul>\n<li>You will still have access to MS Teams and OneDrive, though these will be permanent versions of the applications.</li>\n<li>Those who have teleconferencing capabilities associated with their current MS Teams accounts will have the same capabilities in the permanent version.</li>\n<li>New employees will still automatically get access to M365 as part of the onboarding process.</li>\n<li>The use of M365 applications should remain limited to transitory, unclassified information.</li>\n<li>The current team organizational structure will be transferred to the permanent version of MS Teams. Team names may change slightly to conform to departmental guidelines (e.g., official languages). The channel structure will need to be re-created by each team owner.</li>\n<li>Just like with GCcollaboration, the calendar in MS Teams will not be integrated with your @canada Outlook calendar. Calendar items should be created in your @canada Outlook calendar, not in the MS Teams calendar.</li>\n</ul>\n<p>\u00a0</p>\n</td>\n</tr>\n</tbody>\n</table>\n<h2><strong>Using M365</strong></h2>\n<p>The use of M365 is optional; it is up to each team to determine whether the tools offered are appropriate for their work. Employees who do use the tools will be responsible for managing their files and records properly, deleting transitory information and transferring anything of business value to a corporate repository (Knowledge Workspace or AgriDoc).</p>\n<p>Remember that <a href=\"https://www.tpsgc-pwgsc.gc.ca/esc-src/protection-safeguarding/niveaux-levels-eng.html#s2\">Protected and Classified information</a> <strong>must NOT be shared</strong> through this system. All information (e.g., files, chat, etc.) shared through using these tools is subject to the <em>Access to Information Act</em>, the <em>Privacy Act</em>, and to any litigation-related requirements.</p>\n<p>In the next few weeks, we will share available training and other instructions to help employees learn how to use the tools.</p>\n<h2><strong>Reminder: What to do before GCcollaboration is discontinued</strong></h2>\n<p>As GCcollaboration will be discontinued on September 17, you must remember to:</p>\n<ul>\n<li><a href=\"https://collab.agr.gc.ca/co/ima_sgi/_layouts/15/DocIdRedir.aspx?ID=AGR-8791465\">Transfer</a> any information of business value to a corporate repository (Knowledge Workspace or AgriDoc). Please keep the following in mind:</li>\n</ul>\n<p style=\"padding-left: 60px;\">- Before moving or deleting information from GCcollaboration (including MS Teams and OneDrive) that is relevant to an AAFC legal case, consult the Information Management Team (<a href=\"mailto:aafc.im-gi.aac@canada.ca\">aafc.im-gi.aac@canada.ca</a>) as soon as possible.<br>- If you have information relevant to a current ATIP request in GCcollaboration (including MS Teams and OneDrive), contact the Access to Information and Privacy Team (<a href=\"mailto:aafc.atip-aiprp.aac@canada.ca\">aafc.atip-aiprp.aac@canada.ca</a>) as soon as possible.</p>\n<ul>\n<li>Forward or re-create any MS Teams calendar invitations that only exist in GCcollaboration to your @canada email. Update your desktop Outlook calendar items with new MS Teams meeting links once you have activated your M365 account.</li>\n<li>Make a note of the members in your team channels in MS Teams. Team owners should do this so they can re-create the channels in the permanent version of MS Teams.</li>\n</ul>\n<p>For more information on preparing for the discontinuation of GCcollaboration, read <a href=\"https://intranet.agr.gc.ca/agrisource/eng/newswork/gccollaboration-clean-up-and-transition-to-m365?id=1597249704425\">news@work</a>.</p>\n<p>I appreciate your patience while we implement M365 tools over the next year and improve IT services for the department and its employees. We will continue to communicate as new features and tools become available.</p>\n<p>\u00a0</p>\n<p><strong>Michel Lessard<br></strong>Chief Information Officer and Assistant Deputy Minister<br>Information Systems Branch</p>\n\n\t\t",
        "fr": "<br>\n<br>\n<p>Dans le but de moderniser les outils de travail et de r\u00e9aliser la transition vers un milieu de travail plus num\u00e9rique, Agriculture et Agroalimentaire Canada (AAC) commence \u00e0 mettre en \u0153uvre Microsoft Office 365 (M365). Comme nous l\u2019avons indiqu\u00e9 dans un courriel qui vous a \u00e9t\u00e9 achemin\u00e9 le 12 ao\u00fbt, la premi\u00e8re \u00e9tape consiste \u00e0 d\u00e9ployer une version permanente de Microsoft Teams (MS Teams) et de OneDrive en septembre 2020. D\u2019autres \u00e9tapes du projet interviendront dans l\u2019ann\u00e9e qui vient.</p>\n<p>Cette transition a lieu plus t\u00f4t que pr\u00e9vu, puisque le syst\u00e8me temporaire GCcollaboration (et ses versions de MS Teams et de OneDrive) ne sera plus accessible \u00e0 compter du 17 septembre 2020. L\u2019objectif de la transition acc\u00e9l\u00e9r\u00e9e vers les versions permanentes de MS Teams et de OneDrive consiste \u00e0 assurer l\u2019utilisation ininterrompue de ces applications indispensables pendant la pand\u00e9mie.</p>\n<h2>\n\u00c0 qui s\u2019adresse ce syst\u00e8me?</h2>\n<p>Ce syst\u00e8me infonuagique sera mis \u00e0 la disposition de tous les employ\u00e9s d\u2019AAC (ainsi que des consultants, des entrepreneurs, etc.).</p>\n<h2>\n\u00c0 propos de M365</h2>\n<p>Le syst\u00e8me M365 offrira aux employ\u00e9s l\u2019acc\u00e8s \u00e0 divers outils. Pendant la premi\u00e8re \u00e9tape de ce d\u00e9ploiement, vous pourrez utiliser les outils suivants :</p>\n<ul>\n<li><a href=\"https://support.microsoft.com/fr-fr/office/formation-vid%c3%a9o-microsoft-teams-4f108e54-240b-4351-8084-b1089f0d21d7?ui=fr-fr&amp;rs=fr-fr&amp;ad=fr\">MS Teams</a> : pour le clavardage et les conf\u00e9rences audiovid\u00e9o; nous encourageons les employ\u00e9s \u00e0 se servir de cet outil au lieu de plateformes externes comme Slack et Zoom, parce qu\u2019il est plus s\u00fbr et plus robuste (p. ex. il permet jusqu\u2019\u00e0 250 connexions audiovid\u00e9o simultan\u00e9es).</li>\n<li><a href=\"https://support.microsoft.com/fr-fr/office/video-de-formation-onedrive-1f608184-b7e6-43ca-8753-2ff679203132?ocmsassetid=1f608184-b7e6-43ca-8753-2ff679203132&amp;wt.mc_id=otc_home&amp;ui=fr-fr&amp;rs=fr-fr&amp;ad=fr\">OneDrive</a> : pour le partage temporaire de fichiers.</li>\n</ul>\n<p>Vous aurez acc\u00e8s \u00e0 d\u2019autres outils dans le syst\u00e8me, mais nous vous recommandons de vous en tenir aux outils susmentionn\u00e9s.</p>\n<h2>\n<strong>Activation de votre compte</strong></h2>\n<p>\nNous avons cr\u00e9\u00e9 automatiquement des comptes de syst\u00e8me pour tous les employ\u00e9s d\u2019AAC. \u00c0 compter de la semaine prochaine, vous recevrez un courriel indiquant la ligne objet \u00ab Activate Your Microsoft Office 365 Account / Activez votre compte Microsoft Office 365 \u00bb en provenance de la bo\u00eete de courriel suivante :</p>\n<ul>\n<li>\n\u00a0\u00a0<strong>Transformational Project Delivery / R\u00e9alisation de projets de transformation (AAFC/AAC) : </strong><a href=\"mailto:aafc.transformationalprojectdelivery-realisationdeprojetsdetransformation.aac@canada.ca\">mailto:aafc.transformationalprojectdelivery-realisationdeprojetsdetransformation.aac@canada.ca</a></li>\n</ul>\n<p>\n\t<strong>Il s\u2019agit d\u2019un courriel l\u00e9gitime. Veuillez l\u2019ouvrir</strong>. Vous y trouverez votre nom d\u2019utilisateur, votre mot de passe temporaire et un lien qui vous permettra d\u2019activer votre compte au moyen du fureteur Web Edge ou Chrome.</p>\n<h2>\n<strong>Ce qui changera et ce qui ne changera pas</strong></h2>\n<p>\nLes employ\u00e9s qui utilisent actuellement GCcollaboration ne verront pas de changements majeurs en ce qui concerne les fonctionnalit\u00e9s des applications permanentes M365.</p>\n<table cellspacing=\"0\" border=\"1\">\n<tbody>\n<tr>\n<td style=\"width: 428.65pt;\">\n<p><strong>Ce qui changera</strong></p>\n</td>\n<td style=\"border-color: windowtext windowtext windowtext #000000; width: 428.7pt;\">\n<p><strong>Ce qui ne changera pas</strong></p>\n</td>\n</tr>\n<tr>\n<td style=\"border-color: #000000 windowtext windowtext; width: 428.65pt;\">\n\t\t\t\n<ul>\n<li>Vous utiliserez un nouveau nom d\u2019utilisateur et mot de passe pour vous connecter aux applications M365.</li>\n<li>Vous devrez vous connecter au r\u00e9seau d\u2019AAC pour acc\u00e9der aux applications M365. Comme nous sommes pass\u00e9s au service <a href=\"https://intranet.agr.gc.ca/agrisource/fra/directions-generales-et-bureaux/direction-generale-des-systemes-dinformation/services/service-dacces-a-distance-protege-du-gouvernement-du-canada?id=1330966926020\">d\u2019acc\u00e8s \u00e0 distance prot\u00e9g\u00e9 du gouvernement du Canada (ADPGC)</a>, vous devez avoir un poste de travail Windows (p. ex. ordinateur portatif, tablette) d\u2019AAC et votre maCL\u00c9 pour vous connecter au r\u00e9seau par l\u2019entremise d\u2019ADPGC. Petit rappel : vous n\u2019avez plus \u00e0 suivre le calendrier d\u2019acc\u00e8s au r\u00e9seau puisque les employ\u00e9s sont maintenant dans l\u2019environnement ADPGC.</li>\n<li>Cet automne, vous pourrez utiliser les applications M365 sur vos appareils mobiles d\u2019AAC. \u00c0 ce moment-l\u00e0, les applications seront accessibles dans la section Espace de travail de votre appareil mobile.</li>\n<li>Les liens de r\u00e9union de MS Teams g\u00e9n\u00e9r\u00e9s \u00e0 l\u2019aide de votre compte GCcollaboration, y compris ceux des \u00e9v\u00e8nements de votre calendrier @canada existants, ne fonctionneront plus.</li>\n<li>Le contenu (p. ex. clavardage, fichiers) <strong>ne sera pas</strong> transf\u00e9r\u00e9 \u00e0 la version permanente de ces applications.</li>\n<li>Les clavardages seront automatiquement supprim\u00e9s apr\u00e8s 30 jours et les fichiers seront supprim\u00e9s 90 jours apr\u00e8s leur derni\u00e8re modification. Vous ne recevrez pas d\u2019avis avant que les fichiers soient automatiquement supprim\u00e9s. Vous \u00eates responsable du transfert de votre contenu (p. ex. clavardage, fichiers) vers un d\u00e9p\u00f4t minist\u00e9riel (Espace de travail du savoir ou AgriDoc).</li>\n<li>Contrairement \u00e0 GCcollaboration, vous <strong>ne devriez pas utiliser</strong> les versions M365 de la suite Office, y compris l\u2019application Outlook en ligne. Vous devriez plut\u00f4t utiliser les versions de votre ordinateur de bureau, car les employ\u00e9s sont maintenant sur ADPGC et ont acc\u00e8s au r\u00e9seau.</li>\n<li>Pour des raisons de s\u00e9curit\u00e9, vous ne pourrez plus utiliser les applications M365 sur vos appareils personnels (c.-\u00e0-d. t\u00e9l\u00e9phone, ordinateur personnel).</li>\n</ul>\n<p>\u00a0</p>\n</td>\n<td style=\"border-color: #000000 windowtext windowtext #000000; width: 428.7pt;\">\n\t\t\t\n<ul>\n<li>Les employ\u00e9s auront toujours acc\u00e8s \u00e0 MS Teams et \u00e0 OneDrive, sauf qu\u2019il s\u2019agira de la version permanente des applications.</li>\n<li>Les utilisateurs qui ont des capacit\u00e9s de t\u00e9l\u00e9conf\u00e9rence associ\u00e9es \u00e0 leur compte MS Teams auront les m\u00eames capacit\u00e9s dans la version permanente.</li>\n<li>Les nouveaux employ\u00e9s auront automatiquement acc\u00e8s \u00e0 M365 dans le cadre du processus d\u2019int\u00e9gration.</li>\n<li>L\u2019utilisation des applications M365 doit continuer d\u2019\u00eatre limit\u00e9e aux informations transitoires et non classifi\u00e9es.</li>\n<li>La structure organisationnelle actuelle des \u00e9quipes sera transf\u00e9r\u00e9e \u00e0 la version permanente de MS Teams. Les noms d\u2019\u00e9quipes pourraient \u00eatre l\u00e9g\u00e8rement modifi\u00e9s pour se conformer aux lignes directrices minist\u00e9rielles (p. ex., langues officielles). Chaque propri\u00e9taire d\u2019\u00e9quipe devra recr\u00e9er la structure des canaux.</li>\n<li>Tout comme avec GCcollaboration, le calendrier dans MS Teams ne sera pas int\u00e9gr\u00e9 \u00e0 votre calendrier Outlook @canada. Les \u00e9l\u00e9ments de calendrier doivent \u00eatre cr\u00e9\u00e9s dans votre calendrier Outlook @canada, et non dans le calendrier de MS Teams.</li>\n</ul>\n<p>\u00a0</p>\n</td>\n</tr>\n</tbody>\n</table>\n<h2><strong>Utilisation\u00a0de\u00a0M365</strong></h2>\n<p>L\u2019utilisation de M365 est facultative; il incombe \u00e0 chaque \u00e9quipe de d\u00e9terminer si les outils conviennent \u00e0 son travail. Les employ\u00e9s qui utilisent les outils devront g\u00e9rer leurs fichiers et leurs dossiers correctement, en supprimant les renseignements transitoires et en transf\u00e9rant toute information ayant une quelconque valeur op\u00e9rationnelle \u00e0 un d\u00e9p\u00f4t minist\u00e9riel (Espace de travail du savoir ou AgriDOC).</p>\n<p>N\u2019oubliez pas que les <a href=\"https://www.tpsgc-pwgsc.gc.ca/esc-src/protection-safeguarding/niveaux-levels-fra.html#s2\">renseignements prot\u00e9g\u00e9s et classifi\u00e9s</a> ne <strong>doivent PAS \u00eatre \u00e9chang\u00e9s</strong> au moyen de ce syst\u00e8me. Tous les renseignements \u00e9chang\u00e9s au moyen de ce syst\u00e8me (dossiers, clavardage, etc.) sont assujettis \u00e0 la <em>Loi sur l\u2019acc\u00e8s \u00e0 l\u2019information</em>, et \u00e0 la <em>Loi sur la protection des renseignements personnels</em>, ainsi qu\u2019\u00e0 toute exigence relative \u00e0 des litiges.</p>\n<p>Dans les semaines qui viennent, nous annoncerons la formation offerte et d\u2019autres instructions pour aider les employ\u00e9s \u00e0 apprendre \u00e0 utiliser les outils offerts.</p>\n<h2><strong>Rappel: que faire avant la mis hors service de GCcollaboration</strong></h2>\n<p>Comme GCcollaboration sera mis hors service le 17 septembre, veuillez faire ce qui suit :</p>\n<ul>\n<li><a href=\"https://collab.agr.gc.ca/co/ima_sgi/_layouts/15/DocIdRedir.aspx?ID=AGR-8791475\">Transf\u00e9rer</a> toute information \u00e0 valeur op\u00e9rationnelle vers un d\u00e9p\u00f4t minist\u00e9riel (AgriDoc ou l\u2019Espace de travail du savoir. Ces conseils peuvent vous aider \u00e0 transf\u00e9rer votre contenu.\n\t\n<ul style=\"list-style-type: circle;\">\n<li>Consulter l\u2019\u00e9quipe de gestion de l\u2019information (<a href=\"mailto:aafc.im-gi.aac@canada.ca\">aafc.im-gi.aac@canada.ca</a>) d\u00e8s que possible avant de d\u00e9placer ou de supprimer des informations dans GCcollaboration (y compris MS Teams et OneDrive) li\u00e9es \u00e0 un dossier juridique d\u2019AAC.</li>\n<li>Communiquer avec l\u2019\u00e9quipe de l\u2019acc\u00e8s \u00e0 l\u2019information et de la protection des renseignements personnels (<a href=\"mailto:aafc.atip-aiprp.aac@canada.ca\">aafc.atip-aiprp.aac@canada.ca</a>) d\u00e8s que possible si vous avez des informations dans GCcollaboration (y compris MS Teams et OneDrive) vis\u00e9es par une demande d\u2019AIPRP en cours.</li>\n</ul>\n</li>\n<li>Transmettre \u00e0 votre courriel @canada toutes les invitations du calendrier MS Teams qui n\u2019existent que dans cet environnement. Vous devrez remplacer les \u00e9l\u00e9ments du calendrier @canada par les nouveaux liens de r\u00e9union MS Teams apr\u00e8s la transition.</li>\n<li>Indiquer les noms des membres de votre \u00e9quipe dans les structures de canaux de MS Teams. Les propri\u00e9taires d\u2019\u00e9quipes doivent le faire pour pouvoir recr\u00e9er les canaux dans la version permanente de MS Teams.</li>\n</ul>\n<p>Pour en savoir davantage sur la pr\u00e9paration \u00e0 la mise hors service de GCcollaboration, nous vous invitons \u00e0 lire le bulletin <a href=\"https://intranet.agr.gc.ca/agrisource/fra/nouvelleslouvrage/rappel-nettoyage-de-lenvironnement-gccollaboration-et-transition-vers-m365?id=1597249704425\">nouvelles@l\u2019ouvrage</a>.</p>\n<p>Je vous remercie de votre patience pendant la mise en \u0153uvre des outils M365 au cours de la prochaine ann\u00e9e et l\u2019am\u00e9lioration des services de TI pour le Minist\u00e8re et ses employ\u00e9s. Nous vous tiendrons au courant \u00e0 mesure que de nouvelles fonctions et de nouveaux outils deviendront disponibles.</p>\n<p>\u00a0</p>\n<p><strong>Michel Lessard<br></strong>Sous-ministre adjoint et dirigeant principal de l\u2019information<br>\nDirection g\u00e9n\u00e9rale des syst\u00e8mes d\u2019information</p>\n<p>\u00a0</p>\n\t\t"
    },
    "breadcrumb": {
        "en": "Reminder - Get Ready for Microsoft Office 365",
        "fr": "Rappel - Pr\u00e9parez-vous pour Microsoft Office 365"
    },
    "news": {
        "date_posted": {
            "en": "2020-08-27",
            "fr": "2020-08-27"
        },
        "to": {
            "en": "All staff",
            "fr": "Tous les employ\u00e9s"
        },
        "by": {
            "en": "Michel Lessard, Chief Information Officer and Assistant Deputy Minister, Information Systems Branch",
            "fr": "Michel Lessard, Sous-ministre adjoint et dirigeant principal de l\u2019information, Direction g\u00e9n\u00e9rale des syst\u00e8mes d\u2019information"
        }
    }
}