{
    "dcr_id": "1599230386886",
    "lang": "en",
    "title": {
        "en": "Call-out for Participants - GCworkplace Consultation on Accessibility",
        "fr": "Appel de participants - Consultation sur l'accessibilit\u00e9 du Milieu de travail GC"
    },
    "modified": "2020-09-10 00:00:00.0",
    "issued": "2020-09-10 00:00:00.0",
    "type_name": "intra-intra/news-nouv",
    "node_id": "1279030006975",
    "layout_name": null,
    "dc_date_created": "2020-09-08",
    "breadcrumb_label": "",
    "meta": {
        "issued": {
            "en": "2020-09-10",
            "fr": "2020-09-10"
        },
        "modified": {
            "en": "2020-09-10",
            "fr": "2020-09-10"
        },
        "format": {
            "en": "gcformat",
            "fr": "gcformat"
        },
        "title": {
            "en": "Call-out for Participants - GCworkplace Consultation on Accessibility",
            "fr": "Appel de participants - Consultation sur l'accessibilit\u00e9 du Milieu de travail GC"
        },
        "subject": {
            "en": "communications",
            "fr": "communications"
        },
        "description": {
            "en": "The Centre for GCworkplace Innovation is commissioned to work with government departments, agencies and external partners to foster knowledge transfer, innovation and develop new concepts and tools for the Government of Canada (GC) workplace.",
            "fr": "Le Centre d'innovation du Milieu de travail GC a pour mandat de collaborer avec les minist\u00e8res et organismes gouvernementaux ainsi que des partenaires externes afin de favoriser le transfert de connaissances et l'innovation, et d'\u00e9laborer de nouveaux concepts et outils pour le milieu de travail du gouvernement du Canada (GC)."
        },
        "language": {
            "en": "eng",
            "fr": "fra"
        },
        "audience": {
            "en": "gcaudience",
            "fr": "gcaudience"
        },
        "creator": {
            "en": "Agriculture and Agri-Food Canada",
            "fr": "Agriculture et Agroalimentaire Canada"
        },
        "spatial": {
            "en": "gcregions",
            "fr": "gcregions"
        },
        "service": {
            "en": "AAFC_AgriSource",
            "fr": "AAC_AgriSource"
        },
        "accessRights": {
            "en": "3",
            "fr": "3"
        }
    },
    "body": {
        "en": "<br>\n<br>\n<p>The Centre for GCworkplace Innovation is commissioned to work with government departments, agencies and external partners to foster knowledge transfer, innovation and develop new concepts and tools for the Government of Canada (GC) workplace.</p>\n<p>Given the GC\u2019s priority and commitment towards accessibility, a series of consultation workshops is being offered and they are soliciting employees with various types of disabilities to participate. The format of the meetings are zoom sessions where employees can share their lived experience to improve the understanding of their needs in the workplace.</p>\n<p>Consultation sessions start Sept 16, 2020 and will be offered in both official languages. There will be 7 sessions based on groupings of disabilities (mobility/flexibility/dexterity, seeing, hearing, cognitive, intellectual, mental health and sensory / environmental disability).</p>\n<p>To register or to get more information about the GCworkplace Consultation Series on Accessibility, please visit <a href=\"https://www.gcpedia.gc.ca/wiki/GCworkplace_accessibility_sessions\">GCpedia - Consultation Series</a>. To learn about the GC workplace, please visit <a href=\"https://gcconnex.gc.ca/discussion/view/68527096/gcworkplace-consultation-series-on-accessibility-serie-de-consultations-sur-laccessibilite-du-milieu-de-travail-gc?language=en\">GCpedia - GCworkplace</a>.</p>\n\n\t\t",
        "fr": "<br>\n<br>\n<p>Le Centre d\u2019innovation du Milieu de travail GC a pour mandat de collaborer avec les minist\u00e8res et organismes gouvernementaux ainsi que des partenaires externes afin de favoriser le transfert de connaissances et l\u2019innovation, et d\u2019\u00e9laborer de nouveaux concepts et outils pour le milieu de travail du gouvernement du Canada (GC).</p>\n<p>Comme l\u2019accessibilit\u00e9 est une priorit\u00e9 et un engagement du GC, une s\u00e9rie d\u2019ateliers de consultation est propos\u00e9e. Les employ\u00e9s ayant diff\u00e9rents types de handicaps sont invit\u00e9s \u00e0 y participer. Les r\u00e9unions se feront par s\u00e9ances sur Zoom o\u00f9 les employ\u00e9s peuvent t\u00e9moigner de leur exp\u00e9rience pour am\u00e9liorer la compr\u00e9hension de leurs besoins en milieu de travail.</p>\n<p>Les s\u00e9ances de consultation seront offertes dans les deux langues officielles \u00e0 compter du 16 septembre 2020. Il y aura sept s\u00e9ances selon les groupes de handicaps (mobilit\u00e9/flexibilit\u00e9/dext\u00e9rit\u00e9, vision, audition, trouble cognitif, handicap intellectuel, sant\u00e9 mentale, et trouble sensoriel ou environnemental).</p>\n<p>Pour vous inscrire ou pour vous renseigner sur la s\u00e9rie de consultations sur l\u2019accessibilit\u00e9 du Milieu de travail GC, consultez la page <a href=\"https://www.gcpedia.gc.ca/wiki/S%C3%A9rie_de_consultation_sur_l%27accessibilit%C3%A9_du_Milieu_de_travail_GC\">S\u00e9rie de consultations dans GCp\u00e9dia</a>. Pour vous renseigner sur le milieu de travail GC, allez \u00e0 la page <a href=\"https://gcconnex.gc.ca/discussion/view/68527096/gcworkplace-consultation-series-on-accessibility-serie-de-consultations-sur-laccessibilite-du-milieu-de-travail-gc?language=en\">Milieu de travail GC dans GCp\u00e9dia</a>.</p>\n\t\t"
    },
    "breadcrumb": {
        "en": "Call-out for Participants - GCworkplace Consultation on Accessibility",
        "fr": "Appel de participants - Consultation sur l'accessibilit\u00e9 du Milieu de travail GC"
    },
    "news": {
        "date_posted": {
            "en": "2020-09-10",
            "fr": "2020-09-10"
        },
        "to": {
            "en": "All staff",
            "fr": "Tous les employ\u00e9s"
        },
        "by": {
            "en": "Persons with Disabilites Network",
            "fr": "R\u00e9seau des personnes handicap\u00e9es"
        }
    }
}