{
    "dcr_id": "1600185839450",
    "lang": "en",
    "title": {
        "en": "Reminder - Government of Canada Workplace Charitable Campaign (GCWCC)",
        "fr": "Rappel - Campagne de charit\u00e9 en milieu de travail du gouvernement du Canada (CCMTGC)"
    },
    "modified": "2020-09-23 00:00:00.0",
    "issued": "2020-09-17 00:00:00.0",
    "type_name": "intra-intra/news-nouv",
    "node_id": "1279030006975",
    "layout_name": null,
    "dc_date_created": "2020-09-15",
    "breadcrumb_label": "",
    "meta": {
        "issued": {
            "en": "2020-09-17",
            "fr": "2020-09-17"
        },
        "modified": {
            "en": "2020-09-23",
            "fr": "2020-09-23"
        },
        "format": {
            "en": "gcformat",
            "fr": "gcformat"
        },
        "title": {
            "en": "Reminder - Government of Canada Workplace Charitable Campaign (GCWCC)",
            "fr": "Rappel - Campagne de charit\u00e9 en milieu de travail du gouvernement du Canada (CCMTGC)"
        },
        "subject": {
            "en": "communications",
            "fr": "communications"
        },
        "description": {
            "en": "Join the launch of AAFC\u2019s GCWCC on Thursday, September 24 from 1:30 to 2:45 p.m. (ET).",
            "fr": "Participez au lancement de la CCMTGC d'AAC aura lieu le jeudi 24 septembre de 13 h 30 \u00e0 14 h 45 (HE)."
        },
        "language": {
            "en": "eng",
            "fr": "fra"
        },
        "audience": {
            "en": "gcaudience",
            "fr": "gcaudience"
        },
        "creator": {
            "en": "Agriculture and Agri-Food Canada",
            "fr": "Agriculture et Agroalimentaire Canada"
        },
        "spatial": {
            "en": "gcregions",
            "fr": "gcregions"
        },
        "service": {
            "en": "AAFC_AgriSource",
            "fr": "AAC_AgriSource"
        },
        "accessRights": {
            "en": "3",
            "fr": "3"
        }
    },
    "body": {
        "en": "<br>\n<br>\n<p>You are invited!</p>\n<p>Join the launch of AAFC\u2019s GCWCC on Thursday, September 24 from 1:30 to 2:45 p.m.\u00a0(ET). All AAFC staff from across Canada are invited to join in this MS Teams event. More information can be found on the <a href=\"https://collab.agr.gc.ca/co/gcwcc-support-ccmtgc/SitePages/GCWCC%20HOME.aspx\">GCWCC\u2019s Knowledge Workspace site</a>. Deputy Minister Forbes will join us, and we\u2019ll have inspiring guest speakers from across Canada who will share their stories about how charitable organizations can change lives.</p>\n<p>AAFC\u2019s campaign will be virtual and national, communicating to staff from across the country. And, staff will have the chance to win an Amazon.ca gift card worth $250!</p>\n<p>More details about the GCWCC will be released soon. In the meantime, we encourage you to visit the <a href=\"https://teams.microsoft.com/l/channel/19%3ae08a6532d3c84932a3e0f6e54f1b1d78%40thread.tacv2/Why%2520I%2520give%2520-%2520Pourquoi%2520je%2520donne?groupId=d9ee1114-075c-4b57-83a2-ce6e150f399e&amp;tenantId=9da98bb1-1857-4cc3-8751-9a49e35d24cd\">Why I Give channel</a> on MS Teams and inspire your colleagues with your story about why you support charitable causes. And for fun go to the GCWCC\u2019s chat channel and post a GIF, sticker, meme, photo or even video challenging your colleagues to get involved in the GCWCC!</p>\n<p>We look forward to seeing you at the launch!</p>\n<p><img src=\"https://intranet.agr.gc.ca/resources/prod/news/images/GCWCC2019-EN.png\" class=\"center-block\"></p>\n\n\t\t",
        "fr": "<br>\n<br>\n<p>Vous \u00eates invit\u00e9 !</p>\n<p>Participez au lancement de la CCMTGC d\u2019AAC aura lieu le jeudi 24 septembre de 13 h 30 \u00e0 14 h 45 (HE). Tous les membres du personnel d\u2019AAC \u00e0 travers le Canada sont invit\u00e9s \u00e0 se joindre \u00e0 cette activit\u00e9 sur MS Teams. Vous trouverez plus d\u2019informations sur la <a href=\"https://collab.agr.gc.ca/co/gcwcc-support-ccmtgc/SitePages/GCWCC%20HOME.aspx\">page de la CCMTGC dans l\u2019Espace de travail du savoir</a>. Le sous\u2011ministre Forbes se joindra \u00e0 nous, et nous aurons des conf\u00e9renciers inspirants de diverses r\u00e9gions du Canada qui raconteront \u00e0 leur fa\u00e7on comment les organismes de bienfaisance peuvent changer des vies.</p>\n<p>La campagne d\u2019AAC sera virtuelle <em>et </em>nationale, s\u2019adressant au personnel \u00e0 l\u2019\u00e9chelle du pays. De plus, les employ\u00e9s courront la chance de gagner une carte-cadeau Amazon.ca d\u2019une valeur de 250 $!</p>\n<p>Des pr\u00e9cisions sur la CCMTGC seront bient\u00f4t communiqu\u00e9es. En attendant, nous vous encourageons \u00e0 visiter le canal <a href=\"https://teams.microsoft.com/l/channel/19%3ae08a6532d3c84932a3e0f6e54f1b1d78%40thread.tacv2/Why%2520I%2520give%2520-%2520Pourquoi%2520je%2520donne?groupId=d9ee1114-075c-4b57-83a2-ce6e150f399e&amp;tenantId=9da98bb1-1857-4cc3-8751-9a49e35d24cd\">Pourquoi je donne</a> sur MS Teams et \u00e0 inspirer vos coll\u00e8gues en expliquant pourquoi vous soutenez des causes caritatives. Et pour vous amuser, affichez sur le canal de clavardage de la CCMTGC un GIF, un autocollant, un m\u00e8me, une photo ou m\u00eame une vid\u00e9o pour mettre vos coll\u00e8gues au d\u00e9fi de s\u2019impliquer dans la CCMTGC!</p>\n<p>Nous esp\u00e9rons vous voir au lancement!</p>\n<p><img src=\"https://intranet.agr.gc.ca/resources/prod/news/images/GCWCC2019-FR.png\" class=\"center-block\"></p>\n\t\t"
    },
    "breadcrumb": {
        "en": "Reminder - Government of Canada Workplace Charitable Campaign (GCWCC)",
        "fr": "Rappel - Campagne de charit\u00e9 en milieu de travail du gouvernement du Canada (CCMTGC)"
    },
    "news": {
        "date_posted": {
            "en": "2020-09-17",
            "fr": "2020-09-17"
        },
        "to": {
            "en": "All staff",
            "fr": "Tous les employ\u00e9s"
        },
        "by": {
            "en": "GCWCC Campaign Co-Champion and Campaign Lead",
            "fr": "Cochampions de la CCMTGC et chefs de campagne"
        }
    }
}