{
    "dcr_id": "1601483831382",
    "lang": "en",
    "title": {
        "en": "The Harvest is Back!",
        "fr": "La Moisson est de retour!"
    },
    "modified": "2020-09-30 00:00:00.0",
    "issued": "2020-09-30 00:00:00.0",
    "type_name": "intra-intra/news-nouv",
    "node_id": "1279030006975",
    "layout_name": null,
    "dc_date_created": "2020-09-30",
    "breadcrumb_label": "",
    "meta": {
        "issued": {
            "en": "2020-09-30",
            "fr": "2020-09-30"
        },
        "modified": {
            "en": "2020-09-30",
            "fr": "2020-09-30"
        },
        "format": {
            "en": "gcformat",
            "fr": "gcformat"
        },
        "title": {
            "en": "The Harvest is Back!",
            "fr": "La Moisson est de retour!"
        },
        "subject": {
            "en": "communications",
            "fr": "communications"
        },
        "description": {
            "en": "After a break due to the COVID-19 pandemic, <em>The Harvest</em>, our online magazine written for and about AAFC employees, is back!",
            "fr": "Apr\u00e8s une pause due \u00e0 la pand\u00e9mie de COVID-19, <em>La Moisson</em>, notre magazine en ligne \u00e9crit par et pour les employ\u00e9s d'AAC, est de retour!"
        },
        "language": {
            "en": "eng",
            "fr": "fra"
        },
        "audience": {
            "en": "gcaudience",
            "fr": "gcaudience"
        },
        "creator": {
            "en": "Agriculture and Agri-Food Canada",
            "fr": "Agriculture et Agroalimentaire Canada"
        },
        "spatial": {
            "en": "gcregions",
            "fr": "gcregions"
        },
        "service": {
            "en": "AAFC_AgriSource",
            "fr": "AAC_AgriSource"
        },
        "accessRights": {
            "en": "3",
            "fr": "3"
        }
    },
    "body": {
        "en": "<br>\n<br>\n<p>After a break due to the COVID-19 pandemic, <em><a href=\"https://collab.agr.gc.ca/apps/harvest-moisson/\">The Harvest,</a></em> our online magazine written for and about AAFC employees, is back! Read about your colleagues and get to know other areas of the department.</p>\n<p>We\u2019re celebrating our return with a series of your GCWCC stories. This week\u2019s feature:</p>\n<p><a href=\"https://collab.agr.gc.ca/apps/harvest-moisson/\">You Never Know - AAFC Employee Grateful for Community Supports</a> - Since the time she was a student, AAFC employee Gaea Guruprasad has contributed to the Government of Canada Workplace Charitable Campaign (GCWCC). Even at that young age, Gaea appreciated the importance of supporting the United Way and the many community organizations and initiatives they fund. Now the Director General for Application and Knowledge Services with Information Systems Branch, Gaea says little did she anticipate that one day, she would be the beneficiary of funds raised by GCWCC. (Click on the title to read more.)</p>\n<h2><strong>Share your story!</strong></h2>\n<p><i>The Harvest</i> is looking for more stories of how you or your family have benefited from the services funded by the Government of Canada Workplace Charitable Campaign (GCWCC). Or, if you have helped others\u2019 lives by volunteering with GCWCC charities, we would love to hear those stories too.</p>\n<h2><strong>Get involved</strong></h2>\n<p>You can get involved by posting a comment or \u201cliking\u201d an article. You can also check out what your colleagues are liking and saying.</p>\n<p>Should you have story ideas, scenic or artistic agriculture-related photos, or interesting facts, please share them with us by clicking on \u201cContribute\u201d in the top menu bar.</p>\n<p><img src=\"https://intranet.agr.gc.ca/resources/prod/news/images/Harvest-Gaea.gif\" class=\"center-block\"></p>\n\n\t\t",
        "fr": "<br>\n<br>\n<p>Apr\u00e8s une pause due \u00e0 la pand\u00e9mie de COVID-19, <em><a href=\"https://collab.agr.gc.ca/apps/harvest-moisson/\">La Moisson,</a></em> notre magazine en ligne \u00e9crit par et pour les employ\u00e9s d\u2019AAC, est de retour! Lisez les articles sur vos coll\u00e8gues et d\u00e9couvrez d\u2019autres secteurs du Minist\u00e8re.</p>\n<p>Nous c\u00e9l\u00e9brons notre retour au moyen d\u2019une s\u00e9rie de t\u00e9moignages sur la CCMTGC. En vedette cette semaine :</p>\n<p><a href=\"https://collab.agr.gc.ca/apps/harvest-moisson/\">Histoires de la CCMTGC : Rien n\u2019est certain \u2013 Une employ\u00e9e d\u2019AAC est reconnaissante \u00e0 l\u2019endroit des services de soutien communautaire</a>\u00a0- Depuis l\u2019\u00e9poque o\u00f9 elle \u00e9tait \u00e9tudiante, l\u2019employ\u00e9e d\u2019AAC Gaea Guruprasad a contribu\u00e9 \u00e0 la Campagne de charit\u00e9 en milieu de travail du gouvernement du Canada (CCMTGC). M\u00eame tr\u00e8s jeune, Gaea comprenait l\u2019importance d\u2019appuyer l\u2019organisme Centraide et les nombreuses organisations et initiatives communautaires qu\u2019il finance. Maintenant directrice g\u00e9n\u00e9rale des Services des applications et du savoir de la Direction g\u00e9n\u00e9rale des syst\u00e8mes d\u2019information, Gaea affirme qu\u2019elle n\u2019aurait jamais cru \u00eatre un jour b\u00e9n\u00e9ficiaire des fonds recueillis par la CCMTGC. (Cliquez sur le titre pour lire la suite.)\u00a0</p>\n<h2><strong>Apportez votre contribution</strong></h2>\n<p>Vous pouvez apporter votre contribution en affichant un commentaire ou en donnant la mention \u00ab J\u2019aime \u00bb \u00e0 un article. Vous pouvez aussi aller voir ce que vos coll\u00e8gues aiment et ont \u00e0 dire.</p>\n<p>Si vous avez des id\u00e9es d\u2019articles, des photos pittoresques ou artistiques li\u00e9es \u00e0 l\u2019agriculture ou encore des anecdotes int\u00e9ressantes, veuillez nous en faire part en cliquant sur \u00ab Collaborer \u00bb dans la barre de menu en haut de la page.</p>\n<p><img src=\"https://intranet.agr.gc.ca/resources/prod/news/images/Harvest-Gaea.gif\" class=\"center-block\"></p>\n\t\t"
    },
    "breadcrumb": {
        "en": "The Harvest is Back!",
        "fr": "La Moisson est de retour!"
    },
    "news": {
        "date_posted": {
            "en": "2020-10-01",
            "fr": "2020-10-01"
        },
        "to": {
            "en": "All staff",
            "fr": "Tous les employ\u00e9s"
        },
        "by": {
            "en": "Corporate Communications, Public Affairs Branch",
            "fr": "Communications minist\u00e9rielles, Direction g\u00e9n\u00e9rale des affaires publiques"
        }
    }
}