{
    "dcr_id": "1601983061658",
    "lang": "en",
    "title": {
        "en": "It's Fire Prevention Week",
        "fr": "Semaine de la pr\u00e9vention des incendies "
    },
    "modified": "2020-10-07 00:00:00.0",
    "issued": "2020-10-07 00:00:00.0",
    "type_name": "intra-intra/news-nouv",
    "node_id": "1279030006975",
    "layout_name": null,
    "dc_date_created": "2020-10-06",
    "breadcrumb_label": "",
    "meta": {
        "issued": {
            "en": "2020-10-07",
            "fr": "2020-10-07"
        },
        "modified": {
            "en": "2020-10-07",
            "fr": "2020-10-08"
        },
        "format": {
            "en": "gcformat",
            "fr": "gcformat"
        },
        "title": {
            "en": "It's Fire Prevention Week",
            "fr": "Semaine de la pr\u00e9vention des incendies "
        },
        "subject": {
            "en": "communications",
            "fr": "communications"
        },
        "description": {
            "en": "Fires happen when and where you least expect them.",
            "fr": "Les incendies peuvent survenir au moment et \u00e0 l'endroit o\u00f9 vous vous y attendez le moins."
        },
        "language": {
            "en": "eng",
            "fr": "fra"
        },
        "audience": {
            "en": "gcaudience",
            "fr": "gcaudience"
        },
        "creator": {
            "en": "Agriculture and Agri-Food Canada",
            "fr": "Agriculture et Agroalimentaire Canada"
        },
        "spatial": {
            "en": "gcregions",
            "fr": "gcregions"
        },
        "service": {
            "en": "AAFC_AgriSource",
            "fr": "AAC_AgriSource"
        },
        "accessRights": {
            "en": "3",
            "fr": "3"
        }
    },
    "body": {
        "en": "<br>\n<br>\n<p>Fires happen when and where you least expect them. That\u2019s why Fire Prevention Week focuses on preventative measures and preparing a fire escape plan and backup plan to keep your home, family and workplace safe.</p>\n<p>The theme for this year's event is \u201cServe up Fire Safety in the Kitchen.\u201d</p>\n<p>Many of us are spending significantly more time at home. It\u2019s important to be aware of fire hazards at home, particularly in the kitchen due to potential electrical fires, grease fires and food being overheated or left unattended. Tips for a safe kitchen:</p>\n<ul>\n<li>Ensure easy access to a phone should you need to call 911.</li>\n<li>Have a smoke detector in or near the kitchen.</li>\n<li>Keep a fire extinguisher under the sink.</li>\n<li><strong>Never</strong> put out a grease fire using water (it will spread the fire!). Use a fire extinguisher or smother the flame, if small enough.</li>\n</ul>\n<p>We encourage employees to follow fire prevention measures to protect themselves and others whether at home or at a work site. Plan ahead so you and your family are prepared if a fire occurs:</p>\n<ul>\n<li>Locate building exits and outside rally points.</li>\n<li>Participate in fire drills.</li>\n<li>Learn how to use a fire extinguisher using the <a href=\"https://collab.agr.gc.ca/gv/ohsct-ensst/_layouts/15/DocIdRedir.aspx?ID=AGR-7217017\">Fire Extinguisher Awareness Tool</a>\u00a0(Word).</li>\n</ul>\n<p>For those at an AAFC work site, take extra steps during an evacuation to prevent the spread of Covid-19:</p>\n<ul>\n<li>During a building emergency, immediate and safe evacuation is the first priority and it may not be possible to maintain physical distancing. Therefore, ensure you wear a mask when evacuating.</li>\n<li>Focus on exiting the building safely via the stairwells.</li>\n<li>Once outside, head to the rally point, then you can resume proper distancing.</li>\n<li>Don\u2019t huddle too closely at the rally point; there is sufficient space to stand apart, while remaining at a safe distance from the building.</li>\n</ul>\n<p>Fire prevention and awareness is everyone\u2019s responsibility.</p>\n\n\t\t",
        "fr": "<br>\n<br>\n<p>Les incendies peuvent survenir au moment et \u00e0 l\u2019endroit o\u00f9 vous vous y attendez le moins. C\u2019est pourquoi la Semaine de la pr\u00e9vention des incendies met l\u2019accent sur les mesures pr\u00e9ventives et la pr\u00e9paration d\u2019un plan d\u2019\u00e9vacuation en cas d\u2019incendie et d\u2019un plan de secours pour prot\u00e9ger votre maison, votre famille et votre lieu de travail.</p>\n<p>Cette ann\u00e9e, le th\u00e8me est \u00ab Mettez la pr\u00e9vention des incendies au menu \u00bb.</p>\n<p>Bon nombre d\u2019entre nous passent beaucoup plus de temps \u00e0 la maison. Il importe d\u2019\u00eatre conscient des risques d\u2019incendie \u00e0 la maison, en particulier dans la cuisine, en raison des risques d\u2019incendie d\u2019origine \u00e9lectrique, de feu de graisse et des dangers que posent les aliments surchauff\u00e9s ou laiss\u00e9s sans surveillance. Conseils pour la s\u00e9curit\u00e9 dans la cuisine :</p>\n<ul>\n<li>Assurez-vous d\u2019avoir un acc\u00e8s facile \u00e0 un t\u00e9l\u00e9phone au cas o\u00f9 vous devriez appeler le 911.</li>\n<li>Installez un d\u00e9tecteur de fum\u00e9e dans la cuisine ou \u00e0 proximit\u00e9.</li>\n<li>Gardez un extincteur sous l\u2019\u00e9vier.</li>\n<li>N\u2019\u00e9teignez <strong>jamais</strong> un feu de graisse avec de l\u2019eau (cela propagerait le feu!). Utilisez un extincteur ou \u00e9touffez la flamme, si elle n\u2019est pas trop grande.</li>\n</ul>\n<p>Nous encourageons les employ\u00e9s \u00e0 suivre les mesures de pr\u00e9vention des incendies pour se prot\u00e9ger et prot\u00e9ger les autres, \u00e0 domicile ou au travail. Pr\u00e9parez-vous pour que vous et votre famille soyez pr\u00eats en cas d\u2019incendie :</p>\n<ul>\n<li>Localiser les sorties de l\u2019immeuble et les points de ralliement ext\u00e9rieurs.</li>\n<li>Participer \u00e0 des exercices d\u2019\u00e9vacuation en cas d\u2019incendie.</li>\n<li>Apprenez \u00e0 vous servir d\u2019un extincteur au moyen de l\u2019<a href=\"https://collab.agr.gc.ca/gv/ohsct-ensst/_layouts/15/DocIdRedir.aspx?ID=AGR-7217018\">outil de sensibilisation aux extincteurs d\u2019incendie</a>\u00a0(Word).</li>\n</ul>\n<p>Pour ceux qui se trouvent sur un lieu de travail d\u2019AAC, prenez des mesures suppl\u00e9mentaires en cas d\u2019\u00e9vacuation afin d\u2019\u00e9viter la propagation de la COVID-19 :</p>\n<ul>\n<li>En cas d\u2019urgence, l\u2019\u00e9vacuation imm\u00e9diate et s\u00fbre de l\u2019immeuble est la priorit\u00e9 et il pourrait ne pas \u00eatre possible de maintenir la distanciation physique. Par cons\u00e9quent, assurez-vous de porter un masque au moment de l\u2019\u00e9vacuation.</li>\n<li>T\u00e2chez de sortir du b\u00e2timent en toute s\u00e9curit\u00e9 par les cages d\u2019escalier.</li>\n<li>Une fois \u00e0 l\u2019ext\u00e9rieur, dirigez-vous vers le point de ralliement, puis reprenez les distances n\u00e9cessaires.</li>\n<li>Ne vous entassez pas trop pr\u00e8s les uns des autres au point de ralliement; il y a suffisamment d\u2019espace pour maintenir la distanciation, tout en demeurant \u00e0 une distance s\u00e9curitaire du b\u00e2timent.</li>\n</ul>\n<p>La pr\u00e9vention des incendies et la sensibilisation connexe sont la responsabilit\u00e9 de chacun.</p>\n<p>\u00a0</p>\n\t\t"
    },
    "breadcrumb": {
        "en": "It's Fire Prevention Week",
        "fr": "Semaine de la pr\u00e9vention des incendies"
    },
    "news": {
        "date_posted": {
            "en": "2020-10-08",
            "fr": "2020-10-08"
        },
        "to": {
            "en": "All staff",
            "fr": "Tous les employ\u00e9s"
        },
        "by": {
            "en": "AAFC's National Occupational Health and Safety Policy Committee and Departmental Security Services",
            "fr": "Comit\u00e9 national d\u2019orientation d\u2019AAC en mati\u00e8re de sant\u00e9 et de s\u00e9curit\u00e9 au travail et Services de s\u00e9curit\u00e9 minist\u00e9riels"
        }
    }
}