{
    "dcr_id": "1601316340587",
    "lang": "en",
    "title": {
        "en": "Webcast: Understanding the Human Side of Cybersecurity",
        "fr": "Webdiffusion: Comprendre l'aspect humain de la cybers\u00e9curit\u00e9"
    },
    "modified": "2020-09-29 00:00:00.0",
    "issued": "2020-09-29 00:00:00.0",
    "type_name": "intra-intra/news-nouv",
    "node_id": "1279030006975",
    "layout_name": null,
    "dc_date_created": "2020-09-29",
    "breadcrumb_label": "",
    "meta": {
        "issued": {
            "en": "2020-09-29",
            "fr": "2020-09-29"
        },
        "modified": {
            "en": "2020-09-29",
            "fr": "2020-09-29"
        },
        "format": {
            "en": "gcformat",
            "fr": "gcformat"
        },
        "title": {
            "en": "Webcast: Understanding the Human Side of Cybersecurity",
            "fr": "Webdiffusion: Comprendre l'aspect humain de la cybers\u00e9curit\u00e9"
        },
        "subject": {
            "en": "communications",
            "fr": "communications"
        },
        "description": {
            "en": "Every day, Canadians spend a significant amount of time online whether it be for work, play, banking, news, or simply staying in touch. Our online activity has only grown with the arrival of the COVID\u201119 pandemic.",
            "fr": "Chaque jour, les Canadiens passent beaucoup de temps en ligne, que ce soit pour travailler, jouer, effectuer des transactions bancaires, lire les nouvelles ou tout simplement communiquer."
        },
        "language": {
            "en": "eng",
            "fr": "fra"
        },
        "audience": {
            "en": "gcaudience",
            "fr": "gcaudience"
        },
        "creator": {
            "en": "Agriculture and Agri-Food Canada",
            "fr": "Agriculture et Agroalimentaire Canada"
        },
        "spatial": {
            "en": "gcregions",
            "fr": "gcregions"
        },
        "service": {
            "en": "AAFC_AgriSource",
            "fr": "AAC_AgriSource"
        },
        "accessRights": {
            "en": "3",
            "fr": "3"
        }
    },
    "body": {
        "en": "<br>\n<br>\n<p>Every day, Canadians spend a significant amount of time online whether it be for work, play, banking, news, or simply staying in touch. Our online activity has only grown with the arrival of the COVID\u201119 pandemic. Yet, the same digital infrastructure that enhances our quality of life can also leave us vulnerable to those who could do us harm.</p>\n<p>The use of personal and Internet of Things (IoT) devices, wearable technologies, cloud computing and wireless networks all create opportunities for malicious actors to gain access to and exploit our personal and professional information. The Government of Canada is investing more than $1 billion over 10 years to defend Canadians against cyber threats, but the greatest vector for cyber attack isn't a piece of technology\u2014it's us.</p>\n<p>Join us for a two-day event and learn from top experts as they empower you to better navigate the cybersecurity environment. Through panel discussions, keynote addresses and interactive virtual breakout sessions, you will learn what cybersecurity risk behaviours look like and how to protect yourself, your organization and your family from cyber threats.</p>\n<h2><strong>Event information</strong></h2>\n<p><strong>Language: </strong>Bilingual, with interpretation in both official languages<br><strong>Date and time: </strong>October 8, 2020 | 11:00 am to 3:00 pm (ET) and October 9, 2020 | 11:00 am to 12:30 pm (ET)<br><strong>Location: </strong>Available across Canada by webcast<br><strong>Registration deadline: </strong>October 7, 2020, 12:00 pm (ET).<strong> </strong><a href=\"https://www.csps-efpc.gc.ca/events/human-cybersecurity/index-eng.aspx\">Register for webcast</a>.</p>\n\n\t\t",
        "fr": "<br>\n<br>\n<p>Chaque jour, les Canadiens passent beaucoup de temps en ligne, que ce soit pour travailler, jouer, effectuer des transactions bancaires, lire les nouvelles ou tout simplement communiquer. Notre temps pass\u00e9 en ligne n'a fait qu'augmenter avec la pand\u00e9mie de COVID\u201119. Toutefois, la m\u00eame infrastructure num\u00e9rique qui am\u00e9liore notre qualit\u00e9 de vie peut aussi nous rendre vuln\u00e9rables.</p>\n<p>L'utilisation d'appareils personnels ou de dispositifs li\u00e9s \u00e0 l'Internet des objets (IDO), la technologie vestimentaire, l'infonuagique et les r\u00e9seaux sans fil donnent aux auteurs malveillants des occasions d'exploiter nos renseignements personnels et professionnels. Le gouvernement du Canada investit plus d'un milliard de dollars sur une p\u00e9riode de dix ans pour appuyer la cybers\u00e9curit\u00e9 des Canadiens. Toutefois, le plus grand vecteur des cyberattaques n'est pas la technologie, mais plut\u00f4t le comportement humain.</p>\n<p>Soyez des n\u00f4tres pour un \u00e9v\u00e9nement de deux jours au cours duquel de grands experts vous habiliteront d'une meilleure compr\u00e9hension de la cybers\u00e9curit\u00e9. Lors de discussions, de discours, et de s\u00e9ances en ateliers virtuelles et interactives, vous apprendrez \u00e0 reconna\u00eetre les risques de cybers\u00e9curit\u00e9 et \u00e0 vous prot\u00e9ger, ainsi que votre organisation et votre famille, des cybermenaces.</p>\n<h2><strong>Information sur l\u2019activit\u00e9</strong></h2>\n<p><strong>Langue :</strong><strong> </strong>Bilingue, avec interpr\u00e9tation dans les deux langues officielles<br><strong>Date et heure : </strong>8 octobre 2020 | de 11 h \u00e0 15 h (HE) et 9 octobre 2020 | de 11 h \u00e0 12 h 30 (HE)<br><strong>Lieu : </strong>Offert partout au Canada par webdiffusion<br><strong>Date limite d'inscription : </strong>7 octobre 2020, 12 h (HE). <a href=\"https://www.csps-efpc.gc.ca/events/human-cybersecurity/index-fra.aspx\">Inscrivez-vous : webdiffusion</a></p>\n\t\t"
    },
    "breadcrumb": {
        "en": "Webcast: Understanding the Human Side of Cybersecurity",
        "fr": "Webdiffusion: Comprendre l'aspect humain de la cybers\u00e9curit\u00e9"
    },
    "news": {
        "date_posted": {
            "en": "2020-10-01",
            "fr": "2020-10-01"
        },
        "to": {
            "en": "All staff",
            "fr": "Tous les employ\u00e9s"
        },
        "by": {
            "en": "Canada School of Public Service",
            "fr": "\u00c9cole de la fonction publique du Canada"
        }
    }
}