{
    "dcr_id": "1601999296694",
    "lang": "en",
    "title": {
        "en": "GCWCC Book Club",
        "fr": "Club de lecture de la CCMTGC"
    },
    "modified": "2020-10-07 00:00:00.0",
    "issued": "2020-10-07 00:00:00.0",
    "type_name": "intra-intra/news-nouv",
    "node_id": "1279030006975",
    "layout_name": null,
    "dc_date_created": "2020-10-06",
    "breadcrumb_label": "",
    "meta": {
        "issued": {
            "en": "2020-10-07",
            "fr": "2020-10-07"
        },
        "modified": {
            "en": "2020-10-07",
            "fr": "2020-10-07"
        },
        "format": {
            "en": "gcformat",
            "fr": "gcformat"
        },
        "title": {
            "en": "GCWCC Book Club",
            "fr": "Club de lecture de la CCMTGC"
        },
        "subject": {
            "en": "communications",
            "fr": "communications"
        },
        "description": {
            "en": "Books, books and more BOOKS!",
            "fr": "Des livres, des livres et encore des livres!"
        },
        "language": {
            "en": "eng",
            "fr": "fra"
        },
        "audience": {
            "en": "gcaudience",
            "fr": "gcaudience"
        },
        "creator": {
            "en": "Agriculture and Agri-Food Canada",
            "fr": "Agriculture et Agroalimentaire Canada"
        },
        "spatial": {
            "en": "gcregions",
            "fr": "gcregions"
        },
        "service": {
            "en": "AAFC_AgriSource",
            "fr": "AAC_AgriSource"
        },
        "accessRights": {
            "en": "3",
            "fr": "3"
        }
    },
    "body": {
        "en": "<br>\n<br>\n<p>Books, books and more BOOKS! The GCWCC Book Club has three books to be rated this year. Feel free to read one or all three and connect with us via MS Teams at 12:00 p.m.\u00a0(ET). For more information, please contact <a href=\"mailto:christine.moses@canada.ca\">christine.moses@canada.ca</a>.</p>\n<ul>\n<li>\n<p><i><a href=\"https://fernwoodpublishing.ca/book/the-unlikely-redemption-of-john-alexander-macneil\">The Unlikely Redemption of John Alexander MacNeil</a></i> (Lesley Choyce): Friday, October 23 (noon ET)</p>\n<ul style=\"list-style-type: circle;\">\n<li>\n<p><a target=\"_blank\" href=\"https://teams.microsoft.com/l/meetup-join/19%3ameeting_ZjYwYzU0YzMtMTQ1ZS00MTk3LTliZGMtM2U2MTZhYWQ2MTFl%40thread.v2/0?context=%7b%22Tid%22%3a%229da98bb1-1857-4cc3-8751-9a49e35d24cd%22%2c%22Oid%22%3a%22f574e018-4cb3-4fb2-ae62-8b8439e08623%22%7d\">Join Microsoft Teams Meeting\u00a0</a></p>\n</li>\n</ul>\n</li>\n<li>\n<p><i><a href=\"https://www.cbc.ca/books/greenwood-1.5212395\">Greenwood</a></i> (Michael Christie): Friday, October 30 (noon ET)</p>\n<ul style=\"list-style-type: circle;\">\n<li>\n<p><a target=\"_blank\" href=\"https://teams.microsoft.com/l/meetup-join/19%3ameeting_ZGFkNmYzYzYtYzViYi00MmM0LTg1MWItYzMyNmJiYTYzNzU1%40thread.v2/0?context=%7b%22Tid%22%3a%229da98bb1-1857-4cc3-8751-9a49e35d24cd%22%2c%22Oid%22%3a%22f574e018-4cb3-4fb2-ae62-8b8439e08623%22%7d\">Join Microsoft Teams Meeting\u00a0</a></p>\n</li>\n</ul>\n</li>\n<li>\n<p><i><a href=\"https://www.cbc.ca/books/warlight-1.4485663\">Warlight</a></i> (Michael Ondaatje): Friday, November 6 (noon ET)</p>\n<ul style=\"list-style-type: circle;\">\n<li>\n<p><a target=\"_blank\" href=\"https://teams.microsoft.com/l/meetup-join/19%3ameeting_MDU1Y2EyYWYtYTk1OS00YjFkLThjZGMtZWFmZWJkNmM5MGQ2%40thread.v2/0?context=%7b%22Tid%22%3a%229da98bb1-1857-4cc3-8751-9a49e35d24cd%22%2c%22Oid%22%3a%22f574e018-4cb3-4fb2-ae62-8b8439e08623%22%7d\">Join Microsoft Teams Meeting</a></p>\n</li>\n</ul>\n</li>\n</ul>\n<p>\n<img src=\"https://intranet.agr.gc.ca/resources/prod/news/images/GCWCC2019-EN.png\" class=\"center-block\"></p>\n\n\t\t",
        "fr": "<br>\n<br>\n<p>Des livres, des livres et encore des livres! Le club de lecture de la CCMTGC doit faire la critique de trois livres cette ann\u00e9e. N\u2019h\u00e9sitez pas \u00e0 en lire un ou les trois et \u00e0 vous joindre \u00e0 nous sur MS Teams \u00e0 12 h (HNE). Pour en savoir plus, veuillez communiquer avec <a href=\"mailto:christine.moses@canada.ca\">christine.moses@canada.ca</a>.</p>\n<ul>\n<li>\n<p><i><a href=\"https://fernwoodpublishing.ca/book/the-unlikely-redemption-of-john-alexander-macneil\">The Unlikely Redemption of John Alexander MacNeil</a></i> (Lesley Choyce) : vendredi 23 octobre (midi HNE)</p>\n<ul style=\"list-style-type: circle;\">\n<li>\n<p><a target=\"_blank\" href=\"https://teams.microsoft.com/l/meetup-join/19%3ameeting_ZjYwYzU0YzMtMTQ1ZS00MTk3LTliZGMtM2U2MTZhYWQ2MTFl%40thread.v2/0?context=%7b%22Tid%22%3a%229da98bb1-1857-4cc3-8751-9a49e35d24cd%22%2c%22Oid%22%3a%22f574e018-4cb3-4fb2-ae62-8b8439e08623%22%7d\">Se joindre \u00e0 la r\u00e9union Microsoft Teams\u00a0</a></p>\n</li>\n</ul>\n</li>\n<li>\n<p><i><a href=\"https://www.cbc.ca/books/greenwood-1.5212395\">Greenwood</a></i> (Michael Christie)<i>\u00a0</i><strong><i> :</i></strong> vendredi 30 octobre (midi HNE)</p>\n<ul style=\"list-style-type: circle;\">\n<li>\n<p><a target=\"_blank\" href=\"https://teams.microsoft.com/l/meetup-join/19%3ameeting_ZGFkNmYzYzYtYzViYi00MmM0LTg1MWItYzMyNmJiYTYzNzU1%40thread.v2/0?context=%7b%22Tid%22%3a%229da98bb1-1857-4cc3-8751-9a49e35d24cd%22%2c%22Oid%22%3a%22f574e018-4cb3-4fb2-ae62-8b8439e08623%22%7d\">Se joindre \u00e0 la r\u00e9union Microsoft Teams\u00a0</a></p>\n</li>\n</ul>\n</li>\n<li>\n<p><i><a href=\"https://www.cbc.ca/books/warlight-1.4485663\">Warlight</a></i> (Michael Ondaatje) <strong>:</strong> vendredi 6 novembre (midi HNE)</p>\n<ul style=\"list-style-type: circle;\">\n<li>\n<p><a target=\"_blank\" href=\"https://teams.microsoft.com/l/meetup-join/19%3ameeting_MDU1Y2EyYWYtYTk1OS00YjFkLThjZGMtZWFmZWJkNmM5MGQ2%40thread.v2/0?context=%7b%22Tid%22%3a%229da98bb1-1857-4cc3-8751-9a49e35d24cd%22%2c%22Oid%22%3a%22f574e018-4cb3-4fb2-ae62-8b8439e08623%22%7d\">Se joindre \u00e0 la r\u00e9union Microsoft Teams</a></p>\n</li>\n</ul>\n</li>\n</ul>\n<p><img src=\"https://intranet.agr.gc.ca/resources/prod/news/images/GCWCC2019-FR.png\" class=\"center-block\"></p>\n\t\t"
    },
    "breadcrumb": {
        "en": "GCWCC Book Club",
        "fr": "Club de lecture de la CCMTGC"
    },
    "news": {
        "date_posted": {
            "en": "2020-10-08",
            "fr": "2020-10-08"
        },
        "to": {
            "en": "All staff",
            "fr": "Tous les employ\u00e9s"
        },
        "by": {
            "en": "GCWCC Core Team",
            "fr": "\u00c9quipe de base de la CCMTGC"
        }
    }
}