{
    "dcr_id": "1601311123253",
    "lang": "en",
    "title": {
        "en": "Put the Action in Your Pay Action Request",
        "fr": "Activez votre demande d'intervention de paye"
    },
    "modified": "2020-10-01 00:00:00.0",
    "issued": "2020-09-30 00:00:00.0",
    "type_name": "intra-intra/news-nouv",
    "node_id": "1279030006975",
    "layout_name": null,
    "dc_date_created": "2020-09-29",
    "breadcrumb_label": "",
    "meta": {
        "issued": {
            "en": "2020-09-30",
            "fr": "2020-09-30"
        },
        "modified": {
            "en": "2020-10-01",
            "fr": "2020-09-30"
        },
        "format": {
            "en": "gcformat",
            "fr": "gcformat"
        },
        "title": {
            "en": "Put the Action in Your Pay Action Request",
            "fr": "Activez votre demande d'intervention de paye"
        },
        "subject": {
            "en": "communications",
            "fr": "communications"
        },
        "description": {
            "en": "The Pay Centre rejects about one in every 25 pay action requests because of an error made by the sender.",
            "fr": "Le Centre des services de paye rejette environ une demande d'intervention de paye (DIP) sur 25 \u00e0 cause d\u2019une erreur faite par l'envoyeur."
        },
        "language": {
            "en": "eng",
            "fr": "fra"
        },
        "audience": {
            "en": "gcaudience",
            "fr": "gcaudience"
        },
        "creator": {
            "en": "Agriculture and Agri-Food Canada",
            "fr": "Agriculture et Agroalimentaire Canada"
        },
        "spatial": {
            "en": "gcregions",
            "fr": "gcregions"
        },
        "service": {
            "en": "AAFC_AgriSource",
            "fr": "AAC_AgriSource"
        },
        "accessRights": {
            "en": "3",
            "fr": "3"
        }
    },
    "body": {
        "en": "<br>\n<br>\n<p>The Pay Centre rejects about one in every 25 pay action requests (PARs) because of an error made by the sender. This can result in delays processing the transaction, extra work for the section 34 manager and, in some cases, a financial impact on the employee.</p>\n<p>The number one cause of rejected PARs is missing or invalid Trusted Source verifications. A trusted source is the person designated by a department to validate the section 34 signature.</p>\n<p>Although an employee can submit certain types of pay requests directly to the Pay Centre, PARs that affect financial results or a manager\u2019s budget require the signature of a section 34 manager and validation by the AAFC trusted source before the Pay Centre can accept them.</p>\n<p>If you\u2019re completing your PAR by hand, please take care to print legibly as unreadable forms will be rejected. Missing documents, incomplete PARs and missing signatures are other common reasons that PARs are rejected. Whether you\u2019re an employee or a manager, this <a href=\"https://www.tpsgc-pwgsc.gc.ca/remuneration-compensation/services-paye-pay-services/systeme-paye-gestionnaires-pay-system-managers/rejet-form-reject-eng.html#Checklist:_Completing_the\">PSPC checklist</a> tells you what you need to know, including</p>\n<ul>\n<li>When a PAR is needed, and when it\u2019s not</li>\n<li>Where to find the most up-to-date version of the form</li>\n<li>Filling out the form</li>\n<li>Selecting types and subtypes</li>\n<li>Including documentation, if needed</li>\n<li>Obtaining Section 34 manager and Trusted Source signatures, if needed</li>\n<li>Submitting files by email</li>\n</ul>\n<p>Employees are encouraged to speak with their managers before submitting a PAR. If you are a manager and have questions about PARs, please consult the <a href=\"https://intranet.agr.gc.ca/agrisource/eng/human-resources/pay-benefits-and-phoenix/tools-for-section-34-managers?id=1573673006847\">Tools for section 34 managers</a> AgriSource page or email the pay team at <a href=\"mailto:aafc.paytransfer-transfertpaye.aac@canada.ca\">mailto:aafc.paytransfer-transfertpaye.aac@canada.ca</a>\u00a0You may also contact the HR Centre at 1-855-545-9575. </p>\n<p><img src=\"https://intranet.agr.gc.ca/resources/prod/news/images/paytiming.png\" class=\"center-block\"></p>\n\n\t\t",
        "fr": "<br>\n<br>\n<p>Le Centre des services de paye rejette environ une demande d\u2019intervention de paye (DIP) sur 25 \u00e0 cause d\u2019une erreur faite par l\u2019envoyeur. Il peut en r\u00e9sulter des retards dans le traitement des mouvements, un surcro\u00eet de travail pour le gestionnaire d\u00e9tenant le pouvoir d\u00e9l\u00e9gu\u00e9 en vertu de l\u2019article 34 et, dans certains cas, des r\u00e9percussions financi\u00e8res sur l\u2019employ\u00e9.</p>\n<p>La principale cause de rejet d\u2019une DIP est l\u2019absence ou la non-validit\u00e9 de la v\u00e9rification des sources fiables. La source fiable est la personne d\u00e9sign\u00e9e par le minist\u00e8re pour valider la signature appos\u00e9e en vertu de l\u2019article 34.</p>\n<p>Bien qu\u2019un employ\u00e9 puisse soumettre certains types de demandes de paye directement au Centre des services de paye, les DIP qui ont une incidence sur les r\u00e9sultats financiers ou le budget d\u2019un gestionnaire doivent \u00eatre sign\u00e9es par un gestionnaire d\u00e9tenant le pouvoir d\u00e9l\u00e9gu\u00e9 en vertu de l\u2019article 34 et valid\u00e9es par la source fiable d\u2019AAC avant que le Centre des services de paye puisse les accepter.</p>\n<p>Si vous remplissez votre DIP \u00e0 la main, veuillez prendre soin d\u2019imprimer  lisiblement \u00e9tant donn\u00e9 que les formulaires illisibles seront rejet\u00e9s. Les autres motifs habituels de rejet de DIP sont les documents manquants, les demandes incompl\u00e8tes et les signatures manquantes. Que vous soyez un employ\u00e9 ou un gestionnaire, la <a href=\"https://www.tpsgc-pwgsc.gc.ca/remuneration-compensation/services-paye-pay-services/systeme-paye-gestionnaires-pay-system-managers/rejet-form-reject-fra.html#Checklist:_Completing_the\">liste de v\u00e9rification du CSPFP</a> vous indique tout ce que vous devez savoir, y compris ce qui suit :</p>\n<ul>\n<li>Quand une DIP est requise et quand elle ne l\u2019est pas</li>\n<li>O\u00f9 trouver la version la plus r\u00e9cente du formulaire</li>\n<li>Remplir le formulaire</li>\n<li>S\u00e9lectionner les types et les sous-types</li>\n<li>Annexer de la documentation, au besoin</li>\n<li>Obtenir les signatures du gestionnaire d\u00e9tenant le pouvoir d\u00e9l\u00e9gu\u00e9 en vertu de l\u2019article 34 et de la source fiable, au besoin</li>\n<li>Soumettre des fichiers par courriel</li>\n</ul>\n<p>Les employ\u00e9s sont invit\u00e9s \u00e0 discuter avec leurs gestionnaires avant de soumettre une DIP. Si vous \u00eates gestionnaire et avez des questions concernant les DIP, veuillez consulter la page AgriSource <a href=\"https://intranet.agr.gc.ca/agrisource/fra/ressources-humaines/remuneration-avantages-sociaux-et-phenix/outils-pour-les-gestionnaires-article-34?id=1573673006847\">Outils pour les gestionnaires (article 34)</a> ou envoyer un courriel \u00e0 l\u2019\u00e9quipe de la paye \u00e0 <a href=\"mailto:aafc.paytransfer-transfertpaye.aac@canada.ca\">aafc.paytransfer-transfertpaye.aac@canada.ca</a>. Vous pouvez \u00e9galement communiquer avec le Centre des RH au 1-855-545-9575.</p>\n<p><img src=\"https://intranet.agr.gc.ca/resources/prod/news/images/paytiming.png\" class=\"center-block\"></p>\n\t\t"
    },
    "breadcrumb": {
        "en": "Put the Action in Your Pay Action Request",
        "fr": "Activez votre demande d'intervention de paye"
    },
    "news": {
        "date_posted": {
            "en": "2020-10-01",
            "fr": "2020-10-01"
        },
        "to": {
            "en": "All staff",
            "fr": "Tous les employ\u00e9s"
        },
        "by": {
            "en": "Pay Transformation, Corporate Management Branch",
            "fr": "Transformation de la paye, Direction g\u00e9n\u00e9rale de la gestion int\u00e9gr\u00e9e"
        }
    }
}