{
    "dcr_id": "1602004307106",
    "lang": "en",
    "title": {
        "en": "Changes to Teleconferencing and Webex Accounts",
        "fr": "Changements associ\u00e9s aux comptes d'audioconf\u00e9rence et de Webex"
    },
    "modified": "2020-10-07 00:00:00.0",
    "issued": "2020-10-07 00:00:00.0",
    "type_name": "intra-intra/news-nouv",
    "node_id": "1279030006975",
    "layout_name": null,
    "dc_date_created": "2020-10-07",
    "breadcrumb_label": "",
    "meta": {
        "issued": {
            "en": "2020-10-07",
            "fr": "2020-10-07"
        },
        "modified": {
            "en": "2020-10-07",
            "fr": "2020-10-08"
        },
        "format": {
            "en": "gcformat",
            "fr": "gcformat"
        },
        "title": {
            "en": "Changes to Teleconferencing and Webex Accounts",
            "fr": "Changements associ\u00e9s aux comptes d'audioconf\u00e9rence et de Webex"
        },
        "subject": {
            "en": "communications",
            "fr": "communications"
        },
        "description": {
            "en": "The Government of Canada is transitioning to a new audio and web conferencing platform - the Canada Conferencing Service (CCS) - which will include modernized features such as online self-service and improved security and privacy.",
            "fr": "Le gouvernement du Canada est en train de passer \u00e0 une nouvelle plateforme de conf\u00e9rence audio et web - le Service de conf\u00e9rence du Canada (SCC) - qui comprendra des fonctionnalit\u00e9s modernis\u00e9es telles que le libre-service en ligne et l'am\u00e9lioration de la s\u00e9curit\u00e9 et de la confidentialit\u00e9."
        },
        "language": {
            "en": "eng",
            "fr": "fra"
        },
        "audience": {
            "en": "gcaudience",
            "fr": "gcaudience"
        },
        "creator": {
            "en": "Agriculture and Agri-Food Canada",
            "fr": "Agriculture et Agroalimentaire Canada"
        },
        "spatial": {
            "en": "gcregions",
            "fr": "gcregions"
        },
        "service": {
            "en": "AAFC_AgriSource",
            "fr": "AAC_AgriSource"
        },
        "accessRights": {
            "en": "3",
            "fr": "3"
        }
    },
    "body": {
        "en": "<br>\n<br>\n<p>The Government of Canada is transitioning to a new audio and web conferencing platform \u2015 the Canada Conferencing Service (CCS) \u2015 which will include modernized features such as online self-service and improved security and privacy.</p>\n<p>The CCS will replace the existing Government Teleconferencing Service (teleconferencing and Webex) on October 22, 2020.</p>\n<h2><strong>What you need to do</strong></h2>\n<p>If you currently have a teleconferencing and/or Webex account, you will receive an activation email over the next two weeks with instructions on how to set up your new CCS account.</p>\n<p>You will be required to set up your new CCS account before your current teleconferencing and/or Webex account <strong>expires on</strong> <strong>October 22, 2020</strong>.</p>\n<p>All scheduled Webex/teleconference meetings will need to be rescheduled with the new account \ninformation. Additionally, if you want to save current recorded Webex meetings, you will need to <a href=\"https://help.webex.com/en-us/n9r2sit/Download-Your-Webex-Recording\">download them</a>; these recordings will not be transferred to your new CCS account.</p>\n<h2><strong>How to sign up for a CCS account</strong></h2>\n<p>If you do not currently have a teleconferencing or Webex account, but are interested in registering for the new service, please <a href=\"https://canada.webex.com/mw3300/mywebex/default.do?siteurl=canada&amp;viewFrom=modern&amp;login_return_url=https%3A%2F%2Fcanada.webex.com%2Fwebappng%2Fsites%2Fcanada%2Fdashboard%3Fsiteurl%3Dcanada\">register on the Webex website</a>.</p>\n<h2><strong>Need help?</strong></h2>\n<p>Visit the following sites for further information and assistance:</p>\n<ul>\n<li><a href=\"https://gcconnex.gc.ca/file/download/69492086\">CCS Frequently Asked Questions</a>\u00a0(PDF)</li>\n<li><a href=\"https://gcconnex.gc.ca/file/download/69493991\">CCS Activation Guide</a>\u00a0(PDF)</li>\n<li><a href=\"https://help.webex.com/en-us/\">Webex help</a></li>\n</ul>\n\n\t\t",
        "fr": "<br>\n<br>\n<p>Le gouvernement du Canada est en train de passer \u00e0 une nouvelle plateforme de conf\u00e9rence audio et web - le Service de conf\u00e9rence du Canada (SCC) - qui comprendra des fonctionnalit\u00e9s modernis\u00e9es telles que le libre-service en ligne et l'am\u00e9lioration de la s\u00e9curit\u00e9 et de la confidentialit\u00e9.</p>\n<p>Le SCC remplacera l'actuel Service de t\u00e9l\u00e9conf\u00e9rence du gouvernement (t\u00e9l\u00e9conf\u00e9rence et Webex) le 22 octobre 2020.</p>\n<h2><strong>Ce que vous devez faire</strong></h2>\n<p>Si vous disposez actuellement d'un compte de t\u00e9l\u00e9conf\u00e9rence et/ou Webex, vous recevrez dans les deux prochaines semaines un courriel d'activation contenant des instructions sur la mani\u00e8re de configurer votre nouveau compte SCC.</p>\n<p>Vous devrez configurer votre nouveau compte SCC avant que votre compte de t\u00e9l\u00e9conf\u00e9rence et/ou Webex actuel n'<strong>expire le 22 octobre 2020</strong>.</p>\n<p>Toutes les r\u00e9unions Webex et/ou t\u00e9l\u00e9conf\u00e9rence planifi\u00e9es devront \u00eatre reprogramm\u00e9es avec les nouvelles informations sur le compte. De plus, si vous souhaitez enregistrer les r\u00e9unions Webex en cours, <a href=\"https://help.webex.com/fr-fr/n9r2sit/Download-Your-Webex-Recording\">vous devrez les t\u00e9l\u00e9charger</a>; ces enregistrements ne seront pas transf\u00e9r\u00e9s sur votre nouveau compte SCC.</p>\n<h2><strong>Comment s'inscrire \u00e0 un compte SCC</strong></h2>\n<p>Si vous n\u2019avez pas de compte de t\u00e9l\u00e9conf\u00e9rence ou de compte Webex en ce moment et que vous souhaitez vous inscrire au nouveau service, veuillez-vous inscrire sur le <a href=\"https://canada.webex.com/mw3300/mywebex/default.do?siteurl=canada&amp;viewFrom=modern&amp;login_return_url=https%3A%2F%2Fcanada.webex.com%2Fwebappng%2Fsites%2Fcanada%2Fdashboard%3Fsiteurl%3Dcanada\">site web de Webex</a>\u00a0(en anglais seulement).</p>\n<h2><strong>Besoin d'aide?</strong></h2>\n<p>Visitez les sites suivants pour obtenir de plus amples informations et de l'aide :</p>\n<ul>\n<li><a href=\"https://gcconnex.gc.ca/file/download/69492087\">Foire aux questions d\u2019SCC</a>\u00a0(PDF)</li>\n<li><a href=\"https://gcconnex.gc.ca/file/download/69493983\">Guide d'activation d\u2019SCC</a>\u00a0(PDF)</li>\n<li><a href=\"https://help.webex.com/fr-fr/\">Aide Webex</a></li>\n</ul>\n\t\t"
    },
    "breadcrumb": {
        "en": "Changes to Teleconferencing and Webex Accounts",
        "fr": "Changements associ\u00e9s aux comptes d'audioconf\u00e9rence et de Webex"
    },
    "news": {
        "date_posted": {
            "en": "2020-10-06",
            "fr": "2020-10-06"
        },
        "to": {
            "en": "All staff",
            "fr": "Tous les employ\u00e9s"
        },
        "by": {
            "en": "Information Systems Branch",
            "fr": "Direction g\u00e9n\u00e9rale des syst\u00e8mes d'information"
        }
    }
}