{
    "dcr_id": "1602602887417",
    "lang": "en",
    "title": {
        "en": "Virtual Zumba",
        "fr": "Zumba virtuelle "
    },
    "modified": "2020-10-15 00:00:00.0",
    "issued": "2020-10-15 00:00:00.0",
    "type_name": "intra-intra/news-nouv",
    "node_id": "1279030006975",
    "layout_name": null,
    "dc_date_created": "2020-10-13",
    "breadcrumb_label": "",
    "trigger_date": "2020-10-15 09:24:44.0",
    "meta": {
        "issued": {
            "en": "2020-10-15",
            "fr": "2020-10-15"
        },
        "modified": {
            "en": "2020-10-15",
            "fr": "2020-10-15"
        },
        "format": {
            "en": "gcformat",
            "fr": "gcformat"
        },
        "title": {
            "en": "Virtual Zumba",
            "fr": "Zumba virtuelle "
        },
        "subject": {
            "en": "communications",
            "fr": "communications"
        },
        "description": {
            "en": "Slide to the left! Slide to the right! Two hops this time!",
            "fr": "Glissez \u00e0 gauche! Glissez \u00e0 droite! Faites deux sauts cette fois-ci!"
        },
        "language": {
            "en": "eng",
            "fr": "fra"
        },
        "audience": {
            "en": "gcaudience",
            "fr": "gcaudience"
        },
        "creator": {
            "en": "Agriculture and Agri-Food Canada",
            "fr": "Agriculture et Agroalimentaire Canada"
        },
        "spatial": {
            "en": "gcregions",
            "fr": "gcregions"
        },
        "service": {
            "en": "AAFC_AgriSource",
            "fr": "AAC_AgriSource"
        },
        "accessRights": {
            "en": "3",
            "fr": "3"
        }
    },
    "body": {
        "en": "<br>\n<br>\n<p>Slide to the left! Slide to the right! Two hops this time! If you just followed those instructions then it sounds like you would love the GCWCC Virtual Zumba event. Come get your cardio on while working on your dance moves. The event will be on Wednesday, October 21 at noon (ET). It\u2019s open to all staff and is free of charge. No need to pre-register. <a href=\"https://teams.microsoft.com/l/meetup-join/19%3ameeting_OGJhY2M1ODUtNWUwYy00NmM3LWEwYTktNWNkMWIwMDc4NzA2%40thread.v2/0?context=%7b%22Tid%22%3a%229da98bb1-1857-4cc3-8751-9a49e35d24cd%22%2c%22Oid%22%3a%22f574e018-4cb3-4fb2-ae62-8b8439e08623%22%7d\">Click here to have some fun!</a></p>\n<p>\n<img src=\"https://intranet.agr.gc.ca/resources/prod/news/images/GCWCC2019-EN.png\" class=\"center-block\"></p>\n\n\t\t",
        "fr": "<br>\n<br>\n<p>Glissez \u00e0 gauche! Glissez \u00e0 droite! Faites deux sauts cette fois-ci! Si vous avez fait ces mouvements instinctivement, vous allez sans doute aimer l\u2019\u00e9mission Zumba virtuelle de la CCMTGC. Venez faire de l\u2019exercice cardiovasculaire tout en travaillant vos mouvements de danse. L\u2019\u00e9v\u00e9nement aura lieu le mercredi 21 octobre \u00e0 12 h (HE). Tous les employ\u00e9s peuvent y participer gratuitement. Il n\u2019est pas n\u00e9cessaire de s\u2019inscrire \u00e0 l\u2019avance. <a href=\"https://teams.microsoft.com/l/meetup-join/19%3ameeting_OGJhY2M1ODUtNWUwYy00NmM3LWEwYTktNWNkMWIwMDc4NzA2%40thread.v2/0?context=%7b%22Tid%22%3a%229da98bb1-1857-4cc3-8751-9a49e35d24cd%22%2c%22Oid%22%3a%22f574e018-4cb3-4fb2-ae62-8b8439e08623%22%7d\">Cliquez ici pour vous amuser!</a></p>\n<p><img src=\"https://intranet.agr.gc.ca/resources/prod/news/images/GCWCC2019-FR.png\" class=\"center-block\"></p>\n<p>\u00a0</p>\n\t\t"
    },
    "breadcrumb": {
        "en": "Virtual Zumba",
        "fr": "Zumba virtuelle"
    },
    "news": {
        "date_posted": {
            "en": "2020-10-15",
            "fr": "2020-10-15"
        },
        "to": {
            "en": "All staff",
            "fr": "Tous les employ\u00e9s"
        },
        "by": {
            "en": "GCWCC Core Team",
            "fr": "\u00c9quipe de base de la CCMTGC"
        }
    }
}