{
    "dcr_id": "1603741076209",
    "lang": "en",
    "title": {
        "en": "NCR - Fall Cleaning of the NHCAP Carpets",
        "fr": "RCN - Nettoyage d\u2019automne des tapis du CACPA"
    },
    "modified": "2020-10-28 00:00:00.0",
    "issued": "2020-10-28 00:00:00.0",
    "type_name": "intra-intra/news-nouv",
    "node_id": "1279030006975",
    "layout_name": null,
    "dc_date_created": "2020-10-27",
    "breadcrumb_label": "",
    "trigger_date": "2020-10-28 16:17:56.0",
    "meta": {
        "issued": {
            "en": "2020-10-28",
            "fr": "2020-10-28"
        },
        "modified": {
            "en": "2020-10-28",
            "fr": "2020-10-28"
        },
        "format": {
            "en": "gcformat",
            "fr": "gcformat"
        },
        "title": {
            "en": "NCR - Fall Cleaning of the NHCAP Carpets",
            "fr": "RCN - Nettoyage d\u2019automne des tapis du CACPA"
        },
        "subject": {
            "en": "communications",
            "fr": "communications"
        },
        "description": {
            "en": "Carpet cleaning in NHCAP will take place during the weekends from November 7 to November 29.",
            "fr": "Le nettoyage des tapis du CACPA aura lieu les fins de semaine, entre le 7 novembre et le 29 novembre."
        },
        "language": {
            "en": "eng",
            "fr": "fra"
        },
        "audience": {
            "en": "gcaudience",
            "fr": "gcaudience"
        },
        "creator": {
            "en": "Agriculture and Agri-Food Canada",
            "fr": "Agriculture et Agroalimentaire Canada"
        },
        "spatial": {
            "en": "gcregions",
            "fr": "gcregions"
        },
        "service": {
            "en": "AAFC_AgriSource",
            "fr": "AAC_AgriSource"
        },
        "accessRights": {
            "en": "3",
            "fr": "3"
        }
    },
    "body": {
        "en": "<br>\n<br>\n<p>Carpet cleaning in NHCAP will take place during the weekends from November 7 to November 29.</p>\n<p>For those of you not in the office, cleaning staff will work around items on the floor in cubicles and no personal items will be moved.</p>\n<p>For your information, please see the cleaning schedule for <a href=\"pcdocs://AAFCAAC/105611484/1\">each tower and floor</a> (Word) and the <a href=\"pcdocs://AAFCAAC/105611486/1\">secure areas</a>\u00a0(Word).</p>\n\n\t\t",
        "fr": "<br>\n<br>\n<p>Le nettoyage des tapis du CACPA aura lieu les fins de semaine, entre le 7 novembre et le 29 novembre.</p>\n<p>Pour ceux qui ne seront pas au bureau, sachez que le personnel de nettoyage contournera les objets d\u00e9pos\u00e9s sur le sol et qu\u2019aucun article personnel ne sera d\u00e9plac\u00e9.</p>\n<p>\u00c0 titre indicatif,\u00a0veuillez consulter\u00a0l\u2019horaire de nettoyage <a href=\"pcdocs://AAFCAAC/105611489/1\">de chaque tour et de chaque \u00e9tage</a>\u00a0(Word) et les <a href=\"pcdocs://AAFCAAC/105611486/1\">zones d\u2019acc\u00e8s r\u00e9serv\u00e9</a>\u00a0(Word).</p>\n\t\t"
    },
    "breadcrumb": {
        "en": "NCR - Fall Cleaning of the NHCAP Carpets",
        "fr": "RCN - Nettoyage d'automne des tapis du CACPA"
    },
    "news": {
        "date_posted": {
            "en": "2020-10-29",
            "fr": "2020-10-29"
        },
        "to": {
            "en": "NCR only",
            "fr": "RCN seulement"
        },
        "by": {
            "en": "Maple Leaf Property Management",
            "fr": "Maple Leaf Property Management"
        }
    }
}