{
    "dcr_id": "1603733600395",
    "lang": "en",
    "title": {
        "en": "Changes to the Emergency Notification System",
        "fr": "Mise \u00e0 niveau du Syst\u00e8me de notification d\u2019urgence"
    },
    "modified": "2020-10-29 00:00:00.0",
    "issued": "2020-10-28 00:00:00.0",
    "type_name": "intra-intra/news-nouv",
    "node_id": "1279030006975",
    "layout_name": null,
    "dc_date_created": "2020-10-26",
    "breadcrumb_label": "",
    "trigger_date": "2020-10-29 11:26:52.0",
    "meta": {
        "issued": {
            "en": "2020-10-28",
            "fr": "2020-10-28"
        },
        "modified": {
            "en": "2020-10-29",
            "fr": "2020-10-29"
        },
        "format": {
            "en": "gcformat",
            "fr": "gcformat"
        },
        "title": {
            "en": "Changes to the Emergency Notification System",
            "fr": "Mise \u00e0 niveau du Syst\u00e8me de notification d\u2019urgence"
        },
        "subject": {
            "en": "communications",
            "fr": "communications"
        },
        "description": {
            "en": "Timely communication and preparedness is more important now than ever.",
            "fr": "La communication en temps opportun et la pr\u00e9paration sont importantes maintenant plus que jamais."
        },
        "language": {
            "en": "eng",
            "fr": "fra"
        },
        "audience": {
            "en": "gcaudience",
            "fr": "gcaudience"
        },
        "creator": {
            "en": "Agriculture and Agri-Food Canada",
            "fr": "Agriculture et Agroalimentaire Canada"
        },
        "spatial": {
            "en": "gcregions",
            "fr": "gcregions"
        },
        "service": {
            "en": "AAFC_AgriSource",
            "fr": "AAC_AgriSource"
        },
        "accessRights": {
            "en": "3",
            "fr": "3"
        }
    },
    "body": {
        "en": "<br>\n<br>\n<p>Timely communication and preparedness is more important now than ever. <a href=\"https://intranet.agr.gc.ca/agrisource/eng/branches-and-offices/corporate-management-branch/services/aafc-alert?id=1506112642226\">AAFC\u2019s Emergency Notification System (ENS)</a> is upgraded to <a href=\"https://www.getrave.ca/login/aafc?locale=en_CA\">AAFC Alert</a> as a result of platform improvements and upgrades.</p>\n<p>AAFC Alert sends information by e-mail, phone, voice mail, or SMS text messaging to employees during emergency situations and lets them know what steps they should take. Ensuring you are informed is a critical component of the <a href=\"https://intranet.agr.gc.ca/agrisource/eng/branches-and-offices/corporate-management-branch/services/office-of-emergency-management-business-continuity-planning/departmental-emergency-response-plan?id=1570644168915\">Department\u2019s emergency response plan.</a></p>\n<p>All employees are highly encouraged to sign up for AAFC Alert to ensure that they remain well informed during exceptional circumstances and to plan their day accordingly. Especially with recent developments of the pandemic, this is yet another way to be vigilant.</p>\n<p>To receive these important notifications, you must sign up and make sure your information is up-to-date!</p>\n<h2>What you need to do</h2>\n<p>All employees who were already in the ENS will automatically be transferred to AAFC Alert. All you have to do is create a new password and make sure your information is up-to-date:</p>\n<ol>\n<li>Visit the <a href=\"https://www.getrave.ca/login/aafc?locale=en_CA\">AAFC Alert</a> website.</li>\n<li>Enter your username. If you don\u2019t remember it, click on \u201cForgot your username?\u201d and your username will be emailed to your work email address.</li>\n<li>Once your username is entered, click on \u201cForgot your password?\u201d and enter your work email address to setup a new password.</li>\n<li>Once logged in, click on your name located at the top right corner and select \u201cMy Account\u201d.</li>\n<li>Review your contact information and if needed, updated your information.</li>\n</ol>\n<p><strong>If you are not already signed up,</strong> please contact the Office of Emergency Management and Business Continuity at <a href=\"mailto:aafc.oembcp-bgmupca.aac@canada.ca\">aafc.oembcp-bgmupca.aac@canada.ca</a>.</p>\n<h2><strong>Save us in your contacts</strong></h2>\n<p>We recommend that you save AAFC Alert in your phone or Outlook so that you can easily reach us if needed.</p>\n<ul>\n<li><strong>Name: </strong>AAFC Alert \u2013 Alerte AAC</li>\n<li><strong>Work number: </strong>1<strong>-</strong>877-898-4449</li>\n<li><strong>Mobile number: </strong>67283</li>\n<li><strong>Email address (work): </strong>aafc-aac@getrave.ca</li>\n</ul>\n<p>Should you have any questions, please email the Office of Emergency Management and Business Continuity at <a href=\"mailto:aafc.oembcp-bgmupca.aac@canada.ca\">aafc.oembcp-bgmupca.aac@canada.ca</a>.</p>\n\n\t\t",
        "fr": "<br>\n<br>\n<p>La communication en temps opportun et la pr\u00e9paration sont importantes maintenant plus que jamais. <a href=\"https://intranet.agr.gc.ca/agrisource/fra/directions-generales-et-bureaux/direction-generale-de-la-gestion-integree/services/alerte-aac?id=1506112642226\">Le Syst\u00e8me de notification d\u2019urgence (SNU)</a> d\u2019AAC est devenu\u00a0<a href=\"https://www.getrave.ca/login/aafc?locale=fr_CA\">Alerte AAC</a> gr\u00e2ce \u00e0 l\u2019am\u00e9lioration et \u00e0 la mise \u00e0 niveau de la plateforme.</p>\n<p>Alerte AAC transmet de l\u2019information par courriel, par t\u00e9l\u00e9phone, par messagerie vocale ou par message texte (SMS) aux employ\u00e9s au sujet de situations d'urgence en plus de leur indiquer la marche \u00e0 suivre. La communication avec les employ\u00e9s constitue un \u00e9l\u00e9ment essentiel du <a href=\"https://intranet.agr.gc.ca/agrisource/fra/directions-generales-et-bureaux/direction-generale-de-la-gestion-integree/services/bureau-de-la-gestion-des-mesures-durgence-et-de-la-planification-des-activites/plan-ministeriel-dintervention-durgence?id=1570644168915\">Plan minist\u00e9riel d'intervention d'urgence</a>.</p>\n<p>Tous les employ\u00e9s sont fortement encourag\u00e9s \u00e0 s\u2019inscrire \u00e0 Alerte AAC afin d\u2019\u00eatre bien inform\u00e9s dans les circonstances exceptionnelles et de pouvoir planifier leur journ\u00e9e en cons\u00e9quence. Compte tenu de l\u2019\u00e9volution de la pand\u00e9mie, voil\u00e0 une autre fa\u00e7on de demeurer vigilant.</p>\n<p>Afin de recevoir ces avis importants, vous devez vous inscrire et vous assurer que vos renseignements sont \u00e0 jour!</p>\n<h2>Ce que vous devez faire</h2>\n<p>Tous les employ\u00e9s d\u00e9j\u00e0 inscrits dans le SNU seront automatiquement transf\u00e9r\u00e9s \u00e0 Alerte AAC. Il vous suffit de cr\u00e9er un nouveau mot de passe et de vous assurer que vos renseignements sont \u00e0 jour :</p>\n<ol>\n<li>Visitez le site Web d\u2019<a href=\"https://www.getrave.ca/login/aafc?locale=fr_CA\">Alerte AAC</a>.</li>\n<li>Entrez votre nom d\u2019utilisateur. Si vous l\u2019avez oubli\u00e9, cliquez sur \u00ab Vous avez oubli\u00e9 votre nom d\u2019utilisateur? \u00bb, et celui-ci sera envoy\u00e9 \u00e0 votre adresse de courriel du travail.</li>\n<li>Une fois que votre nom d\u2019utilisateur est entr\u00e9, cliquez sur \u00ab Vous avez oubli\u00e9 votre mot de passe? \u00bb, puis entrez votre adresse de courriel du travail pour cr\u00e9er un nouveau mot de passe.</li>\n<li>Une fois que la session est ouverte, cliquez sur votre nom dans le coin sup\u00e9rieur droit et s\u00e9lectionnez \u00ab Mon compte \u00bb.</li>\n<li>V\u00e9rifiez vos coordonn\u00e9es et, au besoin, mettez-les \u00e0 jour.</li>\n</ol>\n<p><strong>Si vous n\u2019\u00eates pas d\u00e9j\u00e0 inscrit,</strong> veuillez communiquer avec le Bureau de la gestion des mesures d'urgence et de la planification de la continuit\u00e9 des activit\u00e9s \u00e0 <a href=\"mailto:aafc.oembcp-bgmupca.aac@canada.ca\">aafc.oembcp-bgmupca.aac@canada.ca</a>.</p>\n<h2><strong>Inscrivez-nous dans vos contacts </strong></h2>\n<p>Nous vous recommandons de sauvegarder les coordonn\u00e9es d\u2019Alerte AAC dans votre t\u00e9l\u00e9phone et Outlook afin de pouvoir nous joindre facilement en cas de besoin. \u00a0</p>\n<ul>\n<li><strong>Nom : </strong>AAFC Alert \u2013 Alerte AAC</li>\n<li><strong>Num\u00e9ro au travail : </strong>1-877-898-4449</li>\n<li><strong>Num\u00e9ro de mobile : </strong>67283</li>\n<li><strong>Adresse de courriel (travail) : </strong>aafc-aac@getrave.ca</li>\n</ul>\n<p>Si vous avez des questions, veuillez envoyer un courriel au Bureau de la gestion des mesures d'urgence et de la planification de la continuit\u00e9 des activit\u00e9s \u00e0 <a href=\"mailto:aafc.oembcp-bgmupca.aac@canada.ca\">aafc.oembcp-bgmupca.aac@canada.ca</a>.</p>\n\t\t"
    },
    "breadcrumb": {
        "en": "Changes to the Emergency Notification System",
        "fr": "Mise \u00e0 niveau du Syst\u00e8me de notification d'urgence"
    },
    "news": {
        "date_posted": {
            "en": "2020-10-29",
            "fr": "2020-10-29"
        },
        "to": {
            "en": "All staff",
            "fr": "Tous les employ\u00e9s"
        },
        "by": {
            "en": "Emergency Management and Business Continuity Planning",
            "fr": "Gestion des mesures d'urgence et continuit\u00e9 des op\u00e9rations de planification"
        }
    }
}