{
    "dcr_id": "1603811376747",
    "lang": "en",
    "title": {
        "en": "New Phone, Who\u2019s This? Update Your Information in DirectInfo",
        "fr": "Nouveau t\u00e9l\u00e9phone? Mettez vos renseignements \u00e0 jour dans DirectInfo"
    },
    "modified": "2020-10-28 00:00:00.0",
    "issued": "2020-10-28 00:00:00.0",
    "type_name": "intra-intra/news-nouv",
    "node_id": "1279030006975",
    "layout_name": null,
    "dc_date_created": "2020-10-27",
    "breadcrumb_label": "New Phone, Who's This? Update Your Information in DirectInfo",
    "trigger_date": "2020-10-28 16:18:53.0",
    "meta": {
        "issued": {
            "en": "2020-10-28",
            "fr": "2020-10-28"
        },
        "modified": {
            "en": "2020-10-28",
            "fr": "2020-10-28"
        },
        "format": {
            "en": "gcformat",
            "fr": "gcformat"
        },
        "title": {
            "en": "New Phone, Who\u2019s This? Update Your Information in DirectInfo",
            "fr": "Nouveau t\u00e9l\u00e9phone? Mettez vos renseignements \u00e0 jour dans DirectInfo"
        },
        "subject": {
            "en": "communications",
            "fr": "communications"
        },
        "description": {
            "en": "If your phone number changes, you can simply go to your listing and edit it yourself.",
            "fr": "Si votre num\u00e9ro de t\u00e9l\u00e9phone change, vous pouvez simplement faire afficher votre nom et le modifier vous-m\u00eame."
        },
        "language": {
            "en": "eng",
            "fr": "fra"
        },
        "audience": {
            "en": "gcaudience",
            "fr": "gcaudience"
        },
        "creator": {
            "en": "Agriculture and Agri-Food Canada",
            "fr": "Agriculture et Agroalimentaire Canada"
        },
        "spatial": {
            "en": "gcregions",
            "fr": "gcregions"
        },
        "service": {
            "en": "AAFC_AgriSource",
            "fr": "AAC_AgriSource"
        },
        "accessRights": {
            "en": "3",
            "fr": "3"
        }
    },
    "body": {
        "en": "<br>\n<br>\n<p>When you start a new job at AAFC, your contact information is automatically posted on DirectInfo, AAFC\u2019s directory of employees, as part of the onboarding process. But did you know that you have the power to edit certain details like your title, phone number, and email address? That\u2019s right! If your phone number changes, you can simply go to your listing and edit it yourself.\u00a0</p>\n<p>We get it, updating DirectInfo isn\u2019t exactly the most exciting thing to do. You certainly have other priorities, especially during this time. The thing is, keeping your information up to date is really important. We use it to:</p>\n<ul>\n<li>keep Outlook distribution lists current so you can receive branch and all-staff emails</li>\n<li>maintain the list of Microsoft Office 365 accounts and branch teams</li>\n<li>manage account profiles and organizational information in internal AAFC applications</li>\n</ul>\n<p>Don\u2019t be like this person:</p>\n<p><strong><img src=\"https://intranet.agr.gc.ca/resources/prod/news/images/DirectInfoMeme-EN.png\" class=\"center-block\" alt=\"Person pointing at themselves. Guess who hasn\u2019t updated their listing\"></strong></p>\n<p>Update your information:</p>\n<ol>\n<li>Go to <a href=\"http://directinfo.agr.gc.ca/directInfo/eng/index.php?fuseaction=agriInfo.main&amp;dn\">DirectInfo</a>.</li>\n<li>Use the quick search function to find your listing, then click on your name.</li>\n</ol>\n<p><strong>Note:</strong> If your name doesn\u2019t appear in DirectInfo or you\u2019re listed under the wrong branch, please send an email to <a href=\"mailto:aafc.directinfo.aac@canada.ca\">aafc.directinfo.aac@canada.ca</a>.</p>\n<ol>\n<li>Click on \u201cchange information\u201d and enter your new contact details.</li>\n<li>Click on \u201csubmit\u201d.</li>\n</ol>\n<p>You should also regularly update your information for the following accounts by going to your profile or account settings:</p>\n<ul>\n<li><a href=\"https://idp.csps-efpc.gc.ca/idp/Authn/UserPassword\">GCcampus</a></li>\n<li><a href=\"https://gcconnex.gc.ca/login\">GCconnex</a></li>\n<li><a href=\"https://www.gcpedia.gc.ca/wiki/GCTools/GCpedia\">GCpedia</a></li>\n<li><a href=\"https://gccollab.ca/login\">GCcollab</a></li>\n</ul>\n\n\t\t",
        "fr": "<br>\n<br>\n<p>Lorsque vous commencez un nouvel emploi \u00e0 AAC, vos coordonn\u00e9es sont automatiquement affich\u00e9es dans DirectInfo, le r\u00e9pertoire des employ\u00e9s d\u2019AAC, dans le cadre du processus d\u2019int\u00e9gration. Mais saviez\u2011vous que vous pouvez modifier certains renseignements comme votre titre, votre num\u00e9ro de t\u00e9l\u00e9phone et votre adresse \u00e9lectronique dans ce r\u00e9pertoire? Vraiment! Si votre num\u00e9ro de t\u00e9l\u00e9phone change, vous pouvez simplement faire afficher votre nom et le modifier vous-m\u00eame.\u00a0</p>\n<p>Nous savons bien que la mise \u00e0 jour des donn\u00e9es dans DirectInfo n\u2019est pas exactement ce qu\u2019il y a de plus palpitant. Vous avez certainement d\u2019autres priorit\u00e9s, surtout ces temps-ci. Sauf que c\u2019est vraiment important de garder vos coordonn\u00e9es \u00e0 jour dans DirectInfo puisque cet outil nous permet :</p>\n<ul>\n<li>de tenir \u00e0 jour les listes de diffusion Outlook pour que vous puissiez recevoir les courriels diffus\u00e9s \u00e0 l\u2019ensemble du personnel ou \u00e0 ceux de la direction g\u00e9n\u00e9rale</li>\n<li>de tenir \u00e0 jour la liste des comptes Microsoft Office 365 et des \u00e9quipes des directions g\u00e9n\u00e9rales</li>\n<li>de g\u00e9rer les profils de compte et les renseignements organisationnels dans les applications internes d\u2019AAC</li>\n</ul>\n<p>Ne faites pas comme cette personne :</p>\n<p><strong><img src=\"https://intranet.agr.gc.ca/resources/prod/news/images/DirectInfoMeme-FR.png\" class=\"center-block\" alt=\"Personne se pointant elle-m\u00eame du doigt. Devinez qui n\u2019a pas mis ses coordonn\u00e9es \u00e0 jour\"></strong></p>\n<p>Mettez \u00e0 jour vos coordonn\u00e9es :</p>\n<ol>\n<li>Allez \u00e0 <a href=\"http://directinfo.agr.gc.ca/directInfo/fra/index.php?fuseaction=agriInfo.main&amp;dn\">DirectInfo</a>.</li>\n<li>Utilisez la fonction de recherche rapide pour trouver votre nom, puis cliquez sur votre nom.</li>\n</ol>\n<p><strong>Remarque :</strong> Si votre nom ne figure pas dans DirectInfo ou s\u2019il est associ\u00e9 \u00e0 la mauvaise direction g\u00e9n\u00e9rale, signalez-le par courriel \u00e0 <a href=\"mailto:aafc.directinfo.aac@canada.ca\">aafc.directinfo.aac@canada.ca</a>.</p>\n<ol>\n<li>Cliquez sur \u00ab Modifier Information \u00bb et entrez vos nouvelles coordonn\u00e9es.</li>\n<li>Cliquez sur \u00ab Soumettre \u00bb.</li>\n</ol>\n<p>Vous devriez aussi mettre r\u00e9guli\u00e8rement \u00e0 jour vos donn\u00e9es pour les comptes suivants en vous rendant sur votre profil ou dans les param\u00e8tres de votre compte :</p>\n<ul>\n<li><a href=\"https://idp.csps-efpc.gc.ca/idp/login-fr.jsp\">GCcampus</a></li>\n<li><a href=\"https://gcconnex.gc.ca/login\">GCconnex</a></li>\n<li><a href=\"https://www.gcpedia.gc.ca/wiki/GCTools/GCpedia\">GCpedia</a></li>\n<li><a href=\"https://gccollab.ca/login\">GCcollab</a></li>\n</ul>\n\t\t"
    },
    "breadcrumb": {
        "en": "New Phone, Who's This? Update Your Information in DirectInfo",
        "fr": "Nouveau t\u00e9l\u00e9phone? Mettez vos renseignements \u00e0 jour dans DirectInfo"
    },
    "news": {
        "date_posted": {
            "en": "2020-10-29",
            "fr": "2020-10-29"
        },
        "to": {
            "en": "All staff",
            "fr": "Tous les employ\u00e9s"
        },
        "by": {
            "en": "Information Systems Branch",
            "fr": "Direction g\u00e9n\u00e9rale des syst\u00e8mes d\u2019information"
        }
    }
}