{
    "dcr_id": "1602861711403",
    "lang": "en",
    "title": {
        "en": "Administrative Assistant",
        "fr": "Adjoint(e) administratif(tive)"
    },
    "modified": "2020-10-19 00:00:00.0",
    "issued": "2020-10-19 00:00:00.0",
    "type_name": "intra-intra/empl-empl",
    "node_id": "1279029955397",
    "layout_name": null,
    "dc_date_created": "2020-10-19",
    "breadcrumb_label": "",
    "meta": {
        "issued": {
            "en": "2020-10-19",
            "fr": "2020-10-19"
        },
        "modified": {
            "en": "2020-10-19",
            "fr": "2020-10-19"
        },
        "format": {
            "en": "gcformat",
            "fr": "gcformat"
        },
        "title": {
            "en": "Administrative Assistant",
            "fr": "Adjoint(e) administratif(tive)"
        },
        "subject": {
            "en": "staffing",
            "fr": "dotation en personnel"
        },
        "language": {
            "en": "eng",
            "fr": "fra"
        },
        "audience": {
            "en": "gcaudience",
            "fr": "gcaudience"
        },
        "type": {
            "en": "notice",
            "fr": "avis"
        },
        "creator": {
            "en": "Agriculture and Agri-Food Canada",
            "fr": "Agriculture et Agroalimentaire Canada"
        },
        "spatial": {
            "en": "gcregions",
            "fr": "gcregions"
        },
        "service": {
            "en": "AAFC_AgriSource",
            "fr": "AAC_AgriSource"
        },
        "accessRights": {
            "en": "3",
            "fr": "3"
        }
    },
    "body": {
        "en": "\n<p><strong>\u00a0</strong></p>\n<p><strong>Description:</strong></p>\n<p>DMO is looking for a bilingual Administrative Assistant.</p>\n<p>\u00a0</p>\n<p><strong>Duties:</strong></p>\n<ul>\n<li>\n<p>Provide a range of administrative support services in the office of a senior manager;</p>\n</li>\n<li>\n<p>use of MS Office Suite and tracking systems;</p>\n</li>\n<li>\n<p>monitor, analyze and triage incoming requests and documents;</p>\n</li>\n<li>\n<p>process Access to Information Privacy (ATIP) requests;</p>\n</li>\n<li>\n<p>liaise with senior level offices such as deputy ministers, assistant deputy ministers, executives and political level staff.</p>\n</li>\n</ul>\n<p>\u00a0</p>\n<p><strong>The Ideal Candidate will:</strong></p>\n<ul>\n<li>\n<p>be willing and able to work overtime;</p>\n</li>\n<li>\n<p>have or be able to obtain a Secret security clearance;</p>\n</li>\n<li>\n<p>be able to prioritize, plan and coordinate a variety of tasks to meet deadlines.</p>\n</li>\n</ul>\n<p>\u00a0</p>\n<h3><strong>Organizational Needs</strong></h3>\n<p>In support of achieving a diversified workforce, consideration may be given to candidates self-identifying as belonging to one of the following Employment Equity groups: Aboriginal peoples, Persons with a Disability; Visible Minorities, Women.</p>\n<p>\u00a0</p>\n<p><strong>Applications: </strong></p>\n<p>If you are interested in being considered for this new challenge, please send a cover letter and your resume demonstrating how you meet the experience and why you are interested in this opportunity.</p>\n<p>Interested applicants are encouraged to forward their cover letter and resume to Natalie Guimond at natalie.guimond@canada.ca by October 30, 2020.</p>\n<p>If you have any questions or would like more information, please contact Natalie by e-mail.</p>\n<p>\u00a0</p>\n<p><strong>Notes:</strong></p>\n<ul>\n<li>\n<p>This process will not be used to establish a pool of qualified candidates</p>\n</li>\n<li>\n<p>Deployments cannot change the tenure of an employee (i.e: term to indeterminate) or constitute a promotion.</p>\n</li>\n<li>\n<p>Communication for this process will be sent via email.</p>\n</li>\n</ul>\n<p>\u00a0</p>\n<ul>\n</ul>\n",
        "fr": "\n<p><strong>\u00a0</strong></p>\n<p><strong>Description :</strong></p>\n<p>Le Bureau du Sous-ministre (BSM) est \u00e0 la recherche d\u2019un adjoint administratif bilingue.</p>\n<p>\u00a0</p>\n<p><strong>Fonctions :</strong></p>\n<ul>\n<li>\n<p>Fournir un \u00e9ventail de services de soutien administratif au bureau d\u2019un cadre sup\u00e9rieur;</p>\n</li>\n<li>\n<p>utiliser MS Office Suite et des syst\u00e8mes de suivi;</p>\n</li>\n<li>\n<p>surveiller, analyser et trier les demandes et les documents re\u00e7us;</p>\n</li>\n<li>\n<p>traiter des demandes d\u2019acc\u00e8s \u00e0 l\u2019information et de protection des renseignements personnels (AIPRP);</p>\n</li>\n<li>\n<p>assurer la liaison avec les bureaux de cadres sup\u00e9rieurs tels que des sous-ministres, des sous-ministres adjoints, des cadres sup\u00e9rieurs et du personnel politique.</p>\n</li>\n</ul>\n<p>\u00a0</p>\n<p><strong>Le candidat id\u00e9al sera : </strong></p>\n<ul>\n<li>\n<p>apte et dispos\u00e9 \u00e0 faire des heures suppl\u00e9mentaires;</p>\n</li>\n<li>\n<p>d\u00e9tient ou pouvoir obtenir une cote \u00ab Secr\u00e8te \u00bb;</p>\n</li>\n<li>\n<p>en mesure de planifier et de coordonner diverses t\u00e2ches et d\u2019\u00e9tablir l\u2019ordre de priorit\u00e9 afin de respecter les \u00e9ch\u00e9ances.</p>\n<p>\u00a0</p>\n</li>\n</ul>\n<h3><strong>Besoins organisationnels</strong></h3>\n<p>Pour les besoins de la diversification de l\u2019effectif, la pr\u00e9f\u00e9rence pourrait \u00eatre accord\u00e9e aux candidats qui auront indiqu\u00e9 leur appartenance \u00e0 l\u2019un des groupes vis\u00e9s par l\u2019\u00e9quit\u00e9 en mati\u00e8re d\u2019emploi : Autochtones, personnes handicap\u00e9es, membres d\u2019une minorit\u00e9 visible, femmes.</p>\n<p>\u00a0</p>\n<p><strong>Demandes :</strong></p>\n<p>Si vous souhaitez que votre candidature soit examin\u00e9e aux fins de ce nouveau d\u00e9fi, veuillez envoyer votre <em>curriculum vitae</em> et une lettre de pr\u00e9sentation qui d\u00e9montrent que vous r\u00e9pondez \u00e0 tous les crit\u00e8res relatifs \u00e0 l\u2019exp\u00e9rience et expliquez votre int\u00e9r\u00eat pour cette opportunit\u00e9.</p>\n<p>Les personnes int\u00e9ress\u00e9es sont invit\u00e9es \u00e0 faire parvenir leur <em>curriculum vit\u00e6</em> et leur lettre de pr\u00e9sentation \u00e0 Natalie Guimond (natalie.guimond@canada.ca) d\u2019ici le 30 octobre 2020.</p>\n<p>Si vous avez des questions ou souhaitez obtenir de plus amples renseignements, veuillez communiquer avec Natalie par courriel.</p>\n<p>\u00a0</p>\n<p><strong>Remarques</strong></p>\n<ul>\n<li>\n<p>Ce processus ne servira pas \u00e0 cr\u00e9er un bassin de candidats qualifi\u00e9s.</p>\n</li>\n<li>\n<p>Une mutation ne change pas la dur\u00e9e d\u2019emploi de l\u2019employ\u00e9 (p. ex. passer d\u2019une dur\u00e9e d\u00e9termin\u00e9e \u00e0 une dur\u00e9e ind\u00e9termin\u00e9e) et ne constitue pas une promotion.</p>\n</li>\n<li>\n<p>La communication pour ce processus se fera par courriel.</p>\n</li>\n</ul>\n<p>\u00a0</p>\n<ul>\n</ul>\n\n"
    },
    "breadcrumb": {
        "en": "Administrative Assistant",
        "fr": "Adjoint(e) administratif(tive)"
    },
    "empl": {
        "type": {
            "en": "Assignment, Deployment, Acting",
            "fr": "Affectation, Mutation, Int\u00e9rimaire"
        },
        "classification": {
            "en": "AS-1",
            "fr": "AS-1"
        },
        "branch": {
            "en": "Deputy Minister's Office",
            "fr": "Bureau du sous-ministre"
        },
        "locations": {
            "en": "National Capital Region (NCR)",
            "fr": "R\u00e9gion de la capitale nationale (RCN)"
        },
        "date_closing": {
            "en": "2020-10-30",
            "fr": "2020-10-30"
        },
        "open_to": {
            "en": "AAFC Employees",
            "fr": "Employ\u00e9s d\u2019AAC"
        },
        "name": {
            "en": "Natalie Guimond",
            "fr": "Natalie Guimond"
        },
        "email": {
            "en": "natalie.guimond@canada.ca",
            "fr": "natalie.guimond@canada.ca"
        }
    }
}