{
    "dcr_id": "1602626353417",
    "lang": "en",
    "title": {
        "en": "Virtual Trade Commissioner, Consulate General of Canada, Los Angeles, USA",
        "fr": "D\u00e9l\u00e9gu\u00e9 commercial virtuel, consulat g\u00e9n\u00e9ral du Canada \u00e0 Los Angeles, \u00c9tats-Unis"
    },
    "modified": "2020-10-14 00:00:00.0",
    "issued": "2020-10-14 00:00:00.0",
    "type_name": "intra-intra/empl-empl",
    "node_id": "1279029955397",
    "layout_name": null,
    "dc_date_created": "2020-10-14",
    "breadcrumb_label": "",
    "meta": {
        "issued": {
            "en": "2020-10-14",
            "fr": "2020-10-14"
        },
        "modified": {
            "en": "2020-10-14",
            "fr": "2020-10-14"
        },
        "format": {
            "en": "gcformat",
            "fr": "gcformat"
        },
        "title": {
            "en": "Virtual Trade Commissioner, Consulate General of Canada, Los Angeles, USA",
            "fr": "D\u00e9l\u00e9gu\u00e9 commercial virtuel, consulat g\u00e9n\u00e9ral du Canada \u00e0 Los Angeles, \u00c9tats-Unis"
        },
        "subject": {
            "en": "staffing",
            "fr": "dotation en personnel"
        },
        "language": {
            "en": "eng",
            "fr": "fra"
        },
        "audience": {
            "en": "gcaudience",
            "fr": "gcaudience"
        },
        "type": {
            "en": "notice",
            "fr": "avis"
        },
        "creator": {
            "en": "Agriculture and Agri-Food Canada",
            "fr": "Agriculture et Agroalimentaire Canada"
        },
        "spatial": {
            "en": "gcregions",
            "fr": "gcregions"
        },
        "service": {
            "en": "AAFC_AgriSource",
            "fr": "AAC_AgriSource"
        },
        "accessRights": {
            "en": "3",
            "fr": "3"
        }
    },
    "body": {
        "en": "\n<p>\u00a0</p>\n<p>The International Affairs Branch is seeking applications from employees of Agriculture and Agri-Food Canada at the CO 02 / EC 06 - or equivalent level interested in the following assignment opportunity:</p>\n<p><strong><br>Virtual Trade Commissioner, Consulate General of Canada, Los Angeles, USA</strong></p>\n<p><br>Date: November 30, 2020 \u2013 May 30. 2021* - with possibility of extension</p>\n<p>*The successful candidate will be required to work remotely from Canada. Occasional travel to Los Angeles may be required but will be subject to the Government of Canada\u2019s travel restrictions related to the COVID 19 pandemic and the duty of care.</p>\n<p><br>Reporting to the Head of Section at the Consulate General of Canada, Los Angeles, the candidate will evaluate agriculture and agri-food market opportunities and Canadian business development interests in the US West Coast market to support potential on-going AAFC presence in the region. The candidate will use the analysis to create 2021-2022 market development options for the GAC strategic planning process that could be actioned to support Canadian companies.</p>\n<p><br>The candidate will also lead the delivery of market development activities on the margins of two significant food and beverage trade shows scheduled during this time. Examples of the specific tasks associated with these deliverables may include the following:</p>\n<ul>\n<li>Coordinating with Winter Fancy Food and Natural Food Expo West organizers to deliver matchmaking programs for Canadian exhibitors</li>\n<li>Developing social media plans to promote Canada\u2019s presence at trade shows.</li>\n<li>Organizing educational and business development events for incoming Canadian companies (virtually or in-person)</li>\n<li>Participating in regular meetings with the Trade Commissioner Service as well as federal and provincial partners</li>\n<li>Responding to client\u2019s service requests and identifying trade leads (and capture in TRIO)</li>\n<li>Engaging local retail and foodservice contacts as well as Canadian suppliers to define the scope of opportunities for Canadian agriculture and agri-food, fish and seafood products.</li>\n<li>Supporting the work of Trade Commissioners with agriculture files in other US regions.</li>\n<li>Using existing market reports and intelligence provided by Trade Commissioners at various Consulate General of Canada in the region, create an export guidance document to assist Canadian SMEs with business development in the region.</li>\n</ul>\n<p>\u00a0</p>\n<p><strong>Submission deadline: October\u00a030 2020</strong></p>\n<p><br>Employees may submit their name, and r\u00e9sum\u00e9 to Jessy El-Choueiry (<a href=\"mailto:jessy.el-choueiry@canada.ca\">jessy.el-choueiry@canada.ca</a>) along with the following information:</p>\n<ul>\n<li>cover letter which states current position, level and status and outlines how experience and competencies align with the position</li>\n<li>confirmation of manager's approval</li>\n<li>Security clearance</li>\n<li>Language profile</li>\n</ul>\n<p><br>The candidate will be selected on the basis of their overall experience and competencies relevant to this temporary duty opportunity. Selection will be based on provided resume and cover letter, however, an informal interview may be required.</p>\n<p><strong><br>Please note: </strong>There is no specific classification or level for this position and all applications will be considered but preference may be given to candidates who substantive group and level is equivalent to CO-02/EC-06. The selected candidate's salary will be paid by the International Affairs Branch for the duration of the assignment. Candidates must have secured the approval of their manager prior to submitting their application.</p>\n<p>\u00a0</p>\n",
        "fr": "\n<p>\u00a0</p>\n<p>La Direction g\u00e9n\u00e9rale des affaires internationales est \u00e0 la recherche d\u2019employ\u00e9s d\u2019Agriculture et Agroalimentaire Canada au niveau CO-02/EC-06 ou \u00e0 un niveau \u00e9quivalent qui seraient int\u00e9ress\u00e9s par la possibilit\u00e9 d\u2019affectation suivante :</p>\n<p><strong><br>D\u00e9l\u00e9gu\u00e9 commercial virtuel, consulat g\u00e9n\u00e9ral du Canada \u00e0 Los Angeles, \u00c9tats-Unis</strong></p>\n<p><br>Date : Du 30 novembre 2020 au 30 mai 2021* avec possibilit\u00e9 de prolongation</p>\n<p>*Le candidat retenu devra travailler \u00e0 distance depuis le Canada. Des voyages occasionnels \u00e0 Los Angeles pourraient \u00eatre n\u00e9cessaires, mais ils seront assujettis aux restrictions de voyage impos\u00e9es par le gouvernement du Canada en raison de la pand\u00e9mie de COVID-19 et de l\u2019obligation de diligence.</p>\n<p><br>Relevant du chef de section au consulat g\u00e9n\u00e9ral du Canada \u00e0 Los Angeles, le candidat retenu \u00e9valuera des d\u00e9bouch\u00e9s li\u00e9s \u00e0 l\u2019agriculture et \u00e0 l\u2019agroalimentaire et les int\u00e9r\u00eats du Canada en mati\u00e8re de d\u00e9veloppement commercial sur le march\u00e9 de la c\u00f4te Ouest des \u00c9tats-Unis afin d\u2019appuyer une \u00e9ventuelle pr\u00e9sence permanente d\u2019AAC dans la r\u00e9gion. Il utilisera l\u2019analyse obtenue afin de formuler les options de d\u00e9veloppement des march\u00e9s de 2021-2022 pour le processus de planification strat\u00e9gique d\u2019AMC, qui pourrait servir \u00e0 appuyer des entreprises canadiennes.</p>\n<p><br>De plus, le candidat retenu dirigera la mise en \u0153uvre d\u2019activit\u00e9s de d\u00e9veloppement des march\u00e9s en marge de deux importants salons professionnels de l\u2019industrie des aliments et boissons qui doivent avoir lieu pendant la p\u00e9riode d\u2019affectation. Voici des exemples de t\u00e2ches qui sont li\u00e9es \u00e0 la production de ces livrables :</p>\n<ul>\n<li>Assurer la coordination avec les organisateurs des salons Winter Fancy Food et Natural Food Expo West afin d\u2019offrir des programmes de jumelage aux exposants canadiens.</li>\n<li>\u00c9tablir des plans pour les m\u00e9dias sociaux afin de promouvoir la pr\u00e9sence du Canada \u00e0 des salons professionnels.</li>\n<li>Organiser des activit\u00e9s de d\u00e9veloppement commercial pour les entreprises canadiennes (virtuelles ou en personne).</li>\n<li>Participer r\u00e9guli\u00e8rement \u00e0 des r\u00e9unions avec le Service des d\u00e9l\u00e9gu\u00e9s commerciaux et des partenaires f\u00e9d\u00e9raux et provinciaux.</li>\n<li>R\u00e9pondre \u00e0 des demandes de service \u00e0 la client\u00e8le et cerner des occasions d\u2019affaires (et les entrer dans TRIO).</li>\n<li>Consulter des contacts de l\u2019industrie locale du d\u00e9tail et des services alimentaires, ainsi que des fournisseurs canadiens afin de d\u00e9finir la port\u00e9e des d\u00e9bouch\u00e9s pour les produits agricoles et agroalimentaires, le poisson et les fruits de mer du Canada.</li>\n<li>Appuyer le travail des d\u00e9l\u00e9gu\u00e9s commerciaux qui ont des dossiers touchant l\u2019agriculture dans d\u2019autres r\u00e9gions des \u00c9tats-Unis.</li>\n<li>Au moyen des rapports existants sur les march\u00e9s et des renseignements fournis par les d\u00e9l\u00e9gu\u00e9s commerciaux de divers consulats g\u00e9n\u00e9raux du Canada dans la r\u00e9gion, cr\u00e9er un guide sur les exportations qui aidera les PME canadiennes \u00e0 mener des activit\u00e9s dans la r\u00e9gion</li>\n</ul>\n<p><strong><br>\u00c9ch\u00e9ance pour pr\u00e9senter une demande :\u00a030 octobre 2020</strong></p>\n<p><br>Les employ\u00e9s int\u00e9ress\u00e9s doivent envoyer leur nom, leur CV et les renseignements suivants \u00e0 Jessy El-Choueiry (jessy.el-choueiry@canada.ca) :</p>\n<ul>\n<li>lettre de pr\u00e9sentation qui indique leur poste actuel (groupe, niveau et dur\u00e9e d\u2019emploi) et explique en quoi leur exp\u00e9rience et leurs comp\u00e9tences r\u00e9pondent aux exigences du poste;</li>\n<li>confirmation de l\u2019approbation du gestionnaire;</li>\n<li>cote de s\u00e9curit\u00e9;</li>\n<li>profile linguistique.</li>\n</ul>\n<p><br>Le candidat retenu sera s\u00e9lectionn\u00e9 en fonction de son exp\u00e9rience et de ses comp\u00e9tences pertinentes pour cette affectation temporaire. La s\u00e9lection sera fond\u00e9e sur le CV et la lettre de pr\u00e9sentation, mais une entrevue informelle pourrait \u00eatre requise.</p>\n<p><strong><br>\u00c0 noter : </strong>Ce poste n\u2019est pas class\u00e9 dans un groupe ou un niveau particulier, et toutes les candidatures seront prises en consid\u00e9ration. La pr\u00e9f\u00e9rence pourra \u00eatre accord\u00e9e aux candidats dont le groupe et le niveau du poste d\u2019attache est \u00e9quivalent aux niveaux CO-02 / EC-06. Le candidat sera r\u00e9mun\u00e9r\u00e9 pour la dur\u00e9e de l\u2019affectation par la Direction g\u00e9n\u00e9rale des affaires internationales. Les candidats doivent avoir obtenu l\u2019approbation de leur gestionnaire avant de poser leur candidature.</p>\n<p>\u00a0</p>\n\n"
    },
    "breadcrumb": {
        "en": "Virtual Trade Commissioner, Consulate General of Canada, Los Angeles, USA",
        "fr": "D\u00e9l\u00e9gu\u00e9 commercial virtuel, consulat g\u00e9n\u00e9ral du Canada \u00e0 Los Angeles, \u00c9tats-Unis"
    },
    "empl": {
        "type": {
            "en": "Acting, Assignment",
            "fr": "Affectation, Int\u00e9rimaire"
        },
        "classification": {
            "en": "CO-2 and equivalent",
            "fr": "CO-2 et \u00e9quivalent"
        },
        "branch": {
            "en": "International Affairs Branch",
            "fr": "Direction g\u00e9n\u00e9rales des affaires internationales"
        },
        "locations": {
            "en": "Canada",
            "fr": "Canada"
        },
        "date_closing": {
            "en": "2020-10-30",
            "fr": "2020-10-30"
        },
        "open_to": {
            "en": "All AAFC employees",
            "fr": "Tous les employ\u00e9s d'AAC"
        },
        "name": {
            "en": "Jessy El-Choueiry",
            "fr": "Jessy El-Choueiry"
        },
        "email": {
            "en": "jessy.el-choueiry@canada.ca",
            "fr": "jessy.el-choueiry@canada.ca"
        }
    }
}