{
    "dcr_id": "1514902675461",
    "lang": "en",
    "type_name": "intra-intra/news-nouv",
    "approvalsadvisor": "ricky.lee@canada.ca",
    "approvalsdirector": "brian.mccarthy@agr.gc.ca",
    "submitername": "Yi Liang",
    "submiteremail": "yi.liang@canada.ca",
    "submiterphoneNumber": "613-773-1777",
    "issued": "2018-01-04",
    "translateReqNumber": "null"
}