{
    "dcr_id": "1517334140487",
    "lang": "en",
    "type_name": "intra-intra/news-nouv",
    "approvalsadvisor": "janet.dowell@agr.gc.ca",
    "approvalsdirector": "pierre.corriveau@agr.gc.ca",
    "submitername": "Rupinder Rehaln",
    "submiteremail": "rupinder.rehaln@canada.ca",
    "submiterphoneNumber": "613-773-0926",
    "issued": "2018-02-01",
    "translateReqNumber": "null"
}