{
    "dcr_id": "1518523019687",
    "lang": "en",
    "type_name": "intra-intra/news-nouv",
    "approvalsadvisor": "Janet.Dowell@agr.gc.ca",
    "approvalsdirector": "Pierre.Corriveau@agr.gc.ca",
    "submitername": "Rachelle Hill",
    "submiteremail": "Rachelle.Hill@agr.gc.ca",
    "submiterphoneNumber": "613-773-1691",
    "issued": "2018-02-13",
    "translateReqNumber": "null"
}