{
    "dcr_id": "1519144983851",
    "lang": "en",
    "type_name": "intra-intra/news-nouv",
    "approvalsadvisor": "ricky.lee@canada.ca",
    "approvalsdirector": "pierre.corriveau@agr.gc.ca",
    "submitername": "Nancy White",
    "submiteremail": "nancy.white@agr.gc.ca",
    "submiterphoneNumber": "613-773-3446",
    "issued": "2018-02-22",
    "translateReqNumber": "null"
}