{
    "dcr_id": "1519670723944",
    "lang": "en",
    "type_name": "intra-intra/news-nouv",
    "approvalsadvisor": "ricky.lee@canada.ca",
    "approvalsdirector": "scott.aughey@canada.ca",
    "submitername": "Ricky Lee",
    "submiteremail": "ricky.lee@canada.ca",
    "submiterphoneNumber": "613-773-2252",
    "issued": "2018-02-26",
    "translateReqNumber": "null"
}