{
    "dcr_id": "1520267816314",
    "lang": "en",
    "type_name": "intra-intra/news-nouv",
    "approvalsadvisor": "ricky.lee@canada.ca",
    "approvalsdirector": "pierre.corriveau@agr.gc.ca",
    "submitername": "Melanie Perrier",
    "submiteremail": "melanie.perrier@agr.gc.ca",
    "submiterphoneNumber": "613-773-1518",
    "issued": "2018-03-08",
    "translateReqNumber": "null"
}