{
    "dcr_id": "1522160459053",
    "lang": "en",
    "type_name": "intra-intra/news-nouv",
    "approvalsadvisor": "ricky.lee@canada.ca",
    "approvalsdirector": "Pierre.Corriveau@agr.gc.ca",
    "submitername": "Tania Gardner",
    "submiteremail": "tania.gardner@agr.gc.ca",
    "submiterphoneNumber": "613-773-2570",
    "issued": "2018-03-29",
    "translateReqNumber": "null"
}