{
    "dcr_id": "1522097717415",
    "lang": "en",
    "type_name": "intra-intra/news-nouv",
    "approvalsadvisor": "ricky.lee@agr.gc.ca",
    "approvalsdirector": "lynden.hillier@agr.gc.ca",
    "submitername": "Jennifer",
    "submiteremail": "jennifer.mclaurin@agr.gc.ca",
    "submiterphoneNumber": "613-773-0214",
    "issued": "2018-03-28",
    "translateReqNumber": "null"
}