{
    "dcr_id": "1522180969157",
    "lang": "en",
    "type_name": "intra-intra/news-nouv",
    "approvalsadvisor": "janet.dowell@agr.gc.ca",
    "approvalsdirector": "Scott.aughey@canada.ca",
    "submitername": "Monica Richard",
    "submiteremail": "monica.richard@agr.gc.ca",
    "submiterphoneNumber": "613-773-3471",
    "issued": "2018-03-29",
    "translateReqNumber": "null"
}