{
    "dcr_id": "1523299018127",
    "lang": "en",
    "type_name": "intra-intra/news-nouv",
    "approvalsadvisor": "ricky.lee@canada.ca",
    "approvalsdirector": "lynden.hillier@agr.gc.ca",
    "submitername": "Lesley Gervais",
    "submiteremail": "lesley.gervais@agr.gc.ca",
    "submiterphoneNumber": "613-773-3489",
    "issued": "2018-04-12",
    "translateReqNumber": "null"
}