{
    "dcr_id": "1524840072258",
    "lang": "en",
    "type_name": "intra-intra/news-nouv",
    "approvalsadvisor": "Janet.dowell@agr.gc.ca",
    "approvalsdirector": "Lynden.hillier@agr.gc.ca",
    "submitername": "Jennifer",
    "submiteremail": "jennifer.mclaurin@agr.gc.ca",
    "submiterphoneNumber": "613-773-0214",
    "issued": "2018-05-03",
    "translateReqNumber": "n/a"
}