{
    "dcr_id": "1525722255009",
    "lang": "en",
    "type_name": "intra-intra/news-nouv",
    "approvalsadvisor": "Natalie.Ekholm@canada.ca",
    "approvalsdirector": "Lucie.dubois@agr.gc.ca",
    "submitername": "Catherine Ridout",
    "submiteremail": "catherine.ridout@agr.gc.ca",
    "submiterphoneNumber": "613-773-1933",
    "issued": "2018-05-10",
    "translateReqNumber": "180503-3"
}