{
    "dcr_id": "1525195837606",
    "lang": "en",
    "type_name": "intra-intra/news-nouv",
    "approvalsadvisor": "janet.dowell@agr.gc.ca",
    "approvalsdirector": "jane.taylor@agr.gc.ca",
    "submitername": "Lydia Lipic",
    "submiteremail": "lydia.lipic@agr.gc.ca",
    "submiterphoneNumber": "204-926-9623",
    "issued": "2018-05-03",
    "translateReqNumber": "n/a"
}