{
    "dcr_id": "1527604241036",
    "lang": "en",
    "type_name": "intra-intra/news-nouv",
    "approvalsadvisor": "Kathryn.hunt@canada.ca",
    "approvalsdirector": "kathryn.hunt@canada.ca",
    "submitername": "Kathryn Hunt",
    "submiteremail": "kathryn.hunt@canada.ca",
    "submiterphoneNumber": "613-773-2262",
    "issued": "2018-05-31",
    "translateReqNumber": "n/a"
}