{
    "dcr_id": "1527687516812",
    "lang": "en",
    "type_name": "intra-intra/news-nouv",
    "approvalsadvisor": "ricky.lee@canada.ca",
    "approvalsdirector": "pierre.leduc@agr.gc.ca",
    "submitername": "Ricky Lee",
    "submiteremail": "ricky.lee@canada.ca",
    "submiterphoneNumber": "613-773-2252",
    "issued": "2018-05-31",
    "translateReqNumber": "n/a"
}