{
    "dcr_id": "1528750380088",
    "lang": "en",
    "type_name": "intra-intra/news-nouv",
    "approvalsadvisor": "Ricky.lee@agr.gc.ca",
    "approvalsdirector": "lynden.hillier@agr.gc.ca",
    "submitername": "Jennifer",
    "submiteremail": "jennifer.mclaurin@agr.gc.ca",
    "submiterphoneNumber": "613-773-0214",
    "issued": "2018-06-13",
    "translateReqNumber": "n/a"
}