{
    "dcr_id": "1528896991250",
    "lang": "en",
    "type_name": "intra-intra/news-nouv",
    "approvalsadvisor": "natalie.ekholm@canada.ca",
    "approvalsdirector": "pierre.corriveau@agr.gc.ca",
    "submitername": "Amanda Benwell",
    "submiteremail": "amanda.benwell@canada.ca",
    "submiterphoneNumber": "613-759-1626",
    "issued": "2018-06-14",
    "translateReqNumber": "AAFC-180612-36"
}