{
    "dcr_id": "1528202158725",
    "lang": "en",
    "type_name": "intra-intra/news-nouv",
    "approvalsadvisor": "ricky.lee@canada.ca",
    "approvalsdirector": "emily.mcauley@canada.ca",
    "submitername": "Talen McLean",
    "submiteremail": "talen.mclean@canada.ca",
    "submiterphoneNumber": "613-773-2893",
    "issued": "2018-06-07",
    "translateReqNumber": "n/a"
}