{
    "dcr_id": "1529928631828",
    "lang": "en",
    "type_name": "intra-intra/news-nouv",
    "approvalsadvisor": "gail.hewitt@agr.gc.ca",
    "approvalsdirector": "vincent.beaulieu@agr.gc.ca",
    "submitername": "Emily Smyth",
    "submiteremail": "emily.smyth@canada.ca",
    "submiterphoneNumber": "613-773-0628",
    "issued": "2018-06-27",
    "translateReqNumber": "N/A"
}