{
    "dcr_id": "1530014976200",
    "lang": "en",
    "type_name": "intra-intra/news-nouv",
    "approvalsadvisor": "ricky.lee@canada.ca",
    "approvalsdirector": "scott.aughey@canada.ca",
    "submitername": "Lesley Gervais",
    "submiteremail": "lesley.gervais@agr.gc.ca",
    "submiterphoneNumber": "613-773-3489",
    "issued": "2018-07-04",
    "translateReqNumber": "180619-23"
}