{
    "dcr_id": "1532372246989",
    "lang": "en",
    "type_name": "intra-intra/news-nouv",
    "approvalsadvisor": "ricky.lee@canada.ca",
    "approvalsdirector": "Jill.Hull@agr.gc.ca",
    "submitername": "Gibbson Wong",
    "submiteremail": "gibbson.wong@canada.ca",
    "submiterphoneNumber": "613-773-1451",
    "issued": "2018-07-26",
    "translateReqNumber": "180720-37"
}