{
    "dcr_id": "1532377230391",
    "lang": "en",
    "type_name": "intra-intra/news-nouv",
    "approvalsadvisor": "shona.milne@agr.gc.ca",
    "approvalsdirector": "dominique.richer@agr.gc.ca",
    "submitername": "Shona Milne",
    "submiteremail": "shona.milne@agr.gc.ca",
    "submiterphoneNumber": "613-773-2775",
    "issued": "2018-07-26",
    "translateReqNumber": "180719-25"
}