{
    "dcr_id": "1532000261147",
    "lang": "en",
    "type_name": "intra-intra/news-nouv",
    "approvalsadvisor": "natalie.ekholm@canada.ca",
    "approvalsdirector": "Jean-Francois.Savard@agr.gc.ca",
    "submitername": "Guy Marier",
    "submiteremail": "guy.marier@agr.gc.ca",
    "submiterphoneNumber": "613-773-0841",
    "issued": "2018-07-19",
    "translateReqNumber": "180718-28"
}