{
    "dcr_id": "1533902878553",
    "lang": "en",
    "type_name": "intra-intra/news-nouv",
    "approvalsadvisor": "ricky.lee@canada.ca",
    "approvalsdirector": "ricky.lee@canada.ca",
    "submitername": "Justine Walker",
    "submiteremail": "justine.walker2@canada.ca",
    "submiterphoneNumber": "613-773-0443",
    "issued": "2018-08-09",
    "translateReqNumber": "Same text as used in the DM's message sent via Outlook. Translation request number unavailable."
}