{
    "dcr_id": "1534249790410",
    "lang": "en",
    "type_name": "intra-intra/news-nouv",
    "approvalsadvisor": "Ricky.Lee@canada.ca",
    "approvalsdirector": "Scott.Aughey@canada.ca",
    "submitername": "Kellie McNicoll",
    "submiteremail": "kellie.mcnicoll@agr.gc.ca",
    "submiterphoneNumber": "613-773-3487",
    "issued": "2018-08-16",
    "translateReqNumber": "180801-17"
}