{
    "dcr_id": "1534190205327",
    "lang": "en",
    "type_name": "intra-intra/news-nouv",
    "approvalsadvisor": "Stela.Susic@canada.ca",
    "approvalsdirector": "Jacint.Boucher@canada.ca",
    "submitername": "Christine LeBlanc",
    "submiteremail": "Christine.LeBlanc@canada.ca",
    "submiterphoneNumber": "506-777-3745",
    "issued": "2018-08-15",
    "translateReqNumber": "AAFC-180731-25"
}