{
    "dcr_id": "1535722656689",
    "lang": "en",
    "type_name": "intra-intra/news-nouv",
    "approvalsadvisor": "jeff.wright@canada.ca",
    "approvalsdirector": "pierre.corriveau@agr.gc.ca",
    "submitername": "Nicolas Auclair",
    "submiteremail": "nicolas.auclair@agr.gc.ca",
    "submiterphoneNumber": "579-224-3002",
    "issued": "2018-09-05",
    "translateReqNumber": "NA"
}