{
    "dcr_id": "1536174286999",
    "lang": "en",
    "type_name": "intra-intra/news-nouv",
    "approvalsadvisor": "shona.milne@agr.gc.ca",
    "approvalsdirector": "dominique.richer@agr.gc.ca",
    "submitername": "Kathryn Hunt",
    "submiteremail": "kathryn.hunt@canada.ca",
    "submiterphoneNumber": "613-773-2262",
    "issued": "2018-09-05",
    "translateReqNumber": "n/a"
}