{
    "dcr_id": "1536090670982",
    "lang": "en",
    "type_name": "intra-intra/news-nouv",
    "approvalsadvisor": "Jeff.Wright@canada.ca",
    "approvalsdirector": "Bruce.Radburn@canada.ca",
    "submitername": "Madeline Webber",
    "submiteremail": "madeline.webber@canada.ca",
    "submiterphoneNumber": "613-773-3131",
    "issued": "2018-09-06",
    "translateReqNumber": "180829-25"
}