{
    "dcr_id": "1537199516053",
    "lang": "en",
    "type_name": "intra-intra/news-nouv",
    "approvalsadvisor": "nina.hamad@canada.ca",
    "approvalsdirector": "ling.lee@canada.ca",
    "submitername": "Seana Collins",
    "submiteremail": "seana.collins@agr.gc.ca",
    "submiterphoneNumber": "902-365-8466",
    "issued": "2018-09-19",
    "translateReqNumber": "AAFC-18091213"
}