{
    "dcr_id": "1537893958503",
    "lang": "en",
    "type_name": "intra-intra/news-nouv",
    "approvalsadvisor": "ricky.lee@canada.ca",
    "approvalsdirector": "jean-pierre.contant@canada.ca",
    "submitername": "Tracy Michaud",
    "submiteremail": "tracy.michaud@canada.ca",
    "submiterphoneNumber": "613-773-0574",
    "issued": "2018-09-27",
    "translateReqNumber": "n/a"
}