{
    "dcr_id": "1537381187050",
    "lang": "en",
    "type_name": "intra-intra/news-nouv",
    "approvalsadvisor": "ricky.lee@canada.ca",
    "approvalsdirector": "jane.taylor@agr.gc.ca",
    "submitername": "Lydia Lipic",
    "submiteremail": "lydia.lipic@canada.ca",
    "submiterphoneNumber": "204-926-9623",
    "issued": "2018-09-20",
    "translateReqNumber": "AAFC-180917-15"
}