{
    "dcr_id": "1537284893004",
    "lang": "en",
    "type_name": "intra-intra/news-nouv",
    "approvalsadvisor": "natalie.ekholm@canada.ca",
    "approvalsdirector": "alessandro.longo@canada.ca",
    "submitername": "Jasmine Labelle",
    "submiteremail": "jasmine.labelle@canada.ca",
    "submiterphoneNumber": "613-773-0964",
    "issued": "2018-09-20",
    "translateReqNumber": "N/A"
}