{
    "dcr_id": "1538498577986",
    "lang": "en",
    "type_name": "intra-intra/news-nouv",
    "approvalsadvisor": "Natalie.Ekholm@canada.ca",
    "approvalsdirector": "Lyndsay.Rajaram@canada.ca",
    "submitername": "Madeline Webber",
    "submiteremail": "madeline.webber@canada.ca",
    "submiterphoneNumber": "613-773-3131",
    "issued": "2018-10-04",
    "translateReqNumber": "181001-5 "
}