{
    "dcr_id": "1538509578044",
    "lang": "en",
    "type_name": "intra-intra/news-nouv",
    "approvalsadvisor": "eileen.rankin@canada.ca",
    "approvalsdirector": "silvia.wadasinghe@canada.ca",
    "submitername": "justine walker",
    "submiteremail": "justine.walker2@canada.ca",
    "submiterphoneNumber": "613-773-0443",
    "issued": "2018-10-04",
    "translateReqNumber": "181001-30"
}