{
    "dcr_id": "1540823787460",
    "lang": "en",
    "type_name": "intra-intra/news-nouv",
    "approvalsadvisor": "natalie.ekholm@canada.ca",
    "approvalsdirector": "lynden.hillier@canada.ca",
    "submitername": "Melanie Russo",
    "submiteremail": "melanie.russo@canada.ca",
    "submiterphoneNumber": "613-773-0447",
    "issued": "2018-11-08",
    "translateReqNumber": "181026-13"
}