{
    "dcr_id": "1540829970830",
    "lang": "en",
    "type_name": "intra-intra/news-nouv",
    "approvalsadvisor": "natalie.ekholm@canada.ca",
    "approvalsdirector": "susan.steele@canada.ca",
    "submitername": "Susan Steele",
    "submiteremail": "susan.steele@canada.ca",
    "submiterphoneNumber": "613-773-1165",
    "issued": "2018-11-01",
    "translateReqNumber": "N/A"
}