{
    "dcr_id": "1543860528908",
    "lang": "en",
    "type_name": "intra-intra/news-nouv",
    "approvalsadvisor": "stela.susic@canada.ca",
    "approvalsdirector": "jacint.boucher@canada.ca",
    "submitername": "Marc Ouellet",
    "submiteremail": "marc.ouellet3@canada.ca",
    "submiterphoneNumber": "506-777-3744",
    "issued": "2018-12-05",
    "translateReqNumber": "AAFC-181126-2"
}