{
    "dcr_id": "1544813506890",
    "lang": "en",
    "type_name": "intra-intra/news-nouv",
    "approvalsadvisor": "nina.hamad@canada.ca",
    "approvalsdirector": "kimberly.saunders@canada.ca",
    "submitername": "Corrie Boyce",
    "submiteremail": "corrie.boyce@canada.ca",
    "submiterphoneNumber": "613-773-3481",
    "issued": "2018-12-20",
    "translateReqNumber": "0000000000"
}