{
    "dcr_id": "1545168862938",
    "lang": "en",
    "type_name": "intra-intra/news-nouv",
    "approvalsadvisor": "joy.moskovic@canada.ca",
    "approvalsdirector": "genevieve.smith@canada.ca",
    "submitername": "Jessica Livermore",
    "submiteremail": "jessica.livermore@canada.ca",
    "submiterphoneNumber": "613-773-1365",
    "issued": "2018-12-20",
    "translateReqNumber": "181218-23"
}