{
    "dcr_id": "1546626256484",
    "lang": "en",
    "type_name": "intra-intra/news-nouv",
    "approvalsadvisor": "irina.andritoiu@canada.ca",
    "approvalsdirector": "andrew.goldstein@canada.ca",
    "submitername": "Danitsa Lauder",
    "submiteremail": "danitsa.lauder@canada.ca",
    "submiterphoneNumber": "613-773-1837",
    "issued": "2019-01-10",
    "translateReqNumber": "AAFC-181218-21"
}