{
    "dcr_id": "1546888638302",
    "lang": "en",
    "type_name": "intra-intra/news-nouv",
    "approvalsadvisor": "nina.hamad@canada.ca",
    "approvalsdirector": "steven.jurgutis@canada.ca",
    "submitername": "Sylvain Lemieux",
    "submiteremail": "sylvain.lemieux@canada.ca",
    "submiterphoneNumber": "613-773-1645",
    "issued": "2019-01-09",
    "translateReqNumber": "AAFC-190104-14"
}