{
    "dcr_id": "1546983475669",
    "lang": "en",
    "type_name": "intra-intra/news-nouv",
    "approvalsadvisor": "kathryn.hunt@canada.ca",
    "approvalsdirector": "kathryn.hunt@canada.ca",
    "submitername": "kathryn Hunt",
    "submiteremail": "kathryn.hunt@canada.ca",
    "submiterphoneNumber": "613-733-2262",
    "issued": "2019-01-10",
    "translateReqNumber": "n/a"
}