{
    "dcr_id": "1547218785356",
    "lang": "en",
    "type_name": "intra-intra/news-nouv",
    "approvalsadvisor": "Stela.susic@canada.ca",
    "approvalsdirector": "Jacint.boucher@canada.ca",
    "submitername": "Pina Guidoccio",
    "submiteremail": "pina.guidoccio@canada.ca",
    "submiterphoneNumber": "613-773-1394",
    "issued": "2019-01-17",
    "translateReqNumber": "AAFC-190107-35"
}