{
    "dcr_id": "1548261183690",
    "lang": "en",
    "type_name": "intra-intra/news-nouv",
    "approvalsadvisor": "joy.moskovic@canada.ca",
    "approvalsdirector": "christine.walker2@canada.ca",
    "submitername": "Emma Huang",
    "submiteremail": "emma.huang@canada.ca",
    "submiterphoneNumber": "613-773-2710",
    "issued": "2019-01-30",
    "translateReqNumber": "AAFC-190115-1"
}