{
    "dcr_id": "1548100089937",
    "lang": "en",
    "type_name": "intra-intra/news-nouv",
    "approvalsadvisor": "joy.moskovic@canada.ca",
    "approvalsdirector": "christine.walker2@canada.ca",
    "submitername": "Annie Hui",
    "submiteremail": "annie.hui@canada.ca",
    "submiterphoneNumber": "613-773-0939",
    "issued": "2019-01-24",
    "translateReqNumber": "AAFC-190115-20"
}