{
    "dcr_id": "1548780721569",
    "lang": "en",
    "type_name": "intra-intra/news-nouv",
    "approvalsadvisor": "irina.andritoiu@canada.ca",
    "approvalsdirector": "jean-francois.savard@canada.ca",
    "submitername": "Imad El-kadri",
    "submiteremail": "imad.el-kadri@canada.ca",
    "submiterphoneNumber": "613-773-2935",
    "issued": "2019-01-31",
    "translateReqNumber": "190124-28"
}