{
    "dcr_id": "1549909836877",
    "lang": "en",
    "type_name": "intra-intra/news-nouv",
    "approvalsadvisor": "nina.hamad@canada.ca",
    "approvalsdirector": "Jacint.boucher@canada.ca",
    "submitername": "Marc Ouellet",
    "submiteremail": "marc.ouellet3@canada.ca",
    "submiterphoneNumber": "506-777-3744",
    "issued": "2019-02-13",
    "translateReqNumber": "n/A"
}