{
    "dcr_id": "1549383027311",
    "lang": "en",
    "type_name": "intra-intra/news-nouv",
    "approvalsadvisor": "natalie.ekholm@canada.ca",
    "approvalsdirector": "jane.taylor@canada.ca",
    "submitername": "Geneviève Fortin",
    "submiteremail": "genevieve.fortin3@canada.ca",
    "submiterphoneNumber": "613-773-1078",
    "issued": "2019-02-07",
    "translateReqNumber": "181001-7 "
}