{
    "dcr_id": "1549979075008",
    "lang": "en",
    "type_name": "intra-intra/news-nouv",
    "approvalsadvisor": "jan.cote@canada.ca",
    "approvalsdirector": "michael.whittaker@canada.ca",
    "submitername": "Michelle Bruce",
    "submiteremail": "michelle.bruce@canada.ca",
    "submiterphoneNumber": "306-523-6502",
    "issued": "2019-02-14",
    "translateReqNumber": "190208-7"
}