{
    "dcr_id": "1549485260562",
    "lang": "en",
    "type_name": "intra-intra/news-nouv",
    "approvalsadvisor": "irina.andritoiu@canada.ca",
    "approvalsdirector": "nathalie.leblanc@canada.ca",
    "submitername": "Mercedes Jorge",
    "submiteremail": "mercedes.jorge@canada.ca",
    "submiterphoneNumber": "613-773-3508",
    "issued": "2019-02-14",
    "translateReqNumber": "190201-22"
}