{
    "dcr_id": "1549921529109",
    "lang": "en",
    "type_name": "intra-intra/news-nouv",
    "approvalsadvisor": "samer.younes@canada.ca",
    "approvalsdirector": "KAtrin.Nagelschmitz@canada.ca",
    "submitername": "Douglas Ruby",
    "submiteremail": "douglas.ruby@canada.ca",
    "submiterphoneNumber": "613-773-1343",
    "issued": "2019-02-14",
    "translateReqNumber": "AAFC-190208-33"
}