{
    "dcr_id": "1551806989455",
    "lang": "en",
    "type_name": "intra-intra/news-nouv",
    "approvalsadvisor": "irina.andritoiu@canada.ca",
    "approvalsdirector": "carole.bidal@canada.ca",
    "submitername": "Augustus Reeves",
    "submiteremail": "augustus.reeves@canada.ca",
    "submiterphoneNumber": "613-773-2004",
    "issued": "2019-03-07",
    "translateReqNumber": "190301-26"
}