{
    "dcr_id": "1553002255476",
    "lang": "en",
    "type_name": "intra-intra/news-nouv",
    "approvalsadvisor": "irina.andritoiu@canada.ca",
    "approvalsdirector": "jane.taylor@canada.ca",
    "submitername": "Lydia Lipic",
    "submiteremail": "Lydia.Lipic@canada.ca",
    "submiterphoneNumber": "204-926-9623",
    "issued": "2019-03-21",
    "translateReqNumber": "AAFC-190315-28"
}