{
    "dcr_id": "1553615256945",
    "lang": "en",
    "type_name": "intra-intra/news-nouv",
    "approvalsadvisor": "stela.susic@canada.ca",
    "approvalsdirector": "brian.gray@canada.ca",
    "submitername": "Jake Freeman",
    "submiteremail": "jake.freeman@agr.gc.ca",
    "submiterphoneNumber": "204-259-4014",
    "issued": "2019-03-28",
    "translateReqNumber": "AAFC-190319-2 "
}