{
    "dcr_id": "1554232779753",
    "lang": "en",
    "type_name": "intra-intra/news-nouv",
    "approvalsadvisor": "irina.andritoiu@canada.ca",
    "approvalsdirector": "nathalie.leblanc@canada.ca",
    "submitername": "Sami Reaz",
    "submiteremail": "sami.reaz2@canada.ca",
    "submiterphoneNumber": "819-319-9965",
    "issued": "2019-04-04",
    "translateReqNumber": "AAFC-190328-11"
}