{
    "dcr_id": "1556637352755",
    "lang": "en",
    "type_name": "intra-intra/news-nouv",
    "approvalsadvisor": "stela.susic@canada.ca",
    "approvalsdirector": "jean-francois.savard@canada.ca",
    "submitername": "Michael Thuemer",
    "submiteremail": "michael.thuemer@canada.ca",
    "submiterphoneNumber": "613-773-2090",
    "issued": "2019-05-02",
    "translateReqNumber": "."
}