{
    "dcr_id": "1556637563273",
    "lang": "en",
    "type_name": "intra-intra/news-nouv",
    "approvalsadvisor": "irina.andritoiu@canada.ca",
    "approvalsdirector": "jill.hull2@canada.ca",
    "submitername": "Samantha Chicoyne",
    "submiteremail": "samantha.chicoyne@canada.ca",
    "submiterphoneNumber": "613-773-0113",
    "issued": "2019-05-02",
    "translateReqNumber": "190426-33"
}