{
    "dcr_id": "1557750874286",
    "lang": "en",
    "type_name": "intra-intra/news-nouv",
    "approvalsadvisor": "joy.moskovic@canada.ca",
    "approvalsdirector": "andrew.goldstein@canada.ca",
    "submitername": "Alexanne Drouin",
    "submiteremail": "alexanne.drouin@canada.ca",
    "submiterphoneNumber": "613-773-3443",
    "issued": "2019-05-16",
    "translateReqNumber": "180522-1"
}