{
    "dcr_id": "1557494514267",
    "lang": "en",
    "type_name": "intra-intra/news-nouv",
    "approvalsadvisor": "irina.andritoiu@canada.ca",
    "approvalsdirector": "elizabeth.foster@canada.ca",
    "submitername": "Debbie Lockrey-Wessel",
    "submiteremail": "debbie.lockrey-wessel@canada.ca",
    "submiterphoneNumber": "519-819-2907",
    "issued": "2019-05-13",
    "translateReqNumber": "190212-31"
}