{
    "dcr_id": "1557335976627",
    "lang": "en",
    "type_name": "intra-intra/news-nouv",
    "approvalsadvisor": "nina.hamad@canada.ca",
    "approvalsdirector": "denna.dougan@canada.ca",
    "submitername": "Denna Dougan",
    "submiteremail": "denna.dougan@canada.ca",
    "submiterphoneNumber": "613-773-0990",
    "issued": "2019-05-09",
    "translateReqNumber": "AAFC-190502-6"
}