{
    "dcr_id": "1558115008219",
    "lang": "en",
    "type_name": "intra-intra/news-nouv",
    "approvalsadvisor": "natalie.ekholm@canada.ca",
    "approvalsdirector": "lucille.lacelle@canada.ca",
    "submitername": "Gabrielle Lew",
    "submiteremail": "gabrielle.lew@canada.ca",
    "submiterphoneNumber": "613-773-3484",
    "issued": "2019-05-23",
    "translateReqNumber": "190513-21"
}