{
    "dcr_id": "1558453582153",
    "lang": "en",
    "type_name": "intra-intra/news-nouv",
    "approvalsadvisor": "jason.ramey@canada.ca",
    "approvalsdirector": "alec.nicholls@canada.ca",
    "submitername": "Amy Lin",
    "submiteremail": "amy.lin@canada.ca",
    "submiterphoneNumber": "613-773-3604",
    "issued": "2019-05-23",
    "translateReqNumber": "190517-8"
}