{
    "dcr_id": "1559583161304",
    "lang": "en",
    "type_name": "intra-intra/news-nouv",
    "approvalsadvisor": "emily.dipaolo@canada.ca",
    "approvalsdirector": "nina.hamad@canada.ca",
    "submitername": "Amy Lin",
    "submiteremail": "amy.lin@canada.ca",
    "submiterphoneNumber": "613-773-3604",
    "issued": "2019-06-03",
    "translateReqNumber": "AAFC-190523-23"
}