{
    "dcr_id": "1559597372880",
    "lang": "en",
    "type_name": "intra-intra/news-nouv",
    "approvalsadvisor": "joy.moskovic@canada.ca",
    "approvalsdirector": "kimberly.saunders@canada.ca",
    "submitername": "Katherine Whybourne",
    "submiteremail": "Katherine.whybourne@canada.ca",
    "submiterphoneNumber": "226-927-2592",
    "issued": "2019-06-06",
    "translateReqNumber": "AAFC190524-26"
}