{
    "dcr_id": "1559059158657",
    "lang": "en",
    "type_name": "intra-intra/news-nouv",
    "approvalsadvisor": "joy.moskovic@canada.ca",
    "approvalsdirector": "brian.mccarthy@canada.ca",
    "submitername": "Yi Liang",
    "submiteremail": "yi.liang@canada.ca",
    "submiterphoneNumber": "613-720-6662",
    "issued": "2019-05-30",
    "translateReqNumber": "AAFC-190528-2"
}