{
    "dcr_id": "1563545689422",
    "lang": "en",
    "type_name": "intra-intra/news-nouv",
    "approvalsadvisor": "justine.walker2@canada.ca",
    "approvalsdirector": "vincent.beaulieu@canada.ca",
    "submitername": "Vincent Beaulieu",
    "submiteremail": "vincent.beaulieu@canada.ca",
    "submiterphoneNumber": "613-773-0907",
    "issued": "2019-07-25",
    "translateReqNumber": "190718-24"
}