{
    "dcr_id": "1565704728385",
    "lang": "en",
    "type_name": "intra-intra/news-nouv",
    "approvalsadvisor": "Joy.Moskovic@canada.ca",
    "approvalsdirector": "dean.steski@canada.ca",
    "submitername": "Christine Koch",
    "submiteremail": "Christine.Koch@canada.ca",
    "submiterphoneNumber": "613-773-0577",
    "issued": "2019-08-15",
    "translateReqNumber": "AAFC-190812-10"
}