{
    "dcr_id": "1566390031346",
    "lang": "en",
    "type_name": "intra-intra/news-nouv",
    "approvalsadvisor": "randi.saunders@canada.ca",
    "approvalsdirector": "scott.aughey@canada.ca",
    "submitername": "Randi Saunders",
    "submiteremail": "randi.saunders@canada.ca",
    "submiterphoneNumber": "613-773-2675",
    "issued": "2019-08-22",
    "translateReqNumber": "190820-17"
}