{
    "dcr_id": "1567024653408",
    "lang": "en",
    "type_name": "intra-intra/news-nouv",
    "approvalsadvisor": "Joy.moskovic@canada.ca",
    "approvalsdirector": "Anne.lacombe@canada.ca",
    "submitername": "Jennifer",
    "submiteremail": "jennifer.mclaurin@canada.ca",
    "submiterphoneNumber": "613-773-0214",
    "issued": "2019-08-29",
    "translateReqNumber": "AAFC-190827-28"
}