{
    "dcr_id": "1567088304131",
    "lang": "en",
    "type_name": "intra-intra/news-nouv",
    "approvalsadvisor": "joy.moskovic@canada.ca",
    "approvalsdirector": "angela.murphy@canada.ca",
    "submitername": "Melanie Saucier",
    "submiteremail": "melanie.saucier@canada.ca",
    "submiterphoneNumber": "613-773-0696",
    "issued": "2019-09-05",
    "translateReqNumber": "AAFC-190807-14 "
}