{
    "dcr_id": "1568206809251",
    "lang": "en",
    "type_name": "intra-intra/news-nouv",
    "approvalsadvisor": "randi.saunders@canada.ca",
    "approvalsdirector": "scott.aughey@canada.ca",
    "submitername": "Randi Saunders",
    "submiteremail": "randi.saunders@canada.ca",
    "submiterphoneNumber": "613-773-2675",
    "issued": "2019-09-12",
    "translateReqNumber": "190910-17"
}