{
    "dcr_id": "1568131051896",
    "lang": "en",
    "type_name": "intra-intra/news-nouv",
    "approvalsadvisor": "justine.walker2@canada.ca",
    "approvalsdirector": "andrew.goldstein@canada.ca",
    "submitername": "Sami Reaz",
    "submiteremail": "sami.reaz2@canada.ca",
    "submiterphoneNumber": "613-773-3130",
    "issued": "2019-09-12",
    "translateReqNumber": "AAFC-190904-33"
}