{
    "dcr_id": "1569954163486",
    "lang": "en",
    "type_name": "intra-intra/news-nouv",
    "approvalsadvisor": "joy.moskovic@canada.ca",
    "approvalsdirector": "Anne.lacombe@canada.ca",
    "submitername": "Jennifer",
    "submiteremail": "jennifer.mclaurin@canada.ca",
    "submiterphoneNumber": "613-773-0214",
    "issued": "2019-10-03",
    "translateReqNumber": "na"
}