{
    "dcr_id": "1569420404100",
    "lang": "en",
    "type_name": "intra-intra/news-nouv",
    "approvalsadvisor": "emily.dipaolo@canada.ca",
    "approvalsdirector": "michel.lessard@canada.ca",
    "submitername": "Tariq Sohail",
    "submiteremail": "tariq.sohail@canada.ca",
    "submiterphoneNumber": "613-773-0377",
    "issued": "2019-09-26",
    "translateReqNumber": "N/A"
}