{
    "dcr_id": "1570644475817",
    "lang": "en",
    "type_name": "intra-intra/news-nouv",
    "approvalsadvisor": "natalie.ekholm@canada.ca",
    "approvalsdirector": "Nina.hamad@canada.ca",
    "submitername": "Natalie Ekholm",
    "submiteremail": "natalie.ekholm@canada.ca",
    "submiterphoneNumber": "613-773-2746",
    "issued": "2019-10-10",
    "translateReqNumber": "Unknown"
}