{
    "dcr_id": "1571841555112",
    "lang": "en",
    "type_name": "intra-intra/news-nouv",
    "approvalsadvisor": "stela.susic@canada.ca",
    "approvalsdirector": "tom.zinck@canada.ca",
    "submitername": "stela susic",
    "submiteremail": "stela.susic@canada.ca",
    "submiterphoneNumber": "613-773-3519",
    "issued": "2019-10-24",
    "translateReqNumber": "191021-31"
}