{
    "dcr_id": "1571837846642",
    "lang": "en",
    "type_name": "intra-intra/news-nouv",
    "approvalsadvisor": "roman.zakaluzny2@canada.ca",
    "approvalsdirector": "jennifer.higginson@canada.ca",
    "submitername": "Kim Meegan",
    "submiteremail": "kim.meegan@canada.ca",
    "submiterphoneNumber": "613-773-2559",
    "issued": "2019-10-24",
    "translateReqNumber": "AAFC-191017-17"
}