{
    "dcr_id": "1572986885498",
    "lang": "en",
    "type_name": "intra-intra/news-nouv",
    "approvalsadvisor": "justine.walker2@canada.ca",
    "approvalsdirector": "jane.taylor@canada.ca",
    "submitername": "Lydia Lipic",
    "submiteremail": "lydia.lipic@canada.ca",
    "submiterphoneNumber": "204-259-5691",
    "issued": "2019-11-07",
    "translateReqNumber": "Please see Justine Walker"
}