{
    "dcr_id": "1572876460483",
    "lang": "en",
    "type_name": "intra-intra/news-nouv",
    "approvalsadvisor": "Justine.Walker@canada.ca",
    "approvalsdirector": "Line.beaudoin@canada.ca",
    "submitername": "Jason",
    "submiteremail": "jason.pepe@canada.ca",
    "submiterphoneNumber": "613-773-1697",
    "issued": "2019-11-07",
    "translateReqNumber": "AAFC-191031-7"
}