{
    "dcr_id": "1572348070607",
    "lang": "en",
    "type_name": "intra-intra/news-nouv",
    "approvalsadvisor": "natalie.ekholm@canada.ca",
    "approvalsdirector": "nathalie.leblanc@canada.ca",
    "submitername": "Alexanne Drouin",
    "submiteremail": "alexanne.drouin@canada.ca",
    "submiterphoneNumber": "613-773-3443",
    "issued": "2019-10-31",
    "translateReqNumber": "AAFC-191028-3"
}