{
    "dcr_id": "1574183706881",
    "lang": "en",
    "type_name": "intra-intra/news-nouv",
    "approvalsadvisor": "jan.cote@canada.ca",
    "approvalsdirector": "francois.eudes@canada.ca",
    "submitername": "Arun Kommadath",
    "submiteremail": "arun.kommadath@canada.ca",
    "submiterphoneNumber": "403-304-9807",
    "issued": "2019-11-20",
    "translateReqNumber": "AAFC-191118-33"
}