{
    "dcr_id": "1574457047249",
    "lang": "en",
    "type_name": "intra-intra/news-nouv",
    "approvalsadvisor": "justine.walker2@canada.ca",
    "approvalsdirector": "lucie.dubois@canada.ca",
    "submitername": "Julie Acheson",
    "submiteremail": "julie.acheson@canada.ca",
    "submiterphoneNumber": "613-773-0916",
    "issued": "2019-11-25",
    "translateReqNumber": "AAFC-191023-30"
}