{
    "dcr_id": "1576007427868",
    "lang": "en",
    "type_name": "intra-intra/news-nouv",
    "approvalsadvisor": "shelley.donaldson2@canada.ca",
    "approvalsdirector": "Anne.lacombe@canada.ca",
    "submitername": "Jennifer",
    "submiteremail": "jennifer.mclaurin@canada.ca",
    "submiterphoneNumber": "613-773-0214",
    "issued": "2019-12-11",
    "translateReqNumber": "191202-8"
}