{
    "dcr_id": "1576516266894",
    "lang": "en",
    "type_name": "intra-intra/news-nouv",
    "approvalsadvisor": "stela.susic@canada.ca",
    "approvalsdirector": "jacint.boucher@canada.ca",
    "submitername": "Marlo Khoury",
    "submiteremail": "marlo.khoury@canada.ca",
    "submiterphoneNumber": "613-773-1638",
    "issued": "2019-12-19",
    "translateReqNumber": "AAFC-191211-25"
}