{
    "dcr_id": "1578499057152",
    "lang": "en",
    "type_name": "intra-intra/news-nouv",
    "approvalsadvisor": "Alexa.Keating@canada.ca",
    "approvalsdirector": "Gilles.Saindon@canada.ca",
    "submitername": "Christine Evans",
    "submiteremail": "Christine.evans@canada.ca",
    "submiterphoneNumber": "613-773-2783",
    "issued": "2020-01-09",
    "translateReqNumber": "AAFC-200102-16"
}