{
    "dcr_id": "1579115065725",
    "lang": "en",
    "type_name": "intra-intra/news-nouv",
    "approvalsadvisor": "natalie.ekholm@canada.ca",
    "approvalsdirector": "nathalie.leblanc@canada.ca",
    "submitername": "Alexanne Drouin",
    "submiteremail": "Alexanne.drouin@canada.ca",
    "submiterphoneNumber": "613-773-3443",
    "issued": "2020-01-23",
    "translateReqNumber": "AAFC-200109-18"
}