{
    "dcr_id": "1580153509768",
    "lang": "en",
    "type_name": "intra-intra/news-nouv",
    "approvalsadvisor": "Roman.zakaluzny2@canada.ca",
    "approvalsdirector": "glenda.taylor@canada.ca",
    "submitername": "Roman Zakaluzny",
    "submiteremail": "roman.zakaluzny2@canada.ca",
    "submiterphoneNumber": "613-773-2779",
    "issued": "2020-01-30",
    "translateReqNumber": "AAFC-200123-48"
}