{
    "dcr_id": "1580230349825",
    "lang": "en",
    "type_name": "intra-intra/news-nouv",
    "approvalsadvisor": "justine.walker2@canada.ca",
    "approvalsdirector": "Jodi.downs@canada.ca",
    "submitername": "Alex Meunier",
    "submiteremail": "alexander.meunier@canada.ca",
    "submiterphoneNumber": "613-773-0650",
    "issued": "2020-01-30",
    "translateReqNumber": "AAFC-200121-14 "
}