{
    "dcr_id": "1582901599410",
    "lang": "en",
    "type_name": "intra-intra/news-nouv",
    "approvalsadvisor": "natalie.ekholm@canada.ca",
    "approvalsdirector": "andrew.goldstein@canada.ca",
    "submitername": "Danielle Cunningham",
    "submiteremail": "danielle.cunningham@canada.ca",
    "submiterphoneNumber": "613-773-3237",
    "issued": "2020-03-05",
    "translateReqNumber": "180522-1"
}