{
    "dcr_id": "1583265683258",
    "lang": "en",
    "type_name": "intra-intra/news-nouv",
    "approvalsadvisor": "natalie.ekholm@canada.ca",
    "approvalsdirector": "daniel.champoux@canada.ca",
    "submitername": "Jonathan Vermeire",
    "submiteremail": "jonathan.vermeire2@canada.ca",
    "submiterphoneNumber": "613-773-3402",
    "issued": "2020-03-05",
    "translateReqNumber": "Translated by Daniel Champoux"
}