{
    "dcr_id": "1583189380585",
    "lang": "en",
    "type_name": "intra-intra/news-nouv",
    "approvalsadvisor": "Janice.hall@canada.ca",
    "approvalsdirector": "Jodi.downs@canada.ca",
    "submitername": "Deb O'Neil",
    "submiteremail": "deborah.oneil@canada.ca",
    "submiterphoneNumber": "613-773-2762",
    "issued": "2020-03-05",
    "translateReqNumber": "will provide to you tomorrow - my colleague has that information"
}