{
    "dcr_id": "1583772534755",
    "lang": "en",
    "type_name": "intra-intra/news-nouv",
    "approvalsadvisor": "Justine.Walker2@canada.ca",
    "approvalsdirector": "Jodi.Downs@canada.ca",
    "submitername": "Gabrielle Lew",
    "submiteremail": "gabrielle.lew@canada.ca",
    "submiterphoneNumber": "613-773-3484",
    "issued": "2020-03-12",
    "translateReqNumber": "000"
}