{
    "dcr_id": "1583181863664",
    "lang": "en",
    "type_name": "intra-intra/news-nouv",
    "approvalsadvisor": "justine.walker2@canada.ca",
    "approvalsdirector": "nina.hamad@canada.ca",
    "submitername": "Tariq Sohail",
    "submiteremail": "tariq.sohail@canada.ca",
    "submiterphoneNumber": "613-773-0377",
    "issued": "2020-03-05",
    "translateReqNumber": "N/A"
}