{
    "dcr_id": "1584015857798",
    "lang": "en",
    "type_name": "intra-intra/news-nouv",
    "approvalsadvisor": "natalie.ekholm@canada.ca",
    "approvalsdirector": "karen.durnford-mcintosh@canada.ca",
    "submitername": "Natalie Ekholm",
    "submiteremail": "natalie.ekholm@canada.ca",
    "submiterphoneNumber": "613-323-0720",
    "issued": "2020-03-12",
    "translateReqNumber": "CFIA"
}