{
    "dcr_id": "1591995103200",
    "lang": "en",
    "type_name": "intra-intra/news-nouv",
    "approvalsadvisor": "michael.pereira@canada.ca",
    "approvalsdirector": "test.test@canada.ca",
    "submitername": "Mike Pereira",
    "submiteremail": "michael.pereira@canada.ca",
    "submiterphoneNumber": "555-555-5555",
    "issued": "2020-06-15",
    "translateReqNumber": "123abc"
}