{
    "dcr_id": "1592248221221",
    "lang": "en",
    "type_name": "intra-intra/news-nouv",
    "approvalsadvisor": "randi.saunders@canada.ca",
    "approvalsdirector": "scott.aughey@canada.ca",
    "submitername": "Randi Saunders",
    "submiteremail": "randi.saunders@canada.ca",
    "submiterphoneNumber": "343-548-2522",
    "issued": "2020-06-18",
    "translateReqNumber": "AAFC 200609-42"
}