{
    "dcr_id": "1592940915311",
    "lang": "en",
    "type_name": "intra-intra/news-nouv",
    "approvalsadvisor": "kathryn.hunt@canada.ca",
    "approvalsdirector": "michel.bouvier@canada.ca",
    "submitername": "Guy Marier",
    "submiteremail": "Guy.Marier@agr.gc.ca",
    "submiterphoneNumber": "613-773-0841",
    "issued": "2020-07-02",
    "translateReqNumber": "AAFC-200623-25"
}