{
    "dcr_id": "1592918061028",
    "lang": "en",
    "type_name": "intra-intra/news-nouv",
    "approvalsadvisor": "alec.nicholls@canada.ca",
    "approvalsdirector": "andrew.goldstein@canada.ca",
    "submitername": "Ricky Lee",
    "submiteremail": "ricky.lee@canada.ca",
    "submiterphoneNumber": "613-790-3684",
    "issued": "2020-06-25",
    "translateReqNumber": "Translation provided by CSPS"
}