{
    "dcr_id": "1595345792355",
    "lang": "en",
    "type_name": "intra-intra/news-nouv",
    "approvalsadvisor": "Sonia.Forget@canada.ca",
    "approvalsdirector": "Christine.walker2@canada.ca",
    "submitername": "Debbie Lockrey-Wessel",
    "submiteremail": "Debbie.lockrey-wessel@canada.ca",
    "submiterphoneNumber": "519-819-2907",
    "issued": "2020-07-21",
    "translateReqNumber": "200720-13"
}