{
    "dcr_id": "1595254302866",
    "lang": "en",
    "type_name": "intra-intra/news-nouv",
    "approvalsadvisor": "Eileen.Rankin@canada.ca",
    "approvalsdirector": "jodi.downs@canada.ca",
    "submitername": "Megan Dybka",
    "submiteremail": "megan.dybka@canada.ca",
    "submiterphoneNumber": "613-773-1941",
    "issued": "2020-07-23",
    "translateReqNumber": "AAFC-200716-10"
}