{
    "dcr_id": "1595339253094",
    "lang": "en",
    "type_name": "intra-intra/news-nouv",
    "approvalsadvisor": "stela.susic@canada.ca",
    "approvalsdirector": "jacint.boucher@canada.ca",
    "submitername": "Midgine Resolus",
    "submiteremail": "midgine.resolus@canada.ca",
    "submiterphoneNumber": "613-853-1582",
    "issued": "2020-07-23",
    "translateReqNumber": "AAFC-200720-24"
}