{
    "dcr_id": "1597846418220",
    "lang": "en",
    "type_name": "intra-intra/news-nouv",
    "approvalsadvisor": "amy.lin@canada.ca",
    "approvalsdirector": "nina.hamad@canada.ca",
    "submitername": "Nicolas Doire",
    "submiteremail": "nicolas.doire@canada.ca",
    "submiterphoneNumber": "613-773-3090",
    "issued": "2020-08-20",
    "translateReqNumber": "AAFC-200814-33"
}