{
    "dcr_id": "1597693359491",
    "lang": "en",
    "type_name": "intra-intra/news-nouv",
    "approvalsadvisor": "amy.lin@canada.ca",
    "approvalsdirector": "nina.hamad@canada.ca",
    "submitername": "amy lin",
    "submiteremail": "amy.lin@canada.ca",
    "submiterphoneNumber": "613-773-2785",
    "issued": "2020-08-20",
    "translateReqNumber": "na"
}