{
    "dcr_id": "1597161901885",
    "lang": "en",
    "type_name": "intra-intra/news-nouv",
    "approvalsadvisor": "haydn.jackson@canada.ca",
    "approvalsdirector": "nina.hamad@canada.ca",
    "submitername": "Haydn Jackson",
    "submiteremail": "haydn.jackson@canada.ca",
    "submiterphoneNumber": "343-571-8562",
    "issued": "2020-08-13",
    "translateReqNumber": "see Haydn for Translation number"
}