{
    "dcr_id": "1598887502217",
    "lang": "en",
    "type_name": "intra-intra/news-nouv",
    "approvalsadvisor": "eileen.rankin@canada.ca",
    "approvalsdirector": "kimberly.saunders@canada.ca",
    "submitername": "Alina Cipcigan",
    "submiteremail": "alina.cipcigan@canada.ca",
    "submiterphoneNumber": "613-292-2942",
    "issued": "2020-09-03",
    "translateReqNumber": "AAFC-200827-3"
}