{
    "dcr_id": "1598966721566",
    "lang": "en",
    "type_name": "intra-intra/news-nouv",
    "approvalsadvisor": "eileen.rankin@canada.ca",
    "approvalsdirector": "jodi.downs@canada.ca",
    "submitername": "gabrielle lew",
    "submiteremail": "gabrielle.lew@canada.ca",
    "submiterphoneNumber": "613-371-8937",
    "issued": "2020-09-03",
    "translateReqNumber": "0"
}