{
    "dcr_id": "1599230386886",
    "lang": "en",
    "type_name": "intra-intra/news-nouv",
    "approvalsadvisor": "sonia.forget@canada.ca",
    "approvalsdirector": "michel.lessard@canada.ca",
    "submitername": "katherine Whybourne",
    "submiteremail": "Katherine.whybourne@canada.ca",
    "submiterphoneNumber": "226-927-2592",
    "issued": "2020-09-10",
    "translateReqNumber": "200902-19"
}