{
    "dcr_id": "1599580348772",
    "lang": "en",
    "type_name": "intra-intra/news-nouv",
    "approvalsadvisor": "shona.milne@canada.ca",
    "approvalsdirector": "kelly.dean@canada.ca",
    "submitername": "Kasia Kaluzny",
    "submiteremail": "kasia.kaluzny@canada.ca",
    "submiterphoneNumber": "613-914-0415",
    "issued": "2020-09-10",
    "translateReqNumber": "AAFC-200904-23"
}