{
    "dcr_id": "1599577319977",
    "lang": "en",
    "type_name": "intra-intra/news-nouv",
    "approvalsadvisor": "justine.walker2@canada.ca",
    "approvalsdirector": "jeff.wilson2@canada.ca",
    "submitername": "Carey Born",
    "submiteremail": "carey.born@canada.ca",
    "submiterphoneNumber": "613-897-6073",
    "issued": "2020-09-10",
    "translateReqNumber": "AAFC-200901-4"
}