{
    "dcr_id": "1599596878643",
    "lang": "en",
    "type_name": "intra-intra/news-nouv",
    "approvalsadvisor": "julie.plamondon@canada.ca",
    "approvalsdirector": "sonia.forget@canada.ca",
    "submitername": "Julie",
    "submiteremail": "julie.plamondon@canada.ca",
    "submiterphoneNumber": "613-890-4864",
    "issued": "2020-09-10",
    "translateReqNumber": "0123"
}