{
    "dcr_id": "1600179183112",
    "lang": "en",
    "type_name": "intra-intra/news-nouv",
    "approvalsadvisor": "Eileen.rankin@canada.ca",
    "approvalsdirector": "Richard.cottingham@canada.ca",
    "submitername": "Jennifer",
    "submiteremail": "jennifer.mclaurin@canada.ca",
    "submiterphoneNumber": "613-878-7730",
    "issued": "2020-09-17",
    "translateReqNumber": "NA"
}