{
    "dcr_id": "1601393312843",
    "lang": "en",
    "type_name": "intra-intra/news-nouv",
    "approvalsadvisor": "jessica.martin@canada.ca",
    "approvalsdirector": "sonia.forget@canada.ca",
    "submitername": "Emily Smyth",
    "submiteremail": "emily.smyth@canada.ca",
    "submiterphoneNumber": "613-293-5290",
    "issued": "2020-10-01",
    "translateReqNumber": "AAFC-200924-28"
}