{
    "dcr_id": "1601921611591",
    "lang": "en",
    "type_name": "intra-intra/news-nouv",
    "approvalsadvisor": "eileen.rankin@canada.ca",
    "approvalsdirector": "karen.durnford-mcintosh@canada.ca",
    "submitername": "Jennifer",
    "submiteremail": "jennifer.mclaurin@canada.ca",
    "submiterphoneNumber": "613-878-7730",
    "issued": "2020-10-06",
    "translateReqNumber": "21005-19"
}