{
    "dcr_id": "1603834304070",
    "urlEn": [
        "https://intranet.agr.gc.ca/resources/prod/news/images/jonathan-600px.jpg"
    ],
    "urlFr": [
        "https://intranet.agr.gc.ca/resources/prod/news/images/jonathan-600px.jpg"
    ]
}