{
    "dcr_id": "1603828475734",
    "urlEn": [
        "https://intranet.agr.gc.ca/resources/prod/news/images/charting-EN.png"
    ],
    "urlFr": [
        "https://intranet.agr.gc.ca/resources/prod/news/images/charting-EN.png"
    ]
}