{
    "dcr_id": "1603724066678",
    "urlEn": [
        "https://intranet.agr.gc.ca/resources/prod/news/images/GCWCC2019-EN.png"
    ],
    "urlFr": [
        "https://intranet.agr.gc.ca/resources/prod/news/images/GCWCC2019-FR.png"
    ]
}