{
    "dcr_id": "1603214776034",
    "urlEn": [
        "https://intranet.agr.gc.ca/resources/prod/news/images/LockScreen2.jpg"
    ],
    "urlFr": [
        "https://intranet.agr.gc.ca/resources/prod/news/images/LockScreen2.jpg"
    ]
}