{
    "dcr_id": "1603283963979",
    "urlEn": [
        "https://intranet.agr.gc.ca/resources/prod/news/images/PayBulletin-EN.png"
    ],
    "urlFr": [
        "https://intranet.agr.gc.ca/resources/prod/news/images/PayBulletin-FR.png"
    ]
}